
 Primary working directories    : /local
 Secondary working directories  : /local
 Wavefunction directory         : /local/
 Main file repository           : /local/

 SHA1      : b4a5b34a9e711420743f49e6833241d17c61fb3c
 NAME      : 2099.9.b4a5b34
 ARCHNAME  : linux/x86_64_openmp
 FC        : /cm/shared/languages/GCC-6.1/bin/gfortran
 BLASLIB   : -lblas
 id        : simonbennie

 Nodes     nprocs
 node32-026    1

 Using customized tuning parameters: mindgm=1; mindgv=20; mindgc=4; mindgr=1; noblas=0; minvec=7
 default implementation of scratch files=df  

 memory,500,m
 geomtyp=xyz
 nosym
 noorient
 geometry={
 C          0.00000        0.00000        0.00000
 C          0.00000        0.00000        1.49014
 H          1.01377        0.00000        1.89114
 H         -0.84855        0.37413       -0.55287
 H         -0.50106       -0.88768        1.89585
 H         -0.52501        0.86748        1.89105
 H          0.77218       -0.51270       -0.55357
 }
 basis={ default,qzvp }
 {hf,direct;wf,17,1,1}
 {df-ks,B-LYP,direct;maxit,0;wf,17,1,1}
 {ibba,bonds=1}

 Variables initialized (895), CPU time= 0.00 sec
 Commands  initialized (725), CPU time= 0.02 sec, 591 directives.
 Default parameters read. Elapsed time= 0.08 sec

 Checking input...
 Passed
1


                                         ***  PROGRAM SYSTEM MOLPRO  ***
                                       Copyright, TTI GmbH Stuttgart, 2015
                                    Version 2099.9 linked May 26 2017 16:03:21


 **********************************************************************************************************************************
 LABEL *                                                                                 
  64 bit serial version                                                                  DATE: 09-Mar-18          TIME: 21:52:57  
 **********************************************************************************************************************************

 SHA1:             b4a5b34a9e711420743f49e6833241d17c61fb3c
 **********************************************************************************************************************************
 SETTING GEOMTYP        =    XYZ

 Variable memory set to  500000000 words,  buffer space 

 ZSYMEL=NOSYM

 SETTING BASIS          =    QZVP


 Recomputing integrals since basis changed


 Using spherical harmonics

 Library entry C      S def2-QZVP            selected for orbital group  1
 Library entry C      P def2-QZVP            selected for orbital group  1
 Library entry C      D def2-QZVP            selected for orbital group  1
 Library entry C      F def2-QZVP            selected for orbital group  1
 Library entry C      G def2-QZVP            selected for orbital group  1
 Library entry H      S def2-QZVP            selected for orbital group  2
 Library entry H      P def2-QZVP            selected for orbital group  2
 Library entry H      D def2-QZVP            selected for orbital group  2
 Library entry H      F def2-QZVP            selected for orbital group  2


 PROGRAM * SEWARD (Integral evaluation for generally contracted gaussian basis sets)     Author: Roland Lindh, 1990

 Geometry written to block  1 of record 700


 Point group  C1  



 ATOMIC COORDINATES

 NR  ATOM    CHARGE       X              Y              Z

   1  C       6.00    0.000000000    0.000000000    0.000000000
   2  C       6.00    0.000000000    0.000000000    2.815956487
   3  H       1.00    1.915747653    0.000000000    3.573736663
   4  H       1.00   -1.603527103    0.707003235   -1.044772882
   5  H       1.00   -0.946866172   -1.677472086    3.582637273
   6  H       1.00   -0.992125113    1.639299619    3.573566588
   7  H       1.00    1.459208719   -0.968862584   -1.046095691

 Bond lengths in Bohr (Angstrom)

 1-2  2.815956487  1-4  2.040270355  1-7  2.040171803  2-3  2.060174717  2-5  2.073226369
     ( 1.490140000)     ( 1.079664576)     ( 1.079612425)     ( 1.090197511)     ( 1.097104147)

 2-6  2.060482600
     ( 1.090360435)

 Bond angles

  1-2-3  111.58143444   1-2-5  111.70333312   1-2-6  111.57296243   2-1-4  120.80219065

  2-1-7  120.84710155   3-2-5  106.77850698   3-2-6  108.21011696   4-1-7  117.65385746

  5-2-6  106.72891007

 NUCLEAR CHARGE:                   17
 NUMBER OF PRIMITIVE AOS:         374
 NUMBER OF SYMMETRY AOS:          319
 NUMBER OF CONTRACTIONS:          264   ( 264A   )
 NUMBER OF CORE ORBITALS:           2   (   2A   )
 NUMBER OF VALENCE ORBITALS:       13   (  13A   )


 NUCLEAR REPULSION ENERGY   36.98165179


 Eigenvalues of metric

         1 0.110E-03 0.130E-03 0.130E-03 0.135E-03 0.166E-03 0.196E-03 0.704E-03 0.734E-03


 Contracted 2-electron integrals neglected if value below      1.0D-11
 AO integral compression algorithm  1   Integral accuracy      1.0D-11

     2239.496 MB (compressed) written to integral file ( 41.3%)


 NUMBER OF SORTED TWO-ELECTRON INTEGRALS:  611817690.     BUFFER LENGTH:  32768
 NUMBER OF SEGMENTS:  39  SEGMENT LENGTH:   15999762      RECORD LENGTH: 262144

 Memory used in sort:      16.29 MW

 SORT1 READ   678438667. AND WROTE   533093496. INTEGRALS IN   3069 RECORDS. CPU TIME:     8.15 SEC, REAL TIME:   101.92 SEC
 SORT2 READ   533093496. AND WROTE   611817690. INTEGRALS IN   8543 RECORDS. CPU TIME:    13.18 SEC, REAL TIME:   164.99 SEC

 FILE SIZES:   FILE 1:  2272.1 MBYTE,  FILE 4:  6436.2 MBYTE,   TOTAL:   8708.3 MBYTE

 OPERATOR DM      FOR CENTER  0  COORDINATES:    0.000000    0.000000    0.000000


 **********************************************************************************************************************************
 DATASETS  * FILE   NREC   LENGTH (MB)   RECORD NAMES
              1      19     2066.98       500      610      700      900      950      970     1000      129      960     1100   
                                          VAR    BASINP    GEOM    SYMINP    ZMAT    AOBASIS   BASIS     P2S    ABASIS      S 
                                         1400     1410     1200     1210     1080     1600     1650     1300     1700   
                                           T        V       H0       H01     AOSYM     SMH    MOLCAS    ERIS     OPER   

 PROGRAMS   *        TOTAL       INT
 CPU TIMES  *        51.57     51.42
 REAL TIME  *       321.84 SEC
 DISK USED  *         8.71 GB      
 **********************************************************************************************************************************


 PROGRAM * RHF-SCF (OPEN SHELL)       Authors: W. Meyer, H.-J. Werner


 NUMBER OF ELECTRONS:       9+    8-    SPACE SYMMETRY=1    SPIN SYMMETRY: Doublet 
 CONVERGENCE THRESHOLDS:    1.00E-05 (Density)    1.00E-07 (Energy)
 INTEGRAL THRESHOLDS:       1.00E-11 (Initial)    1.00E-11 (Final)
 MAX. NUMBER OF ITERATIONS:       60
 INTERPOLATION TYPE:            DIIS
 INTERPOLATION STEPS:              2 (START)      1 (STEP)
 LEVEL SHIFTS:                 -0.60 (CLOSED) -0.30 (OPEN) 



 Orbital guess generated from atomic densities. Full valence occupancy:    9

 Molecular orbital dump at record        2100.2

 Initial alpha occupancy:   9
 Initial beta  occupancy:   8
 Wave function symmetry:    1

 Direct Fock-matrix evaluation.        Author: H.-J. Werner (1996)

 Integral Threshold:                  0.1D-10

 ITERATION   DDIFF            GRAD            ENERGY        2-EL.EN.            DIPOLE MOMENTS         DIIS   CPU(IT)  CPU(TOT)
    1      0.000D+00      0.000D+00       -78.59693658    125.443151   -0.05070   -0.08882    0.30484    0     32.2     35.2     start
    2      0.000D+00      0.247D-02       -78.62008719    124.579978   -0.03297   -0.05876    0.17327    1     31.7     66.9     diag,B
    3      0.389D-03      0.105D-02       -78.62714825    124.632793   -0.02830   -0.05098    0.11319    2     31.5     98.5     diag,B
    4      0.236D-03      0.455D-03       -78.62912113    124.651676   -0.02605   -0.04719    0.08311    3     31.6    130.0     diag,B
    5      0.200D-03      0.135D-03       -78.62930890    124.652009   -0.02497   -0.04533    0.07577    4     31.3    161.4     diag,B
    6      0.123D-03      0.402D-04       -78.62932556    124.650102   -0.02443   -0.04438    0.07417    5     31.2    192.6     diag,B
    7      0.601D-04      0.126D-04       -78.62932731    124.649610   -0.02417   -0.04392    0.07384    6     30.8    223.4     fixocc
    8      0.189D-04      0.478D-05       -78.62932766    124.649572   -0.02404   -0.04368    0.07376    7     30.6    254.0     diag,B
    9      0.100D-04      0.205D-05       -78.62932775    124.649581   -0.02396   -0.04353    0.07375    8     30.4    284.4     diag,B
   10      0.510D-05      0.781D-06       -78.62932776    124.649580   -0.02393   -0.04349    0.07375    0     29.5    313.9     orth

 Final alpha occupancy:   9
 Final beta  occupancy:   8

 !RHF STATE 1.1 Energy                -78.629327758395
 Nuclear energy                        36.98165179
 One-electron energy                 -177.93576938
 Two-electron energy                   62.32478984
 Virial quotient                       -1.00077325
 !RHF STATE 1.1 Dipole moment          -0.02393347    -0.04348582     0.07375171
 Dipole moment /Debye                  -0.06082882    -0.11052269     0.18744587

 Orbital energies:

         1.1          2.1          3.1          4.1          5.1          6.1          7.1          8.1          9.1         10.1
    -11.218346   -11.217641    -1.008584    -0.815414    -0.613412    -0.555826    -0.535957    -0.502590    -0.350649     0.113630

        11.1
      0.131980

 HOMO      9.1    -0.350649 =      -9.5416eV
 LUMO     10.1     0.113630 =       3.0920eV
 LUMO-HOMO         0.464279 =      12.6337eV


 **********************************************************************************************************************************
 DATASETS  * FILE   NREC   LENGTH (MB)   RECORD NAMES
              1      19     2066.98       500      610      700      900      950      970     1000      129      960     1100   
                                          VAR    BASINP    GEOM    SYMINP    ZMAT    AOBASIS   BASIS     P2S    ABASIS      S 
                                         1400     1410     1200     1210     1080     1600     1650     1300     1700   
                                           T        V       H0       H01     AOSYM     SMH    MOLCAS    ERIS     OPER   

              2       4        4.85       700     1000      520     2100   
                                         GEOM     BASIS   MCVARS     RHF  

 PROGRAMS   *        TOTAL        HF       INT
 CPU TIMES  *       365.54    313.97     51.42
 REAL TIME  *      2278.49 SEC
 DISK USED  *         8.71 GB      
 **********************************************************************************************************************************

 Density functional group B-LYP=B88+LYP
 Functional: B88(Automatically generated (new) B88)                            Gradient terms: 1
 Functional: LYP(Automatically generated (new) LYP)                            Gradient terms: 1
 Use grid at  1800.2

 Functional: B88                       Factor:  1.0000
 Functional: LYP                       Factor:  1.0000

 Generated new metagrid on record  1800.2 with target accuracy 1.0D-06 and 25038 points in CPU time    0.5
 Computed new grid on record 1800.1 in CPU time    0.6
  213666 words reserved for DFT integration

 PROGRAM * RKS-SCF (Restricted open shell Kohn-Sham)     Authors: W. Meyer, H.-J. Werner, P.J. Knowles, 1993

 NUMBER OF ELECTRONS:       9+    8-    SPACE SYMMETRY=1    SPIN SYMMETRY: Doublet 
 CONVERGENCE THRESHOLDS:    1.00E-05 (Density)    1.00E-06 (Energy)
 INTEGRAL THRESHOLDS:       1.00E-11 (Initial)    1.00E-11 (Final)
 MAX. NUMBER OF ITERATIONS:        0
 INTERPOLATION TYPE:            DIIS
 INTERPOLATION STEPS:              2 (START)      1 (STEP)
 LEVEL SHIFTS:                 -0.60 (CLOSED) -0.30 (OPEN) 



 Use fine grid record 1800.2 for energy threshold  1.0D-06

 Basis set DEF2-QZVPP/JFIT generated.    Number of basis functions:   153 
 Coulomb fitting
 Screening thresholds:    THRAO_COUL= 1.0D-14    THRAO= 1.0D-12    THROV= 1.0D-12

 Reserved 6 MW to cache 100.0% of significant integrals. CPU: 0.2 sec

 Molecular orbitals read from record     2100.2  Type=RHF/CANONICAL (state 1.1)

 Molecular orbital dump at record        2101.2

 ITERATION   DDIFF            GRAD            ENERGY        2-EL.EN.            DIPOLE MOMENTS         DIIS   CPU(IT)  CPU(TOT)  ORB.
    1      0.000D+00      0.000D+00       -79.11988995    148.936834   -0.02393   -0.04349    0.07375    0      2.9      3.2     start

 Final alpha occupancy:   9
 Final beta  occupancy:   8

 !RKS STATE 1.1 Energy                -79.119889948028
 Nuclear energy                        36.98165179
 One-electron energy                 -177.93576938
 Two-electron energy                   74.46841720
 Density functional                   -12.63418955     B88=-12.11795852 LYP= -0.51623104
 Virial quotient                       -1.00701700
 !RKS STATE 1.1 Dipole moment          -0.02393347    -0.04348582     0.07375171
 Dipole moment /Debye                  -0.06082882    -0.11052269     0.18744587

 Orbital energies:

         1.1          2.1          3.1          4.1          5.1          6.1          7.1          8.1          9.1         10.1
    -11.218346   -11.217641    -1.008584    -0.815414    -0.613412    -0.555826    -0.535957    -0.502590    -0.350649     0.113630

        11.1
      0.131980

 HOMO      9.1    -0.350649 =      -9.5416eV
 LUMO     10.1     0.113630 =       3.0920eV
 LUMO-HOMO         0.464279 =      12.6337eV


 **********************************************************************************************************************************
 DATASETS  * FILE   NREC   LENGTH (MB)   RECORD NAMES
              1      20     2067.79       500      610      700      900      950      970     1000      129      960     1100   
                                          VAR    BASINP    GEOM    SYMINP    ZMAT    AOBASIS   BASIS     P2S    ABASIS      S 
                                         1400     1410     1200     1210     1080     1600     1650     1300     1700     1800   
                                           T        V       H0       H01     AOSYM     SMH    MOLCAS    ERIS     OPER     GRID   

              2       6       10.15       700     1000      520     2100     1800     2101   
                                         GEOM     BASIS   MCVARS     RHF     GRID      RKS  

 PROGRAMS   *        TOTAL        KS        HF       INT
 CPU TIMES  *       369.33      3.79    313.97     51.42
 REAL TIME  *      2301.27 SEC
 DISK USED  *         8.71 GB      
 **********************************************************************************************************************************


 PROGRAM * Intrinsic Basis Bonding Analysis (IBBA)          Author: G. Knizia

 Molecular orbitals read from record     2101.2  Type=RKS/CANONICAL (state 1.1)
 Fock matrix read from record            2101.2  Type=RKS/TOTAL (state 1.1)
 Orbital energies read from record       2101.2  Type=RKS/CANONICAL (state 1.1)
 Density matrix read from record         2101.2  Type=RKS/CHARGE (state 1.1)

 Number of core orbitals:           2 (   2 )
 Number of closed-shell orbitals:   6 (   6 )
 Number of active  orbitals:        1 (   1 )

 Basis set MINAO-AUTO-PP generated.      Number of basis functions:   15 

 Polarized AO type:                A = (O Ot + (1-O)(1-Ot)) P12
 Orthogonalization method:         Symmetric (Loewdin)
 Localization functional:          L = sum[A,i] <i|n_A|i>^4 -> max

 Localization group 1:   8 orbitals, occupancy  2.000
 Iterative localization: IB/PM,    6 iter; Final gradient 0.15E-08

 Bond order analysis:       [THRPRINT= 0.020]

   CEN ATOM   CEN ATOM     WIBERG.BO      RENORM.BO
     1   C  -   2   C       1.074811       2.016951
     1   C  -   7   H       0.969841       0.986149
     1   C  -   4   H       0.969826       0.986071
     1   C  -   5   H       0.027343       0.672325

     2   C  -   1   C       1.074811       2.016951
     2   C  -   3   H       0.963320       0.991129
     2   C  -   6   H       0.962833       0.991317
     2   C  -   5   H       0.945018       0.999039

     3   H  -   2   C       0.963320       0.991129

     4   H  -   1   C       0.969826       0.986071

     5   H  -   2   C       0.945018       0.999039
     5   H  -   1   C       0.027343       0.672325

     6   H  -   2   C       0.962833       0.991317

     7   H  -   1   C       0.969841       0.986149


 Valency analysis:

   CEN ATOM   TOT.VALENCE
     1   C       3.054118
     2   C       3.947679
     3   H       0.981813
     4   H       0.982090
     5   H       0.976059
     6   H       0.981665
     7   H       0.982050
 Localization group 2:   1 orbitals, occupancy  1.000
 Iterative localization: IB/PM,    1 iter; Final gradient 0.00E+00

 Bond order analysis:       [THRPRINT= 0.020]

   CEN ATOM   CEN ATOM     WIBERG.BO      RENORM.BO
     1   C  -   5   H       0.055335       0.500000




     5   H  -   1   C       0.055335       0.500000




 Valency analysis:

   CEN ATOM   TOT.VALENCE
     1   C       0.079992
     2   C       0.001522
     3   H       0.011148
     4   H       0.000341
     5   H       0.056078
     6   H       0.012237
     7   H       0.000343

 Total charge composition:

   CEN ATOM         s          p       ELECTRONS ->P.CHARGE
     1   C       3.06473    3.21805      6.28278   -0.28278
     2   C       3.02175    3.34729      6.36904   -0.36904
     3   H       0.87075                 0.87075    0.12925
     4   H       0.86634                 0.86634    0.13366
     5   H       0.87414                 0.87414    0.12586
     6   H       0.87075                 0.87075    0.12925
     7   H       0.86619                 0.86619    0.13381

 Total charge composition, AO contributions:

   CEN ATOM SHL      SPHERICAL COMPONENTS
     1   C  1s       1.99144
     1   C  2s       1.07329
     1   C  2p       1.11998    1.03859    1.05948

     2   C  1s       1.98972
     2   C  2s       1.03204
     2   C  2p       1.14976    1.14649    1.05103

     3   H  1s       0.87075

     4   H  1s       0.86634

     5   H  1s       0.87414

     6   H  1s       0.87075

     7   H  1s       0.86619

 Active orbital charges:

   CEN ATOM         s          p       ELECTRONS ->SPIN.DEN
     1   C       0.00410    0.95416      0.95826    0.95826
     2   C       0.00003    0.00073      0.00076    0.00076
     3   H       0.00561                 0.00561    0.00561
     4   H       0.00017                 0.00017    0.00017
     5   H       0.02887                 0.02887    0.02887
     6   H       0.00616                 0.00616    0.00616
     7   H       0.00017                 0.00017    0.00017

 Active orbital charges, AO contributions:

   CEN ATOM SHL      SPHERICAL COMPONENTS
     1   C  1s       0.00000
     1   C  2s       0.00409
     1   C  2p       0.21929    0.73232    0.00255

     2   C  1s       0.00000
     2   C  2s       0.00003
     2   C  2p       0.00015    0.00049    0.00009

     3   H  1s       0.00561

     4   H  1s       0.00017

     5   H  1s       0.02887

     6   H  1s       0.00616

     7   H  1s       0.00017

 Summary of localized orbital composition:   [THRPRINT= 0.020]

   ORB  GRP  ORB.ENERGY      CENTERS/CHARGES
     1   1    -9.828334      C  1   2.000
     2   1    -9.816519      C  2   2.000
     3   1    -0.554784      C  1   1.004   C  2   0.994
     4   1    -0.475699      C  1   1.134   H  7   0.862
     5   1    -0.475648      C  1   1.134   H  4   0.862
     6   1    -0.451888      C  2   1.122   H  5   0.844   C  1   0.033
     7   1    -0.449914      C  2   1.124   H  6   0.861
     8   1    -0.449888      C  2   1.124   H  3   0.862
     9   2    -0.130055      C  1   0.958   H  5   0.029

 Localized orbitals saved to record      2101.2  (orbital set 2)


 **********************************************************************************************************************************
 DATASETS  * FILE   NREC   LENGTH (MB)   RECORD NAMES
              1      20     2067.79       500      610      700      900      950      970     1000      129      960     1100   
                                          VAR    BASINP    GEOM    SYMINP    ZMAT    AOBASIS   BASIS     P2S    ABASIS      S 
                                         1400     1410     1200     1210     1080     1600     1650     1300     1700     1800   
                                           T        V       H0       H01     AOSYM     SMH    MOLCAS    ERIS     OPER     GRID   

              2       6       10.72       700     1000      520     2100     1800     2101   
                                         GEOM     BASIS   MCVARS     RHF     GRID      RKS  

 PROGRAMS   *        TOTAL      IBBA        KS        HF       INT
 CPU TIMES  *       369.40      0.07      3.79    313.97     51.42
 REAL TIME  *      2301.44 SEC
 DISK USED  *         8.71 GB      
 **********************************************************************************************************************************

 IBBA/QZVP energy=      0.000000000000

        DF-KS           HF-SCF  
    -79.11988995    -78.62932776
 **********************************************************************************************************************************
 Molpro calculation terminated
