
 Primary working directories    : /local
 Secondary working directories  : /local
 Wavefunction directory         : /local/
 Main file repository           : /local/

 SHA1      : b4a5b34a9e711420743f49e6833241d17c61fb3c
 NAME      : 2099.9.b4a5b34
 ARCHNAME  : linux/x86_64_openmp
 FC        : /cm/shared/languages/GCC-6.1/bin/gfortran
 BLASLIB   : -lblas
 id        : simonbennie

 Nodes     nprocs
 node32-029    1

 Using customized tuning parameters: mindgm=1; mindgv=20; mindgc=4; mindgr=1; noblas=0; minvec=7
 default implementation of scratch files=df  

 memory,500,m
 geomtyp=xyz
 nosym
 noorient
 geometry={
 C          0.00000        0.00000        0.00000
 C          0.00000        0.00000        1.49014
 H          1.01377        0.00000        1.89114
 H         -0.84855        0.37413       -0.55287
 H         -0.50106       -0.88768        1.89585
 H         -0.52501        0.86748        1.89105
 H          0.77218       -0.51270       -0.55357
 }
 basis={ default,avdz }
 {ks,M05-2X,direct;wf,17,1,1}
 {ibba,bonds=1}

 Variables initialized (895), CPU time= 0.01 sec
 Commands  initialized (725), CPU time= 0.01 sec, 591 directives.
 Default parameters read. Elapsed time= 0.07 sec

 Checking input...
 Passed
1


                                         ***  PROGRAM SYSTEM MOLPRO  ***
                                       Copyright, TTI GmbH Stuttgart, 2015
                                    Version 2099.9 linked May 26 2017 16:03:21


 **********************************************************************************************************************************
 LABEL *                                                                                 
  64 bit serial version                                                                  DATE: 19-Jun-17          TIME: 14:13:17  
 **********************************************************************************************************************************

 SHA1:             b4a5b34a9e711420743f49e6833241d17c61fb3c
 **********************************************************************************************************************************
 SETTING GEOMTYP        =    XYZ

 Variable memory set to  500000000 words,  buffer space 

 ZSYMEL=NOSYM

 SETTING BASIS          =    AVDZ


 Recomputing integrals since basis changed


 Using spherical harmonics

 Library entry C      S aug-cc-pVDZ          selected for orbital group  1
 Library entry C      P aug-cc-pVDZ          selected for orbital group  1
 Library entry C      D aug-cc-pVDZ          selected for orbital group  1
 Library entry H      S aug-cc-pVDZ          selected for orbital group  2
 Library entry H      P aug-cc-pVDZ          selected for orbital group  2


 PROGRAM * SEWARD (Integral evaluation for generally contracted gaussian basis sets)     Author: Roland Lindh, 1990

 Geometry written to block  1 of record 700


 Point group  C1  



 ATOMIC COORDINATES

 NR  ATOM    CHARGE       X              Y              Z

   1  C       6.00    0.000000000    0.000000000    0.000000000
   2  C       6.00    0.000000000    0.000000000    2.815956487
   3  H       1.00    1.915747653    0.000000000    3.573736663
   4  H       1.00   -1.603527103    0.707003235   -1.044772882
   5  H       1.00   -0.946866172   -1.677472086    3.582637273
   6  H       1.00   -0.992125113    1.639299619    3.573566588
   7  H       1.00    1.459208719   -0.968862584   -1.046095691

 Bond lengths in Bohr (Angstrom)

 1-2  2.815956487  1-4  2.040270355  1-7  2.040171803  2-3  2.060174717  2-5  2.073226369
     ( 1.490140000)     ( 1.079664576)     ( 1.079612425)     ( 1.090197511)     ( 1.097104147)

 2-6  2.060482600
     ( 1.090360435)

 Bond angles

  1-2-3  111.58143444   1-2-5  111.70333312   1-2-6  111.57296243   2-1-4  120.80219065

  2-1-7  120.84710155   3-2-5  106.77850698   3-2-6  108.21011696   4-1-7  117.65385746

  5-2-6  106.72891007

 NUCLEAR CHARGE:                   17
 NUMBER OF PRIMITIVE AOS:         129
 NUMBER OF SYMMETRY AOS:          125
 NUMBER OF CONTRACTIONS:           91   (  91A   )
 NUMBER OF CORE ORBITALS:           2   (   2A   )
 NUMBER OF VALENCE ORBITALS:       13   (  13A   )


 NUCLEAR REPULSION ENERGY   36.98165179

 Eigenvalues of metric

         1 0.217E-03 0.250E-03 0.481E-03 0.646E-03 0.856E-03 0.868E-03 0.104E-02 0.223E-02


 Contracted 2-electron integrals neglected if value below      1.0D-11
 AO integral compression algorithm  1   Integral accuracy      1.0D-11

     43.778 MB (compressed) written to integral file ( 51.5%)


 NUMBER OF SORTED TWO-ELECTRON INTEGRALS:    8763391.     BUFFER LENGTH:  32768
 NUMBER OF SEGMENTS:   1  SEGMENT LENGTH:    8763391      RECORD LENGTH: 524288

 Memory used in sort:       9.32 MW

 SORT1 READ    10598304. AND WROTE     8016709. INTEGRALS IN     23 RECORDS. CPU TIME:     0.10 SEC, REAL TIME:     0.21 SEC
 SORT2 READ     8016709. AND WROTE     8763391. INTEGRALS IN    167 RECORDS. CPU TIME:     0.28 SEC, REAL TIME:     0.35 SEC

 FILE SIZES:   FILE 1:    74.1 MBYTE,  FILE 4:    96.5 MBYTE,   TOTAL:    170.6 MBYTE

 OPERATOR DM      FOR CENTER  0  COORDINATES:    0.000000    0.000000    0.000000


 **********************************************************************************************************************************
 DATASETS  * FILE   NREC   LENGTH (MB)   RECORD NAMES
              1      19       67.67       500      610      700      900      950      970     1000      129      960     1100   
                                          VAR    BASINP    GEOM    SYMINP    ZMAT    AOBASIS   BASIS     P2S    ABASIS      S 
                                         1400     1410     1200     1210     1080     1600     1650     1300     1700   
                                           T        V       H0       H01     AOSYM     SMH    MOLCAS    ERIS     OPER   

 PROGRAMS   *        TOTAL       INT
 CPU TIMES  *         1.22      1.09
 REAL TIME  *         1.77 SEC
 DISK USED  *       171.04 MB      
 **********************************************************************************************************************************

 Density functional group M05-2X=XC-M05-2X
 Functional: XC-M05-2X(via MFM 1.6)                                            Gradient terms: 1
 Use grid at  1800.2


 Exact exchange will be calculated, factor:  0.5600

 Functional: XC-M05-2X                 Factor:  1.0000

 Generated new metagrid on record  1800.2 with target accuracy 1.0D-06 and 22862 points in CPU time    0.5
 Computed new grid on record 1800.1 in CPU time    0.5
   76285 words reserved for DFT integration

 PROGRAM * RKS-SCF (Restricted open shell Kohn-Sham)     Authors: W. Meyer, H.-J. Werner, P.J. Knowles, 1993

 NUMBER OF ELECTRONS:       9+    8-    SPACE SYMMETRY=1    SPIN SYMMETRY: Doublet 
 CONVERGENCE THRESHOLDS:    1.00E-05 (Density)    1.00E-06 (Energy)
 MAX. NUMBER OF ITERATIONS:       60
 INTERPOLATION TYPE:            DIIS
 INTERPOLATION STEPS:              2 (START)      1 (STEP)
 LEVEL SHIFTS:                 -0.60 (CLOSED) -0.30 (OPEN) 



 Use fine grid record 1800.2 for energy threshold  1.0D-06
 Orbital guess generated from atomic densities. Full valence occupancy:   15

 Molecular orbital dump at record        2100.2

 Initial alpha occupancy:   9
 Initial beta  occupancy:   8
 Wave function symmetry:    1

 ITERATION    DDIFF          GRAD             ENERGY        2-EL.EN.            DIPOLE MOMENTS         DIIS   ORB.
    1      0.000D+00      0.000D+00       -79.12338595    138.621761   -0.05414   -0.09511    0.30385    0    start
    2      0.000D+00      0.663D-02       -79.15920914    135.198610   -0.03094   -0.05348    0.17660    1    diag,B
    3      0.145D-01      0.162D-02       -79.16198040    135.613352   -0.03140   -0.05449    0.15681    2    diag,B
    4      0.333D-02      0.563D-03       -79.16283150    135.575560   -0.03016   -0.05210    0.13567    3    diag,B
    5      0.153D-02      0.159D-03       -79.16291046    135.570221   -0.02999   -0.05171    0.13144    4    diag,B
    6      0.588D-03      0.430D-04       -79.16292277    135.570525   -0.02998   -0.05168    0.13118    5    diag,B
    7      0.144D-03      0.138D-04       -79.16292620    135.570406   -0.02991   -0.05155    0.13104    6    fixocc
    8      0.768D-04      0.478D-05       -79.16292913    135.570505   -0.02987   -0.05148    0.13101    7    diag,B
    9      0.380D-04      0.144D-05       -79.16293033    135.570528   -0.02984   -0.05143    0.13098    8    diag,B
   10      0.130D-04      0.377D-06       -79.16293071    135.570527   -0.02983   -0.05142    0.13098    9    orth
   11      0.333D-05      0.120D-06       -79.16293076    135.570527   -0.02983   -0.05141    0.13097    0    orth

 Final alpha occupancy:   9
 Final beta  occupancy:   8

 !RKS STATE 1.1 Energy                -79.162930762482
 Nuclear energy                        36.98165179
 One-electron energy                 -178.03378273
 Two-electron energy                   67.78526357
 Density functional                    -5.89606338     XC-M05-2X=-5.89606338
 Virial quotient                       -1.00807067
 !RKS STATE 1.1 Dipole moment          -0.02983015    -0.05141254     0.13097440
 Dipole moment /Debye                  -0.07581572    -0.13066907     0.33288192

 Orbital energies:

         1.1          2.1          3.1          4.1          5.1          6.1          7.1          8.1          9.1         10.1
    -10.574651   -10.571707    -0.854909    -0.690504    -0.525646    -0.477125    -0.456642    -0.423124    -0.257563     0.026275

        11.1
      0.043339

 HOMO      9.1    -0.257563 =      -7.0087eV
 LUMO     10.1     0.026275 =       0.7150eV
 LUMO-HOMO         0.283838 =       7.7236eV


 **********************************************************************************************************************************
 DATASETS  * FILE   NREC   LENGTH (MB)   RECORD NAMES
              1      20       68.41       500      610      700      900      950      970     1000      129      960     1100   
                                          VAR    BASINP    GEOM    SYMINP    ZMAT    AOBASIS   BASIS     P2S    ABASIS      S 
                                         1400     1410     1200     1210     1080     1600     1650     1300     1700     1800   
                                           T        V       H0       H01     AOSYM     SMH    MOLCAS    ERIS     OPER     GRID   

              2       5        3.09       700     1000      520     1800     2100   
                                         GEOM     BASIS   MCVARS    GRID      RKS  

 PROGRAMS   *        TOTAL        KS       INT
 CPU TIMES  *        23.25     22.03      1.09
 REAL TIME  *        24.79 SEC
 DISK USED  *       171.04 MB      
 **********************************************************************************************************************************


 PROGRAM * Intrinsic Basis Bonding Analysis (IBBA)          Author: G. Knizia

 Molecular orbitals read from record     2100.2  Type=RKS/CANONICAL (state 1.1)
 Fock matrix read from record            2100.2  Type=RKS/TOTAL (state 1.1)
 Orbital energies read from record       2100.2  Type=RKS/CANONICAL (state 1.1)
 Density matrix read from record         2100.2  Type=RKS/CHARGE (state 1.1)

 Number of core orbitals:           2 (   2 )
 Number of closed-shell orbitals:   6 (   6 )
 Number of active  orbitals:        1 (   1 )

 Basis set MINAO-AUTO-PP generated.      Number of basis functions:   15 

 Polarized AO type:                A = (O Ot + (1-O)(1-Ot)) P12
 Orthogonalization method:         Symmetric (Loewdin)
 Localization functional:          L = sum[A,i] <i|n_A|i>^4 -> max

 Localization group 1:   8 orbitals, occupancy  2.000
 Iterative localization: IB/PM,    6 iter; Final gradient 0.27E-08

 Bond order analysis:       [THRPRINT= 0.020]

   CEN ATOM   CEN ATOM     WIBERG.BO      RENORM.BO
     1   C  -   2   C       1.120933       2.018113
     1   C  -   7   H       0.962414       0.984548
     1   C  -   4   H       0.962376       0.984479
     1   C  -   5   H       0.045464       0.656592

     2   C  -   1   C       1.120933       2.018113
     2   C  -   3   H       0.948601       0.989805
     2   C  -   6   H       0.947599       0.990023
     2   C  -   5   H       0.909621       0.998867

     3   H  -   2   C       0.948601       0.989805

     4   H  -   1   C       0.962376       0.984479

     5   H  -   2   C       0.909621       0.998867
     5   H  -   1   C       0.045464       0.656592

     6   H  -   2   C       0.947599       0.990023

     7   H  -   1   C       0.962414       0.984548


 Valency analysis:

   CEN ATOM   TOT.VALENCE
     1   C       3.111770
     2   C       3.929148
     3   H       0.973921
     4   H       0.976529
     5   H       0.961897
     6   H       0.973544
     7   H       0.976512
 Localization group 2:   1 orbitals, occupancy  1.000
 Iterative localization: IB/PM,    1 iter; Final gradient 0.00E+00

 Bond order analysis:       [THRPRINT= 0.020]

   CEN ATOM   CEN ATOM     WIBERG.BO      RENORM.BO
     1   C  -   5   H       0.077620       0.500000




     5   H  -   1   C       0.077620       0.500000




 Valency analysis:

   CEN ATOM   TOT.VALENCE
     1   C       0.118211
     2   C       0.007883
     3   H       0.016466
     4   H       0.000416
     5   H       0.079415
     6   H       0.017847
     7   H       0.000381

 Total charge composition:

   CEN ATOM         s          p       ELECTRONS ->P.CHARGE
     1   C       3.06546    3.27034      6.33580   -0.33580
     2   C       3.01991    3.41097      6.43088   -0.43088
     3   H       0.84681                 0.84681    0.15319
     4   H       0.84701                 0.84701    0.15299
     5   H       0.84622                 0.84622    0.15378
     6   H       0.84635                 0.84635    0.15365
     7   H       0.84693                 0.84693    0.15307

 Total charge composition, AO contributions:

   CEN ATOM SHL      SPHERICAL COMPONENTS
     1   C  1s       1.99204
     1   C  2s       1.07342
     1   C  2p       1.14341    1.05787    1.06906

     2   C  1s       1.99043
     2   C  2s       1.02948
     2   C  2p       1.17712    1.17064    1.06321

     3   H  1s       0.84681

     4   H  1s       0.84701

     5   H  1s       0.84622

     6   H  1s       0.84635

     7   H  1s       0.84693

 Active orbital charges:

   CEN ATOM         s          p       ELECTRONS ->SPIN.DEN
     1   C       0.00278    0.93413      0.93691    0.93691
     2   C       0.00003    0.00393      0.00396    0.00396
     3   H       0.00830                 0.00830    0.00830
     4   H       0.00021                 0.00021    0.00021
     5   H       0.04142                 0.04142    0.04142
     6   H       0.00900                 0.00900    0.00900
     7   H       0.00019                 0.00019    0.00019

 Active orbital charges, AO contributions:

   CEN ATOM SHL      SPHERICAL COMPONENTS
     1   C  1s       0.00000
     1   C  2s       0.00278
     1   C  2p       0.21536    0.71640    0.00237

     2   C  1s       0.00000
     2   C  2s       0.00003
     2   C  2p       0.00088    0.00294    0.00011

     3   H  1s       0.00830

     4   H  1s       0.00021

     5   H  1s       0.04142

     6   H  1s       0.00900

     7   H  1s       0.00019

 Summary of localized orbital composition:   [THRPRINT= 0.020]

   ORB  GRP  ORB.ENERGY      CENTERS/CHARGES
     1   1   -10.464831      C  1   2.000
     2   1   -10.449041      C  2   2.000
     3   1    -0.692341      C  1   1.002   C  2   0.996
     4   1    -0.610227      C  1   1.153   H  4   0.841
     5   1    -0.610110      C  1   1.153   H  7   0.841
     6   1    -0.585043      C  2   1.136   H  5   0.802   C  1   0.060
     7   1    -0.581568      C  2   1.145   H  6   0.833   (other: 0.022)
     8   1    -0.581147      C  2   1.145   H  3   0.834   (other: 0.021)
     9   2    -0.129031      C  1   0.937   H  5   0.041   (other: 0.022)

 Localized orbitals saved to record      2100.2  (orbital set 2)


 **********************************************************************************************************************************
 DATASETS  * FILE   NREC   LENGTH (MB)   RECORD NAMES
              1      20       68.41       500      610      700      900      950      970     1000      129      960     1100   
                                          VAR    BASINP    GEOM    SYMINP    ZMAT    AOBASIS   BASIS     P2S    ABASIS      S 
                                         1400     1410     1200     1210     1080     1600     1650     1300     1700     1800   
                                           T        V       H0       H01     AOSYM     SMH    MOLCAS    ERIS     OPER     GRID   

              2       5        3.16       700     1000      520     1800     2100   
                                         GEOM     BASIS   MCVARS    GRID      RKS  

 PROGRAMS   *        TOTAL      IBBA        KS       INT
 CPU TIMES  *        23.28      0.02     22.03      1.09
 REAL TIME  *        24.87 SEC
 DISK USED  *       171.04 MB      
 **********************************************************************************************************************************
 Molecular orbitals read from record     2100.2  Type=RKS/LOCAL(IBO)  
 Occupation numbers read from record     2100.2  Type=RKS/LOCAL(IBO)  
 Orbital energies read from record       2100.2  Type=RKS/LOCAL(IBO)  
 Redundancy group numbers read from rec  2100.2  Type=RKS/LOCAL(IBO)  

 IBBA/aug-cc-pVDZ energy=      0.000000000000

        KS-SCF  
    -79.16293076
 **********************************************************************************************************************************
 Molpro calculation terminated
