
 Primary working directories    : /local
 Secondary working directories  : /local
 Wavefunction directory         : /local/
 Main file repository           : /local/

 SHA1      : b4a5b34a9e711420743f49e6833241d17c61fb3c
 NAME      : 2099.9.b4a5b34
 ARCHNAME  : linux/x86_64_openmp
 FC        : /cm/shared/languages/GCC-6.1/bin/gfortran
 BLASLIB   : -lblas
 id        : simonbennie

 Nodes     nprocs
 node32-029    1

 Using customized tuning parameters: mindgm=1; mindgv=20; mindgc=4; mindgr=1; noblas=0; minvec=7
 default implementation of scratch files=df  

 memory,500,m
 geomtyp=xyz
 nosym
 noorient
 geometry={
 C          0.00000        0.00000        0.00000
 C          0.00000        0.00000        1.49014
 H          1.01377        0.00000        1.89114
 H         -0.84855        0.37413       -0.55287
 H         -0.50106       -0.88768        1.89585
 H         -0.52501        0.86748        1.89105
 H          0.77218       -0.51270       -0.55357
 }
 basis={ default,avdz }
 {ks,PBE0MOL,direct;wf,17,1,1}
 {ibba,bonds=1}

 Variables initialized (895), CPU time= 0.00 sec
 Commands  initialized (725), CPU time= 0.02 sec, 591 directives.
 Default parameters read. Elapsed time= 0.08 sec

 Checking input...
 Passed
1


                                         ***  PROGRAM SYSTEM MOLPRO  ***
                                       Copyright, TTI GmbH Stuttgart, 2015
                                    Version 2099.9 linked May 26 2017 16:03:21


 **********************************************************************************************************************************
 LABEL *                                                                                 
  64 bit serial version                                                                  DATE: 19-Jun-17          TIME: 14:11:41  
 **********************************************************************************************************************************

 SHA1:             b4a5b34a9e711420743f49e6833241d17c61fb3c
 **********************************************************************************************************************************
 SETTING GEOMTYP        =    XYZ

 Variable memory set to  500000000 words,  buffer space 

 ZSYMEL=NOSYM

 SETTING BASIS          =    AVDZ


 Recomputing integrals since basis changed


 Using spherical harmonics

 Library entry C      S aug-cc-pVDZ          selected for orbital group  1
 Library entry C      P aug-cc-pVDZ          selected for orbital group  1
 Library entry C      D aug-cc-pVDZ          selected for orbital group  1
 Library entry H      S aug-cc-pVDZ          selected for orbital group  2
 Library entry H      P aug-cc-pVDZ          selected for orbital group  2


 PROGRAM * SEWARD (Integral evaluation for generally contracted gaussian basis sets)     Author: Roland Lindh, 1990

 Geometry written to block  1 of record 700


 Point group  C1  



 ATOMIC COORDINATES

 NR  ATOM    CHARGE       X              Y              Z

   1  C       6.00    0.000000000    0.000000000    0.000000000
   2  C       6.00    0.000000000    0.000000000    2.815956487
   3  H       1.00    1.915747653    0.000000000    3.573736663
   4  H       1.00   -1.603527103    0.707003235   -1.044772882
   5  H       1.00   -0.946866172   -1.677472086    3.582637273
   6  H       1.00   -0.992125113    1.639299619    3.573566588
   7  H       1.00    1.459208719   -0.968862584   -1.046095691

 Bond lengths in Bohr (Angstrom)

 1-2  2.815956487  1-4  2.040270355  1-7  2.040171803  2-3  2.060174717  2-5  2.073226369
     ( 1.490140000)     ( 1.079664576)     ( 1.079612425)     ( 1.090197511)     ( 1.097104147)

 2-6  2.060482600
     ( 1.090360435)

 Bond angles

  1-2-3  111.58143444   1-2-5  111.70333312   1-2-6  111.57296243   2-1-4  120.80219065

  2-1-7  120.84710155   3-2-5  106.77850698   3-2-6  108.21011696   4-1-7  117.65385746

  5-2-6  106.72891007

 NUCLEAR CHARGE:                   17
 NUMBER OF PRIMITIVE AOS:         129
 NUMBER OF SYMMETRY AOS:          125
 NUMBER OF CONTRACTIONS:           91   (  91A   )
 NUMBER OF CORE ORBITALS:           2   (   2A   )
 NUMBER OF VALENCE ORBITALS:       13   (  13A   )


 NUCLEAR REPULSION ENERGY   36.98165179

 Eigenvalues of metric

         1 0.217E-03 0.250E-03 0.481E-03 0.646E-03 0.856E-03 0.868E-03 0.104E-02 0.223E-02


 Contracted 2-electron integrals neglected if value below      1.0D-11
 AO integral compression algorithm  1   Integral accuracy      1.0D-11

     43.778 MB (compressed) written to integral file ( 51.5%)


 NUMBER OF SORTED TWO-ELECTRON INTEGRALS:    8763391.     BUFFER LENGTH:  32768
 NUMBER OF SEGMENTS:   1  SEGMENT LENGTH:    8763391      RECORD LENGTH: 524288

 Memory used in sort:       9.32 MW

 SORT1 READ    10598304. AND WROTE     8016709. INTEGRALS IN     23 RECORDS. CPU TIME:     0.09 SEC, REAL TIME:     0.21 SEC
 SORT2 READ     8016709. AND WROTE     8763391. INTEGRALS IN    167 RECORDS. CPU TIME:     0.24 SEC, REAL TIME:     0.32 SEC

 FILE SIZES:   FILE 1:    74.1 MBYTE,  FILE 4:    96.5 MBYTE,   TOTAL:    170.6 MBYTE

 OPERATOR DM      FOR CENTER  0  COORDINATES:    0.000000    0.000000    0.000000


 **********************************************************************************************************************************
 DATASETS  * FILE   NREC   LENGTH (MB)   RECORD NAMES
              1      19       67.67       500      610      700      900      950      970     1000      129      960     1100   
                                          VAR    BASINP    GEOM    SYMINP    ZMAT    AOBASIS   BASIS     P2S    ABASIS      S 
                                         1400     1410     1200     1210     1080     1600     1650     1300     1700   
                                           T        V       H0       H01     AOSYM     SMH    MOLCAS    ERIS     OPER   

 PROGRAMS   *        TOTAL       INT
 CPU TIMES  *         1.17      1.04
 REAL TIME  *         1.76 SEC
 DISK USED  *       171.04 MB      
 **********************************************************************************************************************************

 Density functional group PBE0MOL=PBEX+PW91C
 Functional: PBEX(Automatically generated (new) PBEX)                          Gradient terms: 1
 Functional: PW91C(Automatically generated (new) PW91C)                        Gradient terms: 1
 Use grid at  1800.2


 Exact exchange will be calculated, factor:  0.2500

 Functional: PBEX                      Factor:  0.7500
 Functional: PW91C                     Factor:  1.0000

 Generated new metagrid on record  1800.2 with target accuracy 1.0D-06 and 22862 points in CPU time    0.5
 Computed new grid on record 1800.1 in CPU time    0.5
   76285 words reserved for DFT integration

 PROGRAM * RKS-SCF (Restricted open shell Kohn-Sham)     Authors: W. Meyer, H.-J. Werner, P.J. Knowles, 1993

 NUMBER OF ELECTRONS:       9+    8-    SPACE SYMMETRY=1    SPIN SYMMETRY: Doublet 
 CONVERGENCE THRESHOLDS:    1.00E-05 (Density)    1.00E-06 (Energy)
 MAX. NUMBER OF ITERATIONS:       60
 INTERPOLATION TYPE:            DIIS
 INTERPOLATION STEPS:              2 (START)      1 (STEP)
 LEVEL SHIFTS:                 -0.60 (CLOSED) -0.30 (OPEN) 



 Use fine grid record 1800.2 for energy threshold  1.0D-06
 Orbital guess generated from atomic densities. Full valence occupancy:   15

 Molecular orbital dump at record        2100.2

 Initial alpha occupancy:   9
 Initial beta  occupancy:   8
 Wave function symmetry:    1

 ITERATION    DDIFF          GRAD             ENERGY        2-EL.EN.            DIPOLE MOMENTS         DIIS   ORB.
    1      0.000D+00      0.000D+00       -79.02623074    147.609394   -0.05015   -0.08843    0.24859    0    start
    2      0.000D+00      0.852D-02       -79.08715305    142.409241   -0.02554   -0.04598    0.14848    1    diag,B
    3      0.166D-01      0.245D-02       -79.09139276    143.211452   -0.02941   -0.05279    0.14254    2    diag,B
    4      0.508D-02      0.471D-03       -79.09194649    143.136727   -0.02827   -0.05083    0.12768    3    diag,B
    5      0.174D-02      0.160D-03       -79.09203689    143.117578   -0.02776   -0.04995    0.12115    4    diag,B
    6      0.584D-03      0.419D-04       -79.09204383    143.114524   -0.02748   -0.04947    0.11921    5    diag,B
    7      0.209D-03      0.124D-04       -79.09204442    143.115061   -0.02739   -0.04931    0.11887    6    fixocc
    8      0.102D-03      0.390D-05       -79.09204447    143.115009   -0.02734   -0.04923    0.11872    7    diag,B
    9      0.274D-04      0.144D-05       -79.09204448    143.115006   -0.02732   -0.04919    0.11868    8    diag,B
   10      0.186D-04      0.385D-06       -79.09204448    143.114996   -0.02731   -0.04918    0.11866    9    orth
   11      0.575D-05      0.966D-07       -79.09204448    143.114994   -0.02731   -0.04918    0.11866    0    orth

 Final alpha occupancy:   9
 Final beta  occupancy:   8

 !RKS STATE 1.1 Energy                -79.092044483321
 Nuclear energy                        36.98165179
 One-electron energy                 -178.04836659
 Two-electron energy                   71.55749688
 Density functional                    -9.58282656     PBEX=-12.03133836 PW91C= -0.55932279
 Virial quotient                       -1.00696780
 !RKS STATE 1.1 Dipole moment          -0.02731269    -0.04917558     0.11866177
 Dipole moment /Debye                  -0.06941739    -0.12498368     0.30158839

 Orbital energies:

         1.1          2.1          3.1          4.1          5.1          6.1          7.1          8.1          9.1         10.1
    -10.237239   -10.233536    -0.772845    -0.617679    -0.462737    -0.419227    -0.401169    -0.367649    -0.219279     0.001612

        11.1
      0.020370

 HOMO      9.1    -0.219279 =      -5.9669eV
 LUMO     10.1     0.001612 =       0.0439eV
 LUMO-HOMO         0.220890 =       6.0107eV


 **********************************************************************************************************************************
 DATASETS  * FILE   NREC   LENGTH (MB)   RECORD NAMES
              1      20       68.41       500      610      700      900      950      970     1000      129      960     1100   
                                          VAR    BASINP    GEOM    SYMINP    ZMAT    AOBASIS   BASIS     P2S    ABASIS      S 
                                         1400     1410     1200     1210     1080     1600     1650     1300     1700     1800   
                                           T        V       H0       H01     AOSYM     SMH    MOLCAS    ERIS     OPER     GRID   

              2       5        3.09       700     1000      520     1800     2100   
                                         GEOM     BASIS   MCVARS    GRID      RKS  

 PROGRAMS   *        TOTAL        KS       INT
 CPU TIMES  *         9.75      8.58      1.04
 REAL TIME  *        11.28 SEC
 DISK USED  *       171.04 MB      
 **********************************************************************************************************************************


 PROGRAM * Intrinsic Basis Bonding Analysis (IBBA)          Author: G. Knizia

 Molecular orbitals read from record     2100.2  Type=RKS/CANONICAL (state 1.1)
 Fock matrix read from record            2100.2  Type=RKS/TOTAL (state 1.1)
 Orbital energies read from record       2100.2  Type=RKS/CANONICAL (state 1.1)
 Density matrix read from record         2100.2  Type=RKS/CHARGE (state 1.1)

 Number of core orbitals:           2 (   2 )
 Number of closed-shell orbitals:   6 (   6 )
 Number of active  orbitals:        1 (   1 )

 Basis set MINAO-AUTO-PP generated.      Number of basis functions:   15 

 Polarized AO type:                A = (O Ot + (1-O)(1-Ot)) P12
 Orthogonalization method:         Symmetric (Loewdin)
 Localization functional:          L = sum[A,i] <i|n_A|i>^4 -> max

 Localization group 1:   8 orbitals, occupancy  2.000
 Iterative localization: IB/PM,    6 iter; Final gradient 0.22E-08

 Bond order analysis:       [THRPRINT= 0.020]

   CEN ATOM   CEN ATOM     WIBERG.BO      RENORM.BO
     1   C  -   2   C       1.125125       2.019704
     1   C  -   7   H       0.962838       0.983321
     1   C  -   4   H       0.962808       0.983225
     1   C  -   5   H       0.046011       0.655104

     2   C  -   1   C       1.125125       2.019704
     2   C  -   3   H       0.948102       0.988953
     2   C  -   6   H       0.947088       0.989188
     2   C  -   5   H       0.909373       0.998897

     3   H  -   2   C       0.948102       0.988953

     4   H  -   1   C       0.962808       0.983225

     5   H  -   2   C       0.909373       0.998897
     5   H  -   1   C       0.046011       0.655104

     6   H  -   2   C       0.947088       0.989188

     7   H  -   1   C       0.962838       0.983321


 Valency analysis:

   CEN ATOM   TOT.VALENCE
     1   C       3.117781
     2   C       3.931863
     3   H       0.974001
     4   H       0.977538
     5   H       0.961424
     6   H       0.973707
     7   H       0.977500
 Localization group 2:   1 orbitals, occupancy  1.000
 Iterative localization: IB/PM,    1 iter; Final gradient 0.00E+00

 Bond order analysis:       [THRPRINT= 0.020]

   CEN ATOM   CEN ATOM     WIBERG.BO      RENORM.BO
     1   C  -   5   H       0.080375       0.500000




     5   H  -   1   C       0.080375       0.500000




 Valency analysis:

   CEN ATOM   TOT.VALENCE
     1   C       0.121583
     2   C       0.007420
     3   H       0.016983
     4   H       0.000342
     5   H       0.082269
     6   H       0.018632
     7   H       0.000345

 Total charge composition:

   CEN ATOM         s          p       ELECTRONS ->P.CHARGE
     1   C       3.07431    3.24999      6.32430   -0.32430
     2   C       3.03128    3.40280      6.43408   -0.43408
     3   H       0.84732                 0.84732    0.15268
     4   H       0.85030                 0.85030    0.14970
     5   H       0.84657                 0.84657    0.15343
     6   H       0.84725                 0.84725    0.15275
     7   H       0.85017                 0.85017    0.14983

 Total charge composition, AO contributions:

   CEN ATOM SHL      SPHERICAL COMPONENTS
     1   C  1s       1.99222
     1   C  2s       1.08209
     1   C  2p       1.13616    1.05478    1.05905

     2   C  1s       1.99062
     2   C  2s       1.04066
     2   C  2p       1.17247    1.16589    1.06444

     3   H  1s       0.84732

     4   H  1s       0.85030

     5   H  1s       0.84657

     6   H  1s       0.84725

     7   H  1s       0.85017

 Active orbital charges:

   CEN ATOM         s          p       ELECTRONS ->SPIN.DEN
     1   C       0.00317    0.93181      0.93498    0.93498
     2   C       0.00003    0.00370      0.00372    0.00372
     3   H       0.00856                 0.00856    0.00856
     4   H       0.00017                 0.00017    0.00017
     5   H       0.04298                 0.04298    0.04298
     6   H       0.00940                 0.00940    0.00940
     7   H       0.00017                 0.00017    0.00017

 Active orbital charges, AO contributions:

   CEN ATOM SHL      SPHERICAL COMPONENTS
     1   C  1s       0.00000
     1   C  2s       0.00317
     1   C  2p       0.21417    0.71527    0.00237

     2   C  1s       0.00000
     2   C  2s       0.00003
     2   C  2p       0.00083    0.00278    0.00008

     3   H  1s       0.00856

     4   H  1s       0.00017

     5   H  1s       0.04298

     6   H  1s       0.00940

     7   H  1s       0.00017

 Summary of localized orbital composition:   [THRPRINT= 0.020]

   ORB  GRP  ORB.ENERGY      CENTERS/CHARGES
     1   1   -10.129745      C  1   2.000
     2   1   -10.113266      C  2   2.000
     3   1    -0.624079      C  2   1.001   C  1   0.997
     4   1    -0.544058      C  1   1.150   H  7   0.845
     5   1    -0.544002      C  1   1.150   H  4   0.845
     6   1    -0.521504      C  2   1.137   H  5   0.801   C  1   0.061
     7   1    -0.517750      C  2   1.144   H  6   0.834   (other: 0.023)
     8   1    -0.517678      C  2   1.144   H  3   0.835   (other: 0.022)
     9   2    -0.127486      C  1   0.935   H  5   0.043   (other: 0.022)

 Localized orbitals saved to record      2100.2  (orbital set 2)


 **********************************************************************************************************************************
 DATASETS  * FILE   NREC   LENGTH (MB)   RECORD NAMES
              1      20       68.41       500      610      700      900      950      970     1000      129      960     1100   
                                          VAR    BASINP    GEOM    SYMINP    ZMAT    AOBASIS   BASIS     P2S    ABASIS      S 
                                         1400     1410     1200     1210     1080     1600     1650     1300     1700     1800   
                                           T        V       H0       H01     AOSYM     SMH    MOLCAS    ERIS     OPER     GRID   

              2       5        3.16       700     1000      520     1800     2100   
                                         GEOM     BASIS   MCVARS    GRID      RKS  

 PROGRAMS   *        TOTAL      IBBA        KS       INT
 CPU TIMES  *         9.78      0.01      8.58      1.04
 REAL TIME  *        11.36 SEC
 DISK USED  *       171.04 MB      
 **********************************************************************************************************************************
 Molecular orbitals read from record     2100.2  Type=RKS/LOCAL(IBO)  
 Occupation numbers read from record     2100.2  Type=RKS/LOCAL(IBO)  
 Orbital energies read from record       2100.2  Type=RKS/LOCAL(IBO)  
 Redundancy group numbers read from rec  2100.2  Type=RKS/LOCAL(IBO)  

 IBBA/aug-cc-pVDZ energy=      0.000000000000

        KS-SCF  
    -79.09204448
 **********************************************************************************************************************************
 Molpro calculation terminated
