
 Primary working directories    : /local
 Secondary working directories  : /local
 Wavefunction directory         : /local/
 Main file repository           : /local/

 SHA1      : b4a5b34a9e711420743f49e6833241d17c61fb3c
 NAME      : 2099.9.b4a5b34
 ARCHNAME  : linux/x86_64_openmp
 FC        : /cm/shared/languages/GCC-6.1/bin/gfortran
 BLASLIB   : -lblas
 id        : simonbennie

 Nodes     nprocs
 node32-002    1

 Using customized tuning parameters: mindgm=1; mindgv=20; mindgc=4; mindgr=1; noblas=0; minvec=7
 default implementation of scratch files=df  

 memory,500,m
 geomtyp=xyz
 nosym
 noorient
 geometry={
 C          0.00000        0.00000        0.00000
 C          0.00000        0.00000        1.49014
 H          1.01377        0.00000        1.89114
 H         -0.84855        0.37413       -0.55287
 H         -0.50106       -0.88768        1.89585
 H         -0.52501        0.86748        1.89105
 H          0.77218       -0.51270       -0.55357
 }
 basis={ default,tzvp }
 {df-ks,PBE,direct;disp;wf,17,1,1}
 {ibba,bonds=1}

 Variables initialized (895), CPU time= 0.00 sec
 Commands  initialized (725), CPU time= 0.02 sec, 591 directives.
 Default parameters read. Elapsed time= 0.09 sec

 Checking input...
 Passed
1


                                         ***  PROGRAM SYSTEM MOLPRO  ***
                                       Copyright, TTI GmbH Stuttgart, 2015
                                    Version 2099.9 linked May 26 2017 16:03:21


 **********************************************************************************************************************************
 LABEL *                                                                                 
  64 bit serial version                                                                  DATE: 09-Mar-18          TIME: 21:33:25  
 **********************************************************************************************************************************

 SHA1:             b4a5b34a9e711420743f49e6833241d17c61fb3c
 **********************************************************************************************************************************
 SETTING GEOMTYP        =    XYZ

 Variable memory set to  500000000 words,  buffer space 

 ZSYMEL=NOSYM

 SETTING BASIS          =    TZVP


 Recomputing integrals since basis changed


 Using spherical harmonics

 Library entry C      S def2-TZVP            selected for orbital group  1
 Library entry C      P def2-TZVP            selected for orbital group  1
 Library entry C      D def2-TZVP            selected for orbital group  1
 Library entry C      F def2-TZVP            selected for orbital group  1
 Library entry H      S def2-TZVP            selected for orbital group  2
 Library entry H      P def2-TZVP            selected for orbital group  2


 PROGRAM * SEWARD (Integral evaluation for generally contracted gaussian basis sets)     Author: Roland Lindh, 1990

 Geometry written to block  1 of record 700


 Point group  C1  



 ATOMIC COORDINATES

 NR  ATOM    CHARGE       X              Y              Z

   1  C       6.00    0.000000000    0.000000000    0.000000000
   2  C       6.00    0.000000000    0.000000000    2.815956487
   3  H       1.00    1.915747653    0.000000000    3.573736663
   4  H       1.00   -1.603527103    0.707003235   -1.044772882
   5  H       1.00   -0.946866172   -1.677472086    3.582637273
   6  H       1.00   -0.992125113    1.639299619    3.573566588
   7  H       1.00    1.459208719   -0.968862584   -1.046095691

 Bond lengths in Bohr (Angstrom)

 1-2  2.815956487  1-4  2.040270355  1-7  2.040171803  2-3  2.060174717  2-5  2.073226369
     ( 1.490140000)     ( 1.079664576)     ( 1.079612425)     ( 1.090197511)     ( 1.097104147)

 2-6  2.060482600
     ( 1.090360435)

 Bond angles

  1-2-3  111.58143444   1-2-5  111.70333312   1-2-6  111.57296243   2-1-4  120.80219065

  2-1-7  120.84710155   3-2-5  106.77850698   3-2-6  108.21011696   4-1-7  117.65385746

  5-2-6  106.72891007

 NUCLEAR CHARGE:                   17
 NUMBER OF PRIMITIVE AOS:         142
 NUMBER OF SYMMETRY AOS:          132
 NUMBER OF CONTRACTIONS:           92   (  92A   )
 NUMBER OF CORE ORBITALS:           2   (   2A   )
 NUMBER OF VALENCE ORBITALS:       13   (  13A   )


 NUCLEAR REPULSION ENERGY   36.98165179


 Eigenvalues of metric

         1 0.588E-03 0.906E-03 0.297E-02 0.530E-02 0.565E-02 0.631E-02 0.740E-02 0.102E-01


 OPERATOR DM      FOR CENTER  0  COORDINATES:    0.000000    0.000000    0.000000


 **********************************************************************************************************************************
 DATASETS  * FILE   NREC   LENGTH (MB)   RECORD NAMES
              1      18       30.38       500      610      700      900      950      970     1000      129      960     1100   
                                          VAR    BASINP    GEOM    SYMINP    ZMAT    AOBASIS   BASIS     P2S    ABASIS      S 
                                         1400     1410     1200     1210     1080     1600     1650     1700   
                                           T        V       H0       H01     AOSYM     SMH    MOLCAS    OPER   

 PROGRAMS   *        TOTAL       INT
 CPU TIMES  *         0.30      0.16
 REAL TIME  *         1.91 SEC
 DISK USED  *        30.77 MB      
 **********************************************************************************************************************************

 Density functional group PBE=PBEX+PBEC
 Functional: PBEX(Automatically generated (new) PBEX)                          Gradient terms: 1
 Functional: PBEC(Automatically generated (new) PBEC)                          Gradient terms: 1

 dispersion correction activated
 Density functional: PBE     

 Functional: PBEX                      Factor:  1.0000
 Functional: PBEC                      Factor:  1.0000

 Use grid at  1800.2

 Functional: PBEX                      Factor:  1.0000
 Functional: PBEC                      Factor:  1.0000

 Generated new metagrid on record  1800.2 with target accuracy 1.0D-06 and 23318 points in CPU time    0.5
 Computed new grid on record 1800.1 in CPU time    0.5
   77082 words reserved for DFT integration

 PROGRAM * RKS-SCF (Restricted open shell Kohn-Sham)     Authors: W. Meyer, H.-J. Werner, P.J. Knowles, 1993

 NUMBER OF ELECTRONS:       9+    8-    SPACE SYMMETRY=1    SPIN SYMMETRY: Doublet 
 CONVERGENCE THRESHOLDS:    1.00E-05 (Density)    1.00E-06 (Energy)
 INTEGRAL THRESHOLDS:       1.00E-11 (Initial)    1.00E-11 (Final)
 MAX. NUMBER OF ITERATIONS:       60
 INTERPOLATION TYPE:            DIIS
 INTERPOLATION STEPS:              2 (START)      1 (STEP)
 LEVEL SHIFTS:                 -0.60 (CLOSED) -0.30 (OPEN) 



 Use fine grid record 1800.2 for energy threshold  1.0D-06

 Basis set DEF2-TZVPP/JFIT generated.    Number of basis functions:   153 
 Coulomb fitting
 Screening thresholds:    THRAO_COUL= 1.0D-14    THRAO= 1.0D-12    THROV= 1.0D-12

 Reserved 1 MW to cache 100.0% of significant integrals. CPU: 0.0 sec

 Orbital guess generated from atomic densities. Full valence occupancy:    9
 Using density fitting in orbital guess


 Molecular orbital dump at record        2100.2

 Initial alpha occupancy:   9
 Initial beta  occupancy:   8
 Wave function symmetry:    1

 ITERATION   DDIFF            GRAD            ENERGY        2-EL.EN.            DIPOLE MOMENTS         DIIS   CPU(IT)  CPU(TOT)  ORB.
    1      0.000D+00      0.000D+00       -78.92801268    156.168235   -0.05128   -0.09086    0.21699    0      0.5      0.9     start
    2      0.000D+00      0.126D-01       -79.04372385    147.424144   -0.02235   -0.04064    0.13138    1      0.5      1.4     diag,B
    3      0.696D-02      0.535D-02       -79.06176223    149.441796   -0.03124   -0.05611    0.14766    2      0.5      1.9     diag,B
    4      0.202D-02      0.586D-03       -79.06234227    149.344472   -0.02953   -0.05308    0.13739    3      0.5      2.5     diag,B
    5      0.748D-03      0.203D-03       -79.06244710    149.313252   -0.02915   -0.05243    0.13331    4      0.5      3.0     diag,B
    6      0.523D-03      0.625D-04       -79.06245714    149.303410   -0.02867   -0.05159    0.13040    5      0.5      3.5     diag,B
    7      0.215D-03      0.237D-04       -79.06245860    149.303058   -0.02860   -0.05147    0.13016    6      0.5      4.0     fixocc
    8      0.933D-04      0.802D-05       -79.06245881    149.302705   -0.02854   -0.05137    0.12990    7      0.5      4.5     diag,B
    9      0.469D-04      0.195D-05       -79.06245882    149.302755   -0.02853   -0.05134    0.12990    8      0.5      5.1     diag,B
   10      0.109D-04      0.538D-06       -79.06245882    149.302776   -0.02853   -0.05135    0.12992    9      0.5      5.6     orth
   11      0.244D-05      0.145D-06       -79.06245882    149.302772   -0.02853   -0.05135    0.12992    0      0.5      6.1     orth

 Dispersion correction
 - - - - - - - - - - - 
  _________________________________
                                   
 |         DFTD3 V1.3 Rev 1        |
 | S.Grimme, University Muenster   |
 | Fri Jul  2 12:48:21 CEST 2010   |
  _________________________________

 Please cite DFT-D3 work done with this code as:
 S. Grimme, J. Antony, S. Ehrlich and H. Krieg,
 J. Chem. Phys, 132 (2010), 154104.
 For DFT-D2 the reference is
 S. Grimme, J. Comput. Chem., 27 (2006), 1787-1799

 C6 coefficients used:
                    2  C6 for element                     1
 Z=  1 CN=   0.912     C6(AA)=    3.03
 Z=  1 CN=   0.000     C6(AA)=    7.59
                    5  C6 for element                     6
 Z=  6 CN=   0.000     C6(AA)=   49.11
 Z=  6 CN=   0.987     C6(AA)=   43.25
 Z=  6 CN=   1.998     C6(AA)=   29.36
 Z=  6 CN=   2.999     C6(AA)=   25.78
 Z=  6 CN=   3.984     C6(AA)=   18.21

 #           XYZ [au]               R0(AA) [Ang.]   CN       C6(AA)     C8(AA)   C10(AA) [au]
  1   0.00000   0.00000   0.00000   c   1.455  2.998        25.7       742.6     26308.8
  2   0.00000   0.00000   2.81596   c   1.455  3.979        18.3       530.6     18799.0
  3   1.91575   0.00000   3.57374   h   1.091  0.998         3.1        37.4       553.4
  4  -1.60353   0.70700  -1.04477   h   1.091  0.997         3.1        37.4       553.5
  5  -0.94687  -1.67747   3.58264   h   1.091  0.997         3.1        37.4       553.5
  6  -0.99213   1.63930   3.57357   h   1.091  0.998         3.1        37.4       553.4
  7   1.45921  -0.96886  -1.04610   h   1.091  0.997         3.1        37.4       553.5

 molecular C6(AA) [au] =       328.17

           DFT-D V3
 DF pbe                                               
 parameters
 s6       :    1.0000
 s8       :    0.7220
 rs6      :    1.2170
 alpha6   :   14.0000
 alpha8   :   16.0000
 k1-k3    :   16.0000    1.3333   -4.0000

 Edisp /kcal,au:    -0.4333 -0.00069043

 E6    /kcal :    -0.1402
 E8    /kcal :    -0.2931
 % E8        : 67.65
 normal termination of dftd3

 RKS STATE 1.1 ENERGY+DISP      -79.06314925

 Final alpha occupancy:   9
 Final beta  occupancy:   8

 !RKS STATE 1.1 Energy                -79.063149245989
 Nuclear energy                        36.98165179
 One-electron energy                 -178.13504234
 Two-electron energy                   74.65138625
 Density functional                   -12.56045451     PBEX=-12.03882277 PBEC= -0.52163174
 Virial quotient                       -1.00474551
 !RKS STATE 1.1 Dipole moment          -0.02853278    -0.05134980     0.12991786
 Dipole moment /Debye                  -0.07251834    -0.13050964     0.33019663

 Orbital energies:

         1.1          2.1          3.1          4.1          5.1          6.1          7.1          8.1          9.1         10.1
     -9.881913    -9.877737    -0.678974    -0.538082    -0.401138    -0.363677    -0.345200    -0.313053    -0.167129     0.031265

        11.1
      0.060903

 HOMO      9.1    -0.167129 =      -4.5478eV
 LUMO     10.1     0.031265 =       0.8508eV
 LUMO-HOMO         0.198394 =       5.3986eV


 **********************************************************************************************************************************
 DATASETS  * FILE   NREC   LENGTH (MB)   RECORD NAMES
              1      19       31.13       500      610      700      900      950      970     1000      129      960     1100   
                                          VAR    BASINP    GEOM    SYMINP    ZMAT    AOBASIS   BASIS     P2S    ABASIS      S 
                                         1400     1410     1200     1210     1080     1600     1650     1700     1800   
                                           T        V       H0       H01     AOSYM     SMH    MOLCAS    OPER     GRID   

              2       5        3.11       700     1000      520     1800     2100   
                                         GEOM     BASIS   MCVARS    GRID      RKS  

 PROGRAMS   *        TOTAL        KS       INT
 CPU TIMES  *         6.98      6.68      0.16
 REAL TIME  *         9.28 SEC
 DISK USED  *        35.75 MB      
 **********************************************************************************************************************************


 PROGRAM * Intrinsic Basis Bonding Analysis (IBBA)          Author: G. Knizia

 Molecular orbitals read from record     2100.2  Type=RKS/CANONICAL (state 1.1)
 Fock matrix read from record            2100.2  Type=RKS/TOTAL (state 1.1)
 Orbital energies read from record       2100.2  Type=RKS/CANONICAL (state 1.1)
 Density matrix read from record         2100.2  Type=RKS/CHARGE (state 1.1)

 Number of core orbitals:           2 (   2 )
 Number of closed-shell orbitals:   6 (   6 )
 Number of active  orbitals:        1 (   1 )

 Basis set MINAO-AUTO-PP generated.      Number of basis functions:   15 

 Polarized AO type:                A = (O Ot + (1-O)(1-Ot)) P12
 Orthogonalization method:         Symmetric (Loewdin)
 Localization functional:          L = sum[A,i] <i|n_A|i>^4 -> max

 Localization group 1:   8 orbitals, occupancy  2.000
 Iterative localization: IB/PM,    6 iter; Final gradient 0.25E-08

 Bond order analysis:       [THRPRINT= 0.020]

   CEN ATOM   CEN ATOM     WIBERG.BO      RENORM.BO
     1   C  -   2   C       1.148595       2.020943
     1   C  -   7   H       0.961897       0.982401
     1   C  -   4   H       0.961866       0.982306
     1   C  -   5   H       0.054544       0.646118

     2   C  -   1   C       1.148595       2.020943
     2   C  -   3   H       0.943104       0.988029
     2   C  -   6   H       0.941825       0.988282
     2   C  -   5   H       0.894840       0.998797

     3   H  -   2   C       0.943104       0.988029

     4   H  -   1   C       0.961866       0.982306

     5   H  -   2   C       0.894840       0.998797
     5   H  -   1   C       0.054544       0.646118

     6   H  -   2   C       0.941825       0.988282

     7   H  -   1   C       0.961897       0.982401


 Valency analysis:

   CEN ATOM   TOT.VALENCE
     1   C       3.152182
     2   C       3.930628
     3   H       0.972439
     4   H       0.977543
     5   H       0.956715
     6   H       0.972076
     7   H       0.977509
 Localization group 2:   1 orbitals, occupancy  1.000
 Iterative localization: IB/PM,    1 iter; Final gradient 0.00E+00

 Bond order analysis:       [THRPRINT= 0.020]

   CEN ATOM   CEN ATOM     WIBERG.BO      RENORM.BO
     1   C  -   5   H       0.092133       0.500000
     1   C  -   6   H       0.020355       0.500000




     5   H  -   1   C       0.092133       0.500000

     6   H  -   1   C       0.020355       0.500000



 Valency analysis:

   CEN ATOM   TOT.VALENCE
     1   C       0.141601
     2   C       0.010712
     3   H       0.019880
     4   H       0.000337
     5   H       0.094806
     6   H       0.021802
     7   H       0.000340

 Total charge composition:

   CEN ATOM         s          p       ELECTRONS ->P.CHARGE
     1   C       3.07172    3.25704      6.32876   -0.32876
     2   C       3.03006    3.41088      6.44094   -0.44094
     3   H       0.84403                 0.84403    0.15597
     4   H       0.85031                 0.85031    0.14969
     5   H       0.84184                 0.84184    0.15816
     6   H       0.84392                 0.84392    0.15608
     7   H       0.85020                 0.85020    0.14980

 Total charge composition, AO contributions:

   CEN ATOM SHL      SPHERICAL COMPONENTS
     1   C  1s       1.99255
     1   C  2s       1.07917
     1   C  2p       1.13850    1.06072    1.05782

     2   C  1s       1.99101
     2   C  2s       1.03905
     2   C  2p       1.17515    1.16665    1.06908

     3   H  1s       0.84403

     4   H  1s       0.85031

     5   H  1s       0.84184

     6   H  1s       0.84392

     7   H  1s       0.85020

 Active orbital charges:

   CEN ATOM         s          p       ELECTRONS ->SPIN.DEN
     1   C       0.00306    0.92026      0.92332    0.92332
     2   C       0.00003    0.00535      0.00539    0.00539
     3   H       0.01004                 0.01004    0.01004
     4   H       0.00017                 0.00017    0.00017
     5   H       0.04989                 0.04989    0.04989
     6   H       0.01102                 0.01102    0.01102
     7   H       0.00017                 0.00017    0.00017

 Active orbital charges, AO contributions:

   CEN ATOM SHL      SPHERICAL COMPONENTS
     1   C  1s       0.00000
     1   C  2s       0.00306
     1   C  2p       0.21152    0.70644    0.00231

     2   C  1s       0.00000
     2   C  2s       0.00003
     2   C  2p       0.00122    0.00407    0.00007

     3   H  1s       0.01004

     4   H  1s       0.00017

     5   H  1s       0.04989

     6   H  1s       0.01102

     7   H  1s       0.00017

 Summary of localized orbital composition:   [THRPRINT= 0.020]

   ORB  GRP  ORB.ENERGY      CENTERS/CHARGES
     1   1    -9.778550      C  1   2.000
     2   1    -9.762011      C  2   2.000
     3   1    -0.549548      C  2   1.004   C  1   0.994
     4   1    -0.474192      C  1   1.149   H  7   0.844
     5   1    -0.474143      C  1   1.149   H  4   0.844
     6   1    -0.457029      C  2   1.135   H  5   0.789   C  1   0.074
     7   1    -0.452210      C  2   1.145   H  6   0.828   C  1   0.020
     8   1    -0.452092      C  2   1.146   H  3   0.829   (other: 0.025)
     9   2    -0.126622      C  1   0.923   H  5   0.050   (other: 0.027)

 Localized orbitals saved to record      2100.2  (orbital set 2)


 **********************************************************************************************************************************
 DATASETS  * FILE   NREC   LENGTH (MB)   RECORD NAMES
              1      19       31.13       500      610      700      900      950      970     1000      129      960     1100   
                                          VAR    BASINP    GEOM    SYMINP    ZMAT    AOBASIS   BASIS     P2S    ABASIS      S 
                                         1400     1410     1200     1210     1080     1600     1650     1700     1800   
                                           T        V       H0       H01     AOSYM     SMH    MOLCAS    OPER     GRID   

              2       5        3.18       700     1000      520     1800     2100   
                                         GEOM     BASIS   MCVARS    GRID      RKS  

 PROGRAMS   *        TOTAL      IBBA        KS       INT
 CPU TIMES  *         7.00      0.02      6.68      0.16
 REAL TIME  *         9.31 SEC
 DISK USED  *        35.75 MB      
 **********************************************************************************************************************************

 IBBA/TZVP energy=      0.000000000000

        DF-KS   
    -79.06314925
 **********************************************************************************************************************************
 Molpro calculation terminated
