
 Primary working directories    : /local
 Secondary working directories  : /local
 Wavefunction directory         : /local/
 Main file repository           : /local/

 SHA1      : b4a5b34a9e711420743f49e6833241d17c61fb3c
 NAME      : 2099.9.b4a5b34
 ARCHNAME  : linux/x86_64_openmp
 FC        : /cm/shared/languages/GCC-6.1/bin/gfortran
 BLASLIB   : -lblas
 id        : simonbennie

 Nodes     nprocs
 node32-031    1

 Using customized tuning parameters: mindgm=1; mindgv=20; mindgc=4; mindgr=1; noblas=0; minvec=7
 default implementation of scratch files=df  

 memory,500,m
 geomtyp=xyz
 nosym
 noorient
 geometry={
 C          0.00000        0.00000        0.00000
 C          0.00000        0.00000        1.49014
 H          1.01377        0.00000        1.89114
 H         -0.84855        0.37413       -0.55287
 H         -0.50106       -0.88768        1.89585
 H         -0.52501        0.86748        1.89105
 H          0.77218       -0.51270       -0.55357
 }
 basis={ default,SV(P) }
 {ks,M06,direct;disp;wf,17,1,1}
 {ibba,bonds=1}

 Variables initialized (895), CPU time= 0.00 sec
 Commands  initialized (725), CPU time= 0.02 sec, 591 directives.
 Default parameters read. Elapsed time= 0.07 sec

 Checking input...
 Passed
1


                                         ***  PROGRAM SYSTEM MOLPRO  ***
                                       Copyright, TTI GmbH Stuttgart, 2015
                                    Version 2099.9 linked May 26 2017 16:03:21


 **********************************************************************************************************************************
 LABEL *                                                                                 
  64 bit serial version                                                                  DATE: 09-Mar-18          TIME: 20:12:05  
 **********************************************************************************************************************************

 SHA1:             b4a5b34a9e711420743f49e6833241d17c61fb3c
 **********************************************************************************************************************************
 SETTING GEOMTYP        =    XYZ

 Variable memory set to  500000000 words,  buffer space 

 ZSYMEL=NOSYM

 SETTING BASIS          =    SV(P)


 Recomputing integrals since basis changed


 Using spherical harmonics

 Library entry C      S def2-SV(P)           selected for orbital group  1
 Library entry C      P def2-SV(P)           selected for orbital group  1
 Library entry C      D def2-SV(P)           selected for orbital group  1
 Library entry H      S def2-SV(P)           selected for orbital group  2


 PROGRAM * SEWARD (Integral evaluation for generally contracted gaussian basis sets)     Author: Roland Lindh, 1990

 Geometry written to block  1 of record 700


 Point group  C1  



 ATOMIC COORDINATES

 NR  ATOM    CHARGE       X              Y              Z

   1  C       6.00    0.000000000    0.000000000    0.000000000
   2  C       6.00    0.000000000    0.000000000    2.815956487
   3  H       1.00    1.915747653    0.000000000    3.573736663
   4  H       1.00   -1.603527103    0.707003235   -1.044772882
   5  H       1.00   -0.946866172   -1.677472086    3.582637273
   6  H       1.00   -0.992125113    1.639299619    3.573566588
   7  H       1.00    1.459208719   -0.968862584   -1.046095691

 Bond lengths in Bohr (Angstrom)

 1-2  2.815956487  1-4  2.040270355  1-7  2.040171803  2-3  2.060174717  2-5  2.073226369
     ( 1.490140000)     ( 1.079664576)     ( 1.079612425)     ( 1.090197511)     ( 1.097104147)

 2-6  2.060482600
     ( 1.090360435)

 Bond angles

  1-2-3  111.58143444   1-2-5  111.70333312   1-2-6  111.57296243   2-1-4  120.80219065

  2-1-7  120.84710155   3-2-5  106.77850698   3-2-6  108.21011696   4-1-7  117.65385746

  5-2-6  106.72891007

 NUCLEAR CHARGE:                   17
 NUMBER OF PRIMITIVE AOS:          70
 NUMBER OF SYMMETRY AOS:           68
 NUMBER OF CONTRACTIONS:           38   (  38A   )
 NUMBER OF CORE ORBITALS:           2   (   2A   )
 NUMBER OF VALENCE ORBITALS:       13   (  13A   )


 NUCLEAR REPULSION ENERGY   36.98165179

 Eigenvalues of metric

         1 0.579E-02 0.244E-01 0.332E-01 0.469E-01 0.620E-01 0.752E-01 0.167E+00 0.193E+00


 Contracted 2-electron integrals neglected if value below      1.0D-11
 AO integral compression algorithm  1   Integral accuracy      1.0D-11

     1.311 MB (compressed) written to integral file ( 50.7%)


 NUMBER OF SORTED TWO-ELECTRON INTEGRALS:     274911.     BUFFER LENGTH:  32768
 NUMBER OF SEGMENTS:   1  SEGMENT LENGTH:     274911      RECORD LENGTH: 524288

 Memory used in sort:       0.83 MW

 SORT1 READ      345687. AND WROTE      199909. INTEGRALS IN      1 RECORDS. CPU TIME:     0.00 SEC, REAL TIME:     0.01 SEC
 SORT2 READ      199909. AND WROTE      274911. INTEGRALS IN      5 RECORDS. CPU TIME:     0.02 SEC, REAL TIME:     0.02 SEC

 FILE SIZES:   FILE 1:    31.4 MBYTE,  FILE 4:     4.2 MBYTE,   TOTAL:     35.6 MBYTE

 OPERATOR DM      FOR CENTER  0  COORDINATES:    0.000000    0.000000    0.000000


 **********************************************************************************************************************************
 DATASETS  * FILE   NREC   LENGTH (MB)   RECORD NAMES
              1      19       31.11       500      610      700      900      950      970     1000      129      960     1100   
                                          VAR    BASINP    GEOM    SYMINP    ZMAT    AOBASIS   BASIS     P2S    ABASIS      S 
                                         1400     1410     1200     1210     1080     1600     1650     1300     1700   
                                           T        V       H0       H01     AOSYM     SMH    MOLCAS    ERIS     OPER   

 PROGRAMS   *        TOTAL       INT
 CPU TIMES  *         0.38      0.25
 REAL TIME  *         0.65 SEC
 DISK USED  *        36.01 MB      
 **********************************************************************************************************************************

 Density functional group M06=XC-M06
 Functional: XC-M06(via MFM 1.6)                                               Gradient terms: 1

 dispersion correction activated
 Density functional: M06     
 functional not in list, set to default 


 Exact exchange will be calculated, factor:  0.2700

 Functional: XC-M06                    Factor:  1.0000

 Use grid at  1800.2


 Exact exchange will be calculated, factor:  0.2700

 Functional: XC-M06                    Factor:  1.0000

 Generated new metagrid on record  1800.2 with target accuracy 1.0D-06 and 22862 points in CPU time    0.5
 Computed new grid on record 1800.1 in CPU time    0.5
   34198 words reserved for DFT integration

 PROGRAM * RKS-SCF (Restricted open shell Kohn-Sham)     Authors: W. Meyer, H.-J. Werner, P.J. Knowles, 1993

 NUMBER OF ELECTRONS:       9+    8-    SPACE SYMMETRY=1    SPIN SYMMETRY: Doublet 
 CONVERGENCE THRESHOLDS:    1.00E-05 (Density)    1.00E-06 (Energy)
 MAX. NUMBER OF ITERATIONS:       60
 INTERPOLATION TYPE:            DIIS
 INTERPOLATION STEPS:              2 (START)      1 (STEP)
 LEVEL SHIFTS:                 -0.60 (CLOSED) -0.30 (OPEN) 



 Use fine grid record 1800.2 for energy threshold  1.0D-06
 Orbital guess generated from atomic densities. Full valence occupancy:    9

 Molecular orbital dump at record        2100.2

 Initial alpha occupancy:   9
 Initial beta  occupancy:   8
 Wave function symmetry:    1

 ITERATION    DDIFF          GRAD             ENERGY        2-EL.EN.            DIPOLE MOMENTS         DIIS   ORB.
    1      0.000D+00      0.000D+00       -78.93082104    147.503537   -0.05747   -0.10129    0.26012    0    start
    2      0.000D+00      0.155D-01       -79.00373704    141.807484   -0.02301   -0.05429    0.12138    1    diag,B
    3      0.189D-01      0.416D-02       -79.00879088    142.749686   -0.02614   -0.05818    0.11763    2    diag,B
    4      0.464D-02      0.739D-03       -79.00936049    142.686049   -0.02285   -0.05380    0.09997    3    diag,B
    5      0.217D-02      0.259D-03       -79.00945014    142.663094   -0.02094   -0.05104    0.09136    4    diag,B
    6      0.107D-02      0.515D-04       -79.00945345    142.664679   -0.02058   -0.05052    0.09089    5    diag,B
    7      0.164D-03      0.165D-04       -79.00945388    142.664941   -0.02042   -0.05027    0.09067    6    fixocc
    8      0.617D-04      0.552D-05       -79.00945393    142.665149   -0.02037   -0.05020    0.09071    7    diag,B
    9      0.211D-04      0.198D-05       -79.00945394    142.665148   -0.02035   -0.05015    0.09071    8    diag,B
   10      0.110D-04      0.473D-06       -79.00945394    142.665143   -0.02034   -0.05014    0.09070    9    orth
   11      0.290D-05      0.128D-06       -79.00945394    142.665144   -0.02034   -0.05014    0.09070    0    orth

 Dispersion correction
 - - - - - - - - - - - 
  _________________________________
                                   
 |         DFTD3 V1.3 Rev 1        |
 | S.Grimme, University Muenster   |
 | Fri Jul  2 12:48:21 CEST 2010   |
  _________________________________

 Please cite DFT-D3 work done with this code as:
 S. Grimme, J. Antony, S. Ehrlich and H. Krieg,
 J. Chem. Phys, 132 (2010), 154104.
 For DFT-D2 the reference is
 S. Grimme, J. Comput. Chem., 27 (2006), 1787-1799

 C6 coefficients used:
                    2  C6 for element                     1
 Z=  1 CN=   0.912     C6(AA)=    3.03
 Z=  1 CN=   0.000     C6(AA)=    7.59
                    5  C6 for element                     6
 Z=  6 CN=   0.000     C6(AA)=   49.11
 Z=  6 CN=   0.987     C6(AA)=   43.25
 Z=  6 CN=   1.998     C6(AA)=   29.36
 Z=  6 CN=   2.999     C6(AA)=   25.78
 Z=  6 CN=   3.984     C6(AA)=   18.21

 #           XYZ [au]               R0(AA) [Ang.]   CN       C6(AA)     C8(AA)   C10(AA) [au]
  1   0.00000   0.00000   0.00000   c   1.455  2.998        25.7       742.6     26308.8
  2   0.00000   0.00000   2.81596   c   1.455  3.979        18.3       530.6     18799.0
  3   1.91575   0.00000   3.57374   h   1.091  0.998         3.1        37.4       553.4
  4  -1.60353   0.70700  -1.04477   h   1.091  0.997         3.1        37.4       553.5
  5  -0.94687  -1.67747   3.58264   h   1.091  0.997         3.1        37.4       553.5
  6  -0.99213   1.63930   3.57357   h   1.091  0.998         3.1        37.4       553.4
  7   1.45921  -0.96886  -1.04610   h   1.091  0.997         3.1        37.4       553.5

 molecular C6(AA) [au] =       328.17

           DFT-D V3
 DF pbe                                               
 parameters
 s6       :    1.0000
 s8       :    0.7220
 rs6      :    1.2170
 alpha6   :   14.0000
 alpha8   :   16.0000
 k1-k3    :   16.0000    1.3333   -4.0000

 Edisp /kcal,au:    -0.4333 -0.00069043

 E6    /kcal :    -0.1402
 E8    /kcal :    -0.2931
 % E8        : 67.65
 normal termination of dftd3

 RKS STATE 1.1 ENERGY+DISP      -79.01014437

 Final alpha occupancy:   9
 Final beta  occupancy:   8

 !RKS STATE 1.1 Energy                -79.010144367266
 Nuclear energy                        36.98165179
 One-electron energy                 -177.99385037
 Two-electron energy                   71.33257178
 Density functional                    -9.32982714     XC-M06=-9.32982714
 Virial quotient                       -1.01037490
 !RKS STATE 1.1 Dipole moment          -0.02033963    -0.05013899     0.09070322
 Dipole moment /Debye                  -0.05169480    -0.12743224     0.23052950

 Orbital energies:

         1.1          2.1          3.1          4.1          5.1          6.1          7.1          8.1          9.1         10.1
    -10.235737   -10.234736    -0.748031    -0.597178    -0.455887    -0.413018    -0.397295    -0.363599    -0.209657     0.081852

        11.1
      0.110718

 HOMO      9.1    -0.209657 =      -5.7051eV
 LUMO     10.1     0.081852 =       2.2273eV
 LUMO-HOMO         0.291509 =       7.9324eV


 **********************************************************************************************************************************
 DATASETS  * FILE   NREC   LENGTH (MB)   RECORD NAMES
              1      20       31.84       500      610      700      900      950      970     1000      129      960     1100   
                                          VAR    BASINP    GEOM    SYMINP    ZMAT    AOBASIS   BASIS     P2S    ABASIS      S 
                                         1400     1410     1200     1210     1080     1600     1650     1300     1700     1800   
                                           T        V       H0       H01     AOSYM     SMH    MOLCAS    ERIS     OPER     GRID   

              2       5        2.89       700     1000      520     1800     2100   
                                         GEOM     BASIS   MCVARS    GRID      RKS  

 PROGRAMS   *        TOTAL        KS       INT
 CPU TIMES  *         6.61      6.23      0.25
 REAL TIME  *         7.07 SEC
 DISK USED  *        36.01 MB      
 **********************************************************************************************************************************


 PROGRAM * Intrinsic Basis Bonding Analysis (IBBA)          Author: G. Knizia

 Molecular orbitals read from record     2100.2  Type=RKS/CANONICAL (state 1.1)
 Fock matrix read from record            2100.2  Type=RKS/TOTAL (state 1.1)
 Orbital energies read from record       2100.2  Type=RKS/CANONICAL (state 1.1)
 Density matrix read from record         2100.2  Type=RKS/CHARGE (state 1.1)

 Number of core orbitals:           2 (   2 )
 Number of closed-shell orbitals:   6 (   6 )
 Number of active  orbitals:        1 (   1 )

 Basis set MINAO-AUTO-PP generated.      Number of basis functions:   15 

 Polarized AO type:                A = (O Ot + (1-O)(1-Ot)) P12
 Orthogonalization method:         Symmetric (Loewdin)
 Localization functional:          L = sum[A,i] <i|n_A|i>^4 -> max

 Localization group 1:   8 orbitals, occupancy  2.000
 Iterative localization: IB/PM,    6 iter; Final gradient 0.58E-08

 Bond order analysis:       [THRPRINT= 0.020]

   CEN ATOM   CEN ATOM     WIBERG.BO      RENORM.BO
     1   C  -   2   C       1.115974       2.020178
     1   C  -   4   H       0.967655       0.983366
     1   C  -   7   H       0.967319       0.983668
     1   C  -   5   H       0.043887       0.646509

     2   C  -   1   C       1.115974       2.020178
     2   C  -   3   H       0.952124       0.989009
     2   C  -   6   H       0.951284       0.989110
     2   C  -   5   H       0.917664       0.999100

     3   H  -   2   C       0.952124       0.989009

     4   H  -   1   C       0.967655       0.983366

     5   H  -   2   C       0.917664       0.999100
     5   H  -   1   C       0.043887       0.646509

     6   H  -   2   C       0.951284       0.989110

     7   H  -   1   C       0.967319       0.983668


 Valency analysis:

   CEN ATOM   TOT.VALENCE
     1   C       3.116227
     2   C       3.939733
     3   H       0.978739
     4   H       0.983039
     5   H       0.967916
     6   H       0.978817
     7   H       0.982621
 Localization group 2:   1 orbitals, occupancy  1.000
 Iterative localization: IB/PM,    1 iter; Final gradient 0.00E+00

 Bond order analysis:       [THRPRINT= 0.020]

   CEN ATOM   CEN ATOM     WIBERG.BO      RENORM.BO
     1   C  -   5   H       0.081740       0.500000




     5   H  -   1   C       0.081740       0.500000




 Valency analysis:

   CEN ATOM   TOT.VALENCE
     1   C       0.122417
     2   C       0.004915
     3   H       0.017810
     4   H       0.000236
     5   H       0.083644
     6   H       0.019965
     7   H       0.000225

 Total charge composition:

   CEN ATOM         s          p       ELECTRONS ->P.CHARGE
     1   C       3.03977    3.23878      6.27855   -0.27855
     2   C       3.00272    3.38823      6.39095   -0.39095
     3   H       0.86318                 0.86318    0.13682
     4   H       0.86988                 0.86988    0.13012
     5   H       0.86461                 0.86461    0.13539
     6   H       0.86454                 0.86454    0.13546
     7   H       0.86828                 0.86828    0.13172

 Total charge composition, AO contributions:

   CEN ATOM SHL      SPHERICAL COMPONENTS
     1   C  1s       1.99239
     1   C  2s       1.04738
     1   C  2p       1.12543    1.04785    1.06551

     2   C  1s       1.99089
     2   C  2s       1.01183
     2   C  2p       1.16127    1.15433    1.07263

     3   H  1s       0.86318

     4   H  1s       0.86988

     5   H  1s       0.86461

     6   H  1s       0.86454

     7   H  1s       0.86828

 Active orbital charges:

   CEN ATOM         s          p       ELECTRONS ->SPIN.DEN
     1   C       0.00338    0.93112      0.93450    0.93450
     2   C       0.00001    0.00245      0.00246    0.00246
     3   H       0.00899                 0.00899    0.00899
     4   H       0.00012                 0.00012    0.00012
     5   H       0.04373                 0.04373    0.04373
     6   H       0.01008                 0.01008    0.01008
     7   H       0.00011                 0.00011    0.00011

 Active orbital charges, AO contributions:

   CEN ATOM SHL      SPHERICAL COMPONENTS
     1   C  1s       0.00000
     1   C  2s       0.00338
     1   C  2p       0.21404    0.71481    0.00227

     2   C  1s       0.00000
     2   C  2s       0.00001
     2   C  2p       0.00056    0.00187    0.00003

     3   H  1s       0.00899

     4   H  1s       0.00012

     5   H  1s       0.04373

     6   H  1s       0.01008

     7   H  1s       0.00011

 Summary of localized orbital composition:   [THRPRINT= 0.020]

   ORB  GRP  ORB.ENERGY      CENTERS/CHARGES
     1   1   -10.131440      C  1   2.000
     2   1   -10.117146      C  2   2.000
     3   1    -0.614027      C  2   1.002   C  1   0.995
     4   1    -0.529945      C  1   1.132   H  7   0.863
     5   1    -0.529034      C  1   1.130   H  4   0.864
     6   1    -0.509746      C  2   1.124   H  5   0.818   C  1   0.056
     7   1    -0.507762      C  2   1.129   H  3   0.850   (other: 0.021)
     8   1    -0.506381      C  2   1.128   H  6   0.850   (other: 0.022)
     9   2    -0.114747      C  1   0.935   H  5   0.044   (other: 0.022)

 Localized orbitals saved to record      2100.2  (orbital set 2)


 **********************************************************************************************************************************
 DATASETS  * FILE   NREC   LENGTH (MB)   RECORD NAMES
              1      20       31.84       500      610      700      900      950      970     1000      129      960     1100   
                                          VAR    BASINP    GEOM    SYMINP    ZMAT    AOBASIS   BASIS     P2S    ABASIS      S 
                                         1400     1410     1200     1210     1080     1600     1650     1300     1700     1800   
                                           T        V       H0       H01     AOSYM     SMH    MOLCAS    ERIS     OPER     GRID   

              2       5        2.91       700     1000      520     1800     2100   
                                         GEOM     BASIS   MCVARS    GRID      RKS  

 PROGRAMS   *        TOTAL      IBBA        KS       INT
 CPU TIMES  *         6.63      0.02      6.23      0.25
 REAL TIME  *         7.10 SEC
 DISK USED  *        36.01 MB      
 **********************************************************************************************************************************

 IBBA/SV(P) energy=      0.000000000000

        KS-SCF  
    -79.01014437
 **********************************************************************************************************************************
 Molpro calculation terminated
