
 Primary working directories    : /local
 Secondary working directories  : /local
 Wavefunction directory         : /local/
 Main file repository           : /local/

 SHA1      : b4a5b34a9e711420743f49e6833241d17c61fb3c
 NAME      : 2099.9.b4a5b34
 ARCHNAME  : linux/x86_64_openmp
 FC        : /cm/shared/languages/GCC-6.1/bin/gfortran
 BLASLIB   : -lblas
 id        : simonbennie

 Nodes     nprocs
 node34-015    1

 Using customized tuning parameters: mindgm=1; mindgv=20; mindgc=4; mindgr=1; noblas=0; minvec=7
 default implementation of scratch files=df  

 memory,500,m
 geomtyp=xyz
 nosym
 noorient
 geometry={
 C          0.00000        0.00000        0.00000
 C          0.00000        0.00000        1.49014
 H          1.01377        0.00000        1.89114
 H         -0.84855        0.37413       -0.55287
 H         -0.50106       -0.88768        1.89585
 H         -0.52501        0.86748        1.89105
 H          0.77218       -0.51270       -0.55357
 }
 basis={ default,avtz }
 {ks,MM06-HF,direct;wf,17,1,1}
 {ibba,bonds=1}

 Variables initialized (895), CPU time= 0.00 sec
 Commands  initialized (725), CPU time= 0.01 sec, 591 directives.
 Default parameters read. Elapsed time= 0.16 sec

 Checking input...
 Passed
1


                                         ***  PROGRAM SYSTEM MOLPRO  ***
                                       Copyright, TTI GmbH Stuttgart, 2015
                                    Version 2099.9 linked May 26 2017 16:03:21


 **********************************************************************************************************************************
 LABEL *                                                                                 
  64 bit serial version                                                                  DATE: 19-Jun-17          TIME: 14:27:02  
 **********************************************************************************************************************************

 SHA1:             b4a5b34a9e711420743f49e6833241d17c61fb3c
 **********************************************************************************************************************************
 SETTING GEOMTYP        =    XYZ

 Variable memory set to  500000000 words,  buffer space 

 ZSYMEL=NOSYM

 SETTING BASIS          =    AVTZ


 Recomputing integrals since basis changed


 Using spherical harmonics

 Library entry C      S aug-cc-pVTZ          selected for orbital group  1
 Library entry C      P aug-cc-pVTZ          selected for orbital group  1
 Library entry C      D aug-cc-pVTZ          selected for orbital group  1
 Library entry C      F aug-cc-pVTZ          selected for orbital group  1
 Library entry H      S aug-cc-pVTZ          selected for orbital group  2
 Library entry H      P aug-cc-pVTZ          selected for orbital group  2
 Library entry H      D aug-cc-pVTZ          selected for orbital group  2


 PROGRAM * SEWARD (Integral evaluation for generally contracted gaussian basis sets)     Author: Roland Lindh, 1990

 Geometry written to block  1 of record 700


 Point group  C1  



 ATOMIC COORDINATES

 NR  ATOM    CHARGE       X              Y              Z

   1  C       6.00    0.000000000    0.000000000    0.000000000
   2  C       6.00    0.000000000    0.000000000    2.815956487
   3  H       1.00    1.915747653    0.000000000    3.573736663
   4  H       1.00   -1.603527103    0.707003235   -1.044772882
   5  H       1.00   -0.946866172   -1.677472086    3.582637273
   6  H       1.00   -0.992125113    1.639299619    3.573566588
   7  H       1.00    1.459208719   -0.968862584   -1.046095691

 Bond lengths in Bohr (Angstrom)

 1-2  2.815956487  1-4  2.040270355  1-7  2.040171803  2-3  2.060174717  2-5  2.073226369
     ( 1.490140000)     ( 1.079664576)     ( 1.079612425)     ( 1.090197511)     ( 1.097104147)

 2-6  2.060482600
     ( 1.090360435)

 Bond angles

  1-2-3  111.58143444   1-2-5  111.70333312   1-2-6  111.57296243   2-1-4  120.80219065

  2-1-7  120.84710155   3-2-5  106.77850698   3-2-6  108.21011696   4-1-7  117.65385746

  5-2-6  106.72891007

 NUCLEAR CHARGE:                   17
 NUMBER OF PRIMITIVE AOS:         269
 NUMBER OF SYMMETRY AOS:          241
 NUMBER OF CONTRACTIONS:          207   ( 207A   )
 NUMBER OF CORE ORBITALS:           2   (   2A   )
 NUMBER OF VALENCE ORBITALS:       13   (  13A   )


 NUCLEAR REPULSION ENERGY   36.98165179

 Eigenvalues of metric

         1 0.322E-04 0.348E-04 0.580E-04 0.999E-04 0.109E-03 0.127E-03 0.186E-03 0.255E-03


 Contracted 2-electron integrals neglected if value below      1.0D-12
 AO integral compression algorithm  1   Integral accuracy      1.0D-12

     1231.815 MB (compressed) written to integral file ( 57.8%)


 NUMBER OF SORTED TWO-ELECTRON INTEGRALS:  231738156.     BUFFER LENGTH:  32768
 NUMBER OF SEGMENTS:  15  SEGMENT LENGTH:   15999503      RECORD LENGTH: 524288

 Memory used in sort:      16.56 MW

 SORT1 READ   266437413. AND WROTE   217572366. INTEGRALS IN    628 RECORDS. CPU TIME:     2.77 SEC, REAL TIME:    10.82 SEC
 SORT2 READ   217572366. AND WROTE   231738156. INTEGRALS IN   4699 RECORDS. CPU TIME:     4.40 SEC, REAL TIME:     9.16 SEC

 FILE SIZES:   FILE 1:  1263.5 MBYTE,  FILE 4:  2634.1 MBYTE,   TOTAL:   3897.5 MBYTE

 OPERATOR DM      FOR CENTER  0  COORDINATES:    0.000000    0.000000    0.000000


 **********************************************************************************************************************************
 DATASETS  * FILE   NREC   LENGTH (MB)   RECORD NAMES
              1      19     1133.71       500      610      700      900      950      970     1000      129      960     1100   
                                          VAR    BASINP    GEOM    SYMINP    ZMAT    AOBASIS   BASIS     P2S    ABASIS      S 
                                         1400     1410     1200     1210     1080     1600     1650     1300     1700   
                                           T        V       H0       H01     AOSYM     SMH    MOLCAS    ERIS     OPER   

 PROGRAMS   *        TOTAL       INT
 CPU TIMES  *        15.94     15.80
 REAL TIME  *        52.83 SEC
 DISK USED  *         3.90 GB      
 **********************************************************************************************************************************

 Density functional group MM06-HF=M06HFX+M06HFC
 Functional: M06HFX(Automatically generated (new) M06HFX)                      Gradient terms: 2
 Functional: M06HFC(Automatically generated (new) M06HFC)                      Gradient terms: 2
 Use grid at  1800.2


 Exact exchange will be calculated, factor:  1.0000

 Functional: M06HFX                    Factor:  1.0000
 Functional: M06HFC                    Factor:  1.0000

 Generated new metagrid on record  1800.2 with target accuracy 1.0D-06 and 23742 points in CPU time    0.5
 Computed new grid on record 1800.1 in CPU time    0.5
  326352 words reserved for DFT integration

 PROGRAM * RKS-SCF (Restricted open shell Kohn-Sham)     Authors: W. Meyer, H.-J. Werner, P.J. Knowles, 1993

 NUMBER OF ELECTRONS:       9+    8-    SPACE SYMMETRY=1    SPIN SYMMETRY: Doublet 
 CONVERGENCE THRESHOLDS:    1.00E-05 (Density)    1.00E-06 (Energy)
 MAX. NUMBER OF ITERATIONS:       60
 INTERPOLATION TYPE:            DIIS
 INTERPOLATION STEPS:              2 (START)      1 (STEP)
 LEVEL SHIFTS:                 -0.60 (CLOSED) -0.30 (OPEN) 



 Use fine grid record 1800.2 for energy threshold  1.0D-06
 Orbital guess generated from atomic densities. Full valence occupancy:   15

 Molecular orbital dump at record        2100.2

 Initial alpha occupancy:   9
 Initial beta  occupancy:   8
 Wave function symmetry:    1

 ITERATION    DDIFF          GRAD             ENERGY        2-EL.EN.            DIPOLE MOMENTS         DIIS   ORB.
    1      0.000D+00      0.000D+00       -79.11458021    126.586085   -0.05704   -0.09987    0.34862    0    start
    2      0.000D+00      0.430D-02       -79.14577931    124.620666   -0.03555   -0.05441    0.20723    1    diag,B
    3      0.140D-01      0.136D-02       -79.15112734    124.858813   -0.03216   -0.04776    0.16481    2    diag,B
    4      0.369D-02      0.699D-03       -79.15391330    124.807112   -0.02887   -0.04159    0.13163    3    diag,B
    5      0.270D-02      0.218D-03       -79.15428628    124.808200   -0.02829   -0.04141    0.12677    4    diag,B
    6      0.893D-03      0.701D-04       -79.15433182    124.806362   -0.02827   -0.04147    0.12673    5    diag,B
    7      0.380D-03      0.247D-04       -79.15433704    124.805270   -0.02837   -0.04152    0.12774    6    fixocc
    8      0.153D-03      0.720D-05       -79.15433744    124.805031   -0.02842   -0.04154    0.12829    7    diag,B
    9      0.531D-04      0.216D-05       -79.15433749    124.804989   -0.02842   -0.04155    0.12847    8    diag,B
   10      0.142D-04      0.812D-06       -79.15433749    124.805007   -0.02842   -0.04154    0.12853    9    orth
   11      0.381D-05      0.350D-06       -79.15433749    124.805003   -0.02841   -0.04153    0.12853    0    orth

 Final alpha occupancy:   9
 Final beta  occupancy:   8

 !RKS STATE 1.1 Energy                -79.154337494948
 Nuclear energy                        36.98165179
 One-electron energy                 -177.99011513
 Two-electron energy                   62.40250139
 Density functional                    -0.54837554     M06HFX= 0.01517411 M06HFC=-0.56354965
 Virial quotient                       -1.00677400
 !RKS STATE 1.1 Dipole moment          -0.02841467    -0.04152828     0.12853224
 Dipole moment /Debye                  -0.07221817    -0.10554744     0.32667496

 Orbital energies:

         1.1          2.1          3.1          4.1          5.1          6.1          7.1          8.1          9.1         10.1
    -10.966280   -10.956349    -0.960946    -0.789845    -0.618725    -0.563118    -0.536292    -0.509338    -0.322688     0.000873

        11.1
      0.015915

 HOMO      9.1    -0.322688 =      -8.7808eV
 LUMO     10.1     0.000873 =       0.0238eV
 LUMO-HOMO         0.323561 =       8.8045eV


 **********************************************************************************************************************************
 DATASETS  * FILE   NREC   LENGTH (MB)   RECORD NAMES
              1      20     1134.47       500      610      700      900      950      970     1000      129      960     1100   
                                          VAR    BASINP    GEOM    SYMINP    ZMAT    AOBASIS   BASIS     P2S    ABASIS      S 
                                         1400     1410     1200     1210     1080     1600     1650     1300     1700     1800   
                                           T        V       H0       H01     AOSYM     SMH    MOLCAS    ERIS     OPER     GRID   

              2       5        4.09       700     1000      520     1800     2100   
                                         GEOM     BASIS   MCVARS    GRID      RKS  

 PROGRAMS   *        TOTAL        KS       INT
 CPU TIMES  *       224.79    208.85     15.80
 REAL TIME  *       371.72 SEC
 DISK USED  *         3.90 GB      
 **********************************************************************************************************************************


 PROGRAM * Intrinsic Basis Bonding Analysis (IBBA)          Author: G. Knizia

 Molecular orbitals read from record     2100.2  Type=RKS/CANONICAL (state 1.1)
 Fock matrix read from record            2100.2  Type=RKS/TOTAL (state 1.1)
 Orbital energies read from record       2100.2  Type=RKS/CANONICAL (state 1.1)
 Density matrix read from record         2100.2  Type=RKS/CHARGE (state 1.1)

 Number of core orbitals:           2 (   2 )
 Number of closed-shell orbitals:   6 (   6 )
 Number of active  orbitals:        1 (   1 )

 Basis set MINAO-AUTO-PP generated.      Number of basis functions:   15 

 Polarized AO type:                A = (O Ot + (1-O)(1-Ot)) P12
 Orthogonalization method:         Symmetric (Loewdin)
 Localization functional:          L = sum[A,i] <i|n_A|i>^4 -> max

 Localization group 1:   8 orbitals, occupancy  2.000
 Iterative localization: IB/PM,    6 iter; Final gradient 0.64E-08

 Bond order analysis:       [THRPRINT= 0.020]

   CEN ATOM   CEN ATOM     WIBERG.BO      RENORM.BO
     1   C  -   2   C       1.096421       2.016148
     1   C  -   7   H       0.964620       0.985923
     1   C  -   4   H       0.964067       0.986104
     1   C  -   5   H       0.036789       0.663751

     2   C  -   1   C       1.096421       2.016148
     2   C  -   3   H       0.952587       0.991046
     2   C  -   6   H       0.951467       0.991300
     2   C  -   5   H       0.921977       0.999149

     3   H  -   2   C       0.952587       0.991046

     4   H  -   1   C       0.964067       0.986104

     5   H  -   2   C       0.921977       0.999149
     5   H  -   1   C       0.036789       0.663751

     6   H  -   2   C       0.951467       0.991300

     7   H  -   1   C       0.964620       0.985923


 Valency analysis:

   CEN ATOM   TOT.VALENCE
     1   C       3.078511
     2   C       3.925182
     3   H       0.975415
     4   H       0.977630
     5   H       0.965740
     6   H       0.974797
     7   H       0.978159
 Localization group 2:   1 orbitals, occupancy  1.000
 Iterative localization: IB/PM,    1 iter; Final gradient 0.00E+00

 Bond order analysis:       [THRPRINT= 0.020]

   CEN ATOM   CEN ATOM     WIBERG.BO      RENORM.BO
     1   C  -   5   H       0.067429       0.500000




     5   H  -   1   C       0.067429       0.500000




 Valency analysis:

   CEN ATOM   TOT.VALENCE
     1   C       0.099457
     2   C       0.004384
     3   H       0.013923
     4   H       0.000226
     5   H       0.068632
     6   H       0.014764
     7   H       0.000285

 Total charge composition:

   CEN ATOM         s          p       ELECTRONS ->P.CHARGE
     1   C       3.04922    3.27189      6.32111   -0.32111
     2   C       3.00341    3.42319      6.42660   -0.42660
     3   H       0.85021                 0.85021    0.14979
     4   H       0.85055                 0.85055    0.14945
     5   H       0.85049                 0.85049    0.14951
     6   H       0.84868                 0.84868    0.15132
     7   H       0.85235                 0.85235    0.14765

 Total charge composition, AO contributions:

   CEN ATOM SHL      SPHERICAL COMPONENTS
     1   C  1s       1.99177
     1   C  2s       1.05745
     1   C  2p       1.14681    1.05182    1.07326

     2   C  1s       1.99011
     2   C  2s       1.01330
     2   C  2p       1.18115    1.17849    1.06356

     3   H  1s       0.85021

     4   H  1s       0.85055

     5   H  1s       0.85049

     6   H  1s       0.84868

     7   H  1s       0.85235

 Active orbital charges:

   CEN ATOM         s          p       ELECTRONS ->SPIN.DEN
     1   C       0.00370    0.94382      0.94752    0.94752
     2   C       0.00004    0.00216      0.00220    0.00220
     3   H       0.00701                 0.00701    0.00701
     4   H       0.00011                 0.00011    0.00011
     5   H       0.03558                 0.03558    0.03558
     6   H       0.00744                 0.00744    0.00744
     7   H       0.00014                 0.00014    0.00014

 Active orbital charges, AO contributions:

   CEN ATOM SHL      SPHERICAL COMPONENTS
     1   C  1s       0.00000
     1   C  2s       0.00369
     1   C  2p       0.21707    0.72379    0.00296

     2   C  1s       0.00000
     2   C  2s       0.00004
     2   C  2p       0.00046    0.00156    0.00015

     3   H  1s       0.00701

     4   H  1s       0.00011

     5   H  1s       0.03558

     6   H  1s       0.00744

     7   H  1s       0.00014

 Summary of localized orbital composition:   [THRPRINT= 0.020]

   ORB  GRP  ORB.ENERGY      CENTERS/CHARGES
     1   1   -10.854587      C  1   2.000
     2   1   -10.831556      C  2   2.000
     3   1    -0.780636      C  1   1.004   C  2   0.993
     4   1    -0.705926      C  1   1.150   H  4   0.845
     5   1    -0.704477      C  1   1.148   H  7   0.847
     6   1    -0.675595      C  2   1.139   H  5   0.812   C  1   0.047
     7   1    -0.674798      C  2   1.145   H  6   0.837
     8   1    -0.673319      C  2   1.144   H  3   0.839
     9   2    -0.128731      C  1   0.948   H  5   0.036

 Localized orbitals saved to record      2100.2  (orbital set 2)


 **********************************************************************************************************************************
 DATASETS  * FILE   NREC   LENGTH (MB)   RECORD NAMES
              1      20     1134.47       500      610      700      900      950      970     1000      129      960     1100   
                                          VAR    BASINP    GEOM    SYMINP    ZMAT    AOBASIS   BASIS     P2S    ABASIS      S 
                                         1400     1410     1200     1210     1080     1600     1650     1300     1700     1800   
                                           T        V       H0       H01     AOSYM     SMH    MOLCAS    ERIS     OPER     GRID   

              2       5        4.44       700     1000      520     1800     2100   
                                         GEOM     BASIS   MCVARS    GRID      RKS  

 PROGRAMS   *        TOTAL      IBBA        KS       INT
 CPU TIMES  *       224.84      0.05    208.85     15.80
 REAL TIME  *       371.80 SEC
 DISK USED  *         3.90 GB      
 **********************************************************************************************************************************
 Molecular orbitals read from record     2100.2  Type=RKS/LOCAL(IBO)  
 Occupation numbers read from record     2100.2  Type=RKS/LOCAL(IBO)  
 Orbital energies read from record       2100.2  Type=RKS/LOCAL(IBO)  
 Redundancy group numbers read from rec  2100.2  Type=RKS/LOCAL(IBO)  

 IBBA/aug-cc-pVTZ energy=      0.000000000000

        KS-SCF  
    -79.15433749
 **********************************************************************************************************************************
 Molpro calculation terminated
