
 Primary working directories    : /local
 Secondary working directories  : /local
 Wavefunction directory         : /local/
 Main file repository           : /local/

 SHA1      : b4a5b34a9e711420743f49e6833241d17c61fb3c
 NAME      : 2099.9.b4a5b34
 ARCHNAME  : linux/x86_64_openmp
 FC        : /cm/shared/languages/GCC-6.1/bin/gfortran
 BLASLIB   : -lblas
 id        : simonbennie

 Nodes     nprocs
 node34-039    1

 Using customized tuning parameters: mindgm=1; mindgv=20; mindgc=4; mindgr=1; noblas=0; minvec=7
 default implementation of scratch files=df  

 memory,500,m
 geomtyp=xyz
 nosym
 noorient
 geometry={
 C          0.00000        0.00000        0.00000
 C          0.00000        0.00000        1.52618
 H          1.01607        0.00000        1.92140
 H          0.50960       -0.87904       -0.39522
 H         -0.50803       -0.87994        1.92140
 H         -0.50804        0.87994        1.92140
 H         -1.01607       -0.00180       -0.39522
 H          0.50647        0.88084       -0.39522
 }
 basis={ default,SV(P) }
 {hf,direct;wf,18,1,0}
 {ks,M06-2X,direct;maxit,0;wf,18,1,0}
 {ibba,bonds=1}

 Variables initialized (895), CPU time= 0.00 sec
 Commands  initialized (725), CPU time= 0.02 sec, 591 directives.
 Default parameters read. Elapsed time= 0.08 sec

 Checking input...
 Passed
1


                                         ***  PROGRAM SYSTEM MOLPRO  ***
                                       Copyright, TTI GmbH Stuttgart, 2015
                                    Version 2099.9 linked May 26 2017 16:03:21


 **********************************************************************************************************************************
 LABEL *                                                                                 
  64 bit serial version                                                                  DATE: 10-Mar-18          TIME: 00:34:01  
 **********************************************************************************************************************************

 SHA1:             b4a5b34a9e711420743f49e6833241d17c61fb3c
 **********************************************************************************************************************************
 SETTING GEOMTYP        =    XYZ

 Variable memory set to  500000000 words,  buffer space 

 ZSYMEL=NOSYM

 SETTING BASIS          =    SV(P)


 Recomputing integrals since basis changed


 Using spherical harmonics

 Library entry C      S def2-SV(P)           selected for orbital group  1
 Library entry C      P def2-SV(P)           selected for orbital group  1
 Library entry C      D def2-SV(P)           selected for orbital group  1
 Library entry H      S def2-SV(P)           selected for orbital group  2


 PROGRAM * SEWARD (Integral evaluation for generally contracted gaussian basis sets)     Author: Roland Lindh, 1990

 Geometry written to block  1 of record 700


 Point group  C1  



 ATOMIC COORDINATES

 NR  ATOM    CHARGE       X              Y              Z

   1  C       6.00    0.000000000    0.000000000    0.000000000
   2  C       6.00    0.000000000    0.000000000    2.884062217
   3  H       1.00    1.920094023    0.000000000    3.630919776
   4  H       1.00    0.963004433   -1.661144853   -0.746857559
   5  H       1.00   -0.960037563   -1.662845606    3.630919776
   6  H       1.00   -0.960056460    1.662845606    3.630919776
   7  H       1.00   -1.920094023   -0.003401507   -0.746857559
   8  H       1.00    0.957089590    1.664546360   -0.746857559

 Bond lengths in Bohr (Angstrom)

 1-2  2.884062217  1-4  2.060236873  1-7  2.060235142  1-8  2.060226027  2-3  2.060232334
     ( 1.526180000)     ( 1.090230402)     ( 1.090229487)     ( 1.090224663)     ( 1.090228001)

 2-5  2.060224222  2-6  2.060233028
     ( 1.090223708)     ( 1.090228368)

 Bond angles

  1-2-3  111.25450558   1-2-5  111.25459334   1-2-6  111.25449808   2-1-4  111.25445649

  2-1-7  111.25447521   2-1-8  111.25457382   3-2-5  107.63037788   3-2-6  107.63081399

  4-1-7  107.63089667   4-1-8  107.63044521   5-2-6  107.63041223   7-1-8  107.63035952

 NUCLEAR CHARGE:                   18
 NUMBER OF PRIMITIVE AOS:          74
 NUMBER OF SYMMETRY AOS:           72
 NUMBER OF CONTRACTIONS:           40   (  40A   )
 NUMBER OF CORE ORBITALS:           2   (   2A   )
 NUMBER OF VALENCE ORBITALS:       14   (  14A   )


 NUCLEAR REPULSION ENERGY   42.29536783


 Eigenvalues of metric

         1 0.471E-02 0.194E-01 0.498E-01 0.518E-01 0.518E-01 0.706E-01 0.706E-01 0.172E+00


 Contracted 2-electron integrals neglected if value below      1.0D-11
 AO integral compression algorithm  1   Integral accuracy      1.0D-11

     1.573 MB (compressed) written to integral file ( 54.3%)


 NUMBER OF SORTED TWO-ELECTRON INTEGRALS:     336610.     BUFFER LENGTH:  32768
 NUMBER OF SEGMENTS:   1  SEGMENT LENGTH:     336610      RECORD LENGTH: 524288

 Memory used in sort:       0.89 MW

 SORT1 READ      416247. AND WROTE      261159. INTEGRALS IN      1 RECORDS. CPU TIME:     0.01 SEC, REAL TIME:     0.01 SEC
 SORT2 READ      261159. AND WROTE      336610. INTEGRALS IN      6 RECORDS. CPU TIME:     0.03 SEC, REAL TIME:     0.03 SEC

 FILE SIZES:   FILE 1:    31.7 MBYTE,  FILE 4:     4.2 MBYTE,   TOTAL:     35.9 MBYTE

 OPERATOR DM      FOR CENTER  0  COORDINATES:    0.000000    0.000000    0.000000


 **********************************************************************************************************************************
 DATASETS  * FILE   NREC   LENGTH (MB)   RECORD NAMES
              1      19       31.42       500      610      700      900      950      970     1000      129      960     1100   
                                          VAR    BASINP    GEOM    SYMINP    ZMAT    AOBASIS   BASIS     P2S    ABASIS      S 
                                         1400     1410     1200     1210     1080     1600     1650     1300     1700   
                                           T        V       H0       H01     AOSYM     SMH    MOLCAS    ERIS     OPER   

 PROGRAMS   *        TOTAL       INT
 CPU TIMES  *         0.42      0.28
 REAL TIME  *         0.72 SEC
 DISK USED  *        36.32 MB      
 **********************************************************************************************************************************


 PROGRAM * RHF-SCF (CLOSED SHELL)       Authors: W. Meyer, H.-J. Werner


 NUMBER OF ELECTRONS:       9+    9-    SPACE SYMMETRY=1    SPIN SYMMETRY: Singlet 
 CONVERGENCE THRESHOLDS:    1.00E-05 (Density)    1.00E-07 (Energy)
 INTEGRAL THRESHOLDS:       1.00E-11 (Initial)    1.00E-11 (Final)
 MAX. NUMBER OF ITERATIONS:       60
 INTERPOLATION TYPE:            DIIS
 INTERPOLATION STEPS:              2 (START)      1 (STEP)
 LEVEL SHIFTS:                  0.00 (CLOSED)  0.00 (OPEN) 



 Orbital guess generated from atomic densities. Full valence occupancy:    9

 Molecular orbital dump at record        2100.2

 Initial occupancy:   9

 Direct Fock-matrix evaluation.        Authors: Roland Lindh & Martin Schuetz (1993/96)

 Integral Threshold:                  0.1D-10
 Threshold for writing integrals:     0.1D-06
 Prescreening on density matrix:        ON 
 Calculation will be performed fully direct        

 ITERATION   DDIFF            GRAD            ENERGY        2-EL.EN.            DIPOLE MOMENTS         DIIS   CPU(IT)  CPU(TOT)
    1      0.000D+00      0.000D+00       -79.12647113    136.503666    0.00000   -0.00000   -0.00000    0      1.0      1.9     start
    2      0.000D+00      0.829D-02       -79.15377400    134.339502   -0.00000    0.00000    0.00000    1      0.5      2.4     diag
    3      0.974D-02      0.319D-02       -79.15711501    135.220318   -0.00000    0.00000    0.00000    2      0.5      2.9     diag
    4      0.332D-02      0.918D-03       -79.15755896    135.043637   -0.00000    0.00000    0.00000    3      0.6      3.5     diag
    5      0.150D-02      0.821D-04       -79.15756363    135.042731   -0.00000    0.00000    0.00000    4      0.6      4.0     diag
    6      0.242D-03      0.617D-05       -79.15756365    135.042764   -0.00000    0.00000    0.00000    5      0.6      4.6     diag
    7      0.147D-04      0.835D-06       -79.15756365    135.042731   -0.00000    0.00000    0.00000    6      0.6      5.2     diag
    8      0.172D-05      0.982D-07       -79.15756365    135.042721   -0.00000    0.00000    0.00000    0      0.6      5.8     orth

 Final occupancy:   9

 !RHF STATE 1.1 Energy                -79.157563649154
 Nuclear energy                        42.29536783
 One-electron energy                 -188.97429200
 Two-electron energy                   67.52136053
 Virial quotient                       -1.00392369
 !RHF STATE 1.1 Dipole moment          -0.00000001     0.00000040     0.00000091
 Dipole moment /Debye                  -0.00000002     0.00000102     0.00000232

 Orbital energies:

         1.1          2.1          3.1          4.1          5.1          6.1          7.1          8.1          9.1         10.1
    -11.211673   -11.211152    -1.009688    -0.834608    -0.600885    -0.600885    -0.515318    -0.490788    -0.490788     0.180040

        11.1
      0.229955

 HOMO      9.1    -0.490788 =     -13.3550eV
 LUMO     10.1     0.180040 =       4.8991eV
 LUMO-HOMO         0.670828 =      18.2541eV


 **********************************************************************************************************************************
 DATASETS  * FILE   NREC   LENGTH (MB)   RECORD NAMES
              1      19       31.42       500      610      700      900      950      970     1000      129      960     1100   
                                          VAR    BASINP    GEOM    SYMINP    ZMAT    AOBASIS   BASIS     P2S    ABASIS      S 
                                         1400     1410     1200     1210     1080     1600     1650     1300     1700   
                                           T        V       H0       H01     AOSYM     SMH    MOLCAS    ERIS     OPER   

              2       4        2.90       700     1000      520     2100   
                                         GEOM     BASIS   MCVARS     RHF  

 PROGRAMS   *        TOTAL        HF       INT
 CPU TIMES  *         6.22      5.80      0.28
 REAL TIME  *        12.39 SEC
 DISK USED  *        36.32 MB      
 **********************************************************************************************************************************

 Density functional group M06-2X=XC-M06-2X
 Functional: XC-M06-2X(via MFM 1.6)                                            Gradient terms: 1
 Use grid at  1800.2


 Exact exchange will be calculated, factor:  0.5400

 Functional: XC-M06-2X                 Factor:  1.0000

 Generated new metagrid on record  1800.2 with target accuracy 1.0D-06 and 25096 points in CPU time    0.6
 Computed new grid on record 1800.1 in CPU time    0.6
   35822 words reserved for DFT integration

 PROGRAM * RKS-SCF (Restricted closed shell Kohn-Sham)     Authors: W. Meyer, H.-J. Werner, P.J. Knowles, 1993

 NUMBER OF ELECTRONS:       9+    9-    SPACE SYMMETRY=1    SPIN SYMMETRY: Singlet 
 CONVERGENCE THRESHOLDS:    1.00E-05 (Density)    1.00E-06 (Energy)
 MAX. NUMBER OF ITERATIONS:        0
 INTERPOLATION TYPE:            DIIS
 INTERPOLATION STEPS:              2 (START)      1 (STEP)
 LEVEL SHIFTS:                  0.00 (CLOSED)  0.00 (OPEN) 



 Use fine grid record 1800.2 for energy threshold  1.0D-06
 Molecular orbitals read from record     2100.2  Type=RHF/CANONICAL (state 1.1)

 Molecular orbital dump at record        2101.2

 ITERATION    DDIFF          GRAD             ENERGY        2-EL.EN.            DIPOLE MOMENTS         DIIS   ORB.
    1      0.000D+00      0.000D+00       -79.69275939    146.525460   -0.00000    0.00000    0.00000    0    start

 Final occupancy:   9

 !RKS STATE 1.1 Energy                -79.692759389324
 Nuclear energy                        42.29536783
 One-electron energy                 -188.97429200
 Two-electron energy                   73.26272998
 SCF exchange energy                  -12.48123794     Factor= 0.5400
 Density functional                    -6.27656519     XC-M06-2X=-6.27656519
 Virial quotient                       -1.01071137
 !RKS STATE 1.1 Dipole moment          -0.00000001     0.00000040     0.00000091
 Dipole moment /Debye                  -0.00000002     0.00000102     0.00000232

 Orbital energies:

         1.1          2.1          3.1          4.1          5.1          6.1          7.1          8.1          9.1         10.1
    -11.211673   -11.211152    -1.009688    -0.834608    -0.600885    -0.600885    -0.515318    -0.490788    -0.490788     0.180040

        11.1
      0.229955

 HOMO      9.1    -0.490788 =     -13.3550eV
 LUMO     10.1     0.180040 =       4.8991eV
 LUMO-HOMO         0.670828 =      18.2541eV


 **********************************************************************************************************************************
 DATASETS  * FILE   NREC   LENGTH (MB)   RECORD NAMES
              1      20       32.22       500      610      700      900      950      970     1000      129      960     1100   
                                          VAR    BASINP    GEOM    SYMINP    ZMAT    AOBASIS   BASIS     P2S    ABASIS      S 
                                         1400     1410     1200     1210     1080     1600     1650     1300     1700     1800   
                                           T        V       H0       H01     AOSYM     SMH    MOLCAS    ERIS     OPER     GRID   

              2       6        5.46       700     1000      520     2100     1800     2101   
                                         GEOM     BASIS   MCVARS     RHF     GRID      RKS  

 PROGRAMS   *        TOTAL        KS        HF       INT
 CPU TIMES  *         7.28      1.06      5.80      0.28
 REAL TIME  *        13.47 SEC
 DISK USED  *        37.73 MB      
 **********************************************************************************************************************************


 PROGRAM * Intrinsic Basis Bonding Analysis (IBBA)          Author: G. Knizia

 Molecular orbitals read from record     2101.2  Type=RKS/CANONICAL (state 1.1)
 Fock matrix read from record            2101.2  Type=RKS/TOTAL (state 1.1)
 Orbital energies read from record       2101.2  Type=RKS/CANONICAL (state 1.1)
 Density matrix read from record         2101.2  Type=RKS/CHARGE (state 1.1)

 Number of core orbitals:           2 (   2 )
 Number of closed-shell orbitals:   7 (   7 )

 Basis set MINAO-AUTO-PP generated.      Number of basis functions:   16 

 Polarized AO type:                A = (O Ot + (1-O)(1-Ot)) P12
 Orthogonalization method:         Symmetric (Loewdin)
 Localization functional:          L = sum[A,i] <i|n_A|i>^4 -> max

 Localization group 1:   9 orbitals, occupancy  2.000
 Iterative localization: IB/PM,    7 iter; Final gradient 0.29E-09

 Bond order analysis:       [THRPRINT= 0.020]

   CEN ATOM   CEN ATOM     WIBERG.BO      RENORM.BO
     1   C  -   2   C       1.035928       1.030462
     1   C  -   4   H       0.972986       0.986914
     1   C  -   7   H       0.972986       0.986914
     1   C  -   8   H       0.972986       0.986914

     2   C  -   1   C       1.035928       1.030462
     2   C  -   6   H       0.972986       0.986914
     2   C  -   3   H       0.972986       0.986914
     2   C  -   5   H       0.972986       0.986914

     3   H  -   2   C       0.972986       0.986914

     4   H  -   1   C       0.972986       0.986914

     5   H  -   2   C       0.972986       0.986914

     6   H  -   2   C       0.972986       0.986914

     7   H  -   1   C       0.972986       0.986914

     8   H  -   1   C       0.972986       0.986914


 Valency analysis:

   CEN ATOM   TOT.VALENCE
     1   C       3.956973
     2   C       3.956973
     3   H       0.988321
     4   H       0.988321
     5   H       0.988321
     6   H       0.988321
     7   H       0.988321
     8   H       0.988321

 Total charge composition:

   CEN ATOM         s          p       ELECTRONS ->P.CHARGE
     1   C       3.00217    3.32204      6.32420   -0.32420
     2   C       3.00216    3.32204      6.32420   -0.32420
     3   H       0.89193                 0.89193    0.10807
     4   H       0.89193                 0.89193    0.10807
     5   H       0.89193                 0.89193    0.10807
     6   H       0.89193                 0.89193    0.10807
     7   H       0.89193                 0.89193    0.10807
     8   H       0.89193                 0.89193    0.10807

 Total charge composition, AO contributions:

   CEN ATOM SHL      SPHERICAL COMPONENTS
     1   C  1s       1.98995
     1   C  2s       1.01221
     1   C  2p       1.13683    1.13683    1.04838

     2   C  1s       1.98995
     2   C  2s       1.01221
     2   C  2p       1.13683    1.13683    1.04838

     3   H  1s       0.89193

     4   H  1s       0.89193

     5   H  1s       0.89193

     6   H  1s       0.89193

     7   H  1s       0.89193

     8   H  1s       0.89193

 Summary of localized orbital composition:   [THRPRINT= 0.020]

   ORB  GRP  ORB.ENERGY      CENTERS/CHARGES
     1   1   -10.435029      C  1   2.000
     2   1   -10.435028      C  2   2.000
     3   1    -0.647668      C  1   0.999   C  2   0.999
     4   1    -0.571806      C  2   1.106   H  3   0.887
     5   1    -0.571805      C  1   1.106   H  7   0.887
     6   1    -0.571002      C  1   1.106   H  4   0.887
     7   1    -0.571000      C  2   1.106   H  5   0.887
     8   1    -0.570998      C  2   1.106   H  6   0.887
     9   1    -0.570996      C  1   1.106   H  8   0.887

 Localized orbitals saved to record      2101.2  (orbital set 2)


 **********************************************************************************************************************************
 DATASETS  * FILE   NREC   LENGTH (MB)   RECORD NAMES
              1      20       32.22       500      610      700      900      950      970     1000      129      960     1100   
                                          VAR    BASINP    GEOM    SYMINP    ZMAT    AOBASIS   BASIS     P2S    ABASIS      S 
                                         1400     1410     1200     1210     1080     1600     1650     1300     1700     1800   
                                           T        V       H0       H01     AOSYM     SMH    MOLCAS    ERIS     OPER     GRID   

              2       6        5.48       700     1000      520     2100     1800     2101   
                                         GEOM     BASIS   MCVARS     RHF     GRID      RKS  

 PROGRAMS   *        TOTAL      IBBA        KS        HF       INT
 CPU TIMES  *         7.30      0.02      1.06      5.80      0.28
 REAL TIME  *        13.50 SEC
 DISK USED  *        37.74 MB      
 **********************************************************************************************************************************

 IBBA/SV(P) energy=      0.000000000000

        KS-SCF          HF-SCF  
    -79.69275939    -79.15756365
 **********************************************************************************************************************************
 Molpro calculation terminated
