
 Primary working directories    : /local
 Secondary working directories  : /local
 Wavefunction directory         : /local/
 Main file repository           : /local/

 SHA1      : b4a5b34a9e711420743f49e6833241d17c61fb3c
 NAME      : 2099.9.b4a5b34
 ARCHNAME  : linux/x86_64_openmp
 FC        : /cm/shared/languages/GCC-6.1/bin/gfortran
 BLASLIB   : -lblas
 id        : simonbennie

 Nodes     nprocs
 node35-046    1

 Using customized tuning parameters: mindgm=1; mindgv=20; mindgc=4; mindgr=1; noblas=0; minvec=7
 default implementation of scratch files=df  

 memory,500,m
 geomtyp=xyz
 nosym
 noorient
 geometry={
 C          0.00000        0.00000        0.00000
 C          0.00000        0.00000        1.52618
 H          1.01607        0.00000        1.92140
 H          0.50960       -0.87904       -0.39522
 H         -0.50803       -0.87994        1.92140
 H         -0.50804        0.87994        1.92140
 H         -1.01607       -0.00180       -0.39522
 H          0.50647        0.88084       -0.39522
 }
 basis={ default,qzvp }
 {uks,M08-HX,direct;wf,18,1,0}
 {ibba,bonds=1}

 Variables initialized (895), CPU time= 0.01 sec
 Commands  initialized (725), CPU time= 0.01 sec, 591 directives.
 Default parameters read. Elapsed time= 0.08 sec

 Checking input...
 Passed
1


                                         ***  PROGRAM SYSTEM MOLPRO  ***
                                       Copyright, TTI GmbH Stuttgart, 2015
                                    Version 2099.9 linked May 26 2017 16:03:21


 **********************************************************************************************************************************
 LABEL *                                                                                 
  64 bit serial version                                                                  DATE: 19-Jun-17          TIME: 15:57:20  
 **********************************************************************************************************************************

 SHA1:             b4a5b34a9e711420743f49e6833241d17c61fb3c
 **********************************************************************************************************************************
 SETTING GEOMTYP        =    XYZ

 Variable memory set to  500000000 words,  buffer space 

 ZSYMEL=NOSYM

 SETTING BASIS          =    QZVP


 Recomputing integrals since basis changed


 Using spherical harmonics

 Library entry C      S def2-QZVP            selected for orbital group  1
 Library entry C      P def2-QZVP            selected for orbital group  1
 Library entry C      D def2-QZVP            selected for orbital group  1
 Library entry C      F def2-QZVP            selected for orbital group  1
 Library entry C      G def2-QZVP            selected for orbital group  1
 Library entry H      S def2-QZVP            selected for orbital group  2
 Library entry H      P def2-QZVP            selected for orbital group  2
 Library entry H      D def2-QZVP            selected for orbital group  2
 Library entry H      F def2-QZVP            selected for orbital group  2


 PROGRAM * SEWARD (Integral evaluation for generally contracted gaussian basis sets)     Author: Roland Lindh, 1990

 Geometry written to block  1 of record 700


 Point group  C1  



 ATOMIC COORDINATES

 NR  ATOM    CHARGE       X              Y              Z

   1  C       6.00    0.000000000    0.000000000    0.000000000
   2  C       6.00    0.000000000    0.000000000    2.884062217
   3  H       1.00    1.920094023    0.000000000    3.630919776
   4  H       1.00    0.963004433   -1.661144853   -0.746857559
   5  H       1.00   -0.960037563   -1.662845606    3.630919776
   6  H       1.00   -0.960056460    1.662845606    3.630919776
   7  H       1.00   -1.920094023   -0.003401507   -0.746857559
   8  H       1.00    0.957089590    1.664546360   -0.746857559

 Bond lengths in Bohr (Angstrom)

 1-2  2.884062217  1-4  2.060236873  1-7  2.060235142  1-8  2.060226027  2-3  2.060232334
     ( 1.526180000)     ( 1.090230402)     ( 1.090229487)     ( 1.090224663)     ( 1.090228001)

 2-5  2.060224222  2-6  2.060233028
     ( 1.090223708)     ( 1.090228368)

 Bond angles

  1-2-3  111.25450558   1-2-5  111.25459334   1-2-6  111.25449808   2-1-4  111.25445649

  2-1-7  111.25447521   2-1-8  111.25457382   3-2-5  107.63037788   3-2-6  107.63081399

  4-1-7  107.63089667   4-1-8  107.63044521   5-2-6  107.63041223   7-1-8  107.63035952

 NUCLEAR CHARGE:                   18
 NUMBER OF PRIMITIVE AOS:         412
 NUMBER OF SYMMETRY AOS:          352
 NUMBER OF CONTRACTIONS:          294   ( 294A   )
 NUMBER OF CORE ORBITALS:           2   (   2A   )
 NUMBER OF VALENCE ORBITALS:       14   (  14A   )


 NUCLEAR REPULSION ENERGY   42.29536783


 Eigenvalues of metric

         1 0.102E-03 0.110E-03 0.123E-03 0.127E-03 0.127E-03 0.139E-03 0.139E-03 0.661E-03


 Contracted 2-electron integrals neglected if value below      1.0D-11
 AO integral compression algorithm  1   Integral accuracy      1.0D-11

     3371.696 MB (compressed) written to integral file ( 40.9%)


 NUMBER OF SORTED TWO-ELECTRON INTEGRALS:  940283295.     BUFFER LENGTH:  32768
 NUMBER OF SEGMENTS:  59  SEGMENT LENGTH:   15999984      RECORD LENGTH: 262144

 Memory used in sort:      16.29 MW

 SORT1 READ  1031331265. AND WROTE   825450629. INTEGRALS IN   4751 RECORDS. CPU TIME:    11.92 SEC, REAL TIME:    65.97 SEC
 SORT2 READ   825450629. AND WROTE   940283295. INTEGRALS IN  12862 RECORDS. CPU TIME:    17.70 SEC, REAL TIME:    34.35 SEC

 FILE SIZES:   FILE 1:  3405.0 MBYTE,  FILE 4:  9963.6 MBYTE,   TOTAL:  13368.6 MBYTE

 OPERATOR DM      FOR CENTER  0  COORDINATES:    0.000000    0.000000    0.000000


 **********************************************************************************************************************************
 DATASETS  * FILE   NREC   LENGTH (MB)   RECORD NAMES
              1      19     3125.77       500      610      700      900      950      970     1000      129      960     1100   
                                          VAR    BASINP    GEOM    SYMINP    ZMAT    AOBASIS   BASIS     P2S    ABASIS      S 
                                         1400     1410     1200     1210     1080     1600     1650     1300     1700   
                                           T        V       H0       H01     AOSYM     SMH    MOLCAS    ERIS     OPER   

 PROGRAMS   *        TOTAL       INT
 CPU TIMES  *        71.32     71.19
 REAL TIME  *       156.79 SEC
 DISK USED  *        13.37 GB      
 **********************************************************************************************************************************

 Density functional group M08-HX=XC-M08-HX
 Functional: XC-M08-HX(via MFM 1.6)                                            Gradient terms: 1
 Use grid at  1800.2


 Exact exchange will be calculated, factor:  0.5223

 Functional: XC-M08-HX                 Factor:  1.0000

 Generated new metagrid on record  1800.2 with target accuracy 1.0D-06 and 27432 points in CPU time    0.6
 Computed new grid on record 1800.1 in CPU time    0.6
  237464 words reserved for DFT integration

 PROGRAM * UKS-SCF (Unrestricted Kohn-Sham)     Authors: W. Meyer, H.-J. Werner, P.J. Knowles, 1993

 NUMBER OF ELECTRONS:       9+    9-    SPACE SYMMETRY=1    SPIN SYMMETRY: Singlet 
 CONVERGENCE THRESHOLDS:    1.00E-05 (Density)    1.00E-06 (Energy)
 MAX. NUMBER OF ITERATIONS:       60
 INTERPOLATION TYPE:            DIIS
 INTERPOLATION STEPS:              2 (START)      1 (STEP)
 LEVEL SHIFTS:                 -0.20 (ALPHA)  -0.20 (BETA) 



 Use fine grid record 1800.2 for energy threshold  1.0D-06
 Orbital guess generated from atomic densities. Full valence occupancy:    9

 Molecular orbital dump at record        2200.2

 Initial alpha occupation   9
 Initial beta  occupation   9

 ITERATION    DDIFF          GRAD             ENERGY        2-EL.EN.            DIPOLE MOMENTS         DIIS
    1      0.000D+00      0.000D+00       -79.79106127    151.611247   -0.00000    0.00001   -0.00000    0
    2      0.313D-02      0.121D-02       -79.84453823    146.684387   -0.00000   -0.00007   -0.00000    1
    3      0.655D-03      0.391D-03       -79.84966010    147.636950   -0.00000   -0.00007   -0.00000    2
    4      0.584D-03      0.842D-04       -79.85032493    147.562402   -0.00000   -0.00009   -0.00000    3
    5      0.265D-03      0.283D-04       -79.85042620    147.538650   -0.00000   -0.00010   -0.00000    4
    6      0.101D-03      0.815D-05       -79.85043678    147.534219   -0.00000   -0.00010   -0.00000    5
    7      0.269D-04      0.185D-05       -79.85043735    147.533617   -0.00000   -0.00010   -0.00000    6
    8      0.517D-05      0.395D-06       -79.85043737    147.533600   -0.00000   -0.00010   -0.00000    6
    9      0.625D-06      0.824D-07       -79.85043738    147.533555   -0.00000   -0.00010   -0.00000    6

 Final alpha occupancy:   9
 Final beta  occupancy:   9

 !UKS STATE 1.1 Energy                -79.850437375945
 Nuclear energy                        42.29536783
 One-electron energy                 -189.35526655
 Two-electron energy                   73.76677733
 Density functional                    -6.55731599     XC-M08-HX=-6.55731599
 Virial quotient                       -1.00621848
 !UKS STATE 1.1 Dipole moment          -0.00000162    -0.00010216    -0.00000424
 Dipole moment /Debye                  -0.00000412    -0.00025964    -0.00001078

 Orbital energies for positive spin:

         1.1          2.1          3.1          4.1          5.1          6.1          7.1          8.1          9.1         10.1
    -10.514181   -10.513804    -0.853567    -0.703831    -0.504735    -0.504013    -0.430407    -0.405013    -0.404039     0.015619

        11.1
      0.039296

 Orbital energies for negative spin:

         1.1          2.1          3.1          4.1          5.1          6.1          7.1          8.1          9.1         10.1
    -10.514181   -10.513804    -0.853567    -0.703831    -0.504735    -0.504013    -0.430407    -0.405013    -0.404039     0.015619

        11.1
      0.039296

 HOMO      9.1    -0.404039 =     -10.9945eV
 LUMO     10.1     0.015619 =       0.4250eV
 LUMO-HOMO         0.419658 =      11.4195eV

 EXPECTATION VALUE OF S**2:             0.00000000

 Natural orbitals saved to record    2200.2 (Orbital set 3)

 Orbital spaces for UNO-CAS (Min. occupation: 0.020  Max. occupation: 1.980):

 Closed:        9
 Active:        0


 **********************************************************************************************************************************
 DATASETS  * FILE   NREC   LENGTH (MB)   RECORD NAMES
              1      20     3126.65       500      610      700      900      950      970     1000      129      960     1100   
                                          VAR    BASINP    GEOM    SYMINP    ZMAT    AOBASIS   BASIS     P2S    ABASIS      S 
                                         1400     1410     1200     1210     1080     1600     1650     1300     1700     1800   
                                           T        V       H0       H01     AOSYM     SMH    MOLCAS    ERIS     OPER     GRID   

              2       5        6.40       700     1000      520     1800     2200   
                                         GEOM     BASIS   MCVARS    GRID      UKS  

 PROGRAMS   *        TOTAL       UKS       INT
 CPU TIMES  *       370.61    299.29     71.19
 REAL TIME  *       460.37 SEC
 DISK USED  *        13.37 GB      
 **********************************************************************************************************************************


 PROGRAM * Intrinsic Basis Bonding Analysis (IBBA)          Author: G. Knizia

 Molecular orbitals read from record     2200.2  Type=UKS/ALPHA (state 1.1)
 Fock matrix read from record            2200.2  Type=UKS/TOTAL (state 1.1)
 Orbital energies read from record       2200.2  Type=UKS/ALPHA (state 1.1)
 Density matrix read from record         2200.2  Type=UKS/CHARGE (state 1.1)

 Number of core orbitals:           2 (   2 )
 Number of closed-shell orbitals:   7 (   7 )

 Basis set MINAO-AUTO-PP generated.      Number of basis functions:   16 

 Polarized AO type:                A = (O Ot + (1-O)(1-Ot)) P12
 Orthogonalization method:         Symmetric (Loewdin)
 Localization functional:          L = sum[A,i] <i|n_A|i>^4 -> max

 Localization group 1:   9 orbitals, occupancy  2.000
 Iterative localization: IB/PM,    6 iter; Final gradient 0.30E-08

 Bond order analysis:       [THRPRINT= 0.020]

   CEN ATOM   CEN ATOM     WIBERG.BO      RENORM.BO
     1   C  -   2   C       1.042500       1.033238
     1   C  -   8   H       0.962703       0.984441
     1   C  -   4   H       0.962699       0.984444
     1   C  -   7   H       0.962450       0.984839

     2   C  -   1   C       1.042500       1.033238
     2   C  -   6   H       0.962702       0.984444
     2   C  -   5   H       0.962700       0.984440
     2   C  -   3   H       0.962450       0.984839

     3   H  -   2   C       0.962450       0.984839

     4   H  -   1   C       0.962699       0.984444

     5   H  -   2   C       0.962700       0.984440

     6   H  -   2   C       0.962702       0.984444

     7   H  -   1   C       0.962450       0.984839

     8   H  -   1   C       0.962703       0.984441


 Valency analysis:

   CEN ATOM   TOT.VALENCE
     1   C       3.932773
     2   C       3.932771
     3   H       0.979556
     4   H       0.980155
     5   H       0.980159
     6   H       0.980158
     7   H       0.979557
     8   H       0.980163

 Total charge composition:

   CEN ATOM         s          p       ELECTRONS ->P.CHARGE
     1   C       3.03155    3.39314      6.42469   -0.42469
     2   C       3.03155    3.39315      6.42470   -0.42470
     3   H       0.85702                 0.85702    0.14298
     4   H       0.85913                 0.85913    0.14087
     5   H       0.85914                 0.85914    0.14086
     6   H       0.85914                 0.85914    0.14086
     7   H       0.85702                 0.85702    0.14298
     8   H       0.85916                 0.85916    0.14084

 Total charge composition, AO contributions:

   CEN ATOM SHL      SPHERICAL COMPONENTS
     1   C  1s       1.99074
     1   C  2s       1.04081
     1   C  2p       1.16962    1.16890    1.05462

     2   C  1s       1.99074
     2   C  2s       1.04081
     2   C  2p       1.16962    1.16890    1.05462

     3   H  1s       0.85702

     4   H  1s       0.85913

     5   H  1s       0.85914

     6   H  1s       0.85914

     7   H  1s       0.85702

     8   H  1s       0.85916

 Summary of localized orbital composition:   [THRPRINT= 0.020]

   ORB  GRP  ORB.ENERGY      CENTERS/CHARGES
     1   1   -10.393192      C  1   2.000
     2   1   -10.393191      C  2   2.000
     3   1    -0.638524      C  2   0.999   C  1   0.999
     4   1    -0.569661      C  2   1.140   H  3   0.852
     5   1    -0.569660      C  1   1.140   H  7   0.852
     6   1    -0.567365      C  1   1.138   H  4   0.854
     7   1    -0.567343      C  2   1.138   H  5   0.854
     8   1    -0.567340      C  2   1.138   H  6   0.854
     9   1    -0.567319      C  1   1.138   H  8   0.854

 Localized orbitals saved to record      2200.2  (orbital set 4)


 **********************************************************************************************************************************
 DATASETS  * FILE   NREC   LENGTH (MB)   RECORD NAMES
              1      20     3126.65       500      610      700      900      950      970     1000      129      960     1100   
                                          VAR    BASINP    GEOM    SYMINP    ZMAT    AOBASIS   BASIS     P2S    ABASIS      S 
                                         1400     1410     1200     1210     1080     1600     1650     1300     1700     1800   
                                           T        V       H0       H01     AOSYM     SMH    MOLCAS    ERIS     OPER     GRID   

              2       5        7.10       700     1000      520     1800     2200   
                                         GEOM     BASIS   MCVARS    GRID      UKS  

 PROGRAMS   *        TOTAL      IBBA       UKS       INT
 CPU TIMES  *       370.69      0.07    299.29     71.19
 REAL TIME  *       460.50 SEC
 DISK USED  *        13.37 GB      
 **********************************************************************************************************************************
 Molecular orbitals read from record     2200.2  Type=UKS/LOCAL(IBO)  
 Occupation numbers read from record     2200.2  Type=UKS/LOCAL(IBO)  
 Orbital energies read from record       2200.2  Type=UKS/LOCAL(IBO)  
 Redundancy group numbers read from rec  2200.2  Type=UKS/BETA (state 1.1)

 IBBA/QZVP energy=      0.000000000000

        UKS-SCF 
    -79.85043738
 **********************************************************************************************************************************
 Molpro calculation terminated
