
 Primary working directories    : /local
 Secondary working directories  : /local
 Wavefunction directory         : /local/
 Main file repository           : /local/

 SHA1      : b4a5b34a9e711420743f49e6833241d17c61fb3c
 NAME      : 2099.9.b4a5b34
 ARCHNAME  : linux/x86_64_openmp
 FC        : /cm/shared/languages/GCC-6.1/bin/gfortran
 BLASLIB   : -lblas
 id        : simonbennie

 Nodes     nprocs
 node33-001    1

 Using customized tuning parameters: mindgm=1; mindgv=20; mindgc=4; mindgr=1; noblas=0; minvec=7
 default implementation of scratch files=df  

 memory,500,m
 geomtyp=xyz
 nosym
 noorient
 geometry={
 C          0.00000        0.00000        0.00000
 C          0.00000        0.00000        1.52618
 H          1.01607        0.00000        1.92140
 H          0.50960       -0.87904       -0.39522
 H         -0.50803       -0.87994        1.92140
 H         -0.50804        0.87994        1.92140
 H         -1.01607       -0.00180       -0.39522
 H          0.50647        0.88084       -0.39522
 }
 basis={ default,avdz }
 {uks,M05-2X,direct;wf,18,1,0}
 {ibba,bonds=1}

 Variables initialized (895), CPU time= 0.00 sec
 Commands  initialized (725), CPU time= 0.01 sec, 591 directives.
 Default parameters read. Elapsed time= 0.08 sec

 Checking input...
 Passed
1


                                         ***  PROGRAM SYSTEM MOLPRO  ***
                                       Copyright, TTI GmbH Stuttgart, 2015
                                    Version 2099.9 linked May 26 2017 16:03:21


 **********************************************************************************************************************************
 LABEL *                                                                                 
  64 bit serial version                                                                  DATE: 19-Jun-17          TIME: 16:12:39  
 **********************************************************************************************************************************

 SHA1:             b4a5b34a9e711420743f49e6833241d17c61fb3c
 **********************************************************************************************************************************
 SETTING GEOMTYP        =    XYZ

 Variable memory set to  500000000 words,  buffer space 

 ZSYMEL=NOSYM

 SETTING BASIS          =    AVDZ


 Recomputing integrals since basis changed


 Using spherical harmonics

 Library entry C      S aug-cc-pVDZ          selected for orbital group  1
 Library entry C      P aug-cc-pVDZ          selected for orbital group  1
 Library entry C      D aug-cc-pVDZ          selected for orbital group  1
 Library entry H      S aug-cc-pVDZ          selected for orbital group  2
 Library entry H      P aug-cc-pVDZ          selected for orbital group  2


 PROGRAM * SEWARD (Integral evaluation for generally contracted gaussian basis sets)     Author: Roland Lindh, 1990

 Geometry written to block  1 of record 700


 Point group  C1  



 ATOMIC COORDINATES

 NR  ATOM    CHARGE       X              Y              Z

   1  C       6.00    0.000000000    0.000000000    0.000000000
   2  C       6.00    0.000000000    0.000000000    2.884062217
   3  H       1.00    1.920094023    0.000000000    3.630919776
   4  H       1.00    0.963004433   -1.661144853   -0.746857559
   5  H       1.00   -0.960037563   -1.662845606    3.630919776
   6  H       1.00   -0.960056460    1.662845606    3.630919776
   7  H       1.00   -1.920094023   -0.003401507   -0.746857559
   8  H       1.00    0.957089590    1.664546360   -0.746857559

 Bond lengths in Bohr (Angstrom)

 1-2  2.884062217  1-4  2.060236873  1-7  2.060235142  1-8  2.060226027  2-3  2.060232334
     ( 1.526180000)     ( 1.090230402)     ( 1.090229487)     ( 1.090224663)     ( 1.090228001)

 2-5  2.060224222  2-6  2.060233028
     ( 1.090223708)     ( 1.090228368)

 Bond angles

  1-2-3  111.25450558   1-2-5  111.25459334   1-2-6  111.25449808   2-1-4  111.25445649

  2-1-7  111.25447521   2-1-8  111.25457382   3-2-5  107.63037788   3-2-6  107.63081399

  4-1-7  107.63089667   4-1-8  107.63044521   5-2-6  107.63041223   7-1-8  107.63035952

 NUCLEAR CHARGE:                   18
 NUMBER OF PRIMITIVE AOS:         140
 NUMBER OF SYMMETRY AOS:          136
 NUMBER OF CONTRACTIONS:          100   ( 100A   )
 NUMBER OF CORE ORBITALS:           2   (   2A   )
 NUMBER OF VALENCE ORBITALS:       14   (  14A   )


 NUCLEAR REPULSION ENERGY   42.29536783


 Eigenvalues of metric

         1 0.187E-03 0.286E-03 0.487E-03 0.487E-03 0.767E-03 0.767E-03 0.880E-03 0.104E-02


 Contracted 2-electron integrals neglected if value below      1.0D-11
 AO integral compression algorithm  1   Integral accuracy      1.0D-11

     63.439 MB (compressed) written to integral file ( 52.5%)


 NUMBER OF SORTED TWO-ELECTRON INTEGRALS:   12753775.     BUFFER LENGTH:  32768
 NUMBER OF SEGMENTS:   1  SEGMENT LENGTH:   12753775      RECORD LENGTH: 524288

 Memory used in sort:      13.31 MW

 SORT1 READ    15130470. AND WROTE    11929754. INTEGRALS IN     35 RECORDS. CPU TIME:     0.16 SEC, REAL TIME:     0.36 SEC
 SORT2 READ    11929754. AND WROTE    12753775. INTEGRALS IN    242 RECORDS. CPU TIME:     0.39 SEC, REAL TIME:     0.49 SEC

 FILE SIZES:   FILE 1:    93.9 MBYTE,  FILE 4:   146.8 MBYTE,   TOTAL:    240.7 MBYTE

 OPERATOR DM      FOR CENTER  0  COORDINATES:    0.000000    0.000000    0.000000


 **********************************************************************************************************************************
 DATASETS  * FILE   NREC   LENGTH (MB)   RECORD NAMES
              1      19       85.60       500      610      700      900      950      970     1000      129      960     1100   
                                          VAR    BASINP    GEOM    SYMINP    ZMAT    AOBASIS   BASIS     P2S    ABASIS      S 
                                         1400     1410     1200     1210     1080     1600     1650     1300     1700   
                                           T        V       H0       H01     AOSYM     SMH    MOLCAS    ERIS     OPER   

 PROGRAMS   *        TOTAL       INT
 CPU TIMES  *         1.71      1.57
 REAL TIME  *         4.10 SEC
 DISK USED  *       241.13 MB      
 **********************************************************************************************************************************

 Density functional group M05-2X=XC-M05-2X
 Functional: XC-M05-2X(via MFM 1.6)                                            Gradient terms: 1
 Use grid at  1800.2


 Exact exchange will be calculated, factor:  0.5600

 Functional: XC-M05-2X                 Factor:  1.0000

 Generated new metagrid on record  1800.2 with target accuracy 1.0D-06 and 25096 points in CPU time    0.6
 Computed new grid on record 1800.1 in CPU time    0.6
   83444 words reserved for DFT integration

 PROGRAM * UKS-SCF (Unrestricted Kohn-Sham)     Authors: W. Meyer, H.-J. Werner, P.J. Knowles, 1993

 NUMBER OF ELECTRONS:       9+    9-    SPACE SYMMETRY=1    SPIN SYMMETRY: Singlet 
 CONVERGENCE THRESHOLDS:    1.00E-05 (Density)    1.00E-06 (Energy)
 MAX. NUMBER OF ITERATIONS:       60
 INTERPOLATION TYPE:            DIIS
 INTERPOLATION STEPS:              2 (START)      1 (STEP)
 LEVEL SHIFTS:                 -0.20 (ALPHA)  -0.20 (BETA) 



 Use fine grid record 1800.2 for energy threshold  1.0D-06
 Orbital guess generated from atomic densities. Full valence occupancy:   16

 Molecular orbital dump at record        2200.2

 Initial alpha occupation   9
 Initial beta  occupation   9

 ITERATION    DDIFF          GRAD             ENERGY        2-EL.EN.            DIPOLE MOMENTS         DIIS
    1      0.000D+00      0.000D+00       -79.75188877    150.575776   -0.00001    0.00000   -0.00000    0
    2      0.166D-01      0.318D-02       -79.80323319    145.898292   -0.00001    0.00001    0.00000    1
    3      0.408D-02      0.951D-03       -79.80744242    146.731639   -0.00000    0.00000    0.00000    2
    4      0.122D-02      0.225D-03       -79.80811788    146.682378   -0.00000   -0.00000    0.00000    3
    5      0.416D-03      0.568D-04       -79.80817202    146.672640   -0.00000   -0.00001    0.00000    4
    6      0.167D-03      0.147D-04       -79.80817625    146.669597   -0.00000   -0.00001    0.00000    5
    7      0.534D-04      0.287D-05       -79.80817642    146.669637   -0.00000   -0.00001    0.00000    6
    8      0.906D-05      0.372D-06       -79.80817642    146.669487   -0.00000   -0.00001    0.00000    5
    9      0.184D-05      0.104D-06       -79.80817642    146.669607   -0.00000   -0.00001    0.00000    5

 Final alpha occupancy:   9
 Final beta  occupancy:   9

 !UKS STATE 1.1 Energy                -79.808176422850
 Nuclear energy                        42.29536783
 One-electron energy                 -189.36364039
 Two-electron energy                   73.33480325
 Density functional                    -6.07470711     XC-M05-2X=-6.07470711
 Virial quotient                       -1.00802318
 !UKS STATE 1.1 Dipole moment          -0.00000444    -0.00000990     0.00000030
 Dipole moment /Debye                  -0.00001130    -0.00002515     0.00000077

 Orbital energies for positive spin:

         1.1          2.1          3.1          4.1          5.1          6.1          7.1          8.1          9.1         10.1
    -10.559332   -10.558988    -0.857462    -0.708097    -0.507658    -0.507633    -0.430186    -0.406554    -0.406544     0.030851

        11.1
      0.048445

 Orbital energies for negative spin:

         1.1          2.1          3.1          4.1          5.1          6.1          7.1          8.1          9.1         10.1
    -10.559332   -10.558988    -0.857462    -0.708097    -0.507658    -0.507633    -0.430186    -0.406554    -0.406544     0.030851

        11.1
      0.048445

 HOMO      9.1    -0.406544 =     -11.0626eV
 LUMO     10.1     0.030851 =       0.8395eV
 LUMO-HOMO         0.437395 =      11.9021eV

 EXPECTATION VALUE OF S**2:             0.00000000

 Natural orbitals saved to record    2200.2 (Orbital set 3)

 Orbital spaces for UNO-CAS (Min. occupation: 0.020  Max. occupation: 1.980):

 Closed:        9
 Active:        0


 **********************************************************************************************************************************
 DATASETS  * FILE   NREC   LENGTH (MB)   RECORD NAMES
              1      20       86.40       500      610      700      900      950      970     1000      129      960     1100   
                                          VAR    BASINP    GEOM    SYMINP    ZMAT    AOBASIS   BASIS     P2S    ABASIS      S 
                                         1400     1410     1200     1210     1080     1600     1650     1300     1700     1800   
                                           T        V       H0       H01     AOSYM     SMH    MOLCAS    ERIS     OPER     GRID   

              2       5        3.29       700     1000      520     1800     2200   
                                         GEOM     BASIS   MCVARS    GRID      UKS  

 PROGRAMS   *        TOTAL       UKS       INT
 CPU TIMES  *        26.32     24.61      1.57
 REAL TIME  *        29.11 SEC
 DISK USED  *       241.13 MB      
 **********************************************************************************************************************************


 PROGRAM * Intrinsic Basis Bonding Analysis (IBBA)          Author: G. Knizia

 Molecular orbitals read from record     2200.2  Type=UKS/ALPHA (state 1.1)
 Fock matrix read from record            2200.2  Type=UKS/TOTAL (state 1.1)
 Orbital energies read from record       2200.2  Type=UKS/ALPHA (state 1.1)
 Density matrix read from record         2200.2  Type=UKS/CHARGE (state 1.1)

 Number of core orbitals:           2 (   2 )
 Number of closed-shell orbitals:   7 (   7 )

 Basis set MINAO-AUTO-PP generated.      Number of basis functions:   16 

 Polarized AO type:                A = (O Ot + (1-O)(1-Ot)) P12
 Orthogonalization method:         Symmetric (Loewdin)
 Localization functional:          L = sum[A,i] <i|n_A|i>^4 -> max

 Localization group 1:   9 orbitals, occupancy  2.000
 Iterative localization: IB/PM,    7 iter; Final gradient 0.78E-10

 Bond order analysis:       [THRPRINT= 0.020]

   CEN ATOM   CEN ATOM     WIBERG.BO      RENORM.BO
     1   C  -   2   C       1.039878       1.031430
     1   C  -   8   H       0.963107       0.985374
     1   C  -   4   H       0.963106       0.985374
     1   C  -   7   H       0.963080       0.985431

     2   C  -   1   C       1.039878       1.031430
     2   C  -   6   H       0.963106       0.985374
     2   C  -   5   H       0.963106       0.985374
     2   C  -   3   H       0.963080       0.985431

     3   H  -   2   C       0.963080       0.985431

     4   H  -   1   C       0.963106       0.985374

     5   H  -   2   C       0.963106       0.985374

     6   H  -   2   C       0.963106       0.985374

     7   H  -   1   C       0.963080       0.985431

     8   H  -   1   C       0.963107       0.985374


 Valency analysis:

   CEN ATOM   TOT.VALENCE
     1   C       3.931693
     2   C       3.931692
     3   H       0.980046
     4   H       0.980127
     5   H       0.980126
     6   H       0.980127
     7   H       0.980046
     8   H       0.980127

 Total charge composition:

   CEN ATOM         s          p       ELECTRONS ->P.CHARGE
     1   C       3.02455    3.39865      6.42320   -0.42320
     2   C       3.02455    3.39865      6.42321   -0.42321
     3   H       0.85874                 0.85874    0.14126
     4   H       0.85903                 0.85903    0.14097
     5   H       0.85903                 0.85903    0.14097
     6   H       0.85903                 0.85903    0.14097
     7   H       0.85874                 0.85874    0.14126
     8   H       0.85903                 0.85903    0.14097

 Total charge composition, AO contributions:

   CEN ATOM SHL      SPHERICAL COMPONENTS
     1   C  1s       1.99069
     1   C  2s       1.03386
     1   C  2p       1.17213    1.17218    1.05434

     2   C  1s       1.99069
     2   C  2s       1.03386
     2   C  2p       1.17213    1.17218    1.05434

     3   H  1s       0.85874

     4   H  1s       0.85903

     5   H  1s       0.85903

     6   H  1s       0.85903

     7   H  1s       0.85874

     8   H  1s       0.85903

 Summary of localized orbital composition:   [THRPRINT= 0.020]

   ORB  GRP  ORB.ENERGY      CENTERS/CHARGES
     1   1   -10.438834      C  1   2.000
     2   1   -10.438833      C  2   2.000
     3   1    -0.637841      C  1   0.999   C  2   0.999
     4   1    -0.571404      C  2   1.139   H  3   0.853
     5   1    -0.571403      C  1   1.139   H  7   0.853
     6   1    -0.571032      C  1   1.138   H  4   0.854
     7   1    -0.571030      C  2   1.138   H  5   0.854
     8   1    -0.571027      C  2   1.138   H  6   0.854
     9   1    -0.571025      C  1   1.138   H  8   0.854

 Localized orbitals saved to record      2200.2  (orbital set 4)


 **********************************************************************************************************************************
 DATASETS  * FILE   NREC   LENGTH (MB)   RECORD NAMES
              1      20       86.40       500      610      700      900      950      970     1000      129      960     1100   
                                          VAR    BASINP    GEOM    SYMINP    ZMAT    AOBASIS   BASIS     P2S    ABASIS      S 
                                         1400     1410     1200     1210     1080     1600     1650     1300     1700     1800   
                                           T        V       H0       H01     AOSYM     SMH    MOLCAS    ERIS     OPER     GRID   

              2       5        3.37       700     1000      520     1800     2200   
                                         GEOM     BASIS   MCVARS    GRID      UKS  

 PROGRAMS   *        TOTAL      IBBA       UKS       INT
 CPU TIMES  *        26.34      0.02     24.61      1.57
 REAL TIME  *        29.21 SEC
 DISK USED  *       241.13 MB      
 **********************************************************************************************************************************
 Molecular orbitals read from record     2200.2  Type=UKS/LOCAL(IBO)  
 Occupation numbers read from record     2200.2  Type=UKS/LOCAL(IBO)  
 Orbital energies read from record       2200.2  Type=UKS/LOCAL(IBO)  
 Redundancy group numbers read from rec  2200.2  Type=UKS/BETA (state 1.1)

 IBBA/aug-cc-pVDZ energy=      0.000000000000

        UKS-SCF 
    -79.80817642
 **********************************************************************************************************************************
 Molpro calculation terminated
