
 Primary working directories    : /local
 Secondary working directories  : /local
 Wavefunction directory         : /local/
 Main file repository           : /local/

 SHA1      : b4a5b34a9e711420743f49e6833241d17c61fb3c
 NAME      : 2099.9.b4a5b34
 ARCHNAME  : linux/x86_64_openmp
 FC        : /cm/shared/languages/GCC-6.1/bin/gfortran
 BLASLIB   : -lblas
 id        : simonbennie

 Nodes     nprocs
 node35-046    1

 Using customized tuning parameters: mindgm=1; mindgv=20; mindgc=4; mindgr=1; noblas=0; minvec=7
 default implementation of scratch files=df  

 memory,500,m
 geomtyp=xyz
 nosym
 noorient
 geometry={
 C          0.00000        0.00000        0.00000
 C          0.00000        0.00000        1.52618
 H          1.01607        0.00000        1.92140
 H          0.50960       -0.87904       -0.39522
 H         -0.50803       -0.87994        1.92140
 H         -0.50804        0.87994        1.92140
 H         -1.01607       -0.00180       -0.39522
 H          0.50647        0.88084       -0.39522
 }
 basis={ default,svp }
 {ks,B97R,direct;wf,18,1,0}
 {ibba,bonds=1}

 Variables initialized (895), CPU time= 0.00 sec
 Commands  initialized (725), CPU time= 0.02 sec, 591 directives.
 Default parameters read. Elapsed time= 0.08 sec

 Checking input...
 Passed
1


                                         ***  PROGRAM SYSTEM MOLPRO  ***
                                       Copyright, TTI GmbH Stuttgart, 2015
                                    Version 2099.9 linked May 26 2017 16:03:21


 **********************************************************************************************************************************
 LABEL *                                                                                 
  64 bit serial version                                                                  DATE: 19-Jun-17          TIME: 15:12:21  
 **********************************************************************************************************************************

 SHA1:             b4a5b34a9e711420743f49e6833241d17c61fb3c
 **********************************************************************************************************************************
 SETTING GEOMTYP        =    XYZ

 Variable memory set to  500000000 words,  buffer space 

 ZSYMEL=NOSYM

 SETTING BASIS          =    SVP


 Recomputing integrals since basis changed


 Using spherical harmonics

 Library entry C      S def2-SVP             selected for orbital group  1
 Library entry C      P def2-SVP             selected for orbital group  1
 Library entry C      D def2-SVP             selected for orbital group  1
 Library entry H      S def2-SVP             selected for orbital group  2
 Library entry H      P def2-SVP             selected for orbital group  2


 PROGRAM * SEWARD (Integral evaluation for generally contracted gaussian basis sets)     Author: Roland Lindh, 1990

 Geometry written to block  1 of record 700


 Point group  C1  



 ATOMIC COORDINATES

 NR  ATOM    CHARGE       X              Y              Z

   1  C       6.00    0.000000000    0.000000000    0.000000000
   2  C       6.00    0.000000000    0.000000000    2.884062217
   3  H       1.00    1.920094023    0.000000000    3.630919776
   4  H       1.00    0.963004433   -1.661144853   -0.746857559
   5  H       1.00   -0.960037563   -1.662845606    3.630919776
   6  H       1.00   -0.960056460    1.662845606    3.630919776
   7  H       1.00   -1.920094023   -0.003401507   -0.746857559
   8  H       1.00    0.957089590    1.664546360   -0.746857559

 Bond lengths in Bohr (Angstrom)

 1-2  2.884062217  1-4  2.060236873  1-7  2.060235142  1-8  2.060226027  2-3  2.060232334
     ( 1.526180000)     ( 1.090230402)     ( 1.090229487)     ( 1.090224663)     ( 1.090228001)

 2-5  2.060224222  2-6  2.060233028
     ( 1.090223708)     ( 1.090228368)

 Bond angles

  1-2-3  111.25450558   1-2-5  111.25459334   1-2-6  111.25449808   2-1-4  111.25445649

  2-1-7  111.25447521   2-1-8  111.25457382   3-2-5  107.63037788   3-2-6  107.63081399

  4-1-7  107.63089667   4-1-8  107.63044521   5-2-6  107.63041223   7-1-8  107.63035952

 NUCLEAR CHARGE:                   18
 NUMBER OF PRIMITIVE AOS:          92
 NUMBER OF SYMMETRY AOS:           90
 NUMBER OF CONTRACTIONS:           58   (  58A   )
 NUMBER OF CORE ORBITALS:           2   (   2A   )
 NUMBER OF VALENCE ORBITALS:       14   (  14A   )


 NUCLEAR REPULSION ENERGY   42.29536783


 Eigenvalues of metric

         1 0.443E-02 0.188E-01 0.399E-01 0.399E-01 0.404E-01 0.569E-01 0.569E-01 0.101E+00


 Contracted 2-electron integrals neglected if value below      1.0D-11
 AO integral compression algorithm  1   Integral accuracy      1.0D-11

     7.078 MB (compressed) written to integral file ( 53.8%)


 NUMBER OF SORTED TWO-ELECTRON INTEGRALS:    1464616.     BUFFER LENGTH:  32768
 NUMBER OF SEGMENTS:   1  SEGMENT LENGTH:    1464616      RECORD LENGTH: 524288

 Memory used in sort:       2.02 MW

 SORT1 READ     1695909. AND WROTE     1355651. INTEGRALS IN      4 RECORDS. CPU TIME:     0.02 SEC, REAL TIME:     0.04 SEC
 SORT2 READ     1355651. AND WROTE     1464616. INTEGRALS IN     27 RECORDS. CPU TIME:     0.06 SEC, REAL TIME:     0.08 SEC

 FILE SIZES:   FILE 1:    37.3 MBYTE,  FILE 4:    16.8 MBYTE,   TOTAL:     54.1 MBYTE

 OPERATOR DM      FOR CENTER  0  COORDINATES:    0.000000    0.000000    0.000000


 **********************************************************************************************************************************
 DATASETS  * FILE   NREC   LENGTH (MB)   RECORD NAMES
              1      19       36.25       500      610      700      900      950      970     1000      129      960     1100   
                                          VAR    BASINP    GEOM    SYMINP    ZMAT    AOBASIS   BASIS     P2S    ABASIS      S 
                                         1400     1410     1200     1210     1080     1600     1650     1300     1700   
                                           T        V       H0       H01     AOSYM     SMH    MOLCAS    ERIS     OPER   

 PROGRAMS   *        TOTAL       INT
 CPU TIMES  *         0.61      0.49
 REAL TIME  *         6.80 SEC
 DISK USED  *        54.48 MB      
 **********************************************************************************************************************************

 Density functional group B97R=B97RDF
 Functional: B97RDF(Automatically generated (new) B97RDF)                      Gradient terms: 1
 Use grid at  1800.2


 Exact exchange will be calculated, factor:  0.2100

 Functional: B97RDF                    Factor:  1.0000

 Generated new metagrid on record  1800.2 with target accuracy 1.0D-06 and 25096 points in CPU time    0.5
 Computed new grid on record 1800.1 in CPU time    0.6
   50000 words reserved for DFT integration

 PROGRAM * RKS-SCF (Restricted closed shell Kohn-Sham)     Authors: W. Meyer, H.-J. Werner, P.J. Knowles, 1993

 NUMBER OF ELECTRONS:       9+    9-    SPACE SYMMETRY=1    SPIN SYMMETRY: Singlet 
 CONVERGENCE THRESHOLDS:    1.00E-05 (Density)    1.00E-06 (Energy)
 MAX. NUMBER OF ITERATIONS:       60
 INTERPOLATION TYPE:            DIIS
 INTERPOLATION STEPS:              2 (START)      1 (STEP)
 LEVEL SHIFTS:                  0.00 (CLOSED)  0.00 (OPEN) 



 Use fine grid record 1800.2 for energy threshold  1.0D-06
 Orbital guess generated from atomic densities. Full valence occupancy:    9

 Molecular orbital dump at record        2100.2

 Initial occupancy:   9

 ITERATION    DDIFF          GRAD             ENERGY        2-EL.EN.            DIPOLE MOMENTS         DIIS   ORB.
    1      0.000D+00      0.000D+00       -79.63697553    161.225150   -0.00000    0.00000   -0.00000    0    start
    2      0.000D+00      0.140D-01       -79.60415402    148.707690   -0.00001    0.00001    0.00000    1    diag
    3      0.244D-01      0.164D-01       -79.73708508    155.334384   -0.00001    0.00000    0.00000    2    diag
    4      0.131D-01      0.442D-03       -79.73716290    155.299563   -0.00001    0.00000    0.00000    3    diag
    5      0.370D-03      0.895D-04       -79.73716631    155.309070   -0.00001    0.00000    0.00000    4    diag
    6      0.783D-04      0.121D-04       -79.73716638    155.313572   -0.00001    0.00000    0.00000    5    diag
    7      0.919D-05      0.271D-06       -79.73716638    155.313667   -0.00001    0.00000    0.00000    0    orth

 Final occupancy:   9

 !RKS STATE 1.1 Energy                -79.737166383844
 Nuclear energy                        42.29536783
 One-electron energy                 -189.26045633
 Two-electron energy                   77.65683351
 SCF exchange energy                  -12.48064380     Factor= 0.2100
 Density functional                   -10.42891139     B97RDF=-10.42891139
 Virial quotient                       -1.01307041
 !RKS STATE 1.1 Dipole moment          -0.00000580     0.00000158     0.00000237
 Dipole moment /Debye                  -0.00001474     0.00000402     0.00000604

 Orbital energies:

         1.1          2.1          3.1          4.1          5.1          6.1          7.1          8.1          9.1         10.1
    -10.182864   -10.182800    -0.748423    -0.610578    -0.433804    -0.433756    -0.367651    -0.341509    -0.341451     0.074755

        11.1
      0.121700

 HOMO      9.1    -0.341451 =      -9.2914eV
 LUMO     10.1     0.074755 =       2.0342eV
 LUMO-HOMO         0.416207 =      11.3256eV


 **********************************************************************************************************************************
 DATASETS  * FILE   NREC   LENGTH (MB)   RECORD NAMES
              1      20       37.06       500      610      700      900      950      970     1000      129      960     1100   
                                          VAR    BASINP    GEOM    SYMINP    ZMAT    AOBASIS   BASIS     P2S    ABASIS      S 
                                         1400     1410     1200     1210     1080     1600     1650     1300     1700     1800   
                                           T        V       H0       H01     AOSYM     SMH    MOLCAS    ERIS     OPER     GRID   

              2       5        2.94       700     1000      520     1800     2100   
                                         GEOM     BASIS   MCVARS    GRID      RKS  

 PROGRAMS   *        TOTAL        KS       INT
 CPU TIMES  *         2.79      2.17      0.49
 REAL TIME  *         9.34 SEC
 DISK USED  *        54.48 MB      
 **********************************************************************************************************************************


 PROGRAM * Intrinsic Basis Bonding Analysis (IBBA)          Author: G. Knizia

 Molecular orbitals read from record     2100.2  Type=RKS/CANONICAL (state 1.1)
 Fock matrix read from record            2100.2  Type=RKS/TOTAL (state 1.1)
 Orbital energies read from record       2100.2  Type=RKS/CANONICAL (state 1.1)
 Density matrix read from record         2100.2  Type=RKS/CHARGE (state 1.1)

 Number of core orbitals:           2 (   2 )
 Number of closed-shell orbitals:   7 (   7 )

 Basis set MINAO-AUTO-PP generated.      Number of basis functions:   16 

 Polarized AO type:                A = (O Ot + (1-O)(1-Ot)) P12
 Orthogonalization method:         Symmetric (Loewdin)
 Localization functional:          L = sum[A,i] <i|n_A|i>^4 -> max

 Localization group 1:   9 orbitals, occupancy  2.000
 Iterative localization: IB/PM,    6 iter; Final gradient 0.66E-08

 Bond order analysis:       [THRPRINT= 0.020]

   CEN ATOM   CEN ATOM     WIBERG.BO      RENORM.BO
     1   C  -   2   C       1.042763       1.034692
     1   C  -   4   H       0.965159       0.984317
     1   C  -   8   H       0.965158       0.984317
     1   C  -   7   H       0.965150       0.984323

     2   C  -   1   C       1.042763       1.034692
     2   C  -   6   H       0.965158       0.984316
     2   C  -   5   H       0.965158       0.984317
     2   C  -   3   H       0.965150       0.984323

     3   H  -   2   C       0.965150       0.984323

     4   H  -   1   C       0.965159       0.984317

     5   H  -   2   C       0.965158       0.984317

     6   H  -   2   C       0.965158       0.984316

     7   H  -   1   C       0.965150       0.984323

     8   H  -   1   C       0.965158       0.984317


 Valency analysis:

   CEN ATOM   TOT.VALENCE
     1   C       3.940941
     2   C       3.940940
     3   H       0.983292
     4   H       0.983303
     5   H       0.983301
     6   H       0.983302
     7   H       0.983292
     8   H       0.983302

 Total charge composition:

   CEN ATOM         s          p       ELECTRONS ->P.CHARGE
     1   C       3.01318    3.37452      6.38770   -0.38770
     2   C       3.01318    3.37452      6.38770   -0.38770
     3   H       0.87074                 0.87074    0.12926
     4   H       0.87078                 0.87078    0.12922
     5   H       0.87078                 0.87078    0.12922
     6   H       0.87078                 0.87078    0.12922
     7   H       0.87074                 0.87074    0.12926
     8   H       0.87078                 0.87078    0.12922

 Total charge composition, AO contributions:

   CEN ATOM SHL      SPHERICAL COMPONENTS
     1   C  1s       1.99075
     1   C  2s       1.02244
     1   C  2p       1.15965    1.15950    1.05537

     2   C  1s       1.99075
     2   C  2s       1.02244
     2   C  2p       1.15965    1.15950    1.05537

     3   H  1s       0.87074

     4   H  1s       0.87078

     5   H  1s       0.87078

     6   H  1s       0.87078

     7   H  1s       0.87074

     8   H  1s       0.87078

 Summary of localized orbital composition:   [THRPRINT= 0.020]

   ORB  GRP  ORB.ENERGY      CENTERS/CHARGES
     1   1   -10.066842      C  1   2.000
     2   1   -10.066840      C  2   2.000
     3   1    -0.559655      C  1   0.999   C  2   0.999
     4   1    -0.491593      C  2   1.126   H  3   0.865
     5   1    -0.491592      C  1   1.126   H  7   0.865
     6   1    -0.491579      C  2   1.126   H  5   0.865
     7   1    -0.491579      C  1   1.126   H  8   0.865
     8   1    -0.491578      C  1   1.126   H  4   0.865
     9   1    -0.491577      C  2   1.126   H  6   0.865

 Localized orbitals saved to record      2100.2  (orbital set 2)


 **********************************************************************************************************************************
 DATASETS  * FILE   NREC   LENGTH (MB)   RECORD NAMES
              1      20       37.06       500      610      700      900      950      970     1000      129      960     1100   
                                          VAR    BASINP    GEOM    SYMINP    ZMAT    AOBASIS   BASIS     P2S    ABASIS      S 
                                         1400     1410     1200     1210     1080     1600     1650     1300     1700     1800   
                                           T        V       H0       H01     AOSYM     SMH    MOLCAS    ERIS     OPER     GRID   

              2       5        2.97       700     1000      520     1800     2100   
                                         GEOM     BASIS   MCVARS    GRID      RKS  

 PROGRAMS   *        TOTAL      IBBA        KS       INT
 CPU TIMES  *         2.80      0.01      2.17      0.49
 REAL TIME  *         9.40 SEC
 DISK USED  *        54.48 MB      
 **********************************************************************************************************************************
 Molecular orbitals read from record     2100.2  Type=RKS/LOCAL(IBO)  
 Occupation numbers read from record     2100.2  Type=RKS/LOCAL(IBO)  
 Orbital energies read from record       2100.2  Type=RKS/LOCAL(IBO)  
 Redundancy group numbers read from rec  2100.2  Type=RKS/LOCAL(IBO)  

 IBBA/SVP energy=      0.000000000000

        KS-SCF  
    -79.73716638
 **********************************************************************************************************************************
 Molpro calculation terminated
