
 Primary working directories    : /local
 Secondary working directories  : /local
 Wavefunction directory         : /local/
 Main file repository           : /local/

 SHA1      : b4a5b34a9e711420743f49e6833241d17c61fb3c
 NAME      : 2099.9.b4a5b34
 ARCHNAME  : linux/x86_64_openmp
 FC        : /cm/shared/languages/GCC-6.1/bin/gfortran
 BLASLIB   : -lblas
 id        : simonbennie

 Nodes     nprocs
 node32-016    1

 Using customized tuning parameters: mindgm=1; mindgv=20; mindgc=4; mindgr=1; noblas=0; minvec=7
 default implementation of scratch files=df  

 memory,500,m
 geomtyp=xyz
 nosym
 noorient
 geometry={
 C          0.00000        0.00000        0.00000
 C          0.00000        0.00000        1.52618
 H          1.01607        0.00000        1.92140
 H          0.50960       -0.87904       -0.39522
 H         -0.50803       -0.87994        1.92140
 H         -0.50804        0.87994        1.92140
 H         -1.01607       -0.00180       -0.39522
 H          0.50647        0.88084       -0.39522
 }
 basis={ default,avdz }
 {uks,VWN,direct;wf,18,1,0}
 {ibba,bonds=1}

 Variables initialized (895), CPU time= 0.00 sec
 Commands  initialized (725), CPU time= 0.02 sec, 591 directives.
 Default parameters read. Elapsed time= 0.09 sec

 Checking input...
 Passed
1


                                         ***  PROGRAM SYSTEM MOLPRO  ***
                                       Copyright, TTI GmbH Stuttgart, 2015
                                    Version 2099.9 linked May 26 2017 16:03:21


 **********************************************************************************************************************************
 LABEL *                                                                                 
  64 bit serial version                                                                  DATE: 19-Jun-17          TIME: 16:11:36  
 **********************************************************************************************************************************

 SHA1:             b4a5b34a9e711420743f49e6833241d17c61fb3c
 **********************************************************************************************************************************
 SETTING GEOMTYP        =    XYZ

 Variable memory set to  500000000 words,  buffer space 

 ZSYMEL=NOSYM

 SETTING BASIS          =    AVDZ


 Recomputing integrals since basis changed


 Using spherical harmonics

 Library entry C      S aug-cc-pVDZ          selected for orbital group  1
 Library entry C      P aug-cc-pVDZ          selected for orbital group  1
 Library entry C      D aug-cc-pVDZ          selected for orbital group  1
 Library entry H      S aug-cc-pVDZ          selected for orbital group  2
 Library entry H      P aug-cc-pVDZ          selected for orbital group  2


 PROGRAM * SEWARD (Integral evaluation for generally contracted gaussian basis sets)     Author: Roland Lindh, 1990

 Geometry written to block  1 of record 700


 Point group  C1  



 ATOMIC COORDINATES

 NR  ATOM    CHARGE       X              Y              Z

   1  C       6.00    0.000000000    0.000000000    0.000000000
   2  C       6.00    0.000000000    0.000000000    2.884062217
   3  H       1.00    1.920094023    0.000000000    3.630919776
   4  H       1.00    0.963004433   -1.661144853   -0.746857559
   5  H       1.00   -0.960037563   -1.662845606    3.630919776
   6  H       1.00   -0.960056460    1.662845606    3.630919776
   7  H       1.00   -1.920094023   -0.003401507   -0.746857559
   8  H       1.00    0.957089590    1.664546360   -0.746857559

 Bond lengths in Bohr (Angstrom)

 1-2  2.884062217  1-4  2.060236873  1-7  2.060235142  1-8  2.060226027  2-3  2.060232334
     ( 1.526180000)     ( 1.090230402)     ( 1.090229487)     ( 1.090224663)     ( 1.090228001)

 2-5  2.060224222  2-6  2.060233028
     ( 1.090223708)     ( 1.090228368)

 Bond angles

  1-2-3  111.25450558   1-2-5  111.25459334   1-2-6  111.25449808   2-1-4  111.25445649

  2-1-7  111.25447521   2-1-8  111.25457382   3-2-5  107.63037788   3-2-6  107.63081399

  4-1-7  107.63089667   4-1-8  107.63044521   5-2-6  107.63041223   7-1-8  107.63035952

 NUCLEAR CHARGE:                   18
 NUMBER OF PRIMITIVE AOS:         140
 NUMBER OF SYMMETRY AOS:          136
 NUMBER OF CONTRACTIONS:          100   ( 100A   )
 NUMBER OF CORE ORBITALS:           2   (   2A   )
 NUMBER OF VALENCE ORBITALS:       14   (  14A   )


 NUCLEAR REPULSION ENERGY   42.29536783


 Eigenvalues of metric

         1 0.187E-03 0.286E-03 0.487E-03 0.487E-03 0.767E-03 0.767E-03 0.880E-03 0.104E-02


 Contracted 2-electron integrals neglected if value below      1.0D-11
 AO integral compression algorithm  1   Integral accuracy      1.0D-11

     63.439 MB (compressed) written to integral file ( 52.5%)


 NUMBER OF SORTED TWO-ELECTRON INTEGRALS:   12753775.     BUFFER LENGTH:  32768
 NUMBER OF SEGMENTS:   1  SEGMENT LENGTH:   12753775      RECORD LENGTH: 524288

 Memory used in sort:      13.31 MW

 SORT1 READ    15130470. AND WROTE    11929754. INTEGRALS IN     35 RECORDS. CPU TIME:     0.13 SEC, REAL TIME:     0.29 SEC
 SORT2 READ    11929754. AND WROTE    12753775. INTEGRALS IN    242 RECORDS. CPU TIME:     0.36 SEC, REAL TIME:     0.46 SEC

 FILE SIZES:   FILE 1:    93.9 MBYTE,  FILE 4:   146.8 MBYTE,   TOTAL:    240.7 MBYTE

 OPERATOR DM      FOR CENTER  0  COORDINATES:    0.000000    0.000000    0.000000


 **********************************************************************************************************************************
 DATASETS  * FILE   NREC   LENGTH (MB)   RECORD NAMES
              1      19       85.60       500      610      700      900      950      970     1000      129      960     1100   
                                          VAR    BASINP    GEOM    SYMINP    ZMAT    AOBASIS   BASIS     P2S    ABASIS      S 
                                         1400     1410     1200     1210     1080     1600     1650     1300     1700   
                                           T        V       H0       H01     AOSYM     SMH    MOLCAS    ERIS     OPER   

 PROGRAMS   *        TOTAL       INT
 CPU TIMES  *         1.53      1.38
 REAL TIME  *         2.50 SEC
 DISK USED  *       241.13 MB      
 **********************************************************************************************************************************

 Density functional group VWN=VWN5
 Functional: VWN5(Automatically generated (new) VWN5)                          Gradient terms: 0
 Use grid at  1800.2

 Functional: VWN5                      Factor:  1.0000

 Generated new metagrid on record  1800.2 with target accuracy 1.0D-06 and 25096 points in CPU time    0.6
 Computed new grid on record 1800.1 in CPU time    0.6
   45344 words reserved for DFT integration

 PROGRAM * UKS-SCF (Unrestricted Kohn-Sham)     Authors: W. Meyer, H.-J. Werner, P.J. Knowles, 1993

 NUMBER OF ELECTRONS:       9+    9-    SPACE SYMMETRY=1    SPIN SYMMETRY: Singlet 
 CONVERGENCE THRESHOLDS:    1.00E-05 (Density)    1.00E-06 (Energy)
 MAX. NUMBER OF ITERATIONS:       60
 INTERPOLATION TYPE:            DIIS
 INTERPOLATION STEPS:              2 (START)      1 (STEP)
 LEVEL SHIFTS:                 -0.20 (ALPHA)  -0.20 (BETA) 



 Use fine grid record 1800.2 for energy threshold  1.0D-06
 Orbital guess generated from atomic densities. Full valence occupancy:   16

 Molecular orbital dump at record        2200.2

 Initial alpha occupation   9
 Initial beta  occupation   9

 ITERATION    DDIFF          GRAD             ENERGY        2-EL.EN.            DIPOLE MOMENTS         DIIS
    1      0.000D+00      0.000D+00       -68.05138780    143.146530   -0.00001    0.00001    0.00001    0
    2      0.220D-01      0.448D-02       -68.10309324    154.304856   -0.00000    0.00000    0.00001    1
    3      0.975D-02      0.373D-02       -68.16421211    150.027228   -0.00000    0.00000    0.00000    2
    4      0.309D-02      0.285D-03       -68.16551533    150.050740   -0.00000    0.00000    0.00000    3
    5      0.316D-02      0.116D-03       -68.16598678    150.185847   -0.00000    0.00000    0.00000    4
    6      0.353D-02      0.579D-04       -68.16616132    150.252189   -0.00000    0.00000    0.00000    5
    7      0.129D-02      0.161D-04       -68.16617486    150.272391   -0.00000    0.00000    0.00000    6
    8      0.377D-03      0.480D-05       -68.16617590    150.270991   -0.00000    0.00000    0.00000    6
    9      0.791D-04      0.144D-05       -68.16617596    150.271014   -0.00000    0.00000    0.00000    6
   10      0.253D-04      0.678D-06       -68.16617597    150.271644   -0.00000    0.00000    0.00000    7
   11      0.420D-05      0.133D-06       -68.16617597    150.271549   -0.00000    0.00000    0.00000    7
   12      0.274D-05      0.409D-07       -68.16617597    150.271532   -0.00000    0.00000    0.00000    6

 Final alpha occupancy:   9
 Final beta  occupancy:   9

 !UKS STATE 1.1 Energy                -68.166175973561
 Nuclear energy                        42.29536783
 One-electron energy                 -184.54705763
 Two-electron energy                   75.13576578
 Density functional                    -1.05025195     VWN5=-1.05025195
 Virial quotient                       -0.90664027
 !UKS STATE 1.1 Dipole moment          -0.00000271     0.00000322     0.00000235
 Dipole moment /Debye                  -0.00000688     0.00000819     0.00000598

 Orbital energies for positive spin:

         1.1          2.1          3.1          4.1          5.1          6.1          7.1          8.1          9.1         10.1
     -8.237573    -8.236475    -0.421375    -0.285514    -0.164630    -0.164627    -0.102652    -0.058722    -0.058719     0.025237

        11.1
      0.038269

 Orbital energies for negative spin:

         1.1          2.1          3.1          4.1          5.1          6.1          7.1          8.1          9.1         10.1
     -8.237573    -8.236475    -0.421375    -0.285514    -0.164630    -0.164627    -0.102652    -0.058722    -0.058719     0.025237

        11.1
      0.038269

 HOMO      9.1    -0.058719 =      -1.5978eV
 LUMO     10.1     0.025237 =       0.6867eV
 LUMO-HOMO         0.083956 =       2.2846eV

 EXPECTATION VALUE OF S**2:             0.00000000

 Natural orbitals saved to record    2200.2 (Orbital set 3)

 Orbital spaces for UNO-CAS (Min. occupation: 0.020  Max. occupation: 1.980):

 Closed:        9
 Active:        0


 **********************************************************************************************************************************
 DATASETS  * FILE   NREC   LENGTH (MB)   RECORD NAMES
              1      20       86.40       500      610      700      900      950      970     1000      129      960     1100   
                                          VAR    BASINP    GEOM    SYMINP    ZMAT    AOBASIS   BASIS     P2S    ABASIS      S 
                                         1400     1410     1200     1210     1080     1600     1650     1300     1700     1800   
                                           T        V       H0       H01     AOSYM     SMH    MOLCAS    ERIS     OPER     GRID   

              2       5        3.29       700     1000      520     1800     2200   
                                         GEOM     BASIS   MCVARS    GRID      UKS  

 PROGRAMS   *        TOTAL       UKS       INT
 CPU TIMES  *         8.08      6.54      1.38
 REAL TIME  *        11.21 SEC
 DISK USED  *       241.13 MB      
 **********************************************************************************************************************************


 PROGRAM * Intrinsic Basis Bonding Analysis (IBBA)          Author: G. Knizia

 Molecular orbitals read from record     2200.2  Type=UKS/ALPHA (state 1.1)
 Fock matrix read from record            2200.2  Type=UKS/TOTAL (state 1.1)
 Orbital energies read from record       2200.2  Type=UKS/ALPHA (state 1.1)
 Density matrix read from record         2200.2  Type=UKS/CHARGE (state 1.1)

 Number of core orbitals:           2 (   2 )
 Number of closed-shell orbitals:   7 (   7 )

 Basis set MINAO-AUTO-PP generated.      Number of basis functions:   16 

 Polarized AO type:                A = (O Ot + (1-O)(1-Ot)) P12
 Orthogonalization method:         Symmetric (Loewdin)
 Localization functional:          L = sum[A,i] <i|n_A|i>^4 -> max

 Localization group 1:   9 orbitals, occupancy  2.000
 Iterative localization: IB/PM,    7 iter; Final gradient 0.32E-08

 Bond order analysis:       [THRPRINT= 0.020]

   CEN ATOM   CEN ATOM     WIBERG.BO      RENORM.BO
     1   C  -   2   C       1.070507       1.064604
     1   C  -   4   H       0.962225       0.974392
     1   C  -   8   H       0.962225       0.974392
     1   C  -   7   H       0.962223       0.974393

     2   C  -   1   C       1.070507       1.064604
     2   C  -   5   H       0.962225       0.974392
     2   C  -   6   H       0.962225       0.974392
     2   C  -   3   H       0.962223       0.974393

     3   H  -   2   C       0.962223       0.974393
     3   H  -   7   H       0.024011       0.027374

     4   H  -   1   C       0.962225       0.974392
     4   H  -   6   H       0.024012       0.027375

     5   H  -   2   C       0.962225       0.974392
     5   H  -   8   H       0.024011       0.027374

     6   H  -   2   C       0.962225       0.974392
     6   H  -   4   H       0.024012       0.027375

     7   H  -   1   C       0.962223       0.974393
     7   H  -   3   H       0.024011       0.027374

     8   H  -   1   C       0.962225       0.974392
     8   H  -   5   H       0.024011       0.027374


 Valency analysis:

   CEN ATOM   TOT.VALENCE
     1   C       3.961742
     2   C       3.961741
     3   H       0.995974
     4   H       0.995976
     5   H       0.995976
     6   H       0.995976
     7   H       0.995974
     8   H       0.995976

 Total charge composition:

   CEN ATOM         s          p       ELECTRONS ->P.CHARGE
     1   C       2.90881    3.28152      6.19032   -0.19032
     2   C       2.90881    3.28152      6.19032   -0.19032
     3   H       0.93655                 0.93655    0.06345
     4   H       0.93657                 0.93657    0.06343
     5   H       0.93656                 0.93656    0.06344
     6   H       0.93657                 0.93657    0.06343
     7   H       0.93655                 0.93655    0.06345
     8   H       0.93656                 0.93656    0.06344

 Total charge composition, AO contributions:

   CEN ATOM SHL      SPHERICAL COMPONENTS
     1   C  1s       1.99737
     1   C  2s       0.91144
     1   C  2p       1.11816    1.11815    1.04520

     2   C  1s       1.99737
     2   C  2s       0.91144
     2   C  2p       1.11816    1.11816    1.04520

     3   H  1s       0.93655

     4   H  1s       0.93657

     5   H  1s       0.93656

     6   H  1s       0.93657

     7   H  1s       0.93655

     8   H  1s       0.93656

 Summary of localized orbital composition:   [THRPRINT= 0.020]

   ORB  GRP  ORB.ENERGY      CENTERS/CHARGES
     1   1    -8.151907      C  2   2.000
     2   1    -8.151906      C  1   2.000
     3   1    -0.270422      C  1   0.998   C  2   0.998
     4   1    -0.192679      C  2   1.058   H  5   0.927
     5   1    -0.192678      C  1   1.058   H  8   0.927
     6   1    -0.192677      C  2   1.058   H  6   0.927
     7   1    -0.192676      C  1   1.058   H  4   0.927
     8   1    -0.192673      C  2   1.058   H  3   0.927
     9   1    -0.192672      C  1   1.058   H  7   0.927

 Localized orbitals saved to record      2200.2  (orbital set 4)


 **********************************************************************************************************************************
 DATASETS  * FILE   NREC   LENGTH (MB)   RECORD NAMES
              1      20       86.40       500      610      700      900      950      970     1000      129      960     1100   
                                          VAR    BASINP    GEOM    SYMINP    ZMAT    AOBASIS   BASIS     P2S    ABASIS      S 
                                         1400     1410     1200     1210     1080     1600     1650     1300     1700     1800   
                                           T        V       H0       H01     AOSYM     SMH    MOLCAS    ERIS     OPER     GRID   

              2       5        3.37       700     1000      520     1800     2200   
                                         GEOM     BASIS   MCVARS    GRID      UKS  

 PROGRAMS   *        TOTAL      IBBA       UKS       INT
 CPU TIMES  *         8.10      0.02      6.54      1.38
 REAL TIME  *        11.33 SEC
 DISK USED  *       241.13 MB      
 **********************************************************************************************************************************
 Molecular orbitals read from record     2200.2  Type=UKS/LOCAL(IBO)  
 Occupation numbers read from record     2200.2  Type=UKS/LOCAL(IBO)  
 Orbital energies read from record       2200.2  Type=UKS/LOCAL(IBO)  
 Redundancy group numbers read from rec  2200.2  Type=UKS/BETA (state 1.1)

 IBBA/aug-cc-pVDZ energy=      0.000000000000

        UKS-SCF 
    -68.16617597
 **********************************************************************************************************************************
 Molpro calculation terminated
