
 Primary working directories    : /local
 Secondary working directories  : /local
 Wavefunction directory         : /local/
 Main file repository           : /local/

 SHA1      : b4a5b34a9e711420743f49e6833241d17c61fb3c
 NAME      : 2099.9.b4a5b34
 ARCHNAME  : linux/x86_64_openmp
 FC        : /cm/shared/languages/GCC-6.1/bin/gfortran
 BLASLIB   : -lblas
 id        : simonbennie

 Nodes     nprocs
 node44-008    1

 Using customized tuning parameters: mindgm=1; mindgv=20; mindgc=4; mindgr=1; noblas=0; minvec=7
 default implementation of scratch files=df  

 memory,500,m
 geomtyp=xyz
 nosym
 noorient
 geometry={
 C         -2.05564       -0.61227        0.00001
 C         -1.23110        0.64045        0.00005
 C          0.10563        0.73427        0.00003
 C          1.05756       -0.37441       -0.00004
 C          2.38358       -0.19894       -0.00004
 H         -2.70508       -0.64160        0.87713
 H         -2.70513       -0.64151       -0.87709
 H         -1.45133       -1.51608       -0.00006
 H         -1.79367        1.56759        0.00010
 H          0.54576        1.72564        0.00006
 H          0.66526       -1.38324       -0.00011
 H          3.06469       -1.03772       -0.00009
 H          2.81928        0.79229        0.00002
 }
 basis={ default,sto-3g }
 {uks,PBE0,direct;wf,38,1,0}
 {ibba,bonds=1}

 Variables initialized (895), CPU time= 0.00 sec
 Commands  initialized (725), CPU time= 0.01 sec, 591 directives.
 Default parameters read. Elapsed time= 0.09 sec

 Checking input...
 Passed
1


                                         ***  PROGRAM SYSTEM MOLPRO  ***
                                       Copyright, TTI GmbH Stuttgart, 2015
                                    Version 2099.9 linked May 26 2017 16:03:21


 **********************************************************************************************************************************
 LABEL *                                                                                 
  64 bit serial version                                                                  DATE: 19-Jun-17          TIME: 16:43:30  
 **********************************************************************************************************************************

 SHA1:             b4a5b34a9e711420743f49e6833241d17c61fb3c
 **********************************************************************************************************************************
 SETTING GEOMTYP        =    XYZ

 Variable memory set to  500000000 words,  buffer space 

 ZSYMEL=NOSYM

 SETTING BASIS          =    STO-3G


 Recomputing integrals since basis changed


 Using spherical harmonics

 Library entry C      S STO-3G               selected for orbital group  1
 Library entry C      P STO-3G               selected for orbital group  1
 Library entry H      S STO-3G               selected for orbital group  2


 PROGRAM * SEWARD (Integral evaluation for generally contracted gaussian basis sets)     Author: Roland Lindh, 1990

 Geometry written to block  1 of record 700


 Point group  C1  



 ATOMIC COORDINATES

 NR  ATOM    CHARGE       X              Y              Z

   1  C       6.00   -3.884596611   -1.157022614    0.000018897
   2  C       6.00   -2.326441832    1.210275096    0.000094486
   3  C       6.00    0.199611771    1.387569201    0.000056692
   4  C       6.00    1.998498760   -0.707532358   -0.000075589
   5  C       6.00    4.504313396   -0.375942115   -0.000075589
   6  H       1.00   -5.111860345   -1.212448282    1.657535476
   7  H       1.00   -5.111954831   -1.212278206   -1.657459887
   8  H       1.00   -2.742616216   -2.864975983   -0.000113384
   9  H       1.00   -3.389545058    2.962315776    0.000188973
  10  H       1.00    1.031336930    3.260986990    0.000113384
  11  H       1.00    1.257159202   -2.613944765   -0.000207870
  12  H       1.00    5.791424757   -1.961006594   -0.000170075
  13  H       1.00    5.327667068    1.497211111    0.000037795

 Bond lengths in Bohr (Angstrom)

 1-2  2.834068590  1-6  2.063155226  1-7  2.063176508  1-8  2.054561741  2-3  2.532267759
     ( 1.499724512)     ( 1.091774728)     ( 1.091785990)     ( 1.087227252)     ( 1.340018390)

  2- 9  2.049349902   3- 4  2.761420824   3-10  2.049746558   4- 5  2.527658814   4-11  2.045481024
       ( 1.084469265)       ( 1.461280970)       ( 1.084679167)       ( 1.337579441)       ( 1.082421944)

  5-12  2.041833751   5-13  2.046121769
       ( 1.080491889)       ( 1.082761011)

 Bond angles

  1-2-3  127.36769203   1-2-9  115.39855901   2-1-6  110.45444535   2-1-7  110.45417453

  2- 1- 8  112.87941838   2- 3- 4  126.63511536   2- 3-10  117.95416222   3- 2- 9  117.23374896

  3- 4- 5  123.11184583   3- 4-11  118.10071365   4- 3-10  115.41072241   4- 5-12  121.53938936

  4- 5-13  121.26618363   5- 4-11  118.78744051   6- 1- 7  106.90738959   6- 1- 8  107.95992625

  7- 1- 8  107.95916450  12- 5-13  117.19442701

 NUCLEAR CHARGE:                   38
 NUMBER OF PRIMITIVE AOS:          99
 NUMBER OF SYMMETRY AOS:           99
 NUMBER OF CONTRACTIONS:           33   (  33A   )
 NUMBER OF CORE ORBITALS:           5   (   5A   )
 NUMBER OF VALENCE ORBITALS:       28   (  28A   )


 NUCLEAR REPULSION ENERGY  155.81520284


 Eigenvalues of metric

         1 0.185E+00 0.190E+00 0.219E+00 0.268E+00 0.286E+00 0.302E+00 0.318E+00 0.335E+00


 Contracted 2-electron integrals neglected if value below      1.0D-11
 AO integral compression algorithm  1   Integral accuracy      1.0D-11

     1.049 MB (compressed) written to integral file ( 79.2%)


 NUMBER OF SORTED TWO-ELECTRON INTEGRALS:     157641.     BUFFER LENGTH:  32768
 NUMBER OF SEGMENTS:   1  SEGMENT LENGTH:     157641      RECORD LENGTH: 524288

 Memory used in sort:       0.71 MW

 SORT1 READ      179750. AND WROTE      144737. INTEGRALS IN      1 RECORDS. CPU TIME:     0.01 SEC, REAL TIME:     0.01 SEC
 SORT2 READ      144737. AND WROTE      157641. INTEGRALS IN      4 RECORDS. CPU TIME:     0.01 SEC, REAL TIME:     0.02 SEC

 FILE SIZES:   FILE 1:    31.2 MBYTE,  FILE 4:     4.2 MBYTE,   TOTAL:     35.5 MBYTE

 OPERATOR DM      FOR CENTER  0  COORDINATES:    0.000000    0.000000    0.000000


 **********************************************************************************************************************************
 DATASETS  * FILE   NREC   LENGTH (MB)   RECORD NAMES
              1      19       30.75       500      610      700      900      950      970     1000      129      960     1100   
                                          VAR    BASINP    GEOM    SYMINP    ZMAT    AOBASIS   BASIS     P2S    ABASIS      S 
                                         1400     1410     1200     1210     1080     1600     1650     1300     1700   
                                           T        V       H0       H01     AOSYM     SMH    MOLCAS    ERIS     OPER   

 PROGRAMS   *        TOTAL       INT
 CPU TIMES  *         0.51      0.37
 REAL TIME  *         0.80 SEC
 DISK USED  *        35.95 MB      
 **********************************************************************************************************************************

 Density functional group PBE0=PBEX+PBEC
 Functional: PBEX(Automatically generated (new) PBEX)                          Gradient terms: 1
 Functional: PBEC(Automatically generated (new) PBEC)                          Gradient terms: 1
 Use grid at  1800.2


 Exact exchange will be calculated, factor:  0.2500

 Functional: PBEX                      Factor:  0.7500
 Functional: PBEC                      Factor:  1.0000

 Generated new metagrid on record  1800.2 with target accuracy 1.0D-06 and 50412 points in CPU time    1.1
 Computed new grid on record 1800.1 in CPU time    1.2
   30715 words reserved for DFT integration

 PROGRAM * UKS-SCF (Unrestricted Kohn-Sham)     Authors: W. Meyer, H.-J. Werner, P.J. Knowles, 1993

 NUMBER OF ELECTRONS:      19+   19-    SPACE SYMMETRY=1    SPIN SYMMETRY: Singlet 
 CONVERGENCE THRESHOLDS:    1.00E-05 (Density)    1.00E-06 (Energy)
 MAX. NUMBER OF ITERATIONS:       60
 INTERPOLATION TYPE:            DIIS
 INTERPOLATION STEPS:              2 (START)      1 (STEP)
 LEVEL SHIFTS:                 -0.20 (ALPHA)  -0.20 (BETA) 



 Use fine grid record 1800.2 for energy threshold  1.0D-06
 Orbital guess generated from atomic densities. Full valence occupancy:   19

 Molecular orbital dump at record        2200.2

 Initial alpha occupation  19
 Initial beta  occupation  19

 ITERATION    DDIFF          GRAD             ENERGY        2-EL.EN.            DIPOLE MOMENTS         DIIS
    1      0.000D+00      0.000D+00      -192.50835369    493.681110    0.42221   -0.13839   -0.00003    0
    2      0.439D-01      0.155D-01      -192.70000917    483.698822   -0.20268   -0.13224   -0.00000    1
    3      0.841D-02      0.348D-02      -192.70690954    484.037906   -0.06157   -0.06789   -0.00000    2
    4      0.194D-02      0.819D-03      -192.70764269    483.911946   -0.11913   -0.06020   -0.00000    3
    5      0.135D-02      0.346D-03      -192.70785335    483.882993   -0.14393   -0.04632   -0.00000    4
    6      0.477D-03      0.981D-04      -192.70787506    483.880344   -0.15300   -0.04364   -0.00000    5
    7      0.108D-03      0.261D-04      -192.70787617    483.880592   -0.15528   -0.04370   -0.00000    6
    8      0.257D-04      0.843D-05      -192.70787625    483.880705   -0.15477   -0.04359   -0.00000    6
    9      0.113D-04      0.339D-05      -192.70787627    483.880820   -0.15515   -0.04360   -0.00000    7
   10      0.404D-05      0.951D-06      -192.70787627    483.880777   -0.15508   -0.04360   -0.00000    7
   11      0.907D-06      0.282D-06      -192.70787627    483.880760   -0.15510   -0.04360   -0.00000    7

 Final alpha occupancy:  19
 Final beta  occupancy:  19

 !UKS STATE 1.1 Energy               -192.707876266859
 Nuclear energy                       155.81520284
 One-electron energy                 -567.76422215
 Two-electron energy                  241.94037991
 Density functional                   -22.69923687     PBEX=-28.58967297 PBEC= -1.25698214
 Virial quotient                       -1.01420018
 !UKS STATE 1.1 Dipole moment          -0.15510081    -0.04359837    -0.00000267
 Dipole moment /Debye                  -0.39420112    -0.11080875    -0.00000679

 Orbital energies for positive spin:

         1.1          2.1          3.1          4.1          5.1          6.1          7.1          8.1          9.1         10.1
    -10.053383   -10.041785   -10.039102   -10.035623   -10.024771    -0.788423    -0.735525    -0.665256    -0.568501    -0.509532

        11.1         12.1         13.1         14.1         15.1         16.1         17.1         18.1         19.1         20.1
     -0.452562    -0.421819    -0.393428    -0.373445    -0.352771    -0.336875    -0.298507    -0.272272    -0.170646     0.079679

        21.1
      0.213653

 Orbital energies for negative spin:

         1.1          2.1          3.1          4.1          5.1          6.1          7.1          8.1          9.1         10.1
    -10.053383   -10.041785   -10.039102   -10.035623   -10.024771    -0.788423    -0.735525    -0.665256    -0.568501    -0.509532

        11.1         12.1         13.1         14.1         15.1         16.1         17.1         18.1         19.1         20.1
     -0.452562    -0.421819    -0.393428    -0.373445    -0.352771    -0.336875    -0.298507    -0.272272    -0.170646     0.079679

        21.1
      0.213653

 HOMO     19.1    -0.170646 =      -4.6435eV
 LUMO     20.1     0.079679 =       2.1682eV
 LUMO-HOMO         0.250324 =       6.8117eV

 EXPECTATION VALUE OF S**2:             0.00000000

 Natural orbitals saved to record    2200.2 (Orbital set 3)

 Orbital spaces for UNO-CAS (Min. occupation: 0.020  Max. occupation: 1.980):

 Closed:       19
 Active:        0


 **********************************************************************************************************************************
 DATASETS  * FILE   NREC   LENGTH (MB)   RECORD NAMES
              1      20       32.37       500      610      700      900      950      970     1000      129      960     1100   
                                          VAR    BASINP    GEOM    SYMINP    ZMAT    AOBASIS   BASIS     P2S    ABASIS      S 
                                         1400     1410     1200     1210     1080     1600     1650     1300     1700     1800   
                                           T        V       H0       H01     AOSYM     SMH    MOLCAS    ERIS     OPER     GRID   

              2       5        3.01       700     1000      520     1800     2200   
                                         GEOM     BASIS   MCVARS    GRID      UKS  

 PROGRAMS   *        TOTAL       UKS       INT
 CPU TIMES  *         5.51      5.00      0.37
 REAL TIME  *         6.17 SEC
 DISK USED  *        35.95 MB      
 **********************************************************************************************************************************


 PROGRAM * Intrinsic Basis Bonding Analysis (IBBA)          Author: G. Knizia

 Molecular orbitals read from record     2200.2  Type=UKS/ALPHA (state 1.1)
 Fock matrix read from record            2200.2  Type=UKS/TOTAL (state 1.1)
 Orbital energies read from record       2200.2  Type=UKS/ALPHA (state 1.1)
 Density matrix read from record         2200.2  Type=UKS/CHARGE (state 1.1)

 Number of core orbitals:           5 (   5 )
 Number of closed-shell orbitals:  14 (  14 )

 Basis set MINAO-AUTO-PP generated.      Number of basis functions:   33 

 Polarized AO type:                A = (O Ot + (1-O)(1-Ot)) P12
 Orthogonalization method:         Symmetric (Loewdin)
 Localization functional:          L = sum[A,i] <i|n_A|i>^4 -> max

 Localization group 1:  19 orbitals, occupancy  2.000
 Iterative localization: IB/PM,    8 iter; Final gradient 0.31E-08

 Bond order analysis:       [THRPRINT= 0.020]

   CEN ATOM   CEN ATOM     WIBERG.BO      RENORM.BO
     1   C  -   2   C       1.038546       1.031082
     1   C  -   8   H       0.962820       0.986739
     1   C  -   7   H       0.950208       0.983892
     1   C  -   6   H       0.950208       0.983892

     2   C  -   3   C       1.854200       1.846666
     2   C  -   1   C       1.038546       1.031082
     2   C  -   9   H       0.947577       0.969629
     2   C  -   5   C       0.121242       0.122410

     3   C  -   2   C       1.854200       1.846666
     3   C  -   4   C       1.101761       1.098065
     3   C  -  10   H       0.945545       0.969506

     4   C  -   5   C       1.895735       1.894029
     4   C  -   3   C       1.101761       1.098065
     4   C  -  11   H       0.945625       0.966199

     5   C  -   4   C       1.895735       1.894029
     5   C  -  12   H       0.960086       0.982509
     5   C  -  13   H       0.959544       0.979245
     5   C  -   2   C       0.121242       0.122410

     6   H  -   1   C       0.950208       0.983892

     7   H  -   1   C       0.950208       0.983892

     8   H  -   1   C       0.962820       0.986739

     9   H  -   2   C       0.947577       0.969629

    10   H  -   3   C       0.945545       0.969506

    11   H  -   4   C       0.945625       0.966199

    12   H  -   5   C       0.960086       0.982509

    13   H  -   5   C       0.959544       0.979245


 Valency analysis:

   CEN ATOM   TOT.VALENCE
     1   C       3.928330
     2   C       3.973331
     3   C       3.971466
     4   C       3.970709
     5   C       3.952689
     6   H       0.978956
     7   H       0.978956
     8   H       0.981564
     9   H       0.982140
    10   H       0.982001
    11   H       0.982907
    12   H       0.981341
    13   H       0.982541

 Total charge composition:

   CEN ATOM         s          p       ELECTRONS ->P.CHARGE
     1   C       2.98794    3.41891      6.40686   -0.40686
     2   C       2.96457    3.16006      6.12463   -0.12463
     3   C       2.95390    3.19843      6.15233   -0.15233
     4   C       2.95468    3.19237      6.14705   -0.14705
     5   C       2.99619    3.26613      6.26232   -0.26232
     6   H       0.85493                 0.85493    0.14507
     7   H       0.85494                 0.85494    0.14506
     8   H       0.86422                 0.86422    0.13578
     9   H       0.86636                 0.86636    0.13364
    10   H       0.86584                 0.86584    0.13416
    11   H       0.86926                 0.86926    0.13074
    12   H       0.86340                 0.86340    0.13660
    13   H       0.86787                 0.86787    0.13213

 Total charge composition, AO contributions:

   CEN ATOM SHL      SPHERICAL COMPONENTS
     1   C  1s       1.99132
     1   C  2s       0.99662
     1   C  2p       1.14268    1.10355    1.17268

     2   C  1s       1.99081
     2   C  2s       0.97376
     2   C  2p       1.08382    1.08741    0.98883

     3   C  1s       1.99044
     3   C  2s       0.96346
     3   C  2p       1.07337    1.10309    1.02197

     4   C  1s       1.99036
     4   C  2s       0.96433
     4   C  2p       1.08031    1.10833    1.00373

     5   C  1s       1.99069
     5   C  2s       1.00550
     5   C  2p       1.10461    1.15946    1.00205

     6   H  1s       0.85493

     7   H  1s       0.85494

     8   H  1s       0.86422

     9   H  1s       0.86636

    10   H  1s       0.86584

    11   H  1s       0.86926

    12   H  1s       0.86340

    13   H  1s       0.86787

 Summary of localized orbital composition:   [THRPRINT= 0.020]

   ORB  GRP  ORB.ENERGY      CENTERS/CHARGES
     1   1    -9.936479      C  1   2.000
     2   1    -9.916168      C  2   2.000
     3   1    -9.914665      C  4   2.000
     4   1    -9.909590      C  3   2.000
     5   1    -9.898749      C  5   2.000
     6   1    -0.707700      C  4   1.005   C  5   0.985
     7   1    -0.704797      C  3   0.995   C  2   0.994
     8   1    -0.590840      C  4   0.994   C  3   0.988
     9   1    -0.566336      C  2   0.995   C  1   0.993
    10   1    -0.497996      C  5   1.136   H 12   0.854
    11   1    -0.496141      C  4   1.126   H 11   0.857
    12   1    -0.495636      C  5   1.131   H 13   0.859
    13   1    -0.495350      C  2   1.129   H  9   0.853
    14   1    -0.490462      C  3   1.128   H 10   0.853
    15   1    -0.486809      C  1   1.133   H  8   0.858
    16   1    -0.485683      C  1   1.135   H  6   0.846
    17   1    -0.485676      C  1   1.135   H  7   0.846
    18   1    -0.228106      C  3   0.986   C  2   0.936   C  4   0.035   C  5   0.029
    19   1    -0.227051      C  5   0.971   C  4   0.968   C  2   0.033   C  3   0.027

 Localized orbitals saved to record      2200.2  (orbital set 4)


 **********************************************************************************************************************************
 DATASETS  * FILE   NREC   LENGTH (MB)   RECORD NAMES
              1      20       32.37       500      610      700      900      950      970     1000      129      960     1100   
                                          VAR    BASINP    GEOM    SYMINP    ZMAT    AOBASIS   BASIS     P2S    ABASIS      S 
                                         1400     1410     1200     1210     1080     1600     1650     1300     1700     1800   
                                           T        V       H0       H01     AOSYM     SMH    MOLCAS    ERIS     OPER     GRID   

              2       5        3.02       700     1000      520     1800     2200   
                                         GEOM     BASIS   MCVARS    GRID      UKS  

 PROGRAMS   *        TOTAL      IBBA       UKS       INT
 CPU TIMES  *         5.54      0.03      5.00      0.37
 REAL TIME  *         6.45 SEC
 DISK USED  *        35.95 MB      
 **********************************************************************************************************************************
 Molecular orbitals read from record     2200.2  Type=UKS/LOCAL(IBO)  
 Occupation numbers read from record     2200.2  Type=UKS/LOCAL(IBO)  
 Orbital energies read from record       2200.2  Type=UKS/LOCAL(IBO)  
 Redundancy group numbers read from rec  2200.2  Type=UKS/BETA (state 1.1)

 IBBA/STO-3G energy=      0.000000000000

        UKS-SCF 
   -192.70787627
 **********************************************************************************************************************************
 Molpro calculation terminated
