
 Primary working directories    : /local
 Secondary working directories  : /local
 Wavefunction directory         : /local/
 Main file repository           : /local/

 SHA1      : b4a5b34a9e711420743f49e6833241d17c61fb3c
 NAME      : 2099.9.b4a5b34
 ARCHNAME  : linux/x86_64_openmp
 FC        : /cm/shared/languages/GCC-6.1/bin/gfortran
 BLASLIB   : -lblas
 id        : simonbennie

 Nodes     nprocs
 node45-006    1

 Using customized tuning parameters: mindgm=1; mindgv=20; mindgc=4; mindgr=1; noblas=0; minvec=7
 default implementation of scratch files=df  

 memory,500,m
 geomtyp=xyz
 nosym
 noorient
 geometry={
 C         -2.05564       -0.61227        0.00001
 C         -1.23110        0.64045        0.00005
 C          0.10563        0.73427        0.00003
 C          1.05756       -0.37441       -0.00004
 C          2.38358       -0.19894       -0.00004
 H         -2.70508       -0.64160        0.87713
 H         -2.70513       -0.64151       -0.87709
 H         -1.45133       -1.51608       -0.00006
 H         -1.79367        1.56759        0.00010
 H          0.54576        1.72564        0.00006
 H          0.66526       -1.38324       -0.00011
 H          3.06469       -1.03772       -0.00009
 H          2.81928        0.79229        0.00002
 }
 basis={ default,sto-3g }
 {uks,M06,direct;wf,38,1,0}
 {ibba,bonds=1}

 Variables initialized (895), CPU time= 0.00 sec
 Commands  initialized (725), CPU time= 0.02 sec, 591 directives.
 Default parameters read. Elapsed time= 0.25 sec

 Checking input...
 Passed
1


                                         ***  PROGRAM SYSTEM MOLPRO  ***
                                       Copyright, TTI GmbH Stuttgart, 2015
                                    Version 2099.9 linked May 26 2017 16:03:21


 **********************************************************************************************************************************
 LABEL *                                                                                 
  64 bit serial version                                                                  DATE: 19-Jun-17          TIME: 16:40:18  
 **********************************************************************************************************************************

 SHA1:             b4a5b34a9e711420743f49e6833241d17c61fb3c
 **********************************************************************************************************************************
 SETTING GEOMTYP        =    XYZ

 Variable memory set to  500000000 words,  buffer space 

 ZSYMEL=NOSYM

 SETTING BASIS          =    STO-3G


 Recomputing integrals since basis changed


 Using spherical harmonics

 Library entry C      S STO-3G               selected for orbital group  1
 Library entry C      P STO-3G               selected for orbital group  1
 Library entry H      S STO-3G               selected for orbital group  2


 PROGRAM * SEWARD (Integral evaluation for generally contracted gaussian basis sets)     Author: Roland Lindh, 1990

 Geometry written to block  1 of record 700


 Point group  C1  



 ATOMIC COORDINATES

 NR  ATOM    CHARGE       X              Y              Z

   1  C       6.00   -3.884596611   -1.157022614    0.000018897
   2  C       6.00   -2.326441832    1.210275096    0.000094486
   3  C       6.00    0.199611771    1.387569201    0.000056692
   4  C       6.00    1.998498760   -0.707532358   -0.000075589
   5  C       6.00    4.504313396   -0.375942115   -0.000075589
   6  H       1.00   -5.111860345   -1.212448282    1.657535476
   7  H       1.00   -5.111954831   -1.212278206   -1.657459887
   8  H       1.00   -2.742616216   -2.864975983   -0.000113384
   9  H       1.00   -3.389545058    2.962315776    0.000188973
  10  H       1.00    1.031336930    3.260986990    0.000113384
  11  H       1.00    1.257159202   -2.613944765   -0.000207870
  12  H       1.00    5.791424757   -1.961006594   -0.000170075
  13  H       1.00    5.327667068    1.497211111    0.000037795

 Bond lengths in Bohr (Angstrom)

 1-2  2.834068590  1-6  2.063155226  1-7  2.063176508  1-8  2.054561741  2-3  2.532267759
     ( 1.499724512)     ( 1.091774728)     ( 1.091785990)     ( 1.087227252)     ( 1.340018390)

  2- 9  2.049349902   3- 4  2.761420824   3-10  2.049746558   4- 5  2.527658814   4-11  2.045481024
       ( 1.084469265)       ( 1.461280970)       ( 1.084679167)       ( 1.337579441)       ( 1.082421944)

  5-12  2.041833751   5-13  2.046121769
       ( 1.080491889)       ( 1.082761011)

 Bond angles

  1-2-3  127.36769203   1-2-9  115.39855901   2-1-6  110.45444535   2-1-7  110.45417453

  2- 1- 8  112.87941838   2- 3- 4  126.63511536   2- 3-10  117.95416222   3- 2- 9  117.23374896

  3- 4- 5  123.11184583   3- 4-11  118.10071365   4- 3-10  115.41072241   4- 5-12  121.53938936

  4- 5-13  121.26618363   5- 4-11  118.78744051   6- 1- 7  106.90738959   6- 1- 8  107.95992625

  7- 1- 8  107.95916450  12- 5-13  117.19442701

 NUCLEAR CHARGE:                   38
 NUMBER OF PRIMITIVE AOS:          99
 NUMBER OF SYMMETRY AOS:           99
 NUMBER OF CONTRACTIONS:           33   (  33A   )
 NUMBER OF CORE ORBITALS:           5   (   5A   )
 NUMBER OF VALENCE ORBITALS:       28   (  28A   )


 NUCLEAR REPULSION ENERGY  155.81520284


 Eigenvalues of metric

         1 0.185E+00 0.190E+00 0.219E+00 0.268E+00 0.286E+00 0.302E+00 0.318E+00 0.335E+00


 Contracted 2-electron integrals neglected if value below      1.0D-11
 AO integral compression algorithm  1   Integral accuracy      1.0D-11

     1.049 MB (compressed) written to integral file ( 79.2%)


 NUMBER OF SORTED TWO-ELECTRON INTEGRALS:     157641.     BUFFER LENGTH:  32768
 NUMBER OF SEGMENTS:   1  SEGMENT LENGTH:     157641      RECORD LENGTH: 524288

 Memory used in sort:       0.71 MW

 SORT1 READ      179750. AND WROTE      144737. INTEGRALS IN      1 RECORDS. CPU TIME:     0.00 SEC, REAL TIME:     0.01 SEC
 SORT2 READ      144737. AND WROTE      157641. INTEGRALS IN      4 RECORDS. CPU TIME:     0.02 SEC, REAL TIME:     0.02 SEC

 FILE SIZES:   FILE 1:    31.2 MBYTE,  FILE 4:     4.2 MBYTE,   TOTAL:     35.5 MBYTE

 OPERATOR DM      FOR CENTER  0  COORDINATES:    0.000000    0.000000    0.000000


 **********************************************************************************************************************************
 DATASETS  * FILE   NREC   LENGTH (MB)   RECORD NAMES
              1      19       30.75       500      610      700      900      950      970     1000      129      960     1100   
                                          VAR    BASINP    GEOM    SYMINP    ZMAT    AOBASIS   BASIS     P2S    ABASIS      S 
                                         1400     1410     1200     1210     1080     1600     1650     1300     1700   
                                           T        V       H0       H01     AOSYM     SMH    MOLCAS    ERIS     OPER   

 PROGRAMS   *        TOTAL       INT
 CPU TIMES  *         0.64      0.48
 REAL TIME  *         1.17 SEC
 DISK USED  *        35.95 MB      
 **********************************************************************************************************************************

 Density functional group M06=XC-M06
 Functional: XC-M06(via MFM 1.6)                                               Gradient terms: 1
 Use grid at  1800.2


 Exact exchange will be calculated, factor:  0.2700

 Functional: XC-M06                    Factor:  1.0000

 Generated new metagrid on record  1800.2 with target accuracy 1.0D-06 and 50412 points in CPU time    1.1
 Computed new grid on record 1800.1 in CPU time    1.3
   30715 words reserved for DFT integration

 PROGRAM * UKS-SCF (Unrestricted Kohn-Sham)     Authors: W. Meyer, H.-J. Werner, P.J. Knowles, 1993

 NUMBER OF ELECTRONS:      19+   19-    SPACE SYMMETRY=1    SPIN SYMMETRY: Singlet 
 CONVERGENCE THRESHOLDS:    1.00E-05 (Density)    1.00E-06 (Energy)
 MAX. NUMBER OF ITERATIONS:       60
 INTERPOLATION TYPE:            DIIS
 INTERPOLATION STEPS:              2 (START)      1 (STEP)
 LEVEL SHIFTS:                 -0.20 (ALPHA)  -0.20 (BETA) 



 Use fine grid record 1800.2 for energy threshold  1.0D-06
 Orbital guess generated from atomic densities. Full valence occupancy:   19

 Molecular orbital dump at record        2200.2

 Initial alpha occupation  19
 Initial beta  occupation  19

 ITERATION    DDIFF          GRAD             ENERGY        2-EL.EN.            DIPOLE MOMENTS         DIIS
    1      0.000D+00      0.000D+00      -192.50528307    492.770954    0.43325   -0.13440   -0.00003    0
    2      0.452D-01      0.156D-01      -192.70571046    482.470080   -0.17547   -0.13527   -0.00000    1
    3      0.842D-02      0.343D-02      -192.71256962    482.743583   -0.04806   -0.06760   -0.00000    2
    4      0.194D-02      0.823D-03      -192.71333695    482.604654   -0.10762   -0.06077   -0.00000    3
    5      0.154D-02      0.384D-03      -192.71360470    482.569284   -0.14067   -0.04641   -0.00000    4
    6      0.639D-03      0.127D-03      -192.71363823    482.562460   -0.15536   -0.04335   -0.00000    5
    7      0.127D-03      0.318D-04      -192.71363972    482.562542   -0.15876   -0.04336   -0.00000    6
    8      0.298D-04      0.104D-04      -192.71363986    482.562798   -0.15836   -0.04324   -0.00000    6
    9      0.124D-04      0.413D-05      -192.71363989    482.562911   -0.15884   -0.04323   -0.00000    7
   10      0.595D-05      0.247D-05      -192.71363991    482.562857   -0.15878   -0.04323   -0.00000    7
   11      0.177D-05      0.142D-05      -192.71363992    482.562920   -0.15875   -0.04323   -0.00000    7

 Final alpha occupancy:  19
 Final beta  occupancy:  19

 !UKS STATE 1.1 Energy               -192.713639923427
 Nuclear energy                       155.81520284
 One-electron energy                 -567.68776954
 Two-electron energy                  241.28146008
 Density functional                   -22.12253330     XC-M06=-22.12253330
 Virial quotient                       -1.01483751
 !UKS STATE 1.1 Dipole moment          -0.15875357    -0.04322583    -0.00000255
 Dipole moment /Debye                  -0.40348490    -0.10986190    -0.00000649

 Orbital energies for positive spin:

         1.1          2.1          3.1          4.1          5.1          6.1          7.1          8.1          9.1         10.1
    -10.086656   -10.072806   -10.070498   -10.066523   -10.057017    -0.776678    -0.724955    -0.655813    -0.561989    -0.504688

        11.1         12.1         13.1         14.1         15.1         16.1         17.1         18.1         19.1         20.1
     -0.447336    -0.419110    -0.392122    -0.369899    -0.350591    -0.333252    -0.297227    -0.276562    -0.176796     0.072761

        21.1
      0.203593

 Orbital energies for negative spin:

         1.1          2.1          3.1          4.1          5.1          6.1          7.1          8.1          9.1         10.1
    -10.086656   -10.072798   -10.070494   -10.066526   -10.057026    -0.776673    -0.724955    -0.655819    -0.561991    -0.504685

        11.1         12.1         13.1         14.1         15.1         16.1         17.1         18.1         19.1         20.1
     -0.447336    -0.419112    -0.392117    -0.369900    -0.350592    -0.333253    -0.297225    -0.276552    -0.176809     0.072750

        21.1
      0.203606

 HOMO     19.1    -0.176796 =      -4.8109eV
 LUMO    -20.1     0.072750 =       1.9796eV
 LUMO-HOMO         0.249546 =       6.7905eV

 EXPECTATION VALUE OF S**2:             0.00000029

 Occupation number threshold for canonical orbitals:  1.999000 (occupied),  0.001000 (virtual)

 Number of pseudo-canonical orbitals per symmetry:   19
 Number of active natural orbitals per symmetry:      0

 Natural orbitals saved to record    2200.2 (Orbital set 3)

 Orbital spaces for UNO-CAS (Min. occupation: 0.020  Max. occupation: 1.980):

 Closed:       19
 Active:        0


 **********************************************************************************************************************************
 DATASETS  * FILE   NREC   LENGTH (MB)   RECORD NAMES
              1      20       32.37       500      610      700      900      950      970     1000      129      960     1100   
                                          VAR    BASINP    GEOM    SYMINP    ZMAT    AOBASIS   BASIS     P2S    ABASIS      S 
                                         1400     1410     1200     1210     1080     1600     1650     1300     1700     1800   
                                           T        V       H0       H01     AOSYM     SMH    MOLCAS    ERIS     OPER     GRID   

              2       5        3.01       700     1000      520     1800     2200   
                                         GEOM     BASIS   MCVARS    GRID      UKS  

 PROGRAMS   *        TOTAL       UKS       INT
 CPU TIMES  *        12.94     12.30      0.48
 REAL TIME  *        13.61 SEC
 DISK USED  *        35.95 MB      
 **********************************************************************************************************************************


 PROGRAM * Intrinsic Basis Bonding Analysis (IBBA)          Author: G. Knizia

 Molecular orbitals read from record     2200.2  Type=UKS/ALPHA (state 1.1)
 Fock matrix read from record            2200.2  Type=UKS/TOTAL (state 1.1)
 Orbital energies read from record       2200.2  Type=UKS/ALPHA (state 1.1)
 Density matrix read from record         2200.2  Type=UKS/CHARGE (state 1.1)

 Number of core orbitals:           5 (   5 )
 Number of closed-shell orbitals:  14 (  14 )

 Basis set MINAO-AUTO-PP generated.      Number of basis functions:   33 

 Polarized AO type:                A = (O Ot + (1-O)(1-Ot)) P12
 Orthogonalization method:         Symmetric (Loewdin)
 Localization functional:          L = sum[A,i] <i|n_A|i>^4 -> max

 Localization group 1:  19 orbitals, occupancy  2.000
 Iterative localization: IB/PM,    8 iter; Final gradient 0.44E-08

 Bond order analysis:       [THRPRINT= 0.020]

   CEN ATOM   CEN ATOM     WIBERG.BO      RENORM.BO
     1   C  -   2   C       1.038405       1.031365
     1   C  -   8   H       0.963437       0.986713
     1   C  -   7   H       0.950405       0.983893
     1   C  -   6   H       0.950405       0.983893

     2   C  -   3   C       1.855197       1.847178
     2   C  -   1   C       1.038405       1.031365
     2   C  -   9   H       0.947704       0.969057
     2   C  -   5   C       0.120575       0.121850

     3   C  -   2   C       1.855197       1.847178
     3   C  -   4   C       1.100472       1.097023
     3   C  -  10   H       0.945854       0.969071

     4   C  -   5   C       1.897167       1.895535
     4   C  -   3   C       1.100472       1.097023
     4   C  -  11   H       0.945851       0.965790

     5   C  -   4   C       1.897167       1.895535
     5   C  -  12   H       0.960427       0.982001
     5   C  -  13   H       0.960037       0.978882
     5   C  -   2   C       0.120575       0.121850

     6   H  -   1   C       0.950405       0.983893

     7   H  -   1   C       0.950405       0.983893

     8   H  -   1   C       0.963437       0.986713

     9   H  -   2   C       0.947704       0.969057

    10   H  -   3   C       0.945854       0.969071

    11   H  -   4   C       0.945851       0.965790

    12   H  -   5   C       0.960427       0.982001

    13   H  -   5   C       0.960037       0.978882


 Valency analysis:

   CEN ATOM   TOT.VALENCE
     1   C       3.929440
     2   C       3.973933
     3   C       3.972122
     4   C       3.971303
     5   C       3.954374
     6   H       0.979539
     7   H       0.979539
     8   H       0.982374
     9   H       0.982863
    10   H       0.982788
    11   H       0.983645
    12   H       0.982164
    13   H       0.983372

 Total charge composition:

   CEN ATOM         s          p       ELECTRONS ->P.CHARGE
     1   C       2.98331    3.41637      6.39968   -0.39968
     2   C       2.96288    3.15884      6.12172   -0.12172
     3   C       2.95219    3.19745      6.14964   -0.14964
     4   C       2.95306    3.19188      6.14494   -0.14494
     5   C       2.99416    3.26120      6.25535   -0.25535
     6   H       0.85696                 0.85696    0.14304
     7   H       0.85696                 0.85696    0.14304
     8   H       0.86724                 0.86724    0.13276
     9   H       0.86909                 0.86909    0.13091
    10   H       0.86881                 0.86881    0.13119
    11   H       0.87211                 0.87211    0.12789
    12   H       0.86645                 0.86645    0.13355
    13   H       0.87105                 0.87105    0.12895

 Total charge composition, AO contributions:

   CEN ATOM SHL      SPHERICAL COMPONENTS
     1   C  1s       1.99160
     1   C  2s       0.99172
     1   C  2p       1.14163    1.10322    1.17152

     2   C  1s       1.99106
     2   C  2s       0.97182
     2   C  2p       1.08280    1.08754    0.98850

     3   C  1s       1.99071
     3   C  2s       0.96148
     3   C  2p       1.07178    1.10284    1.02283

     4   C  1s       1.99063
     4   C  2s       0.96243
     4   C  2p       1.07952    1.10817    1.00419

     5   C  1s       1.99096
     5   C  2s       1.00320
     5   C  2p       1.10258    1.15724    1.00138

     6   H  1s       0.85696

     7   H  1s       0.85696

     8   H  1s       0.86724

     9   H  1s       0.86909

    10   H  1s       0.86881

    11   H  1s       0.87211

    12   H  1s       0.86645

    13   H  1s       0.87105

 Summary of localized orbital composition:   [THRPRINT= 0.020]

   ORB  GRP  ORB.ENERGY      CENTERS/CHARGES
     1   1    -9.970196      C  1   2.000
     2   1    -9.947580      C  2   2.000
     3   1    -9.945677      C  4   2.000
     4   1    -9.940566      C  3   2.000
     5   1    -9.931090      C  5   2.000
     6   1    -0.695540      C  4   1.005   C  5   0.985
     7   1    -0.692758      C  3   0.994   C  2   0.994
     8   1    -0.584623      C  4   0.994   C  3   0.987
     9   1    -0.561745      C  2   0.995   C  1   0.993
    10   1    -0.494126      C  5   1.133   H 12   0.857
    11   1    -0.492439      C  4   1.123   H 11   0.859
    12   1    -0.492376      C  5   1.128   H 13   0.862
    13   1    -0.491456      C  2   1.126   H  9   0.856
    14   1    -0.486642      C  3   1.125   H 10   0.855
    15   1    -0.483233      C  1   1.130   H  8   0.861
    16   1    -0.482400      C  1   1.133   H  6   0.847
    17   1    -0.482394      C  1   1.133   H  7   0.847
    18   1    -0.233484      C  3   0.987   C  2   0.935   C  4   0.035   C  5   0.029
    19   1    -0.232163      C  5   0.971   C  4   0.969   C  2   0.032   C  3   0.027

 Localized orbitals saved to record      2200.2  (orbital set 4)


 **********************************************************************************************************************************
 DATASETS  * FILE   NREC   LENGTH (MB)   RECORD NAMES
              1      20       32.37       500      610      700      900      950      970     1000      129      960     1100   
                                          VAR    BASINP    GEOM    SYMINP    ZMAT    AOBASIS   BASIS     P2S    ABASIS      S 
                                         1400     1410     1200     1210     1080     1600     1650     1300     1700     1800   
                                           T        V       H0       H01     AOSYM     SMH    MOLCAS    ERIS     OPER     GRID   

              2       5        3.02       700     1000      520     1800     2200   
                                         GEOM     BASIS   MCVARS    GRID      UKS  

 PROGRAMS   *        TOTAL      IBBA       UKS       INT
 CPU TIMES  *        12.98      0.04     12.30      0.48
 REAL TIME  *        13.72 SEC
 DISK USED  *        35.95 MB      
 **********************************************************************************************************************************
 Molecular orbitals read from record     2200.2  Type=UKS/LOCAL(IBO)  
 Occupation numbers read from record     2200.2  Type=UKS/LOCAL(IBO)  
 Orbital energies read from record       2200.2  Type=UKS/LOCAL(IBO)  
 Redundancy group numbers read from rec  2200.2  Type=UKS/BETA (state 1.1)

 IBBA/STO-3G energy=      0.000000000000

        UKS-SCF 
   -192.71363992
 **********************************************************************************************************************************
 Molpro calculation terminated
