
 Primary working directories    : /local
 Secondary working directories  : /local
 Wavefunction directory         : /local/
 Main file repository           : /local/

 SHA1      : b4a5b34a9e711420743f49e6833241d17c61fb3c
 NAME      : 2099.9.b4a5b34
 ARCHNAME  : linux/x86_64_openmp
 FC        : /cm/shared/languages/GCC-6.1/bin/gfortran
 BLASLIB   : -lblas
 id        : simonbennie

 Nodes     nprocs
 node33-019    1

 Using customized tuning parameters: mindgm=1; mindgv=20; mindgc=4; mindgr=1; noblas=0; minvec=7
 default implementation of scratch files=df  

 memory,500,m
 geomtyp=xyz
 nosym
 noorient
 geometry={
 C         -2.05564       -0.61227        0.00001
 C         -1.23110        0.64045        0.00005
 C          0.10563        0.73427        0.00003
 C          1.05756       -0.37441       -0.00004
 C          2.38358       -0.19894       -0.00004
 H         -2.70508       -0.64160        0.87713
 H         -2.70513       -0.64151       -0.87709
 H         -1.45133       -1.51608       -0.00006
 H         -1.79367        1.56759        0.00010
 H          0.54576        1.72564        0.00006
 H          0.66526       -1.38324       -0.00011
 H          3.06469       -1.03772       -0.00009
 H          2.81928        0.79229        0.00002
 }
 basis={ default,SV(P) }
 {ks,PBE,direct;wf,38,1,0}
 {ibba,bonds=1}

 Variables initialized (895), CPU time= 0.00 sec
 Commands  initialized (725), CPU time= 0.01 sec, 591 directives.
 Default parameters read. Elapsed time= 0.08 sec

 Checking input...
 Passed
1


                                         ***  PROGRAM SYSTEM MOLPRO  ***
                                       Copyright, TTI GmbH Stuttgart, 2015
                                    Version 2099.9 linked May 26 2017 16:03:21


 **********************************************************************************************************************************
 LABEL *                                                                                 
  64 bit serial version                                                                  DATE: 19-Jun-17          TIME: 16:58:55  
 **********************************************************************************************************************************

 SHA1:             b4a5b34a9e711420743f49e6833241d17c61fb3c
 **********************************************************************************************************************************
 SETTING GEOMTYP        =    XYZ

 Variable memory set to  500000000 words,  buffer space 

 ZSYMEL=NOSYM

 SETTING BASIS          =    SV(P)


 Recomputing integrals since basis changed


 Using spherical harmonics

 Library entry C      S def2-SV(P)           selected for orbital group  1
 Library entry C      P def2-SV(P)           selected for orbital group  1
 Library entry C      D def2-SV(P)           selected for orbital group  1
 Library entry H      S def2-SV(P)           selected for orbital group  2


 PROGRAM * SEWARD (Integral evaluation for generally contracted gaussian basis sets)     Author: Roland Lindh, 1990

 Geometry written to block  1 of record 700


 Point group  C1  



 ATOMIC COORDINATES

 NR  ATOM    CHARGE       X              Y              Z

   1  C       6.00   -3.884596611   -1.157022614    0.000018897
   2  C       6.00   -2.326441832    1.210275096    0.000094486
   3  C       6.00    0.199611771    1.387569201    0.000056692
   4  C       6.00    1.998498760   -0.707532358   -0.000075589
   5  C       6.00    4.504313396   -0.375942115   -0.000075589
   6  H       1.00   -5.111860345   -1.212448282    1.657535476
   7  H       1.00   -5.111954831   -1.212278206   -1.657459887
   8  H       1.00   -2.742616216   -2.864975983   -0.000113384
   9  H       1.00   -3.389545058    2.962315776    0.000188973
  10  H       1.00    1.031336930    3.260986990    0.000113384
  11  H       1.00    1.257159202   -2.613944765   -0.000207870
  12  H       1.00    5.791424757   -1.961006594   -0.000170075
  13  H       1.00    5.327667068    1.497211111    0.000037795

 Bond lengths in Bohr (Angstrom)

 1-2  2.834068590  1-6  2.063155226  1-7  2.063176508  1-8  2.054561741  2-3  2.532267759
     ( 1.499724512)     ( 1.091774728)     ( 1.091785990)     ( 1.087227252)     ( 1.340018390)

  2- 9  2.049349902   3- 4  2.761420824   3-10  2.049746558   4- 5  2.527658814   4-11  2.045481024
       ( 1.084469265)       ( 1.461280970)       ( 1.084679167)       ( 1.337579441)       ( 1.082421944)

  5-12  2.041833751   5-13  2.046121769
       ( 1.080491889)       ( 1.082761011)

 Bond angles

  1-2-3  127.36769203   1-2-9  115.39855901   2-1-6  110.45444535   2-1-7  110.45417453

  2- 1- 8  112.87941838   2- 3- 4  126.63511536   2- 3-10  117.95416222   3- 2- 9  117.23374896

  3- 4- 5  123.11184583   3- 4-11  118.10071365   4- 3-10  115.41072241   4- 5-12  121.53938936

  4- 5-13  121.26618363   5- 4-11  118.78744051   6- 1- 7  106.90738959   6- 1- 8  107.95992625

  7- 1- 8  107.95916450  12- 5-13  117.19442701

 NUCLEAR CHARGE:                   38
 NUMBER OF PRIMITIVE AOS:         157
 NUMBER OF SYMMETRY AOS:          152
 NUMBER OF CONTRACTIONS:           86   (  86A   )
 NUMBER OF CORE ORBITALS:           5   (   5A   )
 NUMBER OF VALENCE ORBITALS:       28   (  28A   )


 NUCLEAR REPULSION ENERGY  155.81520284


 Eigenvalues of metric

         1 0.136E-02 0.272E-02 0.407E-02 0.655E-02 0.136E-01 0.212E-01 0.247E-01 0.302E-01


 Contracted 2-electron integrals neglected if value below      1.0D-11
 AO integral compression algorithm  1   Integral accuracy      1.0D-11

     24.379 MB (compressed) written to integral file ( 38.3%)


 NUMBER OF SORTED TWO-ELECTRON INTEGRALS:    6999411.     BUFFER LENGTH:  32768
 NUMBER OF SEGMENTS:   1  SEGMENT LENGTH:    6999411      RECORD LENGTH: 524288

 Memory used in sort:       7.56 MW

 SORT1 READ     7919395. AND WROTE     5891770. INTEGRALS IN     17 RECORDS. CPU TIME:     0.09 SEC, REAL TIME:     0.17 SEC
 SORT2 READ     5891770. AND WROTE     6999411. INTEGRALS IN     93 RECORDS. CPU TIME:     0.21 SEC, REAL TIME:     0.25 SEC

 FILE SIZES:   FILE 1:    54.8 MBYTE,  FILE 4:    71.3 MBYTE,   TOTAL:    126.2 MBYTE

 OPERATOR DM      FOR CENTER  0  COORDINATES:    0.000000    0.000000    0.000000


 **********************************************************************************************************************************
 DATASETS  * FILE   NREC   LENGTH (MB)   RECORD NAMES
              1      19       50.72       500      610      700      900      950      970     1000      129      960     1100   
                                          VAR    BASINP    GEOM    SYMINP    ZMAT    AOBASIS   BASIS     P2S    ABASIS      S 
                                         1400     1410     1200     1210     1080     1600     1650     1300     1700   
                                           T        V       H0       H01     AOSYM     SMH    MOLCAS    ERIS     OPER   

 PROGRAMS   *        TOTAL       INT
 CPU TIMES  *         1.40      1.26
 REAL TIME  *         1.90 SEC
 DISK USED  *       126.65 MB      
 **********************************************************************************************************************************

 Density functional group PBE=PBEX+PBEC
 Functional: PBEX(Automatically generated (new) PBEX)                          Gradient terms: 1
 Functional: PBEC(Automatically generated (new) PBEC)                          Gradient terms: 1
 Use grid at  1800.2

 Functional: PBEX                      Factor:  1.0000
 Functional: PBEC                      Factor:  1.0000

 Generated new metagrid on record  1800.2 with target accuracy 1.0D-06 and 50412 points in CPU time    1.0
 Computed new grid on record 1800.1 in CPU time    1.1
   72661 words reserved for DFT integration

 PROGRAM * RKS-SCF (Restricted closed shell Kohn-Sham)     Authors: W. Meyer, H.-J. Werner, P.J. Knowles, 1993

 NUMBER OF ELECTRONS:      19+   19-    SPACE SYMMETRY=1    SPIN SYMMETRY: Singlet 
 CONVERGENCE THRESHOLDS:    1.00E-05 (Density)    1.00E-06 (Energy)
 MAX. NUMBER OF ITERATIONS:       60
 INTERPOLATION TYPE:            DIIS
 INTERPOLATION STEPS:              2 (START)      1 (STEP)
 LEVEL SHIFTS:                  0.00 (CLOSED)  0.00 (OPEN) 



 Use fine grid record 1800.2 for energy threshold  1.0D-06
 Orbital guess generated from atomic densities. Full valence occupancy:   19

 Molecular orbital dump at record        2100.2

 Initial occupancy:  19

 ITERATION    DDIFF          GRAD             ENERGY        2-EL.EN.            DIPOLE MOMENTS         DIIS   ORB.
    1      0.000D+00      0.000D+00      -194.62193303    511.587613   -0.30776   -0.10162   -0.00002    0    start
    2      0.000D+00      0.127D-01      -194.41685928    476.399156   -0.21306   -0.05739    0.00003    1    diag
    3      0.364D-01      0.173D-01      -194.86213479    497.174253    0.02188   -0.03609   -0.00001    2    diag
    4      0.248D-01      0.226D-02      -194.86713437    496.383249   -0.46049   -0.05931    0.00000    3    diag
    5      0.342D-02      0.131D-02      -194.86943358    496.520159   -0.13340   -0.08067   -0.00000    4    diag
    6      0.144D-02      0.350D-03      -194.86954181    496.468203   -0.28193   -0.06338   -0.00000    5    diag
    7      0.588D-03      0.238D-03      -194.86962505    496.482113   -0.22946   -0.06340   -0.00000    6    diag
    8      0.244D-03      0.261D-04      -194.86962596    496.490087   -0.23064   -0.06532   -0.00000    7    diag
    9      0.358D-04      0.747D-05      -194.86962603    496.491126   -0.22927   -0.06543   -0.00000    8    diag
   10      0.851D-05      0.127D-05      -194.86962602    496.491371   -0.23016   -0.06524   -0.00000    0    orth

 Final occupancy:  19

 !RKS STATE 1.1 Energy               -194.869626024972
 Nuclear energy                       155.81520284
 One-electron energy                 -569.17144711
 Two-electron energy                  248.24568573
 Density functional                   -29.75906748     PBEX=-28.53342204 PBEC= -1.22564544
 Virial quotient                       -1.00964073
 !RKS STATE 1.1 Dipole moment          -0.23016026    -0.06523656    -0.00000162
 Dipole moment /Debye                  -0.58497070    -0.16580393    -0.00000411

 Orbital energies:

         1.1          2.1          3.1          4.1          5.1          6.1          7.1          8.1          9.1         10.1
     -9.895183    -9.894229    -9.888931    -9.886276    -9.882686    -0.727246    -0.677494    -0.611804    -0.527434    -0.474298

        11.1         12.1         13.1         14.1         15.1         16.1         17.1         18.1         19.1         20.1
     -0.427424    -0.400663    -0.371073    -0.357737    -0.337084    -0.325902    -0.290851    -0.280779    -0.198995    -0.052568

        21.1
      0.043798

 HOMO     19.1    -0.198995 =      -5.4149eV
 LUMO     20.1    -0.052568 =      -1.4304eV
 LUMO-HOMO         0.146428 =       3.9845eV


 **********************************************************************************************************************************
 DATASETS  * FILE   NREC   LENGTH (MB)   RECORD NAMES
              1      20       52.33       500      610      700      900      950      970     1000      129      960     1100   
                                          VAR    BASINP    GEOM    SYMINP    ZMAT    AOBASIS   BASIS     P2S    ABASIS      S 
                                         1400     1410     1200     1210     1080     1600     1650     1300     1700     1800   
                                           T        V       H0       H01     AOSYM     SMH    MOLCAS    ERIS     OPER     GRID   

              2       5        3.12       700     1000      520     1800     2100   
                                         GEOM     BASIS   MCVARS    GRID      RKS  

 PROGRAMS   *        TOTAL        KS       INT
 CPU TIMES  *         9.28      7.87      1.26
 REAL TIME  *        10.38 SEC
 DISK USED  *       126.65 MB      
 **********************************************************************************************************************************


 PROGRAM * Intrinsic Basis Bonding Analysis (IBBA)          Author: G. Knizia

 Molecular orbitals read from record     2100.2  Type=RKS/CANONICAL (state 1.1)
 Fock matrix read from record            2100.2  Type=RKS/TOTAL (state 1.1)
 Orbital energies read from record       2100.2  Type=RKS/CANONICAL (state 1.1)
 Density matrix read from record         2100.2  Type=RKS/CHARGE (state 1.1)

 Number of core orbitals:           5 (   5 )
 Number of closed-shell orbitals:  14 (  14 )

 Basis set MINAO-AUTO-PP generated.      Number of basis functions:   33 

 Polarized AO type:                A = (O Ot + (1-O)(1-Ot)) P12
 Orthogonalization method:         Symmetric (Loewdin)
 Localization functional:          L = sum[A,i] <i|n_A|i>^4 -> max

 Localization group 1:  19 orbitals, occupancy  2.000
 Iterative localization: IB/PM,    8 iter; Final gradient 0.42E-08

 Bond order analysis:       [THRPRINT= 0.020]

   CEN ATOM   CEN ATOM     WIBERG.BO      RENORM.BO
     1   C  -   2   C       1.054803       1.043622
     1   C  -   8   H       0.959641       0.981115
     1   C  -   7   H       0.944475       0.980306
     1   C  -   6   H       0.944475       0.980306

     2   C  -   3   C       1.813225       1.803323
     2   C  -   1   C       1.054803       1.043622
     2   C  -   9   H       0.941752       0.964075
     2   C  -   5   C       0.150420       0.148245

     3   C  -   2   C       1.813225       1.803323
     3   C  -   4   C       1.135172       1.132199
     3   C  -  10   H       0.937897       0.961337
     3   C  -   7   H       0.024252       0.027873
     3   C  -   6   H       0.024251       0.027872

     4   C  -   5   C       1.867552       1.861148
     4   C  -   3   C       1.135172       1.132199
     4   C  -  11   H       0.936328       0.957242

     5   C  -   4   C       1.867552       1.861148
     5   C  -  12   H       0.957645       0.980492
     5   C  -  13   H       0.954289       0.972415
     5   C  -   2   C       0.150420       0.148245

     6   H  -   1   C       0.944475       0.980306
     6   H  -   3   C       0.024251       0.027872

     7   H  -   1   C       0.944475       0.980306
     7   H  -   3   C       0.024252       0.027873

     8   H  -   1   C       0.959641       0.981115

     9   H  -   2   C       0.941752       0.964075

    10   H  -   3   C       0.937897       0.961337

    11   H  -   4   C       0.936328       0.957242
    11   H  -  13   H       0.020417       0.027101

    12   H  -   5   C       0.957645       0.980492

    13   H  -   5   C       0.954289       0.972415
    13   H  -  11   H       0.020417       0.027101


 Valency analysis:

   CEN ATOM   TOT.VALENCE
     1   C       3.936899
     2   C       3.973358
     3   C       3.971734
     4   C       3.970476
     5   C       3.952206
     6   H       0.979031
     7   H       0.979032
     8   H       0.982183
     9   H       0.982224
    10   H       0.982271
    11   H       0.982750
    12   H       0.980581
    13   H       0.982384

 Total charge composition:

   CEN ATOM         s          p       ELECTRONS ->P.CHARGE
     1   C       3.00526    3.39428      6.39954   -0.39954
     2   C       2.96300    3.16109      6.12408   -0.12408
     3   C       2.95389    3.19653      6.15042   -0.15042
     4   C       2.95414    3.17412      6.12826   -0.12826
     5   C       3.00308    3.28760      6.29068   -0.29068
     6   H       0.85519                 0.85519    0.14481
     7   H       0.85520                 0.85520    0.14480
     8   H       0.86652                 0.86652    0.13348
     9   H       0.86667                 0.86667    0.13333
    10   H       0.86685                 0.86685    0.13315
    11   H       0.86866                 0.86866    0.13134
    12   H       0.86065                 0.86065    0.13935
    13   H       0.86728                 0.86728    0.13272

 Total charge composition, AO contributions:

   CEN ATOM SHL      SPHERICAL COMPONENTS
     1   C  1s       1.99088
     1   C  2s       1.01438
     1   C  2p       1.13792    1.09770    1.15865

     2   C  1s       1.99049
     2   C  2s       0.97251
     2   C  2p       1.08695    1.08211    0.99203

     3   C  1s       1.99013
     3   C  2s       0.96376
     3   C  2p       1.07642    1.09822    1.02189

     4   C  1s       1.99005
     4   C  2s       0.96409
     4   C  2p       1.08225    1.10530    0.98658

     5   C  1s       1.99035
     5   C  2s       1.01273
     5   C  2p       1.10770    1.15575    1.02414

     6   H  1s       0.85519

     7   H  1s       0.85520

     8   H  1s       0.86652

     9   H  1s       0.86667

    10   H  1s       0.86685

    11   H  1s       0.86866

    12   H  1s       0.86065

    13   H  1s       0.86728

 Summary of localized orbital composition:   [THRPRINT= 0.020]

   ORB  GRP  ORB.ENERGY      CENTERS/CHARGES
     1   1    -9.777499      C  2   2.000
     2   1    -9.772672      C  4   2.000
     3   1    -9.772123      C  1   2.000
     4   1    -9.768154      C  3   2.000
     5   1    -9.761200      C  5   2.000
     6   1    -0.669187      C  4   1.002   C  5   0.987
     7   1    -0.666856      C  2   0.994   C  3   0.994
     8   1    -0.565610      C  4   0.994   C  3   0.987
     9   1    -0.540599      C  1   0.998   C  2   0.990
    10   1    -0.465267      C  4   1.124   H 11   0.854   (other: 0.023)
    11   1    -0.463392      C  5   1.131   H 13   0.857
    12   1    -0.463250      C  5   1.138   H 12   0.851
    13   1    -0.461732      C  2   1.127   H  9   0.852   (other: 0.021)
    14   1    -0.458663      C  3   1.126   H 10   0.851   (other: 0.023)
    15   1    -0.453759      C  1   1.129   H  8   0.860
    16   1    -0.452329      C  1   1.130   H  6   0.845   (other: 0.026)
    17   1    -0.452324      C  1   1.130   H  7   0.845   (other: 0.026)
    18   1    -0.247175      C  3   0.980   C  2   0.918   C  4   0.052   C  5   0.033
    19   1    -0.244298      C  5   0.989   C  4   0.934   C  2   0.045   C  3   0.030

 Localized orbitals saved to record      2100.2  (orbital set 2)


 **********************************************************************************************************************************
 DATASETS  * FILE   NREC   LENGTH (MB)   RECORD NAMES
              1      20       52.33       500      610      700      900      950      970     1000      129      960     1100   
                                          VAR    BASINP    GEOM    SYMINP    ZMAT    AOBASIS   BASIS     P2S    ABASIS      S 
                                         1400     1410     1200     1210     1080     1600     1650     1300     1700     1800   
                                           T        V       H0       H01     AOSYM     SMH    MOLCAS    ERIS     OPER     GRID   

              2       5        3.18       700     1000      520     1800     2100   
                                         GEOM     BASIS   MCVARS    GRID      RKS  

 PROGRAMS   *        TOTAL      IBBA        KS       INT
 CPU TIMES  *         9.31      0.04      7.87      1.26
 REAL TIME  *        10.52 SEC
 DISK USED  *       126.65 MB      
 **********************************************************************************************************************************
 Molecular orbitals read from record     2100.2  Type=RKS/LOCAL(IBO)  
 Occupation numbers read from record     2100.2  Type=RKS/LOCAL(IBO)  
 Orbital energies read from record       2100.2  Type=RKS/LOCAL(IBO)  
 Redundancy group numbers read from rec  2100.2  Type=RKS/LOCAL(IBO)  

 IBBA/SV(P) energy=      0.000000000000

        KS-SCF  
   -194.86962602
 **********************************************************************************************************************************
 Molpro calculation terminated
