
 Primary working directories    : /local
 Secondary working directories  : /local
 Wavefunction directory         : /local/
 Main file repository           : /local/

 SHA1      : b4a5b34a9e711420743f49e6833241d17c61fb3c
 NAME      : 2099.9.b4a5b34
 ARCHNAME  : linux/x86_64_openmp
 FC        : /cm/shared/languages/GCC-6.1/bin/gfortran
 BLASLIB   : -lblas
 id        : simonbennie

 Nodes     nprocs
 node34-026    1

 Using customized tuning parameters: mindgm=1; mindgv=20; mindgc=4; mindgr=1; noblas=0; minvec=7
 default implementation of scratch files=df  

 memory,500,m
 geomtyp=xyz
 nosym
 noorient
 geometry={
 C         -2.05564       -0.61227        0.00001
 C         -1.23110        0.64045        0.00005
 C          0.10563        0.73427        0.00003
 C          1.05756       -0.37441       -0.00004
 C          2.38358       -0.19894       -0.00004
 H         -2.70508       -0.64160        0.87713
 H         -2.70513       -0.64151       -0.87709
 H         -1.45133       -1.51608       -0.00006
 H         -1.79367        1.56759        0.00010
 H          0.54576        1.72564        0.00006
 H          0.66526       -1.38324       -0.00011
 H          3.06469       -1.03772       -0.00009
 H          2.81928        0.79229        0.00002
 }
 basis={ default,qzvp }
 {ks,M06-2X,direct;wf,38,1,0}
 {ibba,bonds=1}

 Variables initialized (895), CPU time= 0.01 sec
 Commands  initialized (725), CPU time= 0.01 sec, 591 directives.
 Default parameters read. Elapsed time= 0.15 sec

 Checking input...
 Passed
1


                                         ***  PROGRAM SYSTEM MOLPRO  ***
                                       Copyright, TTI GmbH Stuttgart, 2015
                                    Version 2099.9 linked May 26 2017 16:03:21


 **********************************************************************************************************************************
 LABEL *                                                                                 
  64 bit serial version                                                                  DATE: 19-Jun-17          TIME: 17:56:59  
 **********************************************************************************************************************************

 SHA1:             b4a5b34a9e711420743f49e6833241d17c61fb3c
 **********************************************************************************************************************************
 SETTING GEOMTYP        =    XYZ

 Variable memory set to  500000000 words,  buffer space 

 ZSYMEL=NOSYM

 SETTING BASIS          =    QZVP


 Recomputing integrals since basis changed


 Using spherical harmonics

 Library entry C      S def2-QZVP            selected for orbital group  1
 Library entry C      P def2-QZVP            selected for orbital group  1
 Library entry C      D def2-QZVP            selected for orbital group  1
 Library entry C      F def2-QZVP            selected for orbital group  1
 Library entry C      G def2-QZVP            selected for orbital group  1
 Library entry H      S def2-QZVP            selected for orbital group  2
 Library entry H      P def2-QZVP            selected for orbital group  2
 Library entry H      D def2-QZVP            selected for orbital group  2
 Library entry H      F def2-QZVP            selected for orbital group  2


 PROGRAM * SEWARD (Integral evaluation for generally contracted gaussian basis sets)     Author: Roland Lindh, 1990

 Geometry written to block  1 of record 700


 Point group  C1  



 ATOMIC COORDINATES

 NR  ATOM    CHARGE       X              Y              Z

   1  C       6.00   -3.884596611   -1.157022614    0.000018897
   2  C       6.00   -2.326441832    1.210275096    0.000094486
   3  C       6.00    0.199611771    1.387569201    0.000056692
   4  C       6.00    1.998498760   -0.707532358   -0.000075589
   5  C       6.00    4.504313396   -0.375942115   -0.000075589
   6  H       1.00   -5.111860345   -1.212448282    1.657535476
   7  H       1.00   -5.111954831   -1.212278206   -1.657459887
   8  H       1.00   -2.742616216   -2.864975983   -0.000113384
   9  H       1.00   -3.389545058    2.962315776    0.000188973
  10  H       1.00    1.031336930    3.260986990    0.000113384
  11  H       1.00    1.257159202   -2.613944765   -0.000207870
  12  H       1.00    5.791424757   -1.961006594   -0.000170075
  13  H       1.00    5.327667068    1.497211111    0.000037795

 Bond lengths in Bohr (Angstrom)

 1-2  2.834068590  1-6  2.063155226  1-7  2.063176508  1-8  2.054561741  2-3  2.532267759
     ( 1.499724512)     ( 1.091774728)     ( 1.091785990)     ( 1.087227252)     ( 1.340018390)

  2- 9  2.049349902   3- 4  2.761420824   3-10  2.049746558   4- 5  2.527658814   4-11  2.045481024
       ( 1.084469265)       ( 1.461280970)       ( 1.084679167)       ( 1.337579441)       ( 1.082421944)

  5-12  2.041833751   5-13  2.046121769
       ( 1.080491889)       ( 1.082761011)

 Bond angles

  1-2-3  127.36769203   1-2-9  115.39855901   2-1-6  110.45444535   2-1-7  110.45417453

  2- 1- 8  112.87941838   2- 3- 4  126.63511536   2- 3-10  117.95416222   3- 2- 9  117.23374896

  3- 4- 5  123.11184583   3- 4-11  118.10071365   4- 3-10  115.41072241   4- 5-12  121.53938936

  4- 5-13  121.26618363   5- 4-11  118.78744051   6- 1- 7  106.90738959   6- 1- 8  107.95992625

  7- 1- 8  107.95916450  12- 5-13  117.19442701

 NUCLEAR CHARGE:                   38
 NUMBER OF PRIMITIVE AOS:         764
 NUMBER OF SYMMETRY AOS:          649
 NUMBER OF CONTRACTIONS:          525   ( 525A   )
 NUMBER OF CORE ORBITALS:           5   (   5A   )
 NUMBER OF VALENCE ORBITALS:       28   (  28A   )


 NUCLEAR REPULSION ENERGY  155.81520284


 Eigenvalues of metric

         1 0.315E-04 0.343E-04 0.556E-04 0.613E-04 0.713E-04 0.893E-04 0.949E-04 0.114E-03


 Contracted 2-electron integrals neglected if value below      1.0D-12
 AO integral compression algorithm  1   Integral accuracy      1.0D-12

     20682.113 MB (compressed) written to integral file ( 27.3%)


 NUMBER OF SORTED TWO-ELECTRON INTEGRALS: 9532421850.     BUFFER LENGTH:  32768
 NUMBER OF SEGMENTS: 199  SEGMENT LENGTH:   47999545      RECORD LENGTH: 131072

 Memory used in sort:      48.16 MW

 SORT1 READ  9465313540. AND WROTE  5566501268. INTEGRALS IN  63804 RECORDS. CPU TIME:   101.04 SEC, REAL TIME:  3462.23 SEC
 SORT2 READ  5566501268. AND WROTE  9532421850. INTEGRALS IN  78896 RECORDS. CPU TIME:   185.12 SEC, REAL TIME:  5581.87 SEC

 FILE SIZES:   FILE 1: 20722.4 MBYTE,  FILE 4: 66903.4 MBYTE,   TOTAL:  87625.8 MBYTE

 OPERATOR DM      FOR CENTER  0  COORDINATES:    0.000000    0.000000    0.000000


 **********************************************************************************************************************************
 DATASETS  * FILE   NREC   LENGTH (MB)   RECORD NAMES
              1      19    18588.37       500      610      700      900      950      970     1000      129      960     1100   
                                          VAR    BASINP    GEOM    SYMINP    ZMAT    AOBASIS   BASIS     P2S    ABASIS      S 
                                         1400     1410     1200     1210     1080     1600     1650     1300     1700   
                                           T        V       H0       H01     AOSYM     SMH    MOLCAS    ERIS     OPER   

 PROGRAMS   *        TOTAL       INT
 CPU TIMES  *       677.10    676.96
 REAL TIME  *      9916.14 SEC
 DISK USED  *        87.63 GB      
 **********************************************************************************************************************************

 Density functional group M06-2X=XC-M06-2X
 Functional: XC-M06-2X(via MFM 1.6)                                            Gradient terms: 1
 Use grid at  1800.2


 Exact exchange will be calculated, factor:  0.5400

 Functional: XC-M06-2X                 Factor:  1.0000

 Generated new metagrid on record  1800.2 with target accuracy 1.0D-06 and 54960 points in CPU time    1.0
 Computed new grid on record 1800.1 in CPU time    1.2
  421548 words reserved for DFT integration

 PROGRAM * RKS-SCF (Restricted closed shell Kohn-Sham)     Authors: W. Meyer, H.-J. Werner, P.J. Knowles, 1993

 NUMBER OF ELECTRONS:      19+   19-    SPACE SYMMETRY=1    SPIN SYMMETRY: Singlet 
 CONVERGENCE THRESHOLDS:    1.00E-05 (Density)    1.00E-06 (Energy)
 MAX. NUMBER OF ITERATIONS:       60
 INTERPOLATION TYPE:            DIIS
 INTERPOLATION STEPS:              2 (START)      1 (STEP)
 LEVEL SHIFTS:                  0.00 (CLOSED)  0.00 (OPEN) 



 Use fine grid record 1800.2 for energy threshold  1.0D-06
 Orbital guess generated from atomic densities. Full valence occupancy:   19

 Molecular orbital dump at record        2100.2

 Initial occupancy:  19

 ITERATION    DDIFF          GRAD             ENERGY        2-EL.EN.            DIPOLE MOMENTS         DIIS   ORB.
    1      0.000D+00      0.000D+00      -195.19964922    473.825243   -0.41635   -0.11540   -0.00001    0    start
    2      0.000D+00      0.310D-02      -195.23628569    458.218181   -0.12418   -0.06957    0.00001    1    diag
    3      0.192D-02      0.252D-02      -195.29724863    465.694367   -0.20377   -0.04369   -0.00000    2    diag
    4      0.808D-03      0.254D-03      -195.29753833    465.300210   -0.23138   -0.07581   -0.00000    3    diag
    5      0.121D-03      0.209D-03      -195.29794212    465.367533   -0.20493   -0.06781   -0.00000    4    diag
    6      0.500D-04      0.275D-04      -195.29794999    465.375632   -0.20806   -0.06500   -0.00000    5    diag
    7      0.131D-04      0.590D-05      -195.29795035    465.378882   -0.20804   -0.06668   -0.00000    6    diag
    8      0.317D-05      0.226D-05      -195.29795035    465.378838   -0.20657   -0.06597   -0.00000    0    orth

 Final occupancy:  19

 !RKS STATE 1.1 Energy               -195.297950354689
 Nuclear energy                       155.81520284
 One-electron energy                 -569.31448083
 Two-electron energy                  232.68941883
 SCF exchange energy                  -28.70161418     Factor= 0.5400
 Density functional                   -14.48809119     XC-M06-2X=-14.48809119
 Virial quotient                       -1.00482890
 !RKS STATE 1.1 Dipole moment          -0.20656567    -0.06596972    -0.00000122
 Dipole moment /Debye                  -0.52500318    -0.16766732    -0.00000310

 Orbital energies:

         1.1          2.1          3.1          4.1          5.1          6.1          7.1          8.1          9.1         10.1
    -10.546977   -10.546742   -10.540609   -10.536903   -10.536463    -0.913514    -0.855150    -0.777313    -0.676560    -0.611476

        11.1         12.1         13.1         14.1         15.1         16.1         17.1         18.1         19.1         20.1
     -0.552372    -0.519617    -0.484250    -0.470444    -0.447414    -0.432972    -0.392973    -0.381561    -0.280305     0.004250

        21.1
      0.049592

 HOMO     19.1    -0.280305 =      -7.6275eV
 LUMO     20.1     0.004250 =       0.1157eV
 LUMO-HOMO         0.284555 =       7.7431eV


 **********************************************************************************************************************************
 DATASETS  * FILE   NREC   LENGTH (MB)   RECORD NAMES
              1      20    18590.12       500      610      700      900      950      970     1000      129      960     1100   
                                          VAR    BASINP    GEOM    SYMINP    ZMAT    AOBASIS   BASIS     P2S    ABASIS      S 
                                         1400     1410     1200     1210     1080     1600     1650     1300     1700     1800   
                                           T        V       H0       H01     AOSYM     SMH    MOLCAS    ERIS     OPER     GRID   

              2       5        8.57       700     1000      520     1800     2100   
                                         GEOM     BASIS   MCVARS    GRID      RKS  

 PROGRAMS   *        TOTAL        KS       INT
 CPU TIMES  *      2046.28   1369.18    676.96
 REAL TIME  *     14641.88 SEC
 DISK USED  *        87.63 GB      
 **********************************************************************************************************************************


 PROGRAM * Intrinsic Basis Bonding Analysis (IBBA)          Author: G. Knizia

 Molecular orbitals read from record     2100.2  Type=RKS/CANONICAL (state 1.1)
 Fock matrix read from record            2100.2  Type=RKS/TOTAL (state 1.1)
 Orbital energies read from record       2100.2  Type=RKS/CANONICAL (state 1.1)
 Density matrix read from record         2100.2  Type=RKS/CHARGE (state 1.1)

 Number of core orbitals:           5 (   5 )
 Number of closed-shell orbitals:  14 (  14 )

 Basis set MINAO-AUTO-PP generated.      Number of basis functions:   33 

 Polarized AO type:                A = (O Ot + (1-O)(1-Ot)) P12
 Orthogonalization method:         Symmetric (Loewdin)
 Localization functional:          L = sum[A,i] <i|n_A|i>^4 -> max

 Localization group 1:  19 orbitals, occupancy  2.000
 Iterative localization: IB/PM,    9 iter; Final gradient 0.16E-08

 Bond order analysis:       [THRPRINT= 0.020]

   CEN ATOM   CEN ATOM     WIBERG.BO      RENORM.BO
     1   C  -   2   C       1.045759       1.035140
     1   C  -   8   H       0.960331       0.983725
     1   C  -   7   H       0.947874       0.982828
     1   C  -   6   H       0.947874       0.982829

     2   C  -   3   C       1.855194       1.845892
     2   C  -   1   C       1.045759       1.035140
     2   C  -   9   H       0.942933       0.967341
     2   C  -   5   C       0.118304       0.116981

     3   C  -   2   C       1.855194       1.845892
     3   C  -   4   C       1.102265       1.098160
     3   C  -  10   H       0.939741       0.964655
     3   C  -   7   H       0.021430       0.024830
     3   C  -   6   H       0.021429       0.024830

     4   C  -   5   C       1.902541       1.896465
     4   C  -   3   C       1.102265       1.098160
     4   C  -  11   H       0.938414       0.961072

     5   C  -   4   C       1.902541       1.896465
     5   C  -  12   H       0.956345       0.982548
     5   C  -  13   H       0.954132       0.975170
     5   C  -   2   C       0.118304       0.116981

     6   H  -   1   C       0.947874       0.982829
     6   H  -   3   C       0.021429       0.024830

     7   H  -   1   C       0.947874       0.982828
     7   H  -   3   C       0.021430       0.024830

     8   H  -   1   C       0.960331       0.983725

     9   H  -   2   C       0.942933       0.967341

    10   H  -   3   C       0.939741       0.964655

    11   H  -   4   C       0.938414       0.961072

    12   H  -   5   C       0.956345       0.982548

    13   H  -   5   C       0.954132       0.975170


 Valency analysis:

   CEN ATOM   TOT.VALENCE
     1   C       3.930537
     2   C       3.972522
     3   C       3.971645
     4   C       3.970430
     5   C       3.947229
     6   H       0.976563
     7   H       0.976564
     8   H       0.979870
     9   H       0.979154
    10   H       0.979616
    11   H       0.979902
    12   H       0.976749
    13   H       0.979130

 Total charge composition:

   CEN ATOM         s          p       ELECTRONS ->P.CHARGE
     1   C       3.02106    3.40473      6.42579   -0.42579
     2   C       2.97915    3.15525      6.13440   -0.13440
     3   C       2.96815    3.19349      6.16164   -0.16164
     4   C       2.96973    3.16550      6.13523   -0.13523
     5   C       3.01964    3.29723      6.31687   -0.31687
     6   H       0.84691                 0.84691    0.15309
     7   H       0.84691                 0.84691    0.15309
     8   H       0.85812                 0.85812    0.14188
     9   H       0.85562                 0.85562    0.14438
    10   H       0.85723                 0.85723    0.14277
    11   H       0.85823                 0.85823    0.14177
    12   H       0.84752                 0.84752    0.15248
    13   H       0.85553                 0.85553    0.14447

 Total charge composition, AO contributions:

   CEN ATOM SHL      SPHERICAL COMPONENTS
     1   C  1s       1.99024
     1   C  2s       1.03082
     1   C  2p       1.14053    1.09470    1.16950

     2   C  1s       1.98989
     2   C  2s       0.98926
     2   C  2p       1.08375    1.08503    0.98648

     3   C  1s       1.98952
     3   C  2s       0.97864
     3   C  2p       1.07066    1.09903    1.02380

     4   C  1s       1.98943
     4   C  2s       0.98030
     4   C  2p       1.07647    1.10737    0.98166

     5   C  1s       1.98974
     5   C  2s       1.02989
     5   C  2p       1.10686    1.16399    1.02638

     6   H  1s       0.84691

     7   H  1s       0.84691

     8   H  1s       0.85812

     9   H  1s       0.85562

    10   H  1s       0.85723

    11   H  1s       0.85823

    12   H  1s       0.84752

    13   H  1s       0.85553

 Summary of localized orbital composition:   [THRPRINT= 0.020]

   ORB  GRP  ORB.ENERGY      CENTERS/CHARGES
     1   1   -10.421167      C  2   2.000
     2   1   -10.416826      C  4   2.000
     3   1   -10.414177      C  1   2.000
     4   1   -10.411752      C  3   2.000
     5   1   -10.406453      C  5   2.000
     6   1    -0.828721      C  4   1.003   C  5   0.987
     7   1    -0.825324      C  2   0.995   C  3   0.994
     8   1    -0.709456      C  4   0.996   C  3   0.987
     9   1    -0.676940      C  2   0.995   C  1   0.994
    10   1    -0.598070      C  4   1.135   H 11   0.845   (other: 0.020)
    11   1    -0.596787      C  5   1.143   H 13   0.846
    12   1    -0.596742      C  5   1.151   H 12   0.839
    13   1    -0.593898      C  2   1.139   H  9   0.842
    14   1    -0.590140      C  3   1.136   H 10   0.843   (other: 0.021)
    15   1    -0.582760      C  1   1.138   H  8   0.852
    16   1    -0.579171      C  1   1.141   H  6   0.838   (other: 0.021)
    17   1    -0.579164      C  1   1.141   H  7   0.838   (other: 0.021)
    18   1    -0.339352      C  3   0.992   C  2   0.928   C  4   0.040   C  5   0.025
    19   1    -0.336716      C  5   1.000   C  4   0.941   C  2   0.035   C  3   0.023

 Localized orbitals saved to record      2100.2  (orbital set 2)


 **********************************************************************************************************************************
 DATASETS  * FILE   NREC   LENGTH (MB)   RECORD NAMES
              1      20    18590.12       500      610      700      900      950      970     1000      129      960     1100   
                                          VAR    BASINP    GEOM    SYMINP    ZMAT    AOBASIS   BASIS     P2S    ABASIS      S 
                                         1400     1410     1200     1210     1080     1600     1650     1300     1700     1800   
                                           T        V       H0       H01     AOSYM     SMH    MOLCAS    ERIS     OPER     GRID   

              2       5       10.79       700     1000      520     1800     2100   
                                         GEOM     BASIS   MCVARS    GRID      RKS  

 PROGRAMS   *        TOTAL      IBBA        KS       INT
 CPU TIMES  *      2046.61      0.33   1369.18    676.96
 REAL TIME  *     14642.82 SEC
 DISK USED  *        87.63 GB      
 **********************************************************************************************************************************
 Molecular orbitals read from record     2100.2  Type=RKS/LOCAL(IBO)  
 Occupation numbers read from record     2100.2  Type=RKS/LOCAL(IBO)  
 Orbital energies read from record       2100.2  Type=RKS/LOCAL(IBO)  
 Redundancy group numbers read from rec  2100.2  Type=RKS/LOCAL(IBO)  

 IBBA/QZVP energy=      0.000000000000

        KS-SCF  
   -195.29795035
 **********************************************************************************************************************************
 Molpro calculation terminated
