
 Primary working directories    : /local
 Secondary working directories  : /local
 Wavefunction directory         : /local/
 Main file repository           : /local/

 SHA1      : b4a5b34a9e711420743f49e6833241d17c61fb3c
 NAME      : 2099.9.b4a5b34
 ARCHNAME  : linux/x86_64_openmp
 FC        : /cm/shared/languages/GCC-6.1/bin/gfortran
 BLASLIB   : -lblas
 id        : simonbennie

 Nodes     nprocs
 node34-001    1

 Using customized tuning parameters: mindgm=1; mindgv=20; mindgc=4; mindgr=1; noblas=0; minvec=7
 default implementation of scratch files=df  

 memory,500,m
 geomtyp=xyz
 nosym
 noorient
 geometry={
 C         -2.05564       -0.61227        0.00001
 C         -1.23110        0.64045        0.00005
 C          0.10563        0.73427        0.00003
 C          1.05756       -0.37441       -0.00004
 C          2.38358       -0.19894       -0.00004
 H         -2.70508       -0.64160        0.87713
 H         -2.70513       -0.64151       -0.87709
 H         -1.45133       -1.51608       -0.00006
 H         -1.79367        1.56759        0.00010
 H          0.54576        1.72564        0.00006
 H          0.66526       -1.38324       -0.00011
 H          3.06469       -1.03772       -0.00009
 H          2.81928        0.79229        0.00002
 }
 basis={ default,qzvp }
 {ks,MM05-2X,direct;wf,38,1,0}
 {ibba,bonds=1}

 Variables initialized (895), CPU time= 0.00 sec
 Commands  initialized (725), CPU time= 0.02 sec, 591 directives.
 Default parameters read. Elapsed time= 0.12 sec

 Checking input...
 Passed
1


                                         ***  PROGRAM SYSTEM MOLPRO  ***
                                       Copyright, TTI GmbH Stuttgart, 2015
                                    Version 2099.9 linked May 26 2017 16:03:21


 **********************************************************************************************************************************
 LABEL *                                                                                 
  64 bit serial version                                                                  DATE: 29-Jun-17          TIME: 14:29:38  
 **********************************************************************************************************************************

 SHA1:             b4a5b34a9e711420743f49e6833241d17c61fb3c
 **********************************************************************************************************************************
 SETTING GEOMTYP        =    XYZ

 Variable memory set to  500000000 words,  buffer space 

 ZSYMEL=NOSYM

 SETTING BASIS          =    QZVP


 Recomputing integrals since basis changed


 Using spherical harmonics

 Library entry C      S def2-QZVP            selected for orbital group  1
 Library entry C      P def2-QZVP            selected for orbital group  1
 Library entry C      D def2-QZVP            selected for orbital group  1
 Library entry C      F def2-QZVP            selected for orbital group  1
 Library entry C      G def2-QZVP            selected for orbital group  1
 Library entry H      S def2-QZVP            selected for orbital group  2
 Library entry H      P def2-QZVP            selected for orbital group  2
 Library entry H      D def2-QZVP            selected for orbital group  2
 Library entry H      F def2-QZVP            selected for orbital group  2


 PROGRAM * SEWARD (Integral evaluation for generally contracted gaussian basis sets)     Author: Roland Lindh, 1990

 Geometry written to block  1 of record 700


 Point group  C1  



 ATOMIC COORDINATES

 NR  ATOM    CHARGE       X              Y              Z

   1  C       6.00   -3.884596611   -1.157022614    0.000018897
   2  C       6.00   -2.326441832    1.210275096    0.000094486
   3  C       6.00    0.199611771    1.387569201    0.000056692
   4  C       6.00    1.998498760   -0.707532358   -0.000075589
   5  C       6.00    4.504313396   -0.375942115   -0.000075589
   6  H       1.00   -5.111860345   -1.212448282    1.657535476
   7  H       1.00   -5.111954831   -1.212278206   -1.657459887
   8  H       1.00   -2.742616216   -2.864975983   -0.000113384
   9  H       1.00   -3.389545058    2.962315776    0.000188973
  10  H       1.00    1.031336930    3.260986990    0.000113384
  11  H       1.00    1.257159202   -2.613944765   -0.000207870
  12  H       1.00    5.791424757   -1.961006594   -0.000170075
  13  H       1.00    5.327667068    1.497211111    0.000037795

 Bond lengths in Bohr (Angstrom)

 1-2  2.834068590  1-6  2.063155226  1-7  2.063176508  1-8  2.054561741  2-3  2.532267759
     ( 1.499724512)     ( 1.091774728)     ( 1.091785990)     ( 1.087227252)     ( 1.340018390)

  2- 9  2.049349902   3- 4  2.761420824   3-10  2.049746558   4- 5  2.527658814   4-11  2.045481024
       ( 1.084469265)       ( 1.461280970)       ( 1.084679167)       ( 1.337579441)       ( 1.082421944)

  5-12  2.041833751   5-13  2.046121769
       ( 1.080491889)       ( 1.082761011)

 Bond angles

  1-2-3  127.36769203   1-2-9  115.39855901   2-1-6  110.45444535   2-1-7  110.45417453

  2- 1- 8  112.87941838   2- 3- 4  126.63511536   2- 3-10  117.95416222   3- 2- 9  117.23374896

  3- 4- 5  123.11184583   3- 4-11  118.10071365   4- 3-10  115.41072241   4- 5-12  121.53938936

  4- 5-13  121.26618363   5- 4-11  118.78744051   6- 1- 7  106.90738959   6- 1- 8  107.95992625

  7- 1- 8  107.95916450  12- 5-13  117.19442701

 NUCLEAR CHARGE:                   38
 NUMBER OF PRIMITIVE AOS:         764
 NUMBER OF SYMMETRY AOS:          649
 NUMBER OF CONTRACTIONS:          525   ( 525A   )
 NUMBER OF CORE ORBITALS:           5   (   5A   )
 NUMBER OF VALENCE ORBITALS:       28   (  28A   )


 NUCLEAR REPULSION ENERGY  155.81520284


 Eigenvalues of metric

         1 0.315E-04 0.343E-04 0.556E-04 0.613E-04 0.713E-04 0.893E-04 0.949E-04 0.114E-03


 Contracted 2-electron integrals neglected if value below      1.0D-12
 AO integral compression algorithm  1   Integral accuracy      1.0D-12

     20682.113 MB (compressed) written to integral file ( 27.3%)


 NUMBER OF SORTED TWO-ELECTRON INTEGRALS: 9532421850.     BUFFER LENGTH:  32768
 NUMBER OF SEGMENTS: 199  SEGMENT LENGTH:   47999545      RECORD LENGTH: 131072

 Memory used in sort:      48.16 MW

 SORT1 READ  9465313540. AND WROTE  5566501268. INTEGRALS IN  63804 RECORDS. CPU TIME:   104.28 SEC, REAL TIME:  6520.10 SEC
 SORT2 READ  5566501268. AND WROTE  9532421850. INTEGRALS IN  78896 RECORDS. CPU TIME:   174.14 SEC, REAL TIME:  3488.01 SEC

 FILE SIZES:   FILE 1: 20722.4 MBYTE,  FILE 4: 66903.4 MBYTE,   TOTAL:  87625.8 MBYTE

 OPERATOR DM      FOR CENTER  0  COORDINATES:    0.000000    0.000000    0.000000


 **********************************************************************************************************************************
 DATASETS  * FILE   NREC   LENGTH (MB)   RECORD NAMES
              1      19    18588.37       500      610      700      900      950      970     1000      129      960     1100   
                                          VAR    BASINP    GEOM    SYMINP    ZMAT    AOBASIS   BASIS     P2S    ABASIS      S 
                                         1400     1410     1200     1210     1080     1600     1650     1300     1700   
                                           T        V       H0       H01     AOSYM     SMH    MOLCAS    ERIS     OPER   

 PROGRAMS   *        TOTAL       INT
 CPU TIMES  *       681.78    681.65
 REAL TIME  *     10814.09 SEC
 DISK USED  *        87.63 GB      
 **********************************************************************************************************************************

 Density functional group MM05-2X=M052XX+M052XC
 Functional: M052XX(Automatically generated (new) M052XX)                      Gradient terms: 2
 Functional: M052XC(Automatically generated (new) M052XC)                      Gradient terms: 2
 Use grid at  1800.2


 Exact exchange will be calculated, factor:  0.5600

 Functional: M052XX                    Factor:  0.4400
 Functional: M052XC                    Factor:  1.0000

 Generated new metagrid on record  1800.2 with target accuracy 1.0D-06 and 54960 points in CPU time    1.1
 Computed new grid on record 1800.1 in CPU time    1.3
  821598 words reserved for DFT integration

 PROGRAM * RKS-SCF (Restricted closed shell Kohn-Sham)     Authors: W. Meyer, H.-J. Werner, P.J. Knowles, 1993

 NUMBER OF ELECTRONS:      19+   19-    SPACE SYMMETRY=1    SPIN SYMMETRY: Singlet 
 CONVERGENCE THRESHOLDS:    1.00E-05 (Density)    1.00E-06 (Energy)
 MAX. NUMBER OF ITERATIONS:       60
 INTERPOLATION TYPE:            DIIS
 INTERPOLATION STEPS:              2 (START)      1 (STEP)
 LEVEL SHIFTS:                  0.00 (CLOSED)  0.00 (OPEN) 



 Use fine grid record 1800.2 for energy threshold  1.0D-06
 Orbital guess generated from atomic densities. Full valence occupancy:   19

 Molecular orbital dump at record        2100.2

 Initial occupancy:  19

 ITERATION    DDIFF          GRAD             ENERGY        2-EL.EN.            DIPOLE MOMENTS         DIIS   ORB.
    1      0.000D+00      0.000D+00      -195.26255674    472.844283   -0.44163   -0.11988   -0.00001    0    start
    2      0.000D+00      0.334D-02      -195.30632812    457.459327   -0.12890   -0.06707    0.00001    1    diag
    3      0.229D-02      0.250D-02      -195.36531855    464.918655   -0.21604   -0.04240   -0.00000    2    diag
    4      0.748D-03      0.289D-03      -195.36575550    464.368238   -0.23911   -0.07461   -0.00000    3    diag
    5      0.119D-03      0.220D-03      -195.36619141    464.427756   -0.21367   -0.06400   -0.00000    4    diag
    6      0.522D-04      0.316D-04      -195.36620111    464.430261   -0.21642   -0.06110   -0.00000    5    diag
    7      0.141D-04      0.706D-05      -195.36620157    464.433604   -0.21647   -0.06285   -0.00000    6    diag
    8      0.377D-05      0.258D-05      -195.36620157    464.433112   -0.21489   -0.06218   -0.00000    0    orth

 Final occupancy:  19

 !RKS STATE 1.1 Energy               -195.366201574668
 Nuclear energy                       155.81520284
 One-electron energy                 -569.41296220
 Two-electron energy                  232.21655581
 SCF exchange energy                  -28.70593002     Factor= 0.5600
 Density functional                   -13.98499802     M052XX=-28.75819832 M052XC= -1.33139076
 Virial quotient                       -1.00513278
 !RKS STATE 1.1 Dipole moment          -0.21488937    -0.06217502    -0.00000102
 Dipole moment /Debye                  -0.54615851    -0.15802280    -0.00000259

 Orbital energies:

         1.1          2.1          3.1          4.1          5.1          6.1          7.1          8.1          9.1         10.1
    -10.574797   -10.574117   -10.567892   -10.563222   -10.561903    -0.924513    -0.865407    -0.786740    -0.685472    -0.620037

        11.1         12.1         13.1         14.1         15.1         16.1         17.1         18.1         19.1         20.1
     -0.561697    -0.526929    -0.490487    -0.478515    -0.454424    -0.440347    -0.399213    -0.385586    -0.282350     0.008463

        21.1
      0.069203

 HOMO     19.1    -0.282350 =      -7.6831eV
 LUMO     20.1     0.008463 =       0.2303eV
 LUMO-HOMO         0.290814 =       7.9134eV


 **********************************************************************************************************************************
 DATASETS  * FILE   NREC   LENGTH (MB)   RECORD NAMES
              1      20    18590.12       500      610      700      900      950      970     1000      129      960     1100   
                                          VAR    BASINP    GEOM    SYMINP    ZMAT    AOBASIS   BASIS     P2S    ABASIS      S 
                                         1400     1410     1200     1210     1080     1600     1650     1300     1700     1800   
                                           T        V       H0       H01     AOSYM     SMH    MOLCAS    ERIS     OPER     GRID   

              2       5        8.57       700     1000      520     1800     2100   
                                         GEOM     BASIS   MCVARS    GRID      RKS  

 PROGRAMS   *        TOTAL        KS       INT
 CPU TIMES  *      2209.66   1527.88    681.65
 REAL TIME  *     12690.55 SEC
 DISK USED  *        87.63 GB      
 **********************************************************************************************************************************


 PROGRAM * Intrinsic Basis Bonding Analysis (IBBA)          Author: G. Knizia

 Molecular orbitals read from record     2100.2  Type=RKS/CANONICAL (state 1.1)
 Fock matrix read from record            2100.2  Type=RKS/TOTAL (state 1.1)
 Orbital energies read from record       2100.2  Type=RKS/CANONICAL (state 1.1)
 Density matrix read from record         2100.2  Type=RKS/CHARGE (state 1.1)

 Number of core orbitals:           5 (   5 )
 Number of closed-shell orbitals:  14 (  14 )

 Basis set MINAO-AUTO-PP generated.      Number of basis functions:   33 

 Polarized AO type:                A = (O Ot + (1-O)(1-Ot)) P12
 Orthogonalization method:         Symmetric (Loewdin)
 Localization functional:          L = sum[A,i] <i|n_A|i>^4 -> max

 Localization group 1:  19 orbitals, occupancy  2.000
 Iterative localization: IB/PM,    9 iter; Final gradient 0.16E-08

 Bond order analysis:       [THRPRINT= 0.020]

   CEN ATOM   CEN ATOM     WIBERG.BO      RENORM.BO
     1   C  -   2   C       1.045114       1.034824
     1   C  -   8   H       0.959372       0.984221
     1   C  -   7   H       0.946952       0.983034
     1   C  -   6   H       0.946951       0.983034

     2   C  -   3   C       1.853552       1.844786
     2   C  -   1   C       1.045114       1.034824
     2   C  -   9   H       0.942140       0.968278
     2   C  -   5   C       0.118771       0.117393

     3   C  -   2   C       1.853552       1.844786
     3   C  -   4   C       1.102643       1.098867
     3   C  -  10   H       0.939101       0.965571
     3   C  -   7   H       0.021259       0.024713
     3   C  -   6   H       0.021258       0.024712

     4   C  -   5   C       1.900414       1.894901
     4   C  -   3   C       1.102643       1.098867
     4   C  -  11   H       0.937760       0.961984

     5   C  -   4   C       1.900414       1.894901
     5   C  -  12   H       0.955527       0.983016
     5   C  -  13   H       0.953378       0.975882
     5   C  -   2   C       0.118771       0.117393

     6   H  -   1   C       0.946951       0.983034
     6   H  -   3   C       0.021258       0.024712

     7   H  -   1   C       0.946952       0.983034
     7   H  -   3   C       0.021259       0.024713

     8   H  -   1   C       0.959372       0.984221

     9   H  -   2   C       0.942140       0.968278

    10   H  -   3   C       0.939101       0.965571

    11   H  -   4   C       0.937760       0.961984

    12   H  -   5   C       0.955527       0.983016

    13   H  -   5   C       0.953378       0.975882


 Valency analysis:

   CEN ATOM   TOT.VALENCE
     1   C       3.926923
     2   C       3.970323
     3   C       3.969499
     4   C       3.968172
     5   C       3.944215
     6   H       0.975656
     7   H       0.975657
     8   H       0.978783
     9   H       0.977630
    10   H       0.978265
    11   H       0.978569
    12   H       0.975741
    13   H       0.978003

 Total charge composition:

   CEN ATOM         s          p       ELECTRONS ->P.CHARGE
     1   C       3.01938    3.41534      6.43472   -0.43472
     2   C       2.97726    3.16195      6.13921   -0.13921
     3   C       2.96644    3.20055      6.16699   -0.16699
     4   C       2.96805    3.17219      6.14024   -0.14024
     5   C       3.01775    3.30625      6.32400   -0.32400
     6   H       0.84397                 0.84397    0.15603
     7   H       0.84398                 0.84398    0.15602
     8   H       0.85434                 0.85434    0.14566
     9   H       0.85043                 0.85043    0.14957
    10   H       0.85257                 0.85257    0.14743
    11   H       0.85361                 0.85361    0.14639
    12   H       0.84425                 0.84425    0.15575
    13   H       0.85169                 0.85169    0.14831

 Total charge composition, AO contributions:

   CEN ATOM SHL      SPHERICAL COMPONENTS
     1   C  1s       1.99041
     1   C  2s       1.02896
     1   C  2p       1.14435    1.09757    1.17342

     2   C  1s       1.99005
     2   C  2s       0.98722
     2   C  2p       1.08584    1.08996    0.98615

     3   C  1s       1.98968
     3   C  2s       0.97676
     3   C  2p       1.07361    1.10289    1.02405

     4   C  1s       1.98960
     4   C  2s       0.97845
     4   C  2p       1.07973    1.11157    0.98089

     5   C  1s       1.98990
     5   C  2s       1.02785
     5   C  2p       1.10971    1.16927    1.02727

     6   H  1s       0.84397

     7   H  1s       0.84398

     8   H  1s       0.85434

     9   H  1s       0.85043

    10   H  1s       0.85257

    11   H  1s       0.85361

    12   H  1s       0.84425

    13   H  1s       0.85169

 Summary of localized orbital composition:   [THRPRINT= 0.020]

   ORB  GRP  ORB.ENERGY      CENTERS/CHARGES
     1   1   -10.448700      C  2   2.000
     2   1   -10.443884      C  4   2.000
     3   1   -10.439053      C  1   2.000
     4   1   -10.438708      C  3   2.000
     5   1   -10.433001      C  5   2.000
     6   1    -0.841129      C  4   1.004   C  5   0.986
     7   1    -0.837065      C  3   0.995   C  2   0.994
     8   1    -0.717593      C  4   0.996   C  3   0.987
     9   1    -0.685043      C  2   0.996   C  1   0.994
    10   1    -0.605308      C  4   1.140   H 11   0.840
    11   1    -0.604585      C  5   1.147   H 13   0.842
    12   1    -0.604328      C  5   1.155   H 12   0.835
    13   1    -0.602953      C  2   1.145   H  9   0.837
    14   1    -0.598293      C  3   1.141   H 10   0.838   (other: 0.021)
    15   1    -0.589765      C  1   1.142   H  8   0.849
    16   1    -0.585987      C  1   1.144   H  6   0.835   (other: 0.021)
    17   1    -0.585980      C  1   1.144   H  7   0.835   (other: 0.021)
    18   1    -0.342484      C  3   0.992   C  2   0.927   C  4   0.040   C  5   0.025
    19   1    -0.339789      C  5   1.001   C  4   0.940   C  2   0.035   C  3   0.023

 Localized orbitals saved to record      2100.2  (orbital set 2)


 **********************************************************************************************************************************
 DATASETS  * FILE   NREC   LENGTH (MB)   RECORD NAMES
              1      20    18590.12       500      610      700      900      950      970     1000      129      960     1100   
                                          VAR    BASINP    GEOM    SYMINP    ZMAT    AOBASIS   BASIS     P2S    ABASIS      S 
                                         1400     1410     1200     1210     1080     1600     1650     1300     1700     1800   
                                           T        V       H0       H01     AOSYM     SMH    MOLCAS    ERIS     OPER     GRID   

              2       5       10.79       700     1000      520     1800     2100   
                                         GEOM     BASIS   MCVARS    GRID      RKS  

 PROGRAMS   *        TOTAL      IBBA        KS       INT
 CPU TIMES  *      2210.01      0.35   1527.88    681.65
 REAL TIME  *     12691.36 SEC
 DISK USED  *        87.63 GB      
 **********************************************************************************************************************************
 Molecular orbitals read from record     2100.2  Type=RKS/LOCAL(IBO)  
 Occupation numbers read from record     2100.2  Type=RKS/LOCAL(IBO)  
 Orbital energies read from record       2100.2  Type=RKS/LOCAL(IBO)  
 Redundancy group numbers read from rec  2100.2  Type=RKS/LOCAL(IBO)  

 IBBA/QZVP energy=      0.000000000000

        KS-SCF  
   -195.36620157
 **********************************************************************************************************************************
 Molpro calculation terminated
