
 Primary working directories    : /local
 Secondary working directories  : /local
 Wavefunction directory         : /local/
 Main file repository           : /local/

 SHA1      : b4a5b34a9e711420743f49e6833241d17c61fb3c
 NAME      : 2099.9.b4a5b34
 ARCHNAME  : linux/x86_64_openmp
 FC        : /cm/shared/languages/GCC-6.1/bin/gfortran
 BLASLIB   : -lblas
 id        : simonbennie

 Nodes     nprocs
 node35-015    1

 Using customized tuning parameters: mindgm=1; mindgv=20; mindgc=4; mindgr=1; noblas=0; minvec=7
 default implementation of scratch files=df  

 memory,500,m
 geomtyp=xyz
 nosym
 noorient
 geometry={
 C         -2.05564       -0.61227        0.00001
 C         -1.23110        0.64045        0.00005
 C          0.10563        0.73427        0.00003
 C          1.05756       -0.37441       -0.00004
 C          2.38358       -0.19894       -0.00004
 H         -2.70508       -0.64160        0.87713
 H         -2.70513       -0.64151       -0.87709
 H         -1.45133       -1.51608       -0.00006
 H         -1.79367        1.56759        0.00010
 H          0.54576        1.72564        0.00006
 H          0.66526       -1.38324       -0.00011
 H          3.06469       -1.03772       -0.00009
 H          2.81928        0.79229        0.00002
 }
 basis={ default,qzvp }
 {uks,M08-SO,direct;wf,38,1,0}
 {ibba,bonds=1}

 Variables initialized (895), CPU time= 0.01 sec
 Commands  initialized (725), CPU time= 0.01 sec, 591 directives.
 Default parameters read. Elapsed time= 0.10 sec

 Checking input...
 Passed
1


                                         ***  PROGRAM SYSTEM MOLPRO  ***
                                       Copyright, TTI GmbH Stuttgart, 2015
                                    Version 2099.9 linked May 26 2017 16:03:21


 **********************************************************************************************************************************
 LABEL *                                                                                 
  64 bit serial version                                                                  DATE: 29-Jun-17          TIME: 14:31:46  
 **********************************************************************************************************************************

 SHA1:             b4a5b34a9e711420743f49e6833241d17c61fb3c
 **********************************************************************************************************************************
 SETTING GEOMTYP        =    XYZ

 Variable memory set to  500000000 words,  buffer space 

 ZSYMEL=NOSYM

 SETTING BASIS          =    QZVP


 Recomputing integrals since basis changed


 Using spherical harmonics

 Library entry C      S def2-QZVP            selected for orbital group  1
 Library entry C      P def2-QZVP            selected for orbital group  1
 Library entry C      D def2-QZVP            selected for orbital group  1
 Library entry C      F def2-QZVP            selected for orbital group  1
 Library entry C      G def2-QZVP            selected for orbital group  1
 Library entry H      S def2-QZVP            selected for orbital group  2
 Library entry H      P def2-QZVP            selected for orbital group  2
 Library entry H      D def2-QZVP            selected for orbital group  2
 Library entry H      F def2-QZVP            selected for orbital group  2


 PROGRAM * SEWARD (Integral evaluation for generally contracted gaussian basis sets)     Author: Roland Lindh, 1990

 Geometry written to block  1 of record 700


 Point group  C1  



 ATOMIC COORDINATES

 NR  ATOM    CHARGE       X              Y              Z

   1  C       6.00   -3.884596611   -1.157022614    0.000018897
   2  C       6.00   -2.326441832    1.210275096    0.000094486
   3  C       6.00    0.199611771    1.387569201    0.000056692
   4  C       6.00    1.998498760   -0.707532358   -0.000075589
   5  C       6.00    4.504313396   -0.375942115   -0.000075589
   6  H       1.00   -5.111860345   -1.212448282    1.657535476
   7  H       1.00   -5.111954831   -1.212278206   -1.657459887
   8  H       1.00   -2.742616216   -2.864975983   -0.000113384
   9  H       1.00   -3.389545058    2.962315776    0.000188973
  10  H       1.00    1.031336930    3.260986990    0.000113384
  11  H       1.00    1.257159202   -2.613944765   -0.000207870
  12  H       1.00    5.791424757   -1.961006594   -0.000170075
  13  H       1.00    5.327667068    1.497211111    0.000037795

 Bond lengths in Bohr (Angstrom)

 1-2  2.834068590  1-6  2.063155226  1-7  2.063176508  1-8  2.054561741  2-3  2.532267759
     ( 1.499724512)     ( 1.091774728)     ( 1.091785990)     ( 1.087227252)     ( 1.340018390)

  2- 9  2.049349902   3- 4  2.761420824   3-10  2.049746558   4- 5  2.527658814   4-11  2.045481024
       ( 1.084469265)       ( 1.461280970)       ( 1.084679167)       ( 1.337579441)       ( 1.082421944)

  5-12  2.041833751   5-13  2.046121769
       ( 1.080491889)       ( 1.082761011)

 Bond angles

  1-2-3  127.36769203   1-2-9  115.39855901   2-1-6  110.45444535   2-1-7  110.45417453

  2- 1- 8  112.87941838   2- 3- 4  126.63511536   2- 3-10  117.95416222   3- 2- 9  117.23374896

  3- 4- 5  123.11184583   3- 4-11  118.10071365   4- 3-10  115.41072241   4- 5-12  121.53938936

  4- 5-13  121.26618363   5- 4-11  118.78744051   6- 1- 7  106.90738959   6- 1- 8  107.95992625

  7- 1- 8  107.95916450  12- 5-13  117.19442701

 NUCLEAR CHARGE:                   38
 NUMBER OF PRIMITIVE AOS:         764
 NUMBER OF SYMMETRY AOS:          649
 NUMBER OF CONTRACTIONS:          525   ( 525A   )
 NUMBER OF CORE ORBITALS:           5   (   5A   )
 NUMBER OF VALENCE ORBITALS:       28   (  28A   )


 NUCLEAR REPULSION ENERGY  155.81520284


 Eigenvalues of metric

         1 0.315E-04 0.343E-04 0.556E-04 0.613E-04 0.713E-04 0.893E-04 0.949E-04 0.114E-03


 Contracted 2-electron integrals neglected if value below      1.0D-12
 AO integral compression algorithm  1   Integral accuracy      1.0D-12

     20682.113 MB (compressed) written to integral file ( 27.3%)


 NUMBER OF SORTED TWO-ELECTRON INTEGRALS: 9532421850.     BUFFER LENGTH:  32768
 NUMBER OF SEGMENTS: 199  SEGMENT LENGTH:   47999545      RECORD LENGTH: 131072

 Memory used in sort:      48.16 MW

 SORT1 READ  9465313540. AND WROTE  5566501268. INTEGRALS IN  63804 RECORDS. CPU TIME:   108.98 SEC, REAL TIME:   994.64 SEC
 SORT2 READ  5566501268. AND WROTE  9532421850. INTEGRALS IN  78896 RECORDS. CPU TIME:   206.93 SEC, REAL TIME:  1411.86 SEC

 FILE SIZES:   FILE 1: 20722.4 MBYTE,  FILE 4: 66903.4 MBYTE,   TOTAL:  87625.8 MBYTE

 OPERATOR DM      FOR CENTER  0  COORDINATES:    0.000000    0.000000    0.000000


 **********************************************************************************************************************************
 DATASETS  * FILE   NREC   LENGTH (MB)   RECORD NAMES
              1      19    18588.37       500      610      700      900      950      970     1000      129      960     1100   
                                          VAR    BASINP    GEOM    SYMINP    ZMAT    AOBASIS   BASIS     P2S    ABASIS      S 
                                         1400     1410     1200     1210     1080     1600     1650     1300     1700   
                                           T        V       H0       H01     AOSYM     SMH    MOLCAS    ERIS     OPER   

 PROGRAMS   *        TOTAL       INT
 CPU TIMES  *       722.50    722.34
 REAL TIME  *      2877.76 SEC
 DISK USED  *        87.63 GB      
 **********************************************************************************************************************************

 Density functional group M08-SO=XC-M08-SO
 Functional: XC-M08-SO(via MFM 1.6)                                            Gradient terms: 1
 Use grid at  1800.2


 Exact exchange will be calculated, factor:  0.5679

 Functional: XC-M08-SO                 Factor:  1.0000

 Generated new metagrid on record  1800.2 with target accuracy 1.0D-06 and 54960 points in CPU time    1.1
 Computed new grid on record 1800.1 in CPU time    1.3
  421548 words reserved for DFT integration

 PROGRAM * UKS-SCF (Unrestricted Kohn-Sham)     Authors: W. Meyer, H.-J. Werner, P.J. Knowles, 1993

 NUMBER OF ELECTRONS:      19+   19-    SPACE SYMMETRY=1    SPIN SYMMETRY: Singlet 
 CONVERGENCE THRESHOLDS:    1.00E-05 (Density)    1.00E-06 (Energy)
 MAX. NUMBER OF ITERATIONS:       60
 INTERPOLATION TYPE:            DIIS
 INTERPOLATION STEPS:              2 (START)      1 (STEP)
 LEVEL SHIFTS:                 -0.20 (ALPHA)  -0.20 (BETA) 



 Use fine grid record 1800.2 for energy threshold  1.0D-06
 Orbital guess generated from atomic densities. Full valence occupancy:   19

 Molecular orbital dump at record        2200.2

 Initial alpha occupation  19
 Initial beta  occupation  19

 ITERATION    DDIFF          GRAD             ENERGY        2-EL.EN.            DIPOLE MOMENTS         DIIS
    1      0.000D+00      0.000D+00      -195.15014436    471.996741   -0.41875   -0.11447   -0.00001    0
    2      0.122D-02      0.820D-03      -195.24262928    462.378797   -0.28356   -0.09203   -0.00000    1
    3      0.652D-03      0.237D-03      -195.24865832    463.663348   -0.26686   -0.06833   -0.00000    2
    4      0.361D-03      0.619D-04      -195.24995196    463.486892   -0.24107   -0.06681   -0.00000    3
    5      0.127D-03      0.232D-04      -195.25018776    463.433588   -0.22375   -0.06415   -0.00000    4
    6      0.542D-04      0.833D-05      -195.25022663    463.412760   -0.21340   -0.06563   -0.00000    5
    7      0.187D-04      0.346D-05      -195.25023176    463.415302   -0.20909   -0.06580   -0.00000    6
    8      0.660D-05      0.121D-05      -195.25023250    463.414573   -0.20653   -0.06585   -0.00000    7
    9      0.249D-05      0.513D-06      -195.25023261    463.414657   -0.20598   -0.06601   -0.00000    7

 Final alpha occupancy:  19
 Final beta  occupancy:  19

 !UKS STATE 1.1 Energy               -195.250232613225
 Nuclear energy                       155.81520284
 One-electron energy                 -569.14146230
 Two-electron energy                  231.70732850
 Density functional                   -13.63130165     XC-M08-SO=-13.63130165
 Virial quotient                       -1.00521358
 !UKS STATE 1.1 Dipole moment          -0.20597776    -0.06600606    -0.00000188
 Dipole moment /Debye                  -0.52350896    -0.16775967    -0.00000478

 Orbital energies for positive spin:

         1.1          2.1          3.1          4.1          5.1          6.1          7.1          8.1          9.1         10.1
    -10.510969   -10.510892   -10.504461   -10.500586   -10.500144    -0.913920    -0.855895    -0.778920    -0.679462    -0.616216

        11.1         12.1         13.1         14.1         15.1         16.1         17.1         18.1         19.1         20.1
     -0.559530    -0.526688    -0.490643    -0.478099    -0.454569    -0.440772    -0.400593    -0.386683    -0.285459     0.001366

        21.1
      0.024244

 Orbital energies for negative spin:

         1.1          2.1          3.1          4.1          5.1          6.1          7.1          8.1          9.1         10.1
    -10.510969   -10.510892   -10.504461   -10.500586   -10.500144    -0.913920    -0.855895    -0.778920    -0.679462    -0.616216

        11.1         12.1         13.1         14.1         15.1         16.1         17.1         18.1         19.1         20.1
     -0.559530    -0.526688    -0.490643    -0.478099    -0.454569    -0.440772    -0.400593    -0.386683    -0.285459     0.001366

        21.1
      0.024244

 HOMO     19.1    -0.285459 =      -7.7677eV
 LUMO     20.1     0.001366 =       0.0372eV
 LUMO-HOMO         0.286825 =       7.8049eV

 EXPECTATION VALUE OF S**2:             0.00000000

 Natural orbitals saved to record    2200.2 (Orbital set 3)

 Orbital spaces for UNO-CAS (Min. occupation: 0.020  Max. occupation: 1.980):

 Closed:       19
 Active:        0


 **********************************************************************************************************************************
 DATASETS  * FILE   NREC   LENGTH (MB)   RECORD NAMES
              1      20    18590.12       500      610      700      900      950      970     1000      129      960     1100   
                                          VAR    BASINP    GEOM    SYMINP    ZMAT    AOBASIS   BASIS     P2S    ABASIS      S 
                                         1400     1410     1200     1210     1080     1600     1650     1300     1700     1800   
                                           T        V       H0       H01     AOSYM     SMH    MOLCAS    ERIS     OPER     GRID   

              2       5       14.11       700     1000      520     1800     2200   
                                         GEOM     BASIS   MCVARS    GRID      UKS  

 PROGRAMS   *        TOTAL       UKS       INT
 CPU TIMES  *      3209.57   2487.07    722.34
 REAL TIME  *      6201.92 SEC
 DISK USED  *        87.63 GB      
 **********************************************************************************************************************************


 PROGRAM * Intrinsic Basis Bonding Analysis (IBBA)          Author: G. Knizia

 Molecular orbitals read from record     2200.2  Type=UKS/ALPHA (state 1.1)
 Fock matrix read from record            2200.2  Type=UKS/TOTAL (state 1.1)
 Orbital energies read from record       2200.2  Type=UKS/ALPHA (state 1.1)
 Density matrix read from record         2200.2  Type=UKS/CHARGE (state 1.1)

 Number of core orbitals:           5 (   5 )
 Number of closed-shell orbitals:  14 (  14 )

 Basis set MINAO-AUTO-PP generated.      Number of basis functions:   33 

 Polarized AO type:                A = (O Ot + (1-O)(1-Ot)) P12
 Orthogonalization method:         Symmetric (Loewdin)
 Localization functional:          L = sum[A,i] <i|n_A|i>^4 -> max

 Localization group 1:  19 orbitals, occupancy  2.000
 Iterative localization: IB/PM,    9 iter; Final gradient 0.15E-08

 Bond order analysis:       [THRPRINT= 0.020]

   CEN ATOM   CEN ATOM     WIBERG.BO      RENORM.BO
     1   C  -   2   C       1.044787       1.035207
     1   C  -   8   H       0.960413       0.983770
     1   C  -   7   H       0.948108       0.982840
     1   C  -   6   H       0.948107       0.982840

     2   C  -   3   C       1.854345       1.846726
     2   C  -   1   C       1.044787       1.035207
     2   C  -   9   H       0.943028       0.967470
     2   C  -   5   C       0.117765       0.116428

     3   C  -   2   C       1.854345       1.846726
     3   C  -   4   C       1.101142       1.098517
     3   C  -  10   H       0.939804       0.964929
     3   C  -   7   H       0.021264       0.024614
     3   C  -   6   H       0.021263       0.024613

     4   C  -   5   C       1.901136       1.896686
     4   C  -   3   C       1.101142       1.098517
     4   C  -  11   H       0.938396       0.961346

     5   C  -   4   C       1.901136       1.896686
     5   C  -  12   H       0.956389       0.982811
     5   C  -  13   H       0.954207       0.975673
     5   C  -   2   C       0.117765       0.116428

     6   H  -   1   C       0.948107       0.982840
     6   H  -   3   C       0.021263       0.024613

     7   H  -   1   C       0.948108       0.982840
     7   H  -   3   C       0.021264       0.024614

     8   H  -   1   C       0.960413       0.983770

     9   H  -   2   C       0.943028       0.967470

    10   H  -   3   C       0.939804       0.964929

    11   H  -   4   C       0.938396       0.961346

    12   H  -   5   C       0.956389       0.982811

    13   H  -   5   C       0.954207       0.975673


 Valency analysis:

   CEN ATOM   TOT.VALENCE
     1   C       3.930083
     2   C       3.971145
     3   C       3.969973
     4   C       3.968758
     5   C       3.945907
     6   H       0.976920
     7   H       0.976921
     8   H       0.980399
     9   H       0.979427
    10   H       0.979749
    11   H       0.980140
    12   H       0.976922
    13   H       0.979262

 Total charge composition:

   CEN ATOM         s          p       ELECTRONS ->P.CHARGE
     1   C       3.01343    3.40808      6.42151   -0.42151
     2   C       2.97143    3.16245      6.13388   -0.13388
     3   C       2.96044    3.20073      6.16117   -0.16117
     4   C       2.96175    3.17211      6.13386   -0.13386
     5   C       3.01216    3.30384      6.31600   -0.31600
     6   H       0.84808                 0.84808    0.15192
     7   H       0.84808                 0.84808    0.15192
     8   H       0.86000                 0.86000    0.14000
     9   H       0.85657                 0.85657    0.14343
    10   H       0.85769                 0.85769    0.14231
    11   H       0.85907                 0.85907    0.14093
    12   H       0.84808                 0.84808    0.15192
    13   H       0.85599                 0.85599    0.14401

 Total charge composition, AO contributions:

   CEN ATOM SHL      SPHERICAL COMPONENTS
     1   C  1s       1.99081
     1   C  2s       1.02262
     1   C  2p       1.14147    1.09604    1.17057

     2   C  1s       1.99044
     2   C  2s       0.98100
     2   C  2p       1.08795    1.08809    0.98641

     3   C  1s       1.99008
     3   C  2s       0.97036
     3   C  2p       1.07488    1.10230    1.02354

     4   C  1s       1.99000
     4   C  2s       0.97175
     4   C  2p       1.08072    1.11041    0.98098

     5   C  1s       1.99029
     5   C  2s       1.02187
     5   C  2p       1.11059    1.16647    1.02679

     6   H  1s       0.84808

     7   H  1s       0.84808

     8   H  1s       0.86000

     9   H  1s       0.85657

    10   H  1s       0.85769

    11   H  1s       0.85907

    12   H  1s       0.84808

    13   H  1s       0.85599

 Summary of localized orbital composition:   [THRPRINT= 0.020]

   ORB  GRP  ORB.ENERGY      CENTERS/CHARGES
     1   1   -10.386481      C  2   2.000
     2   1   -10.382494      C  4   2.000
     3   1   -10.379666      C  1   2.000
     4   1   -10.376963      C  3   2.000
     5   1   -10.371622      C  5   2.000
     6   1    -0.833535      C  4   1.003   C  5   0.986
     7   1    -0.829704      C  2   0.995   C  3   0.994
     8   1    -0.714670      C  4   0.995   C  3   0.987
     9   1    -0.682501      C  2   0.996   C  1   0.993
    10   1    -0.602689      C  4   1.135   H 11   0.845   (other: 0.020)
    11   1    -0.601016      C  5   1.143   H 13   0.847
    12   1    -0.600763      C  5   1.151   H 12   0.839
    13   1    -0.597357      C  2   1.139   H  9   0.843
    14   1    -0.594147      C  3   1.136   H 10   0.843   (other: 0.021)
    15   1    -0.587393      C  1   1.136   H  8   0.854
    16   1    -0.583747      C  1   1.141   H  6   0.839   (other: 0.021)
    17   1    -0.583741      C  1   1.141   H  7   0.839   (other: 0.021)
    18   1    -0.344537      C  3   0.992   C  2   0.928   C  4   0.040   C  5   0.025
    19   1    -0.341587      C  5   1.001   C  4   0.941   C  2   0.035   C  3   0.023

 Localized orbitals saved to record      2200.2  (orbital set 4)


 **********************************************************************************************************************************
 DATASETS  * FILE   NREC   LENGTH (MB)   RECORD NAMES
              1      20    18590.12       500      610      700      900      950      970     1000      129      960     1100   
                                          VAR    BASINP    GEOM    SYMINP    ZMAT    AOBASIS   BASIS     P2S    ABASIS      S 
                                         1400     1410     1200     1210     1080     1600     1650     1300     1700     1800   
                                           T        V       H0       H01     AOSYM     SMH    MOLCAS    ERIS     OPER     GRID   

              2       5       16.33       700     1000      520     1800     2200   
                                         GEOM     BASIS   MCVARS    GRID      UKS  

 PROGRAMS   *        TOTAL      IBBA       UKS       INT
 CPU TIMES  *      3209.93      0.36   2487.07    722.34
 REAL TIME  *      6202.76 SEC
 DISK USED  *        87.63 GB      
 **********************************************************************************************************************************
 Molecular orbitals read from record     2200.2  Type=UKS/LOCAL(IBO)  
 Occupation numbers read from record     2200.2  Type=UKS/LOCAL(IBO)  
 Orbital energies read from record       2200.2  Type=UKS/LOCAL(IBO)  
 Redundancy group numbers read from rec  2200.2  Type=UKS/BETA (state 1.1)

 IBBA/QZVP energy=      0.000000000000

        UKS-SCF 
   -195.25023261
 **********************************************************************************************************************************
 Molpro calculation terminated
