
 Primary working directories    : /local/molpro.fXmXBIYUdG
 Secondary working directories  : /local/molpro.fXmXBIYUdG
 Wavefunction directory         : /local/
 Main file repository           : /local/molpro.fXmXBIYUdG/

 id        : simonbennie

 Nodes     nprocs
 node32-046    1

 Using customized tuning parameters: mindgm=1; mindgv=20; mindgc=4; mindgr=1; noblas=0; minvec=7
 default implementation of scratch files=df  

 memory,500,m
 geomtyp=xyz
 nosym
 noorient
 geometry={
 C          0.00000        0.00000        0.00000
 H          0.00000        0.00000        1.07732
 H          0.93298        0.00000       -0.53866
 H         -0.93298        0.00000       -0.53866
 }
 basis={default,sto-3g}
 {uhf,direct;wf,9,1,1}
 
 basis={ default,6-31+G(d,p) }
 {uhf,direct;wf,9,1,1}
 {uks,B3LYP3,direct;maxit,0;wf,9,1,1}
 {ibba,bonds=1}

 Variables initialized (920), CPU time= 0.00 sec
 Commands  initialized (754), CPU time= 0.01 sec, 615 directives.
 Default parameters read. Elapsed time= 0.08 sec

 Checking input...
 Passed
1


                                         ***  PROGRAM SYSTEM MOLPRO  ***
                                       Copyright, TTI GmbH Stuttgart, 2015
                                    Version 2018.0 linked Jul  6 2018 18:07:13


 **********************************************************************************************************************************
 LABEL *                                                                                 
  64 bit serial version                                                                  DATE: 11-Oct-18          TIME: 15:28:10  
 **********************************************************************************************************************************

 SHA1:             b58f8fddb9d75525be9261ebe3faf0e4279c479b
 **********************************************************************************************************************************
 SETTING GEOMTYP        =    XYZ

 Variable memory set to  500000000 words,  buffer space 

 ZSYMEL=NOSYM

 SETTING BASIS          =    STO-3G


 Recomputing integrals since basis changed


 Using spherical harmonics

 Library entry C      S STO-3G               selected for orbital group  1
 Library entry C      P STO-3G               selected for orbital group  1
 Library entry H      S STO-3G               selected for orbital group  2


 PROGRAM * SEWARD (Integral evaluation for generally contracted gaussian basis sets)     Author: Roland Lindh, 1990

 Geometry written to block  1 of record 700


 Point group  C1  



 ATOMIC COORDINATES

 NR  ATOM    CHARGE       X              Y              Z

   1  C       6.00    0.000000000    0.000000000    0.000000000
   2  H       1.00    0.000000000    0.000000000    2.035839749
   3  H       1.00    1.763076680    0.000000000   -1.017919874
   4  H       1.00   -1.763076680    0.000000000   -1.017919874

 Bond lengths in Bohr (Angstrom)

 1-2  2.035839749  1-3  2.035829131  1-4  2.035829131
     ( 1.077320000)     ( 1.077314381)     ( 1.077314381)

 Bond angles

  2-1-3  120.00017253   2-1-4  120.00017253   3-1-4  119.99965494

 NUCLEAR CHARGE:                    9
 NUMBER OF PRIMITIVE AOS:          24
 NUMBER OF SYMMETRY AOS:           24
 NUMBER OF CONTRACTIONS:            8   (   8A   )
 NUMBER OF CORE ORBITALS:           1   (   1A   )
 NUMBER OF VALENCE ORBITALS:        7   (   7A   )


 NUCLEAR REPULSION ENERGY    9.69237359

 EXTRA SYMMETRY OF AOS IN SYMMETRY 1:   1 1 1 2 1 1 1 1

 Eigenvalues of metric

         1 0.253E+00 0.344E+00 0.344E+00 0.964E+00 0.100E+01 0.151E+01 0.151E+01 0.208E+01


 Contracted 2-electron integrals neglected if value below      1.0D-11
 AO integral compression algorithm  1   Integral accuracy      1.0D-11

     0.262 MB (compressed) written to integral file (100.0%)


 NUMBER OF SORTED TWO-ELECTRON INTEGRALS:        666.     BUFFER LENGTH:  32768
 NUMBER OF SEGMENTS:   1  SEGMENT LENGTH:        666      RECORD LENGTH: 524288

 Memory used in sort:       0.56 MW

 SORT1 READ         863. AND WROTE         391. INTEGRALS IN      1 RECORDS. CPU TIME:     0.00 SEC, REAL TIME:     0.01 SEC
 SORT2 READ         391. AND WROTE         666. INTEGRALS IN      1 RECORDS. CPU TIME:     0.00 SEC, REAL TIME:     0.00 SEC

 FILE SIZES:   FILE 1:    30.2 MBYTE,  FILE 4:     4.2 MBYTE,   TOTAL:     34.5 MBYTE

 OPERATOR DM      FOR CENTER  0  COORDINATES:    0.000000    0.000000    0.000000


 **********************************************************************************************************************************
 DATASETS  * FILE   NREC   LENGTH (MB)   RECORD NAMES
              1      19       29.99       500      610      700      900      950      970     1000      129      960     1100   
                                          VAR    BASINP    GEOM    SYMINP    ZMAT    AOBASIS   BASIS     P2S    ABASIS      S 
                                         1400     1410     1200     1210     1080     1600     1650     1300     1700   
                                           T        V       H0       H01     AOSYM     SMH    MOLCAS    ERIS     OPER   

 PROGRAMS   *        TOTAL       INT
 CPU TIMES  *         0.43      0.29
 REAL TIME  *         0.70 SEC
 DISK USED  *        34.79 MB
 **********************************************************************************************************************************


 PROGRAM * UHF-SCF       Authors: W. Meyer, H.-J. Werner


 NUMBER OF ELECTRONS:       5+    4-    SPACE SYMMETRY=1    SPIN SYMMETRY: Doublet 
 CONVERGENCE THRESHOLDS:    1.00E-05 (Density)    1.00E-07 (Energy)
 INTEGRAL THRESHOLDS:       1.00E-11 (Initial)    1.00E-11 (Final)
 MAX. NUMBER OF ITERATIONS:       60
 INTERPOLATION TYPE:            DIIS
 INTERPOLATION STEPS:              2 (START)      1 (STEP)
 LEVEL SHIFTS:                 -0.20 (ALPHA)  -0.20 (BETA) 



 Orbital guess generated from atomic densities. Full valence occupancy:    5

 Molecular orbital dump at record        2200.2

 Initial alpha occupation   5
 Initial beta  occupation   4

 Direct Fock-matrix evaluation.        Author: H.-J. Werner (1996)

 Integral Threshold:                  0.1D-10

 ITERATION   DDIFF            GRAD            ENERGY        2-EL.EN.            DIPOLE MOMENTS         DIIS   CPU(IT)  CPU(TOT)
    1      0.000D+00      0.000D+00       -39.06221037     45.994286   -0.00000   -0.00000    0.00000    0      0.8      1.4
    2      0.297D-01      0.188D-01       -39.07403360     45.401129   -0.00000   -0.00000    0.00000    1      0.4      1.8
    3      0.963D-02      0.682D-02       -39.07595054     45.217446   -0.00000   -0.00000    0.00000    2      0.4      2.2
    4      0.241D-02      0.254D-02       -39.07658291     45.210540   -0.00000    0.00000    0.00000    3      0.4      2.6
    5      0.520D-03      0.103D-02       -39.07670095     45.212098   -0.00000    0.00000    0.00000    4      0.4      3.0
    6      0.491D-03      0.319D-03       -39.07670901     45.210566   -0.00000    0.00000    0.00000    5      0.4      3.4
    7      0.227D-05      0.179D-05       -39.07670901     45.210596   -0.00000    0.00000    0.00000    5      0.4      3.8
    8      0.891D-06      0.600D-06       -39.07670901     45.210596   -0.00000   -0.00000    0.00000    3      0.4      4.2

 Final alpha occupancy:   5
 Final beta  occupancy:   4

 !UHF STATE  1.1 Energy               -39.076709012124
 Nuclear energy                         9.69237359
 One-electron energy                  -71.37438053
 Two-electron energy                   22.60529792
 Virial quotient                       -1.00160429
 !UHF STATE  1.1 Dipole moment         -0.00000000    -0.00000000     0.00000029
 Dipole moment /Debye                  -0.00000000    -0.00000000     0.00000073

 Orbital energies for positive spin:

         1.1          2.1          3.1          4.1          5.1          6.1          7.1
    -11.005423    -0.906756    -0.539318    -0.539317    -0.356888     0.632762     0.770763

 Orbital energies for negative spin:

         1.1          2.1          3.1          4.1          5.1          6.1          7.1
    -10.974136    -0.797184    -0.522380    -0.522380     0.334149     0.696092     0.797455


 HOMO      5.1    -0.356888 =      -9.7114eV
 LUMO     -5.1     0.334149 =       9.0926eV
 LUMO-HOMO         0.691037 =      18.8041eV

 EXPECTATION VALUE OF S**2:             0.76510798

 Occupation number threshold for pseudo-canonical orbitals: 1.9990 (occupied), 0.0010 (virtual)

 Number of pseudo-canonical occupied orbitals per symmetry:    1
 Number of active natural orbitals per symmetry:               7

 Natural orbitals saved to record    2200.2 (Orbital set 3)

 Orbital spaces for UNO-CAS (Min. occupation: 0.020  Max. occupation: 1.980):

 Closed:        4
 Active:        1


 **********************************************************************************************************************************
 DATASETS  * FILE   NREC   LENGTH (MB)   RECORD NAMES
              1      19       29.99       500      610      700      900      950      970     1000      129      960     1100   
                                          VAR    BASINP    GEOM    SYMINP    ZMAT    AOBASIS   BASIS     P2S    ABASIS      S 
                                         1400     1410     1200     1210     1080     1600     1650     1300     1700   
                                           T        V       H0       H01     AOSYM     SMH    MOLCAS    ERIS     OPER   

              2       4        2.80       700     1000      520     2200   
                                         GEOM     BASIS   MCVARS     UHF  

 PROGRAMS   *        TOTAL   UHF-SCF       INT
 CPU TIMES  *         4.65      4.22      0.29
 REAL TIME  *         5.96 SEC
 DISK USED  *        34.79 MB
 **********************************************************************************************************************************
 SETTING BASIS          =    6-31+G(D,P)


 Recomputing integrals since basis changed


 Using spherical harmonics

 Library entry C      S 6-31G                selected for orbital group  1
 Library entry C      S 6-31++G              selected for orbital group  1
 Library entry C      P 6-31G                selected for orbital group  1
 Library entry C      P 6-31++G              selected for orbital group  1
 Library entry C      D 6-31G*               selected for orbital group  1
 Library entry H      S 6-31G                selected for orbital group  2
 Library entry H      P 6-31G**              selected for orbital group  2


 PROGRAM * SEWARD (Integral evaluation for generally contracted gaussian basis sets)     Author: Roland Lindh, 1990

 Geometry written to block  1 of record 700


 Point group  C1  



 ATOMIC COORDINATES

 NR  ATOM    CHARGE       X              Y              Z

   1  C       6.00    0.000000000    0.000000000    0.000000000
   2  H       1.00    0.000000000    0.000000000    2.035839749
   3  H       1.00    1.763076680    0.000000000   -1.017919874
   4  H       1.00   -1.763076680    0.000000000   -1.017919874

 Bond lengths in Bohr (Angstrom)

 1-2  2.035839749  1-3  2.035829131  1-4  2.035829131
     ( 1.077320000)     ( 1.077314381)     ( 1.077314381)

 Bond angles

  2-1-3  120.00017253   2-1-4  120.00017253   3-1-4  119.99965494

 NUCLEAR CHARGE:                    9
 NUMBER OF PRIMITIVE AOS:          53
 NUMBER OF SYMMETRY AOS:           52
 NUMBER OF CONTRACTIONS:           33   (  33A   )
 NUMBER OF CORE ORBITALS:           1   (   1A   )
 NUMBER OF VALENCE ORBITALS:        7   (   7A   )


 NUCLEAR REPULSION ENERGY    9.69237359

 EXTRA SYMMETRY OF AOS IN SYMMETRY 1:   1 1 1 1 1 2 1 1 2 1   1 2 1 1 2 1 1 2 1 1   1 2 1 1 1 1 2 1 1 1   1 2 1

 Eigenvalues of metric

         1 0.264E-01 0.520E-01 0.520E-01 0.115E+00 0.162E+00 0.162E+00 0.205E+00 0.223E+00


 Contracted 2-electron integrals neglected if value below      1.0D-11
 AO integral compression algorithm  1   Integral accuracy      1.0D-11

     0.786 MB (compressed) written to integral file ( 33.1%)


 NUMBER OF SORTED TWO-ELECTRON INTEGRALS:     157641.     BUFFER LENGTH:  32768
 NUMBER OF SEGMENTS:   1  SEGMENT LENGTH:     157641      RECORD LENGTH: 524288

 Memory used in sort:       0.71 MW

 SORT1 READ      203835. AND WROTE       72495. INTEGRALS IN      1 RECORDS. CPU TIME:     0.00 SEC, REAL TIME:     0.01 SEC
 SORT2 READ       72495. AND WROTE      157641. INTEGRALS IN      3 RECORDS. CPU TIME:     0.02 SEC, REAL TIME:     0.02 SEC

 FILE SIZES:   FILE 1:    30.8 MBYTE,  FILE 4:     4.2 MBYTE,   TOTAL:     35.0 MBYTE

 OPERATOR DM      FOR CENTER  0  COORDINATES:    0.000000    0.000000    0.000000


 **********************************************************************************************************************************
 DATASETS  * FILE   NREC   LENGTH (MB)   RECORD NAMES
              1      19       30.45       500      610      700      900      950      970     1001      129      960     1100   
                                          VAR    BASINP    GEOM    SYMINP    ZMAT    AOBASIS   BASIS     P2S    ABASIS      S 
                                         1400     1410     1200     1210     1080     1600     1650     1300     1700   
                                           T        V       H0       H01     AOSYM     SMH    MOLCAS    ERIS     OPER   

              2       5        2.81       700     1000      520     2200     1001   
                                         GEOM     BASIS   MCVARS     UHF     BASIS   

 PROGRAMS   *        TOTAL       INT   UHF-SCF       INT
 CPU TIMES  *         4.88      0.22      4.22      0.29
 REAL TIME  *         6.25 SEC
 DISK USED  *        37.90 MB
 **********************************************************************************************************************************


 PROGRAM * UHF-SCF       Authors: W. Meyer, H.-J. Werner


 NUMBER OF ELECTRONS:       5+    4-    SPACE SYMMETRY=1    SPIN SYMMETRY: Doublet 
 CONVERGENCE THRESHOLDS:    1.00E-05 (Density)    1.00E-07 (Energy)
 INTEGRAL THRESHOLDS:       1.00E-11 (Initial)    1.00E-11 (Final)
 MAX. NUMBER OF ITERATIONS:       60
 INTERPOLATION TYPE:            DIIS
 INTERPOLATION STEPS:              2 (START)      1 (STEP)
 LEVEL SHIFTS:                 -0.20 (ALPHA)  -0.20 (BETA) 



 Molecular orbitals read from record     2200.2  Type=UHF/ALPHA (state 1.1)

 Present basis size:      33
 Previous basis size:      8
 Previous occupation:      5
 Previous closed-shells:   4
 Previous core-orbitals:   1
 Present occupation:       5
 Present closed-shells:    4
 Present core-orbitals:    1
 Wavefunction symmetry:    1   Doublet 

 Orbital overlap <old|new>:  < 1.1| 1.1> = 0.999833   < 2.1| 2.1> = 0.999879   < 3.1| 3.1> = 0.999578   < 4.1| 4.1> = 0.999578
                             < 5.1| 5.1> = 0.998717

 Molecular orbitals read from record     2200.2  Type=UHF/BETA (state 1.1)

 Present basis size:      33
 Previous basis size:      8
 Previous occupation:      5
 Previous closed-shells:   4
 Previous core-orbitals:   1
 Present occupation:       5
 Present closed-shells:    4
 Present core-orbitals:    1
 Wavefunction symmetry:    1   Doublet 

 Orbital overlap <old|new>:  < 1.1| 1.1> = 0.999833   < 2.1| 2.1> = 0.999895   < 3.1| 3.1> = 0.999636   < 4.1| 4.1> = 0.999636
                             < 5.1| 5.1> = 0.998717


 Molecular orbital dump at record        2201.2

 Initial alpha occupation   5
 Initial beta  occupation   4

 Direct Fock-matrix evaluation.        Author: H.-J. Werner (1996)

 Integral Threshold:                  0.1D-10

 ITERATION   DDIFF            GRAD            ENERGY        2-EL.EN.            DIPOLE MOMENTS         DIIS   CPU(IT)  CPU(TOT)
    1      0.000D+00      0.000D+00       -39.50234461     45.481273   -0.00000   -0.00000    0.00000    0      1.1      1.1
    2      0.871D-02      0.111D-01       -39.55099234     44.948504    0.00000   -0.00000    0.00000    1      0.5      1.6
    3      0.456D-02      0.389D-02       -39.56203296     44.773408    0.00000   -0.00000   -0.00000    2      0.6      2.2
    4      0.332D-02      0.174D-02       -39.56581769     44.676475    0.00000   -0.00000   -0.00000    3      0.5      2.7
    5      0.182D-02      0.618D-03       -39.56656247     44.641035    0.00000   -0.00000   -0.00000    4      0.5      3.3
    6      0.453D-03      0.145D-03       -39.56661553     44.634970    0.00000   -0.00000   -0.00000    5      0.5      3.8
    7      0.657D-04      0.486D-04       -39.56661998     44.635095    0.00000   -0.00000   -0.00000    6      0.5      4.4
    8      0.221D-04      0.257D-04       -39.56662133     44.635003    0.00000   -0.00000   -0.00000    6      0.4      4.8
    9      0.883D-05      0.508D-05       -39.56662139     44.635249    0.00000   -0.00000   -0.00000    7      0.4      5.2
   10      0.211D-05      0.101D-05       -39.56662139     44.635228    0.00000   -0.00000   -0.00000    6      0.4      5.6

 Final alpha occupancy:   5
 Final beta  occupancy:   4

 !UHF STATE  1.1 Energy               -39.566621388008
 Nuclear energy                         9.69237359
 One-electron energy                  -71.57660877
 Two-electron energy                   22.31761379
 Virial quotient                       -1.00058580
 !UHF STATE  1.1 Dipole moment          0.00000000    -0.00000000    -0.00000118
 Dipole moment /Debye                   0.00000000    -0.00000000    -0.00000299

 Orbital energies for positive spin:

         1.1          2.1          3.1          4.1          5.1          6.1          7.1
    -11.237941    -0.949714    -0.581812    -0.581812    -0.383184     0.096622     0.118671

 Orbital energies for negative spin:

         1.1          2.1          3.1          4.1          5.1          6.1          7.1
    -11.214388    -0.858509    -0.566994    -0.566994     0.071048     0.104846     0.120262


 HOMO      5.1    -0.383184 =     -10.4270eV
 LUMO     -5.1     0.071048 =       1.9333eV
 LUMO-HOMO         0.454232 =      12.3603eV

 EXPECTATION VALUE OF S**2:             0.76061815

 Occupation number threshold for pseudo-canonical orbitals: 1.9990 (occupied), 0.0010 (virtual)

 Number of pseudo-canonical occupied orbitals per symmetry:    3
 Number of active natural orbitals per symmetry:               3

 Natural orbitals saved to record    2201.2 (Orbital set 3)

 Orbital spaces for UNO-CAS (Min. occupation: 0.020  Max. occupation: 1.980):

 Closed:        4
 Active:        1


 **********************************************************************************************************************************
 DATASETS  * FILE   NREC   LENGTH (MB)   RECORD NAMES
              1      19       30.45       500      610      700      900      950      970     1001      129      960     1100   
                                          VAR    BASINP    GEOM    SYMINP    ZMAT    AOBASIS   BASIS     P2S    ABASIS      S 
                                         1400     1410     1200     1210     1080     1600     1650     1300     1700   
                                           T        V       H0       H01     AOSYM     SMH    MOLCAS    ERIS     OPER   

              2       6        5.35       700     1000      520     2200     1001     2201   
                                         GEOM     BASIS   MCVARS     UHF     BASIS     UHF  

 PROGRAMS   *        TOTAL   UHF-SCF       INT   UHF-SCF       INT
 CPU TIMES  *        10.50      5.63      0.22      4.22      0.29
 REAL TIME  *        12.25 SEC
 DISK USED  *        37.90 MB
 **********************************************************************************************************************************

 Density functional group B3LYP3=B88+DIRAC+LYP+VWN3
 Functional: B88(Automatically generated (new) B88)                            Gradient terms: 1
 Functional: DIRAC(Automatically generated (new) DIRAC)                        Gradient terms: 0
 Functional: LYP(Automatically generated (new) LYP)                            Gradient terms: 1
 Functional: VWN3(Automatically generated (new) VWN3)                          Gradient terms: 0
 Use libxcgrid:  F
 Use grid at  1800.2


 Exact exchange will be calculated, factor:  0.2000

 Functional: B88                       Factor:  0.7200
 Functional: DIRAC                     Factor:  0.0800
 Functional: LYP                       Factor:  0.8100
 Functional: VWN3                      Factor:  0.1900

 Generated new metagrid on record  1800.2 with target accuracy 1.0D-06 and 13658 points in CPU time    0.2
 Computed new grid on record 1800.1 in CPU time    0.3
   30041 words reserved for DFT integration

 PROGRAM * UKS-SCF (Unrestricted Kohn-Sham)     Authors: W. Meyer, H.-J. Werner, P.J. Knowles, 1993

 NUMBER OF ELECTRONS:       5+    4-    SPACE SYMMETRY=1    SPIN SYMMETRY: Doublet 
 CONVERGENCE THRESHOLDS:    1.00E-05 (Density)    1.00E-06 (Energy)
 MAX. NUMBER OF ITERATIONS:        0
 INTERPOLATION TYPE:            DIIS
 INTERPOLATION STEPS:              2 (START)      1 (STEP)
 LEVEL SHIFTS:                 -0.20 (ALPHA)  -0.20 (BETA) 



 Use fine grid record 1800.2 for energy threshold  1.0D-06
 Molecular orbitals read from record     2201.2  Type=UHF/ALPHA (state 1.1)
 Molecular orbitals read from record     2201.2  Type=UHF/BETA (state 1.1)

 Molecular orbital dump at record        2202.2

 Initial alpha occupation   5
 Initial beta  occupation   4

 ITERATION    DDIFF          GRAD             ENERGY        2-EL.EN.            DIPOLE MOMENTS         DIIS
    1      0.000D+00      0.000D+00       -39.84267016     54.592456    0.00000   -0.00000   -0.00000    0

 Final alpha occupancy:   5
 Final beta  occupancy:   4

 !UKS STATE  1.1 Energy               -39.842670160872
 Nuclear energy                         9.69237359
 One-electron energy                  -71.57660877
 Two-electron energy                   27.29622806
 Density functional                    -5.25466304     B88=-6.20867342 DIRAC=-5.54515097 LYP=-0.25637938 VWN3=-0.70073057
 Virial quotient                       -1.00756670
 !UKS STATE  1.1 Dipole moment          0.00000000    -0.00000000    -0.00000118
 Dipole moment /Debye                   0.00000000    -0.00000000    -0.00000299

 Orbital energies for positive spin:

         1.1          2.1          3.1          4.1          5.1          6.1          7.1
    -11.221671    -0.573903    -0.573902    -0.905784    -0.108271     0.671827     0.108313

 Orbital energies for negative spin:

         1.1          2.1          3.1          4.1          5.1          6.1          7.1
    -11.221671    -0.573903    -0.573902    -0.905784    -0.108271     0.671827     0.108313


 HOMO      5.1    -0.108271 =      -2.9462eV
 LUMO     -5.1    -0.108271 =      -2.9462eV
 LUMO-HOMO         0.000000 =       0.0000eV

 EXPECTATION VALUE OF S**2:             0.76061815

 Occupation number threshold for pseudo-canonical orbitals: 1.9990 (occupied), 0.0010 (virtual)

 Number of pseudo-canonical occupied orbitals per symmetry:    3
 Number of active natural orbitals per symmetry:               3

 Natural orbitals saved to record    2202.2 (Orbital set 3)

 Orbital spaces for UNO-CAS (Min. occupation: 0.020  Max. occupation: 1.980):

 Closed:        4
 Active:        1

 No convergence



 **********************************************************************************************************************************
 DATASETS  * FILE   NREC   LENGTH (MB)   RECORD NAMES
              1      20       30.89       500      610      700      900      950      970     1001      129      960     1100   
                                          VAR    BASINP    GEOM    SYMINP    ZMAT    AOBASIS   BASIS     P2S    ABASIS      S 
                                         1400     1410     1200     1210     1080     1600     1650     1300     1700     1800   
                                           T        V       H0       H01     AOSYM     SMH    MOLCAS    ERIS     OPER     GRID   

              2       8        7.89       700     1000      520     2200     1001     2201     1800     2202   
                                         GEOM     BASIS   MCVARS     UHF     BASIS     UHF     GRID      UKS  

 PROGRAMS   *        TOTAL   UKS-SCF   UHF-SCF       INT   UHF-SCF       INT
 CPU TIMES  *        10.86      0.35      5.63      0.22      4.22      0.29
 REAL TIME  *        12.63 SEC
 DISK USED  *        38.86 MB
 **********************************************************************************************************************************


 PROGRAM * Intrinsic Basis Bonding Analysis (IBBA)          Author: G. Knizia

 Molecular orbitals read from record     2202.2  Type=UKS/ALPHA (state 1.1)
 Fock matrix read from record            2202.2  Type=UKS/TOTAL (state 1.1)
 Orbital energies read from record       2202.2  Type=UKS/ALPHA (state 1.1)
 Density matrix read from record         2202.2  Type=UKS/CHARGE (state 1.1)

 Number of core orbitals:           1 (   1 )
 Number of closed-shell orbitals:   3 (   3 )
 Number of active  orbitals:        1 (   1 )

 Basis set MINAO-AUTO-PP generated.      Number of basis functions:   8 

 Polarized AO type:                A = (O Ot + (1-O)(1-Ot)) P12
 Orthogonalization method:         Symmetric (Loewdin)
 Localization functional:          L = sum[A,i] <i|n_A|i>^4 -> max

 Localization group 1:   4 orbitals, occupancy  2.000
 Iterative localization: IB/PM,    5 iter; Final gradient 0.93E-10

 Bond order analysis:       [THRPRINT= 0.020]

   CEN ATOM   CEN ATOM     WIBERG.BO      RENORM.BO
     1   C  -   2   H       0.960821       1.000000
     1   C  -   4   H       0.960821       1.000000
     1   C  -   3   H       0.960821       1.000000

     2   H  -   1   C       0.960821       1.000000

     3   H  -   1   C       0.960821       1.000000

     4   H  -   1   C       0.960821       1.000000


 Valency analysis:

   CEN ATOM   TOT.VALENCE
     1   C       2.882463
     2   H       0.960968
     3   H       0.960968
     4   H       0.960968
 Localization group 2:   1 orbitals, occupancy  1.000
 Iterative localization: IB/PM,    1 iter; Final gradient 0.00E+00

 Bond order analysis:       [THRPRINT= 0.020]

   CEN ATOM   CEN ATOM     WIBERG.BO      RENORM.BO





 Valency analysis:

   CEN ATOM   TOT.VALENCE
     1   C      -0.000000
     2   H       0.000000
     3   H       0.000000
     4   H       0.000000

 Total charge composition:

   CEN ATOM         s          p       ELECTRONS ->P.CHARGE
     1   C       3.18039    3.41230      6.59269   -0.59269
     2   H       0.80244                 0.80244    0.19756
     3   H       0.80244                 0.80244    0.19756
     4   H       0.80244                 0.80244    0.19756

 Total charge composition, AO contributions:

   CEN ATOM SHL      SPHERICAL COMPONENTS
     1   C  1s       1.99119
     1   C  2s       1.18920
     1   C  2p       1.20615    1.00000    1.20615

     2   H  1s       0.80244

     3   H  1s       0.80244

     4   H  1s       0.80244

 Active orbital charges:

   CEN ATOM         s          p       ELECTRONS ->SPIN.DEN
     1   C       0.00000    1.00000      1.00000    1.00000
     2   H       0.00000                 0.00000    0.00000
     3   H       0.00000                 0.00000    0.00000
     4   H       0.00000                 0.00000    0.00000

 Active orbital charges, AO contributions:

   CEN ATOM SHL      SPHERICAL COMPONENTS
     1   C  1s       0.00000
     1   C  2s       0.00000
     1   C  2p       0.00000    1.00000    0.00000

     2   H  1s       0.00000

     3   H  1s       0.00000

     4   H  1s       0.00000

 Summary of localized orbital composition:   [THRPRINT= 0.020]

   ORB  GRP  ORB.ENERGY      CENTERS/CHARGES
     1   1   -10.085412      C  1   2.000
     2   1    -0.548744      C  1   1.198   H  4   0.802
     3   1    -0.548744      C  1   1.198   H  3   0.802
     4   1    -0.548742      C  1   1.198   H  2   0.802
     5   2    -0.154098      C  1   1.000

 Localized orbitals saved to record      2202.2  (orbital set 4)


 **********************************************************************************************************************************
 DATASETS  * FILE   NREC   LENGTH (MB)   RECORD NAMES
              1      20       30.89       500      610      700      900      950      970     1001      129      960     1100   
                                          VAR    BASINP    GEOM    SYMINP    ZMAT    AOBASIS   BASIS     P2S    ABASIS      S 
                                         1400     1410     1200     1210     1080     1600     1650     1300     1700     1800   
                                           T        V       H0       H01     AOSYM     SMH    MOLCAS    ERIS     OPER     GRID   

              2       8        7.90       700     1000      520     2200     1001     2201     1800     2202   
                                         GEOM     BASIS   MCVARS     UHF     BASIS     UHF     GRID      UKS  

 PROGRAMS   *        TOTAL      IBBA   UKS-SCF   UHF-SCF       INT   UHF-SCF       INT
 CPU TIMES  *        10.88      0.02      0.35      5.63      0.22      4.22      0.29
 REAL TIME  *        12.66 SEC
 DISK USED  *        38.86 MB
 **********************************************************************************************************************************

 IBBA/6-31+G(D,P) energy=      0.000000000000

         UKS-SCF         UHF-SCF         UHF-SCF
    -39.84267016    -39.56662139    -39.07670901
 **********************************************************************************************************************************
 Molpro calculation terminated
