
 Primary working directories    : /local
 Secondary working directories  : /local
 Wavefunction directory         : /local/
 Main file repository           : /local/

 SHA1      : b4a5b34a9e711420743f49e6833241d17c61fb3c
 NAME      : 2099.9.b4a5b34
 ARCHNAME  : linux/x86_64_openmp
 FC        : /cm/shared/languages/GCC-6.1/bin/gfortran
 BLASLIB   : -lblas
 id        : simonbennie

 Nodes     nprocs
 node34-019    1

 Using customized tuning parameters: mindgm=1; mindgv=20; mindgc=4; mindgr=1; noblas=0; minvec=7
 default implementation of scratch files=df  

 memory,500,m
 geomtyp=xyz
 nosym
 noorient
 geometry={
 C          0.00000        0.00000        0.00000
 H          0.00000        0.00000        1.07732
 H          0.93298        0.00000       -0.53866
 H         -0.93298        0.00000       -0.53866
 }
 basis={ default,qzvp }
 {hf,direct;wf,9,1,1}
 {df-ks,M06-2X,direct;maxit,0;wf,9,1,1}
 {ibba,bonds=1}

 Variables initialized (895), CPU time= 0.00 sec
 Commands  initialized (725), CPU time= 0.01 sec, 591 directives.
 Default parameters read. Elapsed time= 0.08 sec

 Checking input...
 Passed
1


                                         ***  PROGRAM SYSTEM MOLPRO  ***
                                       Copyright, TTI GmbH Stuttgart, 2015
                                    Version 2099.9 linked May 26 2017 16:03:21


 **********************************************************************************************************************************
 LABEL *                                                                                 
  64 bit serial version                                                                  DATE: 10-Mar-18          TIME: 10:57:37  
 **********************************************************************************************************************************

 SHA1:             b4a5b34a9e711420743f49e6833241d17c61fb3c
 **********************************************************************************************************************************
 SETTING GEOMTYP        =    XYZ

 Variable memory set to  500000000 words,  buffer space 

 ZSYMEL=NOSYM

 SETTING BASIS          =    QZVP


 Recomputing integrals since basis changed


 Using spherical harmonics

 Library entry C      S def2-QZVP            selected for orbital group  1
 Library entry C      P def2-QZVP            selected for orbital group  1
 Library entry C      D def2-QZVP            selected for orbital group  1
 Library entry C      F def2-QZVP            selected for orbital group  1
 Library entry C      G def2-QZVP            selected for orbital group  1
 Library entry H      S def2-QZVP            selected for orbital group  2
 Library entry H      P def2-QZVP            selected for orbital group  2
 Library entry H      D def2-QZVP            selected for orbital group  2
 Library entry H      F def2-QZVP            selected for orbital group  2


 PROGRAM * SEWARD (Integral evaluation for generally contracted gaussian basis sets)     Author: Roland Lindh, 1990

 Geometry written to block  1 of record 700


 Point group  C1  



 ATOMIC COORDINATES

 NR  ATOM    CHARGE       X              Y              Z

   1  C       6.00    0.000000000    0.000000000    0.000000000
   2  H       1.00    0.000000000    0.000000000    2.035839749
   3  H       1.00    1.763076680    0.000000000   -1.017919874
   4  H       1.00   -1.763076680    0.000000000   -1.017919874

 Bond lengths in Bohr (Angstrom)

 1-2  2.035839749  1-3  2.035829131  1-4  2.035829131
     ( 1.077320000)     ( 1.077314381)     ( 1.077314381)

 Bond angles

  2-1-3  120.00017253   2-1-4  120.00017253   3-1-4  119.99965494

 NUCLEAR CHARGE:                    9
 NUMBER OF PRIMITIVE AOS:         206
 NUMBER OF SYMMETRY AOS:          176
 NUMBER OF CONTRACTIONS:          147   ( 147A   )
 NUMBER OF CORE ORBITALS:           1   (   1A   )
 NUMBER OF VALENCE ORBITALS:        7   (   7A   )


 NUCLEAR REPULSION ENERGY    9.69237359

 EXTRA SYMMETRY OF AOS IN SYMMETRY 1:   1 1 1 1 1 1 1 1 2 1   1 2 1 1 2 1 1 2 1 1   2 1 1 2 1 2 1 1 2 1   2 1 1 2 1 2 1 1 2 2
                                        1 1 2 1 1 2 2 1 1 2   1 1 2 1 2 1 2 1 1 1   1 1 2 1 1 2 1 1 2 1   1 2 1 1 2 1 2 1 1 2
                                        1 2 1 1 2 2 1 1 1 1   1 1 2 1 1 2 1 1 2 1   1 2 1 1 2 1 2 1 1 2   1 2 1 1 2 2 1 1 1 1
                                        1 1 2 1 1 2 1 1 2 1   1 2 1 1 2 1 2 1 1 2   1 2 1 1 2 2 1

 Eigenvalues of metric

         1 0.187E-03 0.207E-03 0.207E-03 0.115E-02 0.115E-02 0.190E-02 0.289E-02 0.566E-02


 Contracted 2-electron integrals neglected if value below      1.0D-11
 AO integral compression algorithm  1   Integral accuracy      1.0D-11

     146.538 MB (compressed) written to integral file ( 26.2%)


 NUMBER OF SORTED TWO-ELECTRON INTEGRALS:   59170881.     BUFFER LENGTH:  32768
 NUMBER OF SEGMENTS:   4  SEGMENT LENGTH:   15999503      RECORD LENGTH: 524288

 Memory used in sort:      16.56 MW

 SORT1 READ    69770893. AND WROTE    27026606. INTEGRALS IN     79 RECORDS. CPU TIME:     0.53 SEC, REAL TIME:     0.96 SEC
 SORT2 READ    27026606. AND WROTE    59170881. INTEGRALS IN    559 RECORDS. CPU TIME:     1.43 SEC, REAL TIME:     5.59 SEC

 FILE SIZES:   FILE 1:   177.4 MBYTE,  FILE 4:   331.4 MBYTE,   TOTAL:    508.7 MBYTE

 OPERATOR DM      FOR CENTER  0  COORDINATES:    0.000000    0.000000    0.000000


 **********************************************************************************************************************************
 DATASETS  * FILE   NREC   LENGTH (MB)   RECORD NAMES
              1      19      153.71       500      610      700      900      950      970     1000      129      960     1100   
                                          VAR    BASINP    GEOM    SYMINP    ZMAT    AOBASIS   BASIS     P2S    ABASIS      S 
                                         1400     1410     1200     1210     1080     1600     1650     1300     1700   
                                           T        V       H0       H01     AOSYM     SMH    MOLCAS    ERIS     OPER   

 PROGRAMS   *        TOTAL       INT
 CPU TIMES  *         5.04      4.89
 REAL TIME  *        10.25 SEC
 DISK USED  *       509.10 MB      
 **********************************************************************************************************************************


 PROGRAM * RHF-SCF (OPEN SHELL)       Authors: W. Meyer, H.-J. Werner


 NUMBER OF ELECTRONS:       5+    4-    SPACE SYMMETRY=1    SPIN SYMMETRY: Doublet 
 CONVERGENCE THRESHOLDS:    1.00E-05 (Density)    1.00E-07 (Energy)
 INTEGRAL THRESHOLDS:       1.00E-11 (Initial)    1.00E-11 (Final)
 MAX. NUMBER OF ITERATIONS:       60
 INTERPOLATION TYPE:            DIIS
 INTERPOLATION STEPS:              2 (START)      1 (STEP)
 LEVEL SHIFTS:                 -0.60 (CLOSED) -0.30 (OPEN) 



 Orbital guess generated from atomic densities. Full valence occupancy:    5

 Molecular orbital dump at record        2100.2

 Initial alpha occupancy:   5
 Initial beta  occupancy:   4
 Wave function symmetry:    1

 Direct Fock-matrix evaluation.        Author: H.-J. Werner (1996)

 Integral Threshold:                  0.1D-10

 ITERATION   DDIFF            GRAD            ENERGY        2-EL.EN.            DIPOLE MOMENTS         DIIS   CPU(IT)  CPU(TOT)
    1      0.000D+00      0.000D+00       -39.56899662     44.684767   -0.00000   -0.00000    0.00000    0      3.9      5.2     start
    2      0.000D+00      0.243D-02       -39.57440252     44.629813   -0.00000   -0.00000    0.00000    1      3.4      8.6     diag,B
    3      0.351D-03      0.107D-02       -39.57610566     44.672432   -0.00000   -0.00000   -0.00000    2      3.5     12.1     diag,B
    4      0.272D-03      0.310D-03       -39.57629132     44.683935   -0.00000   -0.00000   -0.00000    3      3.5     15.6     diag,B
    5      0.123D-03      0.886D-04       -39.57630779     44.683649   -0.00000   -0.00000   -0.00000    4      3.4     19.1     diag,B
    6      0.721D-04      0.217D-04       -39.57630891     44.683108   -0.00000   -0.00000   -0.00000    5      3.4     22.4     diag,B
    7      0.358D-04      0.653D-05       -39.57630904     44.683095   -0.00000    0.00000   -0.00000    6      3.5     25.9     fixocc
    8      0.157D-04      0.174D-05       -39.57630905     44.683120   -0.00000    0.00000   -0.00000    7      3.5     29.4     diag,B
    9      0.507D-05      0.611D-06       -39.57630905     44.683131    0.00000    0.00000   -0.00000    0      3.4     32.8     orth

 Final alpha occupancy:   5
 Final beta  occupancy:   4

 !RHF STATE 1.1 Energy                -39.576309051224
 Nuclear energy                         9.69237359
 One-electron energy                  -71.61024836
 Two-electron energy                   22.34156571
 Virial quotient                       -1.00101365
 !RHF STATE 1.1 Dipole moment           0.00000000     0.00000000    -0.00000110
 Dipole moment /Debye                   0.00000000     0.00000000    -0.00000280

 Orbital energies:

         1.1          2.1          3.1          4.1          5.1          6.1          7.1
    -11.224175    -0.901976    -0.575147    -0.575147    -0.374235     0.113247     0.178673

 HOMO      5.1    -0.374235 =     -10.1834eV
 LUMO      6.1     0.113247 =       3.0816eV
 LUMO-HOMO         0.487482 =      13.2651eV


 **********************************************************************************************************************************
 DATASETS  * FILE   NREC   LENGTH (MB)   RECORD NAMES
              1      19      153.71       500      610      700      900      950      970     1000      129      960     1100   
                                          VAR    BASINP    GEOM    SYMINP    ZMAT    AOBASIS   BASIS     P2S    ABASIS      S 
                                         1400     1410     1200     1210     1080     1600     1650     1300     1700   
                                           T        V       H0       H01     AOSYM     SMH    MOLCAS    ERIS     OPER   

              2       4        3.42       700     1000      520     2100   
                                         GEOM     BASIS   MCVARS     RHF  

 PROGRAMS   *        TOTAL        HF       INT
 CPU TIMES  *        37.84     32.80      4.89
 REAL TIME  *        44.01 SEC
 DISK USED  *       509.10 MB      
 **********************************************************************************************************************************

 Density functional group M06-2X=XC-M06-2X
 Functional: XC-M06-2X(via MFM 1.6)                                            Gradient terms: 1
 Use grid at  1800.2


 Exact exchange will be calculated, factor:  0.5400

 Functional: XC-M06-2X                 Factor:  1.0000

 Generated new metagrid on record  1800.2 with target accuracy 1.0D-06 and 14850 points in CPU time    0.3
 Computed new grid on record 1800.1 in CPU time    0.3
  120574 words reserved for DFT integration

 PROGRAM * RKS-SCF (Restricted open shell Kohn-Sham)     Authors: W. Meyer, H.-J. Werner, P.J. Knowles, 1993

 NUMBER OF ELECTRONS:       5+    4-    SPACE SYMMETRY=1    SPIN SYMMETRY: Doublet 
 CONVERGENCE THRESHOLDS:    1.00E-05 (Density)    1.00E-06 (Energy)
 INTEGRAL THRESHOLDS:       1.00E-11 (Initial)    1.00E-11 (Final)
 MAX. NUMBER OF ITERATIONS:        0
 INTERPOLATION TYPE:            DIIS
 INTERPOLATION STEPS:              2 (START)      1 (STEP)
 LEVEL SHIFTS:                 -0.60 (CLOSED) -0.30 (OPEN) 



 Use fine grid record 1800.2 for energy threshold  1.0D-06

 Basis set DEF2-QZVPP/JKFIT generated.   Number of basis functions:   129 

 Molecular orbitals read from record     2100.2  Type=RHF/CANONICAL (state 1.1)
 Coulomb and exchange fitting
 Thresholds for fitting:       THRAO_COUL= 1.0D-14    THRAO_EXCH= 1.0D-12    THRMO= 1.0D-11    THRPROD= 1.0D-11    THRASM= 1.0D-11
                               THR2HLF=    1.0D-11

 Molecular orbital dump at record        2101.2

 ITERATION   DDIFF            GRAD            ENERGY        2-EL.EN.            DIPOLE MOMENTS         DIIS   CPU(IT)  CPU(TOT)  ORB.
    1      0.000D+00      0.000D+00       -39.82314740     50.403317    0.00000    0.00000   -0.00000    0      2.6      2.7     start

 Final alpha occupancy:   5
 Final beta  occupancy:   4

 !RKS STATE 1.1 Energy                -39.823147404579
 Nuclear energy                         9.69237359
 One-electron energy                  -71.61024836
 Two-electron energy                   25.20165833
 Density functional                    -3.10693097     XC-M06-2X=-3.10693097
 Virial quotient                       -1.00725700
 !RKS STATE 1.1 Dipole moment           0.00000000     0.00000000    -0.00000110
 Dipole moment /Debye                   0.00000000     0.00000000    -0.00000280

 Orbital energies:

         1.1          2.1          3.1          4.1          5.1          6.1          7.1
    -11.224175    -0.901976    -0.575147    -0.575147    -0.374235     0.113247     0.178673

 HOMO      5.1    -0.374235 =     -10.1834eV
 LUMO      6.1     0.113247 =       3.0816eV
 LUMO-HOMO         0.487482 =      13.2651eV


 **********************************************************************************************************************************
 DATASETS  * FILE   NREC   LENGTH (MB)   RECORD NAMES
              1      20      154.18       500      610      700      900      950      970     1000      129      960     1100   
                                          VAR    BASINP    GEOM    SYMINP    ZMAT    AOBASIS   BASIS     P2S    ABASIS      S 
                                         1400     1410     1200     1210     1080     1600     1650     1300     1700     1800   
                                           T        V       H0       H01     AOSYM     SMH    MOLCAS    ERIS     OPER     GRID   

              2       6        6.87       700     1000      520     2100     1800     2101   
                                         GEOM     BASIS   MCVARS     RHF     GRID      RKS  

 PROGRAMS   *        TOTAL        KS        HF       INT
 CPU TIMES  *        40.79      2.95     32.80      4.89
 REAL TIME  *        46.99 SEC
 DISK USED  *       509.10 MB      
 **********************************************************************************************************************************


 PROGRAM * Intrinsic Basis Bonding Analysis (IBBA)          Author: G. Knizia

 Molecular orbitals read from record     2101.2  Type=RKS/CANONICAL (state 1.1)
 Fock matrix read from record            2101.2  Type=RKS/TOTAL (state 1.1)
 Orbital energies read from record       2101.2  Type=RKS/CANONICAL (state 1.1)
 Density matrix read from record         2101.2  Type=RKS/CHARGE (state 1.1)

 Number of core orbitals:           1 (   1 )
 Number of closed-shell orbitals:   3 (   3 )
 Number of active  orbitals:        1 (   1 )

 Basis set MINAO-AUTO-PP generated.      Number of basis functions:   8 

 Polarized AO type:                A = (O Ot + (1-O)(1-Ot)) P12
 Orthogonalization method:         Symmetric (Loewdin)
 Localization functional:          L = sum[A,i] <i|n_A|i>^4 -> max

 Localization group 1:   4 orbitals, occupancy  2.000
 Iterative localization: IB/PM,    5 iter; Final gradient 0.18E-09

 Bond order analysis:       [THRPRINT= 0.020]

   CEN ATOM   CEN ATOM     WIBERG.BO      RENORM.BO
     1   C  -   2   H       0.977826       1.000000
     1   C  -   3   H       0.977826       1.000000
     1   C  -   4   H       0.977826       1.000000

     2   H  -   1   C       0.977826       1.000000

     3   H  -   1   C       0.977826       1.000000

     4   H  -   1   C       0.977826       1.000000


 Valency analysis:

   CEN ATOM   TOT.VALENCE
     1   C       2.933477
     2   H       0.978530
     3   H       0.978530
     4   H       0.978530
 Localization group 2:   1 orbitals, occupancy  1.000
 Iterative localization: IB/PM,    1 iter; Final gradient 0.00E+00

 Bond order analysis:       [THRPRINT= 0.020]

   CEN ATOM   CEN ATOM     WIBERG.BO      RENORM.BO





 Valency analysis:

   CEN ATOM   TOT.VALENCE
     1   C      -0.000000
     2   H       0.000000
     3   H       0.000000
     4   H       0.000000

 Total charge composition:

   CEN ATOM         s          p       ELECTRONS ->P.CHARGE
     1   C       3.10900    3.33058      6.43958   -0.43958
     2   H       0.85347                 0.85347    0.14653
     3   H       0.85347                 0.85347    0.14653
     4   H       0.85347                 0.85347    0.14653

 Total charge composition, AO contributions:

   CEN ATOM SHL      SPHERICAL COMPONENTS
     1   C  1s       1.99133
     1   C  2s       1.11767
     1   C  2p       1.16529    1.00000    1.16529

     2   H  1s       0.85347

     3   H  1s       0.85347

     4   H  1s       0.85347

 Active orbital charges:

   CEN ATOM         s          p       ELECTRONS ->SPIN.DEN
     1   C       0.00000    1.00000      1.00000    1.00000
     2   H       0.00000                 0.00000    0.00000
     3   H       0.00000                 0.00000    0.00000
     4   H       0.00000                 0.00000    0.00000

 Active orbital charges, AO contributions:

   CEN ATOM SHL      SPHERICAL COMPONENTS
     1   C  1s       0.00000
     1   C  2s       0.00000
     1   C  2p       0.00000    1.00000    0.00000

     2   H  1s       0.00000

     3   H  1s       0.00000

     4   H  1s       0.00000

 Summary of localized orbital composition:   [THRPRINT= 0.020]

   ORB  GRP  ORB.ENERGY      CENTERS/CHARGES
     1   1   -10.446404      C  1   2.000
     2   1    -0.615385      C  1   1.147   H  2   0.853
     3   1    -0.615214      C  1   1.147   H  4   0.853
     4   1    -0.615214      C  1   1.147   H  3   0.853
     5   2    -0.148405      C  1   1.000

 Localized orbitals saved to record      2101.2  (orbital set 2)


 **********************************************************************************************************************************
 DATASETS  * FILE   NREC   LENGTH (MB)   RECORD NAMES
              1      20      154.18       500      610      700      900      950      970     1000      129      960     1100   
                                          VAR    BASINP    GEOM    SYMINP    ZMAT    AOBASIS   BASIS     P2S    ABASIS      S 
                                         1400     1410     1200     1210     1080     1600     1650     1300     1700     1800   
                                           T        V       H0       H01     AOSYM     SMH    MOLCAS    ERIS     OPER     GRID   

              2       6        7.05       700     1000      520     2100     1800     2101   
                                         GEOM     BASIS   MCVARS     RHF     GRID      RKS  

 PROGRAMS   *        TOTAL      IBBA        KS        HF       INT
 CPU TIMES  *        40.82      0.03      2.95     32.80      4.89
 REAL TIME  *        47.02 SEC
 DISK USED  *       509.10 MB      
 **********************************************************************************************************************************

 IBBA/QZVP energy=      0.000000000000

        DF-KS           HF-SCF  
    -39.82314740    -39.57630905
 **********************************************************************************************************************************
 Molpro calculation terminated
