
 Primary working directories    : /local
 Secondary working directories  : /local
 Wavefunction directory         : /local/
 Main file repository           : /local/

 SHA1      : b4a5b34a9e711420743f49e6833241d17c61fb3c
 NAME      : 2099.9.b4a5b34
 ARCHNAME  : linux/x86_64_openmp
 FC        : /cm/shared/languages/GCC-6.1/bin/gfortran
 BLASLIB   : -lblas
 id        : simonbennie

 Nodes     nprocs
 node32-012    1

 Using customized tuning parameters: mindgm=1; mindgv=20; mindgc=4; mindgr=1; noblas=0; minvec=7
 default implementation of scratch files=df  

 memory,500,m
 geomtyp=xyz
 nosym
 noorient
 geometry={
 C          0.00000        0.00000        0.00000
 H          0.00000        0.00000        1.08744
 H          1.02525        0.00000       -0.36248
 H         -0.51263        0.88789       -0.36248
 H         -0.51263       -0.88789       -0.36248
 }
 basis={ default,avtz }
 {ks,M11-L,direct;wf,10,1,0}
 {ibba,bonds=1}

 Variables initialized (895), CPU time= 0.00 sec
 Commands  initialized (725), CPU time= 0.01 sec, 591 directives.
 Default parameters read. Elapsed time= 0.12 sec

 Checking input...
 Passed
1


                                         ***  PROGRAM SYSTEM MOLPRO  ***
                                       Copyright, TTI GmbH Stuttgart, 2015
                                    Version 2099.9 linked May 26 2017 16:03:21


 **********************************************************************************************************************************
 LABEL *                                                                                 
  64 bit serial version                                                                  DATE: 19-Jun-17          TIME: 22:24:31  
 **********************************************************************************************************************************

 SHA1:             b4a5b34a9e711420743f49e6833241d17c61fb3c
 **********************************************************************************************************************************
 SETTING GEOMTYP        =    XYZ

 Variable memory set to  500000000 words,  buffer space 

 ZSYMEL=NOSYM

 SETTING BASIS          =    AVTZ


 Recomputing integrals since basis changed


 Using spherical harmonics

 Library entry C      S aug-cc-pVTZ          selected for orbital group  1
 Library entry C      P aug-cc-pVTZ          selected for orbital group  1
 Library entry C      D aug-cc-pVTZ          selected for orbital group  1
 Library entry C      F aug-cc-pVTZ          selected for orbital group  1
 Library entry H      S aug-cc-pVTZ          selected for orbital group  2
 Library entry H      P aug-cc-pVTZ          selected for orbital group  2
 Library entry H      D aug-cc-pVTZ          selected for orbital group  2


 PROGRAM * SEWARD (Integral evaluation for generally contracted gaussian basis sets)     Author: Roland Lindh, 1990

 Geometry written to block  1 of record 700


 Point group  C1  



 ATOMIC COORDINATES

 NR  ATOM    CHARGE       X              Y              Z

   1  C       6.00    0.000000000    0.000000000    0.000000000
   2  H       1.00    0.000000000    0.000000000    2.054963777
   3  H       1.00    1.937441709    0.000000000   -0.684987926
   4  H       1.00   -0.968730303    1.677868929   -0.684987926
   5  H       1.00   -0.968730303   -1.677868929   -0.684987926

 Bond lengths in Bohr (Angstrom)

 1-2  2.054963777  1-3  2.054966870  1-4  2.054967397  1-5  2.054967397
     ( 1.087440000)     ( 1.087441637)     ( 1.087441915)     ( 1.087441915)

 Bond angles

  2-1-3  109.47119015   2-1-4  109.47118495   2-1-5  109.47118495   3-1-4  109.47150937

  3-1-5  109.47150937   4-1-5  109.47074501

 NUCLEAR CHARGE:                   10
 NUMBER OF PRIMITIVE AOS:         175
 NUMBER OF SYMMETRY AOS:          158
 NUMBER OF CONTRACTIONS:          138   ( 138A   )
 NUMBER OF CORE ORBITALS:           1   (   1A   )
 NUMBER OF VALENCE ORBITALS:        8   (   8A   )


 NUCLEAR REPULSION ENERGY   13.46700129


 Eigenvalues of metric

         1 0.811E-04 0.118E-03 0.118E-03 0.118E-03 0.889E-03 0.889E-03 0.889E-03 0.997E-03


 Contracted 2-electron integrals neglected if value below      1.0D-11
 AO integral compression algorithm  1   Integral accuracy      1.0D-11

     207.880 MB (compressed) written to integral file ( 46.6%)


 NUMBER OF SORTED TWO-ELECTRON INTEGRALS:   45998436.     BUFFER LENGTH:  32768
 NUMBER OF SEGMENTS:   3  SEGMENT LENGTH:   15998004      RECORD LENGTH: 524288

 Memory used in sort:      16.56 MW

 SORT1 READ    55731597. AND WROTE    38946454. INTEGRALS IN    112 RECORDS. CPU TIME:     0.47 SEC, REAL TIME:     1.62 SEC
 SORT2 READ    38946454. AND WROTE    45998436. INTEGRALS IN    793 RECORDS. CPU TIME:     1.10 SEC, REAL TIME:     1.69 SEC

 FILE SIZES:   FILE 1:   238.6 MBYTE,  FILE 4:   469.8 MBYTE,   TOTAL:    708.4 MBYTE

 OPERATOR DM      FOR CENTER  0  COORDINATES:    0.000000    0.000000    0.000000


 **********************************************************************************************************************************
 DATASETS  * FILE   NREC   LENGTH (MB)   RECORD NAMES
              1      19      208.19       500      610      700      900      950      970     1000      129      960     1100   
                                          VAR    BASINP    GEOM    SYMINP    ZMAT    AOBASIS   BASIS     P2S    ABASIS      S 
                                         1400     1410     1200     1210     1080     1600     1650     1300     1700   
                                           T        V       H0       H01     AOSYM     SMH    MOLCAS    ERIS     OPER   

 PROGRAMS   *        TOTAL       INT
 CPU TIMES  *         3.50      3.37
 REAL TIME  *         8.34 SEC
 DISK USED  *       708.78 MB      
 **********************************************************************************************************************************

 Density functional group M11-L=XC-M11-L
 Functional: XC-M11-L(via MFM 1.6)                                             Gradient terms: 1
 Use grid at  1800.2

 Functional: XC-M11-L                  Factor:  1.0000

 Generated new metagrid on record  1800.2 with target accuracy 1.0D-06 and 15052 points in CPU time    0.3
 Computed new grid on record 1800.1 in CPU time    0.3
  113568 words reserved for DFT integration

 PROGRAM * RKS-SCF (Restricted closed shell Kohn-Sham)     Authors: W. Meyer, H.-J. Werner, P.J. Knowles, 1993

 NUMBER OF ELECTRONS:       5+    5-    SPACE SYMMETRY=1    SPIN SYMMETRY: Singlet 
 CONVERGENCE THRESHOLDS:    1.00E-05 (Density)    1.00E-06 (Energy)
 MAX. NUMBER OF ITERATIONS:       60
 INTERPOLATION TYPE:            DIIS
 INTERPOLATION STEPS:              2 (START)      1 (STEP)
 LEVEL SHIFTS:                  0.00 (CLOSED)  0.00 (OPEN) 



 Use fine grid record 1800.2 for energy threshold  1.0D-06
 Orbital guess generated from atomic densities. Full valence occupancy:    9

 Molecular orbital dump at record        2100.2

 Initial occupancy:   5

 ITERATION    DDIFF          GRAD             ENERGY        2-EL.EN.            DIPOLE MOMENTS         DIIS   ORB.
    1      0.000D+00      0.000D+00       -40.41380419     69.746028   -0.00002   -0.00000    0.00002    0    start
    2      0.000D+00      0.129D-01       -40.34116007     60.260349    0.00775   -0.00000    0.00361    1    diag
    3      0.254D-01      0.156D-01       -40.52412708     65.772582    0.00080   -0.00000    0.00063    2    diag
    4      0.138D-01      0.121D-02       -40.52506423     65.602255    0.00170   -0.00000    0.00070    3    diag
    5      0.102D-01      0.312D-03       -40.52510755     65.552255    0.00123   -0.00000    0.00060    4    diag
    6      0.931D-03      0.988D-04       -40.52511313     65.565278    0.00180   -0.00000    0.00080    5    diag
    7      0.920D-03      0.111D-04       -40.52511325     65.564955    0.00151   -0.00000    0.00068    6    diag
    8      0.777D-04      0.303D-05       -40.52511326     65.565460    0.00161   -0.00000    0.00072    7    diag
    9      0.279D-04      0.428D-06       -40.52511326     65.565502    0.00157   -0.00000    0.00070    8    diag
   10      0.695D-05      0.141D-06       -40.52511326     65.565518    0.00160   -0.00000    0.00071    0    orth

 Final occupancy:   5

 !RKS STATE 1.1 Energy                -40.525113258861
 Nuclear energy                        13.46700129
 One-electron energy                  -79.85303641
 Two-electron energy                   32.78275910
 Density functional                    -6.92183724     XC-M11-L=-6.92183724
 Virial quotient                       -1.00517262
 !RKS STATE 1.1 Dipole moment           0.00159690    -0.00000000     0.00071467
 Dipole moment /Debye                   0.00405866    -0.00000000     0.00181639

 Orbital energies:

         1.1          2.1          3.1          4.1          5.1          6.1          7.1
    -10.335587    -0.677220    -0.362947    -0.362769    -0.362527    -0.067523    -0.035368

 HOMO      5.1    -0.362527 =      -9.8649eV
 LUMO      6.1    -0.067523 =      -1.8374eV
 LUMO-HOMO         0.295003 =       8.0275eV


 **********************************************************************************************************************************
 DATASETS  * FILE   NREC   LENGTH (MB)   RECORD NAMES
              1      20      208.67       500      610      700      900      950      970     1000      129      960     1100   
                                          VAR    BASINP    GEOM    SYMINP    ZMAT    AOBASIS   BASIS     P2S    ABASIS      S 
                                         1400     1410     1200     1210     1080     1600     1650     1300     1700     1800   
                                           T        V       H0       H01     AOSYM     SMH    MOLCAS    ERIS     OPER     GRID   

              2       5        3.22       700     1000      520     1800     2100   
                                         GEOM     BASIS   MCVARS    GRID      RKS  

 PROGRAMS   *        TOTAL        KS       INT
 CPU TIMES  *        19.78     16.28      3.37
 REAL TIME  *        26.67 SEC
 DISK USED  *       708.78 MB      
 **********************************************************************************************************************************


 PROGRAM * Intrinsic Basis Bonding Analysis (IBBA)          Author: G. Knizia

 Molecular orbitals read from record     2100.2  Type=RKS/CANONICAL (state 1.1)
 Fock matrix read from record            2100.2  Type=RKS/TOTAL (state 1.1)
 Orbital energies read from record       2100.2  Type=RKS/CANONICAL (state 1.1)
 Density matrix read from record         2100.2  Type=RKS/CHARGE (state 1.1)

 Number of core orbitals:           1 (   1 )
 Number of closed-shell orbitals:   4 (   4 )

 Basis set MINAO-AUTO-PP generated.      Number of basis functions:   9 

 Polarized AO type:                A = (O Ot + (1-O)(1-Ot)) P12
 Orthogonalization method:         Symmetric (Loewdin)
 Localization functional:          L = sum[A,i] <i|n_A|i>^4 -> max

 Localization group 1:   5 orbitals, occupancy  2.000
 Iterative localization: IB/PM,    5 iter; Final gradient 0.60E-10

 Bond order analysis:       [THRPRINT= 0.020]

   CEN ATOM   CEN ATOM     WIBERG.BO      RENORM.BO
     1   C  -   4   H       0.975321       1.000000
     1   C  -   5   H       0.975321       1.000000
     1   C  -   2   H       0.975245       1.000000
     1   C  -   3   H       0.975175       1.000000

     2   H  -   1   C       0.975245       1.000000

     3   H  -   1   C       0.975175       1.000000

     4   H  -   1   C       0.975321       1.000000

     5   H  -   1   C       0.975321       1.000000


 Valency analysis:

   CEN ATOM   TOT.VALENCE
     1   C       3.901061
     2   H       0.975616
     3   H       0.975552
     4   H       0.975690
     5   H       0.975690

 Total charge composition:

   CEN ATOM         s          p       ELECTRONS ->P.CHARGE
     1   C       3.12270    3.50165      6.62435   -0.62435
     2   H       0.84385                 0.84385    0.15615
     3   H       0.84364                 0.84364    0.15636
     4   H       0.84408                 0.84408    0.15592
     5   H       0.84408                 0.84408    0.15592

 Total charge composition, AO contributions:

   CEN ATOM SHL      SPHERICAL COMPONENTS
     1   C  1s       1.98817
     1   C  2s       1.13453
     1   C  2p       1.16751    1.16689    1.16725

     2   H  1s       0.84385

     3   H  1s       0.84364

     4   H  1s       0.84408

     5   H  1s       0.84408

 Summary of localized orbital composition:   [THRPRINT= 0.020]

   ORB  GRP  ORB.ENERGY      CENTERS/CHARGES
     1   1   -10.201253      C  1   2.000
     2   1    -0.475246      C  1   1.156   H  3   0.844
     3   1    -0.475046      C  1   1.156   H  2   0.844
     4   1    -0.474753      C  1   1.156   H  4   0.844
     5   1    -0.474753      C  1   1.156   H  5   0.844

 Localized orbitals saved to record      2100.2  (orbital set 2)


 **********************************************************************************************************************************
 DATASETS  * FILE   NREC   LENGTH (MB)   RECORD NAMES
              1      20      208.67       500      610      700      900      950      970     1000      129      960     1100   
                                          VAR    BASINP    GEOM    SYMINP    ZMAT    AOBASIS   BASIS     P2S    ABASIS      S 
                                         1400     1410     1200     1210     1080     1600     1650     1300     1700     1800   
                                           T        V       H0       H01     AOSYM     SMH    MOLCAS    ERIS     OPER     GRID   

              2       5        3.37       700     1000      520     1800     2100   
                                         GEOM     BASIS   MCVARS    GRID      RKS  

 PROGRAMS   *        TOTAL      IBBA        KS       INT
 CPU TIMES  *        19.80      0.02     16.28      3.37
 REAL TIME  *        26.73 SEC
 DISK USED  *       708.78 MB      
 **********************************************************************************************************************************
 Molecular orbitals read from record     2100.2  Type=RKS/LOCAL(IBO)  
 Occupation numbers read from record     2100.2  Type=RKS/LOCAL(IBO)  
 Orbital energies read from record       2100.2  Type=RKS/LOCAL(IBO)  
 Redundancy group numbers read from rec  2100.2  Type=RKS/LOCAL(IBO)  

 IBBA/aug-cc-pVTZ energy=      0.000000000000

        KS-SCF  
    -40.52511326
 **********************************************************************************************************************************
 Molpro calculation terminated
