
 Primary working directories    : /local
 Secondary working directories  : /local
 Wavefunction directory         : /local/
 Main file repository           : /local/

 SHA1      : b4a5b34a9e711420743f49e6833241d17c61fb3c
 NAME      : 2099.9.b4a5b34
 ARCHNAME  : linux/x86_64_openmp
 FC        : /cm/shared/languages/GCC-6.1/bin/gfortran
 BLASLIB   : -lblas
 id        : simonbennie

 Nodes     nprocs
 node34-001    1

 Using customized tuning parameters: mindgm=1; mindgv=20; mindgc=4; mindgr=1; noblas=0; minvec=7
 default implementation of scratch files=df  

 memory,500,m
 geomtyp=xyz
 nosym
 noorient
 geometry={
 C          0.00000        0.00000        0.00000
 H          0.00000        0.00000        1.08744
 H          1.02525        0.00000       -0.36248
 H         -0.51263        0.88789       -0.36248
 H         -0.51263       -0.88789       -0.36248
 }
 basis={ default,svp }
 {uks,B-VWN,direct;wf,10,1,0}
 {ibba,bonds=1}

 Variables initialized (895), CPU time= 0.00 sec
 Commands  initialized (725), CPU time= 0.01 sec, 591 directives.
 Default parameters read. Elapsed time= 0.08 sec

 Checking input...
 Passed
1


                                         ***  PROGRAM SYSTEM MOLPRO  ***
                                       Copyright, TTI GmbH Stuttgart, 2015
                                    Version 2099.9 linked May 26 2017 16:03:21


 **********************************************************************************************************************************
 LABEL *                                                                                 
  64 bit serial version                                                                  DATE: 29-Jun-17          TIME: 17:23:45  
 **********************************************************************************************************************************

 SHA1:             b4a5b34a9e711420743f49e6833241d17c61fb3c
 **********************************************************************************************************************************
 SETTING GEOMTYP        =    XYZ

 Variable memory set to  500000000 words,  buffer space 

 ZSYMEL=NOSYM

 SETTING BASIS          =    SVP


 Recomputing integrals since basis changed


 Using spherical harmonics

 Library entry C      S def2-SVP             selected for orbital group  1
 Library entry C      P def2-SVP             selected for orbital group  1
 Library entry C      D def2-SVP             selected for orbital group  1
 Library entry H      S def2-SVP             selected for orbital group  2
 Library entry H      P def2-SVP             selected for orbital group  2


 PROGRAM * SEWARD (Integral evaluation for generally contracted gaussian basis sets)     Author: Roland Lindh, 1990

 Geometry written to block  1 of record 700


 Point group  C1  



 ATOMIC COORDINATES

 NR  ATOM    CHARGE       X              Y              Z

   1  C       6.00    0.000000000    0.000000000    0.000000000
   2  H       1.00    0.000000000    0.000000000    2.054963777
   3  H       1.00    1.937441709    0.000000000   -0.684987926
   4  H       1.00   -0.968730303    1.677868929   -0.684987926
   5  H       1.00   -0.968730303   -1.677868929   -0.684987926

 Bond lengths in Bohr (Angstrom)

 1-2  2.054963777  1-3  2.054966870  1-4  2.054967397  1-5  2.054967397
     ( 1.087440000)     ( 1.087441637)     ( 1.087441915)     ( 1.087441915)

 Bond angles

  2-1-3  109.47119015   2-1-4  109.47118495   2-1-5  109.47118495   3-1-4  109.47150937

  3-1-5  109.47150937   4-1-5  109.47074501

 NUCLEAR CHARGE:                   10
 NUMBER OF PRIMITIVE AOS:          53
 NUMBER OF SYMMETRY AOS:           52
 NUMBER OF CONTRACTIONS:           34   (  34A   )
 NUMBER OF CORE ORBITALS:           1   (   1A   )
 NUMBER OF VALENCE ORBITALS:        8   (   8A   )


 NUCLEAR REPULSION ENERGY   13.46700129


 Eigenvalues of metric

         1 0.138E-01 0.555E-01 0.555E-01 0.555E-01 0.100E+00 0.129E+00 0.129E+00 0.129E+00


 Contracted 2-electron integrals neglected if value below      1.0D-11
 AO integral compression algorithm  1   Integral accuracy      1.0D-11

     1.049 MB (compressed) written to integral file ( 62.3%)


 NUMBER OF SORTED TWO-ELECTRON INTEGRALS:     177310.     BUFFER LENGTH:  32768
 NUMBER OF SEGMENTS:   1  SEGMENT LENGTH:     177310      RECORD LENGTH: 524288

 Memory used in sort:       0.73 MW

 SORT1 READ      219389. AND WROTE      146782. INTEGRALS IN      1 RECORDS. CPU TIME:     0.00 SEC, REAL TIME:     0.01 SEC
 SORT2 READ      146782. AND WROTE      177310. INTEGRALS IN      4 RECORDS. CPU TIME:     0.02 SEC, REAL TIME:     0.02 SEC

 FILE SIZES:   FILE 1:    31.1 MBYTE,  FILE 4:     4.2 MBYTE,   TOTAL:     35.3 MBYTE

 OPERATOR DM      FOR CENTER  0  COORDINATES:    0.000000    0.000000    0.000000


 **********************************************************************************************************************************
 DATASETS  * FILE   NREC   LENGTH (MB)   RECORD NAMES
              1      19       30.82       500      610      700      900      950      970     1000      129      960     1100   
                                          VAR    BASINP    GEOM    SYMINP    ZMAT    AOBASIS   BASIS     P2S    ABASIS      S 
                                         1400     1410     1200     1210     1080     1600     1650     1300     1700   
                                           T        V       H0       H01     AOSYM     SMH    MOLCAS    ERIS     OPER   

 PROGRAMS   *        TOTAL       INT
 CPU TIMES  *         0.46      0.34
 REAL TIME  *         3.77 SEC
 DISK USED  *        35.66 MB      
 **********************************************************************************************************************************

 Density functional group B-VWN=B88+VWN5
 Functional: B88(Automatically generated (new) B88)                            Gradient terms: 1
 Functional: VWN5(Automatically generated (new) VWN5)                          Gradient terms: 0
 Use grid at  1800.2

 Functional: B88                       Factor:  1.0000
 Functional: VWN5                      Factor:  1.0000

 Generated new metagrid on record  1800.2 with target accuracy 1.0D-06 and 14512 points in CPU time    0.3
 Computed new grid on record 1800.1 in CPU time    0.3
   30829 words reserved for DFT integration

 PROGRAM * UKS-SCF (Unrestricted Kohn-Sham)     Authors: W. Meyer, H.-J. Werner, P.J. Knowles, 1993

 NUMBER OF ELECTRONS:       5+    5-    SPACE SYMMETRY=1    SPIN SYMMETRY: Singlet 
 CONVERGENCE THRESHOLDS:    1.00E-05 (Density)    1.00E-06 (Energy)
 MAX. NUMBER OF ITERATIONS:       60
 INTERPOLATION TYPE:            DIIS
 INTERPOLATION STEPS:              2 (START)      1 (STEP)
 LEVEL SHIFTS:                 -0.20 (ALPHA)  -0.20 (BETA) 



 Use fine grid record 1800.2 for energy threshold  1.0D-06
 Orbital guess generated from atomic densities. Full valence occupancy:    5

 Molecular orbital dump at record        2200.2

 Initial alpha occupation   5
 Initial beta  occupation   5

 ITERATION    DDIFF          GRAD             ENERGY        2-EL.EN.            DIPOLE MOMENTS         DIIS
    1      0.000D+00      0.000D+00       -40.63216121     69.953973   -0.00000    0.00000    0.00000    0
    2      0.269D-01      0.131D-01       -40.72528545     64.165273    0.00001   -0.00000    0.00000    1
    3      0.905D-02      0.616D-02       -40.74569037     65.676565    0.00001   -0.00000    0.00000    2
    4      0.217D-02      0.489D-03       -40.74595910     65.657232    0.00001   -0.00000    0.00000    3
    5      0.767D-03      0.120D-03       -40.74598279     65.642721    0.00001   -0.00000    0.00001    4
    6      0.221D-03      0.289D-04       -40.74598437     65.640859    0.00001   -0.00000    0.00001    5
    7      0.188D-04      0.341D-05       -40.74598438     65.641457    0.00001   -0.00000    0.00001    5
    8      0.896D-06      0.215D-06       -40.74598438     65.641383    0.00001   -0.00000    0.00001    5
    9      0.184D-06      0.785D-07       -40.74598438     65.641407    0.00001   -0.00000    0.00001    5

 Final alpha occupancy:   5
 Final beta  occupancy:   5

 !UKS STATE 1.1 Energy                -40.745984382542
 Nuclear energy                        13.46700129
 One-electron energy                  -79.86156582
 Two-electron energy                   32.82070338
 Density functional                    -7.17212323     B88=-6.57767447 VWN5=-0.59444876
 Virial quotient                       -1.01969364
 !UKS STATE 1.1 Dipole moment           0.00000898    -0.00000000     0.00000562
 Dipole moment /Debye                   0.00002283    -0.00000000     0.00001428

 Orbital energies for positive spin:

         1.1          2.1          3.1          4.1          5.1          6.1          7.1
     -9.948191    -0.630759    -0.358664    -0.358662    -0.358662     0.046484     0.112559

 Orbital energies for negative spin:

         1.1          2.1          3.1          4.1          5.1          6.1          7.1
     -9.948191    -0.630759    -0.358664    -0.358662    -0.358662     0.046484     0.112559

 HOMO     -5.1    -0.358662 =      -9.7597eV
 LUMO      6.1     0.046484 =       1.2649eV
 LUMO-HOMO         0.405145 =      11.0246eV

 EXPECTATION VALUE OF S**2:            -0.00000000

 Natural orbitals saved to record    2200.2 (Orbital set 3)

 Orbital spaces for UNO-CAS (Min. occupation: 0.020  Max. occupation: 1.980):

 Closed:        5
 Active:        0


 **********************************************************************************************************************************
 DATASETS  * FILE   NREC   LENGTH (MB)   RECORD NAMES
              1      20       31.28       500      610      700      900      950      970     1000      129      960     1100   
                                          VAR    BASINP    GEOM    SYMINP    ZMAT    AOBASIS   BASIS     P2S    ABASIS      S 
                                         1400     1410     1200     1210     1080     1600     1650     1300     1700     1800   
                                           T        V       H0       H01     AOSYM     SMH    MOLCAS    ERIS     OPER     GRID   

              2       5        2.87       700     1000      520     1800     2200   
                                         GEOM     BASIS   MCVARS    GRID      UKS  

 PROGRAMS   *        TOTAL       UKS       INT
 CPU TIMES  *         1.72      1.25      0.34
 REAL TIME  *         5.14 SEC
 DISK USED  *        35.66 MB      
 **********************************************************************************************************************************


 PROGRAM * Intrinsic Basis Bonding Analysis (IBBA)          Author: G. Knizia

 Molecular orbitals read from record     2200.2  Type=UKS/ALPHA (state 1.1)
 Fock matrix read from record            2200.2  Type=UKS/TOTAL (state 1.1)
 Orbital energies read from record       2200.2  Type=UKS/ALPHA (state 1.1)
 Density matrix read from record         2200.2  Type=UKS/CHARGE (state 1.1)

 Number of core orbitals:           1 (   1 )
 Number of closed-shell orbitals:   4 (   4 )

 Basis set MINAO-AUTO-PP generated.      Number of basis functions:   9 

 Polarized AO type:                A = (O Ot + (1-O)(1-Ot)) P12
 Orthogonalization method:         Symmetric (Loewdin)
 Localization functional:          L = sum[A,i] <i|n_A|i>^4 -> max

 Localization group 1:   5 orbitals, occupancy  2.000
 Iterative localization: IB/PM,    5 iter; Final gradient 0.68E-09

 Bond order analysis:       [THRPRINT= 0.020]

   CEN ATOM   CEN ATOM     WIBERG.BO      RENORM.BO
     1   C  -   4   H       0.979771       1.000000
     1   C  -   5   H       0.979771       1.000000
     1   C  -   2   H       0.979771       1.000000
     1   C  -   3   H       0.979770       1.000000

     2   H  -   1   C       0.979771       1.000000

     3   H  -   1   C       0.979770       1.000000

     4   H  -   1   C       0.979771       1.000000

     5   H  -   1   C       0.979771       1.000000


 Valency analysis:

   CEN ATOM   TOT.VALENCE
     1   C       3.919084
     2   H       0.982321
     3   H       0.982321
     4   H       0.982322
     5   H       0.982322

 Total charge composition:

   CEN ATOM         s          p       ELECTRONS ->P.CHARGE
     1   C       3.04548    3.48636      6.53184   -0.53184
     2   H       0.86704                 0.86704    0.13296
     3   H       0.86704                 0.86704    0.13296
     4   H       0.86704                 0.86704    0.13296
     5   H       0.86704                 0.86704    0.13296

 Total charge composition, AO contributions:

   CEN ATOM SHL      SPHERICAL COMPONENTS
     1   C  1s       1.99061
     1   C  2s       1.05487
     1   C  2p       1.16212    1.16212    1.16212

     2   H  1s       0.86704

     3   H  1s       0.86704

     4   H  1s       0.86704

     5   H  1s       0.86704

 Summary of localized orbital composition:   [THRPRINT= 0.020]

   ORB  GRP  ORB.ENERGY      CENTERS/CHARGES
     1   1    -9.830090      C  1   2.000
     2   1    -0.456212      C  1   1.133   H  2   0.866
     3   1    -0.456212      C  1   1.133   H  4   0.866
     4   1    -0.456212      C  1   1.133   H  5   0.866
     5   1    -0.456211      C  1   1.133   H  3   0.866

 Localized orbitals saved to record      2200.2  (orbital set 4)


 **********************************************************************************************************************************
 DATASETS  * FILE   NREC   LENGTH (MB)   RECORD NAMES
              1      20       31.28       500      610      700      900      950      970     1000      129      960     1100   
                                          VAR    BASINP    GEOM    SYMINP    ZMAT    AOBASIS   BASIS     P2S    ABASIS      S 
                                         1400     1410     1200     1210     1080     1600     1650     1300     1700     1800   
                                           T        V       H0       H01     AOSYM     SMH    MOLCAS    ERIS     OPER     GRID   

              2       5        2.88       700     1000      520     1800     2200   
                                         GEOM     BASIS   MCVARS    GRID      UKS  

 PROGRAMS   *        TOTAL      IBBA       UKS       INT
 CPU TIMES  *         1.73      0.01      1.25      0.34
 REAL TIME  *         5.20 SEC
 DISK USED  *        35.66 MB      
 **********************************************************************************************************************************
 Molecular orbitals read from record     2200.2  Type=UKS/LOCAL(IBO)  
 Occupation numbers read from record     2200.2  Type=UKS/LOCAL(IBO)  
 Orbital energies read from record       2200.2  Type=UKS/LOCAL(IBO)  
 Redundancy group numbers read from rec  2200.2  Type=UKS/BETA (state 1.1)

 IBBA/SVP energy=      0.000000000000

        UKS-SCF 
    -40.74598438
 **********************************************************************************************************************************
 Molpro calculation terminated
