
 Primary working directories    : /local
 Secondary working directories  : /local
 Wavefunction directory         : /local/
 Main file repository           : /local/

 SHA1      : b4a5b34a9e711420743f49e6833241d17c61fb3c
 NAME      : 2099.9.b4a5b34
 ARCHNAME  : linux/x86_64_openmp
 FC        : /cm/shared/languages/GCC-6.1/bin/gfortran
 BLASLIB   : -lblas
 id        : simonbennie

 Nodes     nprocs
 node35-048    1

 Using customized tuning parameters: mindgm=1; mindgv=20; mindgc=4; mindgr=1; noblas=0; minvec=7
 default implementation of scratch files=df  

 memory,500,m
 geomtyp=xyz
 nosym
 noorient
 geometry={
 C          0.00000        0.00000        0.00000
 H          0.00000        0.00000        1.08744
 H          1.02525        0.00000       -0.36248
 H         -0.51263        0.88789       -0.36248
 H         -0.51263       -0.88789       -0.36248
 }
 basis={ default,avdz }
 {uhf,direct;wf,10,1,0}
 {uks,BH-LYP,direct;maxit,0;wf,10,1,0}
 {ibba,bonds=1}

 Variables initialized (895), CPU time= 0.01 sec
 Commands  initialized (725), CPU time= 0.01 sec, 591 directives.
 Default parameters read. Elapsed time= 0.07 sec

 Checking input...
 Passed
1


                                         ***  PROGRAM SYSTEM MOLPRO  ***
                                       Copyright, TTI GmbH Stuttgart, 2015
                                    Version 2099.9 linked May 26 2017 16:03:21


 **********************************************************************************************************************************
 LABEL *                                                                                 
  64 bit serial version                                                                  DATE: 10-Mar-18          TIME: 15:46:43  
 **********************************************************************************************************************************

 SHA1:             b4a5b34a9e711420743f49e6833241d17c61fb3c
 **********************************************************************************************************************************
 SETTING GEOMTYP        =    XYZ

 Variable memory set to  500000000 words,  buffer space 

 ZSYMEL=NOSYM

 SETTING BASIS          =    AVDZ


 Recomputing integrals since basis changed


 Using spherical harmonics

 Library entry C      S aug-cc-pVDZ          selected for orbital group  1
 Library entry C      P aug-cc-pVDZ          selected for orbital group  1
 Library entry C      D aug-cc-pVDZ          selected for orbital group  1
 Library entry H      S aug-cc-pVDZ          selected for orbital group  2
 Library entry H      P aug-cc-pVDZ          selected for orbital group  2


 PROGRAM * SEWARD (Integral evaluation for generally contracted gaussian basis sets)     Author: Roland Lindh, 1990

 Geometry written to block  1 of record 700


 Point group  C1  



 ATOMIC COORDINATES

 NR  ATOM    CHARGE       X              Y              Z

   1  C       6.00    0.000000000    0.000000000    0.000000000
   2  H       1.00    0.000000000    0.000000000    2.054963777
   3  H       1.00    1.937441709    0.000000000   -0.684987926
   4  H       1.00   -0.968730303    1.677868929   -0.684987926
   5  H       1.00   -0.968730303   -1.677868929   -0.684987926

 Bond lengths in Bohr (Angstrom)

 1-2  2.054963777  1-3  2.054966870  1-4  2.054967397  1-5  2.054967397
     ( 1.087440000)     ( 1.087441637)     ( 1.087441915)     ( 1.087441915)

 Bond angles

  2-1-3  109.47119015   2-1-4  109.47118495   2-1-5  109.47118495   3-1-4  109.47150937

  3-1-5  109.47150937   4-1-5  109.47074501

 NUCLEAR CHARGE:                   10
 NUMBER OF PRIMITIVE AOS:          81
 NUMBER OF SYMMETRY AOS:           79
 NUMBER OF CONTRACTIONS:           59   (  59A   )
 NUMBER OF CORE ORBITALS:           1   (   1A   )
 NUMBER OF VALENCE ORBITALS:        8   (   8A   )


 NUCLEAR REPULSION ENERGY   13.46700129


 Eigenvalues of metric

         1 0.828E-03 0.828E-03 0.828E-03 0.981E-03 0.743E-02 0.750E-02 0.750E-02 0.750E-02


 Contracted 2-electron integrals neglected if value below      1.0D-11
 AO integral compression algorithm  1   Integral accuracy      1.0D-11

     8.389 MB (compressed) written to integral file ( 50.9%)


 NUMBER OF SORTED TWO-ELECTRON INTEGRALS:    1567335.     BUFFER LENGTH:  32768
 NUMBER OF SEGMENTS:   1  SEGMENT LENGTH:    1567335      RECORD LENGTH: 524288

 Memory used in sort:       2.12 MW

 SORT1 READ     2028348. AND WROTE     1309450. INTEGRALS IN      4 RECORDS. CPU TIME:     0.02 SEC, REAL TIME:     0.03 SEC
 SORT2 READ     1309450. AND WROTE     1567335. INTEGRALS IN     32 RECORDS. CPU TIME:     0.07 SEC, REAL TIME:     0.08 SEC

 FILE SIZES:   FILE 1:    38.5 MBYTE,  FILE 4:    16.8 MBYTE,   TOTAL:     55.3 MBYTE

 OPERATOR DM      FOR CENTER  0  COORDINATES:    0.000000    0.000000    0.000000


 **********************************************************************************************************************************
 DATASETS  * FILE   NREC   LENGTH (MB)   RECORD NAMES
              1      19       36.73       500      610      700      900      950      970     1000      129      960     1100   
                                          VAR    BASINP    GEOM    SYMINP    ZMAT    AOBASIS   BASIS     P2S    ABASIS      S 
                                         1400     1410     1200     1210     1080     1600     1650     1300     1700   
                                           T        V       H0       H01     AOSYM     SMH    MOLCAS    ERIS     OPER   

 PROGRAMS   *        TOTAL       INT
 CPU TIMES  *         0.52      0.37
 REAL TIME  *         0.82 SEC
 DISK USED  *        55.69 MB      
 **********************************************************************************************************************************


 PROGRAM * UHF-SCF       Authors: W. Meyer, H.-J. Werner


 NUMBER OF ELECTRONS:       5+    5-    SPACE SYMMETRY=1    SPIN SYMMETRY: Singlet 
 CONVERGENCE THRESHOLDS:    1.00E-05 (Density)    1.00E-07 (Energy)
 INTEGRAL THRESHOLDS:       1.00E-11 (Initial)    1.00E-11 (Final)
 MAX. NUMBER OF ITERATIONS:       60
 INTERPOLATION TYPE:            DIIS
 INTERPOLATION STEPS:              2 (START)      1 (STEP)
 LEVEL SHIFTS:                 -0.20 (ALPHA)  -0.20 (BETA) 



 Orbital guess generated from atomic densities. Full valence occupancy:    9

 Molecular orbital dump at record        2200.2

 Initial alpha occupation   5
 Initial beta  occupation   5

 Direct Fock-matrix evaluation.        Author: H.-J. Werner (1996)

 Integral Threshold:                  0.1D-10

 ITERATION   DDIFF            GRAD            ENERGY        2-EL.EN.            DIPOLE MOMENTS         DIIS   CPU(IT)  CPU(TOT)
    1      0.000D+00      0.000D+00       -40.18149246     52.955753   -0.00000   -0.00000   -0.00000    0      1.0      1.9
    2      0.885D-02      0.259D-02       -40.19627100     52.151377   -0.00000    0.00000    0.00000    1      0.5      2.4
    3      0.283D-02      0.883D-03       -40.19877667     52.177685   -0.00000    0.00000    0.00000    2      0.5      3.0
    4      0.184D-02      0.407D-03       -40.19958031     52.169554   -0.00000    0.00000    0.00000    3      0.5      3.5
    5      0.400D-03      0.848D-04       -40.19962075     52.166459   -0.00000    0.00000    0.00000    4      0.5      4.0
    6      0.159D-03      0.188D-04       -40.19962280     52.165226   -0.00000    0.00000    0.00000    5      0.6      4.6
    7      0.584D-04      0.290D-05       -40.19962284     52.165129   -0.00000    0.00000    0.00000    6      0.6      5.2
    8      0.456D-05      0.254D-06       -40.19962284     52.165128   -0.00000    0.00000    0.00000    6      0.6      5.8
    9      0.101D-05      0.519D-07       -40.19962284     52.165139   -0.00000    0.00000    0.00000    5      0.6      6.4

 Final alpha occupancy:   5
 Final beta  occupancy:   5

 !UHF STATE 1.1 Energy                -40.199622842046
 Nuclear energy                        13.46700129
 One-electron energy                  -79.74919346
 Two-electron energy                   26.08256933
 Virial quotient                       -1.00172853
 !UHF STATE 1.1 Dipole moment          -0.00000098     0.00000000     0.00000079
 Dipole moment /Debye                  -0.00000248     0.00000000     0.00000202

 Orbital energies for positive spin:

         1.1          2.1          3.1          4.1          5.1          6.1          7.1
    -11.214619    -0.944391    -0.544341    -0.544340    -0.544339     0.036998     0.063683

 Orbital energies for negative spin:

         1.1          2.1          3.1          4.1          5.1          6.1          7.1
    -11.214619    -0.944391    -0.544341    -0.544340    -0.544339     0.036998     0.063683

 HOMO      5.1    -0.544339 =     -14.8122eV
 LUMO      6.1     0.036998 =       1.0068eV
 LUMO-HOMO         0.581337 =      15.8190eV

 EXPECTATION VALUE OF S**2:            -0.00000000

 Natural orbitals saved to record    2200.2 (Orbital set 3)

 Orbital spaces for UNO-CAS (Min. occupation: 0.020  Max. occupation: 1.980):

 Closed:        5
 Active:        0


 **********************************************************************************************************************************
 DATASETS  * FILE   NREC   LENGTH (MB)   RECORD NAMES
              1      19       36.73       500      610      700      900      950      970     1000      129      960     1100   
                                          VAR    BASINP    GEOM    SYMINP    ZMAT    AOBASIS   BASIS     P2S    ABASIS      S 
                                         1400     1410     1200     1210     1080     1600     1650     1300     1700   
                                           T        V       H0       H01     AOSYM     SMH    MOLCAS    ERIS     OPER   

              2       4        2.96       700     1000      520     2200   
                                         GEOM     BASIS   MCVARS     UHF  

 PROGRAMS   *        TOTAL       UHF       INT
 CPU TIMES  *         6.96      6.44      0.37
 REAL TIME  *        10.33 SEC
 DISK USED  *        55.69 MB      
 **********************************************************************************************************************************

 Density functional group BH-LYP=B88+LYP
 Functional: B88(Automatically generated (new) B88)                            Gradient terms: 1
 Functional: LYP(Automatically generated (new) LYP)                            Gradient terms: 1
 Use grid at  1800.2


 Exact exchange will be calculated, factor:  0.5000

 Functional: B88                       Factor:  0.5000
 Functional: LYP                       Factor:  1.0000

 Generated new metagrid on record  1800.2 with target accuracy 1.0D-06 and 14512 points in CPU time    0.3
 Computed new grid on record 1800.1 in CPU time    0.3
   50723 words reserved for DFT integration

 PROGRAM * UKS-SCF (Unrestricted Kohn-Sham)     Authors: W. Meyer, H.-J. Werner, P.J. Knowles, 1993

 NUMBER OF ELECTRONS:       5+    5-    SPACE SYMMETRY=1    SPIN SYMMETRY: Singlet 
 CONVERGENCE THRESHOLDS:    1.00E-05 (Density)    1.00E-06 (Energy)
 MAX. NUMBER OF ITERATIONS:        0
 INTERPOLATION TYPE:            DIIS
 INTERPOLATION STEPS:              2 (START)      1 (STEP)
 LEVEL SHIFTS:                 -0.20 (ALPHA)  -0.20 (BETA) 



 Use fine grid record 1800.2 for energy threshold  1.0D-06
 Molecular orbitals read from record     2200.2  Type=UHF/ALPHA (state 1.1)
 Molecular orbitals read from record     2200.2  Type=UHF/BETA (state 1.1)

 Molecular orbital dump at record        2201.2

 Initial alpha occupation   5
 Initial beta  occupation   5

 ITERATION    DDIFF          GRAD             ENERGY        2-EL.EN.            DIPOLE MOMENTS         DIIS
    1      0.000D+00      0.000D+00       -40.48324833     58.756593   -0.00000    0.00000    0.00000    0

 Final alpha occupancy:   5
 Final beta  occupancy:   5

 !UKS STATE 1.1 Energy                -40.483248325063
 Nuclear energy                        13.46700129
 One-electron energy                  -79.74919346
 Two-electron energy                   29.37829661
 Density functional                    -3.57935276     B88=-6.57091975 LYP=-0.29389289
 Virial quotient                       -1.00879615
 !UKS STATE 1.1 Dipole moment          -0.00000098     0.00000000     0.00000079
 Dipole moment /Debye                  -0.00000248     0.00000000     0.00000202

 Orbital energies for positive spin:

         1.1          2.1          3.1          4.1          5.1          6.1          7.1
    -11.214619    -0.944391    -0.544341    -0.544340    -0.544339     0.036998     0.063683

 Orbital energies for negative spin:

         1.1          2.1          3.1          4.1          5.1          6.1          7.1
    -11.214619    -0.944391    -0.544341    -0.544340    -0.544339     0.036998     0.063683

 HOMO      5.1    -0.544339 =     -14.8122eV
 LUMO      6.1     0.036998 =       1.0068eV
 LUMO-HOMO         0.581337 =      15.8190eV

 EXPECTATION VALUE OF S**2:            -0.00000000

 Natural orbitals saved to record    2201.2 (Orbital set 3)

 Orbital spaces for UNO-CAS (Min. occupation: 0.020  Max. occupation: 1.980):

 Closed:        5
 Active:        0

 No convergence



 **********************************************************************************************************************************
 DATASETS  * FILE   NREC   LENGTH (MB)   RECORD NAMES
              1      20       37.19       500      610      700      900      950      970     1000      129      960     1100   
                                          VAR    BASINP    GEOM    SYMINP    ZMAT    AOBASIS   BASIS     P2S    ABASIS      S 
                                         1400     1410     1200     1210     1080     1600     1650     1300     1700     1800   
                                           T        V       H0       H01     AOSYM     SMH    MOLCAS    ERIS     OPER     GRID   

              2       6        5.60       700     1000      520     2200     1800     2201   
                                         GEOM     BASIS   MCVARS     UHF     GRID      UKS  

 PROGRAMS   *        TOTAL       UKS       UHF       INT
 CPU TIMES  *         7.51      0.55      6.44      0.37
 REAL TIME  *        10.89 SEC
 DISK USED  *        55.69 MB      
 **********************************************************************************************************************************


 PROGRAM * Intrinsic Basis Bonding Analysis (IBBA)          Author: G. Knizia

 Molecular orbitals read from record     2201.2  Type=UKS/ALPHA (state 1.1)
 Fock matrix read from record            2201.2  Type=UKS/TOTAL (state 1.1)
 Orbital energies read from record       2201.2  Type=UKS/ALPHA (state 1.1)
 Density matrix read from record         2201.2  Type=UKS/CHARGE (state 1.1)

 Number of core orbitals:           1 (   1 )
 Number of closed-shell orbitals:   4 (   4 )

 Basis set MINAO-AUTO-PP generated.      Number of basis functions:   9 

 Polarized AO type:                A = (O Ot + (1-O)(1-Ot)) P12
 Orthogonalization method:         Symmetric (Loewdin)
 Localization functional:          L = sum[A,i] <i|n_A|i>^4 -> max

 Localization group 1:   5 orbitals, occupancy  2.000
 Iterative localization: IB/PM,    5 iter; Final gradient 0.39E-09

 Bond order analysis:       [THRPRINT= 0.020]

   CEN ATOM   CEN ATOM     WIBERG.BO      RENORM.BO
     1   C  -   5   H       0.981260       1.000000
     1   C  -   4   H       0.981260       1.000000
     1   C  -   3   H       0.981260       1.000000
     1   C  -   2   H       0.981260       1.000000

     2   H  -   1   C       0.981260       1.000000

     3   H  -   1   C       0.981260       1.000000

     4   H  -   1   C       0.981260       1.000000

     5   H  -   1   C       0.981260       1.000000


 Valency analysis:

   CEN ATOM   TOT.VALENCE
     1   C       3.925041
     2   H       0.982923
     3   H       0.982924
     4   H       0.982924
     5   H       0.982924

 Total charge composition:

   CEN ATOM         s          p       ELECTRONS ->P.CHARGE
     1   C       3.06003    3.46267      6.52271   -0.52271
     2   H       0.86932                 0.86932    0.13068
     3   H       0.86932                 0.86932    0.13068
     4   H       0.86932                 0.86932    0.13068
     5   H       0.86932                 0.86932    0.13068

 Total charge composition, AO contributions:

   CEN ATOM SHL      SPHERICAL COMPONENTS
     1   C  1s       1.98964
     1   C  2s       1.07039
     1   C  2p       1.15422    1.15422    1.15422

     2   H  1s       0.86932

     3   H  1s       0.86932

     4   H  1s       0.86932

     5   H  1s       0.86932

 Summary of localized orbital composition:   [THRPRINT= 0.020]

   ORB  GRP  ORB.ENERGY      CENTERS/CHARGES
     1   1   -10.469009      C  1   2.000
     2   1    -0.580258      C  1   1.131   H  2   0.869
     3   1    -0.580258      C  1   1.131   H  3   0.869
     4   1    -0.580257      C  1   1.131   H  5   0.869
     5   1    -0.580257      C  1   1.131   H  4   0.869

 Localized orbitals saved to record      2201.2  (orbital set 4)


 **********************************************************************************************************************************
 DATASETS  * FILE   NREC   LENGTH (MB)   RECORD NAMES
              1      20       37.19       500      610      700      900      950      970     1000      129      960     1100   
                                          VAR    BASINP    GEOM    SYMINP    ZMAT    AOBASIS   BASIS     P2S    ABASIS      S 
                                         1400     1410     1200     1210     1080     1600     1650     1300     1700     1800   
                                           T        V       H0       H01     AOSYM     SMH    MOLCAS    ERIS     OPER     GRID   

              2       6        5.63       700     1000      520     2200     1800     2201   
                                         GEOM     BASIS   MCVARS     UHF     GRID      UKS  

 PROGRAMS   *        TOTAL      IBBA       UKS       UHF       INT
 CPU TIMES  *         7.53      0.02      0.55      6.44      0.37
 REAL TIME  *        10.92 SEC
 DISK USED  *        55.69 MB      
 **********************************************************************************************************************************

 IBBA/aug-cc-pVDZ energy=      0.000000000000

        UKS-SCF         UHF-SCF 
    -40.48324833    -40.19962284
 **********************************************************************************************************************************
 Molpro calculation terminated
