
 Primary working directories    : /local
 Secondary working directories  : /local
 Wavefunction directory         : /local/
 Main file repository           : /local/

 SHA1      : b4a5b34a9e711420743f49e6833241d17c61fb3c
 NAME      : 2099.9.b4a5b34
 ARCHNAME  : linux/x86_64_openmp
 FC        : /cm/shared/languages/GCC-6.1/bin/gfortran
 BLASLIB   : -lblas
 id        : simonbennie

 Nodes     nprocs
 node32-015    1

 Using customized tuning parameters: mindgm=1; mindgv=20; mindgc=4; mindgr=1; noblas=0; minvec=7
 default implementation of scratch files=df  

 memory,500,m
 geomtyp=xyz
 nosym
 noorient
 geometry={
 C          0.00000        0.00000        0.00000
 H          0.00000        0.00000        1.08744
 H          1.02525        0.00000       -0.36248
 H         -0.51263        0.88789       -0.36248
 H         -0.51263       -0.88789       -0.36248
 }
 basis={ default,sto-3g }
 {hf,direct;wf,10,1,0}
 {ks,BH-LYP,direct;maxit,0;wf,10,1,0}
 {ibba,bonds=1}

 Variables initialized (895), CPU time= 0.00 sec
 Commands  initialized (725), CPU time= 0.02 sec, 591 directives.
 Default parameters read. Elapsed time= 0.08 sec

 Checking input...
 Passed
1


                                         ***  PROGRAM SYSTEM MOLPRO  ***
                                       Copyright, TTI GmbH Stuttgart, 2015
                                    Version 2099.9 linked May 26 2017 16:03:21


 **********************************************************************************************************************************
 LABEL *                                                                                 
  64 bit serial version                                                                  DATE: 10-Mar-18          TIME: 12:31:55  
 **********************************************************************************************************************************

 SHA1:             b4a5b34a9e711420743f49e6833241d17c61fb3c
 **********************************************************************************************************************************
 SETTING GEOMTYP        =    XYZ

 Variable memory set to  500000000 words,  buffer space 

 ZSYMEL=NOSYM

 SETTING BASIS          =    STO-3G


 Recomputing integrals since basis changed


 Using spherical harmonics

 Library entry C      S STO-3G               selected for orbital group  1
 Library entry C      P STO-3G               selected for orbital group  1
 Library entry H      S STO-3G               selected for orbital group  2


 PROGRAM * SEWARD (Integral evaluation for generally contracted gaussian basis sets)     Author: Roland Lindh, 1990

 Geometry written to block  1 of record 700


 Point group  C1  



 ATOMIC COORDINATES

 NR  ATOM    CHARGE       X              Y              Z

   1  C       6.00    0.000000000    0.000000000    0.000000000
   2  H       1.00    0.000000000    0.000000000    2.054963777
   3  H       1.00    1.937441709    0.000000000   -0.684987926
   4  H       1.00   -0.968730303    1.677868929   -0.684987926
   5  H       1.00   -0.968730303   -1.677868929   -0.684987926

 Bond lengths in Bohr (Angstrom)

 1-2  2.054963777  1-3  2.054966870  1-4  2.054967397  1-5  2.054967397
     ( 1.087440000)     ( 1.087441637)     ( 1.087441915)     ( 1.087441915)

 Bond angles

  2-1-3  109.47119015   2-1-4  109.47118495   2-1-5  109.47118495   3-1-4  109.47150937

  3-1-5  109.47150937   4-1-5  109.47074501

 NUCLEAR CHARGE:                   10
 NUMBER OF PRIMITIVE AOS:          27
 NUMBER OF SYMMETRY AOS:           27
 NUMBER OF CONTRACTIONS:            9   (   9A   )
 NUMBER OF CORE ORBITALS:           1   (   1A   )
 NUMBER OF VALENCE ORBITALS:        8   (   8A   )


 NUCLEAR REPULSION ENERGY   13.46700129


 Eigenvalues of metric

         1 0.219E+00 0.368E+00 0.368E+00 0.368E+00 0.971E+00 0.146E+01 0.146E+01 0.146E+01


 Contracted 2-electron integrals neglected if value below      1.0D-11
 AO integral compression algorithm  1   Integral accuracy      1.0D-11

     0.262 MB (compressed) written to integral file (100.0%)


 NUMBER OF SORTED TWO-ELECTRON INTEGRALS:       1035.     BUFFER LENGTH:  32768
 NUMBER OF SEGMENTS:   1  SEGMENT LENGTH:       1035      RECORD LENGTH: 524288

 Memory used in sort:       0.56 MW

 SORT1 READ        1304. AND WROTE         829. INTEGRALS IN      1 RECORDS. CPU TIME:     0.00 SEC, REAL TIME:     0.01 SEC
 SORT2 READ         829. AND WROTE        1035. INTEGRALS IN      1 RECORDS. CPU TIME:     0.00 SEC, REAL TIME:     0.00 SEC

 FILE SIZES:   FILE 1:    30.3 MBYTE,  FILE 4:     4.2 MBYTE,   TOTAL:     34.5 MBYTE

 OPERATOR DM      FOR CENTER  0  COORDINATES:    0.000000    0.000000    0.000000


 **********************************************************************************************************************************
 DATASETS  * FILE   NREC   LENGTH (MB)   RECORD NAMES
              1      19       30.01       500      610      700      900      950      970     1000      129      960     1100   
                                          VAR    BASINP    GEOM    SYMINP    ZMAT    AOBASIS   BASIS     P2S    ABASIS      S 
                                         1400     1410     1200     1210     1080     1600     1650     1300     1700   
                                           T        V       H0       H01     AOSYM     SMH    MOLCAS    ERIS     OPER   

 PROGRAMS   *        TOTAL       INT
 CPU TIMES  *         0.31      0.17
 REAL TIME  *         0.57 SEC
 DISK USED  *        34.82 MB      
 **********************************************************************************************************************************


 PROGRAM * RHF-SCF (CLOSED SHELL)       Authors: W. Meyer, H.-J. Werner


 NUMBER OF ELECTRONS:       5+    5-    SPACE SYMMETRY=1    SPIN SYMMETRY: Singlet 
 CONVERGENCE THRESHOLDS:    1.00E-05 (Density)    1.00E-07 (Energy)
 INTEGRAL THRESHOLDS:       1.00E-11 (Initial)    1.00E-11 (Final)
 MAX. NUMBER OF ITERATIONS:       60
 INTERPOLATION TYPE:            DIIS
 INTERPOLATION STEPS:              2 (START)      1 (STEP)
 LEVEL SHIFTS:                  0.00 (CLOSED)  0.00 (OPEN) 



 Orbital guess generated from atomic densities. Full valence occupancy:    5

 Molecular orbital dump at record        2100.2

 Initial occupancy:   5

 Direct Fock-matrix evaluation.        Authors: Roland Lindh & Martin Schuetz (1993/96)

 Integral Threshold:                  0.1D-10
 Threshold for writing integrals:     0.1D-06
 Prescreening on density matrix:        ON 
 Calculation will be performed fully direct        

 ITERATION   DDIFF            GRAD            ENERGY        2-EL.EN.            DIPOLE MOMENTS         DIIS   CPU(IT)  CPU(TOT)
    1      0.000D+00      0.000D+00       -39.70817241     53.645665   -0.00000   -0.00000   -0.00000    0      0.8      1.6     start
    2      0.000D+00      0.263D-01       -39.72617431     52.186658   -0.00000   -0.00000    0.00000    1      0.4      2.0     diag
    3      0.533D-01      0.528D-02       -39.72679043     52.402548   -0.00000   -0.00000    0.00000    2      0.4      2.4     diag
    4      0.841D-02      0.471D-03       -39.72679762     52.403350   -0.00000   -0.00000    0.00000    3      0.4      2.8     diag
    5      0.103D-02      0.318D-04       -39.72679765     52.403173   -0.00000   -0.00000    0.00000    4      0.4      3.2     diag
    6      0.740D-04      0.133D-06       -39.72679765     52.403177   -0.00000   -0.00000    0.00000    5      0.4      3.7     diag
    7      0.218D-06      0.146D-09       -39.72679765     52.403177   -0.00000    0.00000    0.00000    0      0.4      4.1     orth

 Final occupancy:   5

 !RHF STATE 1.1 Energy                -39.726797654748
 Nuclear energy                        13.46700129
 One-electron energy                  -79.39538732
 Two-electron energy                   26.20158837
 Virial quotient                       -1.00696840
 !RHF STATE 1.1 Dipole moment          -0.00000080     0.00000000     0.00000025
 Dipole moment /Debye                  -0.00000205     0.00000000     0.00000065

 Orbital energies:

         1.1          2.1          3.1          4.1          5.1          6.1          7.1
    -11.030070    -0.909802    -0.518745    -0.518744    -0.518743     0.715281     0.715284

 HOMO      5.1    -0.518743 =     -14.1157eV
 LUMO      6.1     0.715281 =      19.4638eV
 LUMO-HOMO         1.234024 =      33.5795eV


 **********************************************************************************************************************************
 DATASETS  * FILE   NREC   LENGTH (MB)   RECORD NAMES
              1      19       30.01       500      610      700      900      950      970     1000      129      960     1100   
                                          VAR    BASINP    GEOM    SYMINP    ZMAT    AOBASIS   BASIS     P2S    ABASIS      S 
                                         1400     1410     1200     1210     1080     1600     1650     1300     1700   
                                           T        V       H0       H01     AOSYM     SMH    MOLCAS    ERIS     OPER   

              2       4        2.81       700     1000      520     2100   
                                         GEOM     BASIS   MCVARS     RHF  

 PROGRAMS   *        TOTAL        HF       INT
 CPU TIMES  *         4.39      4.08      0.17
 REAL TIME  *         7.49 SEC
 DISK USED  *        34.82 MB      
 **********************************************************************************************************************************

 Density functional group BH-LYP=B88+LYP
 Functional: B88(Automatically generated (new) B88)                            Gradient terms: 1
 Functional: LYP(Automatically generated (new) LYP)                            Gradient terms: 1
 Use grid at  1800.2


 Exact exchange will be calculated, factor:  0.5000

 Functional: B88                       Factor:  0.5000
 Functional: LYP                       Factor:  1.0000

 Generated new metagrid on record  1800.2 with target accuracy 1.0D-06 and 14512 points in CPU time    0.3
 Computed new grid on record 1800.1 in CPU time    0.3
   11075 words reserved for DFT integration

 PROGRAM * RKS-SCF (Restricted closed shell Kohn-Sham)     Authors: W. Meyer, H.-J. Werner, P.J. Knowles, 1993

 NUMBER OF ELECTRONS:       5+    5-    SPACE SYMMETRY=1    SPIN SYMMETRY: Singlet 
 CONVERGENCE THRESHOLDS:    1.00E-05 (Density)    1.00E-06 (Energy)
 MAX. NUMBER OF ITERATIONS:        0
 INTERPOLATION TYPE:            DIIS
 INTERPOLATION STEPS:              2 (START)      1 (STEP)
 LEVEL SHIFTS:                  0.00 (CLOSED)  0.00 (OPEN) 



 Use fine grid record 1800.2 for energy threshold  1.0D-06
 Molecular orbitals read from record     2100.2  Type=RHF/CANONICAL (state 1.1)

 Molecular orbital dump at record        2101.2

 ITERATION    DDIFF          GRAD             ENERGY        2-EL.EN.            DIPOLE MOMENTS         DIIS   ORB.
    1      0.000D+00      0.000D+00       -40.00701205     59.021432   -0.00000    0.00000    0.00000    0    start

 Final occupancy:   5

 !RKS STATE 1.1 Energy                -40.007012052187
 Nuclear energy                        13.46700129
 One-electron energy                  -79.39538732
 Two-electron energy                   29.51071602
 SCF exchange energy                   -6.61825528     Factor= 0.5000
 Density functional                    -3.58934204     B88=-6.59122680 LYP=-0.29372864
 Virial quotient                       -1.01407109
 !RKS STATE 1.1 Dipole moment          -0.00000080     0.00000000     0.00000025
 Dipole moment /Debye                  -0.00000205     0.00000000     0.00000065

 Orbital energies:

         1.1          2.1          3.1          4.1          5.1          6.1          7.1
    -11.030070    -0.909802    -0.518745    -0.518744    -0.518743     0.715281     0.715284

 HOMO      5.1    -0.518743 =     -14.1157eV
 LUMO      6.1     0.715281 =      19.4638eV
 LUMO-HOMO         1.234024 =      33.5795eV


 **********************************************************************************************************************************
 DATASETS  * FILE   NREC   LENGTH (MB)   RECORD NAMES
              1      20       30.48       500      610      700      900      950      970     1000      129      960     1100   
                                          VAR    BASINP    GEOM    SYMINP    ZMAT    AOBASIS   BASIS     P2S    ABASIS      S 
                                         1400     1410     1200     1210     1080     1600     1650     1300     1700     1800   
                                           T        V       H0       H01     AOSYM     SMH    MOLCAS    ERIS     OPER     GRID   

              2       6        5.31       700     1000      520     2100     1800     2101   
                                         GEOM     BASIS   MCVARS     RHF     GRID      RKS  

 PROGRAMS   *        TOTAL        KS        HF       INT
 CPU TIMES  *         4.77      0.38      4.08      0.17
 REAL TIME  *         7.89 SEC
 DISK USED  *        35.83 MB      
 **********************************************************************************************************************************


 PROGRAM * Intrinsic Basis Bonding Analysis (IBBA)          Author: G. Knizia

 Molecular orbitals read from record     2101.2  Type=RKS/CANONICAL (state 1.1)
 Fock matrix read from record            2101.2  Type=RKS/TOTAL (state 1.1)
 Orbital energies read from record       2101.2  Type=RKS/CANONICAL (state 1.1)
 Density matrix read from record         2101.2  Type=RKS/CHARGE (state 1.1)

 Number of core orbitals:           1 (   1 )
 Number of closed-shell orbitals:   4 (   4 )

 Basis set MINAO-AUTO-PP generated.      Number of basis functions:   9 

 Polarized AO type:                A = (O Ot + (1-O)(1-Ot)) P12
 Orthogonalization method:         Symmetric (Loewdin)
 Localization functional:          L = sum[A,i] <i|n_A|i>^4 -> max

 Localization group 1:   5 orbitals, occupancy  2.000
 Iterative localization: IB/PM,    5 iter; Final gradient 0.19E-08

 Bond order analysis:       [THRPRINT= 0.020]

   CEN ATOM   CEN ATOM     WIBERG.BO      RENORM.BO
     1   C  -   5   H       0.980579       1.000000
     1   C  -   4   H       0.980579       1.000000
     1   C  -   3   H       0.980579       1.000000
     1   C  -   2   H       0.980579       1.000000

     2   H  -   1   C       0.980579       1.000000

     3   H  -   1   C       0.980579       1.000000

     4   H  -   1   C       0.980579       1.000000

     5   H  -   1   C       0.980579       1.000000


 Valency analysis:

   CEN ATOM   TOT.VALENCE
     1   C       3.922316
     2   H       0.985076
     3   H       0.985076
     4   H       0.985076
     5   H       0.985076

 Total charge composition:

   CEN ATOM         s          p       ELECTRONS ->P.CHARGE
     1   C       3.00601    3.48264      6.48866   -0.48866
     2   H       0.87784                 0.87784    0.12216
     3   H       0.87784                 0.87784    0.12216
     4   H       0.87784                 0.87784    0.12216
     5   H       0.87784                 0.87784    0.12216

 Total charge composition, AO contributions:

   CEN ATOM SHL      SPHERICAL COMPONENTS
     1   C  1s       1.99034
     1   C  2s       1.01567
     1   C  2p       1.16088    1.16088    1.16088

     2   H  1s       0.87784

     3   H  1s       0.87784

     4   H  1s       0.87784

     5   H  1s       0.87784

 Summary of localized orbital composition:   [THRPRINT= 0.020]

   ORB  GRP  ORB.ENERGY      CENTERS/CHARGES
     1   1   -10.288193      C  1   2.000
     2   1    -0.550114      C  1   1.122   H  2   0.877
     3   1    -0.550114      C  1   1.122   H  3   0.877
     4   1    -0.550113      C  1   1.122   H  5   0.877
     5   1    -0.550113      C  1   1.122   H  4   0.877

 Localized orbitals saved to record      2101.2  (orbital set 2)


 **********************************************************************************************************************************
 DATASETS  * FILE   NREC   LENGTH (MB)   RECORD NAMES
              1      20       30.48       500      610      700      900      950      970     1000      129      960     1100   
                                          VAR    BASINP    GEOM    SYMINP    ZMAT    AOBASIS   BASIS     P2S    ABASIS      S 
                                         1400     1410     1200     1210     1080     1600     1650     1300     1700     1800   
                                           T        V       H0       H01     AOSYM     SMH    MOLCAS    ERIS     OPER     GRID   

              2       6        5.31       700     1000      520     2100     1800     2101   
                                         GEOM     BASIS   MCVARS     RHF     GRID      RKS  

 PROGRAMS   *        TOTAL      IBBA        KS        HF       INT
 CPU TIMES  *         4.79      0.02      0.38      4.08      0.17
 REAL TIME  *         7.92 SEC
 DISK USED  *        35.83 MB      
 **********************************************************************************************************************************

 IBBA/STO-3G energy=      0.000000000000

        KS-SCF          HF-SCF  
    -40.00701205    -39.72679765
 **********************************************************************************************************************************
 Molpro calculation terminated
