
 Primary working directories    : /local
 Secondary working directories  : /local
 Wavefunction directory         : /local/
 Main file repository           : /local/

 SHA1      : b4a5b34a9e711420743f49e6833241d17c61fb3c
 NAME      : 2099.9.b4a5b34
 ARCHNAME  : linux/x86_64_openmp
 FC        : /cm/shared/languages/GCC-6.1/bin/gfortran
 BLASLIB   : -lblas
 id        : simonbennie

 Nodes     nprocs
 node32-019    1

 Using customized tuning parameters: mindgm=1; mindgv=20; mindgc=4; mindgr=1; noblas=0; minvec=7
 default implementation of scratch files=df  

 memory,500,m
 geomtyp=xyz
 nosym
 noorient
 geometry={
 C          0.00000        0.00000        0.00000
 H          0.00000        0.00000        1.08744
 H          1.02525        0.00000       -0.36248
 H         -0.51263        0.88789       -0.36248
 H         -0.51263       -0.88789       -0.36248
 }
 basis={ default,SV(P) }
 {hf,direct;wf,10,1,0}
 {ks,LDA,direct;maxit,0;wf,10,1,0}
 {ibba,bonds=1}

 Variables initialized (895), CPU time= 0.01 sec
 Commands  initialized (725), CPU time= 0.01 sec, 591 directives.
 Default parameters read. Elapsed time= 0.08 sec

 Checking input...
 Passed
1


                                         ***  PROGRAM SYSTEM MOLPRO  ***
                                       Copyright, TTI GmbH Stuttgart, 2015
                                    Version 2099.9 linked May 26 2017 16:03:21


 **********************************************************************************************************************************
 LABEL *                                                                                 
  64 bit serial version                                                                  DATE: 10-Mar-18          TIME: 13:08:56  
 **********************************************************************************************************************************

 SHA1:             b4a5b34a9e711420743f49e6833241d17c61fb3c
 **********************************************************************************************************************************
 SETTING GEOMTYP        =    XYZ

 Variable memory set to  500000000 words,  buffer space 

 ZSYMEL=NOSYM

 SETTING BASIS          =    SV(P)


 Recomputing integrals since basis changed


 Using spherical harmonics

 Library entry C      S def2-SV(P)           selected for orbital group  1
 Library entry C      P def2-SV(P)           selected for orbital group  1
 Library entry C      D def2-SV(P)           selected for orbital group  1
 Library entry H      S def2-SV(P)           selected for orbital group  2


 PROGRAM * SEWARD (Integral evaluation for generally contracted gaussian basis sets)     Author: Roland Lindh, 1990

 Geometry written to block  1 of record 700


 Point group  C1  



 ATOMIC COORDINATES

 NR  ATOM    CHARGE       X              Y              Z

   1  C       6.00    0.000000000    0.000000000    0.000000000
   2  H       1.00    0.000000000    0.000000000    2.054963777
   3  H       1.00    1.937441709    0.000000000   -0.684987926
   4  H       1.00   -0.968730303    1.677868929   -0.684987926
   5  H       1.00   -0.968730303   -1.677868929   -0.684987926

 Bond lengths in Bohr (Angstrom)

 1-2  2.054963777  1-3  2.054966870  1-4  2.054967397  1-5  2.054967397
     ( 1.087440000)     ( 1.087441637)     ( 1.087441915)     ( 1.087441915)

 Bond angles

  2-1-3  109.47119015   2-1-4  109.47118495   2-1-5  109.47118495   3-1-4  109.47150937

  3-1-5  109.47150937   4-1-5  109.47074501

 NUCLEAR CHARGE:                   10
 NUMBER OF PRIMITIVE AOS:          41
 NUMBER OF SYMMETRY AOS:           40
 NUMBER OF CONTRACTIONS:           22   (  22A   )
 NUMBER OF CORE ORBITALS:           1   (   1A   )
 NUMBER OF VALENCE ORBITALS:        8   (   8A   )


 NUCLEAR REPULSION ENERGY   13.46700129


 Eigenvalues of metric

         1 0.141E-01 0.694E-01 0.694E-01 0.694E-01 0.245E+00 0.245E+00 0.245E+00 0.279E+00


 Contracted 2-electron integrals neglected if value below      1.0D-11
 AO integral compression algorithm  1   Integral accuracy      1.0D-11

     0.262 MB (compressed) written to integral file (100.0%)


 NUMBER OF SORTED TWO-ELECTRON INTEGRALS:      32131.     BUFFER LENGTH:  32768
 NUMBER OF SEGMENTS:   1  SEGMENT LENGTH:      32131      RECORD LENGTH: 524288

 Memory used in sort:       0.59 MW

 SORT1 READ       41426. AND WROTE       22310. INTEGRALS IN      1 RECORDS. CPU TIME:     0.00 SEC, REAL TIME:     0.00 SEC
 SORT2 READ       22310. AND WROTE       32131. INTEGRALS IN      1 RECORDS. CPU TIME:     0.01 SEC, REAL TIME:     0.01 SEC

 FILE SIZES:   FILE 1:    30.3 MBYTE,  FILE 4:     4.2 MBYTE,   TOTAL:     34.5 MBYTE

 OPERATOR DM      FOR CENTER  0  COORDINATES:    0.000000    0.000000    0.000000


 **********************************************************************************************************************************
 DATASETS  * FILE   NREC   LENGTH (MB)   RECORD NAMES
              1      19       30.17       500      610      700      900      950      970     1000      129      960     1100   
                                          VAR    BASINP    GEOM    SYMINP    ZMAT    AOBASIS   BASIS     P2S    ABASIS      S 
                                         1400     1410     1200     1210     1080     1600     1650     1300     1700   
                                           T        V       H0       H01     AOSYM     SMH    MOLCAS    ERIS     OPER   

 PROGRAMS   *        TOTAL       INT
 CPU TIMES  *         0.34      0.19
 REAL TIME  *         0.62 SEC
 DISK USED  *        34.85 MB      
 **********************************************************************************************************************************


 PROGRAM * RHF-SCF (CLOSED SHELL)       Authors: W. Meyer, H.-J. Werner


 NUMBER OF ELECTRONS:       5+    5-    SPACE SYMMETRY=1    SPIN SYMMETRY: Singlet 
 CONVERGENCE THRESHOLDS:    1.00E-05 (Density)    1.00E-07 (Energy)
 INTEGRAL THRESHOLDS:       1.00E-11 (Initial)    1.00E-11 (Final)
 MAX. NUMBER OF ITERATIONS:       60
 INTERPOLATION TYPE:            DIIS
 INTERPOLATION STEPS:              2 (START)      1 (STEP)
 LEVEL SHIFTS:                  0.00 (CLOSED)  0.00 (OPEN) 



 Orbital guess generated from atomic densities. Full valence occupancy:    5

 Molecular orbital dump at record        2100.2

 Initial occupancy:   5

 Direct Fock-matrix evaluation.        Authors: Roland Lindh & Martin Schuetz (1993/96)

 Integral Threshold:                  0.1D-10
 Threshold for writing integrals:     0.1D-06
 Prescreening on density matrix:        ON 
 Calculation will be performed fully direct        

 ITERATION   DDIFF            GRAD            ENERGY        2-EL.EN.            DIPOLE MOMENTS         DIIS   CPU(IT)  CPU(TOT)
    1      0.000D+00      0.000D+00       -40.13744404     52.932752   -0.00000   -0.00000   -0.00000    0      0.9      1.7     start
    2      0.000D+00      0.121D-01       -40.15453260     51.727523   -0.00000   -0.00000    0.00000    1      0.5      2.2     diag
    3      0.139D-01      0.453D-02       -40.15658370     52.165401   -0.00000   -0.00000    0.00000    2      0.5      2.7     diag
    4      0.456D-02      0.117D-02       -40.15683110     52.101599   -0.00000   -0.00000    0.00000    3      0.5      3.2     diag
    5      0.213D-02      0.977D-04       -40.15683281     52.102515   -0.00000   -0.00000    0.00000    4      0.5      3.8     diag
    6      0.357D-03      0.357D-05       -40.15683281     52.102625   -0.00000   -0.00000    0.00000    5      0.5      4.3     diag
    7      0.116D-04      0.250D-06       -40.15683281     52.102623   -0.00000   -0.00000    0.00000    6      0.7      5.0     diag
    8      0.552D-06      0.126D-07       -40.15683281     52.102623   -0.00000   -0.00000    0.00000    0      0.9      5.8     orth

 Final occupancy:   5

 !RHF STATE 1.1 Energy                -40.156832807480
 Nuclear energy                        13.46700129
 One-electron energy                  -79.67514547
 Two-electron energy                   26.05131138
 Virial quotient                       -1.00401201
 !RHF STATE 1.1 Dipole moment          -0.00000115    -0.00000000     0.00000075
 Dipole moment /Debye                  -0.00000291    -0.00000000     0.00000190

 Orbital energies:

         1.1          2.1          3.1          4.1          5.1          6.1          7.1
    -11.207006    -0.933578    -0.548560    -0.548559    -0.548558     0.187225     0.274766

 HOMO      5.1    -0.548558 =     -14.9270eV
 LUMO      6.1     0.187225 =       5.0947eV
 LUMO-HOMO         0.735783 =      20.0217eV


 **********************************************************************************************************************************
 DATASETS  * FILE   NREC   LENGTH (MB)   RECORD NAMES
              1      19       30.17       500      610      700      900      950      970     1000      129      960     1100   
                                          VAR    BASINP    GEOM    SYMINP    ZMAT    AOBASIS   BASIS     P2S    ABASIS      S 
                                         1400     1410     1200     1210     1080     1600     1650     1300     1700   
                                           T        V       H0       H01     AOSYM     SMH    MOLCAS    ERIS     OPER   

              2       4        2.82       700     1000      520     2100   
                                         GEOM     BASIS   MCVARS     RHF  

 PROGRAMS   *        TOTAL        HF       INT
 CPU TIMES  *         6.19      5.83      0.19
 REAL TIME  *         7.95 SEC
 DISK USED  *        34.85 MB      
 **********************************************************************************************************************************

 Density functional group LDA=DIRAC+VWN5
 Functional: DIRAC(Automatically generated (new) DIRAC)                        Gradient terms: 0
 Functional: VWN5(Automatically generated (new) VWN5)                          Gradient terms: 0
 Use grid at  1800.2

 Functional: DIRAC                     Factor:  1.0000
 Functional: VWN5                      Factor:  1.0000

 Generated new metagrid on record  1800.2 with target accuracy 1.0D-06 and 14512 points in CPU time    0.3
 Computed new grid on record 1800.1 in CPU time    0.3
   12995 words reserved for DFT integration

 PROGRAM * RKS-SCF (Restricted closed shell Kohn-Sham)     Authors: W. Meyer, H.-J. Werner, P.J. Knowles, 1993

 NUMBER OF ELECTRONS:       5+    5-    SPACE SYMMETRY=1    SPIN SYMMETRY: Singlet 
 CONVERGENCE THRESHOLDS:    1.00E-05 (Density)    1.00E-06 (Energy)
 MAX. NUMBER OF ITERATIONS:        0
 INTERPOLATION TYPE:            DIIS
 INTERPOLATION STEPS:              2 (START)      1 (STEP)
 LEVEL SHIFTS:                  0.00 (CLOSED)  0.00 (OPEN) 



 Use fine grid record 1800.2 for energy threshold  1.0D-06
 Molecular orbitals read from record     2100.2  Type=RHF/CANONICAL (state 1.1)

 Molecular orbital dump at record        2101.2

 ITERATION    DDIFF          GRAD             ENERGY        2-EL.EN.            DIPOLE MOMENTS         DIIS   ORB.
    1      0.000D+00      0.000D+00       -40.05037751     65.255022   -0.00000   -0.00000    0.00000    0    start

 Final occupancy:   5

 !RKS STATE 1.1 Energy                -40.050377512016
 Nuclear energy                        13.46700129
 One-electron energy                  -79.67514547
 Two-electron energy                   32.62751095
 Density functional                    -6.46974428     DIRAC=-5.87666320 VWN5=-0.59308109
 Virial quotient                       -1.00135039
 !RKS STATE 1.1 Dipole moment          -0.00000115    -0.00000000     0.00000075
 Dipole moment /Debye                  -0.00000291    -0.00000000     0.00000190

 Orbital energies:

         1.1          2.1          3.1          4.1          5.1          6.1          7.1
    -11.207006    -0.933578    -0.548560    -0.548559    -0.548558     0.187225     0.274766

 HOMO      5.1    -0.548558 =     -14.9270eV
 LUMO      6.1     0.187225 =       5.0947eV
 LUMO-HOMO         0.735783 =      20.0217eV


 **********************************************************************************************************************************
 DATASETS  * FILE   NREC   LENGTH (MB)   RECORD NAMES
              1      20       30.63       500      610      700      900      950      970     1000      129      960     1100   
                                          VAR    BASINP    GEOM    SYMINP    ZMAT    AOBASIS   BASIS     P2S    ABASIS      S 
                                         1400     1410     1200     1210     1080     1600     1650     1300     1700     1800   
                                           T        V       H0       H01     AOSYM     SMH    MOLCAS    ERIS     OPER     GRID   

              2       6        5.33       700     1000      520     2100     1800     2101   
                                         GEOM     BASIS   MCVARS     RHF     GRID      RKS  

 PROGRAMS   *        TOTAL        KS        HF       INT
 CPU TIMES  *         6.59      0.40      5.83      0.19
 REAL TIME  *         8.37 SEC
 DISK USED  *        36.00 MB      
 **********************************************************************************************************************************


 PROGRAM * Intrinsic Basis Bonding Analysis (IBBA)          Author: G. Knizia

 Molecular orbitals read from record     2101.2  Type=RKS/CANONICAL (state 1.1)
 Fock matrix read from record            2101.2  Type=RKS/TOTAL (state 1.1)
 Orbital energies read from record       2101.2  Type=RKS/CANONICAL (state 1.1)
 Density matrix read from record         2101.2  Type=RKS/CHARGE (state 1.1)

 Number of core orbitals:           1 (   1 )
 Number of closed-shell orbitals:   4 (   4 )

 Basis set MINAO-AUTO-PP generated.      Number of basis functions:   9 

 Polarized AO type:                A = (O Ot + (1-O)(1-Ot)) P12
 Orthogonalization method:         Symmetric (Loewdin)
 Localization functional:          L = sum[A,i] <i|n_A|i>^4 -> max

 Localization group 1:   5 orbitals, occupancy  2.000
 Iterative localization: IB/PM,    5 iter; Final gradient 0.66E-09

 Bond order analysis:       [THRPRINT= 0.020]

   CEN ATOM   CEN ATOM     WIBERG.BO      RENORM.BO
     1   C  -   4   H       0.983745       1.000000
     1   C  -   5   H       0.983745       1.000000
     1   C  -   3   H       0.983745       1.000000
     1   C  -   2   H       0.983745       1.000000

     2   H  -   1   C       0.983745       1.000000

     3   H  -   1   C       0.983745       1.000000

     4   H  -   1   C       0.983745       1.000000

     5   H  -   1   C       0.983745       1.000000


 Valency analysis:

   CEN ATOM   TOT.VALENCE
     1   C       3.934979
     2   H       0.986216
     3   H       0.986216
     4   H       0.986216
     5   H       0.986216

 Total charge composition:

   CEN ATOM         s          p       ELECTRONS ->P.CHARGE
     1   C       3.03129    3.43832      6.46961   -0.46961
     2   H       0.88260                 0.88260    0.11740
     3   H       0.88260                 0.88260    0.11740
     4   H       0.88260                 0.88260    0.11740
     5   H       0.88260                 0.88260    0.11740

 Total charge composition, AO contributions:

   CEN ATOM SHL      SPHERICAL COMPONENTS
     1   C  1s       1.98963
     1   C  2s       1.04166
     1   C  2p       1.14611    1.14611    1.14611

     2   H  1s       0.88260

     3   H  1s       0.88260

     4   H  1s       0.88260

     5   H  1s       0.88260

 Summary of localized orbital composition:   [THRPRINT= 0.020]

   ORB  GRP  ORB.ENERGY      CENTERS/CHARGES
     1   1    -9.660274      C  1   2.000
     2   1    -0.450502      C  1   1.117   H  2   0.882
     3   1    -0.450501      C  1   1.117   H  3   0.882
     4   1    -0.450500      C  1   1.117   H  5   0.882
     5   1    -0.450500      C  1   1.117   H  4   0.882

 Localized orbitals saved to record      2101.2  (orbital set 2)


 **********************************************************************************************************************************
 DATASETS  * FILE   NREC   LENGTH (MB)   RECORD NAMES
              1      20       30.63       500      610      700      900      950      970     1000      129      960     1100   
                                          VAR    BASINP    GEOM    SYMINP    ZMAT    AOBASIS   BASIS     P2S    ABASIS      S 
                                         1400     1410     1200     1210     1080     1600     1650     1300     1700     1800   
                                           T        V       H0       H01     AOSYM     SMH    MOLCAS    ERIS     OPER     GRID   

              2       6        5.34       700     1000      520     2100     1800     2101   
                                         GEOM     BASIS   MCVARS     RHF     GRID      RKS  

 PROGRAMS   *        TOTAL      IBBA        KS        HF       INT
 CPU TIMES  *         6.61      0.02      0.40      5.83      0.19
 REAL TIME  *         8.40 SEC
 DISK USED  *        36.01 MB      
 **********************************************************************************************************************************

 IBBA/SV(P) energy=      0.000000000000

        KS-SCF          HF-SCF  
    -40.05037751    -40.15683281
 **********************************************************************************************************************************
 Molpro calculation terminated
