
 Primary working directories    : /local/molpro.LOgSeEEJsG
 Secondary working directories  : /local/molpro.LOgSeEEJsG
 Wavefunction directory         : /local/
 Main file repository           : /local/molpro.LOgSeEEJsG/

 id        : simonbennie

 Nodes     nprocs
 node32-046    1

 Using customized tuning parameters: mindgm=1; mindgv=20; mindgc=4; mindgr=1; noblas=0; minvec=7
 default implementation of scratch files=df  

 memory,500,m
 geomtyp=xyz
 nosym
 noorient
 geometry={
 Cl         0.00000        0.00000        0.00000
 }
 basis={default,sto-3g}
 {hf,direct;wf,17,1,1}
 
 basis={ default,6-31+G(d,p) }
 {ks,B3LYP5,direct;wf,17,1,1}
 {ibba,bonds=1}

 Variables initialized (920), CPU time= 0.01 sec
 Commands  initialized (754), CPU time= 0.01 sec, 615 directives.
 Default parameters read. Elapsed time= 0.08 sec

 Checking input...
 Passed
1


                                         ***  PROGRAM SYSTEM MOLPRO  ***
                                       Copyright, TTI GmbH Stuttgart, 2015
                                    Version 2018.0 linked Jul  6 2018 18:07:13


 **********************************************************************************************************************************
 LABEL *                                                                                 
  64 bit serial version                                                                  DATE: 11-Oct-18          TIME: 15:27:04  
 **********************************************************************************************************************************

 SHA1:             b58f8fddb9d75525be9261ebe3faf0e4279c479b
 **********************************************************************************************************************************
 SETTING GEOMTYP        =    XYZ

 Variable memory set to  500000000 words,  buffer space 

 ZSYMEL=NOSYM

 SETTING BASIS          =    STO-3G


 Recomputing integrals since basis changed


 Using spherical harmonics

 Library entry CL     S STO-3G               selected for orbital group  1
 Library entry CL     P STO-3G               selected for orbital group  1


 PROGRAM * SEWARD (Integral evaluation for generally contracted gaussian basis sets)     Author: Roland Lindh, 1990

 Geometry written to block  1 of record 700


 Point group  C1  



 ATOMIC COORDINATES

 NR  ATOM    CHARGE       X              Y              Z

   1  CL     17.00    0.000000000    0.000000000    0.000000000

 NUCLEAR CHARGE:                   17
 NUMBER OF PRIMITIVE AOS:          27
 NUMBER OF SYMMETRY AOS:           27
 NUMBER OF CONTRACTIONS:            9   (   9A   )
 NUMBER OF CORE ORBITALS:           5   (   5A   )
 NUMBER OF VALENCE ORBITALS:        4   (   4A   )


 NUCLEAR REPULSION ENERGY    0.00000000

 EXTRA SYMMETRY OF AOS IN SYMMETRY 1:   1 1 1 2 3 4 2 3 4

 Eigenvalues of metric

         1 0.599E+00 0.767E+00 0.767E+00 0.767E+00 0.988E+00 0.123E+01 0.123E+01 0.123E+01


 Contracted 2-electron integrals neglected if value below      1.0D-11
 AO integral compression algorithm  1   Integral accuracy      1.0D-11

     0.262 MB (compressed) written to integral file ( 57.4%)


 NUMBER OF SORTED TWO-ELECTRON INTEGRALS:       1035.     BUFFER LENGTH:  32768
 NUMBER OF SEGMENTS:   1  SEGMENT LENGTH:       1035      RECORD LENGTH: 524288

 Memory used in sort:       0.56 MW

 SORT1 READ        2025. AND WROTE         213. INTEGRALS IN      1 RECORDS. CPU TIME:     0.00 SEC, REAL TIME:     0.01 SEC
 SORT2 READ         213. AND WROTE        1035. INTEGRALS IN      1 RECORDS. CPU TIME:     0.00 SEC, REAL TIME:     0.00 SEC

 FILE SIZES:   FILE 1:    30.2 MBYTE,  FILE 4:     4.2 MBYTE,   TOTAL:     34.4 MBYTE

 OPERATOR DM      FOR CENTER  0  COORDINATES:    0.000000    0.000000    0.000000


 **********************************************************************************************************************************
 DATASETS  * FILE   NREC   LENGTH (MB)   RECORD NAMES
              1      19       29.94       500      610      700      900      950      970     1000      129      960     1100   
                                          VAR    BASINP    GEOM    SYMINP    ZMAT    AOBASIS   BASIS     P2S    ABASIS      S 
                                         1400     1410     1200     1210     1080     1600     1650     1300     1700   
                                           T        V       H0       H01     AOSYM     SMH    MOLCAS    ERIS     OPER   

 PROGRAMS   *        TOTAL       INT
 CPU TIMES  *         0.40      0.26
 REAL TIME  *         0.68 SEC
 DISK USED  *        34.69 MB
 **********************************************************************************************************************************


 PROGRAM * RHF-SCF (OPEN SHELL)       Authors: W. Meyer, H.-J. Werner


 NUMBER OF ELECTRONS:       9+    8-    SPACE SYMMETRY=1    SPIN SYMMETRY: Doublet 
 CONVERGENCE THRESHOLDS:    1.00E-05 (Density)    1.00E-07 (Energy)
 INTEGRAL THRESHOLDS:       1.00E-11 (Initial)    1.00E-11 (Final)
 MAX. NUMBER OF ITERATIONS:       60
 INTERPOLATION TYPE:            DIIS
 INTERPOLATION STEPS:              2 (START)      1 (STEP)
 LEVEL SHIFTS:                 -0.60 (CLOSED) -0.30 (OPEN) 



 Orbital guess generated from atomic densities. Full valence occupancy:    9

 Molecular orbital dump at record        2100.2

 Initial alpha occupancy:   9
 Initial beta  occupancy:   8
 Wave function symmetry:    1

 Direct Fock-matrix evaluation.        Author: H.-J. Werner (1996)

 Integral Threshold:                  0.1D-10

 ITERATION   DDIFF            GRAD            ENERGY        2-EL.EN.            DIPOLE MOMENTS         DIIS   CPU(IT)  CPU(TOT)
    1      0.000D+00      0.000D+00      -454.54206977    349.799221    0.00000    0.00000    0.00000    0      1.0      1.7     start
    2      0.000D+00      0.527D-02      -454.54219078    349.765615    0.00000    0.00000    0.00000    1      0.5      2.2     diag,B
    3      0.621D-03      0.625D-03      -454.54219251    349.761024    0.00000    0.00000    0.00000    2      0.5      2.7     diag,B
    4      0.838D-04      0.702D-14      -454.54219251    349.761024   -0.00000    0.00000   -0.00000    1      0.0      2.7     diag,B
    5      0.754D-15      0.726D-14      -454.54219251    349.761024   -0.00000   -0.00000   -0.00000    0      0.0      2.7     orth

 Final alpha occupancy:   9
 Final beta  occupancy:   8

 !RHF STATE  1.1 Energy              -454.542192507263
 Nuclear energy                         0.00000000
 One-electron energy                 -629.42270439
 Two-electron energy                  174.88051188
 Virial quotient                       -1.01791817
 !RHF STATE  1.1 Dipole moment         -0.00000000    -0.00000000    -0.00000000
 Dipole moment /Debye                  -0.00000000    -0.00000000    -0.00000000

 Orbital energies:

         1.1          2.1          3.1          4.1          5.1          6.1          7.1          8.1          9.1
   -103.737961   -10.419789    -7.864186    -7.858348    -7.858348    -0.976545    -0.429404    -0.429404    -0.513711


 HOMO      9.1    -0.513711 =     -13.9788eV


 **********************************************************************************************************************************
 DATASETS  * FILE   NREC   LENGTH (MB)   RECORD NAMES
              1      19       29.94       500      610      700      900      950      970     1000      129      960     1100   
                                          VAR    BASINP    GEOM    SYMINP    ZMAT    AOBASIS   BASIS     P2S    ABASIS      S 
                                         1400     1410     1200     1210     1080     1600     1650     1300     1700   
                                           T        V       H0       H01     AOSYM     SMH    MOLCAS    ERIS     OPER   

              2       4        2.75       700     1000      520     2100   
                                         GEOM     BASIS   MCVARS     RHF  

 PROGRAMS   *        TOTAL    HF-SCF       INT
 CPU TIMES  *         3.16      2.76      0.26
 REAL TIME  *         3.98 SEC
 DISK USED  *        34.69 MB
 **********************************************************************************************************************************
 SETTING BASIS          =    6-31+G(D,P)


 Recomputing integrals since basis changed


 Using spherical harmonics

 Library entry CL     S 6-31G                selected for orbital group  1
 Library entry CL     S 6-31++G              selected for orbital group  1
 Library entry CL     P 6-31G                selected for orbital group  1
 Library entry CL     P 6-31++G              selected for orbital group  1
 Library entry CL     D 6-31G*               selected for orbital group  1


 PROGRAM * SEWARD (Integral evaluation for generally contracted gaussian basis sets)     Author: Roland Lindh, 1990

 Geometry written to block  1 of record 700


 Point group  C1  



 ATOMIC COORDINATES

 NR  ATOM    CHARGE       X              Y              Z

   1  CL     17.00    0.000000000    0.000000000    0.000000000

 NUCLEAR CHARGE:                   17
 NUMBER OF PRIMITIVE AOS:          56
 NUMBER OF SYMMETRY AOS:           55
 NUMBER OF CONTRACTIONS:           22   (  22A   )
 NUMBER OF CORE ORBITALS:           5   (   5A   )
 NUMBER OF VALENCE ORBITALS:        4   (   4A   )


 NUCLEAR REPULSION ENERGY    0.00000000

 EXTRA SYMMETRY OF AOS IN SYMMETRY 1:   1 1 1 1 1 2 3 4 2 3   4 2 3 4 2 3 4 5 6 7   8 9

 Eigenvalues of metric

         1 0.608E-01 0.160E+00 0.160E+00 0.160E+00 0.445E+00 0.614E+00 0.614E+00 0.614E+00


 Contracted 2-electron integrals neglected if value below      1.0D-11
 AO integral compression algorithm  1   Integral accuracy      1.0D-11

     0.262 MB (compressed) written to integral file ( 42.6%)


 NUMBER OF SORTED TWO-ELECTRON INTEGRALS:      32131.     BUFFER LENGTH:  32768
 NUMBER OF SEGMENTS:   1  SEGMENT LENGTH:      32131      RECORD LENGTH: 524288

 Memory used in sort:       0.59 MW

 SORT1 READ       46086. AND WROTE        4475. INTEGRALS IN      1 RECORDS. CPU TIME:     0.00 SEC, REAL TIME:     0.01 SEC
 SORT2 READ        4475. AND WROTE       32131. INTEGRALS IN      1 RECORDS. CPU TIME:     0.01 SEC, REAL TIME:     0.01 SEC

 FILE SIZES:   FILE 1:    30.2 MBYTE,  FILE 4:     4.2 MBYTE,   TOTAL:     34.5 MBYTE

 OPERATOR DM      FOR CENTER  0  COORDINATES:    0.000000    0.000000    0.000000


 **********************************************************************************************************************************
 DATASETS  * FILE   NREC   LENGTH (MB)   RECORD NAMES
              1      19       30.01       500      610      700      900      950      970     1001      129      960     1100   
                                          VAR    BASINP    GEOM    SYMINP    ZMAT    AOBASIS   BASIS     P2S    ABASIS      S 
                                         1400     1410     1200     1210     1080     1600     1650     1300     1700   
                                           T        V       H0       H01     AOSYM     SMH    MOLCAS    ERIS     OPER   

              2       5        2.76       700     1000      520     2100     1001   
                                         GEOM     BASIS   MCVARS     RHF     BASIS   

 PROGRAMS   *        TOTAL       INT    HF-SCF       INT
 CPU TIMES  *         3.47      0.31      2.76      0.26
 REAL TIME  *         4.35 SEC
 DISK USED  *        37.25 MB
 **********************************************************************************************************************************

 Density functional group B3LYP5=B88+DIRAC+LYP+VWN5
 Functional: B88(Automatically generated (new) B88)                            Gradient terms: 1
 Functional: DIRAC(Automatically generated (new) DIRAC)                        Gradient terms: 0
 Functional: LYP(Automatically generated (new) LYP)                            Gradient terms: 1
 Functional: VWN5(Automatically generated (new) VWN5)                          Gradient terms: 0
 Use libxcgrid:  F
 Use grid at  1800.2


 Exact exchange will be calculated, factor:  0.2000

 Functional: B88                       Factor:  0.7200
 Functional: DIRAC                     Factor:  0.0800
 Functional: LYP                       Factor:  0.8100
 Functional: VWN5                      Factor:  0.1900

 Generated new metagrid on record  1800.2 with target accuracy 1.0D-06 and 882 points in CPU time    0.0
 Computed new grid on record 1800.1 in CPU time    0.0
   21480 words reserved for DFT integration

 PROGRAM * RKS-SCF (Restricted open shell Kohn-Sham)     Authors: W. Meyer, H.-J. Werner, P.J. Knowles, 1993

 NUMBER OF ELECTRONS:       9+    8-    SPACE SYMMETRY=1    SPIN SYMMETRY: Doublet 
 CONVERGENCE THRESHOLDS:    1.00E-05 (Density)    1.00E-06 (Energy)
 MAX. NUMBER OF ITERATIONS:       60
 INTERPOLATION TYPE:            DIIS
 INTERPOLATION STEPS:              2 (START)      1 (STEP)
 LEVEL SHIFTS:                 -0.60 (CLOSED) -0.30 (OPEN) 



 Use fine grid record 1800.2 for energy threshold  1.0D-06
 Molecular orbitals read from record     2100.2  Type=RHF/CANONICAL (state 1.1)

 Present basis size:      22
 Previous basis size:      9
 Previous occupation:      9
 Previous closed-shells:   8
 Previous core-orbitals:   5
 Present occupation:       9
 Present closed-shells:    8
 Present core-orbitals:    5
 Wavefunction symmetry:    1   Doublet 

 Orbital overlap <old|new>:  < 1.1| 1.1> = 0.999828   < 2.1| 2.1> = 0.999031   < 3.1| 3.1> = 0.998809   < 4.1| 4.1> = 0.998809
                             < 5.1| 5.1> = 0.998809   < 6.1| 6.1> = 0.997995   < 7.1| 7.1> = 0.997978   < 8.1| 8.1> = 0.997978
                             < 9.1| 9.1> = 0.997978


 Molecular orbital dump at record        2101.2

 ITERATION    DDIFF          GRAD             ENERGY        2-EL.EN.            DIPOLE MOMENTS         DIIS   ORB.
    1      0.000D+00      0.000D+00      -459.92415079    400.326511   -0.00000   -0.00000   -0.00000    0    start
    2      0.000D+00      0.493D-01      -460.05177512    395.608849    0.00000   -0.00000   -0.00000    1    diag,B
    3      0.475D-01      0.733D-02      -460.06462130    395.366577    0.00000   -0.00000   -0.00000    2    diag,B
    4      0.191D-01      0.307D-02      -460.06818829    394.972715    0.00000   -0.00000    0.00000    3    diag,B
    5      0.114D-01      0.789D-03      -460.06850950    394.916657    0.00000   -0.00000    0.00000    4    diag,B
    6      0.271D-02      0.249D-03      -460.06854234    394.873589    0.00000   -0.00000   -0.00000    5    diag,B
    7      0.115D-02      0.254D-04      -460.06854280    394.872794    0.00000   -0.00000   -0.00000    6    diag,B
    8      0.801D-04      0.113D-04      -460.06854311    394.872745    0.00000    0.00000   -0.00000    7    orth
    9      0.445D-04      0.877D-05      -460.06854332    394.872648    0.00000   -0.00000   -0.00000    8    diag,B
   10      0.271D-04      0.877D-05      -460.06854333    394.872648   -0.00000    0.00000   -0.00000    9    diag,B
   11      0.507D-06      0.877D-05      -460.06854363    394.872636   -0.00000    0.00000   -0.00000    0    orth

 Final alpha occupancy:   9
 Final beta  occupancy:   8

 !RKS STATE  1.1 Energy              -460.068543626233
 Nuclear energy                         0.00000000
 One-electron energy                 -634.86396196
 Two-electron energy                  197.43631812
 Density functional                   -22.64089979     B88=-27.49916160 DIRAC=-25.36242142 LYP= -0.69179701 VWN5= -1.32712708
 Virial quotient                       -1.00179375
 !RKS STATE  1.1 Dipole moment         -0.00000000     0.00000000    -0.00000000
 Dipole moment /Debye                  -0.00000000     0.00000000    -0.00000000

 Orbital energies:

         1.1          2.1          3.1          4.1          5.1          6.1          7.1          8.1          9.1         10.1
   -101.580679    -9.507618    -7.274238    -7.259770    -7.259769    -0.820482    -0.346700    -0.346671    -0.407400     0.023389

        11.1
      0.071501


 HOMO      9.1    -0.407400 =     -11.0859eV
 LUMO     10.1     0.023389 =       0.6364eV
 LUMO-HOMO         0.430789 =      11.7224eV


 **********************************************************************************************************************************
 DATASETS  * FILE   NREC   LENGTH (MB)   RECORD NAMES
              1      20       30.04       500      610      700      900      950      970     1001      129      960     1100   
                                          VAR    BASINP    GEOM    SYMINP    ZMAT    AOBASIS   BASIS     P2S    ABASIS      S 
                                         1400     1410     1200     1210     1080     1600     1650     1300     1700     1800   
                                           T        V       H0       H01     AOSYM     SMH    MOLCAS    ERIS     OPER     GRID   

              2       7        5.26       700     1000      520     2100     1001     1800     2101   
                                         GEOM     BASIS   MCVARS     RHF     BASIS    GRID      RKS  

 PROGRAMS   *        TOTAL    KS-SCF       INT    HF-SCF       INT
 CPU TIMES  *         3.64      0.17      0.31      2.76      0.26
 REAL TIME  *         4.96 SEC
 DISK USED  *        37.25 MB
 **********************************************************************************************************************************


 PROGRAM * Intrinsic Basis Bonding Analysis (IBBA)          Author: G. Knizia

 Molecular orbitals read from record     2101.2  Type=RKS/CANONICAL (state 1.1)
 Fock matrix read from record            2101.2  Type=RKS/TOTAL (state 1.1)
 Orbital energies read from record       2101.2  Type=RKS/CANONICAL (state 1.1)
 Density matrix read from record         2101.2  Type=RKS/CHARGE (state 1.1)

 Number of core orbitals:           5 (   5 )
 Number of closed-shell orbitals:   3 (   3 )
 Number of active  orbitals:        1 (   1 )

 Basis set MINAO-AUTO-PP generated.      Number of basis functions:   9 

 Polarized AO type:                A = (O Ot + (1-O)(1-Ot)) P12
 Orthogonalization method:         Symmetric (Loewdin)
 Localization functional:          L = sum[A,i] <i|n_A|i>^4 -> max

 Localization group 1:   8 orbitals, occupancy  2.000
 Iterative localization: IB/PM,    1 iter; Final gradient 0.00E+00

 Bond order analysis:       [THRPRINT= 0.020]

   CEN ATOM   CEN ATOM     WIBERG.BO      RENORM.BO


 Valency analysis:

   CEN ATOM   TOT.VALENCE
     1  CL      -0.000000
 Localization group 2:   1 orbitals, occupancy  1.000
 Iterative localization: IB/PM,    1 iter; Final gradient 0.00E+00

 Bond order analysis:       [THRPRINT= 0.020]

   CEN ATOM   CEN ATOM     WIBERG.BO      RENORM.BO


 Valency analysis:

   CEN ATOM   TOT.VALENCE
     1  CL       0.000000

 Total charge composition:

   CEN ATOM         s          p       ELECTRONS ->P.CHARGE
     1  CL       6.00000   11.00000     17.00000   -0.00000

 Total charge composition, AO contributions:

   CEN ATOM SHL      SPHERICAL COMPONENTS
     1  CL  1s       2.00000
     1  CL  2s       2.00000
     1  CL  3s       2.00000
     1  CL  2p       2.00000    1.99999    2.00000
     1  CL  3p       1.99820    1.01191    1.98990

 Active orbital charges:

   CEN ATOM         s          p       ELECTRONS ->SPIN.DEN
     1  CL       0.00000    1.00000      1.00000    1.00000

 Active orbital charges, AO contributions:

   CEN ATOM SHL      SPHERICAL COMPONENTS
     1  CL  1s       0.00000
     1  CL  2s       0.00000
     1  CL  3s       0.00000
     1  CL  2p       0.00000    0.00001    0.00000
     1  CL  3p       0.00180    0.98809    0.01010

 Summary of localized orbital composition:   [THRPRINT= 0.020]

   ORB  GRP  ORB.ENERGY      CENTERS/CHARGES
     1   1  -101.580679     CL  1   2.000
     2   1    -9.507618     CL  1   2.000
     3   1    -7.274238     CL  1   2.000
     4   1    -7.259770     CL  1   2.000
     5   1    -7.259769     CL  1   2.000
     6   1    -0.820481     CL  1   2.000
     7   1    -0.346700     CL  1   2.000
     8   1    -0.346671     CL  1   2.000
     9   2    -0.328039     CL  1   1.000

 Localized orbitals saved to record      2101.2  (orbital set 2)


 **********************************************************************************************************************************
 DATASETS  * FILE   NREC   LENGTH (MB)   RECORD NAMES
              1      20       30.04       500      610      700      900      950      970     1001      129      960     1100   
                                          VAR    BASINP    GEOM    SYMINP    ZMAT    AOBASIS   BASIS     P2S    ABASIS      S 
                                         1400     1410     1200     1210     1080     1600     1650     1300     1700     1800   
                                           T        V       H0       H01     AOSYM     SMH    MOLCAS    ERIS     OPER     GRID   

              2       7        5.26       700     1000      520     2100     1001     1800     2101   
                                         GEOM     BASIS   MCVARS     RHF     BASIS    GRID      RKS  

 PROGRAMS   *        TOTAL      IBBA    KS-SCF       INT    HF-SCF       INT
 CPU TIMES  *         3.66      0.02      0.17      0.31      2.76      0.26
 REAL TIME  *         4.99 SEC
 DISK USED  *        37.25 MB
 **********************************************************************************************************************************

 IBBA/6-31+G(D,P) energy=      0.000000000000

          KS-SCF          HF-SCF
   -460.06854363   -454.54219251
 **********************************************************************************************************************************
 Molpro calculation terminated
