
 Primary working directories    : /local
 Secondary working directories  : /local
 Wavefunction directory         : /local/
 Main file repository           : /local/

 SHA1      : b4a5b34a9e711420743f49e6833241d17c61fb3c
 NAME      : 2099.9.b4a5b34
 ARCHNAME  : linux/x86_64_openmp
 FC        : /cm/shared/languages/GCC-6.1/bin/gfortran
 BLASLIB   : -lblas
 id        : simonbennie

 Nodes     nprocs
 node35-037    1

 Using customized tuning parameters: mindgm=1; mindgv=20; mindgc=4; mindgr=1; noblas=0; minvec=7
 default implementation of scratch files=df  

 memory,500,m
 geomtyp=xyz
 nosym
 noorient
 geometry={
 Cl         0.00000        0.00000        0.00000
 }
 basis={ default,SV(P) }
 {hf;wf,17,1,1}
 {rDCSD,direct;wf,17,1,1}
 {ibba,bonds=1}

 Variables initialized (895), CPU time= 0.00 sec
 Commands  initialized (725), CPU time= 0.01 sec, 591 directives.
 Default parameters read. Elapsed time= 0.07 sec

 Checking input...
 Passed
1


                                         ***  PROGRAM SYSTEM MOLPRO  ***
                                       Copyright, TTI GmbH Stuttgart, 2015
                                    Version 2099.9 linked May 26 2017 16:03:21


 **********************************************************************************************************************************
 LABEL *                                                                                 
  64 bit serial version                                                                  DATE: 10-Mar-18          TIME: 17:55:38  
 **********************************************************************************************************************************

 SHA1:             b4a5b34a9e711420743f49e6833241d17c61fb3c
 **********************************************************************************************************************************
 SETTING GEOMTYP        =    XYZ

 Variable memory set to  500000000 words,  buffer space 

 ZSYMEL=NOSYM

 SETTING BASIS          =    SV(P)


 Recomputing integrals since basis changed


 Using spherical harmonics

 Library entry CL     S def2-SV(P)           selected for orbital group  1
 Library entry CL     P def2-SV(P)           selected for orbital group  1
 Library entry CL     D def2-SV(P)           selected for orbital group  1


 PROGRAM * SEWARD (Integral evaluation for generally contracted gaussian basis sets)     Author: Roland Lindh, 1990

 Geometry written to block  1 of record 700


 Point group  C1  



 ATOMIC COORDINATES

 NR  ATOM    CHARGE       X              Y              Z

   1  CL     17.00    0.000000000    0.000000000    0.000000000

 NUCLEAR CHARGE:                   17
 NUMBER OF PRIMITIVE AOS:          37
 NUMBER OF SYMMETRY AOS:           36
 NUMBER OF CONTRACTIONS:           18   (  18A   )
 NUMBER OF CORE ORBITALS:           5   (   5A   )
 NUMBER OF VALENCE ORBITALS:        4   (   4A   )


 NUCLEAR REPULSION ENERGY    0.00000000

 EXTRA SYMMETRY OF AOS IN SYMMETRY 1:   1 1 1 1 2 3 4 2 3 4   2 3 4 5 6 7 8 9

 Eigenvalues of metric

         1 0.116E+00 0.328E+00 0.328E+00 0.328E+00 0.621E+00 0.909E+00 0.909E+00 0.909E+00


 Contracted 2-electron integrals neglected if value below      1.0D-11
 AO integral compression algorithm  1   Integral accuracy      1.0D-11

     0.262 MB (compressed) written to integral file ( 46.3%)


 NUMBER OF SORTED TWO-ELECTRON INTEGRALS:      14706.     BUFFER LENGTH:  32768
 NUMBER OF SEGMENTS:   1  SEGMENT LENGTH:      14706      RECORD LENGTH: 524288

 Memory used in sort:       0.57 MW

 SORT1 READ       19124. AND WROTE        2041. INTEGRALS IN      1 RECORDS. CPU TIME:     0.00 SEC, REAL TIME:     0.00 SEC
 SORT2 READ        2041. AND WROTE       14706. INTEGRALS IN      1 RECORDS. CPU TIME:     0.00 SEC, REAL TIME:     0.01 SEC

 FILE SIZES:   FILE 1:    30.2 MBYTE,  FILE 4:     4.2 MBYTE,   TOTAL:     34.4 MBYTE

 OPERATOR DM      FOR CENTER  0  COORDINATES:    0.000000    0.000000    0.000000


 **********************************************************************************************************************************
 DATASETS  * FILE   NREC   LENGTH (MB)   RECORD NAMES
              1      19       29.97       500      610      700      900      950      970     1000      129      960     1100   
                                          VAR    BASINP    GEOM    SYMINP    ZMAT    AOBASIS   BASIS     P2S    ABASIS      S 
                                         1400     1410     1200     1210     1080     1600     1650     1300     1700   
                                           T        V       H0       H01     AOSYM     SMH    MOLCAS    ERIS     OPER   

 PROGRAMS   *        TOTAL       INT
 CPU TIMES  *         0.33      0.18
 REAL TIME  *         1.29 SEC
 DISK USED  *        34.70 MB      
 **********************************************************************************************************************************


 PROGRAM * RHF-SCF (OPEN SHELL)       Authors: W. Meyer, H.-J. Werner


 NUMBER OF ELECTRONS:       9+    8-    SPACE SYMMETRY=1    SPIN SYMMETRY: Doublet 
 CONVERGENCE THRESHOLDS:    1.00E-05 (Density)    1.00E-07 (Energy)
 MAX. NUMBER OF ITERATIONS:       60
 INTERPOLATION TYPE:            DIIS
 INTERPOLATION STEPS:              2 (START)      1 (STEP)
 LEVEL SHIFTS:                 -0.60 (CLOSED) -0.30 (OPEN) 



 Orbital guess generated from atomic densities. Full valence occupancy:    9

 Molecular orbital dump at record        2100.2

 Initial alpha occupancy:   9
 Initial beta  occupancy:   8
 Wave function symmetry:    1

 ITERATION    DDIFF          GRAD             ENERGY        2-EL.EN.            DIPOLE MOMENTS         DIIS   ORB.
    1      0.000D+00      0.000D+00      -459.31480371    350.604502   -0.00000   -0.00000   -0.00000    0    start
    2      0.000D+00      0.223D-02      -459.31535580    350.956619   -0.00000   -0.00000    0.00000    1    diag,B
    3      0.242D-02      0.533D-03      -459.31540371    351.007765    0.00000    0.00000    0.00000    2    diag,B
    4      0.948D-03      0.141D-03      -459.31540761    351.002909   -0.00000    0.00000    0.00000    3    diag,B
    5      0.416D-03      0.260D-04      -459.31540775    351.001552   -0.00000   -0.00000    0.00000    4    diag,B
    6      0.901D-04      0.168D-05      -459.31540775    351.001504   -0.00000    0.00000   -0.00000    5    diag,B
    7      0.173D-05      0.270D-06      -459.31540775    351.001509   -0.00000    0.00000    0.00000    0    orth

 Final alpha occupancy:   9
 Final beta  occupancy:   8

 !RHF STATE 1.1 Energy               -459.315407745749
 Nuclear energy                         0.00000000
 One-electron energy                 -634.81616242
 Two-electron energy                  175.50075467
 Virial quotient                       -0.99999680
 !RHF STATE 1.1 Dipole moment          -0.00000000     0.00000000     0.00000000
 Dipole moment /Debye                  -0.00000000     0.00000000     0.00000000

 Orbital energies:

         1.1          2.1          3.1          4.1          5.1          6.1          7.1          8.1          9.1         10.1
   -104.830294   -10.590944    -8.065544    -8.061111    -8.061111    -1.058409    -0.480459    -0.480459    -0.557995     0.609508

        11.1
      0.947881

 HOMO      9.1    -0.557995 =     -15.1838eV
 LUMO     10.1     0.609508 =      16.5855eV
 LUMO-HOMO         1.167502 =      31.7694eV


 **********************************************************************************************************************************
 DATASETS  * FILE   NREC   LENGTH (MB)   RECORD NAMES
              1      19       29.97       500      610      700      900      950      970     1000      129      960     1100   
                                          VAR    BASINP    GEOM    SYMINP    ZMAT    AOBASIS   BASIS     P2S    ABASIS      S 
                                         1400     1410     1200     1210     1080     1600     1650     1300     1700   
                                           T        V       H0       H01     AOSYM     SMH    MOLCAS    ERIS     OPER   

              2       4        2.75       700     1000      520     2100   
                                         GEOM     BASIS   MCVARS     RHF  

 PROGRAMS   *        TOTAL        HF       INT
 CPU TIMES  *         0.40      0.07      0.18
 REAL TIME  *         1.39 SEC
 DISK USED  *        34.70 MB      
 **********************************************************************************************************************************


 PROGRAM * CCSD (Restricted open-shell coupled cluster)     Authors: C. Hampel, H.-J. Werner, 1991, M. Deegan, P.J. Knowles, 1992

                              Distinguishable Cluster modification by D. Kats, 2013

 Convergence thresholds:  THRVAR = 1.00D-08  THRDEN = 1.00D-06

 Number of core orbitals:           5 (   5 )
 Number of closed-shell orbitals:   3 (   3 )
 Number of active  orbitals:        1 (   1 )
 Number of external orbitals:       9 (   9 )

 Number of N-1 electron functions:               7
 Number of N-2 electron functions:              21
 Number of singly external CSFs:                70
 Number of doubly external CSFs:              1605
 Total number of CSFs:                        1675

 Molecular orbitals read from record     2100.2  Type=RHF/CANONICAL (state 1.1)

 Integral transformation finished. Total CPU:   0.00 sec, npass=  1  Memory used:   0.09 MW

 Starting RMP2 calculation, locsing= 0

 Wavefunction is spin-projected

 ITER.      SQ.NORM     CORR.ENERGY   TOTAL ENERGY   ENERGY CHANGE        DEN1      VAR(S)    VAR(P)  DIIS     TIME
   1      1.03726336    -0.11290781  -459.42831555    -0.11290781    -0.00037854  0.37D-05  0.12D-03  1  1     0.01
   2      1.03753832    -0.11331147  -459.42871921    -0.00040366    -0.00000006  0.41D-09  0.17D-07  2  2     0.01
   3      1.03753901    -0.11331189  -459.42871963    -0.00000042    -0.00000000  0.91D-12  0.10D-10  3  3     0.01

 Norm of t1 vector:      0.03160464      S-energy:    -0.00235555      T1 diagnostic:  0.00000778
 Norm of t2 vector:      0.19115481      P-energy:    -0.11095634
                                         Alpha-Beta:  -0.08379054
                                         Alpha-Alpha: -0.01837973
                                         Beta-Beta:   -0.00878606

 Spin contamination <S**2-Sz**2-Sz>     0.00000000
  Reference energy                   -459.315407745750
  RHF-RMP2 correlation energy          -0.113311885551
 !RHF-RMP2 energy                    -459.428719631300
 (NB above energy spin projected)

 Starting RDCSD calculation

 ITER.      SQ.NORM     CORR.ENERGY   TOTAL ENERGY   ENERGY CHANGE        DEN1      VAR(S)    VAR(P)  DIIS     TIME
   1      1.04673313    -0.12601354  -459.44142128    -0.12601354    -0.00415944  0.15D-03  0.12D-02  1  1     0.02
   2      1.05116172    -0.13121344  -459.44662119    -0.00519990    -0.00009568  0.65D-05  0.27D-04  2  2     0.03
   3      1.05169484    -0.13161646  -459.44702420    -0.00040301    -0.00000117  0.31D-06  0.20D-06  3  3     0.03
   4      1.05170886    -0.13162329  -459.44703103    -0.00000683    -0.00000003  0.86D-08  0.54D-08  4  4     0.04
   5      1.05170885    -0.13162248  -459.44703022     0.00000081    -0.00000000  0.39D-10  0.12D-09  5  5     0.05

 Norm of t1 vector:      0.04144191      S-energy:    -0.00283866      T1 diagnostic:  0.00429225
                                                                       D1 diagnostic:  0.00753207
 Norm of t2 vector:      0.22358761      P-energy:    -0.12878382
                                         Alpha-Beta:  -0.10089058
                                         Alpha-Alpha: -0.01894316
                                         Beta-Beta:   -0.00895008

 Doubles amplitudes (print threshold =  0.500E-01):

         I         J         SYM. A    SYM. B    A         B      T(IJ, AB) [Alpha-Beta]

         4         1         1         1         3         1     -0.05287805

 Spin contamination <S**2-Sz**2-Sz>     0.00000000


 RESULTS
 =======

  Reference energy                   -459.315407745750
  RDCSD singles energy                 -0.002838660684
  RDCSD pair energy                    -0.128783815607
  RDCSD correlation energy             -0.131622476291

 !RHF-RDCSD energy                   -459.447030222041

 Program statistics:

 Available memory in ccsd:               499999823
 Min. memory needed in ccsd:                 11986
 Max. memory used in ccsd:                   14722
 Max. memory used in cckext:                 54417 ( 5 integral passes)
 Max. memory used in cckint:                 91490 ( 1 integral passes)



 **********************************************************************************************************************************
 DATASETS  * FILE   NREC   LENGTH (MB)   RECORD NAMES
              1      19       29.97       500      610      700      900      950      970     1000      129      960     1100   
                                          VAR    BASINP    GEOM    SYMINP    ZMAT    AOBASIS   BASIS     P2S    ABASIS      S 
                                         1400     1410     1200     1210     1080     1600     1650     1300     1700   
                                           T        V       H0       H01     AOSYM     SMH    MOLCAS    ERIS     OPER   

              2       4        2.75       700     1000      520     2100   
                                         GEOM     BASIS   MCVARS     RHF  

 PROGRAMS   *        TOTAL     RDCSD        HF       INT
 CPU TIMES  *         0.50      0.10      0.07      0.18
 REAL TIME  *         1.53 SEC
 DISK USED  *        34.70 MB      
 **********************************************************************************************************************************


 PROGRAM * Intrinsic Basis Bonding Analysis (IBBA)          Author: G. Knizia

 Molecular orbitals read from record     2100.2  Type=RHF/CANONICAL (state 1.1)
 Fock matrix read from record            2100.2  Type=RHF/TOTAL (state 1.1)
 Orbital energies read from record       2100.2  Type=RHF/CANONICAL (state 1.1)
 Density matrix read from record         2100.2  Type=RHF/CHARGE (state 1.1)

 Number of core orbitals:           5 (   5 )
 Number of closed-shell orbitals:   3 (   3 )
 Number of active  orbitals:        1 (   1 )

 Basis set MINAO-AUTO-PP generated.      Number of basis functions:   9 

 Polarized AO type:                A = (O Ot + (1-O)(1-Ot)) P12
 Orthogonalization method:         Symmetric (Loewdin)
 Localization functional:          L = sum[A,i] <i|n_A|i>^4 -> max

 Localization group 1:   8 orbitals, occupancy  2.000
 Iterative localization: IB/PM,    1 iter; Final gradient 0.00E+00

 Bond order analysis:       [THRPRINT= 0.020]

   CEN ATOM   CEN ATOM     WIBERG.BO      RENORM.BO


 Valency analysis:

   CEN ATOM   TOT.VALENCE
     1  CL      -0.000000
 Localization group 2:   1 orbitals, occupancy  1.000
 Iterative localization: IB/PM,    1 iter; Final gradient 0.00E+00

 Bond order analysis:       [THRPRINT= 0.020]

   CEN ATOM   CEN ATOM     WIBERG.BO      RENORM.BO


 Valency analysis:

   CEN ATOM   TOT.VALENCE
     1  CL       0.000000

 Total charge composition:

   CEN ATOM         s          p       ELECTRONS ->P.CHARGE
     1  CL       6.00000   11.00000     17.00000   -0.00000

 Total charge composition, AO contributions:

   CEN ATOM SHL      SPHERICAL COMPONENTS
     1  CL  1s       2.00000
     1  CL  2s       2.00000
     1  CL  3s       2.00000
     1  CL  2p       2.00000    2.00000    2.00000
     1  CL  3p       1.99158    1.26279    1.74563

 Active orbital charges:

   CEN ATOM         s          p       ELECTRONS ->SPIN.DEN
     1  CL       0.00000    1.00000      1.00000    1.00000

 Active orbital charges, AO contributions:

   CEN ATOM SHL      SPHERICAL COMPONENTS
     1  CL  1s       0.00000
     1  CL  2s       0.00000
     1  CL  3s       0.00000
     1  CL  2p       0.00000    0.00000    0.00000
     1  CL  3p       0.00842    0.73721    0.25437

 Summary of localized orbital composition:   [THRPRINT= 0.020]

   ORB  GRP  ORB.ENERGY      CENTERS/CHARGES
     1   1  -104.830294     CL  1   2.000
     2   1   -10.590944     CL  1   2.000
     3   1    -8.065544     CL  1   2.000
     4   1    -8.061110     CL  1   2.000
     5   1    -8.061110     CL  1   2.000
     6   1    -1.058409     CL  1   2.000
     7   1    -0.480459     CL  1   2.000
     8   1    -0.480459     CL  1   2.000
     9   2    -0.286739     CL  1   1.000

 Localized orbitals saved to record      2100.2  (orbital set 2)


 **********************************************************************************************************************************
 DATASETS  * FILE   NREC   LENGTH (MB)   RECORD NAMES
              1      19       29.97       500      610      700      900      950      970     1000      129      960     1100   
                                          VAR    BASINP    GEOM    SYMINP    ZMAT    AOBASIS   BASIS     P2S    ABASIS      S 
                                         1400     1410     1200     1210     1080     1600     1650     1300     1700   
                                           T        V       H0       H01     AOSYM     SMH    MOLCAS    ERIS     OPER   

              2       4        2.76       700     1000      520     2100   
                                         GEOM     BASIS   MCVARS     RHF  

 PROGRAMS   *        TOTAL      IBBA     RDCSD        HF       INT
 CPU TIMES  *         0.51      0.01      0.10      0.07      0.18
 REAL TIME  *         1.55 SEC
 DISK USED  *        34.70 MB      
 **********************************************************************************************************************************

 IBBA/SV(P) energy=      0.000000000000

        RDCSD           HF-SCF  
   -459.44703022   -459.31540775
 **********************************************************************************************************************************
 Molpro calculation terminated
