
 Primary working directories    : /mnt/storage/home/lb17101/scratch/1893210/molpro.9ubHcs8do5
 Secondary working directories  : /mnt/storage/home/lb17101/scratch/1893210/molpro.9ubHcs8do5
 Wavefunction directory         : /mnt/storage/home/lb17101/nonconverged/htbh38/
 Main file repository           : /mnt/storage/home/lb17101/nonconverged/htbh38/

 id        : simonbennie

 Nodes                   nprocs
 compute074.bc4.acrc.priv    4

 Using customized tuning parameters: mindgm=1; mindgv=20; mindgc=4; mindgr=1; noblas=0; minvec=7
 default implementation of scratch files=sf  


 Variables initialized (924), CPU time= 0.01 sec
 memory,500,m
 geomtyp=xyz
 nosym
 noorient
 geometry={
 F          0.00000        0.00000        0.00000
 }
 basis={ default,svp }
 {ks,B97,direct;wf,9,1,1}
 
 Commands  initialized (760), CPU time= 0.01 sec, 616 directives.
 Default parameters read. Elapsed time= 0.05 sec

 Checking input...
 Passed
1


                                         ***  PROGRAM SYSTEM MOLPRO  ***
                                       Copyright, TTI GmbH Stuttgart, 2015
                                    Version 2018.1 linked Oct 16 2018 14:32:03


 **********************************************************************************************************************************
 LABEL *                                                                                 
  64 bit mpp version                                                                     DATE: 06-Mar-19          TIME: 16:21:24  
 **********************************************************************************************************************************

 SHA1:             d673ad554fd0a1ae99daa449513f8b88cca0f763
 **********************************************************************************************************************************
 SETTING GEOMTYP        =    XYZ

 Variable memory set to  500000000 words,  buffer space 

 ZSYMEL=NOSYM

 SETTING BASIS          =    SVP


 Recomputing integrals since basis changed


 Using spherical harmonics

 Library entry F      S def2-SVP             selected for orbital group  1
 Library entry F      P def2-SVP             selected for orbital group  1
 Library entry F      D def2-SVP             selected for orbital group  1


 PROGRAM * SEWARD (Integral evaluation for generally contracted gaussian basis sets)     Author: Roland Lindh, 1990

 Geometry written to block  1 of record 700


 Point group  C1  



 ATOMIC COORDINATES

 NR  ATOM    CHARGE       X              Y              Z

   1  F       9.00    0.000000000    0.000000000    0.000000000

 NUCLEAR CHARGE:                    9
 NUMBER OF PRIMITIVE AOS:          25
 NUMBER OF SYMMETRY AOS:           24
 NUMBER OF CONTRACTIONS:           14   (   14A   )
 NUMBER OF CORE ORBITALS:           1   (    1A   )
 NUMBER OF VALENCE ORBITALS:        4   (    4A   )


 NUCLEAR REPULSION ENERGY    0.00000000

 EXTRA SYMMETRY OF AOS IN SYMMETRY 1:   1 1 1 2 3 4 2 3 4 5   6 7 8 9

 Eigenvalues of metric

         1 0.189E+00 0.509E+00 0.509E+00 0.509E+00 0.883E+00 0.100E+01 0.100E+01 0.100E+01


 Contracted 2-electron integrals neglected if value below      1.0D-11
 AO integral compression algorithm  1   Integral accuracy      1.0D-11

     1.049 MB (compressed) written to integral file ( 50.7%)

     Node minimum: 0.262 MB, node maximum: 0.262 MB


 NUMBER OF SORTED TWO-ELECTRON INTEGRALS:       1404.     BUFFER LENGTH:  32768
 NUMBER OF SEGMENTS:   1  SEGMENT LENGTH:       1404      RECORD LENGTH: 524288

 Memory used in sort:       0.56 MW

 SORT1 READ        6730. AND WROTE         177. INTEGRALS IN      1 RECORDS. CPU TIME:     0.04 SEC, REAL TIME:     0.04 SEC
 SORT2 READ         776. AND WROTE        5565. INTEGRALS IN      4 RECORDS. CPU TIME:     0.00 SEC, REAL TIME:     0.01 SEC

 Node minimum:        1352.  Node maximum:        1431. integrals

 OPERATOR DM      FOR CENTER  0  COORDINATES:    0.000000    0.000000    0.000000


 **********************************************************************************************************************************
 DATASETS  * FILE   NREC   LENGTH (MB)   RECORD NAMES
              1      18       29.94       500      610      700      900      950      970     1000      129      960     1100   
                                          VAR    BASINP    GEOM    SYMINP    ZMAT    AOBASIS   BASIS     P2S    ABASIS      S 
                                         1400     1410     1200     1210     1080     1600     1650     1700   
                                           T        V       H0       H01     AOSYM     SMH    MOLCAS    OPER   

 PROGRAMS   *        TOTAL       INT
 CPU TIMES  *         0.58      0.29
 REAL TIME  *         0.93 SEC
 DISK USED  *        30.20 MB (local),      137.60 MB (total)
 GA USED    *         0.00 MB       (max)       0.00 MB       (current)
 **********************************************************************************************************************************

 Density functional group B97=B97DF
 Functional: B97DF(Automatically generated (new) B97DF)                        Gradient terms: 1
 Use libxcgrid:  F
 Use grid at  1800.2


 Exact exchange will be calculated, factor:  0.1943

 Functional: B97DF                     Factor:  1.0000

 Generated new metagrid on record  1800.2 with target accuracy 1.0D-06 and 672 points in CPU time    0.0
 Computed new grid on record 1800.1 in CPU time    0.0
   14881 words reserved for DFT integration

 PROGRAM * RKS-SCF (Restricted open shell Kohn-Sham)     Authors: W. Meyer, H.-J. Werner, P.J. Knowles, 1993

 NUMBER OF ELECTRONS:       5+    4-    SPACE SYMMETRY=1    SPIN SYMMETRY: Doublet 
 CONVERGENCE THRESHOLDS:    1.00E-05 (Density)    1.00E-06 (Energy)
 MAX. NUMBER OF ITERATIONS:       60
 INTERPOLATION TYPE:            DIIS
 INTERPOLATION STEPS:              2 (START)      1 (STEP)
 LEVEL SHIFTS:                 -0.60 (CLOSED) -0.30 (OPEN) 



 Use fine grid record 1800.2 for energy threshold  1.0D-06
 Orbital guess generated from atomic densities. Full valence occupancy:    5

 Molecular orbital dump at record        2100.2

 Initial alpha occupancy:   5
 Initial beta  occupancy:   4
 Wave function symmetry:    1

 ITERATION    DDIFF          GRAD             ENERGY        2-EL.EN.            DIPOLE MOMENTS         DIIS   ORB.
    1      0.000D+00      0.000D+00       -99.60587076     95.813738    0.00000   -0.00000    0.00000    0    start
    2      0.000D+00      0.399D-02       -99.60692250     95.989175   -0.00000   -0.00000    0.00000    1    diag,B
    3      0.310D-02      0.118D-02       -99.60699703     95.902931    0.00000   -0.00000    0.00000    2    diag,B
    4      0.136D-02      0.296D-03       -99.60700352     95.932240    0.00000   -0.00000    0.00000    3    diag,B
    5      0.280D-03      0.615D-04       -99.60700442     95.929443   -0.00000    0.00000    0.00000    4    diag,B
    6      0.999D-04      0.271D-04       -99.60700517     95.929391    0.00000    0.00000    0.00000    5    diag,B
    7      0.775D-04      0.267D-04       -99.60700893     95.929415   -0.00000    0.00000    0.00000    6    fixocc
    8      0.408D-03      0.247D-04       -99.60703054     95.928050    0.00000    0.00000    0.00000    7    diag,B
    9      0.483D-02      0.327D-04       -99.60703054     95.927951    0.00000    0.00000    0.00000    8    diag,B
   10      0.538D-04      0.361D-04       -99.60703058     95.928153    0.00000    0.00000    0.00000    9    orth
   11      0.260D-04      0.282D-04       -99.60703066     95.928983   -0.00000    0.00000    0.00000    9    diag,B
   12      0.924D-04      0.556D-05       -99.60703066     95.928895   -0.00000   -0.00000    0.00000    9    diag,B
   13      0.737D-05      0.302D-05       -99.60703068     95.928851    0.00000   -0.00000   -0.00000    0    orth

 Final alpha occupancy:   5
 Final beta  occupancy:   4

 !RKS STATE  1.1 Energy               -99.607030677663
 Nuclear energy                         0.00000000
 One-electron energy                 -139.16454261
 Two-electron energy                   47.96442541
 Density functional                    -8.40691348     B97DF=-8.40691348
 Virial quotient                       -1.00388355
 !RKS STATE  1.1 Dipole moment          0.00000000    -0.00000000    -0.00000000
 Dipole moment /Debye                   0.00000000    -0.00000000    -0.00000000

 Orbital energies:

         1.1          2.1          3.1          4.1          5.1          6.1          7.1
    -24.730364    -1.141837    -0.433650    -0.433267    -0.535527     1.018970     1.057496


 HOMO      5.1    -0.535527 =     -14.5724eV
 LUMO      6.1     1.018970 =      27.7276eV
 LUMO-HOMO         1.554497 =      42.3000eV


 **********************************************************************************************************************************
 DATASETS  * FILE   NREC   LENGTH (MB)   RECORD NAMES
              1      19       29.94       500      610      700      900      950      970     1000      129      960     1100   
                                          VAR    BASINP    GEOM    SYMINP    ZMAT    AOBASIS   BASIS     P2S    ABASIS      S 
                                         1400     1410     1200     1210     1080     1600     1650     1700     1800   
                                           T        V       H0       H01     AOSYM     SMH    MOLCAS    OPER     GRID   

              2       5        2.75       700     1000      520     1800     2100   
                                         GEOM     BASIS   MCVARS    GRID      RKS  

 PROGRAMS   *        TOTAL    KS-SCF       INT
 CPU TIMES  *         0.72      0.14      0.29
 REAL TIME  *         1.20 SEC
 DISK USED  *        32.76 MB (local),      147.82 MB (total)
 SF USED    *         0.00 MB
 GA USED    *         0.09 MB       (max)       0.09 MB       (current)
 **********************************************************************************************************************************

 B97/SVP energy=    -99.607030677663

          KS-SCF
    -99.60703068
 **********************************************************************************************************************************
 Molpro calculation terminated
