
 Primary working directories    : /local
 Secondary working directories  : /local
 Wavefunction directory         : /local/
 Main file repository           : /local/

 SHA1      : b9319c725c8a29ac6166ac31fc2b6d7de1ab7ce4
 NAME      : 2012.1.57
 ARCHNAME  : Linux/x86_64
 FC        : /cm/shared/languages/GCC-7.1.0/bin/gfortran
 FCVERSION : 7.1.0
 BLASLIB   : -L/usr/lib64 -lblas
 id        : simonbennie

 Nodes     nprocs
 node33-048    1

 Using customized tuning parameters: mindgm=1; mindgv=20; mindgc=4; mindgr=1; noblas=0; minvec=7
 default implementation of scratch files=df  

 memory,500,m
 geomtyp=xyz
 nosym
 noorient
 geometry={
 F          0.00000        0.00000        0.00000
 }
 basis={default,sto-3g}
 {hf,direct;wf,9,1,1}
 
 basis={ default,6-31+G(d,p) }
 {ks,M06-L,direct;disp;wf,9,1,1}
 

 Variables initialized (782), CPU time= 0.01 sec
 Commands  initialized (547), CPU time= 0.01 sec, 517 directives.
 Default parameters read. Elapsed time= 0.18 sec

 Checking input...
 Passed
1


                                         ***  PROGRAM SYSTEM MOLPRO  ***
                         Copyright, University College Cardiff Consultants Limited, 2008

                                    Version 2012.1 linked Aug  7 2018 17:05:12


 **********************************************************************************************************************************
 LABEL *                                                                                 
 Linux-2.6.32-642.6.2.el6.x86_64/node33-048(x86_64) 64 bit serial version                DATE: 12-Oct-18          TIME: 11:45:37  
 **********************************************************************************************************************************

 SHA1:             b9319c725c8a29ac6166ac31fc2b6d7de1ab7ce4
 **********************************************************************************************************************************
 SETTING GEOMTYP        =    XYZ

 Variable memory set to  500000000 words,  buffer space   230000 words

 ZSYMEL=NOSYM

 SETTING BASIS          =    STO-3G


 Recomputing integrals since basis changed


 Using spherical harmonics

 Library entry F      S STO-3G               selected for orbital group  1
 Library entry F      P STO-3G               selected for orbital group  1

1PROGRAM * SEWARD (Integral evaluation for generally contracted gaussian basis sets)     Author: Roland Lindh, 1990

 Geometry written to block  1 of record 700


 Point group  C1  



 ATOMIC COORDINATES

 NR  ATOM    CHARGE       X              Y              Z

   1  F       9.00    0.000000000    0.000000000    0.000000000

 NUCLEAR CHARGE:                    9
 NUMBER OF PRIMITIVE AOS:          15
 NUMBER OF SYMMETRY AOS:           15
 NUMBER OF CONTRACTIONS:            5   (   5A   )
 NUMBER OF CORE ORBITALS:           1   (   1A   )
 NUMBER OF VALENCE ORBITALS:        4   (   4A   )


 NUCLEAR REPULSION ENERGY    0.00000000

 EXTRA SYMMETRY OF AOS IN SYMMETRY 1:   1 1 2 3 4

 Eigenvalues of metric

         1 0.762E+00 0.100E+01 0.100E+01 0.100E+01 0.124E+01


 Contracted 2-electron integrals neglected if value below      1.0D-11
 AO integral compression algorithm  1   Integral accuracy      1.0D-11

     0.262 MB (compressed) written to integral file ( 98.8%)


 NUMBER OF SORTED TWO-ELECTRON INTEGRALS:        120.     BUFFER LENGTH:  32768
 NUMBER OF SEGMENTS:   1  SEGMENT LENGTH:        120      RECORD LENGTH: 524288

 Memory used in sort:       0.56 MW

 SORT1 READ         169. AND WROTE          33. INTEGRALS IN      1 RECORDS. CPU TIME:     0.00 SEC, REAL TIME:     0.01 SEC
 SORT2 READ          33. AND WROTE         120. INTEGRALS IN      1 RECORDS. CPU TIME:     0.00 SEC, REAL TIME:     0.00 SEC

 FILE SIZES:   FILE 1:     7.8 MBYTE,  FILE 4:     4.2 MBYTE,   TOTAL:     12.0 MBYTE

 OPERATOR DM      FOR CENTER  0  COORDINATES:    0.000000    0.000000    0.000000


 **********************************************************************************************************************************
 DATASETS  * FILE   NREC   LENGTH (MB)   RECORD NAMES
              1      19        7.50       500      610      700      900      950      970     1000      129      960     1100   
                                          VAR    BASINP    GEOM    SYMINP    ZMAT    AOBASIS   BASIS     P2S    ABASIS      S 
                                         1400     1410     1200     1210     1080     1600     1650     1300     1700   
                                           T        V       H0       H01     AOSYM     SMH    MOLCAS    ERIS     OPER   

 PROGRAMS   *        TOTAL       INT
 CPU TIMES  *         0.30      0.21
 REAL TIME  *         1.15 SEC
 DISK USED  *        12.24 MB      
 **********************************************************************************************************************************

1PROGRAM * RHF-SCF (OPEN SHELL)       Authors: W. Meyer, H.-J. Werner


 NUMBER OF ELECTRONS:       5+    4-    SPACE SYMMETRY=1    SPIN SYMMETRY: Doublet 
 CONVERGENCE THRESHOLDS:    1.00E-05 (Density)    1.00E-07 (Energy)
 INTEGRAL THRESHOLDS:       1.00E-11 (Initial)    1.00E-11 (Final)
 MAX. NUMBER OF ITERATIONS:       60
 INTERPOLATION TYPE:            DIIS
 INTERPOLATION STEPS:              2 (START)      1 (STEP)
 LEVEL SHIFTS:                 -0.30 (CLOSED) -0.00 (OPEN) 



 Orbital guess generated from atomic densities. Full valence occupancy:    5

 Molecular orbital dump at record        2100.2

 Direct Fock-matrix evaluation.        Author: H.-J. Werner (1996)

 Integral Threshold:                  0.1D-10

 ITERATION   DDIFF            GRAD            ENERGY        2-EL.EN.            DIPOLE MOMENTS         DIIS   CPU(IT)  CPU(TOT)
    1      0.000D+00      0.000D+00       -97.98650496     81.332009    0.00000    0.00000    0.00000    0      0.8      1.6     start
    2      0.000D+00      0.888D-15       -97.98650496     81.332009    0.00000    0.00000    0.00000    0      0.0      1.6     orth

 Final alpha occupancy:   5
 Final beta  occupancy:   4

 !RHF STATE 1.1 Energy                -97.986504958736
 Nuclear energy                         0.00000000
 One-electron energy                 -138.65250960
 Two-electron energy                   40.66600465
 Virial quotient                       -1.00948589
 !RHF STATE 1.1 Dipole moment           0.00000000     0.00000000     0.00000000
 Dipole moment /Debye                   0.00000000     0.00000000     0.00000000

 Orbital energies:

         1.1          2.1          3.1          4.1          5.1
    -25.955724    -1.412570    -0.489897    -0.489897    -0.624323

 HOMO      5.1    -0.624323 =     -16.9887eV


 **********************************************************************************************************************************
 DATASETS  * FILE   NREC   LENGTH (MB)   RECORD NAMES
              1      19        7.50       500      610      700      900      950      970     1000      129      960     1100   
                                          VAR    BASINP    GEOM    SYMINP    ZMAT    AOBASIS   BASIS     P2S    ABASIS      S 
                                         1400     1410     1200     1210     1080     1600     1650     1300     1700   
                                           T        V       H0       H01     AOSYM     SMH    MOLCAS    ERIS     OPER   

              2       4        2.74       700     1000      520     2100   
                                         GEOM     BASIS   MCVARS     RHF  

 PROGRAMS   *        TOTAL        HF       INT
 CPU TIMES  *         1.86      1.56      0.21
 REAL TIME  *         3.28 SEC
 DISK USED  *        12.24 MB      
 **********************************************************************************************************************************
 SETTING BASIS          =    6-31+G(D,P)


 Recomputing integrals since basis changed


 Using spherical harmonics

 Library entry F      S 6-31G                selected for orbital group  1
 Library entry F      S 6-31++G              selected for orbital group  1
 Library entry F      P 6-31G                selected for orbital group  1
 Library entry F      P 6-31++G              selected for orbital group  1
 Library entry F      D 6-31G*               selected for orbital group  1

1PROGRAM * SEWARD (Integral evaluation for generally contracted gaussian basis sets)     Author: Roland Lindh, 1990

 Geometry written to block  1 of record 700


 Point group  C1  



 ATOMIC COORDINATES

 NR  ATOM    CHARGE       X              Y              Z

   1  F       9.00    0.000000000    0.000000000    0.000000000

 NUCLEAR CHARGE:                    9
 NUMBER OF PRIMITIVE AOS:          32
 NUMBER OF SYMMETRY AOS:           31
 NUMBER OF CONTRACTIONS:           18   (  18A   )
 NUMBER OF CORE ORBITALS:           1   (   1A   )
 NUMBER OF VALENCE ORBITALS:        4   (   4A   )


 NUCLEAR REPULSION ENERGY    0.00000000

 EXTRA SYMMETRY OF AOS IN SYMMETRY 1:   1 1 1 1 2 3 4 2 3 4   2 3 4 5 6 7 8 9

 Eigenvalues of metric

         1 0.940E-01 0.251E+00 0.251E+00 0.251E+00 0.563E+00 0.846E+00 0.846E+00 0.846E+00


 Contracted 2-electron integrals neglected if value below      1.0D-11
 AO integral compression algorithm  1   Integral accuracy      1.0D-11

     0.262 MB (compressed) written to integral file ( 47.4%)


 NUMBER OF SORTED TWO-ELECTRON INTEGRALS:      14706.     BUFFER LENGTH:  32768
 NUMBER OF SEGMENTS:   1  SEGMENT LENGTH:      14706      RECORD LENGTH: 524288

 Memory used in sort:       0.57 MW

 SORT1 READ       19124. AND WROTE        2041. INTEGRALS IN      1 RECORDS. CPU TIME:     0.00 SEC, REAL TIME:     0.01 SEC
 SORT2 READ        2041. AND WROTE       14706. INTEGRALS IN      1 RECORDS. CPU TIME:     0.00 SEC, REAL TIME:     0.01 SEC

 FILE SIZES:   FILE 1:     7.8 MBYTE,  FILE 4:     4.2 MBYTE,   TOTAL:     12.0 MBYTE

 OPERATOR DM      FOR CENTER  0  COORDINATES:    0.000000    0.000000    0.000000


 **********************************************************************************************************************************
 DATASETS  * FILE   NREC   LENGTH (MB)   RECORD NAMES
              1      19        7.54       500      610      700      900      950      970     1001      129      960     1100   
                                          VAR    BASINP    GEOM    SYMINP    ZMAT    AOBASIS   BASIS     P2S    ABASIS      S 
                                         1400     1410     1200     1210     1080     1600     1650     1300     1700   
                                           T        V       H0       H01     AOSYM     SMH    MOLCAS    ERIS     OPER   

              2       5        2.75       700     1000      520     2100     1001   
                                         GEOM     BASIS   MCVARS     RHF     BASIS   

 PROGRAMS   *        TOTAL       INT        HF       INT
 CPU TIMES  *         2.06      0.20      1.56      0.21
 REAL TIME  *         3.60 SEC
 DISK USED  *        14.80 MB      
 **********************************************************************************************************************************

 Density functional group M06-L=XC-M06-L
 Functional: XC-M06-L(via MFM 1.6)                                             Gradient terms: 1

 dispersion correction activated
 Density functional: M06-L   
 functional not in list, set to default 

 Functional: XC-M06-L                  Factor:  1.0000

 Use grid at  1800.2

 Functional: XC-M06-L                  Factor:  1.0000

 Generated new metagrid on record  1800.2 with target accuracy 1.0D-06 and 672 points in CPU time    0.0
 Computed new grid on record 1800.1 in CPU time    0.0
   18080 words reserved for DFT integration

 PROGRAM * RKS-SCF (Restricted open shell Kohn-Sham)     Authors: W. Meyer, H.-J. Werner, P.J. Knowles, 1993

 NUMBER OF ELECTRONS:       5+    4-    SPACE SYMMETRY=1    SPIN SYMMETRY: Doublet 
 CONVERGENCE THRESHOLDS:    1.00E-05 (Density)    1.00E-06 (Energy)
 MAX. NUMBER OF ITERATIONS:       60
 INTERPOLATION TYPE:            DIIS
 INTERPOLATION STEPS:              2 (START)      1 (STEP)
 LEVEL SHIFTS:                 -0.30 (CLOSED) -0.00 (OPEN) 



 Use fine grid record 1800.2 for energy threshold  1.0D-06
 Molecular orbitals read from record     2100.2  Type=RHF/CANONICAL (state 1.1)

 Present basis size:      18
 Previous basis size:      5
 Previous occupation:      5
 Previous closed-shells:   4
 Previous core-orbitals:   1
 Present occupation:       5
 Present closed-shells:    4
 Present core-orbitals:    1
 Wavefunction symmetry:    1   Doublet 

 Orbital overlap <old|new>:  < 1.1| 1.1> = 0.999848   < 2.1| 2.1> = 0.999195   < 3.1| 3.1> = 0.994996   < 4.1| 4.1> = 0.994996
                             < 5.1| 5.1> = 0.994996

 Molecular orbital dump at record        2101.2

 ITERATION    DDIFF          GRAD             ENERGY        2-EL.EN.            DIPOLE MOMENTS         DIIS   ORB.
    1      0.000D+00      0.000D+00       -99.57393422    104.884498    0.00000    0.00000    0.00000    0    start
    2      0.000D+00      0.570D-01       -99.67190282     96.032265   -0.00000   -0.00000   -0.00000    1    diag,B
    3      0.479D-01      0.324D-01       -99.71757833    100.057026    0.00000   -0.00000    0.00000    2    diag,B
    4      0.229D-01      0.516D-02       -99.71956079     99.308901   -0.00000   -0.00000   -0.00000    3    diag,B
    5      0.427D-02      0.890D-03       -99.71961250     99.356302   -0.00000   -0.00000   -0.00000    4    diag,B
    6      0.107D-02      0.250D-04       -99.71961254     99.358794   -0.00000   -0.00000   -0.00000    5    diag,B
    7      0.262D-04      0.250D-05       -99.71961254     99.358582   -0.00000   -0.00000   -0.00000    6    diag,B
    8      0.420D-05      0.179D-06       -99.71961254     99.358588    0.00000   -0.00000   -0.00000    0    orth

 Dispersion correction
 - - - - - - - - - - - 
  _________________________________
                                   
 |         DFTD3 V1.3 Rev 1        |
 | S.Grimme, University Muenster   |
 | Fri Jul  2 12:48:21 CEST 2010   |
  _________________________________

 Please cite DFT-D3 work done with this code as:
 S. Grimme, J. Antony, S. Ehrlich and H. Krieg,
 J. Chem. Phys, 132 (2010), 154104.
 For DFT-D2 the reference is
 S. Grimme, J. Comput. Chem., 27 (2006), 1787-1799

 C6 coefficients used:
                    2  C6 for element                     9
 Z=  9 CN=   0.000     C6(AA)=    9.69
 Z=  9 CN=   0.998     C6(AA)=    7.13

 #           XYZ [au]               R0(AA) [Ang.]   CN       C6(AA)     C8(AA)   C10(AA) [au]
  1   0.00000   0.00000   0.00000   f   1.150  0.000         9.6       165.0      3457.6

 molecular C6(AA) [au] =         9.64

           DFT-D V3
 DF pbe                                               
 parameters
 s6       :    1.0000
 s8       :    0.7220
 rs6      :    1.2170
 alpha6   :   14.0000
 alpha8   :   16.0000
 k1-k3    :   16.0000    1.3333   -4.0000

 Edisp /kcal,au:    -0.0000 -0.00000000

 E6    /kcal :    -0.0000
 E8    /kcal :    -0.0000
 % E8        :   NaN
 normal termination of dftd3

 RKS STATE 1.1 ENERGY+DISP      -99.71961254

 Final alpha occupancy:   5
 Final beta  occupancy:   4

 !RKS STATE 1.1 Energy                -99.719612539456
 Nuclear energy                         0.00000000
 One-electron energy                 -139.04597263
 Two-electron energy                   49.67929383
 Density functional                   -10.35293374     XC-M06-L=-10.35293374
 Virial quotient                       -1.00502078
 !RKS STATE 1.1 Dipole moment           0.00000000    -0.00000000    -0.00000000
 Dipole moment /Debye                   0.00000000    -0.00000000    -0.00000000

 Orbital energies:

         1.1          2.1          3.1          4.1          5.1          6.1          7.1
    -24.612343    -1.154438    -0.415305    -0.415305    -0.515368     0.136688     0.179363

 HOMO      5.1    -0.515368 =     -14.0239eV
 LUMO      6.1     0.136688 =       3.7195eV
 LUMO-HOMO         0.652056 =      17.7434eV


 **********************************************************************************************************************************
 DATASETS  * FILE   NREC   LENGTH (MB)   RECORD NAMES
              1      20        7.56       500      610      700      900      950      970     1001      129      960     1100   
                                          VAR    BASINP    GEOM    SYMINP    ZMAT    AOBASIS   BASIS     P2S    ABASIS      S 
                                         1400     1410     1200     1210     1080     1600     1650     1300     1700     1800   
                                           T        V       H0       H01     AOSYM     SMH    MOLCAS    ERIS     OPER     GRID   

              2       7        5.25       700     1000      520     2100     1001     1800     2101   
                                         GEOM     BASIS   MCVARS     RHF     BASIS    GRID      RKS  

 PROGRAMS   *        TOTAL        KS       INT        HF       INT
 CPU TIMES  *         2.14      0.08      0.20      1.56      0.21
 REAL TIME  *         3.79 SEC
 DISK USED  *        14.80 MB      
 **********************************************************************************************************************************

        KS-SCF          HF-SCF  
    -99.71961254    -97.98650496
 **********************************************************************************************************************************
 Variable memory released
