
 Primary working directories    : /local/molpro.3LNYcn7raY
 Secondary working directories  : /local/molpro.3LNYcn7raY
 Wavefunction directory         : /local/
 Main file repository           : /local/molpro.3LNYcn7raY/

 id        : simonbennie

 Nodes     nprocs
 node35-048    1

 Using customized tuning parameters: mindgm=1; mindgv=20; mindgc=4; mindgr=1; noblas=0; minvec=7
 default implementation of scratch files=df  

 memory,500,m
 geomtyp=xyz
 nosym
 noorient
 geometry={
 F          0.00000        0.00000        0.00000
 }
 basis={default,sto-3g}
 {hf,direct;wf,9,1,1}
 
 basis={ default,6-31+G(d,p) }
 {hf,direct;wf,9,1,1}
 {ks,M06,direct;maxit,0;wf,9,1,1}
 {ibba,bonds=1}

 Variables initialized (920), CPU time= 0.00 sec
 Commands  initialized (754), CPU time= 0.01 sec, 615 directives.
 Default parameters read. Elapsed time= 0.10 sec

 Checking input...
 Passed
1


                                         ***  PROGRAM SYSTEM MOLPRO  ***
                                       Copyright, TTI GmbH Stuttgart, 2015
                                    Version 2018.0 linked Jul  6 2018 18:07:13


 **********************************************************************************************************************************
 LABEL *                                                                                 
  64 bit serial version                                                                  DATE: 11-Oct-18          TIME: 14:42:43  
 **********************************************************************************************************************************

 SHA1:             b58f8fddb9d75525be9261ebe3faf0e4279c479b
 **********************************************************************************************************************************
 SETTING GEOMTYP        =    XYZ

 Variable memory set to  500000000 words,  buffer space 

 ZSYMEL=NOSYM

 SETTING BASIS          =    STO-3G


 Recomputing integrals since basis changed


 Using spherical harmonics

 Library entry F      S STO-3G               selected for orbital group  1
 Library entry F      P STO-3G               selected for orbital group  1


 PROGRAM * SEWARD (Integral evaluation for generally contracted gaussian basis sets)     Author: Roland Lindh, 1990

 Geometry written to block  1 of record 700


 Point group  C1  



 ATOMIC COORDINATES

 NR  ATOM    CHARGE       X              Y              Z

   1  F       9.00    0.000000000    0.000000000    0.000000000

 NUCLEAR CHARGE:                    9
 NUMBER OF PRIMITIVE AOS:          15
 NUMBER OF SYMMETRY AOS:           15
 NUMBER OF CONTRACTIONS:            5   (   5A   )
 NUMBER OF CORE ORBITALS:           1   (   1A   )
 NUMBER OF VALENCE ORBITALS:        4   (   4A   )


 NUCLEAR REPULSION ENERGY    0.00000000

 EXTRA SYMMETRY OF AOS IN SYMMETRY 1:   1 1 2 3 4

 Eigenvalues of metric

         1 0.762E+00 0.100E+01 0.100E+01 0.100E+01 0.124E+01


 Contracted 2-electron integrals neglected if value below      1.0D-11
 AO integral compression algorithm  1   Integral accuracy      1.0D-11

     0.262 MB (compressed) written to integral file ( 98.8%)


 NUMBER OF SORTED TWO-ELECTRON INTEGRALS:        120.     BUFFER LENGTH:  32768
 NUMBER OF SEGMENTS:   1  SEGMENT LENGTH:        120      RECORD LENGTH: 524288

 Memory used in sort:       0.56 MW

 SORT1 READ         169. AND WROTE          33. INTEGRALS IN      1 RECORDS. CPU TIME:     0.00 SEC, REAL TIME:     0.01 SEC
 SORT2 READ          33. AND WROTE         120. INTEGRALS IN      1 RECORDS. CPU TIME:     0.00 SEC, REAL TIME:     0.00 SEC

 FILE SIZES:   FILE 1:    30.2 MBYTE,  FILE 4:     4.2 MBYTE,   TOTAL:     34.4 MBYTE

 OPERATOR DM      FOR CENTER  0  COORDINATES:    0.000000    0.000000    0.000000


 **********************************************************************************************************************************
 DATASETS  * FILE   NREC   LENGTH (MB)   RECORD NAMES
              1      19       29.93       500      610      700      900      950      970     1000      129      960     1100   
                                          VAR    BASINP    GEOM    SYMINP    ZMAT    AOBASIS   BASIS     P2S    ABASIS      S 
                                         1400     1410     1200     1210     1080     1600     1650     1300     1700   
                                           T        V       H0       H01     AOSYM     SMH    MOLCAS    ERIS     OPER   

 PROGRAMS   *        TOTAL       INT
 CPU TIMES  *         0.42      0.28
 REAL TIME  *         0.71 SEC
 DISK USED  *        34.68 MB
 **********************************************************************************************************************************


 PROGRAM * RHF-SCF (OPEN SHELL)       Authors: W. Meyer, H.-J. Werner


 NUMBER OF ELECTRONS:       5+    4-    SPACE SYMMETRY=1    SPIN SYMMETRY: Doublet 
 CONVERGENCE THRESHOLDS:    1.00E-05 (Density)    1.00E-07 (Energy)
 INTEGRAL THRESHOLDS:       1.00E-11 (Initial)    1.00E-11 (Final)
 MAX. NUMBER OF ITERATIONS:       60
 INTERPOLATION TYPE:            DIIS
 INTERPOLATION STEPS:              2 (START)      1 (STEP)
 LEVEL SHIFTS:                 -0.60 (CLOSED) -0.30 (OPEN) 



 Orbital guess generated from atomic densities. Full valence occupancy:    5

 Molecular orbital dump at record        2100.2

 Initial alpha occupancy:   5
 Initial beta  occupancy:   4
 Wave function symmetry:    1

 Direct Fock-matrix evaluation.        Author: H.-J. Werner (1996)

 Integral Threshold:                  0.1D-10

 ITERATION   DDIFF            GRAD            ENERGY        2-EL.EN.            DIPOLE MOMENTS         DIIS   CPU(IT)  CPU(TOT)
    1      0.000D+00      0.000D+00       -97.98650496     81.332009    0.00000    0.00000    0.00000    0      1.3      2.2     start
    2      0.000D+00      0.111D-14       -97.98650496     81.332009    0.00000    0.00000    0.00000    0      0.0      2.2     orth

 Final alpha occupancy:   5
 Final beta  occupancy:   4

 !RHF STATE  1.1 Energy               -97.986504958736
 Nuclear energy                         0.00000000
 One-electron energy                 -138.65250960
 Two-electron energy                   40.66600465
 Virial quotient                       -1.00948589
 !RHF STATE  1.1 Dipole moment          0.00000000     0.00000000     0.00000000
 Dipole moment /Debye                   0.00000000     0.00000000     0.00000000

 Orbital energies:

         1.1          2.1          3.1          4.1          5.1
    -25.955724    -1.412570    -0.489897    -0.489897    -0.624323


 HOMO      5.1    -0.624323 =     -16.9887eV


 **********************************************************************************************************************************
 DATASETS  * FILE   NREC   LENGTH (MB)   RECORD NAMES
              1      19       29.93       500      610      700      900      950      970     1000      129      960     1100   
                                          VAR    BASINP    GEOM    SYMINP    ZMAT    AOBASIS   BASIS     P2S    ABASIS      S 
                                         1400     1410     1200     1210     1080     1600     1650     1300     1700   
                                           T        V       H0       H01     AOSYM     SMH    MOLCAS    ERIS     OPER   

              2       4        2.74       700     1000      520     2100   
                                         GEOM     BASIS   MCVARS     RHF  

 PROGRAMS   *        TOTAL    HF-SCF       INT
 CPU TIMES  *         2.62      2.20      0.28
 REAL TIME  *         3.50 SEC
 DISK USED  *        34.68 MB
 **********************************************************************************************************************************
 SETTING BASIS          =    6-31+G(D,P)


 Recomputing integrals since basis changed


 Using spherical harmonics

 Library entry F      S 6-31G                selected for orbital group  1
 Library entry F      S 6-31++G              selected for orbital group  1
 Library entry F      P 6-31G                selected for orbital group  1
 Library entry F      P 6-31++G              selected for orbital group  1
 Library entry F      D 6-31G*               selected for orbital group  1


 PROGRAM * SEWARD (Integral evaluation for generally contracted gaussian basis sets)     Author: Roland Lindh, 1990

 Geometry written to block  1 of record 700


 Point group  C1  



 ATOMIC COORDINATES

 NR  ATOM    CHARGE       X              Y              Z

   1  F       9.00    0.000000000    0.000000000    0.000000000

 NUCLEAR CHARGE:                    9
 NUMBER OF PRIMITIVE AOS:          32
 NUMBER OF SYMMETRY AOS:           31
 NUMBER OF CONTRACTIONS:           18   (  18A   )
 NUMBER OF CORE ORBITALS:           1   (   1A   )
 NUMBER OF VALENCE ORBITALS:        4   (   4A   )


 NUCLEAR REPULSION ENERGY    0.00000000

 EXTRA SYMMETRY OF AOS IN SYMMETRY 1:   1 1 1 1 2 3 4 2 3 4   2 3 4 5 6 7 8 9

 Eigenvalues of metric

         1 0.940E-01 0.251E+00 0.251E+00 0.251E+00 0.563E+00 0.846E+00 0.846E+00 0.846E+00


 Contracted 2-electron integrals neglected if value below      1.0D-11
 AO integral compression algorithm  1   Integral accuracy      1.0D-11

     0.262 MB (compressed) written to integral file ( 47.4%)


 NUMBER OF SORTED TWO-ELECTRON INTEGRALS:      14706.     BUFFER LENGTH:  32768
 NUMBER OF SEGMENTS:   1  SEGMENT LENGTH:      14706      RECORD LENGTH: 524288

 Memory used in sort:       0.57 MW

 SORT1 READ       19124. AND WROTE        2041. INTEGRALS IN      1 RECORDS. CPU TIME:     0.00 SEC, REAL TIME:     0.01 SEC
 SORT2 READ        2041. AND WROTE       14706. INTEGRALS IN      1 RECORDS. CPU TIME:     0.00 SEC, REAL TIME:     0.01 SEC

 FILE SIZES:   FILE 1:    30.2 MBYTE,  FILE 4:     4.2 MBYTE,   TOTAL:     34.4 MBYTE

 OPERATOR DM      FOR CENTER  0  COORDINATES:    0.000000    0.000000    0.000000


 **********************************************************************************************************************************
 DATASETS  * FILE   NREC   LENGTH (MB)   RECORD NAMES
              1      19       29.97       500      610      700      900      950      970     1001      129      960     1100   
                                          VAR    BASINP    GEOM    SYMINP    ZMAT    AOBASIS   BASIS     P2S    ABASIS      S 
                                         1400     1410     1200     1210     1080     1600     1650     1300     1700   
                                           T        V       H0       H01     AOSYM     SMH    MOLCAS    ERIS     OPER   

              2       5        2.76       700     1000      520     2100     1001   
                                         GEOM     BASIS   MCVARS     RHF     BASIS   

 PROGRAMS   *        TOTAL       INT    HF-SCF       INT
 CPU TIMES  *         2.81      0.19      2.20      0.28
 REAL TIME  *         3.74 SEC
 DISK USED  *        37.23 MB
 **********************************************************************************************************************************


 PROGRAM * RHF-SCF (OPEN SHELL)       Authors: W. Meyer, H.-J. Werner


 NUMBER OF ELECTRONS:       5+    4-    SPACE SYMMETRY=1    SPIN SYMMETRY: Doublet 
 CONVERGENCE THRESHOLDS:    1.00E-05 (Density)    1.00E-07 (Energy)
 INTEGRAL THRESHOLDS:       1.00E-11 (Initial)    1.00E-11 (Final)
 MAX. NUMBER OF ITERATIONS:       60
 INTERPOLATION TYPE:            DIIS
 INTERPOLATION STEPS:              2 (START)      1 (STEP)
 LEVEL SHIFTS:                 -0.60 (CLOSED) -0.30 (OPEN) 



 Molecular orbitals read from record     2100.2  Type=RHF/CANONICAL (state 1.1)

 Present basis size:      18
 Previous basis size:      5
 Previous occupation:      5
 Previous closed-shells:   4
 Previous core-orbitals:   1
 Present occupation:       5
 Present closed-shells:    4
 Present core-orbitals:    1
 Wavefunction symmetry:    1   Doublet 

 Orbital overlap <old|new>:  < 1.1| 1.1> = 0.999848   < 2.1| 2.1> = 0.999195   < 3.1| 3.1> = 0.994996   < 4.1| 4.1> = 0.994996
                             < 5.1| 5.1> = 0.994996


 Molecular orbital dump at record        2101.2

 Direct Fock-matrix evaluation.        Author: H.-J. Werner (1996)

 Integral Threshold:                  0.1D-10

 ITERATION   DDIFF            GRAD            ENERGY        2-EL.EN.            DIPOLE MOMENTS         DIIS   CPU(IT)  CPU(TOT)
    1      0.000D+00      0.000D+00       -99.22876199     84.093159    0.00000    0.00000    0.00000    0      1.0      1.0     start
    2      0.000D+00      0.544D-01       -99.35176064     79.860835   -0.00000    0.00000   -0.00000    1      0.5      1.5     diag,B
    3      0.292D-01      0.115D-01       -99.36283603     79.820205   -0.00000    0.00000    0.00000    2      0.5      2.0     diag,B
    4      0.113D-01      0.518D-02       -99.36660621     79.513154   -0.00000    0.00000   -0.00000    3      0.5      2.5     diag,B
    5      0.858D-02      0.879D-03       -99.36672176     79.518246   -0.00000    0.00000   -0.00000    4      0.5      3.0     diag,B
    6      0.135D-02      0.218D-03       -99.36672911     79.505654   -0.00000    0.00000   -0.00000    5      0.5      3.5     diag,B
    7      0.301D-03      0.517D-04       -99.36672967     79.503962    0.00000    0.00000   -0.00000    6      0.5      4.0     diag,B
    8      0.750D-04      0.660D-05       -99.36672967     79.504785   -0.00000   -0.00000   -0.00000    7      0.5      4.5     orth
    9      0.608D-05      0.181D-05       -99.36672967     79.504598    0.00000   -0.00000   -0.00000    0      0.5      5.0     orth

 Final alpha occupancy:   5
 Final beta  occupancy:   4

 !RHF STATE  1.1 Energy               -99.366729672008
 Nuclear energy                         0.00000000
 One-electron energy                 -139.11902870
 Two-electron energy                   39.75229903
 Virial quotient                       -1.00061126
 !RHF STATE  1.1 Dipole moment          0.00000000    -0.00000000    -0.00000000
 Dipole moment /Debye                   0.00000000    -0.00000000    -0.00000000

 Orbital energies:

         1.1          2.1          3.1          4.1          5.1          6.1          7.1
    -26.397488    -1.576922    -0.707341    -0.707341    -0.836152     0.239733     0.282805


 HOMO      5.1    -0.836152 =     -22.7529eV
 LUMO      6.1     0.239733 =       6.5235eV
 LUMO-HOMO         1.075885 =      29.2763eV


 **********************************************************************************************************************************
 DATASETS  * FILE   NREC   LENGTH (MB)   RECORD NAMES
              1      19       29.97       500      610      700      900      950      970     1001      129      960     1100   
                                          VAR    BASINP    GEOM    SYMINP    ZMAT    AOBASIS   BASIS     P2S    ABASIS      S 
                                         1400     1410     1200     1210     1080     1600     1650     1300     1700   
                                           T        V       H0       H01     AOSYM     SMH    MOLCAS    ERIS     OPER   

              2       6        5.25       700     1000      520     2100     1001     2101   
                                         GEOM     BASIS   MCVARS     RHF     BASIS     RHF  

 PROGRAMS   *        TOTAL    HF-SCF       INT    HF-SCF       INT
 CPU TIMES  *         7.79      4.98      0.19      2.20      0.28
 REAL TIME  *         9.36 SEC
 DISK USED  *        37.23 MB
 **********************************************************************************************************************************

 Density functional group M06=XC-M06
 Functional: XC-M06(via MFM 1.6)                                               Gradient terms: 1
 Use libxcgrid:  F
 Use grid at  1800.2


 Exact exchange will be calculated, factor:  0.2700

 Functional: XC-M06                    Factor:  1.0000

 Generated new metagrid on record  1800.2 with target accuracy 1.0D-06 and 672 points in CPU time    0.0
 Computed new grid on record 1800.1 in CPU time    0.0
   18080 words reserved for DFT integration

 PROGRAM * RKS-SCF (Restricted open shell Kohn-Sham)     Authors: W. Meyer, H.-J. Werner, P.J. Knowles, 1993

 NUMBER OF ELECTRONS:       5+    4-    SPACE SYMMETRY=1    SPIN SYMMETRY: Doublet 
 CONVERGENCE THRESHOLDS:    1.00E-05 (Density)    1.00E-06 (Energy)
 MAX. NUMBER OF ITERATIONS:        0
 INTERPOLATION TYPE:            DIIS
 INTERPOLATION STEPS:              2 (START)      1 (STEP)
 LEVEL SHIFTS:                 -0.60 (CLOSED) -0.30 (OPEN) 



 Use fine grid record 1800.2 for energy threshold  1.0D-06
 Molecular orbitals read from record     2101.2  Type=RHF/CANONICAL (state 1.1)

 Molecular orbital dump at record        2102.2

 ITERATION    DDIFF          GRAD             ENERGY        2-EL.EN.            DIPOLE MOMENTS         DIIS   ORB.
    1      0.000D+00      0.000D+00       -99.69304875     94.127117    0.00000   -0.00000   -0.00000    0    start

 Final alpha occupancy:   5
 Final beta  occupancy:   4

 !RKS STATE  1.1 Energy               -99.693048754646
 Nuclear energy                         0.00000000
 One-electron energy                 -139.11902870
 Two-electron energy                   47.06355830
 Density functional                    -7.63757835     XC-M06=-7.63757835
 Virial quotient                       -1.00389725
 !RKS STATE  1.1 Dipole moment          0.00000000    -0.00000000    -0.00000000
 Dipole moment /Debye                   0.00000000    -0.00000000    -0.00000000

 Orbital energies:

         1.1          2.1          3.1          4.1          5.1          6.1          7.1
    -26.397488    -1.576922    -0.707341    -0.707341    -0.836152     0.239733     0.282805


 HOMO      5.1    -0.836152 =     -22.7529eV
 LUMO      6.1     0.239733 =       6.5235eV
 LUMO-HOMO         1.075885 =      29.2763eV


 **********************************************************************************************************************************
 DATASETS  * FILE   NREC   LENGTH (MB)   RECORD NAMES
              1      20       30.00       500      610      700      900      950      970     1001      129      960     1100   
                                          VAR    BASINP    GEOM    SYMINP    ZMAT    AOBASIS   BASIS     P2S    ABASIS      S 
                                         1400     1410     1200     1210     1080     1600     1650     1300     1700     1800   
                                           T        V       H0       H01     AOSYM     SMH    MOLCAS    ERIS     OPER     GRID   

              2       8        7.76       700     1000      520     2100     1001     2101     1800     2102   
                                         GEOM     BASIS   MCVARS     RHF     BASIS     RHF     GRID      RKS  

 PROGRAMS   *        TOTAL    KS-SCF    HF-SCF       INT    HF-SCF       INT
 CPU TIMES  *         7.84      0.05      4.98      0.19      2.20      0.28
 REAL TIME  *         9.42 SEC
 DISK USED  *        37.79 MB
 **********************************************************************************************************************************


 PROGRAM * Intrinsic Basis Bonding Analysis (IBBA)          Author: G. Knizia

 Molecular orbitals read from record     2102.2  Type=RKS/CANONICAL (state 1.1)
 Fock matrix read from record            2102.2  Type=RKS/TOTAL (state 1.1)
 Orbital energies read from record       2102.2  Type=RKS/CANONICAL (state 1.1)
 Density matrix read from record         2102.2  Type=RKS/CHARGE (state 1.1)

 Number of core orbitals:           1 (   1 )
 Number of closed-shell orbitals:   3 (   3 )
 Number of active  orbitals:        1 (   1 )

 Basis set MINAO-AUTO-PP generated.      Number of basis functions:   5 

 Polarized AO type:                A = (O Ot + (1-O)(1-Ot)) P12
 Orthogonalization method:         Symmetric (Loewdin)
 Localization functional:          L = sum[A,i] <i|n_A|i>^4 -> max

 Localization group 1:   4 orbitals, occupancy  2.000
 Iterative localization: IB/PM,    1 iter; Final gradient 0.00E+00

 Bond order analysis:       [THRPRINT= 0.020]

   CEN ATOM   CEN ATOM     WIBERG.BO      RENORM.BO


 Valency analysis:

   CEN ATOM   TOT.VALENCE
     1   F       0.000000
 Localization group 2:   1 orbitals, occupancy  1.000
 Iterative localization: IB/PM,    1 iter; Final gradient 0.00E+00

 Bond order analysis:       [THRPRINT= 0.020]

   CEN ATOM   CEN ATOM     WIBERG.BO      RENORM.BO


 Valency analysis:

   CEN ATOM   TOT.VALENCE
     1   F       0.000000

 Total charge composition:

   CEN ATOM         s          p       ELECTRONS ->P.CHARGE
     1   F       4.00000    5.00000      9.00000    0.00000

 Total charge composition, AO contributions:

   CEN ATOM SHL      SPHERICAL COMPONENTS
     1   F  1s       2.00000
     1   F  2s       2.00000
     1   F  2p       2.00000    2.00000    1.00000

 Active orbital charges:

   CEN ATOM         s          p       ELECTRONS ->SPIN.DEN
     1   F       0.00000    1.00000      1.00000    1.00000

 Active orbital charges, AO contributions:

   CEN ATOM SHL      SPHERICAL COMPONENTS
     1   F  1s       0.00000
     1   F  2s       0.00000
     1   F  2p       0.00000    0.00000    1.00000

 Summary of localized orbital composition:   [THRPRINT= 0.020]

   ORB  GRP  ORB.ENERGY      CENTERS/CHARGES
     1   1   -24.891738      F  1   2.000
     2   1    -1.217688      F  1   2.000
     3   1    -0.479651      F  1   2.000
     4   1    -0.479651      F  1   2.000
     5   2    -0.402568      F  1   1.000

 Localized orbitals saved to record      2102.2  (orbital set 2)


 **********************************************************************************************************************************
 DATASETS  * FILE   NREC   LENGTH (MB)   RECORD NAMES
              1      20       30.00       500      610      700      900      950      970     1001      129      960     1100   
                                          VAR    BASINP    GEOM    SYMINP    ZMAT    AOBASIS   BASIS     P2S    ABASIS      S 
                                         1400     1410     1200     1210     1080     1600     1650     1300     1700     1800   
                                           T        V       H0       H01     AOSYM     SMH    MOLCAS    ERIS     OPER     GRID   

              2       8        7.76       700     1000      520     2100     1001     2101     1800     2102   
                                         GEOM     BASIS   MCVARS     RHF     BASIS     RHF     GRID      RKS  

 PROGRAMS   *        TOTAL      IBBA    KS-SCF    HF-SCF       INT    HF-SCF       INT
 CPU TIMES  *         7.85      0.01      0.05      4.98      0.19      2.20      0.28
 REAL TIME  *         9.44 SEC
 DISK USED  *        37.80 MB
 **********************************************************************************************************************************

 IBBA/6-31+G(D,P) energy=      0.000000000000

          KS-SCF          HF-SCF          HF-SCF
    -99.69304875    -99.36672967    -97.98650496
 **********************************************************************************************************************************
 Molpro calculation terminated
