
 Primary working directories    : /local/molpro.9uqICLLQPZ
 Secondary working directories  : /local/molpro.9uqICLLQPZ
 Wavefunction directory         : /local/
 Main file repository           : /local/molpro.9uqICLLQPZ/

 id        : simonbennie

 Nodes     nprocs
 node34-026    1

 Using customized tuning parameters: mindgm=1; mindgv=20; mindgc=4; mindgr=1; noblas=0; minvec=7
 default implementation of scratch files=df  

 memory,500,m
 geomtyp=xyz
 nosym
 noorient
 geometry={
 O          0.00000        0.00000        0.00000
 H          0.00000        0.00000        0.95691
 H          0.92636        0.00000       -0.23987
 }
 basis={default,sto-3g}
 {hf,direct;wf,10,1,0}
 
 basis={ default,6-31+G(d,p) }
 {hf,direct;wf,10,1,0}
 {ks,B3LYP3,direct;maxit,0;wf,10,1,0}
 {ibba,bonds=1}

 Variables initialized (920), CPU time= 0.01 sec
 Commands  initialized (754), CPU time= 0.01 sec, 615 directives.
 Default parameters read. Elapsed time= 0.09 sec

 Checking input...
 Passed
1


                                         ***  PROGRAM SYSTEM MOLPRO  ***
                                       Copyright, TTI GmbH Stuttgart, 2015
                                    Version 2018.0 linked Jul  6 2018 18:07:13


 **********************************************************************************************************************************
 LABEL *                                                                                 
  64 bit serial version                                                                  DATE: 11-Oct-18          TIME: 11:58:31  
 **********************************************************************************************************************************

 SHA1:             b58f8fddb9d75525be9261ebe3faf0e4279c479b
 **********************************************************************************************************************************
 SETTING GEOMTYP        =    XYZ

 Variable memory set to  500000000 words,  buffer space 

 ZSYMEL=NOSYM

 SETTING BASIS          =    STO-3G


 Recomputing integrals since basis changed


 Using spherical harmonics

 Library entry O      S STO-3G               selected for orbital group  1
 Library entry O      P STO-3G               selected for orbital group  1
 Library entry H      S STO-3G               selected for orbital group  2


 PROGRAM * SEWARD (Integral evaluation for generally contracted gaussian basis sets)     Author: Roland Lindh, 1990

 Geometry written to block  1 of record 700


 Point group  C1  



 ATOMIC COORDINATES

 NR  ATOM    CHARGE       X              Y              Z

   1  O       8.00    0.000000000    0.000000000    0.000000000
   2  H       1.00    0.000000000    0.000000000    1.808297826
   3  H       1.00    1.750566693    0.000000000   -0.453288605

 Bond lengths in Bohr (Angstrom)

 1-2  1.808297826  1-3  1.808301497
     ( 0.956910000)     ( 0.956911943)

 Bond angles

  2-1-3  104.51721750

 NUCLEAR CHARGE:                   10
 NUMBER OF PRIMITIVE AOS:          21
 NUMBER OF SYMMETRY AOS:           21
 NUMBER OF CONTRACTIONS:            7   (   7A   )
 NUMBER OF CORE ORBITALS:           1   (   1A   )
 NUMBER OF VALENCE ORBITALS:        6   (   6A   )


 NUCLEAR REPULSION ENERGY    9.19774870

 EXTRA SYMMETRY OF AOS IN SYMMETRY 1:   1 1 1 2 1 1 1

 Eigenvalues of metric

         1 0.342E+00 0.416E+00 0.886E+00 0.100E+01 0.109E+01 0.133E+01 0.193E+01


 Contracted 2-electron integrals neglected if value below      1.0D-11
 AO integral compression algorithm  1   Integral accuracy      1.0D-11

     0.262 MB (compressed) written to integral file (100.0%)


 NUMBER OF SORTED TWO-ELECTRON INTEGRALS:        406.     BUFFER LENGTH:  32768
 NUMBER OF SEGMENTS:   1  SEGMENT LENGTH:        406      RECORD LENGTH: 524288

 Memory used in sort:       0.56 MW

 SORT1 READ         543. AND WROTE         206. INTEGRALS IN      1 RECORDS. CPU TIME:     0.00 SEC, REAL TIME:     0.00 SEC
 SORT2 READ         206. AND WROTE         406. INTEGRALS IN      1 RECORDS. CPU TIME:     0.00 SEC, REAL TIME:     0.00 SEC

 FILE SIZES:   FILE 1:    30.2 MBYTE,  FILE 4:     4.2 MBYTE,   TOTAL:     34.5 MBYTE

 OPERATOR DM      FOR CENTER  0  COORDINATES:    0.000000    0.000000    0.000000


 **********************************************************************************************************************************
 DATASETS  * FILE   NREC   LENGTH (MB)   RECORD NAMES
              1      19       29.97       500      610      700      900      950      970     1000      129      960     1100   
                                          VAR    BASINP    GEOM    SYMINP    ZMAT    AOBASIS   BASIS     P2S    ABASIS      S 
                                         1400     1410     1200     1210     1080     1600     1650     1300     1700   
                                           T        V       H0       H01     AOSYM     SMH    MOLCAS    ERIS     OPER   

 PROGRAMS   *        TOTAL       INT
 CPU TIMES  *         0.57      0.43
 REAL TIME  *         0.89 SEC
 DISK USED  *        34.75 MB
 **********************************************************************************************************************************


 PROGRAM * RHF-SCF (CLOSED SHELL)       Authors: W. Meyer, H.-J. Werner


 NUMBER OF ELECTRONS:       5+    5-    SPACE SYMMETRY=1    SPIN SYMMETRY: Singlet 
 CONVERGENCE THRESHOLDS:    1.00E-05 (Density)    1.00E-07 (Energy)
 INTEGRAL THRESHOLDS:       1.00E-11 (Initial)    1.00E-11 (Final)
 MAX. NUMBER OF ITERATIONS:       60
 INTERPOLATION TYPE:            DIIS
 INTERPOLATION STEPS:              2 (START)      1 (STEP)
 LEVEL SHIFTS:                  0.00 (CLOSED)  0.00 (OPEN) 



 Orbital guess generated from atomic densities. Full valence occupancy:    5

 Molecular orbital dump at record        2100.2

 Initial occupancy:   5

 Direct Fock-matrix evaluation.        Authors: Roland Lindh & Martin Schuetz (1993/96)

 Integral Threshold:                  0.1D-10
 Threshold for writing integrals:     0.1D-06
 Prescreening on density matrix:        ON 
 Calculation will be performed fully direct        

 ITERATION   DDIFF            GRAD            ENERGY        2-EL.EN.            DIPOLE MOMENTS         DIIS   CPU(IT)  CPU(TOT)
    1      0.000D+00      0.000D+00       -74.87256823     79.763749    0.98587   -0.00000    0.76311    0      0.9      1.7     start
    2      0.000D+00      0.783D-01       -74.96217275     76.215802    0.52333   -0.00000    0.40508    1      0.5      2.1     diag
    3      0.131D+00      0.795D-02       -74.96285651     76.433833    0.54155   -0.00000    0.41918    2      0.5      2.6     diag
    4      0.876D-02      0.138D-02       -74.96288683     76.430658    0.53721   -0.00000    0.41582    3      0.5      3.1     diag
    5      0.296D-02      0.926D-04       -74.96288707     76.430894    0.53710   -0.00000    0.41574    4      0.5      3.6     diag
    6      0.247D-03      0.198D-04       -74.96288708     76.430621    0.53704   -0.00000    0.41570    5      0.5      4.0     diag
    7      0.682D-04      0.762D-06       -74.96288708     76.430649    0.53705   -0.00000    0.41570    6      0.5      4.5     diag
    8      0.209D-05      0.309D-09       -74.96288708     76.430649    0.53705    0.00000    0.41570    0      0.5      5.0     orth

 Final occupancy:   5

 !RHF STATE  1.1 Energy               -74.962887083987
 Nuclear energy                         9.19774870
 One-electron energy                 -122.37596050
 Two-electron energy                   38.21532471
 Virial quotient                       -1.00500463
 !RHF STATE  1.1 Dipole moment          0.53704855     0.00000000     0.41569887
 Dipole moment /Debye                   1.36495187     0.00000000     1.05653193

 Orbital energies:

         1.1          2.1          3.1          4.1          5.1          6.1          7.1
    -20.241709    -1.268561    -0.618083    -0.453036    -0.391266     0.605968     0.742735


 HOMO      5.1    -0.391266 =     -10.6469eV
 LUMO      6.1     0.605968 =      16.4892eV
 LUMO-HOMO         0.997234 =      27.1361eV


 **********************************************************************************************************************************
 DATASETS  * FILE   NREC   LENGTH (MB)   RECORD NAMES
              1      19       29.97       500      610      700      900      950      970     1000      129      960     1100   
                                          VAR    BASINP    GEOM    SYMINP    ZMAT    AOBASIS   BASIS     P2S    ABASIS      S 
                                         1400     1410     1200     1210     1080     1600     1650     1300     1700   
                                           T        V       H0       H01     AOSYM     SMH    MOLCAS    ERIS     OPER   

              2       4        2.78       700     1000      520     2100   
                                         GEOM     BASIS   MCVARS     RHF  

 PROGRAMS   *        TOTAL    HF-SCF       INT
 CPU TIMES  *         5.57      5.00      0.43
 REAL TIME  *        34.42 SEC
 DISK USED  *        34.75 MB
 **********************************************************************************************************************************
 SETTING BASIS          =    6-31+G(D,P)


 Recomputing integrals since basis changed


 Using spherical harmonics

 Library entry O      S 6-31G                selected for orbital group  1
 Library entry O      S 6-31++G              selected for orbital group  1
 Library entry O      P 6-31G                selected for orbital group  1
 Library entry O      P 6-31++G              selected for orbital group  1
 Library entry O      D 6-31G*               selected for orbital group  1
 Library entry H      S 6-31G                selected for orbital group  2
 Library entry H      P 6-31G**              selected for orbital group  2


 PROGRAM * SEWARD (Integral evaluation for generally contracted gaussian basis sets)     Author: Roland Lindh, 1990

 Geometry written to block  1 of record 700


 Point group  C1  



 ATOMIC COORDINATES

 NR  ATOM    CHARGE       X              Y              Z

   1  O       8.00    0.000000000    0.000000000    0.000000000
   2  H       1.00    0.000000000    0.000000000    1.808297826
   3  H       1.00    1.750566693    0.000000000   -0.453288605

 Bond lengths in Bohr (Angstrom)

 1-2  1.808297826  1-3  1.808301497
     ( 0.956910000)     ( 0.956911943)

 Bond angles

  2-1-3  104.51721750

 NUCLEAR CHARGE:                   10
 NUMBER OF PRIMITIVE AOS:          46
 NUMBER OF SYMMETRY AOS:           45
 NUMBER OF CONTRACTIONS:           28   (  28A   )
 NUMBER OF CORE ORBITALS:           1   (   1A   )
 NUMBER OF VALENCE ORBITALS:        6   (   6A   )


 NUCLEAR REPULSION ENERGY    9.19774870

 EXTRA SYMMETRY OF AOS IN SYMMETRY 1:   1 1 1 1 1 2 1 1 2 1   1 2 1 1 2 1 1 2 1 1   1 2 1 1 1 1 2 1

 Eigenvalues of metric

         1 0.203E-01 0.503E-01 0.543E-01 0.774E-01 0.157E+00 0.219E+00 0.262E+00 0.271E+00


 Contracted 2-electron integrals neglected if value below      1.0D-11
 AO integral compression algorithm  1   Integral accuracy      1.0D-11

     0.524 MB (compressed) written to integral file ( 32.4%)


 NUMBER OF SORTED TWO-ELECTRON INTEGRALS:      82621.     BUFFER LENGTH:  32768
 NUMBER OF SEGMENTS:   1  SEGMENT LENGTH:      82621      RECORD LENGTH: 524288

 Memory used in sort:       0.64 MW

 SORT1 READ      110532. AND WROTE       32408. INTEGRALS IN      1 RECORDS. CPU TIME:     0.00 SEC, REAL TIME:     0.01 SEC
 SORT2 READ       32408. AND WROTE       82621. INTEGRALS IN      2 RECORDS. CPU TIME:     0.01 SEC, REAL TIME:     0.02 SEC

 FILE SIZES:   FILE 1:    30.5 MBYTE,  FILE 4:     4.2 MBYTE,   TOTAL:     34.8 MBYTE

 OPERATOR DM      FOR CENTER  0  COORDINATES:    0.000000    0.000000    0.000000


 **********************************************************************************************************************************
 DATASETS  * FILE   NREC   LENGTH (MB)   RECORD NAMES
              1      19       30.21       500      610      700      900      950      970     1001      129      960     1100   
                                          VAR    BASINP    GEOM    SYMINP    ZMAT    AOBASIS   BASIS     P2S    ABASIS      S 
                                         1400     1410     1200     1210     1080     1600     1650     1300     1700   
                                           T        V       H0       H01     AOSYM     SMH    MOLCAS    ERIS     OPER   

              2       5        2.79       700     1000      520     2100     1001   
                                         GEOM     BASIS   MCVARS     RHF     BASIS   

 PROGRAMS   *        TOTAL       INT    HF-SCF       INT
 CPU TIMES  *         5.87      0.30      5.00      0.43
 REAL TIME  *        34.76 SEC
 DISK USED  *        37.59 MB
 **********************************************************************************************************************************


 PROGRAM * RHF-SCF (CLOSED SHELL)       Authors: W. Meyer, H.-J. Werner


 NUMBER OF ELECTRONS:       5+    5-    SPACE SYMMETRY=1    SPIN SYMMETRY: Singlet 
 CONVERGENCE THRESHOLDS:    1.00E-05 (Density)    1.00E-07 (Energy)
 INTEGRAL THRESHOLDS:       1.00E-11 (Initial)    1.00E-11 (Final)
 MAX. NUMBER OF ITERATIONS:       60
 INTERPOLATION TYPE:            DIIS
 INTERPOLATION STEPS:              2 (START)      1 (STEP)
 LEVEL SHIFTS:                  0.00 (CLOSED)  0.00 (OPEN) 



 Molecular orbitals read from record     2100.2  Type=RHF/CANONICAL (state 1.1)

 Present basis size:      28
 Previous basis size:      7
 Previous occupation:      5
 Previous closed-shells:   5
 Previous core-orbitals:   1
 Present occupation:       5
 Present closed-shells:    5
 Present core-orbitals:    1
 Wavefunction symmetry:    1   Singlet 

 Orbital overlap <old|new>:  < 1.1| 1.1> = 0.999844   < 2.1| 2.1> = 0.999611   < 3.1| 3.1> = 0.998894   < 4.1| 4.1> = 0.997464
                             < 5.1| 5.1> = 0.995798


 Molecular orbital dump at record        2101.2

 Direct Fock-matrix evaluation.        Authors: Roland Lindh & Martin Schuetz (1993/96)

 Integral Threshold:                  0.1D-10
 Threshold for writing integrals:     0.1D-06
 Prescreening on density matrix:        ON 
 Calculation will be performed fully direct        

 ITERATION   DDIFF            GRAD            ENERGY        2-EL.EN.            DIPOLE MOMENTS         DIIS   CPU(IT)  CPU(TOT)
    1      0.000D+00      0.000D+00       -75.85118530     77.971140    0.52805    0.00000    0.40873    0      0.9      1.0     start
    2      0.000D+00      0.402D-01       -76.00568686     74.206400    0.45098   -0.00000    0.34908    1      0.5      1.4     diag
    3      0.279D-01      0.132D-01       -76.02519803     76.096170    0.65182   -0.00000    0.50454    2      0.5      1.9     diag
    4      0.113D-01      0.553D-02       -76.02982382     75.389227    0.67989   -0.00000    0.52626    3      0.5      2.4     diag
    5      0.445D-02      0.139D-02       -76.03037238     75.464583    0.71002    0.00000    0.54958    4      0.5      2.9     diag
    6      0.211D-02      0.208D-03       -76.03038574     75.459939    0.71374    0.00000    0.55247    5      0.5      3.3     diag
    7      0.321D-03      0.409D-04       -76.03038621     75.458493    0.71364    0.00000    0.55239    6      0.5      3.8     diag
    8      0.529D-04      0.941D-05       -76.03038624     75.458644    0.71360    0.00000    0.55235    7      0.5      4.3     orth
    9      0.135D-04      0.128D-05       -76.03038624     75.458680    0.71361   -0.00000    0.55236    8      0.5      4.8     diag
   10      0.199D-05      0.225D-06       -76.03038624     75.458668    0.71361    0.00000    0.55236    0      0.5      5.2     orth

 Final occupancy:   5

 !RHF STATE  1.1 Energy               -76.030386240508
 Nuclear energy                         9.19774870
 One-electron energy                 -122.95746895
 Two-electron energy                   37.72933401
 Virial quotient                       -1.00223219
 !RHF STATE  1.1 Dipole moment          0.71361044     0.00000000     0.55236393
 Dipole moment /Debye                   1.81369802     0.00000000     1.40387712

 Orbital energies:

         1.1          2.1          3.1          4.1          5.1          6.1          7.1
    -20.579156    -1.356966    -0.720198    -0.583707    -0.509373     0.148489     0.220529


 HOMO      5.1    -0.509373 =     -13.8608eV
 LUMO      6.1     0.148489 =       4.0406eV
 LUMO-HOMO         0.657862 =      17.9013eV


 **********************************************************************************************************************************
 DATASETS  * FILE   NREC   LENGTH (MB)   RECORD NAMES
              1      19       30.21       500      610      700      900      950      970     1001      129      960     1100   
                                          VAR    BASINP    GEOM    SYMINP    ZMAT    AOBASIS   BASIS     P2S    ABASIS      S 
                                         1400     1410     1200     1210     1080     1600     1650     1300     1700   
                                           T        V       H0       H01     AOSYM     SMH    MOLCAS    ERIS     OPER   

              2       6        5.29       700     1000      520     2100     1001     2101   
                                         GEOM     BASIS   MCVARS     RHF     BASIS     RHF  

 PROGRAMS   *        TOTAL    HF-SCF       INT    HF-SCF       INT
 CPU TIMES  *        11.13      5.26      0.30      5.00      0.43
 REAL TIME  *        40.08 SEC
 DISK USED  *        37.59 MB
 **********************************************************************************************************************************

 Density functional group B3LYP3=B88+DIRAC+LYP+VWN3
 Functional: B88(Automatically generated (new) B88)                            Gradient terms: 1
 Functional: DIRAC(Automatically generated (new) DIRAC)                        Gradient terms: 0
 Functional: LYP(Automatically generated (new) LYP)                            Gradient terms: 1
 Functional: VWN3(Automatically generated (new) VWN3)                          Gradient terms: 0
 Use libxcgrid:  F
 Use grid at  1800.2


 Exact exchange will be calculated, factor:  0.2000

 Functional: B88                       Factor:  0.7200
 Functional: DIRAC                     Factor:  0.0800
 Functional: LYP                       Factor:  0.8100
 Functional: VWN3                      Factor:  0.1900

 Generated new metagrid on record  1800.2 with target accuracy 1.0D-06 and 10788 points in CPU time    0.2
 Computed new grid on record 1800.1 in CPU time    0.2
   26054 words reserved for DFT integration

 PROGRAM * RKS-SCF (Restricted closed shell Kohn-Sham)     Authors: W. Meyer, H.-J. Werner, P.J. Knowles, 1993

 NUMBER OF ELECTRONS:       5+    5-    SPACE SYMMETRY=1    SPIN SYMMETRY: Singlet 
 CONVERGENCE THRESHOLDS:    1.00E-05 (Density)    1.00E-06 (Energy)
 MAX. NUMBER OF ITERATIONS:        0
 INTERPOLATION TYPE:            DIIS
 INTERPOLATION STEPS:              2 (START)      1 (STEP)
 LEVEL SHIFTS:                  0.00 (CLOSED)  0.00 (OPEN) 



 Use fine grid record 1800.2 for energy threshold  1.0D-06
 Molecular orbitals read from record     2101.2  Type=RHF/CANONICAL (state 1.1)

 Molecular orbital dump at record        2102.2

 ITERATION    DDIFF          GRAD             ENERGY        2-EL.EN.            DIPOLE MOMENTS         DIIS   ORB.
    1      0.000D+00      0.000D+00       -76.42821484     89.755448    0.71361    0.00000    0.55236    0    start

 Final occupancy:   5

 !RKS STATE  1.1 Energy               -76.428214838432
 Nuclear energy                         9.19774870
 One-electron energy                 -122.95746895
 Two-electron energy                   44.87772410
 SCF exchange energy                   -8.93548761     Factor= 0.2000
 Density functional                    -7.54621869     B88=-8.97130142 DIRAC=-8.10243067 LYP=-0.34018029 VWN3=-0.85863779
 Virial quotient                       -1.00747636
 !RKS STATE  1.1 Dipole moment          0.71361044     0.00000000     0.55236393
 Dipole moment /Debye                   1.81369802     0.00000000     1.40387712

 Orbital energies:

         1.1          2.1          3.1          4.1          5.1          6.1          7.1
    -20.579156    -1.356966    -0.720198    -0.583707    -0.509373     0.148489     0.220529


 HOMO      5.1    -0.509373 =     -13.8608eV
 LUMO      6.1     0.148489 =       4.0406eV
 LUMO-HOMO         0.657862 =      17.9013eV


 **********************************************************************************************************************************
 DATASETS  * FILE   NREC   LENGTH (MB)   RECORD NAMES
              1      20       30.56       500      610      700      900      950      970     1001      129      960     1100   
                                          VAR    BASINP    GEOM    SYMINP    ZMAT    AOBASIS   BASIS     P2S    ABASIS      S 
                                         1400     1410     1200     1210     1080     1600     1650     1300     1700     1800   
                                           T        V       H0       H01     AOSYM     SMH    MOLCAS    ERIS     OPER     GRID   

              2       8        7.82       700     1000      520     2100     1001     2101     1800     2102   
                                         GEOM     BASIS   MCVARS     RHF     BASIS     RHF     GRID      RKS  

 PROGRAMS   *        TOTAL    KS-SCF    HF-SCF       INT    HF-SCF       INT
 CPU TIMES  *        11.34      0.21      5.26      0.30      5.00      0.43
 REAL TIME  *        40.35 SEC
 DISK USED  *        38.42 MB
 **********************************************************************************************************************************


 PROGRAM * Intrinsic Basis Bonding Analysis (IBBA)          Author: G. Knizia

 Molecular orbitals read from record     2102.2  Type=RKS/CANONICAL (state 1.1)
 Fock matrix read from record            2102.2  Type=RKS/TOTAL (state 1.1)
 Orbital energies read from record       2102.2  Type=RKS/CANONICAL (state 1.1)
 Density matrix read from record         2102.2  Type=RKS/CHARGE (state 1.1)

 Number of core orbitals:           1 (   1 )
 Number of closed-shell orbitals:   4 (   4 )

 Basis set MINAO-AUTO-PP generated.      Number of basis functions:   7 

 Polarized AO type:                A = (O Ot + (1-O)(1-Ot)) P12
 Orthogonalization method:         Symmetric (Loewdin)
 Localization functional:          L = sum[A,i] <i|n_A|i>^4 -> max

 Localization group 1:   5 orbitals, occupancy  2.000
 Iterative localization: IB/PM,    4 iter; Final gradient 0.21E-08

 Bond order analysis:       [THRPRINT= 0.020]

   CEN ATOM   CEN ATOM     WIBERG.BO      RENORM.BO
     1   O  -   3   H       0.862750       1.000000
     1   O  -   2   H       0.862749       1.000000

     2   H  -   1   O       0.862749       1.000000

     3   H  -   1   O       0.862750       1.000000


 Valency analysis:

   CEN ATOM   TOT.VALENCE
     1   O       1.725499
     2   H       0.862828
     3   H       0.862828

 Total charge composition:

   CEN ATOM         s          p       ELECTRONS ->P.CHARGE
     1   O       3.64135    5.09938      8.74074   -0.74074
     2   H       0.62963                 0.62963    0.37037
     3   H       0.62963                 0.62963    0.37037

 Total charge composition, AO contributions:

   CEN ATOM SHL      SPHERICAL COMPONENTS
     1   O  1s       1.99637
     1   O  2s       1.64498
     1   O  2p       1.59242    2.00000    1.50696

     2   H  1s       0.62963

     3   H  1s       0.62963

 Summary of localized orbital composition:   [THRPRINT= 0.020]

   ORB  GRP  ORB.ENERGY      CENTERS/CHARGES
     1   1   -19.017559      O  1   2.000
     2   1    -0.787801      O  1   1.370   H  2   0.630
     3   1    -0.787799      O  1   1.370   H  3   0.630
     4   1    -0.529187      O  1   2.000
     5   1    -0.315931      O  1   2.000

 Localized orbitals saved to record      2102.2  (orbital set 2)


 **********************************************************************************************************************************
 DATASETS  * FILE   NREC   LENGTH (MB)   RECORD NAMES
              1      20       30.56       500      610      700      900      950      970     1001      129      960     1100   
                                          VAR    BASINP    GEOM    SYMINP    ZMAT    AOBASIS   BASIS     P2S    ABASIS      S 
                                         1400     1410     1200     1210     1080     1600     1650     1300     1700     1800   
                                           T        V       H0       H01     AOSYM     SMH    MOLCAS    ERIS     OPER     GRID   

              2       8        7.83       700     1000      520     2100     1001     2101     1800     2102   
                                         GEOM     BASIS   MCVARS     RHF     BASIS     RHF     GRID      RKS  

 PROGRAMS   *        TOTAL      IBBA    KS-SCF    HF-SCF       INT    HF-SCF       INT
 CPU TIMES  *        11.36      0.01      0.21      5.26      0.30      5.00      0.43
 REAL TIME  *        40.38 SEC
 DISK USED  *        38.43 MB
 **********************************************************************************************************************************

 IBBA/6-31+G(D,P) energy=      0.000000000000

          KS-SCF          HF-SCF          HF-SCF
    -76.42821484    -76.03038624    -74.96288708
 **********************************************************************************************************************************
 Molpro calculation terminated
