
 Primary working directories    : /local
 Secondary working directories  : /local
 Wavefunction directory         : /local/
 Main file repository           : /local/

 SHA1      : b4a5b34a9e711420743f49e6833241d17c61fb3c
 NAME      : 2099.9.b4a5b34
 ARCHNAME  : linux/x86_64_openmp
 FC        : /cm/shared/languages/GCC-6.1/bin/gfortran
 BLASLIB   : -lblas
 id        : simonbennie

 Nodes     nprocs
 node32-007    1

 Using customized tuning parameters: mindgm=1; mindgv=20; mindgc=4; mindgr=1; noblas=0; minvec=7
 default implementation of scratch files=df  

 memory,500,m
 geomtyp=xyz
 nosym
 noorient
 geometry={
 O          0.00000        0.00000        0.00000
 H          0.00000        0.00000        0.95691
 H          0.92636        0.00000       -0.23987
 }
 basis={ default,sto-3g }
 {hf;wf,10,1,0}
 {rDCSD,direct;wf,10,1,0}
 {ibba,bonds=1}

 Variables initialized (895), CPU time= 0.00 sec
 Commands  initialized (725), CPU time= 0.02 sec, 591 directives.
 Default parameters read. Elapsed time= 0.08 sec

 Checking input...
 Passed
1


                                         ***  PROGRAM SYSTEM MOLPRO  ***
                                       Copyright, TTI GmbH Stuttgart, 2015
                                    Version 2099.9 linked May 26 2017 16:03:21


 **********************************************************************************************************************************
 LABEL *                                                                                 
  64 bit serial version                                                                  DATE: 11-Mar-18          TIME: 01:33:05  
 **********************************************************************************************************************************

 SHA1:             b4a5b34a9e711420743f49e6833241d17c61fb3c
 **********************************************************************************************************************************
 SETTING GEOMTYP        =    XYZ

 Variable memory set to  500000000 words,  buffer space 

 ZSYMEL=NOSYM

 SETTING BASIS          =    STO-3G


 Recomputing integrals since basis changed


 Using spherical harmonics

 Library entry O      S STO-3G               selected for orbital group  1
 Library entry O      P STO-3G               selected for orbital group  1
 Library entry H      S STO-3G               selected for orbital group  2


 PROGRAM * SEWARD (Integral evaluation for generally contracted gaussian basis sets)     Author: Roland Lindh, 1990

 Geometry written to block  1 of record 700


 Point group  C1  



 ATOMIC COORDINATES

 NR  ATOM    CHARGE       X              Y              Z

   1  O       8.00    0.000000000    0.000000000    0.000000000
   2  H       1.00    0.000000000    0.000000000    1.808297826
   3  H       1.00    1.750566693    0.000000000   -0.453288605

 Bond lengths in Bohr (Angstrom)

 1-2  1.808297826  1-3  1.808301497
     ( 0.956910000)     ( 0.956911943)

 Bond angles

  2-1-3  104.51721750

 NUCLEAR CHARGE:                   10
 NUMBER OF PRIMITIVE AOS:          21
 NUMBER OF SYMMETRY AOS:           21
 NUMBER OF CONTRACTIONS:            7   (   7A   )
 NUMBER OF CORE ORBITALS:           1   (   1A   )
 NUMBER OF VALENCE ORBITALS:        6   (   6A   )


 NUCLEAR REPULSION ENERGY    9.19774870

 EXTRA SYMMETRY OF AOS IN SYMMETRY 1:   1 1 1 2 1 1 1

 Eigenvalues of metric

         1 0.342E+00 0.416E+00 0.886E+00 0.100E+01 0.109E+01 0.133E+01 0.193E+01


 Contracted 2-electron integrals neglected if value below      1.0D-11
 AO integral compression algorithm  1   Integral accuracy      1.0D-11

     0.262 MB (compressed) written to integral file (100.0%)


 NUMBER OF SORTED TWO-ELECTRON INTEGRALS:        406.     BUFFER LENGTH:  32768
 NUMBER OF SEGMENTS:   1  SEGMENT LENGTH:        406      RECORD LENGTH: 524288

 Memory used in sort:       0.56 MW

 SORT1 READ         543. AND WROTE         206. INTEGRALS IN      1 RECORDS. CPU TIME:     0.00 SEC, REAL TIME:     0.00 SEC
 SORT2 READ         206. AND WROTE         406. INTEGRALS IN      1 RECORDS. CPU TIME:     0.00 SEC, REAL TIME:     0.01 SEC

 FILE SIZES:   FILE 1:    30.2 MBYTE,  FILE 4:     4.2 MBYTE,   TOTAL:     34.5 MBYTE

 OPERATOR DM      FOR CENTER  0  COORDINATES:    0.000000    0.000000    0.000000


 **********************************************************************************************************************************
 DATASETS  * FILE   NREC   LENGTH (MB)   RECORD NAMES
              1      19       29.97       500      610      700      900      950      970     1000      129      960     1100   
                                          VAR    BASINP    GEOM    SYMINP    ZMAT    AOBASIS   BASIS     P2S    ABASIS      S 
                                         1400     1410     1200     1210     1080     1600     1650     1300     1700   
                                           T        V       H0       H01     AOSYM     SMH    MOLCAS    ERIS     OPER   

 PROGRAMS   *        TOTAL       INT
 CPU TIMES  *         0.32      0.17
 REAL TIME  *         0.59 SEC
 DISK USED  *        34.75 MB      
 **********************************************************************************************************************************


 PROGRAM * RHF-SCF (CLOSED SHELL)       Authors: W. Meyer, H.-J. Werner


 NUMBER OF ELECTRONS:       5+    5-    SPACE SYMMETRY=1    SPIN SYMMETRY: Singlet 
 CONVERGENCE THRESHOLDS:    1.00E-05 (Density)    1.00E-07 (Energy)
 MAX. NUMBER OF ITERATIONS:       60
 INTERPOLATION TYPE:            DIIS
 INTERPOLATION STEPS:              2 (START)      1 (STEP)
 LEVEL SHIFTS:                  0.00 (CLOSED)  0.00 (OPEN) 



 Orbital guess generated from atomic densities. Full valence occupancy:    5

 Molecular orbital dump at record        2100.2

 Initial occupancy:   5

 ITERATION    DDIFF          GRAD             ENERGY        2-EL.EN.            DIPOLE MOMENTS         DIIS   ORB.
    1      0.000D+00      0.000D+00       -74.87256823     79.763749    0.98587    0.00000    0.76311    0    start
    2      0.000D+00      0.783D-01       -74.96217275     76.215802    0.52333    0.00000    0.40508    1    diag
    3      0.131D+00      0.795D-02       -74.96285651     76.433833    0.54155    0.00000    0.41918    2    diag
    4      0.876D-02      0.138D-02       -74.96288683     76.430658    0.53721    0.00000    0.41582    3    diag
    5      0.296D-02      0.926D-04       -74.96288707     76.430894    0.53710    0.00000    0.41574    4    diag
    6      0.247D-03      0.198D-04       -74.96288708     76.430621    0.53704    0.00000    0.41570    5    diag
    7      0.682D-04      0.762D-06       -74.96288708     76.430649    0.53705    0.00000    0.41570    6    diag
    8      0.209D-05      0.307D-09       -74.96288708     76.430649    0.53705   -0.00000    0.41570    0    orth

 Final occupancy:   5

 !RHF STATE 1.1 Energy                -74.962887083784
 Nuclear energy                         9.19774870
 One-electron energy                 -122.37596050
 Two-electron energy                   38.21532471
 Virial quotient                       -1.00500463
 !RHF STATE 1.1 Dipole moment           0.53704855    -0.00000000     0.41569887
 Dipole moment /Debye                   1.36495187    -0.00000000     1.05653193

 Orbital energies:

         1.1          2.1          3.1          4.1          5.1          6.1          7.1
    -20.241709    -1.268561    -0.618083    -0.453036    -0.391266     0.605968     0.742735

 HOMO      5.1    -0.391266 =     -10.6469eV
 LUMO      6.1     0.605968 =      16.4892eV
 LUMO-HOMO         0.997234 =      27.1361eV


 **********************************************************************************************************************************
 DATASETS  * FILE   NREC   LENGTH (MB)   RECORD NAMES
              1      19       29.97       500      610      700      900      950      970     1000      129      960     1100   
                                          VAR    BASINP    GEOM    SYMINP    ZMAT    AOBASIS   BASIS     P2S    ABASIS      S 
                                         1400     1410     1200     1210     1080     1600     1650     1300     1700   
                                           T        V       H0       H01     AOSYM     SMH    MOLCAS    ERIS     OPER   

              2       4        2.78       700     1000      520     2100   
                                         GEOM     BASIS   MCVARS     RHF  

 PROGRAMS   *        TOTAL        HF       INT
 CPU TIMES  *         0.39      0.07      0.17
 REAL TIME  *         0.70 SEC
 DISK USED  *        34.75 MB      
 **********************************************************************************************************************************


 PROGRAM * CCSD (Restricted open-shell coupled cluster)     Authors: C. Hampel, H.-J. Werner, 1991, M. Deegan, P.J. Knowles, 1992

                              Distinguishable Cluster modification by D. Kats, 2013

 Convergence thresholds:  THRVAR = 1.00D-08  THRDEN = 1.00D-06

 Number of core orbitals:           1 (   1 )
 Number of closed-shell orbitals:   4 (   4 )
 Number of external orbitals:       2 (   2 )

 Number of N-1 electron functions:               8
 Number of N-2 electron functions:              28
 Number of singly external CSFs:                16
 Number of doubly external CSFs:                76
 Total number of CSFs:                          92

 Molecular orbitals read from record     2100.2  Type=RHF/CANONICAL (state 1.1)

 Integral transformation finished. Total CPU:   0.00 sec, npass=  1  Memory used:   0.07 MW

 Starting RMP2 calculation, locsing= 0

 Wavefunction is spin-projected

 ITER.      SQ.NORM     CORR.ENERGY   TOTAL ENERGY   ENERGY CHANGE        DEN1      VAR(S)    VAR(P)  DIIS     TIME
   1      1.01296229    -0.03519825   -74.99808534    -0.03519825    -0.00015904  0.16D-20  0.57D-04  1  1     0.01
   2      1.01309429    -0.03536927   -74.99825635    -0.00017102    -0.00000002  0.53D-23  0.66D-08  2  2     0.01
   3      1.01309474    -0.03536960   -74.99825668    -0.00000033    -0.00000000  0.18D-25  0.14D-11  3  3     0.01

 Norm of t1 vector:      0.00000000      S-energy:    -0.00000000      T1 diagnostic:  0.00000000
 Norm of t2 vector:      0.11443227      P-energy:    -0.03536960
                                         Alpha-Beta:  -0.03335677
                                         Alpha-Alpha: -0.00100641
                                         Beta-Beta:   -0.00100641

 Spin contamination <S**2-Sz**2-Sz>     0.00000000
  Reference energy                    -74.962887083784
  RHF-RMP2 correlation energy          -0.035369599409
 !RHF-RMP2 energy                     -74.998256683193
 (NB above energy spin projected)

 Starting RDCSD calculation

 ITER.      SQ.NORM     CORR.ENERGY   TOTAL ENERGY   ENERGY CHANGE        DEN1      VAR(S)    VAR(P)  DIIS     TIME
   1      1.02000891    -0.04345543   -75.00634252    -0.04345543    -0.00375200  0.55D-04  0.13D-02  1  1     0.01
   2      1.02625962    -0.04918372   -75.01207081    -0.00572829    -0.00009457  0.16D-04  0.25D-04  2  2     0.01
   3      1.02697586    -0.04955965   -75.01244674    -0.00037593    -0.00000377  0.12D-05  0.75D-06  3  3     0.01
   4      1.02708514    -0.04960120   -75.01248828    -0.00004154    -0.00000017  0.81D-07  0.26D-07  4  4     0.01
   5      1.02709255    -0.04959903   -75.01248612     0.00000216    -0.00000000  0.45D-09  0.76D-09  5  5     0.02
   6      1.02709732    -0.04960206   -75.01248915    -0.00000303    -0.00000000  0.50D-10  0.49D-10  6  6     0.02
   7      1.02709619    -0.04960120   -75.01248829     0.00000086    -0.00000000  0.22D-11  0.29D-11  6  1     0.02

 Norm of t1 vector:      0.01946491      S-energy:    -0.00000000      T1 diagnostic:  0.00486623
                                                                       D1 diagnostic:  0.01337784
 Norm of t2 vector:      0.16345430      P-energy:    -0.04960120
                                         Alpha-Beta:  -0.04775859
                                         Alpha-Alpha: -0.00092131
                                         Beta-Beta:   -0.00092131

 Doubles amplitudes (print threshold =  0.500E-01):

         I         J         SYM. A    SYM. B    A         B      T(IJ, AB) [Alpha-Beta]

         2         2         1         1         2         2     -0.07842925

 Spin contamination <S**2-Sz**2-Sz>     0.00000000


 RESULTS
 =======

  Reference energy                    -74.962887083784
  RDCSD singles energy                 -0.000000000007
  RDCSD pair energy                    -0.049601201515
  RDCSD correlation energy             -0.049601201522

 !RHF-RDCSD energy                    -75.012488285305

 Program statistics:

 Available memory in ccsd:               499999827
 Min. memory needed in ccsd:                  1569
 Max. memory used in ccsd:                    2157
 Max. memory used in cckext:                 37987 ( 7 integral passes)
 Max. memory used in cckint:                 68070 ( 1 integral passes)



 **********************************************************************************************************************************
 DATASETS  * FILE   NREC   LENGTH (MB)   RECORD NAMES
              1      19       29.97       500      610      700      900      950      970     1000      129      960     1100   
                                          VAR    BASINP    GEOM    SYMINP    ZMAT    AOBASIS   BASIS     P2S    ABASIS      S 
                                         1400     1410     1200     1210     1080     1600     1650     1300     1700   
                                           T        V       H0       H01     AOSYM     SMH    MOLCAS    ERIS     OPER   

              2       4        2.78       700     1000      520     2100   
                                         GEOM     BASIS   MCVARS     RHF  

 PROGRAMS   *        TOTAL     RDCSD        HF       INT
 CPU TIMES  *         0.47      0.08      0.07      0.17
 REAL TIME  *         0.82 SEC
 DISK USED  *        34.75 MB      
 **********************************************************************************************************************************


 PROGRAM * Intrinsic Basis Bonding Analysis (IBBA)          Author: G. Knizia

 Molecular orbitals read from record     2100.2  Type=RHF/CANONICAL (state 1.1)
 Fock matrix read from record            2100.2  Type=RHF/TOTAL (state 1.1)
 Orbital energies read from record       2100.2  Type=RHF/CANONICAL (state 1.1)
 Density matrix read from record         2100.2  Type=RHF/CHARGE (state 1.1)

 Number of core orbitals:           1 (   1 )
 Number of closed-shell orbitals:   4 (   4 )

 Basis set MINAO-AUTO-PP generated.      Number of basis functions:   7 

 Polarized AO type:                A = (O Ot + (1-O)(1-Ot)) P12
 Orthogonalization method:         Symmetric (Loewdin)
 Localization functional:          L = sum[A,i] <i|n_A|i>^4 -> max

 Localization group 1:   5 orbitals, occupancy  2.000
 Iterative localization: IB/PM,    4 iter; Final gradient 0.64E-09

 Bond order analysis:       [THRPRINT= 0.020]

   CEN ATOM   CEN ATOM     WIBERG.BO      RENORM.BO
     1   O  -   3   H       0.944444       1.000000
     1   O  -   2   H       0.944444       1.000000

     2   H  -   1   O       0.944444       1.000000

     3   H  -   1   O       0.944444       1.000000


 Valency analysis:

   CEN ATOM   TOT.VALENCE
     1   O       1.888887
     2   H       0.944476
     3   H       0.944477

 Total charge composition:

   CEN ATOM         s          p       ELECTRONS ->P.CHARGE
     1   O       3.65220    4.81907      8.47127   -0.47127
     2   H       0.76437                 0.76437    0.23563
     3   H       0.76437                 0.76437    0.23563

 Total charge composition, AO contributions:

   CEN ATOM SHL      SPHERICAL COMPONENTS
     1   O  1s       1.99669
     1   O  2s       1.65551
     1   O  2p       1.45169    2.00000    1.36738

     2   H  1s       0.76437

     3   H  1s       0.76437

 Summary of localized orbital composition:   [THRPRINT= 0.020]

   ORB  GRP  ORB.ENERGY      CENTERS/CHARGES
     1   1   -20.095341      O  1   2.000
     2   1    -0.890314      O  1   1.236   H  2   0.764
     3   1    -0.890311      O  1   1.236   H  3   0.764
     4   1    -0.705423      O  1   2.000
     5   1    -0.391266      O  1   2.000

 Localized orbitals saved to record      2100.2  (orbital set 2)


 **********************************************************************************************************************************
 DATASETS  * FILE   NREC   LENGTH (MB)   RECORD NAMES
              1      19       29.97       500      610      700      900      950      970     1000      129      960     1100   
                                          VAR    BASINP    GEOM    SYMINP    ZMAT    AOBASIS   BASIS     P2S    ABASIS      S 
                                         1400     1410     1200     1210     1080     1600     1650     1300     1700   
                                           T        V       H0       H01     AOSYM     SMH    MOLCAS    ERIS     OPER   

              2       4        2.78       700     1000      520     2100   
                                         GEOM     BASIS   MCVARS     RHF  

 PROGRAMS   *        TOTAL      IBBA     RDCSD        HF       INT
 CPU TIMES  *         0.49      0.02      0.08      0.07      0.17
 REAL TIME  *         0.85 SEC
 DISK USED  *        34.75 MB      
 **********************************************************************************************************************************

 IBBA/STO-3G energy=      0.000000000000

        RDCSD           HF-SCF  
    -75.01248829    -74.96288708
 **********************************************************************************************************************************
 Molpro calculation terminated
