
 Primary working directories    : /local/molpro.1uY3kij7Tv
 Secondary working directories  : /local/molpro.1uY3kij7Tv
 Wavefunction directory         : /local/
 Main file repository           : /local/molpro.1uY3kij7Tv/

 id        : simonbennie

 Nodes     nprocs
 node44-002    1

 Using customized tuning parameters: mindgm=1; mindgv=20; mindgc=4; mindgr=1; noblas=0; minvec=7
 default implementation of scratch files=df  

 memory,500,m
 geomtyp=xyz
 nosym
 noorient
 geometry={
 O          0.00000        0.00000        0.00000
 H          0.00000        0.00000        0.95691
 H          0.92636        0.00000       -0.23987
 }
 basis={default,sto-3g}
 {uhf,direct;wf,10,1,0}
 
 basis={ default,6-31+G(d,p) }
 {uks,VWN,direct;wf,10,1,0}
 {ibba,bonds=1}

 Variables initialized (920), CPU time= 0.01 sec
 Commands  initialized (754), CPU time= 0.00 sec, 615 directives.
 Default parameters read. Elapsed time= 0.16 sec

 Checking input...
 Passed
1


                                         ***  PROGRAM SYSTEM MOLPRO  ***
                                       Copyright, TTI GmbH Stuttgart, 2015
                                    Version 2018.0 linked Jul  6 2018 18:07:13


 **********************************************************************************************************************************
 LABEL *                                                                                 
  64 bit serial version                                                                  DATE: 11-Oct-18          TIME: 13:59:26  
 **********************************************************************************************************************************

 SHA1:             b58f8fddb9d75525be9261ebe3faf0e4279c479b
 **********************************************************************************************************************************
 SETTING GEOMTYP        =    XYZ

 Variable memory set to  500000000 words,  buffer space 

 ZSYMEL=NOSYM

 SETTING BASIS          =    STO-3G


 Recomputing integrals since basis changed


 Using spherical harmonics

 Library entry O      S STO-3G               selected for orbital group  1
 Library entry O      P STO-3G               selected for orbital group  1
 Library entry H      S STO-3G               selected for orbital group  2


 PROGRAM * SEWARD (Integral evaluation for generally contracted gaussian basis sets)     Author: Roland Lindh, 1990

 Geometry written to block  1 of record 700


 Point group  C1  



 ATOMIC COORDINATES

 NR  ATOM    CHARGE       X              Y              Z

   1  O       8.00    0.000000000    0.000000000    0.000000000
   2  H       1.00    0.000000000    0.000000000    1.808297826
   3  H       1.00    1.750566693    0.000000000   -0.453288605

 Bond lengths in Bohr (Angstrom)

 1-2  1.808297826  1-3  1.808301497
     ( 0.956910000)     ( 0.956911943)

 Bond angles

  2-1-3  104.51721750

 NUCLEAR CHARGE:                   10
 NUMBER OF PRIMITIVE AOS:          21
 NUMBER OF SYMMETRY AOS:           21
 NUMBER OF CONTRACTIONS:            7   (   7A   )
 NUMBER OF CORE ORBITALS:           1   (   1A   )
 NUMBER OF VALENCE ORBITALS:        6   (   6A   )


 NUCLEAR REPULSION ENERGY    9.19774870

 EXTRA SYMMETRY OF AOS IN SYMMETRY 1:   1 1 1 2 1 1 1

 Eigenvalues of metric

         1 0.342E+00 0.416E+00 0.886E+00 0.100E+01 0.109E+01 0.133E+01 0.193E+01


 Contracted 2-electron integrals neglected if value below      1.0D-11
 AO integral compression algorithm  1   Integral accuracy      1.0D-11

     0.262 MB (compressed) written to integral file (100.0%)


 NUMBER OF SORTED TWO-ELECTRON INTEGRALS:        406.     BUFFER LENGTH:  32768
 NUMBER OF SEGMENTS:   1  SEGMENT LENGTH:        406      RECORD LENGTH: 524288

 Memory used in sort:       0.56 MW

 SORT1 READ         543. AND WROTE         206. INTEGRALS IN      1 RECORDS. CPU TIME:     0.00 SEC, REAL TIME:     0.03 SEC
 SORT2 READ         206. AND WROTE         406. INTEGRALS IN      1 RECORDS. CPU TIME:     0.00 SEC, REAL TIME:     0.00 SEC

 FILE SIZES:   FILE 1:    30.2 MBYTE,  FILE 4:     4.2 MBYTE,   TOTAL:     34.5 MBYTE

 OPERATOR DM      FOR CENTER  0  COORDINATES:    0.000000    0.000000    0.000000


 **********************************************************************************************************************************
 DATASETS  * FILE   NREC   LENGTH (MB)   RECORD NAMES
              1      19       29.97       500      610      700      900      950      970     1000      129      960     1100   
                                          VAR    BASINP    GEOM    SYMINP    ZMAT    AOBASIS   BASIS     P2S    ABASIS      S 
                                         1400     1410     1200     1210     1080     1600     1650     1300     1700   
                                           T        V       H0       H01     AOSYM     SMH    MOLCAS    ERIS     OPER   

 PROGRAMS   *        TOTAL       INT
 CPU TIMES  *         0.40      0.27
 REAL TIME  *         0.91 SEC
 DISK USED  *        34.75 MB
 **********************************************************************************************************************************


 PROGRAM * UHF-SCF       Authors: W. Meyer, H.-J. Werner


 NUMBER OF ELECTRONS:       5+    5-    SPACE SYMMETRY=1    SPIN SYMMETRY: Singlet 
 CONVERGENCE THRESHOLDS:    1.00E-05 (Density)    1.00E-07 (Energy)
 INTEGRAL THRESHOLDS:       1.00E-11 (Initial)    1.00E-11 (Final)
 MAX. NUMBER OF ITERATIONS:       60
 INTERPOLATION TYPE:            DIIS
 INTERPOLATION STEPS:              2 (START)      1 (STEP)
 LEVEL SHIFTS:                 -0.20 (ALPHA)  -0.20 (BETA) 



 Orbital guess generated from atomic densities. Full valence occupancy:    5

 Molecular orbital dump at record        2200.2

 Initial alpha occupation   5
 Initial beta  occupation   5

 Direct Fock-matrix evaluation.        Author: H.-J. Werner (1996)

 Integral Threshold:                  0.1D-10

 ITERATION   DDIFF            GRAD            ENERGY        2-EL.EN.            DIPOLE MOMENTS         DIIS   CPU(IT)  CPU(TOT)
    1      0.000D+00      0.000D+00       -74.87256823     79.763749    0.98587   -0.00000    0.76311    0      1.0      1.8
    2      0.927D-01      0.468D-01       -74.95677535     77.193833    0.66102   -0.00000    0.51166    1      0.5      2.3
    3      0.321D-01      0.116D-01       -74.96264901     76.457922    0.55150   -0.00000    0.42688    2      0.5      2.8
    4      0.708D-02      0.212D-02       -74.96286839     76.439531    0.54058   -0.00000    0.41843    3      0.5      3.3
    5      0.211D-02      0.498D-03       -74.96288448     76.432753    0.53762   -0.00000    0.41614    4      0.5      3.8
    6      0.918D-03      0.174D-03       -74.96288708     76.430998    0.53711   -0.00000    0.41574    5      0.7      4.5
    7      0.290D-04      0.595D-05       -74.96288708     76.430647    0.53705   -0.00000    0.41570    5      0.7      5.2
    8      0.248D-06      0.479D-07       -74.96288708     76.430649    0.53705   -0.00000    0.41570    5      0.6      5.8
    9      0.539D-09      0.110D-09       -74.96288708     76.430649    0.53705   -0.00000    0.41570    3      0.5      6.4

 Final alpha occupancy:   5
 Final beta  occupancy:   5

 !UHF STATE  1.1 Energy               -74.962887083912
 Nuclear energy                         9.19774870
 One-electron energy                 -122.37596050
 Two-electron energy                   38.21532471
 Virial quotient                       -1.00500463
 !UHF STATE  1.1 Dipole moment          0.53704855    -0.00000000     0.41569887
 Dipole moment /Debye                   1.36495186    -0.00000000     1.05653193

 Orbital energies for positive spin:

         1.1          2.1          3.1          4.1          5.1          6.1          7.1
    -20.241709    -1.268561    -0.618083    -0.453036    -0.391266     0.605968     0.742735

 Orbital energies for negative spin:

         1.1          2.1          3.1          4.1          5.1          6.1          7.1
    -20.241709    -1.268561    -0.618083    -0.453036    -0.391266     0.605968     0.742735


 HOMO      5.1    -0.391266 =     -10.6469eV
 LUMO      6.1     0.605968 =      16.4892eV
 LUMO-HOMO         0.997234 =      27.1361eV

 EXPECTATION VALUE OF S**2:             0.00000000

 Occupation number threshold for pseudo-canonical orbitals: 1.9990 (occupied), 0.0010 (virtual)

 Number of pseudo-canonical occupied orbitals per symmetry:    5
 Number of active natural orbitals per symmetry:               0

 Natural orbitals saved to record    2200.2 (Orbital set 3)

 Orbital spaces for UNO-CAS (Min. occupation: 0.020  Max. occupation: 1.980):

 Closed:        5
 Active:        0


 **********************************************************************************************************************************
 DATASETS  * FILE   NREC   LENGTH (MB)   RECORD NAMES
              1      19       29.97       500      610      700      900      950      970     1000      129      960     1100   
                                          VAR    BASINP    GEOM    SYMINP    ZMAT    AOBASIS   BASIS     P2S    ABASIS      S 
                                         1400     1410     1200     1210     1080     1600     1650     1300     1700   
                                           T        V       H0       H01     AOSYM     SMH    MOLCAS    ERIS     OPER   

              2       4        2.79       700     1000      520     2200   
                                         GEOM     BASIS   MCVARS     UHF  

 PROGRAMS   *        TOTAL   UHF-SCF       INT
 CPU TIMES  *         6.81      6.41      0.27
 REAL TIME  *        13.47 SEC
 DISK USED  *        34.75 MB
 **********************************************************************************************************************************
 SETTING BASIS          =    6-31+G(D,P)


 Recomputing integrals since basis changed


 Using spherical harmonics

 Library entry O      S 6-31G                selected for orbital group  1
 Library entry O      S 6-31++G              selected for orbital group  1
 Library entry O      P 6-31G                selected for orbital group  1
 Library entry O      P 6-31++G              selected for orbital group  1
 Library entry O      D 6-31G*               selected for orbital group  1
 Library entry H      S 6-31G                selected for orbital group  2
 Library entry H      P 6-31G**              selected for orbital group  2


 PROGRAM * SEWARD (Integral evaluation for generally contracted gaussian basis sets)     Author: Roland Lindh, 1990

 Geometry written to block  1 of record 700


 Point group  C1  



 ATOMIC COORDINATES

 NR  ATOM    CHARGE       X              Y              Z

   1  O       8.00    0.000000000    0.000000000    0.000000000
   2  H       1.00    0.000000000    0.000000000    1.808297826
   3  H       1.00    1.750566693    0.000000000   -0.453288605

 Bond lengths in Bohr (Angstrom)

 1-2  1.808297826  1-3  1.808301497
     ( 0.956910000)     ( 0.956911943)

 Bond angles

  2-1-3  104.51721750

 NUCLEAR CHARGE:                   10
 NUMBER OF PRIMITIVE AOS:          46
 NUMBER OF SYMMETRY AOS:           45
 NUMBER OF CONTRACTIONS:           28   (  28A   )
 NUMBER OF CORE ORBITALS:           1   (   1A   )
 NUMBER OF VALENCE ORBITALS:        6   (   6A   )


 NUCLEAR REPULSION ENERGY    9.19774870

 EXTRA SYMMETRY OF AOS IN SYMMETRY 1:   1 1 1 1 1 2 1 1 2 1   1 2 1 1 2 1 1 2 1 1   1 2 1 1 1 1 2 1

 Eigenvalues of metric

         1 0.203E-01 0.503E-01 0.543E-01 0.774E-01 0.157E+00 0.219E+00 0.262E+00 0.271E+00


 Contracted 2-electron integrals neglected if value below      1.0D-11
 AO integral compression algorithm  1   Integral accuracy      1.0D-11

     0.524 MB (compressed) written to integral file ( 32.4%)


 NUMBER OF SORTED TWO-ELECTRON INTEGRALS:      82621.     BUFFER LENGTH:  32768
 NUMBER OF SEGMENTS:   1  SEGMENT LENGTH:      82621      RECORD LENGTH: 524288

 Memory used in sort:       0.64 MW

 SORT1 READ      110532. AND WROTE       32408. INTEGRALS IN      1 RECORDS. CPU TIME:     0.00 SEC, REAL TIME:     0.00 SEC
 SORT2 READ       32408. AND WROTE       82621. INTEGRALS IN      2 RECORDS. CPU TIME:     0.01 SEC, REAL TIME:     0.01 SEC

 FILE SIZES:   FILE 1:    30.5 MBYTE,  FILE 4:     4.2 MBYTE,   TOTAL:     34.8 MBYTE

 OPERATOR DM      FOR CENTER  0  COORDINATES:    0.000000    0.000000    0.000000


 **********************************************************************************************************************************
 DATASETS  * FILE   NREC   LENGTH (MB)   RECORD NAMES
              1      19       30.21       500      610      700      900      950      970     1001      129      960     1100   
                                          VAR    BASINP    GEOM    SYMINP    ZMAT    AOBASIS   BASIS     P2S    ABASIS      S 
                                         1400     1410     1200     1210     1080     1600     1650     1300     1700   
                                           T        V       H0       H01     AOSYM     SMH    MOLCAS    ERIS     OPER   

              2       5        2.79       700     1000      520     2200     1001   
                                         GEOM     BASIS   MCVARS     UHF     BASIS   

 PROGRAMS   *        TOTAL       INT   UHF-SCF       INT
 CPU TIMES  *         7.11      0.30      6.41      0.27
 REAL TIME  *        13.83 SEC
 DISK USED  *        37.59 MB
 **********************************************************************************************************************************

 Density functional group VWN=VWN5
 Functional: VWN5(Automatically generated (new) VWN5)                          Gradient terms: 0
 Use libxcgrid:  F
 Use grid at  1800.2

 Functional: VWN5                      Factor:  1.0000

 Generated new metagrid on record  1800.2 with target accuracy 1.0D-06 and 10788 points in CPU time    0.2
 Computed new grid on record 1800.1 in CPU time    0.2
   15386 words reserved for DFT integration

 PROGRAM * UKS-SCF (Unrestricted Kohn-Sham)     Authors: W. Meyer, H.-J. Werner, P.J. Knowles, 1993

 NUMBER OF ELECTRONS:       5+    5-    SPACE SYMMETRY=1    SPIN SYMMETRY: Singlet 
 CONVERGENCE THRESHOLDS:    1.00E-05 (Density)    1.00E-06 (Energy)
 MAX. NUMBER OF ITERATIONS:       60
 INTERPOLATION TYPE:            DIIS
 INTERPOLATION STEPS:              2 (START)      1 (STEP)
 LEVEL SHIFTS:                 -0.20 (ALPHA)  -0.20 (BETA) 



 Use fine grid record 1800.2 for energy threshold  1.0D-06
 Molecular orbitals read from record     2200.2  Type=UHF/ALPHA (state 1.1)

 Present basis size:      28
 Previous basis size:      7
 Previous occupation:      5
 Previous closed-shells:   5
 Previous core-orbitals:   1
 Present occupation:       5
 Present closed-shells:    5
 Present core-orbitals:    1
 Wavefunction symmetry:    1   Singlet 

 Orbital overlap <old|new>:  < 1.1| 1.1> = 0.999844   < 2.1| 2.1> = 0.999611   < 3.1| 3.1> = 0.998894   < 4.1| 4.1> = 0.997464
                             < 5.1| 5.1> = 0.995798

 Molecular orbitals read from record     2200.2  Type=UHF/BETA (state 1.1)

 Present basis size:      28
 Previous basis size:      7
 Previous occupation:      5
 Previous closed-shells:   5
 Previous core-orbitals:   1
 Present occupation:       5
 Present closed-shells:    5
 Present core-orbitals:    1
 Wavefunction symmetry:    1   Singlet 

 Orbital overlap <old|new>:  < 1.1| 1.1> = 0.999844   < 2.1| 2.1> = 0.999611   < 3.1| 3.1> = 0.998894   < 4.1| 4.1> = 0.997464
                             < 5.1| 5.1> = 0.995798


 Molecular orbital dump at record        2201.2

 Initial alpha occupation   5
 Initial beta  occupation   5

 ITERATION    DDIFF          GRAD             ENERGY        2-EL.EN.            DIPOLE MOMENTS         DIIS
    1      0.000D+00      0.000D+00       -67.34946368     96.322020    0.52805    0.00000    0.40873    0
    2      0.803D-01      0.483D-01       -67.53427554     74.025724    0.07526    0.00000    0.05826    1
    3      0.430D-01      0.427D-01       -68.03088964     86.863572    0.59263   -0.00000    0.45872    2
    4      0.128D-01      0.835D-02       -68.05906201     84.066591    0.63461    0.00000    0.49122    3
    5      0.380D-02      0.132D-02       -68.06008355     84.162612    0.67465    0.00000    0.52221    4
    6      0.107D-02      0.326D-03       -68.06017235     84.211344    0.69527    0.00000    0.53817    5
    7      0.355D-03      0.645D-04       -68.06017818     84.215670    0.69830   -0.00000    0.54051    6
    8      0.172D-03      0.251D-04       -68.06017880     84.209027    0.69948    0.00000    0.54143    5
    9      0.303D-04      0.644D-05       -68.06017883     84.211235    0.69969   -0.00000    0.54159    5
   10      0.168D-04      0.233D-05       -68.06017883     84.210810    0.69976    0.00000    0.54164    6
   11      0.242D-05      0.281D-06       -68.06017883     84.210794    0.69977    0.00000    0.54165    6
   12      0.288D-06      0.599D-07       -68.06017883     84.210803    0.69978    0.00000    0.54165    6

 Final alpha occupancy:   5
 Final beta  occupancy:   5

 !UKS STATE  1.1 Energy               -68.060178832224
 Nuclear energy                         9.19774870
 One-electron energy                 -118.73044682
 Two-electron energy                   42.10540167
 Density functional                    -0.63288238     VWN5=-0.63288238
 Virial quotient                       -0.94514062
 !UKS STATE  1.1 Dipole moment          0.69977526     0.00000000     0.54165353
 Dipole moment /Debye                   1.77853482     0.00000000     1.37665577

 Orbital energies for positive spin:

         1.1          2.1          3.1          4.1          5.1          6.1          7.1
    -16.675353    -0.614102    -0.216245    -0.084628    -0.024579     0.126503     0.194058

 Orbital energies for negative spin:

         1.1          2.1          3.1          4.1          5.1          6.1          7.1
    -16.675353    -0.614102    -0.216245    -0.084628    -0.024579     0.126503     0.194058


 HOMO      5.1    -0.024579 =      -0.6688eV
 LUMO      6.1     0.126503 =       3.4423eV
 LUMO-HOMO         0.151082 =       4.1112eV

 EXPECTATION VALUE OF S**2:             0.00000000

 Occupation number threshold for pseudo-canonical orbitals: 1.9990 (occupied), 0.0010 (virtual)

 Number of pseudo-canonical occupied orbitals per symmetry:    5
 Number of active natural orbitals per symmetry:               0

 Natural orbitals saved to record    2201.2 (Orbital set 3)

 Orbital spaces for UNO-CAS (Min. occupation: 0.020  Max. occupation: 1.980):

 Closed:        5
 Active:        0


 **********************************************************************************************************************************
 DATASETS  * FILE   NREC   LENGTH (MB)   RECORD NAMES
              1      20       30.56       500      610      700      900      950      970     1001      129      960     1100   
                                          VAR    BASINP    GEOM    SYMINP    ZMAT    AOBASIS   BASIS     P2S    ABASIS      S 
                                         1400     1410     1200     1210     1080     1600     1650     1300     1700     1800   
                                           T        V       H0       H01     AOSYM     SMH    MOLCAS    ERIS     OPER     GRID   

              2       7        5.32       700     1000      520     2200     1001     1800     2201   
                                         GEOM     BASIS   MCVARS     UHF     BASIS    GRID      UKS  

 PROGRAMS   *        TOTAL   UKS-SCF       INT   UHF-SCF       INT
 CPU TIMES  *         7.69      0.58      0.30      6.41      0.27
 REAL TIME  *        14.47 SEC
 DISK USED  *        37.59 MB
 **********************************************************************************************************************************


 PROGRAM * Intrinsic Basis Bonding Analysis (IBBA)          Author: G. Knizia

 Molecular orbitals read from record     2201.2  Type=UKS/ALPHA (state 1.1)
 Fock matrix read from record            2201.2  Type=UKS/TOTAL (state 1.1)
 Orbital energies read from record       2201.2  Type=UKS/ALPHA (state 1.1)
 Density matrix read from record         2201.2  Type=UKS/CHARGE (state 1.1)

 Number of core orbitals:           1 (   1 )
 Number of closed-shell orbitals:   4 (   4 )

 Basis set MINAO-AUTO-PP generated.      Number of basis functions:   7 

 Polarized AO type:                A = (O Ot + (1-O)(1-Ot)) P12
 Orthogonalization method:         Symmetric (Loewdin)
 Localization functional:          L = sum[A,i] <i|n_A|i>^4 -> max

 Localization group 1:   5 orbitals, occupancy  2.000
 Iterative localization: IB/PM,    4 iter; Final gradient 0.41E-08

 Bond order analysis:       [THRPRINT= 0.020]

   CEN ATOM   CEN ATOM     WIBERG.BO      RENORM.BO
     1   O  -   3   H       0.935706       1.000000
     1   O  -   2   H       0.935706       1.000000

     2   H  -   1   O       0.935706       1.000000

     3   H  -   1   O       0.935706       1.000000


 Valency analysis:

   CEN ATOM   TOT.VALENCE
     1   O       1.871411
     2   H       0.935870
     3   H       0.935870

 Total charge composition:

   CEN ATOM         s          p       ELECTRONS ->P.CHARGE
     1   O       3.58479    4.92169      8.50648   -0.50648
     2   H       0.74676                 0.74676    0.25324
     3   H       0.74676                 0.74676    0.25324

 Total charge composition, AO contributions:

   CEN ATOM SHL      SPHERICAL COMPONENTS
     1   O  1s       1.99845
     1   O  2s       1.58634
     1   O  2p       1.50967    2.00000    1.41202

     2   H  1s       0.74676

     3   H  1s       0.74676

 Summary of localized orbital composition:   [THRPRINT= 0.020]

   ORB  GRP  ORB.ENERGY      CENTERS/CHARGES
     1   1   -16.576675      O  1   2.000
     2   1    -0.415701      O  1   1.253   H  2   0.747
     3   1    -0.415700      O  1   1.253   H  3   0.747
     4   1    -0.182251      O  1   2.000
     5   1    -0.024579      O  1   2.000

 Localized orbitals saved to record      2201.2  (orbital set 4)


 **********************************************************************************************************************************
 DATASETS  * FILE   NREC   LENGTH (MB)   RECORD NAMES
              1      20       30.56       500      610      700      900      950      970     1001      129      960     1100   
                                          VAR    BASINP    GEOM    SYMINP    ZMAT    AOBASIS   BASIS     P2S    ABASIS      S 
                                         1400     1410     1200     1210     1080     1600     1650     1300     1700     1800   
                                           T        V       H0       H01     AOSYM     SMH    MOLCAS    ERIS     OPER     GRID   

              2       7        5.33       700     1000      520     2200     1001     1800     2201   
                                         GEOM     BASIS   MCVARS     UHF     BASIS    GRID      UKS  

 PROGRAMS   *        TOTAL      IBBA   UKS-SCF       INT   UHF-SCF       INT
 CPU TIMES  *         7.71      0.02      0.58      0.30      6.41      0.27
 REAL TIME  *        14.49 SEC
 DISK USED  *        37.59 MB
 **********************************************************************************************************************************

 IBBA/6-31+G(D,P) energy=      0.000000000000

         UKS-SCF         UHF-SCF
    -68.06017883    -74.96288708
 **********************************************************************************************************************************
 Molpro calculation terminated
