
 Primary working directories    : /local
 Secondary working directories  : /local
 Wavefunction directory         : /local/
 Main file repository           : /local/

 SHA1      : b4a5b34a9e711420743f49e6833241d17c61fb3c
 NAME      : 2099.9.b4a5b34
 ARCHNAME  : linux/x86_64_openmp
 FC        : /cm/shared/languages/GCC-6.1/bin/gfortran
 BLASLIB   : -lblas
 id        : simonbennie

 Nodes     nprocs
 node35-029    1

 Using customized tuning parameters: mindgm=1; mindgv=20; mindgc=4; mindgr=1; noblas=0; minvec=7
 default implementation of scratch files=df  

 memory,500,m
 geomtyp=xyz
 nosym
 noorient
 geometry={
 O          0.00000        0.00000        0.00000
 H          0.00000        0.00000        0.95691
 H          0.92636        0.00000       -0.23987
 }
 basis={ default,avtz }
 {ks,LDA,direct;wf,10,1,0}
 {ibba,bonds=1}

 Variables initialized (895), CPU time= 0.00 sec
 Commands  initialized (725), CPU time= 0.02 sec, 591 directives.
 Default parameters read. Elapsed time= 0.08 sec

 Checking input...
 Passed
1


                                         ***  PROGRAM SYSTEM MOLPRO  ***
                                       Copyright, TTI GmbH Stuttgart, 2015
                                    Version 2099.9 linked May 26 2017 16:03:21


 **********************************************************************************************************************************
 LABEL *                                                                                 
  64 bit serial version                                                                  DATE: 29-Jun-17          TIME: 22:26:54  
 **********************************************************************************************************************************

 SHA1:             b4a5b34a9e711420743f49e6833241d17c61fb3c
 **********************************************************************************************************************************
 SETTING GEOMTYP        =    XYZ

 Variable memory set to  500000000 words,  buffer space 

 ZSYMEL=NOSYM

 SETTING BASIS          =    AVTZ


 Recomputing integrals since basis changed


 Using spherical harmonics

 Library entry O      S aug-cc-pVTZ          selected for orbital group  1
 Library entry O      P aug-cc-pVTZ          selected for orbital group  1
 Library entry O      D aug-cc-pVTZ          selected for orbital group  1
 Library entry O      F aug-cc-pVTZ          selected for orbital group  1
 Library entry H      S aug-cc-pVTZ          selected for orbital group  2
 Library entry H      P aug-cc-pVTZ          selected for orbital group  2
 Library entry H      D aug-cc-pVTZ          selected for orbital group  2


 PROGRAM * SEWARD (Integral evaluation for generally contracted gaussian basis sets)     Author: Roland Lindh, 1990

 Geometry written to block  1 of record 700


 Point group  C1  



 ATOMIC COORDINATES

 NR  ATOM    CHARGE       X              Y              Z

   1  O       8.00    0.000000000    0.000000000    0.000000000
   2  H       1.00    0.000000000    0.000000000    1.808297826
   3  H       1.00    1.750566693    0.000000000   -0.453288605

 Bond lengths in Bohr (Angstrom)

 1-2  1.808297826  1-3  1.808301497
     ( 0.956910000)     ( 0.956911943)

 Bond angles

  2-1-3  104.51721750

 NUCLEAR CHARGE:                   10
 NUMBER OF PRIMITIVE AOS:         121
 NUMBER OF SYMMETRY AOS:          108
 NUMBER OF CONTRACTIONS:           92   (  92A   )
 NUMBER OF CORE ORBITALS:           1   (   1A   )
 NUMBER OF VALENCE ORBITALS:        6   (   6A   )


 NUCLEAR REPULSION ENERGY    9.19774870

 EXTRA SYMMETRY OF AOS IN SYMMETRY 1:   1 1 1 1 1 1 2 1 1 2   1 1 2 1 1 2 1 1 2 1   1 2 1 2 1 1 2 1 2 1   1 2 1 2 1 1 2 2 1 1
                                        2 1 1 2 2 1 1 1 1 1   1 2 1 1 2 1 1 2 1 1   2 1 1 2 1 2 1 1 2 1   1 1 1 1 2 1 1 2 1 1
                                        2 1 1 2 1 1 2 1 2 1   1 2

 Eigenvalues of metric

         1 0.384E-03 0.392E-03 0.166E-02 0.186E-02 0.319E-02 0.505E-02 0.554E-02 0.593E-02


 Contracted 2-electron integrals neglected if value below      1.0D-11
 AO integral compression algorithm  1   Integral accuracy      1.0D-11

     24.642 MB (compressed) written to integral file ( 25.9%)


 NUMBER OF SORTED TWO-ELECTRON INTEGRALS:    9152781.     BUFFER LENGTH:  32768
 NUMBER OF SEGMENTS:   1  SEGMENT LENGTH:    9152781      RECORD LENGTH: 524288

 Memory used in sort:       9.71 MW

 SORT1 READ    11938930. AND WROTE     3722688. INTEGRALS IN     11 RECORDS. CPU TIME:     0.06 SEC, REAL TIME:     0.12 SEC
 SORT2 READ     3722688. AND WROTE     9152781. INTEGRALS IN     94 RECORDS. CPU TIME:     0.24 SEC, REAL TIME:     0.28 SEC

 FILE SIZES:   FILE 1:    54.9 MBYTE,  FILE 4:    46.2 MBYTE,   TOTAL:    101.1 MBYTE

 OPERATOR DM      FOR CENTER  0  COORDINATES:    0.000000    0.000000    0.000000


 **********************************************************************************************************************************
 DATASETS  * FILE   NREC   LENGTH (MB)   RECORD NAMES
              1      19       48.89       500      610      700      900      950      970     1000      129      960     1100   
                                          VAR    BASINP    GEOM    SYMINP    ZMAT    AOBASIS   BASIS     P2S    ABASIS      S 
                                         1400     1410     1200     1210     1080     1600     1650     1300     1700   
                                           T        V       H0       H01     AOSYM     SMH    MOLCAS    ERIS     OPER   

 PROGRAMS   *        TOTAL       INT
 CPU TIMES  *         1.00      0.85
 REAL TIME  *         1.40 SEC
 DISK USED  *       101.43 MB      
 **********************************************************************************************************************************

 Density functional group LDA=DIRAC+VWN5
 Functional: DIRAC(Automatically generated (new) DIRAC)                        Gradient terms: 0
 Functional: VWN5(Automatically generated (new) VWN5)                          Gradient terms: 0
 Use grid at  1800.2

 Functional: DIRAC                     Factor:  1.0000
 Functional: VWN5                      Factor:  1.0000

 Generated new metagrid on record  1800.2 with target accuracy 1.0D-06 and 11136 points in CPU time    0.2
 Computed new grid on record 1800.1 in CPU time    0.2
   41960 words reserved for DFT integration

 PROGRAM * RKS-SCF (Restricted closed shell Kohn-Sham)     Authors: W. Meyer, H.-J. Werner, P.J. Knowles, 1993

 NUMBER OF ELECTRONS:       5+    5-    SPACE SYMMETRY=1    SPIN SYMMETRY: Singlet 
 CONVERGENCE THRESHOLDS:    1.00E-05 (Density)    1.00E-06 (Energy)
 MAX. NUMBER OF ITERATIONS:       60
 INTERPOLATION TYPE:            DIIS
 INTERPOLATION STEPS:              2 (START)      1 (STEP)
 LEVEL SHIFTS:                  0.00 (CLOSED)  0.00 (OPEN) 



 Use fine grid record 1800.2 for energy threshold  1.0D-06
 Orbital guess generated from atomic densities. Full valence occupancy:    7

 Molecular orbital dump at record        2100.2

 Initial occupancy:   5

 ITERATION    DDIFF          GRAD             ENERGY        2-EL.EN.            DIPOLE MOMENTS         DIIS   ORB.
    1      0.000D+00      0.000D+00       -75.81932151     98.102757    0.88674   -0.00000    0.68637    0    start
    2      0.000D+00      0.166D-01       -75.44361405     81.905878   -0.28265    0.00000   -0.21876    1    diag
    3      0.299D-01      0.375D-01       -75.90495158     93.466375    0.59676    0.00000    0.46192    2    diag
    4      0.205D-01      0.868D-03       -75.90528766     93.100269    0.57760   -0.00000    0.44709    3    diag
    5      0.686D-03      0.225D-03       -75.90530178     93.148403    0.57569    0.00000    0.44561    4    diag
    6      0.107D-03      0.562D-04       -75.90530283     93.161531    0.57751   -0.00000    0.44702    5    diag
    7      0.277D-04      0.270D-05       -75.90530283     93.162148    0.57749   -0.00000    0.44701    6    diag
    8      0.128D-05      0.369D-06       -75.90530283     93.162478    0.57751   -0.00000    0.44702    0    orth

 Final occupancy:   5

 !RKS STATE 1.1 Energy                -75.905302828594
 Nuclear energy                         9.19774870
 One-electron energy                 -122.94803789
 Two-electron energy                   46.58123888
 Density functional                    -8.73625253     DIRAC=-8.07465213 VWN5=-0.66160040
 Virial quotient                       -1.00590543
 !RKS STATE 1.1 Dipole moment           0.57751496    -0.00000000     0.44702420
 Dipole moment /Debye                   1.46780046    -0.00000000     1.13614778

 Orbital energies:

         1.1          2.1          3.1          4.1          5.1          6.1          7.1
    -18.612423    -0.927573    -0.488259    -0.345948    -0.272027    -0.033231     0.019103

 HOMO      5.1    -0.272027 =      -7.4022eV
 LUMO      6.1    -0.033231 =      -0.9043eV
 LUMO-HOMO         0.238796 =       6.4980eV


 **********************************************************************************************************************************
 DATASETS  * FILE   NREC   LENGTH (MB)   RECORD NAMES
              1      20       49.25       500      610      700      900      950      970     1000      129      960     1100   
                                          VAR    BASINP    GEOM    SYMINP    ZMAT    AOBASIS   BASIS     P2S    ABASIS      S 
                                         1400     1410     1200     1210     1080     1600     1650     1300     1700     1800   
                                           T        V       H0       H01     AOSYM     SMH    MOLCAS    ERIS     OPER     GRID   

              2       5        2.96       700     1000      520     1800     2100   
                                         GEOM     BASIS   MCVARS    GRID      RKS  

 PROGRAMS   *        TOTAL        KS       INT
 CPU TIMES  *         2.51      1.50      0.85
 REAL TIME  *         2.96 SEC
 DISK USED  *       101.43 MB      
 **********************************************************************************************************************************


 PROGRAM * Intrinsic Basis Bonding Analysis (IBBA)          Author: G. Knizia

 Molecular orbitals read from record     2100.2  Type=RKS/CANONICAL (state 1.1)
 Fock matrix read from record            2100.2  Type=RKS/TOTAL (state 1.1)
 Orbital energies read from record       2100.2  Type=RKS/CANONICAL (state 1.1)
 Density matrix read from record         2100.2  Type=RKS/CHARGE (state 1.1)

 Number of core orbitals:           1 (   1 )
 Number of closed-shell orbitals:   4 (   4 )

 Basis set MINAO-AUTO-PP generated.      Number of basis functions:   7 

 Polarized AO type:                A = (O Ot + (1-O)(1-Ot)) P12
 Orthogonalization method:         Symmetric (Loewdin)
 Localization functional:          L = sum[A,i] <i|n_A|i>^4 -> max

 Localization group 1:   5 orbitals, occupancy  2.000
 Iterative localization: IB/PM,    4 iter; Final gradient 0.70E-08

 Bond order analysis:       [THRPRINT= 0.020]

   CEN ATOM   CEN ATOM     WIBERG.BO      RENORM.BO
     1   O  -   3   H       0.859737       1.000000
     1   O  -   2   H       0.859736       1.000000

     2   H  -   1   O       0.859736       1.000000

     3   H  -   1   O       0.859737       1.000000


 Valency analysis:

   CEN ATOM   TOT.VALENCE
     1   O       1.719474
     2   H       0.859935
     3   H       0.859936

 Total charge composition:

   CEN ATOM         s          p       ELECTRONS ->P.CHARGE
     1   O       3.64302    5.10548      8.74850   -0.74850
     2   H       0.62575                 0.62575    0.37425
     3   H       0.62575                 0.62575    0.37425

 Total charge composition, AO contributions:

   CEN ATOM SHL      SPHERICAL COMPONENTS
     1   O  1s       1.99689
     1   O  2s       1.64613
     1   O  2p       1.59395    2.00000    1.51153

     2   H  1s       0.62575

     3   H  1s       0.62575

 Summary of localized orbital composition:   [THRPRINT= 0.020]

   ORB  GRP  ORB.ENERGY      CENTERS/CHARGES
     1   1   -18.478779      O  1   2.000
     2   1    -0.716183      O  1   1.374   H  2   0.626
     3   1    -0.716181      O  1   1.374   H  3   0.626
     4   1    -0.463059      O  1   2.000
     5   1    -0.272027      O  1   2.000

 Localized orbitals saved to record      2100.2  (orbital set 2)


 **********************************************************************************************************************************
 DATASETS  * FILE   NREC   LENGTH (MB)   RECORD NAMES
              1      20       49.25       500      610      700      900      950      970     1000      129      960     1100   
                                          VAR    BASINP    GEOM    SYMINP    ZMAT    AOBASIS   BASIS     P2S    ABASIS      S 
                                         1400     1410     1200     1210     1080     1600     1650     1300     1700     1800   
                                           T        V       H0       H01     AOSYM     SMH    MOLCAS    ERIS     OPER     GRID   

              2       5        3.03       700     1000      520     1800     2100   
                                         GEOM     BASIS   MCVARS    GRID      RKS  

 PROGRAMS   *        TOTAL      IBBA        KS       INT
 CPU TIMES  *         2.53      0.02      1.50      0.85
 REAL TIME  *         3.01 SEC
 DISK USED  *       101.43 MB      
 **********************************************************************************************************************************
 Molecular orbitals read from record     2100.2  Type=RKS/LOCAL(IBO)  
 Occupation numbers read from record     2100.2  Type=RKS/LOCAL(IBO)  
 Orbital energies read from record       2100.2  Type=RKS/LOCAL(IBO)  
 Redundancy group numbers read from rec  2100.2  Type=RKS/LOCAL(IBO)  

 IBBA/aug-cc-pVTZ energy=      0.000000000000

        KS-SCF  
    -75.90530283
 **********************************************************************************************************************************
 Molpro calculation terminated
