
 Primary working directories    : /local
 Secondary working directories  : /local
 Wavefunction directory         : /local/
 Main file repository           : /local/

 SHA1      : b4a5b34a9e711420743f49e6833241d17c61fb3c
 NAME      : 2099.9.b4a5b34
 ARCHNAME  : linux/x86_64_openmp
 FC        : /cm/shared/languages/GCC-6.1/bin/gfortran
 BLASLIB   : -lblas
 id        : simonbennie

 Nodes     nprocs
 node35-004    1

 Using customized tuning parameters: mindgm=1; mindgv=20; mindgc=4; mindgr=1; noblas=0; minvec=7
 default implementation of scratch files=df  

 memory,500,m
 geomtyp=xyz
 nosym
 noorient
 geometry={
 O          0.00000        0.00000        0.00000
 H          0.00000        0.00000        0.95691
 H          0.92636        0.00000       -0.23987
 }
 basis={ default,svp }
 {hf,direct;wf,10,1,0}
 {df-ks,B3LYP3,direct;maxit,0;wf,10,1,0}
 {ibba,bonds=1}

 Variables initialized (895), CPU time= 0.00 sec
 Commands  initialized (725), CPU time= 0.02 sec, 591 directives.
 Default parameters read. Elapsed time= 0.08 sec

 Checking input...
 Passed
1


                                         ***  PROGRAM SYSTEM MOLPRO  ***
                                       Copyright, TTI GmbH Stuttgart, 2015
                                    Version 2099.9 linked May 26 2017 16:03:21


 **********************************************************************************************************************************
 LABEL *                                                                                 
  64 bit serial version                                                                  DATE: 11-Mar-18          TIME: 02:10:54  
 **********************************************************************************************************************************

 SHA1:             b4a5b34a9e711420743f49e6833241d17c61fb3c
 **********************************************************************************************************************************
 SETTING GEOMTYP        =    XYZ

 Variable memory set to  500000000 words,  buffer space 

 ZSYMEL=NOSYM

 SETTING BASIS          =    SVP


 Recomputing integrals since basis changed


 Using spherical harmonics

 Library entry O      S def2-SVP             selected for orbital group  1
 Library entry O      P def2-SVP             selected for orbital group  1
 Library entry O      D def2-SVP             selected for orbital group  1
 Library entry H      S def2-SVP             selected for orbital group  2
 Library entry H      P def2-SVP             selected for orbital group  2


 PROGRAM * SEWARD (Integral evaluation for generally contracted gaussian basis sets)     Author: Roland Lindh, 1990

 Geometry written to block  1 of record 700


 Point group  C1  



 ATOMIC COORDINATES

 NR  ATOM    CHARGE       X              Y              Z

   1  O       8.00    0.000000000    0.000000000    0.000000000
   2  H       1.00    0.000000000    0.000000000    1.808297826
   3  H       1.00    1.750566693    0.000000000   -0.453288605

 Bond lengths in Bohr (Angstrom)

 1-2  1.808297826  1-3  1.808301497
     ( 0.956910000)     ( 0.956911943)

 Bond angles

  2-1-3  104.51721750

 NUCLEAR CHARGE:                   10
 NUMBER OF PRIMITIVE AOS:          39
 NUMBER OF SYMMETRY AOS:           38
 NUMBER OF CONTRACTIONS:           24   (  24A   )
 NUMBER OF CORE ORBITALS:           1   (   1A   )
 NUMBER OF VALENCE ORBITALS:        6   (   6A   )


 NUCLEAR REPULSION ENERGY    9.19774870

 EXTRA SYMMETRY OF AOS IN SYMMETRY 1:   1 1 1 1 2 1 1 2 1 1   2 1 1 2 1 1 1 2 1 1   1 1 2 1

 Eigenvalues of metric

         1 0.375E-01 0.790E-01 0.152E+00 0.163E+00 0.294E+00 0.333E+00 0.378E+00 0.411E+00


 Contracted 2-electron integrals neglected if value below      1.0D-11
 AO integral compression algorithm  1   Integral accuracy      1.0D-11

     0.262 MB (compressed) written to integral file ( 68.3%)


 NUMBER OF SORTED TWO-ELECTRON INTEGRALS:      45150.     BUFFER LENGTH:  32768
 NUMBER OF SEGMENTS:   1  SEGMENT LENGTH:      45150      RECORD LENGTH: 524288

 Memory used in sort:       0.60 MW

 SORT1 READ       59680. AND WROTE       18751. INTEGRALS IN      1 RECORDS. CPU TIME:     0.00 SEC, REAL TIME:     0.01 SEC
 SORT2 READ       18751. AND WROTE       45150. INTEGRALS IN      1 RECORDS. CPU TIME:     0.00 SEC, REAL TIME:     0.01 SEC

 FILE SIZES:   FILE 1:    30.3 MBYTE,  FILE 4:     4.2 MBYTE,   TOTAL:     34.5 MBYTE

 OPERATOR DM      FOR CENTER  0  COORDINATES:    0.000000    0.000000    0.000000


 **********************************************************************************************************************************
 DATASETS  * FILE   NREC   LENGTH (MB)   RECORD NAMES
              1      19       30.12       500      610      700      900      950      970     1000      129      960     1100   
                                          VAR    BASINP    GEOM    SYMINP    ZMAT    AOBASIS   BASIS     P2S    ABASIS      S 
                                         1400     1410     1200     1210     1080     1600     1650     1300     1700   
                                           T        V       H0       H01     AOSYM     SMH    MOLCAS    ERIS     OPER   

 PROGRAMS   *        TOTAL       INT
 CPU TIMES  *         0.40      0.25
 REAL TIME  *         5.08 SEC
 DISK USED  *        34.78 MB      
 **********************************************************************************************************************************


 PROGRAM * RHF-SCF (CLOSED SHELL)       Authors: W. Meyer, H.-J. Werner


 NUMBER OF ELECTRONS:       5+    5-    SPACE SYMMETRY=1    SPIN SYMMETRY: Singlet 
 CONVERGENCE THRESHOLDS:    1.00E-05 (Density)    1.00E-07 (Energy)
 INTEGRAL THRESHOLDS:       1.00E-11 (Initial)    1.00E-11 (Final)
 MAX. NUMBER OF ITERATIONS:       60
 INTERPOLATION TYPE:            DIIS
 INTERPOLATION STEPS:              2 (START)      1 (STEP)
 LEVEL SHIFTS:                  0.00 (CLOSED)  0.00 (OPEN) 



 Orbital guess generated from atomic densities. Full valence occupancy:    5

 Molecular orbital dump at record        2100.2

 Initial occupancy:   5

 Direct Fock-matrix evaluation.        Authors: Roland Lindh & Martin Schuetz (1993/96)

 Integral Threshold:                  0.1D-10
 Threshold for writing integrals:     0.1D-06
 Prescreening on density matrix:        ON 
 Calculation will be performed fully direct        

 ITERATION   DDIFF            GRAD            ENERGY        2-EL.EN.            DIPOLE MOMENTS         DIIS   CPU(IT)  CPU(TOT)
    1      0.000D+00      0.000D+00       -75.92119801     77.888255    0.92173   -0.00000    0.71346    0      1.0      1.9     start
    2      0.000D+00      0.226D-01       -75.95171550     74.483022    0.61825   -0.00000    0.47855    1      0.5      2.4     diag
    3      0.216D-01      0.118D-01       -75.96079592     75.863024    0.67627   -0.00000    0.52346    2      0.4      2.8     diag
    4      0.774D-02      0.132D-02       -75.96101219     75.766092    0.66671   -0.00000    0.51606    3      0.4      3.3     diag
    5      0.116D-02      0.339D-03       -75.96102901     75.777613    0.66384   -0.00000    0.51384    4      0.5      3.7     diag
    6      0.389D-03      0.527D-04       -75.96102953     75.777652    0.66338   -0.00000    0.51348    5      0.5      4.2     diag
    7      0.721D-04      0.788D-05       -75.96102954     75.777613    0.66330    0.00000    0.51342    6      0.5      4.6     diag
    8      0.128D-04      0.593D-06       -75.96102954     75.777603    0.66329    0.00000    0.51342    7      0.5      5.1     diag
    9      0.732D-06      0.583D-07       -75.96102954     75.777599    0.66329    0.00000    0.51342    0      0.4      5.5     orth

 Final occupancy:   5

 !RHF STATE 1.1 Energy                -75.961029537996
 Nuclear energy                         9.19774870
 One-electron energy                 -123.04757798
 Two-electron energy                   37.88879974
 Virial quotient                       -1.00247222
 !RHF STATE 1.1 Dipole moment           0.66329382     0.00000000     0.51341678
 Dipole moment /Debye                   1.68581432     0.00000000     1.30488982

 Orbital energies:

         1.1          2.1          3.1          4.1          5.1          6.1          7.1
    -20.545685    -1.319095    -0.703836    -0.568254    -0.498119     0.176287     0.255406

 HOMO      5.1    -0.498119 =     -13.5545eV
 LUMO      6.1     0.176287 =       4.7970eV
 LUMO-HOMO         0.674405 =      18.3515eV


 **********************************************************************************************************************************
 DATASETS  * FILE   NREC   LENGTH (MB)   RECORD NAMES
              1      19       30.12       500      610      700      900      950      970     1000      129      960     1100   
                                          VAR    BASINP    GEOM    SYMINP    ZMAT    AOBASIS   BASIS     P2S    ABASIS      S 
                                         1400     1410     1200     1210     1080     1600     1650     1300     1700   
                                           T        V       H0       H01     AOSYM     SMH    MOLCAS    ERIS     OPER   

              2       4        2.79       700     1000      520     2100   
                                         GEOM     BASIS   MCVARS     RHF  

 PROGRAMS   *        TOTAL        HF       INT
 CPU TIMES  *         5.92      5.52      0.25
 REAL TIME  *        21.37 SEC
 DISK USED  *        34.78 MB      
 **********************************************************************************************************************************

 Density functional group B3LYP3=B88+DIRAC+LYP+VWN3
 Functional: B88(Automatically generated (new) B88)                            Gradient terms: 1
 Functional: DIRAC(Automatically generated (new) DIRAC)                        Gradient terms: 0
 Functional: LYP(Automatically generated (new) LYP)                            Gradient terms: 1
 Functional: VWN3(Automatically generated (new) VWN3)                          Gradient terms: 0
 Use grid at  1800.2


 Exact exchange will be calculated, factor:  0.2000

 Functional: B88                       Factor:  0.7200
 Functional: DIRAC                     Factor:  0.0800
 Functional: LYP                       Factor:  0.8100
 Functional: VWN3                      Factor:  0.1900

 Generated new metagrid on record  1800.2 with target accuracy 1.0D-06 and 10788 points in CPU time    0.2
 Computed new grid on record 1800.1 in CPU time    0.2
   22855 words reserved for DFT integration

 PROGRAM * RKS-SCF (Restricted closed shell Kohn-Sham)     Authors: W. Meyer, H.-J. Werner, P.J. Knowles, 1993

 NUMBER OF ELECTRONS:       5+    5-    SPACE SYMMETRY=1    SPIN SYMMETRY: Singlet 
 CONVERGENCE THRESHOLDS:    1.00E-05 (Density)    1.00E-06 (Energy)
 INTEGRAL THRESHOLDS:       1.00E-11 (Initial)    1.00E-11 (Final)
 MAX. NUMBER OF ITERATIONS:        0
 INTERPOLATION TYPE:            DIIS
 INTERPOLATION STEPS:              2 (START)      1 (STEP)
 LEVEL SHIFTS:                  0.00 (CLOSED)  0.00 (OPEN) 



 Use fine grid record 1800.2 for energy threshold  1.0D-06

 Basis set DEF2-SVP/JKFIT generated.     Number of basis functions:   84 

 Molecular orbitals read from record     2100.2  Type=RHF/CANONICAL (state 1.1)
 Coulomb and exchange fitting
 Thresholds for fitting:       THRAO_COUL= 1.0D-14    THRAO_EXCH= 1.0D-12    THRMO= 1.0D-11    THRPROD= 1.0D-11    THRASM= 1.0D-11
                               THR2HLF=    1.0D-11

 Molecular orbital dump at record        2101.2

 ITERATION   DDIFF            GRAD            ENERGY        2-EL.EN.            DIPOLE MOMENTS         DIIS   CPU(IT)  CPU(TOT)  ORB.
    1      0.000D+00      0.000D+00       -76.35480433     90.112939    0.66329    0.00000    0.51342    0      0.0      0.1     start

 Final occupancy:   5

 !RKS STATE 1.1 Energy                -76.354804331069
 Nuclear energy                         9.19774870
 One-electron energy                 -123.04757798
 Two-electron energy                   45.05646940
 Density functional                    -7.56144445     B88=-8.98897133 DIRAC=-8.12240197 LYP=-0.34071140 VWN3=-0.86114055
 Virial quotient                       -1.00766894
 !RKS STATE 1.1 Dipole moment           0.66329382     0.00000000     0.51341678
 Dipole moment /Debye                   1.68581432     0.00000000     1.30488982

 Orbital energies:

         1.1          2.1          3.1          4.1          5.1          6.1          7.1
    -20.545685    -1.319095    -0.703836    -0.568254    -0.498119     0.176287     0.255406

 HOMO      5.1    -0.498119 =     -13.5545eV
 LUMO      6.1     0.176287 =       4.7970eV
 LUMO-HOMO         0.674405 =      18.3515eV


 **********************************************************************************************************************************
 DATASETS  * FILE   NREC   LENGTH (MB)   RECORD NAMES
              1      20       30.47       500      610      700      900      950      970     1000      129      960     1100   
                                          VAR    BASINP    GEOM    SYMINP    ZMAT    AOBASIS   BASIS     P2S    ABASIS      S 
                                         1400     1410     1200     1210     1080     1600     1650     1300     1700     1800   
                                           T        V       H0       H01     AOSYM     SMH    MOLCAS    ERIS     OPER     GRID   

              2       6        5.31       700     1000      520     2100     1800     2101   
                                         GEOM     BASIS   MCVARS     RHF     GRID      RKS  

 PROGRAMS   *        TOTAL        KS        HF       INT
 CPU TIMES  *         6.19      0.26      5.52      0.25
 REAL TIME  *        26.33 SEC
 DISK USED  *        35.99 MB      
 **********************************************************************************************************************************


 PROGRAM * Intrinsic Basis Bonding Analysis (IBBA)          Author: G. Knizia

 Molecular orbitals read from record     2101.2  Type=RKS/CANONICAL (state 1.1)
 Fock matrix read from record            2101.2  Type=RKS/TOTAL (state 1.1)
 Orbital energies read from record       2101.2  Type=RKS/CANONICAL (state 1.1)
 Density matrix read from record         2101.2  Type=RKS/CHARGE (state 1.1)

 Number of core orbitals:           1 (   1 )
 Number of closed-shell orbitals:   4 (   4 )

 Basis set MINAO-AUTO-PP generated.      Number of basis functions:   7 

 Polarized AO type:                A = (O Ot + (1-O)(1-Ot)) P12
 Orthogonalization method:         Symmetric (Loewdin)
 Localization functional:          L = sum[A,i] <i|n_A|i>^4 -> max

 Localization group 1:   5 orbitals, occupancy  2.000
 Iterative localization: IB/PM,    4 iter; Final gradient 0.18E-08

 Bond order analysis:       [THRPRINT= 0.020]

   CEN ATOM   CEN ATOM     WIBERG.BO      RENORM.BO
     1   O  -   3   H       0.878645       1.000000
     1   O  -   2   H       0.878644       1.000000

     2   H  -   1   O       0.878644       1.000000

     3   H  -   1   O       0.878645       1.000000


 Valency analysis:

   CEN ATOM   TOT.VALENCE
     1   O       1.757289
     2   H       0.878721
     3   H       0.878721

 Total charge composition:

   CEN ATOM         s          p       ELECTRONS ->P.CHARGE
     1   O       3.62346    5.07305      8.69650   -0.69650
     2   H       0.65175                 0.65175    0.34825
     3   H       0.65175                 0.65175    0.34825

 Total charge composition, AO contributions:

   CEN ATOM SHL      SPHERICAL COMPONENTS
     1   O  1s       1.99636
     1   O  2s       1.62710
     1   O  2p       1.58153    2.00000    1.49152

     2   H  1s       0.65175

     3   H  1s       0.65175

 Summary of localized orbital composition:   [THRPRINT= 0.020]

   ORB  GRP  ORB.ENERGY      CENTERS/CHARGES
     1   1   -18.993050      O  1   2.000
     2   1    -0.765855      O  1   1.348   H  2   0.652
     3   1    -0.765853      O  1   1.348   H  3   0.652
     4   1    -0.494250      O  1   2.000
     5   1    -0.296160      O  1   2.000

 Localized orbitals saved to record      2101.2  (orbital set 2)


 **********************************************************************************************************************************
 DATASETS  * FILE   NREC   LENGTH (MB)   RECORD NAMES
              1      20       30.47       500      610      700      900      950      970     1000      129      960     1100   
                                          VAR    BASINP    GEOM    SYMINP    ZMAT    AOBASIS   BASIS     P2S    ABASIS      S 
                                         1400     1410     1200     1210     1080     1600     1650     1300     1700     1800   
                                           T        V       H0       H01     AOSYM     SMH    MOLCAS    ERIS     OPER     GRID   

              2       6        5.32       700     1000      520     2100     1800     2101   
                                         GEOM     BASIS   MCVARS     RHF     GRID      RKS  

 PROGRAMS   *        TOTAL      IBBA        KS        HF       INT
 CPU TIMES  *         6.21      0.02      0.26      5.52      0.25
 REAL TIME  *        26.36 SEC
 DISK USED  *        35.99 MB      
 **********************************************************************************************************************************

 IBBA/SVP energy=      0.000000000000

        DF-KS           HF-SCF  
    -76.35480433    -75.96102954
 **********************************************************************************************************************************
 Molpro calculation terminated
