
 Primary working directories    : /local
 Secondary working directories  : /local
 Wavefunction directory         : /local/
 Main file repository           : /local/

 SHA1      : b4a5b34a9e711420743f49e6833241d17c61fb3c
 NAME      : 2099.9.b4a5b34
 ARCHNAME  : linux/x86_64_openmp
 FC        : /cm/shared/languages/GCC-6.1/bin/gfortran
 BLASLIB   : -lblas
 id        : simonbennie

 Nodes     nprocs
 node35-021    1

 Using customized tuning parameters: mindgm=1; mindgv=20; mindgc=4; mindgr=1; noblas=0; minvec=7
 default implementation of scratch files=df  

 memory,500,m
 geomtyp=xyz
 nosym
 noorient
 geometry={
 O          0.00000        0.00000        0.00000
 H          0.00000        0.00000        0.95691
 H          0.92636        0.00000       -0.23987
 }
 basis={ default,avtz }
 {ks,M06-L,direct;wf,10,1,0}
 {ibba,bonds=1}

 Variables initialized (895), CPU time= 0.00 sec
 Commands  initialized (725), CPU time= 0.02 sec, 591 directives.
 Default parameters read. Elapsed time= 0.08 sec

 Checking input...
 Passed
1


                                         ***  PROGRAM SYSTEM MOLPRO  ***
                                       Copyright, TTI GmbH Stuttgart, 2015
                                    Version 2099.9 linked May 26 2017 16:03:21


 **********************************************************************************************************************************
 LABEL *                                                                                 
  64 bit serial version                                                                  DATE: 29-Jun-17          TIME: 22:35:28  
 **********************************************************************************************************************************

 SHA1:             b4a5b34a9e711420743f49e6833241d17c61fb3c
 **********************************************************************************************************************************
 SETTING GEOMTYP        =    XYZ

 Variable memory set to  500000000 words,  buffer space 

 ZSYMEL=NOSYM

 SETTING BASIS          =    AVTZ


 Recomputing integrals since basis changed


 Using spherical harmonics

 Library entry O      S aug-cc-pVTZ          selected for orbital group  1
 Library entry O      P aug-cc-pVTZ          selected for orbital group  1
 Library entry O      D aug-cc-pVTZ          selected for orbital group  1
 Library entry O      F aug-cc-pVTZ          selected for orbital group  1
 Library entry H      S aug-cc-pVTZ          selected for orbital group  2
 Library entry H      P aug-cc-pVTZ          selected for orbital group  2
 Library entry H      D aug-cc-pVTZ          selected for orbital group  2


 PROGRAM * SEWARD (Integral evaluation for generally contracted gaussian basis sets)     Author: Roland Lindh, 1990

 Geometry written to block  1 of record 700


 Point group  C1  



 ATOMIC COORDINATES

 NR  ATOM    CHARGE       X              Y              Z

   1  O       8.00    0.000000000    0.000000000    0.000000000
   2  H       1.00    0.000000000    0.000000000    1.808297826
   3  H       1.00    1.750566693    0.000000000   -0.453288605

 Bond lengths in Bohr (Angstrom)

 1-2  1.808297826  1-3  1.808301497
     ( 0.956910000)     ( 0.956911943)

 Bond angles

  2-1-3  104.51721750

 NUCLEAR CHARGE:                   10
 NUMBER OF PRIMITIVE AOS:         121
 NUMBER OF SYMMETRY AOS:          108
 NUMBER OF CONTRACTIONS:           92   (  92A   )
 NUMBER OF CORE ORBITALS:           1   (   1A   )
 NUMBER OF VALENCE ORBITALS:        6   (   6A   )


 NUCLEAR REPULSION ENERGY    9.19774870

 EXTRA SYMMETRY OF AOS IN SYMMETRY 1:   1 1 1 1 1 1 2 1 1 2   1 1 2 1 1 2 1 1 2 1   1 2 1 2 1 1 2 1 2 1   1 2 1 2 1 1 2 2 1 1
                                        2 1 1 2 2 1 1 1 1 1   1 2 1 1 2 1 1 2 1 1   2 1 1 2 1 2 1 1 2 1   1 1 1 1 2 1 1 2 1 1
                                        2 1 1 2 1 1 2 1 2 1   1 2

 Eigenvalues of metric

         1 0.384E-03 0.392E-03 0.166E-02 0.186E-02 0.319E-02 0.505E-02 0.554E-02 0.593E-02


 Contracted 2-electron integrals neglected if value below      1.0D-11
 AO integral compression algorithm  1   Integral accuracy      1.0D-11

     24.642 MB (compressed) written to integral file ( 25.9%)


 NUMBER OF SORTED TWO-ELECTRON INTEGRALS:    9152781.     BUFFER LENGTH:  32768
 NUMBER OF SEGMENTS:   1  SEGMENT LENGTH:    9152781      RECORD LENGTH: 524288

 Memory used in sort:       9.71 MW

 SORT1 READ    11938930. AND WROTE     3722688. INTEGRALS IN     11 RECORDS. CPU TIME:     0.08 SEC, REAL TIME:     0.13 SEC
 SORT2 READ     3722688. AND WROTE     9152781. INTEGRALS IN     94 RECORDS. CPU TIME:     0.25 SEC, REAL TIME:     0.30 SEC

 FILE SIZES:   FILE 1:    54.9 MBYTE,  FILE 4:    46.2 MBYTE,   TOTAL:    101.1 MBYTE

 OPERATOR DM      FOR CENTER  0  COORDINATES:    0.000000    0.000000    0.000000


 **********************************************************************************************************************************
 DATASETS  * FILE   NREC   LENGTH (MB)   RECORD NAMES
              1      19       48.89       500      610      700      900      950      970     1000      129      960     1100   
                                          VAR    BASINP    GEOM    SYMINP    ZMAT    AOBASIS   BASIS     P2S    ABASIS      S 
                                         1400     1410     1200     1210     1080     1600     1650     1300     1700   
                                           T        V       H0       H01     AOSYM     SMH    MOLCAS    ERIS     OPER   

 PROGRAMS   *        TOTAL       INT
 CPU TIMES  *         1.02      0.87
 REAL TIME  *         1.49 SEC
 DISK USED  *       101.43 MB      
 **********************************************************************************************************************************

 Density functional group M06-L=XC-M06-L
 Functional: XC-M06-L(via MFM 1.6)                                             Gradient terms: 1
 Use grid at  1800.2

 Functional: XC-M06-L                  Factor:  1.0000

 Generated new metagrid on record  1800.2 with target accuracy 1.0D-06 and 11136 points in CPU time    0.2
 Computed new grid on record 1800.1 in CPU time    0.2
   77012 words reserved for DFT integration

 PROGRAM * RKS-SCF (Restricted closed shell Kohn-Sham)     Authors: W. Meyer, H.-J. Werner, P.J. Knowles, 1993

 NUMBER OF ELECTRONS:       5+    5-    SPACE SYMMETRY=1    SPIN SYMMETRY: Singlet 
 CONVERGENCE THRESHOLDS:    1.00E-05 (Density)    1.00E-06 (Energy)
 MAX. NUMBER OF ITERATIONS:       60
 INTERPOLATION TYPE:            DIIS
 INTERPOLATION STEPS:              2 (START)      1 (STEP)
 LEVEL SHIFTS:                  0.00 (CLOSED)  0.00 (OPEN) 



 Use fine grid record 1800.2 for energy threshold  1.0D-06
 Orbital guess generated from atomic densities. Full valence occupancy:    7

 Molecular orbital dump at record        2100.2

 Initial occupancy:   5

 ITERATION    DDIFF          GRAD             ENERGY        2-EL.EN.            DIPOLE MOMENTS         DIIS   ORB.
    1      0.000D+00      0.000D+00       -76.37031085     97.992998    0.84490   -0.00000    0.65393    0    start
    2      0.000D+00      0.153D-01       -76.18074699     85.076587   -0.08935    0.00000   -0.06871    1    diag
    3      0.267D-01      0.284D-01       -76.44430265     93.744977    0.57244   -0.00000    0.44286    2    diag
    4      0.169D-01      0.878D-03       -76.44463920     93.434598    0.56007   -0.00000    0.43342    3    diag
    5      0.425D-02      0.210D-03       -76.44464981     93.466156    0.55800   -0.00000    0.43176    4    diag
    6      0.668D-03      0.639D-04       -76.44465108     93.473660    0.56020   -0.00000    0.43348    5    diag
    7      0.134D-03      0.101D-04       -76.44465112     93.474893    0.56008   -0.00000    0.43339    6    diag
    8      0.613D-04      0.693D-06       -76.44465112     93.474840    0.56009   -0.00000    0.43339    7    diag
    9      0.373D-05      0.130D-06       -76.44465112     93.474892    0.56010   -0.00000    0.43340    0    orth

 Final occupancy:   5

 !RKS STATE 1.1 Energy                -76.444651117672
 Nuclear energy                         9.19774870
 One-electron energy                 -123.05587927
 Two-electron energy                   46.73744577
 Density functional                    -9.32396632     XC-M06-L=-9.32396632
 Virial quotient                       -1.00465607
 !RKS STATE 1.1 Dipole moment           0.56009602    -0.00000000     0.43339617
 Dipole moment /Debye                   1.42352883    -0.00000000     1.10151103

 Orbital energies:

         1.1          2.1          3.1          4.1          5.1          6.1          7.1
    -18.976610    -0.991190    -0.497483    -0.356320    -0.276613    -0.020815     0.019443

 HOMO      5.1    -0.276613 =      -7.5270eV
 LUMO      6.1    -0.020815 =      -0.5664eV
 LUMO-HOMO         0.255798 =       6.9606eV


 **********************************************************************************************************************************
 DATASETS  * FILE   NREC   LENGTH (MB)   RECORD NAMES
              1      20       49.25       500      610      700      900      950      970     1000      129      960     1100   
                                          VAR    BASINP    GEOM    SYMINP    ZMAT    AOBASIS   BASIS     P2S    ABASIS      S 
                                         1400     1410     1200     1210     1080     1600     1650     1300     1700     1800   
                                           T        V       H0       H01     AOSYM     SMH    MOLCAS    ERIS     OPER     GRID   

              2       5        2.96       700     1000      520     1800     2100   
                                         GEOM     BASIS   MCVARS    GRID      RKS  

 PROGRAMS   *        TOTAL        KS       INT
 CPU TIMES  *         6.89      5.87      0.87
 REAL TIME  *         7.99 SEC
 DISK USED  *       101.43 MB      
 **********************************************************************************************************************************


 PROGRAM * Intrinsic Basis Bonding Analysis (IBBA)          Author: G. Knizia

 Molecular orbitals read from record     2100.2  Type=RKS/CANONICAL (state 1.1)
 Fock matrix read from record            2100.2  Type=RKS/TOTAL (state 1.1)
 Orbital energies read from record       2100.2  Type=RKS/CANONICAL (state 1.1)
 Density matrix read from record         2100.2  Type=RKS/CHARGE (state 1.1)

 Number of core orbitals:           1 (   1 )
 Number of closed-shell orbitals:   4 (   4 )

 Basis set MINAO-AUTO-PP generated.      Number of basis functions:   7 

 Polarized AO type:                A = (O Ot + (1-O)(1-Ot)) P12
 Orthogonalization method:         Symmetric (Loewdin)
 Localization functional:          L = sum[A,i] <i|n_A|i>^4 -> max

 Localization group 1:   5 orbitals, occupancy  2.000
 Iterative localization: IB/PM,    4 iter; Final gradient 0.79E-09

 Bond order analysis:       [THRPRINT= 0.020]

   CEN ATOM   CEN ATOM     WIBERG.BO      RENORM.BO
     1   O  -   2   H       0.861357       1.000000
     1   O  -   3   H       0.861306       1.000000

     2   H  -   1   O       0.861357       1.000000

     3   H  -   1   O       0.861306       1.000000


 Valency analysis:

   CEN ATOM   TOT.VALENCE
     1   O       1.722663
     2   H       0.861398
     3   H       0.861348

 Total charge composition:

   CEN ATOM         s          p       ELECTRONS ->P.CHARGE
     1   O       3.66730    5.07735      8.74465   -0.74465
     2   H       0.62771                 0.62771    0.37229
     3   H       0.62764                 0.62764    0.37236

 Total charge composition, AO contributions:

   CEN ATOM SHL      SPHERICAL COMPONENTS
     1   O  1s       1.99658
     1   O  2s       1.67072
     1   O  2p       1.57864    2.00000    1.49871

     2   H  1s       0.62771

     3   H  1s       0.62764

 Summary of localized orbital composition:   [THRPRINT= 0.020]

   ORB  GRP  ORB.ENERGY      CENTERS/CHARGES
     1   1   -18.830072      O  1   2.000
     2   1    -0.737542      O  1   1.372   H  2   0.628
     3   1    -0.737421      O  1   1.372   H  3   0.628
     4   1    -0.516569      O  1   2.000
     5   1    -0.276613      O  1   2.000

 Localized orbitals saved to record      2100.2  (orbital set 2)


 **********************************************************************************************************************************
 DATASETS  * FILE   NREC   LENGTH (MB)   RECORD NAMES
              1      20       49.25       500      610      700      900      950      970     1000      129      960     1100   
                                          VAR    BASINP    GEOM    SYMINP    ZMAT    AOBASIS   BASIS     P2S    ABASIS      S 
                                         1400     1410     1200     1210     1080     1600     1650     1300     1700     1800   
                                           T        V       H0       H01     AOSYM     SMH    MOLCAS    ERIS     OPER     GRID   

              2       5        3.03       700     1000      520     1800     2100   
                                         GEOM     BASIS   MCVARS    GRID      RKS  

 PROGRAMS   *        TOTAL      IBBA        KS       INT
 CPU TIMES  *         6.91      0.02      5.87      0.87
 REAL TIME  *         8.05 SEC
 DISK USED  *       101.43 MB      
 **********************************************************************************************************************************
 Molecular orbitals read from record     2100.2  Type=RKS/LOCAL(IBO)  
 Occupation numbers read from record     2100.2  Type=RKS/LOCAL(IBO)  
 Orbital energies read from record       2100.2  Type=RKS/LOCAL(IBO)  
 Redundancy group numbers read from rec  2100.2  Type=RKS/LOCAL(IBO)  

 IBBA/aug-cc-pVTZ energy=      0.000000000000

        KS-SCF  
    -76.44465112
 **********************************************************************************************************************************
 Molpro calculation terminated
