
 Primary working directories    : /local
 Secondary working directories  : /local
 Wavefunction directory         : /local/
 Main file repository           : /local/

 SHA1      : b4a5b34a9e711420743f49e6833241d17c61fb3c
 NAME      : 2099.9.b4a5b34
 ARCHNAME  : linux/x86_64_openmp
 FC        : /cm/shared/languages/GCC-6.1/bin/gfortran
 BLASLIB   : -lblas
 id        : simonbennie

 Nodes     nprocs
 node35-046    1

 Using customized tuning parameters: mindgm=1; mindgv=20; mindgc=4; mindgr=1; noblas=0; minvec=7
 default implementation of scratch files=df  

 memory,500,m
 geomtyp=xyz
 nosym
 noorient
 geometry={
 S          0.00000        0.00000        0.10252
 H          0.00000        0.96625       -0.82015
 H          0.00000       -0.96625       -0.82015
 }
 basis={ default,sto-3g }
 {ks,M08-SO,direct;wf,18,1,0}
 {ibba,bonds=1}

 Variables initialized (895), CPU time= 0.01 sec
 Commands  initialized (725), CPU time= 0.01 sec, 591 directives.
 Default parameters read. Elapsed time= 0.18 sec

 Checking input...
 Passed
1


                                         ***  PROGRAM SYSTEM MOLPRO  ***
                                       Copyright, TTI GmbH Stuttgart, 2015
                                    Version 2099.9 linked May 26 2017 16:03:21


 **********************************************************************************************************************************
 LABEL *                                                                                 
  64 bit serial version                                                                  DATE: 29-Jun-17          TIME: 22:53:37  
 **********************************************************************************************************************************

 SHA1:             b4a5b34a9e711420743f49e6833241d17c61fb3c
 **********************************************************************************************************************************
 SETTING GEOMTYP        =    XYZ

 Variable memory set to  500000000 words,  buffer space 

 ZSYMEL=NOSYM

 SETTING BASIS          =    STO-3G


 Recomputing integrals since basis changed


 Using spherical harmonics

 Library entry S      S STO-3G               selected for orbital group  1
 Library entry S      P STO-3G               selected for orbital group  1
 Library entry H      S STO-3G               selected for orbital group  2


 PROGRAM * SEWARD (Integral evaluation for generally contracted gaussian basis sets)     Author: Roland Lindh, 1990

 Geometry written to block  1 of record 700


 Point group  C1  



 ATOMIC COORDINATES

 NR  ATOM    CHARGE       X              Y              Z

   1  S      16.00    0.000000000    0.000000000    0.193734722
   2  H       1.00    0.000000000    1.825947868   -1.549858881
   3  H       1.00    0.000000000   -1.825947868   -1.549858881

 Bond lengths in Bohr (Angstrom)

 1-2  2.524718652  1-3  2.524718652
     ( 1.336023574)     ( 1.336023574)

 Bond angles

  2-1-3   92.64331701

 NUCLEAR CHARGE:                   18
 NUMBER OF PRIMITIVE AOS:          33
 NUMBER OF SYMMETRY AOS:           33
 NUMBER OF CONTRACTIONS:           11   (  11A   )
 NUMBER OF CORE ORBITALS:           5   (   5A   )
 NUMBER OF VALENCE ORBITALS:        6   (   6A   )


 NUCLEAR REPULSION ENERGY   12.94850999

 EXTRA SYMMETRY OF AOS IN SYMMETRY 1:   1 1 1 2 1 1 2 1 1 1   1

 Eigenvalues of metric

         1 0.325E+00 0.442E+00 0.623E+00 0.743E+00 0.814E+00 0.942E+00 0.116E+01 0.126E+01


 Contracted 2-electron integrals neglected if value below      1.0D-11
 AO integral compression algorithm  1   Integral accuracy      1.0D-11

     0.262 MB (compressed) written to integral file ( 78.6%)


 NUMBER OF SORTED TWO-ELECTRON INTEGRALS:       2211.     BUFFER LENGTH:  32768
 NUMBER OF SEGMENTS:   1  SEGMENT LENGTH:       2211      RECORD LENGTH: 524288

 Memory used in sort:       0.56 MW

 SORT1 READ        3679. AND WROTE         949. INTEGRALS IN      1 RECORDS. CPU TIME:     0.00 SEC, REAL TIME:     0.01 SEC
 SORT2 READ         949. AND WROTE        2211. INTEGRALS IN      1 RECORDS. CPU TIME:     0.00 SEC, REAL TIME:     0.00 SEC

 FILE SIZES:   FILE 1:    30.2 MBYTE,  FILE 4:     4.2 MBYTE,   TOTAL:     34.5 MBYTE

 OPERATOR DM      FOR CENTER  0  COORDINATES:    0.000000    0.000000    0.000000


 **********************************************************************************************************************************
 DATASETS  * FILE   NREC   LENGTH (MB)   RECORD NAMES
              1      19       29.98       500      610      700      900      950      970     1000      129      960     1100   
                                          VAR    BASINP    GEOM    SYMINP    ZMAT    AOBASIS   BASIS     P2S    ABASIS      S 
                                         1400     1410     1200     1210     1080     1600     1650     1300     1700   
                                           T        V       H0       H01     AOSYM     SMH    MOLCAS    ERIS     OPER   

 PROGRAMS   *        TOTAL       INT
 CPU TIMES  *         0.34      0.19
 REAL TIME  *         0.78 SEC
 DISK USED  *        34.76 MB      
 **********************************************************************************************************************************

 Density functional group M08-SO=XC-M08-SO
 Functional: XC-M08-SO(via MFM 1.6)                                            Gradient terms: 1
 Use grid at  1800.2


 Exact exchange will be calculated, factor:  0.5679

 Functional: XC-M08-SO                 Factor:  1.0000

 Generated new metagrid on record  1800.2 with target accuracy 1.0D-06 and 14630 points in CPU time    0.3
 Computed new grid on record 1800.1 in CPU time    0.3
   12677 words reserved for DFT integration

 PROGRAM * RKS-SCF (Restricted closed shell Kohn-Sham)     Authors: W. Meyer, H.-J. Werner, P.J. Knowles, 1993

 NUMBER OF ELECTRONS:       9+    9-    SPACE SYMMETRY=1    SPIN SYMMETRY: Singlet 
 CONVERGENCE THRESHOLDS:    1.00E-05 (Density)    1.00E-06 (Energy)
 MAX. NUMBER OF ITERATIONS:       60
 INTERPOLATION TYPE:            DIIS
 INTERPOLATION STEPS:              2 (START)      1 (STEP)
 LEVEL SHIFTS:                  0.00 (CLOSED)  0.00 (OPEN) 



 Use fine grid record 1800.2 for energy threshold  1.0D-06
 Orbital guess generated from atomic densities. Full valence occupancy:    9

 Molecular orbital dump at record        2100.2

 Initial occupancy:   9

 ITERATION    DDIFF          GRAD             ENERGY        2-EL.EN.            DIPOLE MOMENTS         DIIS   ORB.
    1      0.000D+00      0.000D+00      -394.79794981    359.879529   -0.00000    0.00000   -1.23318    0    start
    2      0.000D+00      0.416D-01      -394.84572279    354.266056    0.00000    0.00000   -0.10504    1    diag
    3      0.106D+00      0.158D-01      -394.85378622    355.774637    0.00000    0.00000   -0.41954    2    diag
    4      0.299D-01      0.185D-03      -394.85378813    355.774578    0.00000   -0.00000   -0.42119    3    diag
    5      0.666D-03      0.172D-04      -394.85378814    355.773858    0.00000    0.00000   -0.42107    4    diag
    6      0.453D-04      0.174D-05      -394.85378814    355.773850    0.00000    0.00000   -0.42106    5    diag
    7      0.434D-05      0.384D-07      -394.85378814    355.773852   -0.00000    0.00000   -0.42106    0    orth

 Final occupancy:   9

 !RKS STATE 1.1 Energy               -394.853788142125
 Nuclear energy                        12.94850999
 One-electron energy                 -573.94948757
 Two-electron energy                  177.88692584
 SCF exchange energy                  -25.91180889     Factor= 0.5679
 Density functional                   -11.73973641     XC-M08-SO=-11.73973641
 Virial quotient                       -1.01359660
 !RKS STATE 1.1 Dipole moment          -0.00000000     0.00000000    -0.42105681
 Dipole moment /Debye                  -0.00000000     0.00000000    -1.07014956

 Orbital energies:

         1.1          2.1          3.1          4.1          5.1          6.1          7.1          8.1          9.1         10.1
    -88.643592    -7.867599    -5.795372    -5.789623    -5.775719    -0.746962    -0.428761    -0.312991    -0.193895     0.323863

        11.1
      0.381418

 HOMO      9.1    -0.193895 =      -5.2761eV
 LUMO     10.1     0.323863 =       8.8128eV
 LUMO-HOMO         0.517757 =      14.0889eV


 **********************************************************************************************************************************
 DATASETS  * FILE   NREC   LENGTH (MB)   RECORD NAMES
              1      20       30.45       500      610      700      900      950      970     1000      129      960     1100   
                                          VAR    BASINP    GEOM    SYMINP    ZMAT    AOBASIS   BASIS     P2S    ABASIS      S 
                                         1400     1410     1200     1210     1080     1600     1650     1300     1700     1800   
                                           T        V       H0       H01     AOSYM     SMH    MOLCAS    ERIS     OPER     GRID   

              2       5        2.78       700     1000      520     1800     2100   
                                         GEOM     BASIS   MCVARS    GRID      RKS  

 PROGRAMS   *        TOTAL        KS       INT
 CPU TIMES  *         1.33      0.99      0.19
 REAL TIME  *         1.82 SEC
 DISK USED  *        34.76 MB      
 **********************************************************************************************************************************


 PROGRAM * Intrinsic Basis Bonding Analysis (IBBA)          Author: G. Knizia

 Molecular orbitals read from record     2100.2  Type=RKS/CANONICAL (state 1.1)
 Fock matrix read from record            2100.2  Type=RKS/TOTAL (state 1.1)
 Orbital energies read from record       2100.2  Type=RKS/CANONICAL (state 1.1)
 Density matrix read from record         2100.2  Type=RKS/CHARGE (state 1.1)

 Number of core orbitals:           5 (   5 )
 Number of closed-shell orbitals:   4 (   4 )

 Basis set MINAO-AUTO-PP generated.      Number of basis functions:   11 

 Polarized AO type:                A = (O Ot + (1-O)(1-Ot)) P12
 Orthogonalization method:         Symmetric (Loewdin)
 Localization functional:          L = sum[A,i] <i|n_A|i>^4 -> max

 Localization group 1:   9 orbitals, occupancy  2.000
 Iterative localization: IB/PM,    4 iter; Final gradient 0.62E-08

 Bond order analysis:       [THRPRINT= 0.020]

   CEN ATOM   CEN ATOM     WIBERG.BO      RENORM.BO
     1   S  -   3   H       0.999472       1.000000
     1   S  -   2   H       0.999472       1.000000

     2   H  -   1   S       0.999472       1.000000

     3   H  -   1   S       0.999472       1.000000


 Valency analysis:

   CEN ATOM   TOT.VALENCE
     1   S       1.998945
     2   H       0.999846
     3   H       0.999846

 Total charge composition:

   CEN ATOM         s          p       ELECTRONS ->P.CHARGE
     1   S       5.69251   10.33233     16.02484   -0.02484
     2   H       0.98758                 0.98758    0.01242
     3   H       0.98758                 0.98758    0.01242

 Total charge composition, AO contributions:

   CEN ATOM SHL      SPHERICAL COMPONENTS
     1   S  1s       1.99989
     1   S  2s       1.99304
     1   S  3s       1.69958
     1   S  2p       2.00000    1.99996    1.99995
     1   S  3p       2.00000    0.99313    1.33928

     2   H  1s       0.98758

     3   H  1s       0.98758

 Summary of localized orbital composition:   [THRPRINT= 0.020]

   ORB  GRP  ORB.ENERGY      CENTERS/CHARGES
     1   1   -87.616663      S  1   2.000
     2   1    -8.620869      S  1   2.000
     3   1    -5.932514      S  1   2.000
     4   1    -5.790901      S  1   2.000
     5   1    -5.775719      S  1   2.000
     6   1    -0.572895      S  1   1.012   H  3   0.987
     7   1    -0.572895      S  1   1.012   H  2   0.987
     8   1    -0.478163      S  1   2.000
     9   1    -0.193895      S  1   2.000

 Localized orbitals saved to record      2100.2  (orbital set 2)


 **********************************************************************************************************************************
 DATASETS  * FILE   NREC   LENGTH (MB)   RECORD NAMES
              1      20       30.45       500      610      700      900      950      970     1000      129      960     1100   
                                          VAR    BASINP    GEOM    SYMINP    ZMAT    AOBASIS   BASIS     P2S    ABASIS      S 
                                         1400     1410     1200     1210     1080     1600     1650     1300     1700     1800   
                                           T        V       H0       H01     AOSYM     SMH    MOLCAS    ERIS     OPER     GRID   

              2       5        2.78       700     1000      520     1800     2100   
                                         GEOM     BASIS   MCVARS    GRID      RKS  

 PROGRAMS   *        TOTAL      IBBA        KS       INT
 CPU TIMES  *         1.35      0.02      0.99      0.19
 REAL TIME  *         1.87 SEC
 DISK USED  *        34.76 MB      
 **********************************************************************************************************************************
 Molecular orbitals read from record     2100.2  Type=RKS/LOCAL(IBO)  
 Occupation numbers read from record     2100.2  Type=RKS/LOCAL(IBO)  
 Orbital energies read from record       2100.2  Type=RKS/LOCAL(IBO)  
 Redundancy group numbers read from rec  2100.2  Type=RKS/LOCAL(IBO)  

 IBBA/STO-3G energy=      0.000000000000

        KS-SCF  
   -394.85378814
 **********************************************************************************************************************************
 Molpro calculation terminated
