
 Primary working directories    : /local
 Secondary working directories  : /local
 Wavefunction directory         : /local/
 Main file repository           : /local/

 SHA1      : b9319c725c8a29ac6166ac31fc2b6d7de1ab7ce4
 NAME      : 2012.1.57
 ARCHNAME  : Linux/x86_64
 FC        : /cm/shared/languages/GCC-7.1.0/bin/gfortran
 FCVERSION : 7.1.0
 BLASLIB   : -L/usr/lib64 -lblas
 id        : simonbennie

 Nodes     nprocs
 node33-048    1

 Using customized tuning parameters: mindgm=1; mindgv=20; mindgc=4; mindgr=1; noblas=0; minvec=7
 default implementation of scratch files=df  

 memory,500,m
 geomtyp=xyz
 nosym
 noorient
 geometry={
 S          0.00000        0.00000        0.10252
 H          0.00000        0.96625       -0.82015
 H          0.00000       -0.96625       -0.82015
 }
 basis={default,sto-3g}
 {hf,direct;wf,18,1,0}
 
 basis={ default,6-31+G(d,p) }
 {ks,B3LYP3,direct;disp;wf,18,1,0}
 

 Variables initialized (782), CPU time= 0.01 sec
 Commands  initialized (547), CPU time= 0.00 sec, 517 directives.
 Default parameters read. Elapsed time= 0.06 sec

 Checking input...
 Passed
1


                                         ***  PROGRAM SYSTEM MOLPRO  ***
                         Copyright, University College Cardiff Consultants Limited, 2008

                                    Version 2012.1 linked Aug  7 2018 17:05:12


 **********************************************************************************************************************************
 LABEL *                                                                                 
 Linux-2.6.32-642.6.2.el6.x86_64/node33-048(x86_64) 64 bit serial version                DATE: 12-Oct-18          TIME: 11:46:40  
 **********************************************************************************************************************************

 SHA1:             b9319c725c8a29ac6166ac31fc2b6d7de1ab7ce4
 **********************************************************************************************************************************
 SETTING GEOMTYP        =    XYZ

 Variable memory set to  500000000 words,  buffer space   230000 words

 ZSYMEL=NOSYM

 SETTING BASIS          =    STO-3G


 Recomputing integrals since basis changed


 Using spherical harmonics

 Library entry S      S STO-3G               selected for orbital group  1
 Library entry S      P STO-3G               selected for orbital group  1
 Library entry H      S STO-3G               selected for orbital group  2

1PROGRAM * SEWARD (Integral evaluation for generally contracted gaussian basis sets)     Author: Roland Lindh, 1990

 Geometry written to block  1 of record 700


 Point group  C1  



 ATOMIC COORDINATES

 NR  ATOM    CHARGE       X              Y              Z

   1  S      16.00    0.000000000    0.000000000    0.193734723
   2  H       1.00    0.000000000    1.825947874   -1.549858887
   3  H       1.00    0.000000000   -1.825947874   -1.549858887

 Bond lengths in Bohr (Angstrom)

 1-2  2.524718661  1-3  2.524718661
     ( 1.336023574)     ( 1.336023574)

 Bond angles

  2-1-3   92.64331701

 NUCLEAR CHARGE:                   18
 NUMBER OF PRIMITIVE AOS:          33
 NUMBER OF SYMMETRY AOS:           33
 NUMBER OF CONTRACTIONS:           11   (  11A   )
 NUMBER OF CORE ORBITALS:           5   (   5A   )
 NUMBER OF VALENCE ORBITALS:        6   (   6A   )


 NUCLEAR REPULSION ENERGY   12.94850994

 EXTRA SYMMETRY OF AOS IN SYMMETRY 1:   1 1 1 2 1 1 2 1 1 1   1

 Eigenvalues of metric

         1 0.325E+00 0.442E+00 0.623E+00 0.743E+00 0.814E+00 0.942E+00 0.116E+01 0.126E+01


 Contracted 2-electron integrals neglected if value below      1.0D-11
 AO integral compression algorithm  1   Integral accuracy      1.0D-11

     0.262 MB (compressed) written to integral file ( 78.6%)


 NUMBER OF SORTED TWO-ELECTRON INTEGRALS:       2211.     BUFFER LENGTH:  32768
 NUMBER OF SEGMENTS:   1  SEGMENT LENGTH:       2211      RECORD LENGTH: 524288

 Memory used in sort:       0.56 MW

 SORT1 READ        3679. AND WROTE         949. INTEGRALS IN      1 RECORDS. CPU TIME:     0.00 SEC, REAL TIME:     0.01 SEC
 SORT2 READ         949. AND WROTE        2211. INTEGRALS IN      1 RECORDS. CPU TIME:     0.00 SEC, REAL TIME:     0.00 SEC

 FILE SIZES:   FILE 1:     7.8 MBYTE,  FILE 4:     4.2 MBYTE,   TOTAL:     12.0 MBYTE

 OPERATOR DM      FOR CENTER  0  COORDINATES:    0.000000    0.000000    0.000000


 **********************************************************************************************************************************
 DATASETS  * FILE   NREC   LENGTH (MB)   RECORD NAMES
              1      19        7.55       500      610      700      900      950      970     1000      129      960     1100   
                                          VAR    BASINP    GEOM    SYMINP    ZMAT    AOBASIS   BASIS     P2S    ABASIS      S 
                                         1400     1410     1200     1210     1080     1600     1650     1300     1700   
                                           T        V       H0       H01     AOSYM     SMH    MOLCAS    ERIS     OPER   

 PROGRAMS   *        TOTAL       INT
 CPU TIMES  *         0.34      0.26
 REAL TIME  *         0.61 SEC
 DISK USED  *        12.32 MB      
 **********************************************************************************************************************************

1PROGRAM * RHF-SCF (CLOSED SHELL)       Authors: W. Meyer, H.-J. Werner


 NUMBER OF ELECTRONS:       9+    9-    SPACE SYMMETRY=1    SPIN SYMMETRY: Singlet 
 CONVERGENCE THRESHOLDS:    1.00E-05 (Density)    1.00E-07 (Energy)
 INTEGRAL THRESHOLDS:       1.00E-11 (Initial)    1.00E-11 (Final)
 MAX. NUMBER OF ITERATIONS:       60
 INTERPOLATION TYPE:            DIIS
 INTERPOLATION STEPS:              2 (START)      1 (STEP)
 LEVEL SHIFTS:                  0.00 (CLOSED)  0.00 (OPEN) 



 Orbital guess generated from atomic densities. Full valence occupancy:    9

 Molecular orbital dump at record        2100.2

 Direct Fock-matrix evaluation.        Authors: Roland Lindh & Martin Schuetz (1993/96)

 Integral Threshold:                  0.1D-10
 Threshold for writing integrals:     0.1D-06
 Prescreening on density matrix:        ON 
 Calculation will be performed fully direct        

 ITERATION   DDIFF            GRAD            ENERGY        2-EL.EN.            DIPOLE MOMENTS         DIIS   CPU(IT)  CPU(TOT)
    1      0.000D+00      0.000D+00      -394.25241295    337.582034    0.00000    0.00000   -1.25335    0      0.8      1.6     start
    2      0.000D+00      0.417D-01      -394.31151198    333.282706    0.00000    0.00000   -0.39376    1      0.4      2.0     diag
    3      0.809D-01      0.193D-02      -394.31155000    333.329488    0.00000    0.00000   -0.40134    2      0.4      2.4     diag
    4      0.169D-02      0.250D-03      -394.31155265    333.329234    0.00000    0.00000   -0.40173    3      0.4      2.8     diag
    5      0.554D-03      0.622D-04      -394.31155288    333.329052   -0.00000    0.00000   -0.40193    4      0.4      3.2     diag
    6      0.214D-03      0.148D-05      -394.31155288    333.329078    0.00000   -0.00000   -0.40193    5      0.4      3.5     diag
    7      0.246D-05      0.154D-06      -394.31155288    333.329080    0.00000   -0.00000   -0.40193    0      0.4      3.9     orth

 Final occupancy:   9

 !RHF STATE 1.1 Energy               -394.311552875830
 Nuclear energy                        12.94850994
 One-electron energy                 -573.92460283
 Two-electron energy                  166.66454002
 Virial quotient                       -1.01189671
 !RHF STATE 1.1 Dipole moment           0.00000000    -0.00000000    -0.40192956
 Dipole moment /Debye                   0.00000000    -0.00000000    -1.02153613

 Orbital energies:

         1.1          2.1          3.1          4.1          5.1          6.1          7.1          8.1          9.1         10.1
    -90.745337    -8.647706    -6.280195    -6.278043    -6.274591    -0.895703    -0.504854    -0.393630    -0.277702     0.469434

        11.1
      0.537009

 HOMO      9.1    -0.277702 =      -7.5567eV
 LUMO     10.1     0.469434 =      12.7739eV
 LUMO-HOMO         0.747136 =      20.3306eV


 **********************************************************************************************************************************
 DATASETS  * FILE   NREC   LENGTH (MB)   RECORD NAMES
              1      19        7.55       500      610      700      900      950      970     1000      129      960     1100   
                                          VAR    BASINP    GEOM    SYMINP    ZMAT    AOBASIS   BASIS     P2S    ABASIS      S 
                                         1400     1410     1200     1210     1080     1600     1650     1300     1700   
                                           T        V       H0       H01     AOSYM     SMH    MOLCAS    ERIS     OPER   

              2       4        2.78       700     1000      520     2100   
                                         GEOM     BASIS   MCVARS     RHF  

 PROGRAMS   *        TOTAL        HF       INT
 CPU TIMES  *         4.28      3.94      0.26
 REAL TIME  *         5.20 SEC
 DISK USED  *        12.32 MB      
 **********************************************************************************************************************************
 SETTING BASIS          =    6-31+G(D,P)


 Recomputing integrals since basis changed


 Using spherical harmonics

 Library entry S      S 6-31G                selected for orbital group  1
 Library entry S      S 6-31++G              selected for orbital group  1
 Library entry S      P 6-31G                selected for orbital group  1
 Library entry S      P 6-31++G              selected for orbital group  1
 Library entry S      D 6-31G*               selected for orbital group  1
 Library entry H      S 6-31G                selected for orbital group  2
 Library entry H      P 6-31G**              selected for orbital group  2

1PROGRAM * SEWARD (Integral evaluation for generally contracted gaussian basis sets)     Author: Roland Lindh, 1990

 Geometry written to block  1 of record 700


 Point group  C1  



 ATOMIC COORDINATES

 NR  ATOM    CHARGE       X              Y              Z

   1  S      16.00    0.000000000    0.000000000    0.193734723
   2  H       1.00    0.000000000    1.825947874   -1.549858887
   3  H       1.00    0.000000000   -1.825947874   -1.549858887

 Bond lengths in Bohr (Angstrom)

 1-2  2.524718661  1-3  2.524718661
     ( 1.336023574)     ( 1.336023574)

 Bond angles

  2-1-3   92.64331701

 NUCLEAR CHARGE:                   18
 NUMBER OF PRIMITIVE AOS:          70
 NUMBER OF SYMMETRY AOS:           69
 NUMBER OF CONTRACTIONS:           32   (  32A   )
 NUMBER OF CORE ORBITALS:           5   (   5A   )
 NUMBER OF VALENCE ORBITALS:        6   (   6A   )


 NUCLEAR REPULSION ENERGY   12.94850994

 EXTRA SYMMETRY OF AOS IN SYMMETRY 1:   1 1 1 1 1 2 1 1 2 1   1 2 1 1 2 1 1 1 2 2   1 1 1 1 2 1 1 1 1 2   1 1

 Eigenvalues of metric

         1 0.291E-01 0.797E-01 0.904E-01 0.153E+00 0.158E+00 0.167E+00 0.280E+00 0.297E+00


 Contracted 2-electron integrals neglected if value below      1.0D-11
 AO integral compression algorithm  1   Integral accuracy      1.0D-11

     0.524 MB (compressed) written to integral file ( 44.5%)


 NUMBER OF SORTED TWO-ELECTRON INTEGRALS:     139656.     BUFFER LENGTH:  32768
 NUMBER OF SEGMENTS:   1  SEGMENT LENGTH:     139656      RECORD LENGTH: 524288

 Memory used in sort:       0.70 MW

 SORT1 READ      192526. AND WROTE       61742. INTEGRALS IN      1 RECORDS. CPU TIME:     0.00 SEC, REAL TIME:     0.00 SEC
 SORT2 READ       61742. AND WROTE      139656. INTEGRALS IN      2 RECORDS. CPU TIME:     0.02 SEC, REAL TIME:     0.01 SEC

 FILE SIZES:   FILE 1:     8.1 MBYTE,  FILE 4:     4.2 MBYTE,   TOTAL:     12.3 MBYTE

 OPERATOR DM      FOR CENTER  0  COORDINATES:    0.000000    0.000000    0.000000


 **********************************************************************************************************************************
 DATASETS  * FILE   NREC   LENGTH (MB)   RECORD NAMES
              1      19        7.93       500      610      700      900      950      970     1001      129      960     1100   
                                          VAR    BASINP    GEOM    SYMINP    ZMAT    AOBASIS   BASIS     P2S    ABASIS      S 
                                         1400     1410     1200     1210     1080     1600     1650     1300     1700   
                                           T        V       H0       H01     AOSYM     SMH    MOLCAS    ERIS     OPER   

              2       5        2.79       700     1000      520     2100     1001   
                                         GEOM     BASIS   MCVARS     RHF     BASIS   

 PROGRAMS   *        TOTAL       INT        HF       INT
 CPU TIMES  *         4.53      0.25      3.94      0.26
 REAL TIME  *         5.51 SEC
 DISK USED  *        15.17 MB      
 **********************************************************************************************************************************

 Density functional group B3LYP3=B88+DIRAC+LYP+VWN3
 Functional: B88(Automatically generated (new) B88)                            Gradient terms: 1
 Functional: DIRAC(Automatically generated (new) DIRAC)                        Gradient terms: 0
 Functional: LYP(Automatically generated (new) LYP)                            Gradient terms: 1
 Functional: VWN3(Automatically generated (new) VWN3)                          Gradient terms: 0

 dispersion correction activated
 Density functional: B3LYP3  
 functional not in list, set to default 


 Exact exchange will be calculated, factor:  0.2000

 Functional: B88                       Factor:  0.7200
 Functional: DIRAC                     Factor:  0.0800
 Functional: LYP                       Factor:  0.8100
 Functional: VWN3                      Factor:  0.1900

 Use grid at  1800.2


 Exact exchange will be calculated, factor:  0.2000

 Functional: B88                       Factor:  0.7200
 Functional: DIRAC                     Factor:  0.0800
 Functional: LYP                       Factor:  0.8100
 Functional: VWN3                      Factor:  0.1900

 Generated new metagrid on record  1800.2 with target accuracy 1.0D-06 and 19820 points in CPU time    0.2
 Computed new grid on record 1800.1 in CPU time    0.2
   29454 words reserved for DFT integration

 PROGRAM * RKS-SCF (Restricted closed shell Kohn-Sham)     Authors: W. Meyer, H.-J. Werner, P.J. Knowles, 1993

 NUMBER OF ELECTRONS:       9+    9-    SPACE SYMMETRY=1    SPIN SYMMETRY: Singlet 
 CONVERGENCE THRESHOLDS:    1.00E-05 (Density)    1.00E-06 (Energy)
 MAX. NUMBER OF ITERATIONS:       60
 INTERPOLATION TYPE:            DIIS
 INTERPOLATION STEPS:              2 (START)      1 (STEP)
 LEVEL SHIFTS:                  0.00 (CLOSED)  0.00 (OPEN) 



 Use fine grid record 1800.2 for energy threshold  1.0D-06
 Molecular orbitals read from record     2100.2  Type=RHF/CANONICAL (state 1.1)

 Present basis size:      32
 Previous basis size:     11
 Previous occupation:      9
 Previous closed-shells:   9
 Previous core-orbitals:   5
 Present occupation:       9
 Present closed-shells:    9
 Present core-orbitals:    5
 Wavefunction symmetry:    1   Singlet 

 Orbital overlap <old|new>:  < 1.1| 1.1> = 0.999836   < 2.1| 2.1> = 0.999161   < 3.1| 3.1> = 0.998703   < 4.1| 4.1> = 0.998701
                             < 5.1| 5.1> = 0.998682   < 6.1| 6.1> = 0.999389   < 7.1| 7.1> = 0.999795   < 8.1| 8.1> = 0.999431
                             < 9.1| 9.1> = 0.999593

 Molecular orbital dump at record        2101.2

 ITERATION    DDIFF          GRAD             ENERGY        2-EL.EN.            DIPOLE MOMENTS         DIIS   ORB.
    1      0.000D+00      0.000D+00      -399.19386737    378.028232    0.00000   -0.00000   -0.39227    0    start
    2      0.000D+00      0.335D-01      -399.36600937    366.997991   -0.00000    0.00000   -0.21291    1    diag
    3      0.598D-01      0.100D-01      -399.38141456    373.898251    0.00000   -0.00000   -0.81159    2    diag
    4      0.269D-01      0.568D-02      -399.39065962    371.166196    0.00000   -0.00000   -0.54121    3    diag
    5      0.100D-01      0.368D-03      -399.39069627    371.302061   -0.00000    0.00000   -0.55667    4    diag
    6      0.553D-03      0.233D-04      -399.39069643    371.309146    0.00000   -0.00000   -0.55792    5    diag
    7      0.430D-04      0.417D-05      -399.39069643    371.310138    0.00000   -0.00000   -0.55773    6    diag
    8      0.522D-05      0.659D-06      -399.39069643    371.309851   -0.00000   -0.00000   -0.55778    0    orth

 Dispersion correction
 - - - - - - - - - - - 
  _________________________________
                                   
 |         DFTD3 V1.3 Rev 1        |
 | S.Grimme, University Muenster   |
 | Fri Jul  2 12:48:21 CEST 2010   |
  _________________________________

 Please cite DFT-D3 work done with this code as:
 S. Grimme, J. Antony, S. Ehrlich and H. Krieg,
 J. Chem. Phys, 132 (2010), 154104.
 For DFT-D2 the reference is
 S. Grimme, J. Comput. Chem., 27 (2006), 1787-1799

 C6 coefficients used:
                    2  C6 for element                     1
 Z=  1 CN=   0.912     C6(AA)=    3.03
 Z=  1 CN=   0.000     C6(AA)=    7.59
                    3  C6 for element                    16
 Z= 16 CN=   0.000     C6(AA)=  134.01
 Z= 16 CN=   0.995     C6(AA)=  131.00
 Z= 16 CN=   1.990     C6(AA)=  125.81

 #           XYZ [au]               R0(AA) [Ang.]   CN       C6(AA)     C8(AA)   C10(AA) [au]
  1   0.00000   0.00000   0.19373   s   1.655  1.991       125.9      6168.3    370184.9
  2   0.00000   1.82595  -1.54986   h   1.091  0.996         3.1        37.4       553.6
  3   0.00000  -1.82595  -1.54986   h   1.091  0.996         3.1        37.4       553.6

 molecular C6(AA) [au] =       217.06

           DFT-D V3
 DF pbe                                               
 parameters
 s6       :    1.0000
 s8       :    0.7220
 rs6      :    1.2170
 alpha6   :   14.0000
 alpha8   :   16.0000
 k1-k3    :   16.0000    1.3333   -4.0000

 Edisp /kcal,au:    -0.0151 -0.00002399

 E6    /kcal :    -0.0017
 E8    /kcal :    -0.0134
 % E8        : 88.91
 normal termination of dftd3

 RKS STATE 1.1 ENERGY+DISP     -399.39072042

 Final occupancy:   9

 !RKS STATE 1.1 Energy               -399.390720423128
 Nuclear energy                        12.94850994
 One-electron energy                 -576.70788224
 Two-electron energy                  185.65492530
 SCF exchange energy                  -25.70657367     Factor= 0.2000
 Density functional                   -21.28624942     B88=-25.69636720 DIRAC=-23.66344502 LYP= -0.70162323 VWN3= -1.70249804
 Virial quotient                       -1.00207186
 !RKS STATE 1.1 Dipole moment          -0.00000000    -0.00000000    -0.55777522
 Dipole moment /Debye                  -0.00000000    -0.00000000    -1.41763035

 Orbital energies:

         1.1          2.1          3.1          4.1          5.1          6.1          7.1          8.1          9.1         10.1
    -88.875388    -7.952585    -5.916598    -5.913379    -5.906462    -0.754043    -0.456358    -0.372295    -0.267212    -0.011102

        11.1
      0.019999

 HOMO      9.1    -0.267212 =      -7.2712eV
 LUMO     10.1    -0.011102 =      -0.3021eV
 LUMO-HOMO         0.256110 =       6.9691eV


 **********************************************************************************************************************************
 DATASETS  * FILE   NREC   LENGTH (MB)   RECORD NAMES
              1      20        8.57       500      610      700      900      950      970     1001      129      960     1100   
                                          VAR    BASINP    GEOM    SYMINP    ZMAT    AOBASIS   BASIS     P2S    ABASIS      S 
                                         1400     1410     1200     1210     1080     1600     1650     1300     1700     1800   
                                           T        V       H0       H01     AOSYM     SMH    MOLCAS    ERIS     OPER     GRID   

              2       7        5.30       700     1000      520     2100     1001     1800     2101   
                                         GEOM     BASIS   MCVARS     RHF     BASIS    GRID      RKS  

 PROGRAMS   *        TOTAL        KS       INT        HF       INT
 CPU TIMES  *         5.42      0.89      0.25      3.94      0.26
 REAL TIME  *         6.59 SEC
 DISK USED  *        15.17 MB      
 **********************************************************************************************************************************

        KS-SCF          HF-SCF  
   -399.39072042   -394.31155288
 **********************************************************************************************************************************
 Variable memory released
