
 Primary working directories    : /local
 Secondary working directories  : /local
 Wavefunction directory         : /local/
 Main file repository           : /local/

 SHA1      : b4a5b34a9e711420743f49e6833241d17c61fb3c
 NAME      : 2099.9.b4a5b34
 ARCHNAME  : linux/x86_64_openmp
 FC        : /cm/shared/languages/GCC-6.1/bin/gfortran
 BLASLIB   : -lblas
 id        : simonbennie

 Nodes     nprocs
 node45-007    1

 Using customized tuning parameters: mindgm=1; mindgv=20; mindgc=4; mindgr=1; noblas=0; minvec=7
 default implementation of scratch files=df  

 memory,500,m
 geomtyp=xyz
 nosym
 noorient
 geometry={
 S          0.00000        0.00000        0.10252
 H          0.00000        0.96625       -0.82015
 H          0.00000       -0.96625       -0.82015
 }
 basis={ default,qzvp }
 {uks,M06-HF,direct;wf,18,1,0}
 {ibba,bonds=1}

 Variables initialized (895), CPU time= 0.00 sec
 Commands  initialized (725), CPU time= 0.02 sec, 591 directives.
 Default parameters read. Elapsed time= 0.08 sec

 Checking input...
 Passed
1


                                         ***  PROGRAM SYSTEM MOLPRO  ***
                                       Copyright, TTI GmbH Stuttgart, 2015
                                    Version 2099.9 linked May 26 2017 16:03:21


 **********************************************************************************************************************************
 LABEL *                                                                                 
  64 bit serial version                                                                  DATE: 30-Jun-17          TIME: 00:01:26  
 **********************************************************************************************************************************

 SHA1:             b4a5b34a9e711420743f49e6833241d17c61fb3c
 **********************************************************************************************************************************
 SETTING GEOMTYP        =    XYZ

 Variable memory set to  500000000 words,  buffer space 

 ZSYMEL=NOSYM

 SETTING BASIS          =    QZVP


 Recomputing integrals since basis changed


 Using spherical harmonics

 Library entry S      S def2-QZVP            selected for orbital group  1
 Library entry S      P def2-QZVP            selected for orbital group  1
 Library entry S      D def2-QZVP            selected for orbital group  1
 Library entry S      F def2-QZVP            selected for orbital group  1
 Library entry S      G def2-QZVP            selected for orbital group  1
 Library entry H      S def2-QZVP            selected for orbital group  2
 Library entry H      P def2-QZVP            selected for orbital group  2
 Library entry H      D def2-QZVP            selected for orbital group  2
 Library entry H      F def2-QZVP            selected for orbital group  2


 PROGRAM * SEWARD (Integral evaluation for generally contracted gaussian basis sets)     Author: Roland Lindh, 1990

 Geometry written to block  1 of record 700


 Point group  C1  



 ATOMIC COORDINATES

 NR  ATOM    CHARGE       X              Y              Z

   1  S      16.00    0.000000000    0.000000000    0.193734722
   2  H       1.00    0.000000000    1.825947868   -1.549858881
   3  H       1.00    0.000000000   -1.825947868   -1.549858881

 Bond lengths in Bohr (Angstrom)

 1-2  2.524718652  1-3  2.524718652
     ( 1.336023574)     ( 1.336023574)

 Bond angles

  2-1-3   92.64331701

 NUCLEAR CHARGE:                   18
 NUMBER OF PRIMITIVE AOS:         197
 NUMBER OF SYMMETRY AOS:          171
 NUMBER OF CONTRACTIONS:          130   ( 130A   )
 NUMBER OF CORE ORBITALS:           5   (   5A   )
 NUMBER OF VALENCE ORBITALS:        6   (   6A   )


 NUCLEAR REPULSION ENERGY   12.94850999

 EXTRA SYMMETRY OF AOS IN SYMMETRY 1:   1 1 1 1 1 1 1 1 1 2   1 1 2 1 1 2 1 1 2 1   1 2 1 1 2 1 1 1 2 2   1 1 1 2 2 1 1 1 2 2
                                        1 1 1 2 2 1 1 2 1 1   2 2 1 1 2 1 1 2 2 1   1 1 2 2 1 1 1 2 2 1   1 1 1 1 2 1 1 2 1 1
                                        2 1 1 1 2 2 1 1 1 2   2 1 1 2 1 1 2 2 1 1   1 1 1 1 2 1 1 2 1 1   2 1 1 1 2 2 1 1 1 2
                                        2 1 1 2 1 1 2 2 1 1

 Eigenvalues of metric

         1 0.381E-03 0.454E-03 0.172E-02 0.286E-02 0.515E-02 0.677E-02 0.119E-01 0.131E-01


 Contracted 2-electron integrals neglected if value below      1.0D-11
 AO integral compression algorithm  1   Integral accuracy      1.0D-11

     93.323 MB (compressed) written to integral file ( 26.8%)


 NUMBER OF SORTED TWO-ELECTRON INTEGRALS:   36256870.     BUFFER LENGTH:  32768
 NUMBER OF SEGMENTS:   3  SEGMENT LENGTH:   15998004      RECORD LENGTH: 524288

 Memory used in sort:      16.56 MW

 SORT1 READ    43503473. AND WROTE    16562037. INTEGRALS IN     49 RECORDS. CPU TIME:     0.31 SEC, REAL TIME:     0.52 SEC
 SORT2 READ    16562037. AND WROTE    36256870. INTEGRALS IN    356 RECORDS. CPU TIME:     0.72 SEC, REAL TIME:     0.82 SEC

 FILE SIZES:   FILE 1:   124.0 MBYTE,  FILE 4:   205.6 MBYTE,   TOTAL:    329.5 MBYTE

 OPERATOR DM      FOR CENTER  0  COORDINATES:    0.000000    0.000000    0.000000


 **********************************************************************************************************************************
 DATASETS  * FILE   NREC   LENGTH (MB)   RECORD NAMES
              1      19      105.17       500      610      700      900      950      970     1000      129      960     1100   
                                          VAR    BASINP    GEOM    SYMINP    ZMAT    AOBASIS   BASIS     P2S    ABASIS      S 
                                         1400     1410     1200     1210     1080     1600     1650     1300     1700   
                                           T        V       H0       H01     AOSYM     SMH    MOLCAS    ERIS     OPER   

 PROGRAMS   *        TOTAL       INT
 CPU TIMES  *         3.40      3.27
 REAL TIME  *         4.19 SEC
 DISK USED  *       329.85 MB      
 **********************************************************************************************************************************

 Density functional group M06-HF=XC-M06-HF
 Functional: XC-M06-HF(via MFM 1.6)                                            Gradient terms: 1
 Use grid at  1800.2


 Exact exchange will be calculated, factor:  1.0000

 Functional: XC-M06-HF                 Factor:  1.0000

 Generated new metagrid on record  1800.2 with target accuracy 1.0D-06 and 15738 points in CPU time    0.3
 Computed new grid on record 1800.1 in CPU time    0.3
  107229 words reserved for DFT integration

 PROGRAM * UKS-SCF (Unrestricted Kohn-Sham)     Authors: W. Meyer, H.-J. Werner, P.J. Knowles, 1993

 NUMBER OF ELECTRONS:       9+    9-    SPACE SYMMETRY=1    SPIN SYMMETRY: Singlet 
 CONVERGENCE THRESHOLDS:    1.00E-05 (Density)    1.00E-06 (Energy)
 MAX. NUMBER OF ITERATIONS:       60
 INTERPOLATION TYPE:            DIIS
 INTERPOLATION STEPS:              2 (START)      1 (STEP)
 LEVEL SHIFTS:                 -0.20 (ALPHA)  -0.20 (BETA) 



 Use fine grid record 1800.2 for energy threshold  1.0D-06
 Orbital guess generated from atomic densities. Full valence occupancy:    9

 Molecular orbital dump at record        2200.2

 Initial alpha occupation   9
 Initial beta  occupation   9

 ITERATION    DDIFF          GRAD             ENERGY        2-EL.EN.            DIPOLE MOMENTS         DIIS
    1      0.000D+00      0.000D+00      -399.39355702    332.108446   -0.00000   -0.00000   -0.87504    0
    2      0.282D-02      0.156D-02      -399.41029137    330.400970   -0.00000   -0.00000   -0.50133    1
    3      0.774D-03      0.475D-03      -399.41224426    330.665014   -0.00000   -0.00000   -0.44862    2
    4      0.930D-03      0.231D-03      -399.41299260    330.613959   -0.00000   -0.00000   -0.41911    3
    5      0.919D-03      0.134D-03      -399.41332053    330.630723   -0.00000   -0.00000   -0.40910    4
    6      0.349D-03      0.525D-04      -399.41336649    330.637198   -0.00000   -0.00000   -0.41434    5
    7      0.348D-04      0.131D-04      -399.41336842    330.635882   -0.00000   -0.00000   -0.41805    6
    8      0.275D-04      0.318D-05      -399.41336855    330.635308    0.00000   -0.00000   -0.41918    7
    9      0.576D-05      0.637D-06      -399.41336856    330.635242   -0.00000   -0.00000   -0.41936    7
   10      0.162D-05      0.230D-06      -399.41336856    330.635229   -0.00000    0.00000   -0.41939    7

 Final alpha occupancy:   9
 Final beta  occupancy:   9

 !UKS STATE 1.1 Energy               -399.413368559756
 Nuclear energy                        12.94850999
 One-electron energy                 -576.95417930
 Two-electron energy                  165.31761430
 Density functional                    -0.72531354     XC-M06-HF=-0.72531354
 Virial quotient                       -1.00169896
 !UKS STATE 1.1 Dipole moment          -0.00000000     0.00000000    -0.41939436
 Dipole moment /Debye                  -0.00000000     0.00000000    -1.06592431

 Orbital energies for positive spin:

         1.1          2.1          3.1          4.1          5.1          6.1          7.1          8.1          9.1         10.1
    -91.101971    -8.542774    -6.502868    -6.502691    -6.502289    -0.936018    -0.587848    -0.505334    -0.393967     0.047376

        11.1
      0.085482

 Orbital energies for negative spin:

         1.1          2.1          3.1          4.1          5.1          6.1          7.1          8.1          9.1         10.1
    -91.101971    -8.542774    -6.502868    -6.502691    -6.502289    -0.936018    -0.587848    -0.505334    -0.393967     0.047376

        11.1
      0.085482

 HOMO      9.1    -0.393967 =     -10.7204eV
 LUMO     10.1     0.047376 =       1.2892eV
 LUMO-HOMO         0.441343 =      12.0096eV

 EXPECTATION VALUE OF S**2:            -0.00000000

 Natural orbitals saved to record    2200.2 (Orbital set 3)

 Orbital spaces for UNO-CAS (Min. occupation: 0.020  Max. occupation: 1.980):

 Closed:        9
 Active:        0


 **********************************************************************************************************************************
 DATASETS  * FILE   NREC   LENGTH (MB)   RECORD NAMES
              1      20      105.68       500      610      700      900      950      970     1000      129      960     1100   
                                          VAR    BASINP    GEOM    SYMINP    ZMAT    AOBASIS   BASIS     P2S    ABASIS      S 
                                         1400     1410     1200     1210     1080     1600     1650     1300     1700     1800   
                                           T        V       H0       H01     AOSYM     SMH    MOLCAS    ERIS     OPER     GRID   

              2       5        3.49       700     1000      520     1800     2200   
                                         GEOM     BASIS   MCVARS    GRID      UKS  

 PROGRAMS   *        TOTAL       UKS       INT
 CPU TIMES  *        29.44     26.04      3.27
 REAL TIME  *        30.70 SEC
 DISK USED  *       329.85 MB      
 **********************************************************************************************************************************


 PROGRAM * Intrinsic Basis Bonding Analysis (IBBA)          Author: G. Knizia

 Molecular orbitals read from record     2200.2  Type=UKS/ALPHA (state 1.1)
 Fock matrix read from record            2200.2  Type=UKS/TOTAL (state 1.1)
 Orbital energies read from record       2200.2  Type=UKS/ALPHA (state 1.1)
 Density matrix read from record         2200.2  Type=UKS/CHARGE (state 1.1)

 Number of core orbitals:           5 (   5 )
 Number of closed-shell orbitals:   4 (   4 )

 Basis set MINAO-AUTO-PP generated.      Number of basis functions:   11 

 Polarized AO type:                A = (O Ot + (1-O)(1-Ot)) P12
 Orthogonalization method:         Symmetric (Loewdin)
 Localization functional:          L = sum[A,i] <i|n_A|i>^4 -> max

 Localization group 1:   9 orbitals, occupancy  2.000
 Iterative localization: IB/PM,    4 iter; Final gradient 0.43E-08

 Bond order analysis:       [THRPRINT= 0.020]

   CEN ATOM   CEN ATOM     WIBERG.BO      RENORM.BO
     1   S  -   2   H       0.991013       1.000000
     1   S  -   3   H       0.991013       1.000000

     2   H  -   1   S       0.991013       1.000000

     3   H  -   1   S       0.991013       1.000000


 Valency analysis:

   CEN ATOM   TOT.VALENCE
     1   S       1.982027
     2   H       0.991967
     3   H       0.991967

 Total charge composition:

   CEN ATOM         s          p       ELECTRONS ->P.CHARGE
     1   S       5.66401   10.51525     16.17925   -0.17925
     2   H       0.91037                 0.91037    0.08963
     3   H       0.91037                 0.91037    0.08963

 Total charge composition, AO contributions:

   CEN ATOM SHL      SPHERICAL COMPONENTS
     1   S  1s       1.99989
     1   S  2s       1.99401
     1   S  3s       1.67010
     1   S  2p       2.00000    1.99922    1.99932
     1   S  3p       2.00000    1.05952    1.45719

     2   H  1s       0.91037

     3   H  1s       0.91037

 Summary of localized orbital composition:   [THRPRINT= 0.020]

   ORB  GRP  ORB.ENERGY      CENTERS/CHARGES
     1   1   -89.907421      S  1   2.000
     2   1    -9.318455      S  1   2.000
     3   1    -6.781796      S  1   2.000
     4   1    -6.502869      S  1   2.000
     5   1    -6.495319      S  1   2.000
     6   1    -0.744967      S  1   1.090   H  2   0.910
     7   1    -0.744967      S  1   1.090   H  3   0.910
     8   1    -0.686005      S  1   2.000
     9   1    -0.393966      S  1   2.000

 Localized orbitals saved to record      2200.2  (orbital set 4)


 **********************************************************************************************************************************
 DATASETS  * FILE   NREC   LENGTH (MB)   RECORD NAMES
              1      20      105.68       500      610      700      900      950      970     1000      129      960     1100   
                                          VAR    BASINP    GEOM    SYMINP    ZMAT    AOBASIS   BASIS     P2S    ABASIS      S 
                                         1400     1410     1200     1210     1080     1600     1650     1300     1700     1800   
                                           T        V       H0       H01     AOSYM     SMH    MOLCAS    ERIS     OPER     GRID   

              2       5        3.63       700     1000      520     1800     2200   
                                         GEOM     BASIS   MCVARS    GRID      UKS  

 PROGRAMS   *        TOTAL      IBBA       UKS       INT
 CPU TIMES  *        29.46      0.02     26.04      3.27
 REAL TIME  *        30.75 SEC
 DISK USED  *       329.85 MB      
 **********************************************************************************************************************************
 Molecular orbitals read from record     2200.2  Type=UKS/LOCAL(IBO)  
 Occupation numbers read from record     2200.2  Type=UKS/LOCAL(IBO)  
 Orbital energies read from record       2200.2  Type=UKS/LOCAL(IBO)  
 Redundancy group numbers read from rec  2200.2  Type=UKS/BETA (state 1.1)

 IBBA/QZVP energy=      0.000000000000

        UKS-SCF 
   -399.41336856
 **********************************************************************************************************************************
 Molpro calculation terminated
