
 Primary working directories    : /local
 Secondary working directories  : /local
 Wavefunction directory         : /local/
 Main file repository           : /local/

 SHA1      : b4a5b34a9e711420743f49e6833241d17c61fb3c
 NAME      : 2099.9.b4a5b34
 ARCHNAME  : linux/x86_64_openmp
 FC        : /cm/shared/languages/GCC-6.1/bin/gfortran
 BLASLIB   : -lblas
 id        : simonbennie

 Nodes     nprocs
 node35-048    1

 Using customized tuning parameters: mindgm=1; mindgv=20; mindgc=4; mindgr=1; noblas=0; minvec=7
 default implementation of scratch files=df  

 memory,500,m
 geomtyp=xyz
 nosym
 noorient
 geometry={
 S          0.00000        0.00000        0.10252
 H          0.00000        0.96625       -0.82015
 H          0.00000       -0.96625       -0.82015
 }
 basis={ default,avdz }
 {uhf,direct;wf,18,1,0}
 {uks,M06,direct;maxit,0;wf,18,1,0}
 {ibba,bonds=1}

 Variables initialized (895), CPU time= 0.01 sec
 Commands  initialized (725), CPU time= 0.01 sec, 591 directives.
 Default parameters read. Elapsed time= 0.09 sec

 Checking input...
 Passed
1


                                         ***  PROGRAM SYSTEM MOLPRO  ***
                                       Copyright, TTI GmbH Stuttgart, 2015
                                    Version 2099.9 linked May 26 2017 16:03:21


 **********************************************************************************************************************************
 LABEL *                                                                                 
  64 bit serial version                                                                  DATE: 11-Mar-18          TIME: 07:55:57  
 **********************************************************************************************************************************

 SHA1:             b4a5b34a9e711420743f49e6833241d17c61fb3c
 **********************************************************************************************************************************
 SETTING GEOMTYP        =    XYZ

 Variable memory set to  500000000 words,  buffer space 

 ZSYMEL=NOSYM

 SETTING BASIS          =    AVDZ


 Recomputing integrals since basis changed


 Using spherical harmonics

 Library entry S      S aug-cc-pVDZ          selected for orbital group  1
 Library entry S      P aug-cc-pVDZ          selected for orbital group  1
 Library entry S      D aug-cc-pVDZ          selected for orbital group  1
 Library entry H      S aug-cc-pVDZ          selected for orbital group  2
 Library entry H      P aug-cc-pVDZ          selected for orbital group  2


 PROGRAM * SEWARD (Integral evaluation for generally contracted gaussian basis sets)     Author: Roland Lindh, 1990

 Geometry written to block  1 of record 700


 Point group  C1  



 ATOMIC COORDINATES

 NR  ATOM    CHARGE       X              Y              Z

   1  S      16.00    0.000000000    0.000000000    0.193734722
   2  H       1.00    0.000000000    1.825947868   -1.549858881
   3  H       1.00    0.000000000   -1.825947868   -1.549858881

 Bond lengths in Bohr (Angstrom)

 1-2  2.524718652  1-3  2.524718652
     ( 1.336023574)     ( 1.336023574)

 Bond angles

  2-1-3   92.64331701

 NUCLEAR CHARGE:                   18
 NUMBER OF PRIMITIVE AOS:          74
 NUMBER OF SYMMETRY AOS:           72
 NUMBER OF CONTRACTIONS:           45   (  45A   )
 NUMBER OF CORE ORBITALS:           5   (   5A   )
 NUMBER OF VALENCE ORBITALS:        6   (   6A   )


 NUCLEAR REPULSION ENERGY   12.94850999

 EXTRA SYMMETRY OF AOS IN SYMMETRY 1:   1 1 1 1 1 2 1 1 2 1   1 2 1 1 2 1 1 1 2 2   1 1 1 2 2 1 1 1 1 1   2 1 1 2 1 1 1 1 1 2
                                        1 1 2 1 1

 Eigenvalues of metric

         1 0.923E-03 0.109E-02 0.927E-02 0.164E-01 0.440E-01 0.471E-01 0.471E-01 0.628E-01


 Contracted 2-electron integrals neglected if value below      1.0D-11
 AO integral compression algorithm  1   Integral accuracy      1.0D-11

     2.097 MB (compressed) written to integral file ( 31.9%)


 NUMBER OF SORTED TWO-ELECTRON INTEGRALS:     536130.     BUFFER LENGTH:  32768
 NUMBER OF SEGMENTS:   1  SEGMENT LENGTH:     536130      RECORD LENGTH: 524288

 Memory used in sort:       1.09 MW

 SORT1 READ      750449. AND WROTE      249740. INTEGRALS IN      1 RECORDS. CPU TIME:     0.00 SEC, REAL TIME:     0.01 SEC
 SORT2 READ      249740. AND WROTE      536130. INTEGRALS IN      8 RECORDS. CPU TIME:     0.04 SEC, REAL TIME:     0.05 SEC

 FILE SIZES:   FILE 1:    32.2 MBYTE,  FILE 4:     4.2 MBYTE,   TOTAL:     36.4 MBYTE

 OPERATOR DM      FOR CENTER  0  COORDINATES:    0.000000    0.000000    0.000000


 **********************************************************************************************************************************
 DATASETS  * FILE   NREC   LENGTH (MB)   RECORD NAMES
              1      19       31.41       500      610      700      900      950      970     1000      129      960     1100   
                                          VAR    BASINP    GEOM    SYMINP    ZMAT    AOBASIS   BASIS     P2S    ABASIS      S 
                                         1400     1410     1200     1210     1080     1600     1650     1300     1700   
                                           T        V       H0       H01     AOSYM     SMH    MOLCAS    ERIS     OPER   

 PROGRAMS   *        TOTAL       INT
 CPU TIMES  *         0.40      0.26
 REAL TIME  *         0.70 SEC
 DISK USED  *        36.69 MB      
 **********************************************************************************************************************************


 PROGRAM * UHF-SCF       Authors: W. Meyer, H.-J. Werner


 NUMBER OF ELECTRONS:       9+    9-    SPACE SYMMETRY=1    SPIN SYMMETRY: Singlet 
 CONVERGENCE THRESHOLDS:    1.00E-05 (Density)    1.00E-07 (Energy)
 INTEGRAL THRESHOLDS:       1.00E-11 (Initial)    1.00E-11 (Final)
 MAX. NUMBER OF ITERATIONS:       60
 INTERPOLATION TYPE:            DIIS
 INTERPOLATION STEPS:              2 (START)      1 (STEP)
 LEVEL SHIFTS:                 -0.20 (ALPHA)  -0.20 (BETA) 



 Orbital guess generated from atomic densities. Full valence occupancy:   11

 Molecular orbital dump at record        2200.2

 Initial alpha occupation   9
 Initial beta  occupation   9

 Direct Fock-matrix evaluation.        Author: H.-J. Werner (1996)

 Integral Threshold:                  0.1D-10

 ITERATION   DDIFF            GRAD            ENERGY        2-EL.EN.            DIPOLE MOMENTS         DIIS   CPU(IT)  CPU(TOT)
    1      0.000D+00      0.000D+00      -398.67895303    330.811571   -0.00000   -0.00000   -0.89970    0      0.8      1.6
    2      0.101D-01      0.310D-02      -398.69449795    329.895548   -0.00000   -0.00000   -0.55204    1      0.5      2.1
    3      0.398D-02      0.108D-02      -398.69723471    329.854532    0.00000   -0.00000   -0.46265    2      0.4      2.5
    4      0.202D-02      0.472D-03      -398.69799611    329.850332    0.00000   -0.00000   -0.44243    3      0.5      3.0
    5      0.587D-03      0.154D-03      -398.69809275    329.833873    0.00000   -0.00000   -0.44488    4      0.4      3.4
    6      0.271D-03      0.417D-04      -398.69809949    329.828603    0.00000   -0.00000   -0.44787    5      0.4      3.9
    7      0.559D-04      0.715D-05      -398.69809969    329.828487    0.00000   -0.00000   -0.44822    6      0.4      4.3
    8      0.957D-05      0.181D-05      -398.69809970    329.828612    0.00000   -0.00000   -0.44817    6      0.6      4.9
    9      0.288D-05      0.485D-06      -398.69809970    329.828633    0.00000   -0.00000   -0.44813    5      0.6      5.4
   10      0.836D-06      0.119D-06      -398.69809970    329.828646   -0.00000   -0.00000   -0.44813    5      0.6      6.0

 Final alpha occupancy:   9
 Final beta  occupancy:   9

 !UHF STATE 1.1 Energy               -398.698099699965
 Nuclear energy                        12.94850999
 One-electron energy                 -576.56093285
 Two-electron energy                  164.91432316
 Virial quotient                       -1.00015287
 !UHF STATE 1.1 Dipole moment          -0.00000000    -0.00000000    -0.44812537
 Dipole moment /Debye                  -0.00000000    -0.00000000    -1.13894647

 Orbital energies for positive spin:

         1.1          2.1          3.1          4.1          5.1          6.1          7.1          8.1          9.1         10.1
    -91.970622    -8.972863    -6.654950    -6.653884    -6.651421    -0.985085    -0.591139    -0.501290    -0.384892     0.034461

        11.1
      0.061759

 Orbital energies for negative spin:

         1.1          2.1          3.1          4.1          5.1          6.1          7.1          8.1          9.1         10.1
    -91.970622    -8.972863    -6.654950    -6.653884    -6.651421    -0.985085    -0.591139    -0.501290    -0.384892     0.034461

        11.1
      0.061759

 HOMO      9.1    -0.384892 =     -10.4735eV
 LUMO     10.1     0.034461 =       0.9377eV
 LUMO-HOMO         0.419353 =      11.4112eV

 EXPECTATION VALUE OF S**2:            -0.00000000

 Natural orbitals saved to record    2200.2 (Orbital set 3)

 Orbital spaces for UNO-CAS (Min. occupation: 0.020  Max. occupation: 1.980):

 Closed:        9
 Active:        0


 **********************************************************************************************************************************
 DATASETS  * FILE   NREC   LENGTH (MB)   RECORD NAMES
              1      19       31.41       500      610      700      900      950      970     1000      129      960     1100   
                                          VAR    BASINP    GEOM    SYMINP    ZMAT    AOBASIS   BASIS     P2S    ABASIS      S 
                                         1400     1410     1200     1210     1080     1600     1650     1300     1700   
                                           T        V       H0       H01     AOSYM     SMH    MOLCAS    ERIS     OPER   

              2       4        2.87       700     1000      520     2200   
                                         GEOM     BASIS   MCVARS     UHF  

 PROGRAMS   *        TOTAL       UHF       INT
 CPU TIMES  *         6.46      6.06      0.26
 REAL TIME  *         8.36 SEC
 DISK USED  *        36.69 MB      
 **********************************************************************************************************************************

 Density functional group M06=XC-M06
 Functional: XC-M06(via MFM 1.6)                                               Gradient terms: 1
 Use grid at  1800.2


 Exact exchange will be calculated, factor:  0.2700

 Functional: XC-M06                    Factor:  1.0000

 Generated new metagrid on record  1800.2 with target accuracy 1.0D-06 and 14630 points in CPU time    0.3
 Computed new grid on record 1800.1 in CPU time    0.3
   39868 words reserved for DFT integration

 PROGRAM * UKS-SCF (Unrestricted Kohn-Sham)     Authors: W. Meyer, H.-J. Werner, P.J. Knowles, 1993

 NUMBER OF ELECTRONS:       9+    9-    SPACE SYMMETRY=1    SPIN SYMMETRY: Singlet 
 CONVERGENCE THRESHOLDS:    1.00E-05 (Density)    1.00E-06 (Energy)
 MAX. NUMBER OF ITERATIONS:        0
 INTERPOLATION TYPE:            DIIS
 INTERPOLATION STEPS:              2 (START)      1 (STEP)
 LEVEL SHIFTS:                 -0.20 (ALPHA)  -0.20 (BETA) 



 Use fine grid record 1800.2 for energy threshold  1.0D-06
 Molecular orbitals read from record     2200.2  Type=UHF/ALPHA (state 1.1)
 Molecular orbitals read from record     2200.2  Type=UHF/BETA (state 1.1)

 Molecular orbital dump at record        2201.2

 Initial alpha occupation   9
 Initial beta  occupation   9

 ITERATION    DDIFF          GRAD             ENERGY        2-EL.EN.            DIPOLE MOMENTS         DIIS
    1      0.000D+00      0.000D+00      -399.36994938    367.373782   -0.00000   -0.00000   -0.44813    0

 Final alpha occupancy:   9
 Final beta  occupancy:   9

 !UKS STATE 1.1 Energy               -399.369949383912
 Nuclear energy                        12.94850999
 One-electron energy                 -576.56093285
 Two-electron energy                  183.68689103
 Density functional                   -19.44441755     XC-M06=-19.44441755
 Virial quotient                       -1.00183823
 !UKS STATE 1.1 Dipole moment          -0.00000000    -0.00000000    -0.44812537
 Dipole moment /Debye                  -0.00000000    -0.00000000    -1.13894647

 Orbital energies for positive spin:

         1.1          2.1          3.1          4.1          5.1          6.1          7.1          8.1          9.1         10.1
    -91.970622    -8.972863    -6.654950    -6.653884    -6.651421    -0.985085    -0.591139    -0.501290    -0.384892     0.034461

        11.1
      0.061759

 Orbital energies for negative spin:

         1.1          2.1          3.1          4.1          5.1          6.1          7.1          8.1          9.1         10.1
    -91.970622    -8.972863    -6.654950    -6.653884    -6.651421    -0.985085    -0.591139    -0.501290    -0.384892     0.034461

        11.1
      0.061759

 HOMO      9.1    -0.384892 =     -10.4735eV
 LUMO     10.1     0.034461 =       0.9377eV
 LUMO-HOMO         0.419353 =      11.4112eV

 EXPECTATION VALUE OF S**2:            -0.00000000

 Natural orbitals saved to record    2201.2 (Orbital set 3)

 Orbital spaces for UNO-CAS (Min. occupation: 0.020  Max. occupation: 1.980):

 Closed:        9
 Active:        0

 No convergence



 **********************************************************************************************************************************
 DATASETS  * FILE   NREC   LENGTH (MB)   RECORD NAMES
              1      20       31.87       500      610      700      900      950      970     1000      129      960     1100   
                                          VAR    BASINP    GEOM    SYMINP    ZMAT    AOBASIS   BASIS     P2S    ABASIS      S 
                                         1400     1410     1200     1210     1080     1600     1650     1300     1700     1800   
                                           T        V       H0       H01     AOSYM     SMH    MOLCAS    ERIS     OPER     GRID   

              2       6        5.45       700     1000      520     2200     1800     2201   
                                         GEOM     BASIS   MCVARS     UHF     GRID      UKS  

 PROGRAMS   *        TOTAL       UKS       UHF       INT
 CPU TIMES  *         7.18      0.72      6.06      0.26
 REAL TIME  *         9.09 SEC
 DISK USED  *        37.41 MB      
 **********************************************************************************************************************************


 PROGRAM * Intrinsic Basis Bonding Analysis (IBBA)          Author: G. Knizia

 Molecular orbitals read from record     2201.2  Type=UKS/ALPHA (state 1.1)
 Fock matrix read from record            2201.2  Type=UKS/TOTAL (state 1.1)
 Orbital energies read from record       2201.2  Type=UKS/ALPHA (state 1.1)
 Density matrix read from record         2201.2  Type=UKS/CHARGE (state 1.1)

 Number of core orbitals:           5 (   5 )
 Number of closed-shell orbitals:   4 (   4 )

 Basis set MINAO-AUTO-PP generated.      Number of basis functions:   11 

 Polarized AO type:                A = (O Ot + (1-O)(1-Ot)) P12
 Orthogonalization method:         Symmetric (Loewdin)
 Localization functional:          L = sum[A,i] <i|n_A|i>^4 -> max

 Localization group 1:   9 orbitals, occupancy  2.000
 Iterative localization: IB/PM,    4 iter; Final gradient 0.73E-08

 Bond order analysis:       [THRPRINT= 0.020]

   CEN ATOM   CEN ATOM     WIBERG.BO      RENORM.BO
     1   S  -   2   H       0.991318       1.000000
     1   S  -   3   H       0.991318       1.000000

     2   H  -   1   S       0.991318       1.000000

     3   H  -   1   S       0.991318       1.000000


 Valency analysis:

   CEN ATOM   TOT.VALENCE
     1   S       1.982635
     2   H       0.992867
     3   H       0.992867

 Total charge composition:

   CEN ATOM         s          p       ELECTRONS ->P.CHARGE
     1   S       5.67278   10.49613     16.16891   -0.16891
     2   H       0.91554                 0.91554    0.08446
     3   H       0.91554                 0.91554    0.08446

 Total charge composition, AO contributions:

   CEN ATOM SHL      SPHERICAL COMPONENTS
     1   S  1s       1.99990
     1   S  2s       1.99296
     1   S  3s       1.67992
     1   S  2p       2.00000    1.99923    1.99931
     1   S  3p       2.00000    1.04587    1.45173

     2   H  1s       0.91554

     3   H  1s       0.91554

 Summary of localized orbital composition:   [THRPRINT= 0.020]

   ORB  GRP  ORB.ENERGY      CENTERS/CHARGES
     1   1   -87.927045      S  1   2.000
     2   1    -8.803227      S  1   2.000
     3   1    -6.270557      S  1   2.000
     4   1    -5.995257      S  1   2.000
     5   1    -5.991904      S  1   2.000
     6   1    -0.609747      S  1   1.084   H  2   0.915
     7   1    -0.609747      S  1   1.084   H  3   0.915
     8   1    -0.562351      S  1   2.000
     9   1    -0.282730      S  1   2.000

 Localized orbitals saved to record      2201.2  (orbital set 4)


 **********************************************************************************************************************************
 DATASETS  * FILE   NREC   LENGTH (MB)   RECORD NAMES
              1      20       31.87       500      610      700      900      950      970     1000      129      960     1100   
                                          VAR    BASINP    GEOM    SYMINP    ZMAT    AOBASIS   BASIS     P2S    ABASIS      S 
                                         1400     1410     1200     1210     1080     1600     1650     1300     1700     1800   
                                           T        V       H0       H01     AOSYM     SMH    MOLCAS    ERIS     OPER     GRID   

              2       6        5.47       700     1000      520     2200     1800     2201   
                                         GEOM     BASIS   MCVARS     UHF     GRID      UKS  

 PROGRAMS   *        TOTAL      IBBA       UKS       UHF       INT
 CPU TIMES  *         7.19      0.01      0.72      6.06      0.26
 REAL TIME  *         9.12 SEC
 DISK USED  *        37.41 MB      
 **********************************************************************************************************************************

 IBBA/aug-cc-pVDZ energy=      0.000000000000

        UKS-SCF         UHF-SCF 
   -399.36994938   -398.69809970
 **********************************************************************************************************************************
 Molpro calculation terminated
