
 Primary working directories    : /local
 Secondary working directories  : /local
 Wavefunction directory         : /local/
 Main file repository           : /local/

 SHA1      : b4a5b34a9e711420743f49e6833241d17c61fb3c
 NAME      : 2099.9.b4a5b34
 ARCHNAME  : linux/x86_64_openmp
 FC        : /cm/shared/languages/GCC-6.1/bin/gfortran
 BLASLIB   : -lblas
 id        : simonbennie

 Nodes     nprocs
 node35-048    1

 Using customized tuning parameters: mindgm=1; mindgv=20; mindgc=4; mindgr=1; noblas=0; minvec=7
 default implementation of scratch files=df  

 memory,500,m
 geomtyp=xyz
 nosym
 noorient
 geometry={
 S          0.00000        0.00000        0.10252
 H          0.00000        0.96625       -0.82015
 H          0.00000       -0.96625       -0.82015
 }
 basis={ default,sto-3g }
 {uhf,direct;wf,18,1,0}
 {uks,PBE,direct;maxit,0;wf,18,1,0}
 {ibba,bonds=1}

 Variables initialized (895), CPU time= 0.00 sec
 Commands  initialized (725), CPU time= 0.02 sec, 591 directives.
 Default parameters read. Elapsed time= 0.08 sec

 Checking input...
 Passed
1


                                         ***  PROGRAM SYSTEM MOLPRO  ***
                                       Copyright, TTI GmbH Stuttgart, 2015
                                    Version 2099.9 linked May 26 2017 16:03:21


 **********************************************************************************************************************************
 LABEL *                                                                                 
  64 bit serial version                                                                  DATE: 11-Mar-18          TIME: 05:08:09  
 **********************************************************************************************************************************

 SHA1:             b4a5b34a9e711420743f49e6833241d17c61fb3c
 **********************************************************************************************************************************
 SETTING GEOMTYP        =    XYZ

 Variable memory set to  500000000 words,  buffer space 

 ZSYMEL=NOSYM

 SETTING BASIS          =    STO-3G


 Recomputing integrals since basis changed


 Using spherical harmonics

 Library entry S      S STO-3G               selected for orbital group  1
 Library entry S      P STO-3G               selected for orbital group  1
 Library entry H      S STO-3G               selected for orbital group  2


 PROGRAM * SEWARD (Integral evaluation for generally contracted gaussian basis sets)     Author: Roland Lindh, 1990

 Geometry written to block  1 of record 700


 Point group  C1  



 ATOMIC COORDINATES

 NR  ATOM    CHARGE       X              Y              Z

   1  S      16.00    0.000000000    0.000000000    0.193734722
   2  H       1.00    0.000000000    1.825947868   -1.549858881
   3  H       1.00    0.000000000   -1.825947868   -1.549858881

 Bond lengths in Bohr (Angstrom)

 1-2  2.524718652  1-3  2.524718652
     ( 1.336023574)     ( 1.336023574)

 Bond angles

  2-1-3   92.64331701

 NUCLEAR CHARGE:                   18
 NUMBER OF PRIMITIVE AOS:          33
 NUMBER OF SYMMETRY AOS:           33
 NUMBER OF CONTRACTIONS:           11   (  11A   )
 NUMBER OF CORE ORBITALS:           5   (   5A   )
 NUMBER OF VALENCE ORBITALS:        6   (   6A   )


 NUCLEAR REPULSION ENERGY   12.94850999

 EXTRA SYMMETRY OF AOS IN SYMMETRY 1:   1 1 1 2 1 1 2 1 1 1   1

 Eigenvalues of metric

         1 0.325E+00 0.442E+00 0.623E+00 0.743E+00 0.814E+00 0.942E+00 0.116E+01 0.126E+01


 Contracted 2-electron integrals neglected if value below      1.0D-11
 AO integral compression algorithm  1   Integral accuracy      1.0D-11

     0.262 MB (compressed) written to integral file ( 78.6%)


 NUMBER OF SORTED TWO-ELECTRON INTEGRALS:       2211.     BUFFER LENGTH:  32768
 NUMBER OF SEGMENTS:   1  SEGMENT LENGTH:       2211      RECORD LENGTH: 524288

 Memory used in sort:       0.56 MW

 SORT1 READ        3679. AND WROTE         949. INTEGRALS IN      1 RECORDS. CPU TIME:     0.00 SEC, REAL TIME:     0.01 SEC
 SORT2 READ         949. AND WROTE        2211. INTEGRALS IN      1 RECORDS. CPU TIME:     0.00 SEC, REAL TIME:     0.00 SEC

 FILE SIZES:   FILE 1:    30.2 MBYTE,  FILE 4:     4.2 MBYTE,   TOTAL:     34.5 MBYTE

 OPERATOR DM      FOR CENTER  0  COORDINATES:    0.000000    0.000000    0.000000


 **********************************************************************************************************************************
 DATASETS  * FILE   NREC   LENGTH (MB)   RECORD NAMES
              1      19       29.98       500      610      700      900      950      970     1000      129      960     1100   
                                          VAR    BASINP    GEOM    SYMINP    ZMAT    AOBASIS   BASIS     P2S    ABASIS      S 
                                         1400     1410     1200     1210     1080     1600     1650     1300     1700   
                                           T        V       H0       H01     AOSYM     SMH    MOLCAS    ERIS     OPER   

 PROGRAMS   *        TOTAL       INT
 CPU TIMES  *         0.31      0.17
 REAL TIME  *         0.57 SEC
 DISK USED  *        34.76 MB      
 **********************************************************************************************************************************


 PROGRAM * UHF-SCF       Authors: W. Meyer, H.-J. Werner


 NUMBER OF ELECTRONS:       9+    9-    SPACE SYMMETRY=1    SPIN SYMMETRY: Singlet 
 CONVERGENCE THRESHOLDS:    1.00E-05 (Density)    1.00E-07 (Energy)
 INTEGRAL THRESHOLDS:       1.00E-11 (Initial)    1.00E-11 (Final)
 MAX. NUMBER OF ITERATIONS:       60
 INTERPOLATION TYPE:            DIIS
 INTERPOLATION STEPS:              2 (START)      1 (STEP)
 LEVEL SHIFTS:                 -0.20 (ALPHA)  -0.20 (BETA) 



 Orbital guess generated from atomic densities. Full valence occupancy:    9

 Molecular orbital dump at record        2200.2

 Initial alpha occupation   9
 Initial beta  occupation   9

 Direct Fock-matrix evaluation.        Author: H.-J. Werner (1996)

 Integral Threshold:                  0.1D-10

 ITERATION   DDIFF            GRAD            ENERGY        2-EL.EN.            DIPOLE MOMENTS         DIIS   CPU(IT)  CPU(TOT)
    1      0.000D+00      0.000D+00      -394.25241295    337.582034    0.00000    0.00000   -1.25335    0      0.8      1.5
    2      0.534D-01      0.218D-01      -394.30508811    334.649024    0.00000    0.00000   -0.69026    1      0.4      1.8
    3      0.249D-01      0.698D-02      -394.31150839    333.388347    0.00000    0.00000   -0.42343    2      0.4      2.2
    4      0.195D-02      0.632D-03      -394.31155081    333.327553    0.00000    0.00000   -0.40387    3      0.4      2.6
    5      0.413D-03      0.125D-03      -394.31155285    333.328779    0.00000    0.00000   -0.40190    4      0.4      3.0
    6      0.372D-04      0.115D-04      -394.31155287    333.329074    0.00000    0.00000   -0.40190    4      0.4      3.3
    7      0.259D-04      0.406D-05      -394.31155288    333.329078    0.00000    0.00000   -0.40193    4      0.4      3.7
    8      0.140D-05      0.233D-06      -394.31155288    333.329079    0.00000    0.00000   -0.40193    4      0.4      4.1
    9      0.296D-07      0.107D-07      -394.31155288    333.329080    0.00000    0.00000   -0.40193    4      0.4      4.5

 Final alpha occupancy:   9
 Final beta  occupancy:   9

 !UHF STATE 1.1 Energy               -394.311552875710
 Nuclear energy                        12.94850999
 One-electron energy                 -573.92460311
 Two-electron energy                  166.66454025
 Virial quotient                       -1.01189671
 !UHF STATE 1.1 Dipole moment           0.00000000     0.00000000    -0.40192932
 Dipole moment /Debye                   0.00000000     0.00000000    -1.02153552

 Orbital energies for positive spin:

         1.1          2.1          3.1          4.1          5.1          6.1          7.1          8.1          9.1         10.1
    -90.745337    -8.647706    -6.280195    -6.278043    -6.274591    -0.895703    -0.504854    -0.393630    -0.277702     0.469434

        11.1
      0.537009

 Orbital energies for negative spin:

         1.1          2.1          3.1          4.1          5.1          6.1          7.1          8.1          9.1         10.1
    -90.745337    -8.647706    -6.280195    -6.278043    -6.274591    -0.895703    -0.504854    -0.393630    -0.277702     0.469434

        11.1
      0.537009

 HOMO      9.1    -0.277702 =      -7.5567eV
 LUMO     10.1     0.469434 =      12.7739eV
 LUMO-HOMO         0.747136 =      20.3306eV

 EXPECTATION VALUE OF S**2:             0.00000000

 Natural orbitals saved to record    2200.2 (Orbital set 3)

 Orbital spaces for UNO-CAS (Min. occupation: 0.020  Max. occupation: 1.980):

 Closed:        9
 Active:        0


 **********************************************************************************************************************************
 DATASETS  * FILE   NREC   LENGTH (MB)   RECORD NAMES
              1      19       29.98       500      610      700      900      950      970     1000      129      960     1100   
                                          VAR    BASINP    GEOM    SYMINP    ZMAT    AOBASIS   BASIS     P2S    ABASIS      S 
                                         1400     1410     1200     1210     1080     1600     1650     1300     1700   
                                           T        V       H0       H01     AOSYM     SMH    MOLCAS    ERIS     OPER   

              2       4        2.79       700     1000      520     2200   
                                         GEOM     BASIS   MCVARS     UHF  

 PROGRAMS   *        TOTAL       UHF       INT
 CPU TIMES  *         4.78      4.47      0.17
 REAL TIME  *         5.84 SEC
 DISK USED  *        34.76 MB      
 **********************************************************************************************************************************

 Density functional group PBE=PBEX+PBEC
 Functional: PBEX(Automatically generated (new) PBEX)                          Gradient terms: 1
 Functional: PBEC(Automatically generated (new) PBEC)                          Gradient terms: 1
 Use grid at  1800.2

 Functional: PBEX                      Factor:  1.0000
 Functional: PBEC                      Factor:  1.0000

 Generated new metagrid on record  1800.2 with target accuracy 1.0D-06 and 14630 points in CPU time    0.3
 Computed new grid on record 1800.1 in CPU time    0.3
   12677 words reserved for DFT integration

 PROGRAM * UKS-SCF (Unrestricted Kohn-Sham)     Authors: W. Meyer, H.-J. Werner, P.J. Knowles, 1993

 NUMBER OF ELECTRONS:       9+    9-    SPACE SYMMETRY=1    SPIN SYMMETRY: Singlet 
 CONVERGENCE THRESHOLDS:    1.00E-05 (Density)    1.00E-06 (Energy)
 MAX. NUMBER OF ITERATIONS:        0
 INTERPOLATION TYPE:            DIIS
 INTERPOLATION STEPS:              2 (START)      1 (STEP)
 LEVEL SHIFTS:                 -0.20 (ALPHA)  -0.20 (BETA) 



 Use fine grid record 1800.2 for energy threshold  1.0D-06
 Molecular orbitals read from record     2200.2  Type=UHF/ALPHA (state 1.1)
 Molecular orbitals read from record     2200.2  Type=UHF/BETA (state 1.1)

 Molecular orbital dump at record        2201.2

 Initial alpha occupation   9
 Initial beta  occupation   9

 ITERATION    DDIFF          GRAD             ENERGY        2-EL.EN.            DIPOLE MOMENTS         DIIS
    1      0.000D+00      0.000D+00      -394.75319175    385.173096    0.00000    0.00000   -0.40193    0

 Final alpha occupancy:   9
 Final beta  occupancy:   9

 !UKS STATE 1.1 Energy               -394.753191751246
 Nuclear energy                        12.94850999
 One-electron energy                 -573.92460311
 Two-electron energy                  192.58654819
 Density functional                   -26.36364682     PBEX=-25.67221125 PBEC= -0.69143557
 Virial quotient                       -1.01303006
 !UKS STATE 1.1 Dipole moment           0.00000000     0.00000000    -0.40192932
 Dipole moment /Debye                   0.00000000     0.00000000    -1.02153552

 Orbital energies for positive spin:

         1.1          2.1          3.1          4.1          5.1          6.1          7.1          8.1          9.1         10.1
    -90.745337    -8.647706    -6.280195    -6.278043    -6.274591    -0.895703    -0.504854    -0.393630    -0.277702     0.469434

        11.1
      0.537009

 Orbital energies for negative spin:

         1.1          2.1          3.1          4.1          5.1          6.1          7.1          8.1          9.1         10.1
    -90.745337    -8.647706    -6.280195    -6.278043    -6.274591    -0.895703    -0.504854    -0.393630    -0.277702     0.469434

        11.1
      0.537009

 HOMO      9.1    -0.277702 =      -7.5567eV
 LUMO     10.1     0.469434 =      12.7739eV
 LUMO-HOMO         0.747136 =      20.3306eV

 EXPECTATION VALUE OF S**2:            -0.00000000

 Natural orbitals saved to record    2201.2 (Orbital set 3)

 Orbital spaces for UNO-CAS (Min. occupation: 0.020  Max. occupation: 1.980):

 Closed:        9
 Active:        0

 No convergence



 **********************************************************************************************************************************
 DATASETS  * FILE   NREC   LENGTH (MB)   RECORD NAMES
              1      20       30.45       500      610      700      900      950      970     1000      129      960     1100   
                                          VAR    BASINP    GEOM    SYMINP    ZMAT    AOBASIS   BASIS     P2S    ABASIS      S 
                                         1400     1410     1200     1210     1080     1600     1650     1300     1700     1800   
                                           T        V       H0       H01     AOSYM     SMH    MOLCAS    ERIS     OPER     GRID   

              2       6        5.28       700     1000      520     2200     1800     2201   
                                         GEOM     BASIS   MCVARS     UHF     GRID      UKS  

 PROGRAMS   *        TOTAL       UKS       UHF       INT
 CPU TIMES  *         5.11      0.31      4.47      0.17
 REAL TIME  *         6.17 SEC
 DISK USED  *        35.81 MB      
 **********************************************************************************************************************************


 PROGRAM * Intrinsic Basis Bonding Analysis (IBBA)          Author: G. Knizia

 Molecular orbitals read from record     2201.2  Type=UKS/ALPHA (state 1.1)
 Fock matrix read from record            2201.2  Type=UKS/TOTAL (state 1.1)
 Orbital energies read from record       2201.2  Type=UKS/ALPHA (state 1.1)
 Density matrix read from record         2201.2  Type=UKS/CHARGE (state 1.1)

 Number of core orbitals:           5 (   5 )
 Number of closed-shell orbitals:   4 (   4 )

 Basis set MINAO-AUTO-PP generated.      Number of basis functions:   11 

 Polarized AO type:                A = (O Ot + (1-O)(1-Ot)) P12
 Orthogonalization method:         Symmetric (Loewdin)
 Localization functional:          L = sum[A,i] <i|n_A|i>^4 -> max

 Localization group 1:   9 orbitals, occupancy  2.000
 Iterative localization: IB/PM,    4 iter; Final gradient 0.93E-08

 Bond order analysis:       [THRPRINT= 0.020]

   CEN ATOM   CEN ATOM     WIBERG.BO      RENORM.BO
     1   S  -   3   H       0.999498       1.000000
     1   S  -   2   H       0.999498       1.000000

     2   H  -   1   S       0.999498       1.000000

     3   H  -   1   S       0.999498       1.000000


 Valency analysis:

   CEN ATOM   TOT.VALENCE
     1   S       1.998996
     2   H       1.000000
     3   H       1.000000

 Total charge composition:

   CEN ATOM         s          p       ELECTRONS ->P.CHARGE
     1   S       5.67795   10.32104     15.99899    0.00101
     2   H       1.00051                 1.00051   -0.00051
     3   H       1.00051                 1.00051   -0.00051

 Total charge composition, AO contributions:

   CEN ATOM SHL      SPHERICAL COMPONENTS
     1   S  1s       1.99990
     1   S  2s       1.99218
     1   S  3s       1.68587
     1   S  2p       2.00000    1.99985    1.99986
     1   S  3p       2.00000    0.97724    1.34409

     2   H  1s       1.00051

     3   H  1s       1.00051

 Summary of localized orbital composition:   [THRPRINT= 0.020]

   ORB  GRP  ORB.ENERGY      CENTERS/CHARGES
     1   1   -85.865698      S  1   2.000
     2   1    -8.036001      S  1   2.000
     3   1    -5.484095      S  1   2.000
     4   1    -5.334456      S  1   2.000
     5   1    -5.312160      S  1   2.000
     6   1    -0.466275      H  3   1.000   S  1   0.999
     7   1    -0.466275      H  2   1.000   S  1   0.999
     8   1    -0.361337      S  1   2.000
     9   1    -0.086119      S  1   2.000

 Localized orbitals saved to record      2201.2  (orbital set 4)


 **********************************************************************************************************************************
 DATASETS  * FILE   NREC   LENGTH (MB)   RECORD NAMES
              1      20       30.45       500      610      700      900      950      970     1000      129      960     1100   
                                          VAR    BASINP    GEOM    SYMINP    ZMAT    AOBASIS   BASIS     P2S    ABASIS      S 
                                         1400     1410     1200     1210     1080     1600     1650     1300     1700     1800   
                                           T        V       H0       H01     AOSYM     SMH    MOLCAS    ERIS     OPER     GRID   

              2       6        5.29       700     1000      520     2200     1800     2201   
                                         GEOM     BASIS   MCVARS     UHF     GRID      UKS  

 PROGRAMS   *        TOTAL      IBBA       UKS       UHF       INT
 CPU TIMES  *         5.12      0.01      0.31      4.47      0.17
 REAL TIME  *         6.19 SEC
 DISK USED  *        35.81 MB      
 **********************************************************************************************************************************

 IBBA/STO-3G energy=      0.000000000000

        UKS-SCF         UHF-SCF 
   -394.75319175   -394.31155288
 **********************************************************************************************************************************
 Molpro calculation terminated
