
 Primary working directories    : /local
 Secondary working directories  : /local
 Wavefunction directory         : /local/
 Main file repository           : /local/

 SHA1      : b4a5b34a9e711420743f49e6833241d17c61fb3c
 NAME      : 2099.9.b4a5b34
 ARCHNAME  : linux/x86_64_openmp
 FC        : /cm/shared/languages/GCC-6.1/bin/gfortran
 BLASLIB   : -lblas
 id        : simonbennie

 Nodes     nprocs
 node45-022    1

 Using customized tuning parameters: mindgm=1; mindgv=20; mindgc=4; mindgr=1; noblas=0; minvec=7
 default implementation of scratch files=df  

 memory,500,m
 geomtyp=xyz
 nosym
 noorient
 geometry={
 S          0.00000        0.00000        0.10252
 H          0.00000        0.96625       -0.82015
 H          0.00000       -0.96625       -0.82015
 }
 basis={ default,avdz }
 {uks,LYP88,direct;wf,18,1,0}
 {ibba,bonds=1}

 Variables initialized (895), CPU time= 0.01 sec
 Commands  initialized (725), CPU time= 0.01 sec, 591 directives.
 Default parameters read. Elapsed time= 0.08 sec

 Checking input...
 Passed
1


                                         ***  PROGRAM SYSTEM MOLPRO  ***
                                       Copyright, TTI GmbH Stuttgart, 2015
                                    Version 2099.9 linked May 26 2017 16:03:21


 **********************************************************************************************************************************
 LABEL *                                                                                 
  64 bit serial version                                                                  DATE: 30-Jun-17          TIME: 00:06:46  
 **********************************************************************************************************************************

 SHA1:             b4a5b34a9e711420743f49e6833241d17c61fb3c
 **********************************************************************************************************************************
 SETTING GEOMTYP        =    XYZ

 Variable memory set to  500000000 words,  buffer space 

 ZSYMEL=NOSYM

 SETTING BASIS          =    AVDZ


 Recomputing integrals since basis changed


 Using spherical harmonics

 Library entry S      S aug-cc-pVDZ          selected for orbital group  1
 Library entry S      P aug-cc-pVDZ          selected for orbital group  1
 Library entry S      D aug-cc-pVDZ          selected for orbital group  1
 Library entry H      S aug-cc-pVDZ          selected for orbital group  2
 Library entry H      P aug-cc-pVDZ          selected for orbital group  2


 PROGRAM * SEWARD (Integral evaluation for generally contracted gaussian basis sets)     Author: Roland Lindh, 1990

 Geometry written to block  1 of record 700


 Point group  C1  



 ATOMIC COORDINATES

 NR  ATOM    CHARGE       X              Y              Z

   1  S      16.00    0.000000000    0.000000000    0.193734722
   2  H       1.00    0.000000000    1.825947868   -1.549858881
   3  H       1.00    0.000000000   -1.825947868   -1.549858881

 Bond lengths in Bohr (Angstrom)

 1-2  2.524718652  1-3  2.524718652
     ( 1.336023574)     ( 1.336023574)

 Bond angles

  2-1-3   92.64331701

 NUCLEAR CHARGE:                   18
 NUMBER OF PRIMITIVE AOS:          74
 NUMBER OF SYMMETRY AOS:           72
 NUMBER OF CONTRACTIONS:           45   (  45A   )
 NUMBER OF CORE ORBITALS:           5   (   5A   )
 NUMBER OF VALENCE ORBITALS:        6   (   6A   )


 NUCLEAR REPULSION ENERGY   12.94850999

 EXTRA SYMMETRY OF AOS IN SYMMETRY 1:   1 1 1 1 1 2 1 1 2 1   1 2 1 1 2 1 1 1 2 2   1 1 1 2 2 1 1 1 1 1   2 1 1 2 1 1 1 1 1 2
                                        1 1 2 1 1

 Eigenvalues of metric

         1 0.923E-03 0.109E-02 0.927E-02 0.164E-01 0.440E-01 0.471E-01 0.471E-01 0.628E-01


 Contracted 2-electron integrals neglected if value below      1.0D-11
 AO integral compression algorithm  1   Integral accuracy      1.0D-11

     2.097 MB (compressed) written to integral file ( 31.9%)


 NUMBER OF SORTED TWO-ELECTRON INTEGRALS:     536130.     BUFFER LENGTH:  32768
 NUMBER OF SEGMENTS:   1  SEGMENT LENGTH:     536130      RECORD LENGTH: 524288

 Memory used in sort:       1.09 MW

 SORT1 READ      750449. AND WROTE      249740. INTEGRALS IN      1 RECORDS. CPU TIME:     0.01 SEC, REAL TIME:     0.01 SEC
 SORT2 READ      249740. AND WROTE      536130. INTEGRALS IN      8 RECORDS. CPU TIME:     0.03 SEC, REAL TIME:     0.04 SEC

 FILE SIZES:   FILE 1:    32.2 MBYTE,  FILE 4:     4.2 MBYTE,   TOTAL:     36.4 MBYTE

 OPERATOR DM      FOR CENTER  0  COORDINATES:    0.000000    0.000000    0.000000


 **********************************************************************************************************************************
 DATASETS  * FILE   NREC   LENGTH (MB)   RECORD NAMES
              1      19       31.41       500      610      700      900      950      970     1000      129      960     1100   
                                          VAR    BASINP    GEOM    SYMINP    ZMAT    AOBASIS   BASIS     P2S    ABASIS      S 
                                         1400     1410     1200     1210     1080     1600     1650     1300     1700   
                                           T        V       H0       H01     AOSYM     SMH    MOLCAS    ERIS     OPER   

 PROGRAMS   *        TOTAL       INT
 CPU TIMES  *         0.40      0.27
 REAL TIME  *         0.71 SEC
 DISK USED  *        36.69 MB      
 **********************************************************************************************************************************

 Density functional group LYP88=LYP
 Functional: LYP(Automatically generated (new) LYP)                            Gradient terms: 1
 Use grid at  1800.2

 Functional: LYP                       Factor:  1.0000

 Generated new metagrid on record  1800.2 with target accuracy 1.0D-06 and 14630 points in CPU time    0.3
 Computed new grid on record 1800.1 in CPU time    0.3
   39868 words reserved for DFT integration

 PROGRAM * UKS-SCF (Unrestricted Kohn-Sham)     Authors: W. Meyer, H.-J. Werner, P.J. Knowles, 1993

 NUMBER OF ELECTRONS:       9+    9-    SPACE SYMMETRY=1    SPIN SYMMETRY: Singlet 
 CONVERGENCE THRESHOLDS:    1.00E-05 (Density)    1.00E-06 (Energy)
 MAX. NUMBER OF ITERATIONS:       60
 INTERPOLATION TYPE:            DIIS
 INTERPOLATION STEPS:              2 (START)      1 (STEP)
 LEVEL SHIFTS:                 -0.20 (ALPHA)  -0.20 (BETA) 



 Use fine grid record 1800.2 for energy threshold  1.0D-06
 Orbital guess generated from atomic densities. Full valence occupancy:   11

 Molecular orbital dump at record        2200.2

 Initial alpha occupation   9
 Initial beta  occupation   9

 ITERATION    DDIFF          GRAD             ENERGY        2-EL.EN.            DIPOLE MOMENTS         DIIS
    1      0.000D+00      0.000D+00      -372.57872764    320.132350    0.00000   -0.00000    2.89784    0
    2      0.699D+00      0.283D-01      -373.22690106    390.199508    0.00000    0.00000   -1.59181    1
    3      0.115D+00      0.278D-01      -374.03056390    368.395044    0.00000   -0.00000   -0.79747    2
    4      0.259D-01      0.641D-02      -374.10056895    362.237836    0.00000   -0.00000   -0.61505    3
    5      0.898D-02      0.157D-02      -374.11353246    361.362503    0.00000   -0.00000   -0.47840    4
    6      0.834D-02      0.104D-02      -374.12143732    360.672209    0.00000    0.00000   -0.46004    5
    7      0.339D-02      0.674D-03      -374.12267340    360.932091    0.00000    0.00000   -0.42919    6
    8      0.108D-02      0.250D-03      -374.12282457    361.122696    0.00000   -0.00000   -0.44772    7
    9      0.589D-03      0.639D-04      -374.12284062    361.166740    0.00000   -0.00000   -0.44051    8
   10      0.190D-03      0.107D-04      -374.12284114    361.179102    0.00000   -0.00000   -0.44025    7
   11      0.460D-04      0.177D-05      -374.12284116    361.178994    0.00000    0.00000   -0.43975    7
   12      0.252D-04      0.707D-06      -374.12284116    361.178783    0.00000    0.00000   -0.43960    6
   13      0.884D-05      0.324D-06      -374.12284116    361.179029    0.00000    0.00000   -0.43950    6
   14      0.173D-05      0.116D-06      -374.12284116    361.178949    0.00000   -0.00000   -0.43948    6

 Final alpha occupancy:   9
 Final beta  occupancy:   9

 !UKS STATE 1.1 Energy               -374.122841164420
 Nuclear energy                        12.94850999
 One-electron energy                 -566.97760372
 Two-electron energy                  180.58947468
 Density functional                    -0.68322211     LYP=-0.68322211
 Virial quotient                       -0.96219896
 !UKS STATE 1.1 Dipole moment           0.00000000    -0.00000000    -0.43947517
 Dipole moment /Debye                   0.00000000    -0.00000000    -1.11696131

 Orbital energies for positive spin:

         1.1          2.1          3.1          4.1          5.1          6.1          7.1          8.1          9.1         10.1
    -82.797287    -6.420088    -4.464127    -4.459172    -4.451767    -0.420162    -0.163161    -0.103141    -0.028289     0.026027

        11.1
      0.055459

 Orbital energies for negative spin:

         1.1          2.1          3.1          4.1          5.1          6.1          7.1          8.1          9.1         10.1
    -82.797287    -6.420088    -4.464127    -4.459172    -4.451767    -0.420162    -0.163161    -0.103141    -0.028289     0.026027

        11.1
      0.055459

 HOMO      9.1    -0.028289 =      -0.7698eV
 LUMO     10.1     0.026027 =       0.7082eV
 LUMO-HOMO         0.054315 =       1.4780eV

 EXPECTATION VALUE OF S**2:            -0.00000000

 Natural orbitals saved to record    2200.2 (Orbital set 3)

 Orbital spaces for UNO-CAS (Min. occupation: 0.020  Max. occupation: 1.980):

 Closed:        9
 Active:        0


 **********************************************************************************************************************************
 DATASETS  * FILE   NREC   LENGTH (MB)   RECORD NAMES
              1      20       31.87       500      610      700      900      950      970     1000      129      960     1100   
                                          VAR    BASINP    GEOM    SYMINP    ZMAT    AOBASIS   BASIS     P2S    ABASIS      S 
                                         1400     1410     1200     1210     1080     1600     1650     1300     1700     1800   
                                           T        V       H0       H01     AOSYM     SMH    MOLCAS    ERIS     OPER     GRID   

              2       5        2.87       700     1000      520     1800     2200   
                                         GEOM     BASIS   MCVARS    GRID      UKS  

 PROGRAMS   *        TOTAL       UKS       INT
 CPU TIMES  *         2.58      2.18      0.27
 REAL TIME  *         2.94 SEC
 DISK USED  *        36.69 MB      
 **********************************************************************************************************************************


 PROGRAM * Intrinsic Basis Bonding Analysis (IBBA)          Author: G. Knizia

 Molecular orbitals read from record     2200.2  Type=UKS/ALPHA (state 1.1)
 Fock matrix read from record            2200.2  Type=UKS/TOTAL (state 1.1)
 Orbital energies read from record       2200.2  Type=UKS/ALPHA (state 1.1)
 Density matrix read from record         2200.2  Type=UKS/CHARGE (state 1.1)

 Number of core orbitals:           5 (   5 )
 Number of closed-shell orbitals:   4 (   4 )

 Basis set MINAO-AUTO-PP generated.      Number of basis functions:   11 

 Polarized AO type:                A = (O Ot + (1-O)(1-Ot)) P12
 Orthogonalization method:         Symmetric (Loewdin)
 Localization functional:          L = sum[A,i] <i|n_A|i>^4 -> max

 Localization group 1:   9 orbitals, occupancy  2.000
 Iterative localization: IB/PM,    4 iter; Final gradient 0.68E-09

 Bond order analysis:       [THRPRINT= 0.020]

   CEN ATOM   CEN ATOM     WIBERG.BO      RENORM.BO
     1   S  -   2   H       0.992558       1.000000
     1   S  -   3   H       0.992558       1.000000

     2   H  -   1   S       0.992558       1.000000

     3   H  -   1   S       0.992558       1.000000


 Valency analysis:

   CEN ATOM   TOT.VALENCE
     1   S       1.985115
     2   H       0.992561
     3   H       0.992561

 Total charge composition:

   CEN ATOM         s          p       ELECTRONS ->P.CHARGE
     1   S       5.63990   10.53260     16.17250   -0.17250
     2   H       0.91375                 0.91375    0.08625
     3   H       0.91375                 0.91375    0.08625

 Total charge composition, AO contributions:

   CEN ATOM SHL      SPHERICAL COMPONENTS
     1   S  1s       1.99983
     1   S  2s       1.99798
     1   S  3s       1.64209
     1   S  2p       2.00000    1.99904    1.99951
     1   S  3p       2.00000    1.08538    1.44867

     2   H  1s       0.91375

     3   H  1s       0.91375

 Summary of localized orbital composition:   [THRPRINT= 0.020]

   ORB  GRP  ORB.ENERGY      CENTERS/CHARGES
     1   1   -81.384229      S  1   2.000
     2   1    -7.551537      S  1   2.000
     3   1    -4.636388      S  1   2.000
     4   1    -4.460967      S  1   2.000
     5   1    -4.451766      S  1   2.000
     6   1    -0.283143      S  1   1.086   H  3   0.914
     7   1    -0.283143      S  1   1.086   H  2   0.914
     8   1    -0.227729      S  1   2.000
     9   1    -0.028289      S  1   2.000

 Localized orbitals saved to record      2200.2  (orbital set 4)


 **********************************************************************************************************************************
 DATASETS  * FILE   NREC   LENGTH (MB)   RECORD NAMES
              1      20       31.87       500      610      700      900      950      970     1000      129      960     1100   
                                          VAR    BASINP    GEOM    SYMINP    ZMAT    AOBASIS   BASIS     P2S    ABASIS      S 
                                         1400     1410     1200     1210     1080     1600     1650     1300     1700     1800   
                                           T        V       H0       H01     AOSYM     SMH    MOLCAS    ERIS     OPER     GRID   

              2       5        2.89       700     1000      520     1800     2200   
                                         GEOM     BASIS   MCVARS    GRID      UKS  

 PROGRAMS   *        TOTAL      IBBA       UKS       INT
 CPU TIMES  *         2.60      0.02      2.18      0.27
 REAL TIME  *         2.99 SEC
 DISK USED  *        36.69 MB      
 **********************************************************************************************************************************
 Molecular orbitals read from record     2200.2  Type=UKS/LOCAL(IBO)  
 Occupation numbers read from record     2200.2  Type=UKS/LOCAL(IBO)  
 Orbital energies read from record       2200.2  Type=UKS/LOCAL(IBO)  
 Redundancy group numbers read from rec  2200.2  Type=UKS/BETA (state 1.1)

 IBBA/aug-cc-pVDZ energy=      0.000000000000

        UKS-SCF 
   -374.12284116
 **********************************************************************************************************************************
 Molpro calculation terminated
