
 Primary working directories    : /local
 Secondary working directories  : /local
 Wavefunction directory         : /local/
 Main file repository           : /local/

 SHA1      : b4a5b34a9e711420743f49e6833241d17c61fb3c
 NAME      : 2099.9.b4a5b34
 ARCHNAME  : linux/x86_64_openmp
 FC        : /cm/shared/languages/GCC-6.1/bin/gfortran
 BLASLIB   : -lblas
 id        : simonbennie

 Nodes     nprocs
 node33-041    1

 Using customized tuning parameters: mindgm=1; mindgv=20; mindgc=4; mindgr=1; noblas=0; minvec=7
 default implementation of scratch files=df  

 memory,500,m
 geomtyp=xyz
 nosym
 noorient
 geometry={
 Cl         0.00000        0.00000        0.00000
 H          0.00000        0.00000        1.27445
 }
 basis={ default,SV(P) }
 {hf;wf,18,1,0}
 {rDCSD,direct;wf,18,1,0}
 {ibba,bonds=1}

 Variables initialized (895), CPU time= 0.00 sec
 Commands  initialized (725), CPU time= 0.02 sec, 591 directives.
 Default parameters read. Elapsed time= 0.09 sec

 Checking input...
 Passed
1


                                         ***  PROGRAM SYSTEM MOLPRO  ***
                                       Copyright, TTI GmbH Stuttgart, 2015
                                    Version 2099.9 linked May 26 2017 16:03:21


 **********************************************************************************************************************************
 LABEL *                                                                                 
  64 bit serial version                                                                  DATE: 11-Mar-18          TIME: 13:49:03  
 **********************************************************************************************************************************

 SHA1:             b4a5b34a9e711420743f49e6833241d17c61fb3c
 **********************************************************************************************************************************
 SETTING GEOMTYP        =    XYZ

 Variable memory set to  500000000 words,  buffer space 

 ZSYMEL=NOSYM

 SETTING BASIS          =    SV(P)


 Recomputing integrals since basis changed


 Using spherical harmonics

 Library entry CL     S def2-SV(P)           selected for orbital group  1
 Library entry CL     P def2-SV(P)           selected for orbital group  1
 Library entry CL     D def2-SV(P)           selected for orbital group  1
 Library entry H      S def2-SV(P)           selected for orbital group  2


 PROGRAM * SEWARD (Integral evaluation for generally contracted gaussian basis sets)     Author: Roland Lindh, 1990

 Geometry written to block  1 of record 700


 Point group  C1  



 ATOMIC COORDINATES

 NR  ATOM    CHARGE       X              Y              Z

   1  CL     17.00    0.000000000    0.000000000    0.000000000
   2  H       1.00    0.000000000    0.000000000    2.408361459

 Bond lengths in Bohr (Angstrom)

 1-2  2.408361459
     ( 1.274450000)

 NUCLEAR CHARGE:                   18
 NUMBER OF PRIMITIVE AOS:          41
 NUMBER OF SYMMETRY AOS:           40
 NUMBER OF CONTRACTIONS:           20   (  20A   )
 NUMBER OF CORE ORBITALS:           5   (   5A   )
 NUMBER OF VALENCE ORBITALS:        5   (   5A   )


 NUCLEAR REPULSION ENERGY    7.05874109

 EXTRA SYMMETRY OF AOS IN SYMMETRY 1:   1 1 1 1 2 3 1 2 3 1   2 3 1 1 4 2 5 3 1 1

 Eigenvalues of metric

         1 0.614E-01 0.217E+00 0.253E+00 0.328E+00 0.328E+00 0.474E+00 0.702E+00 0.909E+00


 Contracted 2-electron integrals neglected if value below      1.0D-11
 AO integral compression algorithm  1   Integral accuracy      1.0D-11

     0.262 MB (compressed) written to integral file ( 46.6%)


 NUMBER OF SORTED TWO-ELECTRON INTEGRALS:      22155.     BUFFER LENGTH:  32768
 NUMBER OF SEGMENTS:   1  SEGMENT LENGTH:      22155      RECORD LENGTH: 524288

 Memory used in sort:       0.58 MW

 SORT1 READ       29644. AND WROTE        4155. INTEGRALS IN      1 RECORDS. CPU TIME:     0.00 SEC, REAL TIME:     0.00 SEC
 SORT2 READ        4155. AND WROTE       22155. INTEGRALS IN      1 RECORDS. CPU TIME:     0.01 SEC, REAL TIME:     0.00 SEC

 FILE SIZES:   FILE 1:    30.2 MBYTE,  FILE 4:     4.2 MBYTE,   TOTAL:     34.5 MBYTE

 OPERATOR DM      FOR CENTER  0  COORDINATES:    0.000000    0.000000    0.000000


 **********************************************************************************************************************************
 DATASETS  * FILE   NREC   LENGTH (MB)   RECORD NAMES
              1      19       30.01       500      610      700      900      950      970     1000      129      960     1100   
                                          VAR    BASINP    GEOM    SYMINP    ZMAT    AOBASIS   BASIS     P2S    ABASIS      S 
                                         1400     1410     1200     1210     1080     1600     1650     1300     1700   
                                           T        V       H0       H01     AOSYM     SMH    MOLCAS    ERIS     OPER   

 PROGRAMS   *        TOTAL       INT
 CPU TIMES  *         0.33      0.18
 REAL TIME  *         0.62 SEC
 DISK USED  *        34.74 MB      
 **********************************************************************************************************************************


 PROGRAM * RHF-SCF (CLOSED SHELL)       Authors: W. Meyer, H.-J. Werner


 NUMBER OF ELECTRONS:       9+    9-    SPACE SYMMETRY=1    SPIN SYMMETRY: Singlet 
 CONVERGENCE THRESHOLDS:    1.00E-05 (Density)    1.00E-07 (Energy)
 MAX. NUMBER OF ITERATIONS:       60
 INTERPOLATION TYPE:            DIIS
 INTERPOLATION STEPS:              2 (START)      1 (STEP)
 LEVEL SHIFTS:                  0.00 (CLOSED)  0.00 (OPEN) 



 Orbital guess generated from atomic densities. Full valence occupancy:    9

 Molecular orbital dump at record        2100.2

 Initial occupancy:   9

 ITERATION    DDIFF          GRAD             ENERGY        2-EL.EN.            DIPOLE MOMENTS         DIIS   ORB.
    1      0.000D+00      0.000D+00      -459.90967609    367.078138    0.00000   -0.00000    1.03635    0    start
    2      0.000D+00      0.106D-01      -459.92674798    365.087016    0.00000   -0.00000    0.53692    1    diag
    3      0.181D-01      0.337D-02      -459.92795904    365.597095    0.00000   -0.00000    0.58941    2    diag
    4      0.408D-02      0.761D-03      -459.92809412    365.562845    0.00000   -0.00000    0.57026    3    diag
    5      0.123D-02      0.131D-03      -459.92809766    365.567594    0.00000   -0.00000    0.56719    4    diag
    6      0.226D-03      0.187D-04      -459.92809772    365.565115    0.00000   -0.00000    0.56710    5    diag
    7      0.302D-04      0.364D-05      -459.92809772    365.565529    0.00000    0.00000    0.56703    6    diag
    8      0.830D-05      0.448D-06      -459.92809772    365.565492   -0.00000   -0.00000    0.56702    0    orth

 Final occupancy:   9

 !RHF STATE 1.1 Energy               -459.928097718138
 Nuclear energy                         7.05874109
 One-electron energy                 -649.76958505
 Two-electron energy                  182.78274624
 Virial quotient                       -0.99992277
 !RHF STATE 1.1 Dipole moment          -0.00000000    -0.00000000     0.56701803
 Dipole moment /Debye                  -0.00000000    -0.00000000     1.44112168

 Orbital energies:

         1.1          2.1          3.1          4.1          5.1          6.1          7.1          8.1          9.1         10.1
   -104.794522   -10.558760    -8.034422    -8.029980    -8.029980    -1.106001    -0.616018    -0.466182    -0.466182     0.160593

        11.1
      0.508046

 HOMO      9.1    -0.466182 =     -12.6855eV
 LUMO     10.1     0.160593 =       4.3700eV
 LUMO-HOMO         0.626775 =      17.0554eV


 **********************************************************************************************************************************
 DATASETS  * FILE   NREC   LENGTH (MB)   RECORD NAMES
              1      19       30.01       500      610      700      900      950      970     1000      129      960     1100   
                                          VAR    BASINP    GEOM    SYMINP    ZMAT    AOBASIS   BASIS     P2S    ABASIS      S 
                                         1400     1410     1200     1210     1080     1600     1650     1300     1700   
                                           T        V       H0       H01     AOSYM     SMH    MOLCAS    ERIS     OPER   

              2       4        2.77       700     1000      520     2100   
                                         GEOM     BASIS   MCVARS     RHF  

 PROGRAMS   *        TOTAL        HF       INT
 CPU TIMES  *         0.42      0.09      0.18
 REAL TIME  *         0.75 SEC
 DISK USED  *        34.74 MB      
 **********************************************************************************************************************************


 PROGRAM * CCSD (Restricted open-shell coupled cluster)     Authors: C. Hampel, H.-J. Werner, 1991, M. Deegan, P.J. Knowles, 1992

                              Distinguishable Cluster modification by D. Kats, 2013

 Convergence thresholds:  THRVAR = 1.00D-08  THRDEN = 1.00D-06

 Number of core orbitals:           5 (   5 )
 Number of closed-shell orbitals:   4 (   4 )
 Number of external orbitals:      11 (  11 )

 Number of N-1 electron functions:               8
 Number of N-2 electron functions:              28
 Number of singly external CSFs:                88
 Number of doubly external CSFs:              2596
 Total number of CSFs:                        2684

 Molecular orbitals read from record     2100.2  Type=RHF/CANONICAL (state 1.1)

 Integral transformation finished. Total CPU:   0.00 sec, npass=  1  Memory used:   0.10 MW

 Starting RMP2 calculation, locsing= 0

 Wavefunction is spin-projected

 ITER.      SQ.NORM     CORR.ENERGY   TOTAL ENERGY   ENERGY CHANGE        DEN1      VAR(S)    VAR(P)  DIIS     TIME
   1      1.04601616    -0.13591157  -460.06400929    -0.13591157    -0.00053287  0.42D-13  0.18D-03  1  1     0.01
   2      1.04643828    -0.13648161  -460.06457933    -0.00057004    -0.00000017  0.39D-15  0.87D-07  2  2     0.01
   3      1.04644206    -0.13648400  -460.06458172    -0.00000239    -0.00000000  0.23D-17  0.73D-10  3  3     0.01
   4      1.04644210    -0.13648402  -460.06458174    -0.00000002    -0.00000000  0.11D-19  0.66D-13  4  4     0.01

 Norm of t1 vector:      0.00000171      S-energy:    -0.00000000      T1 diagnostic:  0.00000043
 Norm of t2 vector:      0.21550429      P-energy:    -0.13648402
                                         Alpha-Beta:  -0.10295673
                                         Alpha-Alpha: -0.01676364
                                         Beta-Beta:   -0.01676364

 Spin contamination <S**2-Sz**2-Sz>     0.00000000
  Reference energy                   -459.928097718139
  RHF-RMP2 correlation energy          -0.136484017083
 !RHF-RMP2 energy                    -460.064581735222
 (NB above energy spin projected)

 Starting RDCSD calculation

 ITER.      SQ.NORM     CORR.ENERGY   TOTAL ENERGY   ENERGY CHANGE        DEN1      VAR(S)    VAR(P)  DIIS     TIME
   1      1.05630227    -0.14922298  -460.07732069    -0.14922298    -0.00495293  0.19D-03  0.16D-02  1  1     0.02
   2      1.06240150    -0.15553924  -460.08363696    -0.00631627    -0.00016002  0.96D-05  0.54D-04  2  2     0.03
   3      1.06345858    -0.15615545  -460.08425317    -0.00061621    -0.00000339  0.48D-06  0.11D-05  3  3     0.05
   4      1.06355684    -0.15619076  -460.08428848    -0.00003531    -0.00000011  0.18D-07  0.27D-07  4  4     0.06
   5      1.06356326    -0.15619125  -460.08428897    -0.00000049    -0.00000000  0.55D-09  0.68D-09  5  5     0.07

 Norm of t1 vector:      0.02114413      S-energy:    -0.00000001      T1 diagnostic:  0.00528603
                                                                       D1 diagnostic:  0.01125580
 Norm of t2 vector:      0.25122935      P-energy:    -0.15619124
                                         Alpha-Beta:  -0.12251454
                                         Alpha-Alpha: -0.01683835
                                         Beta-Beta:   -0.01683835

 Doubles amplitudes (print threshold =  0.500E-01):

         I         J         SYM. A    SYM. B    A         B      T(IJ, AB) [Alpha-Beta]

         2         2         1         1         1         1     -0.05427774
         2         2         1         1         2         2     -0.05209802

 Spin contamination <S**2-Sz**2-Sz>     0.00000000


 RESULTS
 =======

  Reference energy                   -459.928097718139
  RDCSD singles energy                 -0.000000012479
  RDCSD pair energy                    -0.156191239940
  RDCSD correlation energy             -0.156191252419

 !RHF-RDCSD energy                   -460.084288970558

 Program statistics:

 Available memory in ccsd:               499999823
 Min. memory needed in ccsd:                 16132
 Max. memory used in ccsd:                   21172
 Max. memory used in cckext:                 65576 ( 5 integral passes)
 Max. memory used in cckint:                 99472 ( 1 integral passes)



 **********************************************************************************************************************************
 DATASETS  * FILE   NREC   LENGTH (MB)   RECORD NAMES
              1      19       30.01       500      610      700      900      950      970     1000      129      960     1100   
                                          VAR    BASINP    GEOM    SYMINP    ZMAT    AOBASIS   BASIS     P2S    ABASIS      S 
                                         1400     1410     1200     1210     1080     1600     1650     1300     1700   
                                           T        V       H0       H01     AOSYM     SMH    MOLCAS    ERIS     OPER   

              2       4        2.77       700     1000      520     2100   
                                         GEOM     BASIS   MCVARS     RHF  

 PROGRAMS   *        TOTAL     RDCSD        HF       INT
 CPU TIMES  *         0.54      0.12      0.09      0.18
 REAL TIME  *         0.91 SEC
 DISK USED  *        34.74 MB      
 **********************************************************************************************************************************


 PROGRAM * Intrinsic Basis Bonding Analysis (IBBA)          Author: G. Knizia

 Molecular orbitals read from record     2100.2  Type=RHF/CANONICAL (state 1.1)
 Fock matrix read from record            2100.2  Type=RHF/TOTAL (state 1.1)
 Orbital energies read from record       2100.2  Type=RHF/CANONICAL (state 1.1)
 Density matrix read from record         2100.2  Type=RHF/CHARGE (state 1.1)

 Number of core orbitals:           5 (   5 )
 Number of closed-shell orbitals:   4 (   4 )

 Basis set MINAO-AUTO-PP generated.      Number of basis functions:   10 

 Polarized AO type:                A = (O Ot + (1-O)(1-Ot)) P12
 Orthogonalization method:         Symmetric (Loewdin)
 Localization functional:          L = sum[A,i] <i|n_A|i>^4 -> max

 Localization group 1:   9 orbitals, occupancy  2.000
 Iterative localization: IB/PM,    3 iter; Final gradient 0.54E-12

 Bond order analysis:       [THRPRINT= 0.020]

   CEN ATOM   CEN ATOM     WIBERG.BO      RENORM.BO
     1  CL  -   2   H       0.968339       1.000000

     2   H  -   1  CL       0.968339       1.000000


 Valency analysis:

   CEN ATOM   TOT.VALENCE
     1  CL       0.968339
     2   H       0.968339

 Total charge composition:

   CEN ATOM         s          p       ELECTRONS ->P.CHARGE
     1  CL       5.84019   11.33774     17.17793   -0.17793
     2   H       0.82207                 0.82207    0.17793

 Total charge composition, AO contributions:

   CEN ATOM SHL      SPHERICAL COMPONENTS
     1  CL  1s       1.99994
     1  CL  2s       1.99639
     1  CL  3s       1.84386
     1  CL  2p       2.00000    2.00000    1.99940
     1  CL  3p       2.00000    2.00000    1.33834

     2   H  1s       0.82207

 Summary of localized orbital composition:   [THRPRINT= 0.020]

   ORB  GRP  ORB.ENERGY      CENTERS/CHARGES
     1   1  -103.375287     CL  1   2.000
     2   1   -11.267314     CL  1   2.000
     3   1    -8.573333     CL  1   2.000
     4   1    -8.029980     CL  1   2.000
     5   1    -8.029980     CL  1   2.000
     6   1    -1.005504     CL  1   2.000
     7   1    -0.888285     CL  1   1.178   H  2   0.822
     8   1    -0.466182     CL  1   2.000
     9   1    -0.466182     CL  1   2.000

 Localized orbitals saved to record      2100.2  (orbital set 2)


 **********************************************************************************************************************************
 DATASETS  * FILE   NREC   LENGTH (MB)   RECORD NAMES
              1      19       30.01       500      610      700      900      950      970     1000      129      960     1100   
                                          VAR    BASINP    GEOM    SYMINP    ZMAT    AOBASIS   BASIS     P2S    ABASIS      S 
                                         1400     1410     1200     1210     1080     1600     1650     1300     1700   
                                           T        V       H0       H01     AOSYM     SMH    MOLCAS    ERIS     OPER   

              2       4        2.77       700     1000      520     2100   
                                         GEOM     BASIS   MCVARS     RHF  

 PROGRAMS   *        TOTAL      IBBA     RDCSD        HF       INT
 CPU TIMES  *         0.56      0.02      0.12      0.09      0.18
 REAL TIME  *         0.93 SEC
 DISK USED  *        34.74 MB      
 **********************************************************************************************************************************

 IBBA/SV(P) energy=      0.000000000000

        RDCSD           HF-SCF  
   -460.08428897   -459.92809772
 **********************************************************************************************************************************
 Molpro calculation terminated
