
 Primary working directories    : /local/molpro.xckPI806dl
 Secondary working directories  : /local/molpro.xckPI806dl
 Wavefunction directory         : /local/
 Main file repository           : /local/molpro.xckPI806dl/

 id        : simonbennie

 Nodes     nprocs
 node35-003    1

 Using customized tuning parameters: mindgm=1; mindgv=20; mindgc=4; mindgr=1; noblas=0; minvec=7
 default implementation of scratch files=df  

 memory,500,m
 geomtyp=xyz
 nosym
 noorient
 geometry={
 Cl         0.00000        0.00000        0.00000
 H          0.00000        0.00000        1.27445
 }
 basis={default,sto-3g}
 {hf,direct;wf,18,1,0}
 
 basis={ default,6-31+G(d,p) }
 {ks,PBEREV,direct;wf,18,1,0}
 {ibba,bonds=1}

 Variables initialized (920), CPU time= 0.00 sec
 Commands  initialized (754), CPU time= 0.01 sec, 615 directives.
 Default parameters read. Elapsed time= 0.12 sec

 Checking input...
 Passed
1


                                         ***  PROGRAM SYSTEM MOLPRO  ***
                                       Copyright, TTI GmbH Stuttgart, 2015
                                    Version 2018.0 linked Jul  6 2018 18:07:13


 **********************************************************************************************************************************
 LABEL *                                                                                 
  64 bit serial version                                                                  DATE: 11-Oct-18          TIME: 11:20:54  
 **********************************************************************************************************************************

 SHA1:             b58f8fddb9d75525be9261ebe3faf0e4279c479b
 **********************************************************************************************************************************
 SETTING GEOMTYP        =    XYZ

 Variable memory set to  500000000 words,  buffer space 

 ZSYMEL=NOSYM

 SETTING BASIS          =    STO-3G


 Recomputing integrals since basis changed


 Using spherical harmonics

 Library entry CL     S STO-3G               selected for orbital group  1
 Library entry CL     P STO-3G               selected for orbital group  1
 Library entry H      S STO-3G               selected for orbital group  2


 PROGRAM * SEWARD (Integral evaluation for generally contracted gaussian basis sets)     Author: Roland Lindh, 1990

 Geometry written to block  1 of record 700


 Point group  C1  



 ATOMIC COORDINATES

 NR  ATOM    CHARGE       X              Y              Z

   1  CL     17.00    0.000000000    0.000000000    0.000000000
   2  H       1.00    0.000000000    0.000000000    2.408361459

 Bond lengths in Bohr (Angstrom)

 1-2  2.408361459
     ( 1.274450000)

 NUCLEAR CHARGE:                   18
 NUMBER OF PRIMITIVE AOS:          30
 NUMBER OF SYMMETRY AOS:           30
 NUMBER OF CONTRACTIONS:           10   (  10A   )
 NUMBER OF CORE ORBITALS:           5   (   5A   )
 NUMBER OF VALENCE ORBITALS:        5   (   5A   )


 NUCLEAR REPULSION ENERGY    7.05874109

 EXTRA SYMMETRY OF AOS IN SYMMETRY 1:   1 1 1 2 3 1 2 3 1 1

 Eigenvalues of metric

         1 0.357E+00 0.616E+00 0.767E+00 0.767E+00 0.850E+00 0.112E+01 0.123E+01 0.123E+01


 Contracted 2-electron integrals neglected if value below      1.0D-11
 AO integral compression algorithm  1   Integral accuracy      1.0D-11

     0.262 MB (compressed) written to integral file ( 60.5%)


 NUMBER OF SORTED TWO-ELECTRON INTEGRALS:       1540.     BUFFER LENGTH:  32768
 NUMBER OF SEGMENTS:   1  SEGMENT LENGTH:       1540      RECORD LENGTH: 524288

 Memory used in sort:       0.56 MW

 SORT1 READ        2755. AND WROTE         406. INTEGRALS IN      1 RECORDS. CPU TIME:     0.00 SEC, REAL TIME:     0.01 SEC
 SORT2 READ         406. AND WROTE        1540. INTEGRALS IN      1 RECORDS. CPU TIME:     0.00 SEC, REAL TIME:     0.01 SEC

 FILE SIZES:   FILE 1:    30.2 MBYTE,  FILE 4:     4.2 MBYTE,   TOTAL:     34.4 MBYTE

 OPERATOR DM      FOR CENTER  0  COORDINATES:    0.000000    0.000000    0.000000


 **********************************************************************************************************************************
 DATASETS  * FILE   NREC   LENGTH (MB)   RECORD NAMES
              1      19       29.96       500      610      700      900      950      970     1000      129      960     1100   
                                          VAR    BASINP    GEOM    SYMINP    ZMAT    AOBASIS   BASIS     P2S    ABASIS      S 
                                         1400     1410     1200     1210     1080     1600     1650     1300     1700   
                                           T        V       H0       H01     AOSYM     SMH    MOLCAS    ERIS     OPER   

 PROGRAMS   *        TOTAL       INT
 CPU TIMES  *         0.42      0.28
 REAL TIME  *         0.77 SEC
 DISK USED  *        34.72 MB
 **********************************************************************************************************************************


 PROGRAM * RHF-SCF (CLOSED SHELL)       Authors: W. Meyer, H.-J. Werner


 NUMBER OF ELECTRONS:       9+    9-    SPACE SYMMETRY=1    SPIN SYMMETRY: Singlet 
 CONVERGENCE THRESHOLDS:    1.00E-05 (Density)    1.00E-07 (Energy)
 INTEGRAL THRESHOLDS:       1.00E-11 (Initial)    1.00E-11 (Final)
 MAX. NUMBER OF ITERATIONS:       60
 INTERPOLATION TYPE:            DIIS
 INTERPOLATION STEPS:              2 (START)      1 (STEP)
 LEVEL SHIFTS:                  0.00 (CLOSED)  0.00 (OPEN) 



 Orbital guess generated from atomic densities. Full valence occupancy:    9

 Molecular orbital dump at record        2100.2

 Initial occupancy:   9

 Direct Fock-matrix evaluation.        Authors: Roland Lindh & Martin Schuetz (1993/96)

 Integral Threshold:                  0.1D-10
 Threshold for writing integrals:     0.1D-06
 Prescreening on density matrix:        ON 
 Calculation will be performed fully direct        

 ITERATION   DDIFF            GRAD            ENERGY        2-EL.EN.            DIPOLE MOMENTS         DIIS   CPU(IT)  CPU(TOT)
    1      0.000D+00      0.000D+00      -455.09904559    366.325410    0.00000   -0.00000    1.37247    0      0.9      1.6     start
    2      0.000D+00      0.422D-01      -455.13445402    364.164466    0.00000   -0.00000    0.75178    1      0.5      2.1     diag
    3      0.684D-01      0.425D-02      -455.13480003    363.927334    0.00000   -0.00000    0.68168    2      0.5      2.6     diag
    4      0.736D-02      0.918D-04      -455.13480008    363.928342   -0.00000    0.00000    0.68218    3      0.5      3.0     diag
    5      0.752D-04      0.858D-05      -455.13480008    363.927996   -0.00000    0.00000    0.68213    4      0.5      3.5     diag
    6      0.109D-04      0.803D-06      -455.13480008    363.928039   -0.00000    0.00000    0.68215    5      0.5      3.9     diag
    7      0.149D-05      0.105D-07      -455.13480008    363.928038   -0.00000   -0.00000    0.68215    0      0.5      4.4     orth

 Final occupancy:   9

 !RHF STATE  1.1 Energy              -455.134800080700
 Nuclear energy                         7.05874109
 One-electron energy                 -644.15756037
 Two-electron energy                  181.96401920
 Virial quotient                       -1.01799769
 !RHF STATE  1.1 Dipole moment         -0.00000000    -0.00000000     0.68214713
 Dipole moment /Debye                  -0.00000000    -0.00000000     1.73373151

 Orbital energies:

         1.1          2.1          3.1          4.1          5.1          6.1          7.1          8.1          9.1         10.1
   -103.722580   -10.404070    -7.848930    -7.842219    -7.842219    -1.043757    -0.564603    -0.423192    -0.423192     0.404362


 HOMO      9.1    -0.423192 =     -11.5156eV
 LUMO     10.1     0.404362 =      11.0032eV
 LUMO-HOMO         0.827554 =      22.5189eV


 **********************************************************************************************************************************
 DATASETS  * FILE   NREC   LENGTH (MB)   RECORD NAMES
              1      19       29.96       500      610      700      900      950      970     1000      129      960     1100   
                                          VAR    BASINP    GEOM    SYMINP    ZMAT    AOBASIS   BASIS     P2S    ABASIS      S 
                                         1400     1410     1200     1210     1080     1600     1650     1300     1700   
                                           T        V       H0       H01     AOSYM     SMH    MOLCAS    ERIS     OPER   

              2       4        2.76       700     1000      520     2100   
                                         GEOM     BASIS   MCVARS     RHF  

 PROGRAMS   *        TOTAL    HF-SCF       INT
 CPU TIMES  *         4.83      4.41      0.28
 REAL TIME  *         6.15 SEC
 DISK USED  *        34.72 MB
 **********************************************************************************************************************************
 SETTING BASIS          =    6-31+G(D,P)


 Recomputing integrals since basis changed


 Using spherical harmonics

 Library entry CL     S 6-31G                selected for orbital group  1
 Library entry CL     S 6-31++G              selected for orbital group  1
 Library entry CL     P 6-31G                selected for orbital group  1
 Library entry CL     P 6-31++G              selected for orbital group  1
 Library entry CL     D 6-31G*               selected for orbital group  1
 Library entry H      S 6-31G                selected for orbital group  2
 Library entry H      P 6-31G**              selected for orbital group  2


 PROGRAM * SEWARD (Integral evaluation for generally contracted gaussian basis sets)     Author: Roland Lindh, 1990

 Geometry written to block  1 of record 700


 Point group  C1  



 ATOMIC COORDINATES

 NR  ATOM    CHARGE       X              Y              Z

   1  CL     17.00    0.000000000    0.000000000    0.000000000
   2  H       1.00    0.000000000    0.000000000    2.408361459

 Bond lengths in Bohr (Angstrom)

 1-2  2.408361459
     ( 1.274450000)

 NUCLEAR CHARGE:                   18
 NUMBER OF PRIMITIVE AOS:          63
 NUMBER OF SYMMETRY AOS:           62
 NUMBER OF CONTRACTIONS:           27   (  27A   )
 NUMBER OF CORE ORBITALS:           5   (   5A   )
 NUMBER OF VALENCE ORBITALS:        5   (   5A   )


 NUCLEAR REPULSION ENERGY    7.05874109

 EXTRA SYMMETRY OF AOS IN SYMMETRY 1:   1 1 1 1 1 2 3 1 2 3   1 2 3 1 2 3 1 1 4 2   5 3 1 1 2 3 1

 Eigenvalues of metric

         1 0.486E-01 0.796E-01 0.157E+00 0.159E+00 0.159E+00 0.284E+00 0.452E+00 0.609E+00


 Contracted 2-electron integrals neglected if value below      1.0D-11
 AO integral compression algorithm  1   Integral accuracy      1.0D-11

     0.262 MB (compressed) written to integral file ( 41.3%)


 NUMBER OF SORTED TWO-ELECTRON INTEGRALS:      71631.     BUFFER LENGTH:  32768
 NUMBER OF SEGMENTS:   1  SEGMENT LENGTH:      71631      RECORD LENGTH: 524288

 Memory used in sort:       0.63 MW

 SORT1 READ      102438. AND WROTE       15218. INTEGRALS IN      1 RECORDS. CPU TIME:     0.00 SEC, REAL TIME:     0.01 SEC
 SORT2 READ       15218. AND WROTE       71631. INTEGRALS IN      1 RECORDS. CPU TIME:     0.01 SEC, REAL TIME:     0.01 SEC

 FILE SIZES:   FILE 1:    30.3 MBYTE,  FILE 4:     4.2 MBYTE,   TOTAL:     34.5 MBYTE

 OPERATOR DM      FOR CENTER  0  COORDINATES:    0.000000    0.000000    0.000000


 **********************************************************************************************************************************
 DATASETS  * FILE   NREC   LENGTH (MB)   RECORD NAMES
              1      19       30.10       500      610      700      900      950      970     1001      129      960     1100   
                                          VAR    BASINP    GEOM    SYMINP    ZMAT    AOBASIS   BASIS     P2S    ABASIS      S 
                                         1400     1410     1200     1210     1080     1600     1650     1300     1700   
                                           T        V       H0       H01     AOSYM     SMH    MOLCAS    ERIS     OPER   

              2       5        2.78       700     1000      520     2100     1001   
                                         GEOM     BASIS   MCVARS     RHF     BASIS   

 PROGRAMS   *        TOTAL       INT    HF-SCF       INT
 CPU TIMES  *         5.06      0.23      4.41      0.28
 REAL TIME  *         6.44 SEC
 DISK USED  *        37.30 MB
 **********************************************************************************************************************************

 Density functional group PBEREV=PBEXREV+PBEC
 Functional: PBEXREV(Automatically generated (new) PBEXREV)                    Gradient terms: 1
 Functional: PBEC(Automatically generated (new) PBEC)                          Gradient terms: 1
 Use libxcgrid:  F
 Use grid at  1800.2

 Functional: PBEXREV                   Factor:  1.0000
 Functional: PBEC                      Factor:  1.0000

 Generated new metagrid on record  1800.2 with target accuracy 1.0D-06 and 9660 points in CPU time    0.1
 Computed new grid on record 1800.1 in CPU time    0.1
   25467 words reserved for DFT integration

 PROGRAM * RKS-SCF (Restricted closed shell Kohn-Sham)     Authors: W. Meyer, H.-J. Werner, P.J. Knowles, 1993

 NUMBER OF ELECTRONS:       9+    9-    SPACE SYMMETRY=1    SPIN SYMMETRY: Singlet 
 CONVERGENCE THRESHOLDS:    1.00E-05 (Density)    1.00E-06 (Energy)
 MAX. NUMBER OF ITERATIONS:       60
 INTERPOLATION TYPE:            DIIS
 INTERPOLATION STEPS:              2 (START)      1 (STEP)
 LEVEL SHIFTS:                  0.00 (CLOSED)  0.00 (OPEN) 



 Use fine grid record 1800.2 for energy threshold  1.0D-06
 Molecular orbitals read from record     2100.2  Type=RHF/CANONICAL (state 1.1)

 Present basis size:      27
 Previous basis size:     10
 Previous occupation:      9
 Previous closed-shells:   9
 Previous core-orbitals:   5
 Present occupation:       9
 Present closed-shells:    9
 Present core-orbitals:    5
 Wavefunction symmetry:    1   Singlet 

 Orbital overlap <old|new>:  < 1.1| 1.1> = 0.999828   < 2.1| 2.1> = 0.999036   < 3.1| 3.1> = 0.998820   < 4.1| 4.1> = 0.998809
                             < 5.1| 5.1> = 0.998809   < 6.1| 6.1> = 0.998504   < 7.1| 7.1> = 0.998634   < 8.1| 8.1> = 0.997981
                             < 9.1| 9.1> = 0.997981


 Molecular orbital dump at record        2101.2

 ITERATION    DDIFF          GRAD             ENERGY        2-EL.EN.            DIPOLE MOMENTS         DIIS   ORB.
    1      0.000D+00      0.000D+00      -460.53247609    426.216800   -0.00000    0.00000    0.66692    0    start
    2      0.000D+00      0.444D-01      -460.67425466    417.039331    0.00000   -0.00000    0.18368    1    diag
    3      0.617D-01      0.121D-01      -460.68153026    424.651719   -0.00000   -0.00000    0.96690    2    diag
    4      0.311D-01      0.948D-02      -460.69973356    421.097075    0.00000   -0.00000    0.55161    3    diag
    5      0.149D-01      0.427D-03      -460.69977402    421.228467   -0.00000    0.00000    0.57359    4    diag
    6      0.667D-03      0.418D-04      -460.69977432    421.223359    0.00000   -0.00000    0.57367    5    diag
    7      0.423D-04      0.105D-04      -460.69977434    421.226655    0.00000   -0.00000    0.57325    6    diag
    8      0.155D-04      0.136D-05      -460.69977435    421.226251    0.00000    0.00000    0.57329    7    orth
    9      0.178D-05      0.676D-07      -460.69977435    421.226286   -0.00000   -0.00000    0.57330    0    orth

 Final occupancy:   9

 !RKS STATE  1.1 Energy              -460.699774345369
 Nuclear energy                         7.05874109
 One-electron energy                 -649.85661245
 Two-electron energy                  210.61314288
 Density functional                   -28.51504587     PBEXREV=-27.82814057 PBEC= -0.68690530
 Virial quotient                       -1.00180658
 !RKS STATE  1.1 Dipole moment         -0.00000000    -0.00000000     0.57330356
 Dipole moment /Debye                  -0.00000000    -0.00000000     1.45709685

 Orbital energies:

         1.1          2.1          3.1          4.1          5.1          6.1          7.1          8.1          9.1         10.1
   -100.689840    -9.191491    -7.011279    -6.999485    -6.999485    -0.779142    -0.434233    -0.292980    -0.292980    -0.030487

        11.1
      0.046573


 HOMO      9.1    -0.292980 =      -7.9724eV
 LUMO     10.1    -0.030487 =      -0.8296eV
 LUMO-HOMO         0.262493 =       7.1428eV


 **********************************************************************************************************************************
 DATASETS  * FILE   NREC   LENGTH (MB)   RECORD NAMES
              1      20       30.41       500      610      700      900      950      970     1001      129      960     1100   
                                          VAR    BASINP    GEOM    SYMINP    ZMAT    AOBASIS   BASIS     P2S    ABASIS      S 
                                         1400     1410     1200     1210     1080     1600     1650     1300     1700     1800   
                                           T        V       H0       H01     AOSYM     SMH    MOLCAS    ERIS     OPER     GRID   

              2       7        5.28       700     1000      520     2100     1001     1800     2101   
                                         GEOM     BASIS   MCVARS     RHF     BASIS    GRID      RKS  

 PROGRAMS   *        TOTAL    KS-SCF       INT    HF-SCF       INT
 CPU TIMES  *         5.50      0.44      0.23      4.41      0.28
 REAL TIME  *         6.92 SEC
 DISK USED  *        37.30 MB
 **********************************************************************************************************************************


 PROGRAM * Intrinsic Basis Bonding Analysis (IBBA)          Author: G. Knizia

 Molecular orbitals read from record     2101.2  Type=RKS/CANONICAL (state 1.1)
 Fock matrix read from record            2101.2  Type=RKS/TOTAL (state 1.1)
 Orbital energies read from record       2101.2  Type=RKS/CANONICAL (state 1.1)
 Density matrix read from record         2101.2  Type=RKS/CHARGE (state 1.1)

 Number of core orbitals:           5 (   5 )
 Number of closed-shell orbitals:   4 (   4 )

 Basis set MINAO-AUTO-PP generated.      Number of basis functions:   10 

 Polarized AO type:                A = (O Ot + (1-O)(1-Ot)) P12
 Orthogonalization method:         Symmetric (Loewdin)
 Localization functional:          L = sum[A,i] <i|n_A|i>^4 -> max

 Localization group 1:   9 orbitals, occupancy  2.000
 Iterative localization: IB/PM,    3 iter; Final gradient 0.42E-14

 Bond order analysis:       [THRPRINT= 0.020]

   CEN ATOM   CEN ATOM     WIBERG.BO      RENORM.BO
     1  CL  -   2   H       0.955733       1.000000

     2   H  -   1  CL       0.955733       1.000000


 Valency analysis:

   CEN ATOM   TOT.VALENCE
     1  CL       0.955733
     2   H       0.955733

 Total charge composition:

   CEN ATOM         s          p       ELECTRONS ->P.CHARGE
     1  CL       5.85194   11.35845     17.21040   -0.21040
     2   H       0.78960                 0.78960    0.21040

 Total charge composition, AO contributions:

   CEN ATOM SHL      SPHERICAL COMPONENTS
     1  CL  1s       1.99994
     1  CL  2s       1.99680
     1  CL  3s       1.85520
     1  CL  2p       2.00000    2.00000    1.99959
     1  CL  3p       2.00000    2.00000    1.35886

     2   H  1s       0.78960

 Summary of localized orbital composition:   [THRPRINT= 0.020]

   ORB  GRP  ORB.ENERGY      CENTERS/CHARGES
     1   1   -99.295359     CL  1   2.000
     2   1    -9.973586     CL  1   2.000
     3   1    -7.479085     CL  1   2.000
     4   1    -6.999485     CL  1   2.000
     5   1    -6.999485     CL  1   2.000
     6   1    -0.705136     CL  1   2.000
     7   1    -0.652820     CL  1   1.210   H  2   0.790
     8   1    -0.292980     CL  1   2.000
     9   1    -0.292980     CL  1   2.000

 Localized orbitals saved to record      2101.2  (orbital set 2)


 **********************************************************************************************************************************
 DATASETS  * FILE   NREC   LENGTH (MB)   RECORD NAMES
              1      20       30.41       500      610      700      900      950      970     1001      129      960     1100   
                                          VAR    BASINP    GEOM    SYMINP    ZMAT    AOBASIS   BASIS     P2S    ABASIS      S 
                                         1400     1410     1200     1210     1080     1600     1650     1300     1700     1800   
                                           T        V       H0       H01     AOSYM     SMH    MOLCAS    ERIS     OPER     GRID   

              2       7        5.29       700     1000      520     2100     1001     1800     2101   
                                         GEOM     BASIS   MCVARS     RHF     BASIS    GRID      RKS  

 PROGRAMS   *        TOTAL      IBBA    KS-SCF       INT    HF-SCF       INT
 CPU TIMES  *         5.52      0.02      0.44      0.23      4.41      0.28
 REAL TIME  *         6.95 SEC
 DISK USED  *        37.30 MB
 **********************************************************************************************************************************

 IBBA/6-31+G(D,P) energy=      0.000000000000

          KS-SCF          HF-SCF
   -460.69977435   -455.13480008
 **********************************************************************************************************************************
 Molpro calculation terminated
