
 Primary working directories    : /local
 Secondary working directories  : /local
 Wavefunction directory         : /local/
 Main file repository           : /local/

 SHA1      : b4a5b34a9e711420743f49e6833241d17c61fb3c
 NAME      : 2099.9.b4a5b34
 ARCHNAME  : linux/x86_64_openmp
 FC        : /cm/shared/languages/GCC-6.1/bin/gfortran
 BLASLIB   : -lblas
 id        : simonbennie

 Nodes     nprocs
 node33-038    1

 Using customized tuning parameters: mindgm=1; mindgv=20; mindgc=4; mindgr=1; noblas=0; minvec=7
 default implementation of scratch files=df  

 memory,500,m
 geomtyp=xyz
 nosym
 noorient
 geometry={
 Cl         0.00000        0.00000        0.00000
 H          0.00000        0.00000        1.27445
 }
 basis={ default,SV(P) }
 {hf,direct;wf,18,1,0}
 {ks,BH-LYP,direct;maxit,0;wf,18,1,0}
 {ibba,bonds=1}

 Variables initialized (895), CPU time= 0.01 sec
 Commands  initialized (725), CPU time= 0.01 sec, 591 directives.
 Default parameters read. Elapsed time= 0.20 sec

 Checking input...
 Passed
1


                                         ***  PROGRAM SYSTEM MOLPRO  ***
                                       Copyright, TTI GmbH Stuttgart, 2015
                                    Version 2099.9 linked May 26 2017 16:03:21


 **********************************************************************************************************************************
 LABEL *                                                                                 
  64 bit serial version                                                                  DATE: 11-Mar-18          TIME: 13:23:06  
 **********************************************************************************************************************************

 SHA1:             b4a5b34a9e711420743f49e6833241d17c61fb3c
 **********************************************************************************************************************************
 SETTING GEOMTYP        =    XYZ

 Variable memory set to  500000000 words,  buffer space 

 ZSYMEL=NOSYM

 SETTING BASIS          =    SV(P)


 Recomputing integrals since basis changed


 Using spherical harmonics

 Library entry CL     S def2-SV(P)           selected for orbital group  1
 Library entry CL     P def2-SV(P)           selected for orbital group  1
 Library entry CL     D def2-SV(P)           selected for orbital group  1
 Library entry H      S def2-SV(P)           selected for orbital group  2


 PROGRAM * SEWARD (Integral evaluation for generally contracted gaussian basis sets)     Author: Roland Lindh, 1990

 Geometry written to block  1 of record 700


 Point group  C1  



 ATOMIC COORDINATES

 NR  ATOM    CHARGE       X              Y              Z

   1  CL     17.00    0.000000000    0.000000000    0.000000000
   2  H       1.00    0.000000000    0.000000000    2.408361459

 Bond lengths in Bohr (Angstrom)

 1-2  2.408361459
     ( 1.274450000)

 NUCLEAR CHARGE:                   18
 NUMBER OF PRIMITIVE AOS:          41
 NUMBER OF SYMMETRY AOS:           40
 NUMBER OF CONTRACTIONS:           20   (  20A   )
 NUMBER OF CORE ORBITALS:           5   (   5A   )
 NUMBER OF VALENCE ORBITALS:        5   (   5A   )


 NUCLEAR REPULSION ENERGY    7.05874109

 EXTRA SYMMETRY OF AOS IN SYMMETRY 1:   1 1 1 1 2 3 1 2 3 1   2 3 1 1 4 2 5 3 1 1

 Eigenvalues of metric

         1 0.614E-01 0.217E+00 0.253E+00 0.328E+00 0.328E+00 0.474E+00 0.702E+00 0.909E+00


 Contracted 2-electron integrals neglected if value below      1.0D-11
 AO integral compression algorithm  1   Integral accuracy      1.0D-11

     0.262 MB (compressed) written to integral file ( 46.6%)


 NUMBER OF SORTED TWO-ELECTRON INTEGRALS:      22155.     BUFFER LENGTH:  32768
 NUMBER OF SEGMENTS:   1  SEGMENT LENGTH:      22155      RECORD LENGTH: 524288

 Memory used in sort:       0.58 MW

 SORT1 READ       29644. AND WROTE        4155. INTEGRALS IN      1 RECORDS. CPU TIME:     0.00 SEC, REAL TIME:     0.00 SEC
 SORT2 READ        4155. AND WROTE       22155. INTEGRALS IN      1 RECORDS. CPU TIME:     0.01 SEC, REAL TIME:     0.00 SEC

 FILE SIZES:   FILE 1:    30.2 MBYTE,  FILE 4:     4.2 MBYTE,   TOTAL:     34.5 MBYTE

 OPERATOR DM      FOR CENTER  0  COORDINATES:    0.000000    0.000000    0.000000


 **********************************************************************************************************************************
 DATASETS  * FILE   NREC   LENGTH (MB)   RECORD NAMES
              1      19       30.01       500      610      700      900      950      970     1000      129      960     1100   
                                          VAR    BASINP    GEOM    SYMINP    ZMAT    AOBASIS   BASIS     P2S    ABASIS      S 
                                         1400     1410     1200     1210     1080     1600     1650     1300     1700   
                                           T        V       H0       H01     AOSYM     SMH    MOLCAS    ERIS     OPER   

 PROGRAMS   *        TOTAL       INT
 CPU TIMES  *         0.50      0.35
 REAL TIME  *         0.99 SEC
 DISK USED  *        34.74 MB      
 **********************************************************************************************************************************


 PROGRAM * RHF-SCF (CLOSED SHELL)       Authors: W. Meyer, H.-J. Werner


 NUMBER OF ELECTRONS:       9+    9-    SPACE SYMMETRY=1    SPIN SYMMETRY: Singlet 
 CONVERGENCE THRESHOLDS:    1.00E-05 (Density)    1.00E-07 (Energy)
 INTEGRAL THRESHOLDS:       1.00E-11 (Initial)    1.00E-11 (Final)
 MAX. NUMBER OF ITERATIONS:       60
 INTERPOLATION TYPE:            DIIS
 INTERPOLATION STEPS:              2 (START)      1 (STEP)
 LEVEL SHIFTS:                  0.00 (CLOSED)  0.00 (OPEN) 



 Orbital guess generated from atomic densities. Full valence occupancy:    9

 Molecular orbital dump at record        2100.2

 Initial occupancy:   9

 Direct Fock-matrix evaluation.        Authors: Roland Lindh & Martin Schuetz (1993/96)

 Integral Threshold:                  0.1D-10
 Threshold for writing integrals:     0.1D-06
 Prescreening on density matrix:        ON 
 Calculation will be performed fully direct        

 ITERATION   DDIFF            GRAD            ENERGY        2-EL.EN.            DIPOLE MOMENTS         DIIS   CPU(IT)  CPU(TOT)
    1      0.000D+00      0.000D+00      -459.90967609    367.078138   -0.00000   -0.00000    1.03635    0      1.1      2.0     start
    2      0.000D+00      0.106D-01      -459.92674798    365.087016    0.00000   -0.00000    0.53692    1      0.6      2.6     diag
    3      0.181D-01      0.337D-02      -459.92795904    365.597095    0.00000   -0.00000    0.58941    2      0.5      3.1     diag
    4      0.408D-02      0.761D-03      -459.92809412    365.562845   -0.00000   -0.00000    0.57026    3      0.5      3.7     diag
    5      0.123D-02      0.131D-03      -459.92809766    365.567594    0.00000   -0.00000    0.56719    4      0.6      4.2     diag
    6      0.226D-03      0.187D-04      -459.92809772    365.565115    0.00000   -0.00000    0.56710    5      0.5      4.8     diag
    7      0.302D-04      0.364D-05      -459.92809772    365.565529    0.00000   -0.00000    0.56703    6      0.5      5.3     diag
    8      0.830D-05      0.448D-06      -459.92809772    365.565492    0.00000   -0.00000    0.56702    0      0.5      5.9     orth

 Final occupancy:   9

 !RHF STATE 1.1 Energy               -459.928097718424
 Nuclear energy                         7.05874109
 One-electron energy                 -649.76958505
 Two-electron energy                  182.78274624
 Virial quotient                       -0.99992277
 !RHF STATE 1.1 Dipole moment           0.00000000    -0.00000000     0.56701803
 Dipole moment /Debye                   0.00000000    -0.00000000     1.44112168

 Orbital energies:

         1.1          2.1          3.1          4.1          5.1          6.1          7.1          8.1          9.1         10.1
   -104.794522   -10.558760    -8.034422    -8.029980    -8.029980    -1.106001    -0.616018    -0.466182    -0.466182     0.160593

        11.1
      0.508046

 HOMO      9.1    -0.466182 =     -12.6855eV
 LUMO     10.1     0.160593 =       4.3700eV
 LUMO-HOMO         0.626775 =      17.0554eV


 **********************************************************************************************************************************
 DATASETS  * FILE   NREC   LENGTH (MB)   RECORD NAMES
              1      19       30.01       500      610      700      900      950      970     1000      129      960     1100   
                                          VAR    BASINP    GEOM    SYMINP    ZMAT    AOBASIS   BASIS     P2S    ABASIS      S 
                                         1400     1410     1200     1210     1080     1600     1650     1300     1700   
                                           T        V       H0       H01     AOSYM     SMH    MOLCAS    ERIS     OPER   

              2       4        2.77       700     1000      520     2100   
                                         GEOM     BASIS   MCVARS     RHF  

 PROGRAMS   *        TOTAL        HF       INT
 CPU TIMES  *         6.37      5.87      0.35
 REAL TIME  *         7.74 SEC
 DISK USED  *        34.74 MB      
 **********************************************************************************************************************************

 Density functional group BH-LYP=B88+LYP
 Functional: B88(Automatically generated (new) B88)                            Gradient terms: 1
 Functional: LYP(Automatically generated (new) LYP)                            Gradient terms: 1
 Use grid at  1800.2


 Exact exchange will be calculated, factor:  0.5000

 Functional: B88                       Factor:  0.5000
 Functional: LYP                       Factor:  1.0000

 Generated new metagrid on record  1800.2 with target accuracy 1.0D-06 and 9660 points in CPU time    0.1
 Computed new grid on record 1800.1 in CPU time    0.1
   19761 words reserved for DFT integration

 PROGRAM * RKS-SCF (Restricted closed shell Kohn-Sham)     Authors: W. Meyer, H.-J. Werner, P.J. Knowles, 1993

 NUMBER OF ELECTRONS:       9+    9-    SPACE SYMMETRY=1    SPIN SYMMETRY: Singlet 
 CONVERGENCE THRESHOLDS:    1.00E-05 (Density)    1.00E-06 (Energy)
 MAX. NUMBER OF ITERATIONS:        0
 INTERPOLATION TYPE:            DIIS
 INTERPOLATION STEPS:              2 (START)      1 (STEP)
 LEVEL SHIFTS:                  0.00 (CLOSED)  0.00 (OPEN) 



 Use fine grid record 1800.2 for energy threshold  1.0D-06
 Molecular orbitals read from record     2100.2  Type=RHF/CANONICAL (state 1.1)

 Molecular orbital dump at record        2101.2

 ITERATION    DDIFF          GRAD             ENERGY        2-EL.EN.            DIPOLE MOMENTS         DIIS   ORB.
    1      0.000D+00      0.000D+00      -460.64225185    393.468901    0.00000   -0.00000    0.56702    0    start

 Final occupancy:   9

 !RKS STATE 1.1 Energy               -460.642251849381
 Nuclear energy                         7.05874109
 One-electron energy                 -649.76958505
 Two-electron energy                  196.73445062
 SCF exchange energy                  -27.90340875     Factor= 0.5000
 Density functional                   -14.66585851     B88=-27.87901722 LYP= -0.72634990
 Virial quotient                       -1.00147540
 !RKS STATE 1.1 Dipole moment           0.00000000    -0.00000000     0.56701803
 Dipole moment /Debye                   0.00000000    -0.00000000     1.44112168

 Orbital energies:

         1.1          2.1          3.1          4.1          5.1          6.1          7.1          8.1          9.1         10.1
   -104.794522   -10.558760    -8.034422    -8.029980    -8.029980    -1.106001    -0.616018    -0.466182    -0.466182     0.160593

        11.1
      0.508046

 HOMO      9.1    -0.466182 =     -12.6855eV
 LUMO     10.1     0.160593 =       4.3700eV
 LUMO-HOMO         0.626775 =      17.0554eV


 **********************************************************************************************************************************
 DATASETS  * FILE   NREC   LENGTH (MB)   RECORD NAMES
              1      20       30.32       500      610      700      900      950      970     1000      129      960     1100   
                                          VAR    BASINP    GEOM    SYMINP    ZMAT    AOBASIS   BASIS     P2S    ABASIS      S 
                                         1400     1410     1200     1210     1080     1600     1650     1300     1700     1800   
                                           T        V       H0       H01     AOSYM     SMH    MOLCAS    ERIS     OPER     GRID   

              2       6        5.28       700     1000      520     2100     1800     2101   
                                         GEOM     BASIS   MCVARS     RHF     GRID      RKS  

 PROGRAMS   *        TOTAL        KS        HF       INT
 CPU TIMES  *         6.56      0.19      5.87      0.35
 REAL TIME  *         7.96 SEC
 DISK USED  *        35.64 MB      
 **********************************************************************************************************************************


 PROGRAM * Intrinsic Basis Bonding Analysis (IBBA)          Author: G. Knizia

 Molecular orbitals read from record     2101.2  Type=RKS/CANONICAL (state 1.1)
 Fock matrix read from record            2101.2  Type=RKS/TOTAL (state 1.1)
 Orbital energies read from record       2101.2  Type=RKS/CANONICAL (state 1.1)
 Density matrix read from record         2101.2  Type=RKS/CHARGE (state 1.1)

 Number of core orbitals:           5 (   5 )
 Number of closed-shell orbitals:   4 (   4 )

 Basis set MINAO-AUTO-PP generated.      Number of basis functions:   10 

 Polarized AO type:                A = (O Ot + (1-O)(1-Ot)) P12
 Orthogonalization method:         Symmetric (Loewdin)
 Localization functional:          L = sum[A,i] <i|n_A|i>^4 -> max

 Localization group 1:   9 orbitals, occupancy  2.000
 Iterative localization: IB/PM,    3 iter; Final gradient 0.54E-12

 Bond order analysis:       [THRPRINT= 0.020]

   CEN ATOM   CEN ATOM     WIBERG.BO      RENORM.BO
     1  CL  -   2   H       0.968339       1.000000

     2   H  -   1  CL       0.968339       1.000000


 Valency analysis:

   CEN ATOM   TOT.VALENCE
     1  CL       0.968339
     2   H       0.968339

 Total charge composition:

   CEN ATOM         s          p       ELECTRONS ->P.CHARGE
     1  CL       5.84019   11.33774     17.17793   -0.17793
     2   H       0.82207                 0.82207    0.17793

 Total charge composition, AO contributions:

   CEN ATOM SHL      SPHERICAL COMPONENTS
     1  CL  1s       1.99994
     1  CL  2s       1.99639
     1  CL  3s       1.84386
     1  CL  2p       2.00000    2.00000    1.99940
     1  CL  3p       2.00000    2.00000    1.33834

     2   H  1s       0.82207

 Summary of localized orbital composition:   [THRPRINT= 0.020]

   ORB  GRP  ORB.ENERGY      CENTERS/CHARGES
     1   1  -101.374074     CL  1   2.000
     2   1   -10.612926     CL  1   2.000
     3   1    -8.062696     CL  1   2.000
     4   1    -7.544583     CL  1   2.000
     5   1    -7.544583     CL  1   2.000
     6   1    -0.876439     CL  1   2.000
     7   1    -0.787144     CL  1   1.178   H  2   0.822
     8   1    -0.388955     CL  1   2.000
     9   1    -0.388955     CL  1   2.000

 Localized orbitals saved to record      2101.2  (orbital set 2)


 **********************************************************************************************************************************
 DATASETS  * FILE   NREC   LENGTH (MB)   RECORD NAMES
              1      20       30.32       500      610      700      900      950      970     1000      129      960     1100   
                                          VAR    BASINP    GEOM    SYMINP    ZMAT    AOBASIS   BASIS     P2S    ABASIS      S 
                                         1400     1410     1200     1210     1080     1600     1650     1300     1700     1800   
                                           T        V       H0       H01     AOSYM     SMH    MOLCAS    ERIS     OPER     GRID   

              2       6        5.28       700     1000      520     2100     1800     2101   
                                         GEOM     BASIS   MCVARS     RHF     GRID      RKS  

 PROGRAMS   *        TOTAL      IBBA        KS        HF       INT
 CPU TIMES  *         6.58      0.02      0.19      5.87      0.35
 REAL TIME  *         7.98 SEC
 DISK USED  *        35.64 MB      
 **********************************************************************************************************************************

 IBBA/SV(P) energy=      0.000000000000

        KS-SCF          HF-SCF  
   -460.64225185   -459.92809772
 **********************************************************************************************************************************
 Molpro calculation terminated
