
 Primary working directories    : /local/molpro.naNSBsRBmY
 Secondary working directories  : /local/molpro.naNSBsRBmY
 Wavefunction directory         : /local/
 Main file repository           : /local/molpro.naNSBsRBmY/

 id        : simonbennie

 Nodes     nprocs
 node46-011    1

 Using customized tuning parameters: mindgm=1; mindgv=20; mindgc=4; mindgr=1; noblas=0; minvec=7
 default implementation of scratch files=df  

 memory,500,m
 geomtyp=xyz
 nosym
 noorient
 geometry={
 F          0.00000        0.00000        0.00000
 H          0.00000        0.00000        0.91538
 }
 basis={default,sto-3g}
 {hf,direct;wf,10,1,0}
 
 basis={ default,6-31+G(d,p) }
 {ks,CS,direct;wf,10,1,0}
 {ibba,bonds=1}

 Variables initialized (920), CPU time= 0.00 sec
 Commands  initialized (754), CPU time= 0.01 sec, 615 directives.
 Default parameters read. Elapsed time= 0.12 sec

 Checking input...
 Passed
1


                                         ***  PROGRAM SYSTEM MOLPRO  ***
                                       Copyright, TTI GmbH Stuttgart, 2015
                                    Version 2018.0 linked Jul  6 2018 18:07:13


 **********************************************************************************************************************************
 LABEL *                                                                                 
  64 bit serial version                                                                  DATE: 11-Oct-18          TIME: 11:00:42  
 **********************************************************************************************************************************

 SHA1:             b58f8fddb9d75525be9261ebe3faf0e4279c479b
 **********************************************************************************************************************************
 SETTING GEOMTYP        =    XYZ

 Variable memory set to  500000000 words,  buffer space 

 ZSYMEL=NOSYM

 SETTING BASIS          =    STO-3G


 Recomputing integrals since basis changed


 Using spherical harmonics

 Library entry F      S STO-3G               selected for orbital group  1
 Library entry F      P STO-3G               selected for orbital group  1
 Library entry H      S STO-3G               selected for orbital group  2


 PROGRAM * SEWARD (Integral evaluation for generally contracted gaussian basis sets)     Author: Roland Lindh, 1990

 Geometry written to block  1 of record 700


 Point group  C1  



 ATOMIC COORDINATES

 NR  ATOM    CHARGE       X              Y              Z

   1  F       9.00    0.000000000    0.000000000    0.000000000
   2  H       1.00    0.000000000    0.000000000    1.729817500

 Bond lengths in Bohr (Angstrom)

 1-2  1.729817500
     ( 0.915380000)

 NUCLEAR CHARGE:                   10
 NUMBER OF PRIMITIVE AOS:          18
 NUMBER OF SYMMETRY AOS:           18
 NUMBER OF CONTRACTIONS:            6   (   6A   )
 NUMBER OF CORE ORBITALS:           1   (   1A   )
 NUMBER OF VALENCE ORBITALS:        5   (   5A   )


 NUCLEAR REPULSION ENERGY    5.20286100

 EXTRA SYMMETRY OF AOS IN SYMMETRY 1:   1 1 2 3 1 1

 Eigenvalues of metric

         1 0.412E+00 0.846E+00 0.100E+01 0.100E+01 0.112E+01 0.162E+01


 Contracted 2-electron integrals neglected if value below      1.0D-11
 AO integral compression algorithm  1   Integral accuracy      1.0D-11

     0.262 MB (compressed) written to integral file (100.0%)


 NUMBER OF SORTED TWO-ELECTRON INTEGRALS:        231.     BUFFER LENGTH:  32768
 NUMBER OF SEGMENTS:   1  SEGMENT LENGTH:        231      RECORD LENGTH: 524288

 Memory used in sort:       0.56 MW

 SORT1 READ         319. AND WROTE          83. INTEGRALS IN      1 RECORDS. CPU TIME:     0.00 SEC, REAL TIME:     0.01 SEC
 SORT2 READ          83. AND WROTE         231. INTEGRALS IN      1 RECORDS. CPU TIME:     0.00 SEC, REAL TIME:     0.00 SEC

 FILE SIZES:   FILE 1:    30.2 MBYTE,  FILE 4:     4.2 MBYTE,   TOTAL:     34.4 MBYTE

 OPERATOR DM      FOR CENTER  0  COORDINATES:    0.000000    0.000000    0.000000


 **********************************************************************************************************************************
 DATASETS  * FILE   NREC   LENGTH (MB)   RECORD NAMES
              1      19       29.95       500      610      700      900      950      970     1000      129      960     1100   
                                          VAR    BASINP    GEOM    SYMINP    ZMAT    AOBASIS   BASIS     P2S    ABASIS      S 
                                         1400     1410     1200     1210     1080     1600     1650     1300     1700   
                                           T        V       H0       H01     AOSYM     SMH    MOLCAS    ERIS     OPER   

 PROGRAMS   *        TOTAL       INT
 CPU TIMES  *         0.42      0.29
 REAL TIME  *         0.75 SEC
 DISK USED  *        34.71 MB
 **********************************************************************************************************************************


 PROGRAM * RHF-SCF (CLOSED SHELL)       Authors: W. Meyer, H.-J. Werner


 NUMBER OF ELECTRONS:       5+    5-    SPACE SYMMETRY=1    SPIN SYMMETRY: Singlet 
 CONVERGENCE THRESHOLDS:    1.00E-05 (Density)    1.00E-07 (Energy)
 INTEGRAL THRESHOLDS:       1.00E-11 (Initial)    1.00E-11 (Final)
 MAX. NUMBER OF ITERATIONS:       60
 INTERPOLATION TYPE:            DIIS
 INTERPOLATION STEPS:              2 (START)      1 (STEP)
 LEVEL SHIFTS:                  0.00 (CLOSED)  0.00 (OPEN) 



 Orbital guess generated from atomic densities. Full valence occupancy:    5

 Molecular orbital dump at record        2100.2

 Initial occupancy:   5

 Direct Fock-matrix evaluation.        Authors: Roland Lindh & Martin Schuetz (1993/96)

 Integral Threshold:                  0.1D-10
 Threshold for writing integrals:     0.1D-06
 Prescreening on density matrix:        ON 
 Calculation will be performed fully direct        

 ITERATION   DDIFF            GRAD            ENERGY        2-EL.EN.            DIPOLE MOMENTS         DIIS   CPU(IT)  CPU(TOT)
    1      0.000D+00      0.000D+00       -98.49351083     94.948848    0.00000    0.00000    1.13933    0      1.0      1.7     start
    2      0.000D+00      0.898D-01       -98.56930907     92.344108    0.00000    0.00000    0.59549    1      0.5      2.2     diag
    3      0.126D+00      0.116D-01       -98.57058463     92.003419    0.00000    0.00000    0.51058    2      0.5      2.7     diag
    4      0.197D-01      0.127D-02       -98.57059481     92.005733   -0.00000    0.00000    0.50803    3      0.5      3.2     diag
    5      0.150D-02      0.693D-04       -98.57059485     92.004082   -0.00000    0.00000    0.50753    4      0.5      3.7     diag
    6      0.129D-03      0.203D-05       -98.57059485     92.004147   -0.00000    0.00000    0.50755    5      0.5      4.2     diag
    7      0.310D-05      0.943D-08       -98.57059485     92.004147   -0.00000    0.00000    0.50755    0      0.7      4.9     orth

 Final occupancy:   5

 !RHF STATE  1.1 Energy               -98.570594854330
 Nuclear energy                         5.20286100
 One-electron energy                 -149.77552917
 Two-electron energy                   46.00207332
 Virial quotient                       -1.00803571
 !RHF STATE  1.1 Dipole moment         -0.00000000     0.00000000     0.50754699
 Dipole moment /Debye                  -0.00000000     0.00000000     1.28997128

 Orbital energies:

         1.1          2.1          3.1          4.1          5.1          6.1
    -25.899886    -1.471719    -0.585652    -0.464217    -0.464217     0.630724


 HOMO      5.1    -0.464217 =     -12.6320eV
 LUMO      6.1     0.630724 =      17.1629eV
 LUMO-HOMO         1.094941 =      29.7949eV


 **********************************************************************************************************************************
 DATASETS  * FILE   NREC   LENGTH (MB)   RECORD NAMES
              1      19       29.95       500      610      700      900      950      970     1000      129      960     1100   
                                          VAR    BASINP    GEOM    SYMINP    ZMAT    AOBASIS   BASIS     P2S    ABASIS      S 
                                         1400     1410     1200     1210     1080     1600     1650     1300     1700   
                                           T        V       H0       H01     AOSYM     SMH    MOLCAS    ERIS     OPER   

              2       4        2.76       700     1000      520     2100   
                                         GEOM     BASIS   MCVARS     RHF  

 PROGRAMS   *        TOTAL    HF-SCF       INT
 CPU TIMES  *         5.29      4.88      0.29
 REAL TIME  *         7.04 SEC
 DISK USED  *        34.71 MB
 **********************************************************************************************************************************
 SETTING BASIS          =    6-31+G(D,P)


 Recomputing integrals since basis changed


 Using spherical harmonics

 Library entry F      S 6-31G                selected for orbital group  1
 Library entry F      S 6-31++G              selected for orbital group  1
 Library entry F      P 6-31G                selected for orbital group  1
 Library entry F      P 6-31++G              selected for orbital group  1
 Library entry F      D 6-31G*               selected for orbital group  1
 Library entry H      S 6-31G                selected for orbital group  2
 Library entry H      P 6-31G**              selected for orbital group  2


 PROGRAM * SEWARD (Integral evaluation for generally contracted gaussian basis sets)     Author: Roland Lindh, 1990

 Geometry written to block  1 of record 700


 Point group  C1  



 ATOMIC COORDINATES

 NR  ATOM    CHARGE       X              Y              Z

   1  F       9.00    0.000000000    0.000000000    0.000000000
   2  H       1.00    0.000000000    0.000000000    1.729817500

 Bond lengths in Bohr (Angstrom)

 1-2  1.729817500
     ( 0.915380000)

 NUCLEAR CHARGE:                   10
 NUMBER OF PRIMITIVE AOS:          39
 NUMBER OF SYMMETRY AOS:           38
 NUMBER OF CONTRACTIONS:           23   (  23A   )
 NUMBER OF CORE ORBITALS:           1   (   1A   )
 NUMBER OF VALENCE ORBITALS:        5   (   5A   )


 NUCLEAR REPULSION ENERGY    5.20286100

 EXTRA SYMMETRY OF AOS IN SYMMETRY 1:   1 1 1 1 2 3 1 2 3 1   2 3 1 1 4 2 5 3 1 1   2 3 1

 Eigenvalues of metric

         1 0.227E-01 0.458E-01 0.129E+00 0.238E+00 0.238E+00 0.330E+00 0.492E+00 0.523E+00


 Contracted 2-electron integrals neglected if value below      1.0D-11
 AO integral compression algorithm  1   Integral accuracy      1.0D-11

     0.262 MB (compressed) written to integral file ( 46.7%)


 NUMBER OF SORTED TWO-ELECTRON INTEGRALS:      38226.     BUFFER LENGTH:  32768
 NUMBER OF SEGMENTS:   1  SEGMENT LENGTH:      38226      RECORD LENGTH: 524288

 Memory used in sort:       0.60 MW

 SORT1 READ       52420. AND WROTE        8381. INTEGRALS IN      1 RECORDS. CPU TIME:     0.00 SEC, REAL TIME:     0.00 SEC
 SORT2 READ        8381. AND WROTE       38226. INTEGRALS IN      1 RECORDS. CPU TIME:     0.01 SEC, REAL TIME:     0.02 SEC

 FILE SIZES:   FILE 1:    30.2 MBYTE,  FILE 4:     4.2 MBYTE,   TOTAL:     34.5 MBYTE

 OPERATOR DM      FOR CENTER  0  COORDINATES:    0.000000    0.000000    0.000000


 **********************************************************************************************************************************
 DATASETS  * FILE   NREC   LENGTH (MB)   RECORD NAMES
              1      19       30.05       500      610      700      900      950      970     1001      129      960     1100   
                                          VAR    BASINP    GEOM    SYMINP    ZMAT    AOBASIS   BASIS     P2S    ABASIS      S 
                                         1400     1410     1200     1210     1080     1600     1650     1300     1700   
                                           T        V       H0       H01     AOSYM     SMH    MOLCAS    ERIS     OPER   

              2       5        2.77       700     1000      520     2100     1001   
                                         GEOM     BASIS   MCVARS     RHF     BASIS   

 PROGRAMS   *        TOTAL       INT    HF-SCF       INT
 CPU TIMES  *         5.62      0.33      4.88      0.29
 REAL TIME  *         7.44 SEC
 DISK USED  *        37.28 MB
 **********************************************************************************************************************************

 Density functional group CS=CS1
 Functional: CS1(Colle-Salvetti (Gradient form))                               Gradient terms: 1
 Use libxcgrid:  F
 Use grid at  1800.2

 Functional: CS1                       Factor:  1.0000

 Generated new metagrid on record  1800.2 with target accuracy 1.0D-06 and 7674 points in CPU time    0.1
 Computed new grid on record 1800.1 in CPU time    0.1
   22067 words reserved for DFT integration

 PROGRAM * RKS-SCF (Restricted closed shell Kohn-Sham)     Authors: W. Meyer, H.-J. Werner, P.J. Knowles, 1993

 NUMBER OF ELECTRONS:       5+    5-    SPACE SYMMETRY=1    SPIN SYMMETRY: Singlet 
 CONVERGENCE THRESHOLDS:    1.00E-05 (Density)    1.00E-06 (Energy)
 MAX. NUMBER OF ITERATIONS:       60
 INTERPOLATION TYPE:            DIIS
 INTERPOLATION STEPS:              2 (START)      1 (STEP)
 LEVEL SHIFTS:                  0.00 (CLOSED)  0.00 (OPEN) 



 Use fine grid record 1800.2 for energy threshold  1.0D-06
 Molecular orbitals read from record     2100.2  Type=RHF/CANONICAL (state 1.1)

 Present basis size:      23
 Previous basis size:      6
 Previous occupation:      5
 Previous closed-shells:   5
 Previous core-orbitals:   1
 Present occupation:       5
 Present closed-shells:    5
 Present core-orbitals:    1
 Wavefunction symmetry:    1   Singlet 

 Orbital overlap <old|new>:  < 1.1| 1.1> = 0.999848   < 2.1| 2.1> = 0.999387   < 3.1| 3.1> = 0.997708   < 4.1| 4.1> = 0.994996
                             < 5.1| 5.1> = 0.994996


 Molecular orbital dump at record        2101.2

 ITERATION    DDIFF          GRAD             ENERGY        2-EL.EN.            DIPOLE MOMENTS         DIIS   ORB.
    1      0.000D+00      0.000D+00       -89.40825193    116.186814    0.00000   -0.00000    0.50086    0    start
    2      0.000D+00      0.131D+00       -83.42988611     58.473222   -0.00000    0.00000    1.11599    1    diag
    3      0.250D+00      0.232D+00       -89.96476395    111.444537    0.00000    0.00000    1.13590    2    diag
    4      0.236D+00      0.775D-01       -90.27152265    105.036223   -0.00000   -0.00000    0.63968    3    diag
    5      0.279D-01      0.337D-01       -90.33853431    101.786362    0.00000    0.00000    0.95129    4    diag
    6      0.210D-01      0.164D-01       -90.35020371    100.991603   -0.00000   -0.00000    0.73076    5    diag
    7      0.906D-02      0.888D-02       -90.35341485    100.415658   -0.00000    0.00000    0.74877    6    diag
    8      0.223D-02      0.479D-02       -90.35477470     99.784284    0.00000   -0.00000    0.73265    7    orth
    9      0.230D-02      0.406D-03       -90.35478579     99.717237   -0.00000   -0.00000    0.73061    8    diag
   10      0.281D-03      0.312D-04       -90.35478585     99.721908    0.00000   -0.00000    0.73087    9    diag
   11      0.208D-04      0.229D-06       -90.35478585     99.721892    0.00000    0.00000    0.73087    9    diag
   12      0.147D-06      0.441D-07       -90.35478585     99.721862   -0.00000   -0.00000    0.73087    0    orth

 Final occupancy:   5

 !RKS STATE  1.1 Energy               -90.354785850071
 Nuclear energy                         5.20286100
 One-electron energy                 -145.07780305
 Two-electron energy                   49.86093119
 Density functional                    -0.34077499     CS1=-0.34077499
 Virial quotient                       -0.95520666
 !RKS STATE  1.1 Dipole moment         -0.00000000    -0.00000000     0.73087202
 Dipole moment /Debye                  -0.00000000    -0.00000000     1.85756970

 Orbital energies:

         1.1          2.1          3.1          4.1          5.1          6.1          7.1
    -21.884355    -0.711993    -0.172349    -0.046452    -0.046452     0.190630     0.288776


 HOMO      5.1    -0.046452 =      -1.2640eV
 LUMO      6.1     0.190630 =       5.1873eV
 LUMO-HOMO         0.237082 =       6.4513eV


 **********************************************************************************************************************************
 DATASETS  * FILE   NREC   LENGTH (MB)   RECORD NAMES
              1      20       30.29       500      610      700      900      950      970     1001      129      960     1100   
                                          VAR    BASINP    GEOM    SYMINP    ZMAT    AOBASIS   BASIS     P2S    ABASIS      S 
                                         1400     1410     1200     1210     1080     1600     1650     1300     1700     1800   
                                           T        V       H0       H01     AOSYM     SMH    MOLCAS    ERIS     OPER     GRID   

              2       7        5.27       700     1000      520     2100     1001     1800     2101   
                                         GEOM     BASIS   MCVARS     RHF     BASIS    GRID      RKS  

 PROGRAMS   *        TOTAL    KS-SCF       INT    HF-SCF       INT
 CPU TIMES  *         6.00      0.38      0.33      4.88      0.29
 REAL TIME  *         7.88 SEC
 DISK USED  *        37.28 MB
 **********************************************************************************************************************************


 PROGRAM * Intrinsic Basis Bonding Analysis (IBBA)          Author: G. Knizia

 Molecular orbitals read from record     2101.2  Type=RKS/CANONICAL (state 1.1)
 Fock matrix read from record            2101.2  Type=RKS/TOTAL (state 1.1)
 Orbital energies read from record       2101.2  Type=RKS/CANONICAL (state 1.1)
 Density matrix read from record         2101.2  Type=RKS/CHARGE (state 1.1)

 Number of core orbitals:           1 (   1 )
 Number of closed-shell orbitals:   4 (   4 )

 Basis set MINAO-AUTO-PP generated.      Number of basis functions:   6 

 Polarized AO type:                A = (O Ot + (1-O)(1-Ot)) P12
 Orthogonalization method:         Symmetric (Loewdin)
 Localization functional:          L = sum[A,i] <i|n_A|i>^4 -> max

 Localization group 1:   5 orbitals, occupancy  2.000
 Iterative localization: IB/PM,    3 iter; Final gradient 0.36E-13

 Bond order analysis:       [THRPRINT= 0.020]

   CEN ATOM   CEN ATOM     WIBERG.BO      RENORM.BO
     1   F  -   2   H       0.878183       1.000000

     2   H  -   1   F       0.878183       1.000000


 Valency analysis:

   CEN ATOM   TOT.VALENCE
     1   F       0.878183
     2   H       0.878183

 Total charge composition:

   CEN ATOM         s          p       ELECTRONS ->P.CHARGE
     1   F       3.80293    5.54609      9.34902   -0.34902
     2   H       0.65098                 0.65098    0.34902

 Total charge composition, AO contributions:

   CEN ATOM SHL      SPHERICAL COMPONENTS
     1   F  1s       1.99923
     1   F  2s       1.80370
     1   F  2p       2.00000    2.00000    1.54609

     2   H  1s       0.65098

 Summary of localized orbital composition:   [THRPRINT= 0.020]

   ORB  GRP  ORB.ENERGY      CENTERS/CHARGES
     1   1   -21.785989      F  1   2.000
     2   1    -0.540932      F  1   1.349   H  2   0.651
     3   1    -0.441775      F  1   2.000
     4   1    -0.046452      F  1   2.000
     5   1    -0.046452      F  1   2.000

 Localized orbitals saved to record      2101.2  (orbital set 2)


 **********************************************************************************************************************************
 DATASETS  * FILE   NREC   LENGTH (MB)   RECORD NAMES
              1      20       30.29       500      610      700      900      950      970     1001      129      960     1100   
                                          VAR    BASINP    GEOM    SYMINP    ZMAT    AOBASIS   BASIS     P2S    ABASIS      S 
                                         1400     1410     1200     1210     1080     1600     1650     1300     1700     1800   
                                           T        V       H0       H01     AOSYM     SMH    MOLCAS    ERIS     OPER     GRID   

              2       7        5.28       700     1000      520     2100     1001     1800     2101   
                                         GEOM     BASIS   MCVARS     RHF     BASIS    GRID      RKS  

 PROGRAMS   *        TOTAL      IBBA    KS-SCF       INT    HF-SCF       INT
 CPU TIMES  *         6.01      0.01      0.38      0.33      4.88      0.29
 REAL TIME  *         7.90 SEC
 DISK USED  *        37.28 MB
 **********************************************************************************************************************************

 IBBA/6-31+G(D,P) energy=      0.000000000000

          KS-SCF          HF-SCF
    -90.35478585    -98.57059485
 **********************************************************************************************************************************
 Molpro calculation terminated
