
 Primary working directories    : /local
 Secondary working directories  : /local
 Wavefunction directory         : /local/
 Main file repository           : /local/

 SHA1      : b4a5b34a9e711420743f49e6833241d17c61fb3c
 NAME      : 2099.9.b4a5b34
 ARCHNAME  : linux/x86_64_openmp
 FC        : /cm/shared/languages/GCC-6.1/bin/gfortran
 BLASLIB   : -lblas
 id        : simonbennie

 Nodes     nprocs
 node32-011    1

 Using customized tuning parameters: mindgm=1; mindgv=20; mindgc=4; mindgr=1; noblas=0; minvec=7
 default implementation of scratch files=df  

 memory,500,m
 geomtyp=xyz
 nosym
 noorient
 geometry={
 F          0.00000        0.00000        0.00000
 H          0.00000        0.00000        0.91538
 }
 basis={ default,tzvp }
 {df-ks,BH-LYP,direct;disp;wf,10,1,0}
 {ibba,bonds=1}

 Variables initialized (895), CPU time= 0.00 sec
 Commands  initialized (725), CPU time= 0.02 sec, 591 directives.
 Default parameters read. Elapsed time= 0.08 sec

 Checking input...
 Passed
1


                                         ***  PROGRAM SYSTEM MOLPRO  ***
                                       Copyright, TTI GmbH Stuttgart, 2015
                                    Version 2099.9 linked May 26 2017 16:03:21


 **********************************************************************************************************************************
 LABEL *                                                                                 
  64 bit serial version                                                                  DATE: 11-Mar-18          TIME: 21:54:48  
 **********************************************************************************************************************************

 SHA1:             b4a5b34a9e711420743f49e6833241d17c61fb3c
 **********************************************************************************************************************************
 SETTING GEOMTYP        =    XYZ

 Variable memory set to  500000000 words,  buffer space 

 ZSYMEL=NOSYM

 SETTING BASIS          =    TZVP


 Recomputing integrals since basis changed


 Using spherical harmonics

 Library entry F      S def2-TZVP            selected for orbital group  1
 Library entry F      P def2-TZVP            selected for orbital group  1
 Library entry F      D def2-TZVP            selected for orbital group  1
 Library entry F      F def2-TZVP            selected for orbital group  1
 Library entry H      S def2-TZVP            selected for orbital group  2
 Library entry H      P def2-TZVP            selected for orbital group  2


 PROGRAM * SEWARD (Integral evaluation for generally contracted gaussian basis sets)     Author: Roland Lindh, 1990

 Geometry written to block  1 of record 700


 Point group  C1  



 ATOMIC COORDINATES

 NR  ATOM    CHARGE       X              Y              Z

   1  F       9.00    0.000000000    0.000000000    0.000000000
   2  H       1.00    0.000000000    0.000000000    1.729817500

 Bond lengths in Bohr (Angstrom)

 1-2  1.729817500
     ( 0.915380000)

 NUCLEAR CHARGE:                   10
 NUMBER OF PRIMITIVE AOS:          59
 NUMBER OF SYMMETRY AOS:           54
 NUMBER OF CONTRACTIONS:           37   (  37A   )
 NUMBER OF CORE ORBITALS:           1   (   1A   )
 NUMBER OF VALENCE ORBITALS:        5   (   5A   )


 NUCLEAR REPULSION ENERGY    5.20286100

 EXTRA SYMMETRY OF AOS IN SYMMETRY 1:   1 1 1 1 1 2 3 1 2 3   1 2 3 1 1 4 2 5 3 1   4 2 5 3 2 3 1 6 4 7   5 1 1 1 2 3 1

 Eigenvalues of metric

         1 0.150E-01 0.203E-01 0.918E-01 0.114E+00 0.193E+00 0.193E+00 0.222E+00 0.313E+00


 OPERATOR DM      FOR CENTER  0  COORDINATES:    0.000000    0.000000    0.000000


 **********************************************************************************************************************************
 DATASETS  * FILE   NREC   LENGTH (MB)   RECORD NAMES
              1      18       30.01       500      610      700      900      950      970     1000      129      960     1100   
                                          VAR    BASINP    GEOM    SYMINP    ZMAT    AOBASIS   BASIS     P2S    ABASIS      S 
                                         1400     1410     1200     1210     1080     1600     1650     1700   
                                           T        V       H0       H01     AOSYM     SMH    MOLCAS    OPER   

 PROGRAMS   *        TOTAL       INT
 CPU TIMES  *         0.44      0.30
 REAL TIME  *         0.68 SEC
 DISK USED  *        30.30 MB      
 **********************************************************************************************************************************

 Density functional group BH-LYP=B88+LYP
 Functional: B88(Automatically generated (new) B88)                            Gradient terms: 1
 Functional: LYP(Automatically generated (new) LYP)                            Gradient terms: 1

 dispersion correction activated
 Density functional: BH-LYP  
 functional not in list, set to default 


 Exact exchange will be calculated, factor:  0.5000

 Functional: B88                       Factor:  0.5000
 Functional: LYP                       Factor:  1.0000

 Use grid at  1800.2


 Exact exchange will be calculated, factor:  0.5000

 Functional: B88                       Factor:  0.5000
 Functional: LYP                       Factor:  1.0000

 Generated new metagrid on record  1800.2 with target accuracy 1.0D-06 and 7902 points in CPU time    0.1
 Computed new grid on record 1800.1 in CPU time    0.1
   33207 words reserved for DFT integration

 PROGRAM * RKS-SCF (Restricted closed shell Kohn-Sham)     Authors: W. Meyer, H.-J. Werner, P.J. Knowles, 1993

 NUMBER OF ELECTRONS:       5+    5-    SPACE SYMMETRY=1    SPIN SYMMETRY: Singlet 
 CONVERGENCE THRESHOLDS:    1.00E-05 (Density)    1.00E-06 (Energy)
 INTEGRAL THRESHOLDS:       1.00E-11 (Initial)    1.00E-11 (Final)
 MAX. NUMBER OF ITERATIONS:       60
 INTERPOLATION TYPE:            DIIS
 INTERPOLATION STEPS:              2 (START)      1 (STEP)
 LEVEL SHIFTS:                  0.00 (CLOSED)  0.00 (OPEN) 



 Use fine grid record 1800.2 for energy threshold  1.0D-06

 Basis set DEF2-TZVPP/JKFIT generated.   Number of basis functions:   95 

 Orbital guess generated from atomic densities. Full valence occupancy:    5
 Using density fitting in orbital guess

 Coulomb and exchange fitting
 Thresholds for fitting:       THRAO_COUL= 1.0D-14    THRAO_EXCH= 1.0D-12    THRMO= 1.0D-11    THRPROD= 1.0D-11    THRASM= 1.0D-11
                               THR2HLF=    1.0D-11

 Molecular orbital dump at record        2100.2

 Initial occupancy:   5

 ITERATION   DDIFF            GRAD            ENERGY        2-EL.EN.            DIPOLE MOMENTS         DIIS   CPU(IT)  CPU(TOT)  ORB.
    1      0.000D+00      0.000D+00      -100.41940758    103.745058   -0.00000   -0.00000    1.03909    0      0.1      0.1     start
    2      0.000D+00      0.168D-01      -100.42084619     98.292028    0.00000    0.00000    0.62195    1      0.0      0.1     diag
    3      0.123D-01      0.184D-01      -100.44963154    101.179498   -0.00000    0.00000    0.76789    2      0.1      0.2     diag
    4      0.574D-02      0.725D-03      -100.44968002    101.147144    0.00000    0.00000    0.77461    3      0.0      0.2     diag
    5      0.170D-03      0.165D-03      -100.44968314    101.166637   -0.00000    0.00000    0.77335    4      0.0      0.3     diag
    6      0.756D-04      0.144D-04      -100.44968320    101.165968   -0.00000    0.00000    0.77310    5      0.0      0.3     diag
    7      0.116D-04      0.160D-05      -100.44968320    101.165902    0.00000    0.00000    0.77307    6      0.1      0.4     diag
    8      0.141D-05      0.115D-06      -100.44968320    101.165920   -0.00000   -0.00000    0.77307    0      0.0      0.4     orth

 Dispersion correction
 - - - - - - - - - - - 
  _________________________________
                                   
 |         DFTD3 V1.3 Rev 1        |
 | S.Grimme, University Muenster   |
 | Fri Jul  2 12:48:21 CEST 2010   |
  _________________________________

 Please cite DFT-D3 work done with this code as:
 S. Grimme, J. Antony, S. Ehrlich and H. Krieg,
 J. Chem. Phys, 132 (2010), 154104.
 For DFT-D2 the reference is
 S. Grimme, J. Comput. Chem., 27 (2006), 1787-1799

 C6 coefficients used:
                    2  C6 for element                     1
 Z=  1 CN=   0.912     C6(AA)=    3.03
 Z=  1 CN=   0.000     C6(AA)=    7.59
                    2  C6 for element                     9
 Z=  9 CN=   0.000     C6(AA)=    9.69
 Z=  9 CN=   0.998     C6(AA)=    7.13

 #           XYZ [au]               R0(AA) [Ang.]   CN       C6(AA)     C8(AA)   C10(AA) [au]
  1   0.00000   0.00000   0.00000   f   1.150  0.998         7.2       122.8      2573.8
  2   0.00000   0.00000   1.72982   h   1.091  0.998         3.1        37.4       553.4

 molecular C6(AA) [au] =        18.91

           DFT-D V3
 DF pbe                                               
 parameters
 s6       :    1.0000
 s8       :    0.7220
 rs6      :    1.2170
 alpha6   :   14.0000
 alpha8   :   16.0000
 k1-k3    :   16.0000    1.3333   -4.0000

 Edisp /kcal,au:    -0.0001 -0.00000023

 E6    /kcal :    -0.0000
 E8    /kcal :    -0.0001
 % E8        : 91.43
 normal termination of dftd3

 RKS STATE 1.1 ENERGY+DISP     -100.44968343

 Final occupancy:   5

 !RKS STATE 1.1 Energy               -100.449683427830
 Nuclear energy                         5.20286100
 One-electron energy                 -150.63540045
 Two-electron energy                   50.58296014
 Density functional                    -5.60010389     B88=-10.47473932 LYP= -0.36273423
 Virial quotient                       -1.00265878
 !RKS STATE 1.1 Dipole moment          -0.00000000    -0.00000000     0.77307416
 Dipole moment /Debye                  -0.00000000    -0.00000000     1.96482982

 Orbital energies:

         1.1          2.1          3.1          4.1          5.1          6.1          7.1
    -25.296939    -1.360007    -0.641560    -0.511597    -0.511597     0.050862     0.452006

 HOMO      5.1    -0.511597 =     -13.9213eV
 LUMO      6.1     0.050862 =       1.3840eV
 LUMO-HOMO         0.562459 =      15.3053eV


 **********************************************************************************************************************************
 DATASETS  * FILE   NREC   LENGTH (MB)   RECORD NAMES
              1      19       30.27       500      610      700      900      950      970     1000      129      960     1100   
                                          VAR    BASINP    GEOM    SYMINP    ZMAT    AOBASIS   BASIS     P2S    ABASIS      S 
                                         1400     1410     1200     1210     1080     1600     1650     1700     1800   
                                           T        V       H0       H01     AOSYM     SMH    MOLCAS    OPER     GRID   

              2       5        2.80       700     1000      520     1800     2100   
                                         GEOM     BASIS   MCVARS    GRID      RKS  

 PROGRAMS   *        TOTAL        KS       INT
 CPU TIMES  *         0.98      0.54      0.30
 REAL TIME  *         1.26 SEC
 DISK USED  *        33.45 MB      
 **********************************************************************************************************************************


 PROGRAM * Intrinsic Basis Bonding Analysis (IBBA)          Author: G. Knizia

 Molecular orbitals read from record     2100.2  Type=RKS/CANONICAL (state 1.1)
 Fock matrix read from record            2100.2  Type=RKS/TOTAL (state 1.1)
 Orbital energies read from record       2100.2  Type=RKS/CANONICAL (state 1.1)
 Density matrix read from record         2100.2  Type=RKS/CHARGE (state 1.1)

 Number of core orbitals:           1 (   1 )
 Number of closed-shell orbitals:   4 (   4 )

 Basis set MINAO-AUTO-PP generated.      Number of basis functions:   6 

 Polarized AO type:                A = (O Ot + (1-O)(1-Ot)) P12
 Orthogonalization method:         Symmetric (Loewdin)
 Localization functional:          L = sum[A,i] <i|n_A|i>^4 -> max

 Localization group 1:   5 orbitals, occupancy  2.000
 Iterative localization: IB/PM,    3 iter; Final gradient 0.59E-16

 Bond order analysis:       [THRPRINT= 0.020]

   CEN ATOM   CEN ATOM     WIBERG.BO      RENORM.BO
     1   F  -   2   H       0.774238       1.000000

     2   H  -   1   F       0.774238       1.000000


 Valency analysis:

   CEN ATOM   TOT.VALENCE
     1   F       0.774238
     2   H       0.774238

 Total charge composition:

   CEN ATOM         s          p       ELECTRONS ->P.CHARGE
     1   F       3.83459    5.64055      9.47514   -0.47514
     2   H       0.52486                 0.52486    0.47514

 Total charge composition, AO contributions:

   CEN ATOM SHL      SPHERICAL COMPONENTS
     1   F  1s       1.99841
     1   F  2s       1.83619
     1   F  2p       2.00000    2.00000    1.64055

     2   H  1s       0.52486

 Summary of localized orbital composition:   [THRPRINT= 0.020]

   ORB  GRP  ORB.ENERGY      CENTERS/CHARGES
     1   1   -25.133896      F  1   2.000
     2   1    -1.107049      F  1   1.475   H  2   0.525
     3   1    -1.057560      F  1   2.000
     4   1    -0.511597      F  1   2.000
     5   1    -0.511597      F  1   2.000

 Localized orbitals saved to record      2100.2  (orbital set 2)


 **********************************************************************************************************************************
 DATASETS  * FILE   NREC   LENGTH (MB)   RECORD NAMES
              1      19       30.27       500      610      700      900      950      970     1000      129      960     1100   
                                          VAR    BASINP    GEOM    SYMINP    ZMAT    AOBASIS   BASIS     P2S    ABASIS      S 
                                         1400     1410     1200     1210     1080     1600     1650     1700     1800   
                                           T        V       H0       H01     AOSYM     SMH    MOLCAS    OPER     GRID   

              2       5        2.81       700     1000      520     1800     2100   
                                         GEOM     BASIS   MCVARS    GRID      RKS  

 PROGRAMS   *        TOTAL      IBBA        KS       INT
 CPU TIMES  *         1.00      0.02      0.54      0.30
 REAL TIME  *         1.29 SEC
 DISK USED  *        33.45 MB      
 **********************************************************************************************************************************

 IBBA/TZVP energy=      0.000000000000

        DF-KS   
   -100.44968343
 **********************************************************************************************************************************
 Molpro calculation terminated
