
 Primary working directories    : /local
 Secondary working directories  : /local
 Wavefunction directory         : /local/
 Main file repository           : /local/

 SHA1      : b4a5b34a9e711420743f49e6833241d17c61fb3c
 NAME      : 2099.9.b4a5b34
 ARCHNAME  : linux/x86_64_openmp
 FC        : /cm/shared/languages/GCC-6.1/bin/gfortran
 BLASLIB   : -lblas
 id        : simonbennie

 Nodes     nprocs
 node33-013    1

 Using customized tuning parameters: mindgm=1; mindgv=20; mindgc=4; mindgr=1; noblas=0; minvec=7
 default implementation of scratch files=df  

 memory,500,m
 geomtyp=xyz
 nosym
 noorient
 geometry={
 F          0.00000        0.00000        0.00000
 H          0.00000        0.00000        0.91538
 }
 basis={ default,qzvp }
 {uhf,direct;wf,10,1,0}
 {uks,B3LYP5,direct;maxit,0;wf,10,1,0}
 {ibba,bonds=1}

 Variables initialized (895), CPU time= 0.00 sec
 Commands  initialized (725), CPU time= 0.02 sec, 591 directives.
 Default parameters read. Elapsed time= 0.08 sec

 Checking input...
 Passed
1


                                         ***  PROGRAM SYSTEM MOLPRO  ***
                                       Copyright, TTI GmbH Stuttgart, 2015
                                    Version 2099.9 linked May 26 2017 16:03:21


 **********************************************************************************************************************************
 LABEL *                                                                                 
  64 bit serial version                                                                  DATE: 12-Mar-18          TIME: 04:19:05  
 **********************************************************************************************************************************

 SHA1:             b4a5b34a9e711420743f49e6833241d17c61fb3c
 **********************************************************************************************************************************
 SETTING GEOMTYP        =    XYZ

 Variable memory set to  500000000 words,  buffer space 

 ZSYMEL=NOSYM

 SETTING BASIS          =    QZVP


 Recomputing integrals since basis changed


 Using spherical harmonics

 Library entry F      S def2-QZVP            selected for orbital group  1
 Library entry F      P def2-QZVP            selected for orbital group  1
 Library entry F      D def2-QZVP            selected for orbital group  1
 Library entry F      F def2-QZVP            selected for orbital group  1
 Library entry F      G def2-QZVP            selected for orbital group  1
 Library entry H      S def2-QZVP            selected for orbital group  2
 Library entry H      P def2-QZVP            selected for orbital group  2
 Library entry H      D def2-QZVP            selected for orbital group  2
 Library entry H      F def2-QZVP            selected for orbital group  2


 PROGRAM * SEWARD (Integral evaluation for generally contracted gaussian basis sets)     Author: Roland Lindh, 1990

 Geometry written to block  1 of record 700


 Point group  C1  



 ATOMIC COORDINATES

 NR  ATOM    CHARGE       X              Y              Z

   1  F       9.00    0.000000000    0.000000000    0.000000000
   2  H       1.00    0.000000000    0.000000000    1.729817500

 Bond lengths in Bohr (Angstrom)

 1-2  1.729817500
     ( 0.915380000)

 NUCLEAR CHARGE:                   10
 NUMBER OF PRIMITIVE AOS:         130
 NUMBER OF SYMMETRY AOS:          110
 NUMBER OF CONTRACTIONS:           87   (  87A   )
 NUMBER OF CORE ORBITALS:           1   (   1A   )
 NUMBER OF VALENCE ORBITALS:        5   (   5A   )


 NUCLEAR REPULSION ENERGY    5.20286100

 EXTRA SYMMETRY OF AOS IN SYMMETRY 1:   1 1 1 1 1 1 1 2 3 1   2 3 1 2 3 1 2 3 1 1   4 2 5 3 1 4 2 5 3 1   4 2 5 3 2 3 1 6 4 7
                                        5 2 3 1 6 4 7 5 1 4   2 8 3 5 9 6 7 1 1 1   1 2 3 1 2 3 1 2 3 1   1 4 2 5 3 1 4 2 5 3
                                        2 3 1 6 4 7 5

 Eigenvalues of metric

         1 0.502E-03 0.266E-02 0.511E-02 0.105E-01 0.126E-01 0.139E-01 0.139E-01 0.378E-01


 Contracted 2-electron integrals neglected if value below      1.0D-11
 AO integral compression algorithm  1   Integral accuracy      1.0D-11

     10.486 MB (compressed) written to integral file ( 14.9%)


 NUMBER OF SORTED TWO-ELECTRON INTEGRALS:    7328706.     BUFFER LENGTH:  32768
 NUMBER OF SEGMENTS:   1  SEGMENT LENGTH:    7328706      RECORD LENGTH: 524288

 Memory used in sort:       7.89 MW

 SORT1 READ     8948706. AND WROTE     1314946. INTEGRALS IN      4 RECORDS. CPU TIME:     0.03 SEC, REAL TIME:     0.06 SEC
 SORT2 READ     1314946. AND WROTE     7328706. INTEGRALS IN     40 RECORDS. CPU TIME:     0.18 SEC, REAL TIME:     0.20 SEC

 FILE SIZES:   FILE 1:    40.7 MBYTE,  FILE 4:    16.8 MBYTE,   TOTAL:     57.6 MBYTE

 OPERATOR DM      FOR CENTER  0  COORDINATES:    0.000000    0.000000    0.000000


 **********************************************************************************************************************************
 DATASETS  * FILE   NREC   LENGTH (MB)   RECORD NAMES
              1      19       37.67       500      610      700      900      950      970     1000      129      960     1100   
                                          VAR    BASINP    GEOM    SYMINP    ZMAT    AOBASIS   BASIS     P2S    ABASIS      S 
                                         1400     1410     1200     1210     1080     1600     1650     1300     1700   
                                           T        V       H0       H01     AOSYM     SMH    MOLCAS    ERIS     OPER   

 PROGRAMS   *        TOTAL       INT
 CPU TIMES  *         0.85      0.71
 REAL TIME  *         1.16 SEC
 DISK USED  *        57.86 MB      
 **********************************************************************************************************************************


 PROGRAM * UHF-SCF       Authors: W. Meyer, H.-J. Werner


 NUMBER OF ELECTRONS:       5+    5-    SPACE SYMMETRY=1    SPIN SYMMETRY: Singlet 
 CONVERGENCE THRESHOLDS:    1.00E-05 (Density)    1.00E-07 (Energy)
 INTEGRAL THRESHOLDS:       1.00E-11 (Initial)    1.00E-11 (Final)
 MAX. NUMBER OF ITERATIONS:       60
 INTERPOLATION TYPE:            DIIS
 INTERPOLATION STEPS:              2 (START)      1 (STEP)
 LEVEL SHIFTS:                 -0.20 (ALPHA)  -0.20 (BETA) 



 Orbital guess generated from atomic densities. Full valence occupancy:    5

 Molecular orbital dump at record        2200.2

 Initial alpha occupation   5
 Initial beta  occupation   5

 Direct Fock-matrix evaluation.        Author: H.-J. Werner (1996)

 Integral Threshold:                  0.1D-10

 ITERATION   DDIFF            GRAD            ENERGY        2-EL.EN.            DIPOLE MOMENTS         DIIS   CPU(IT)  CPU(TOT)
    1      0.000D+00      0.000D+00      -100.04337707     92.569331    0.00000   -0.00000    1.05503    0      1.1      1.9
    2      0.223D-02      0.309D-02      -100.06795017     90.226733    0.00000   -0.00000    0.81134    1      0.8      2.7
    3      0.547D-03      0.111D-02      -100.06990392     90.735782    0.00000   -0.00000    0.79778    2      0.8      3.4
    4      0.335D-03      0.245D-03      -100.07021608     90.694907    0.00000   -0.00000    0.77324    3      0.8      4.2
    5      0.157D-03      0.826D-04      -100.07026181     90.696346    0.00000   -0.00000    0.76530    4      0.8      4.9
    6      0.623D-04      0.252D-04      -100.07026783     90.694403    0.00000   -0.00000    0.76289    5      0.8      5.7
    7      0.149D-04      0.626D-05      -100.07026826     90.694742   -0.00000    0.00000    0.76226    6      0.8      6.5
    8      0.285D-05      0.983D-06      -100.07026827     90.694619   -0.00000   -0.00000    0.76218    6      0.8      7.3
    9      0.675D-06      0.145D-06      -100.07026827     90.694627    0.00000   -0.00000    0.76217    6      0.8      8.1

 Final alpha occupancy:   5
 Final beta  occupancy:   5

 !UHF STATE 1.1 Energy               -100.070268268852
 Nuclear energy                         5.20286100
 One-electron energy                 -150.62044271
 Two-electron energy                   45.34731344
 Virial quotient                       -1.00042927
 !UHF STATE 1.1 Dipole moment           0.00000000    -0.00000000     0.76216716
 Dipole moment /Debye                   0.00000000    -0.00000000     1.93710881

 Orbital energies for positive spin:

         1.1          2.1          3.1          4.1          5.1          6.1          7.1
    -26.293937    -1.600929    -0.768161    -0.649940    -0.649940     0.101876     0.412652

 Orbital energies for negative spin:

         1.1          2.1          3.1          4.1          5.1          6.1          7.1
    -26.293937    -1.600929    -0.768161    -0.649940    -0.649940     0.101876     0.412652

 HOMO      5.1    -0.649940 =     -17.6858eV
 LUMO      6.1     0.101876 =       2.7722eV
 LUMO-HOMO         0.751816 =      20.4580eV

 EXPECTATION VALUE OF S**2:             0.00000000

 Natural orbitals saved to record    2200.2 (Orbital set 3)

 Orbital spaces for UNO-CAS (Min. occupation: 0.020  Max. occupation: 1.980):

 Closed:        5
 Active:        0


 **********************************************************************************************************************************
 DATASETS  * FILE   NREC   LENGTH (MB)   RECORD NAMES
              1      19       37.67       500      610      700      900      950      970     1000      129      960     1100   
                                          VAR    BASINP    GEOM    SYMINP    ZMAT    AOBASIS   BASIS     P2S    ABASIS      S 
                                         1400     1410     1200     1210     1080     1600     1650     1300     1700   
                                           T        V       H0       H01     AOSYM     SMH    MOLCAS    ERIS     OPER   

              2       4        3.08       700     1000      520     2200   
                                         GEOM     BASIS   MCVARS     UHF  

 PROGRAMS   *        TOTAL       UHF       INT
 CPU TIMES  *         8.92      8.07      0.71
 REAL TIME  *        10.19 SEC
 DISK USED  *        57.86 MB      
 **********************************************************************************************************************************

 Density functional group B3LYP5=B88+DIRAC+LYP+VWN5
 Functional: B88(Automatically generated (new) B88)                            Gradient terms: 1
 Functional: DIRAC(Automatically generated (new) DIRAC)                        Gradient terms: 0
 Functional: LYP(Automatically generated (new) LYP)                            Gradient terms: 1
 Functional: VWN5(Automatically generated (new) VWN5)                          Gradient terms: 0
 Use grid at  1800.2


 Exact exchange will be calculated, factor:  0.2000

 Functional: B88                       Factor:  0.7200
 Functional: DIRAC                     Factor:  0.0800
 Functional: LYP                       Factor:  0.8100
 Functional: VWN5                      Factor:  0.1900

 Generated new metagrid on record  1800.2 with target accuracy 1.0D-06 and 8346 points in CPU time    0.1
 Computed new grid on record 1800.1 in CPU time    0.1
   72978 words reserved for DFT integration

 PROGRAM * UKS-SCF (Unrestricted Kohn-Sham)     Authors: W. Meyer, H.-J. Werner, P.J. Knowles, 1993

 NUMBER OF ELECTRONS:       5+    5-    SPACE SYMMETRY=1    SPIN SYMMETRY: Singlet 
 CONVERGENCE THRESHOLDS:    1.00E-05 (Density)    1.00E-06 (Energy)
 MAX. NUMBER OF ITERATIONS:        0
 INTERPOLATION TYPE:            DIIS
 INTERPOLATION STEPS:              2 (START)      1 (STEP)
 LEVEL SHIFTS:                 -0.20 (ALPHA)  -0.20 (BETA) 



 Use fine grid record 1800.2 for energy threshold  1.0D-06
 Molecular orbitals read from record     2200.2  Type=UHF/ALPHA (state 1.1)
 Molecular orbitals read from record     2200.2  Type=UHF/BETA (state 1.1)

 Molecular orbital dump at record        2201.2

 Initial alpha occupation   5
 Initial beta  occupation   5

 ITERATION    DDIFF          GRAD             ENERGY        2-EL.EN.            DIPOLE MOMENTS         DIIS
    1      0.000D+00      0.000D+00      -100.45393090    107.382977    0.00000   -0.00000    0.76217    0

 Final alpha occupancy:   5
 Final beta  occupancy:   5

 !UKS STATE 1.1 Energy               -100.453930898454
 Nuclear energy                         5.20286100
 One-electron energy                 -150.62044271
 Two-electron energy                   53.69148859
 Density functional                    -8.72783777     B88=-10.47346231 DIRAC= -9.49138854 LYP= -0.36273055 VWN5= -0.70432673
 Virial quotient                       -1.00426485
 !UKS STATE 1.1 Dipole moment           0.00000000    -0.00000000     0.76216716
 Dipole moment /Debye                   0.00000000    -0.00000000     1.93710881

 Orbital energies for positive spin:

         1.1          2.1          3.1          4.1          5.1          6.1          7.1
    -26.293937    -1.600929    -0.768161    -0.649940    -0.649940     0.101876     0.412652

 Orbital energies for negative spin:

         1.1          2.1          3.1          4.1          5.1          6.1          7.1
    -26.293937    -1.600929    -0.768161    -0.649940    -0.649940     0.101876     0.412652

 HOMO      5.1    -0.649940 =     -17.6858eV
 LUMO      6.1     0.101876 =       2.7722eV
 LUMO-HOMO         0.751816 =      20.4580eV

 EXPECTATION VALUE OF S**2:             0.00000000

 Natural orbitals saved to record    2201.2 (Orbital set 3)

 Orbital spaces for UNO-CAS (Min. occupation: 0.020  Max. occupation: 1.980):

 Closed:        5
 Active:        0

 No convergence



 **********************************************************************************************************************************
 DATASETS  * FILE   NREC   LENGTH (MB)   RECORD NAMES
              1      20       37.94       500      610      700      900      950      970     1000      129      960     1100   
                                          VAR    BASINP    GEOM    SYMINP    ZMAT    AOBASIS   BASIS     P2S    ABASIS      S 
                                         1400     1410     1200     1210     1080     1600     1650     1300     1700     1800   
                                           T        V       H0       H01     AOSYM     SMH    MOLCAS    ERIS     OPER     GRID   

              2       6        5.88       700     1000      520     2200     1800     2201   
                                         GEOM     BASIS   MCVARS     UHF     GRID      UKS  

 PROGRAMS   *        TOTAL       UKS       UHF       INT
 CPU TIMES  *         9.35      0.42      8.07      0.71
 REAL TIME  *        10.63 SEC
 DISK USED  *        57.86 MB      
 **********************************************************************************************************************************


 PROGRAM * Intrinsic Basis Bonding Analysis (IBBA)          Author: G. Knizia

 Molecular orbitals read from record     2201.2  Type=UKS/ALPHA (state 1.1)
 Fock matrix read from record            2201.2  Type=UKS/TOTAL (state 1.1)
 Orbital energies read from record       2201.2  Type=UKS/ALPHA (state 1.1)
 Density matrix read from record         2201.2  Type=UKS/CHARGE (state 1.1)

 Number of core orbitals:           1 (   1 )
 Number of closed-shell orbitals:   4 (   4 )

 Basis set MINAO-AUTO-PP generated.      Number of basis functions:   6 

 Polarized AO type:                A = (O Ot + (1-O)(1-Ot)) P12
 Orthogonalization method:         Symmetric (Loewdin)
 Localization functional:          L = sum[A,i] <i|n_A|i>^4 -> max

 Localization group 1:   5 orbitals, occupancy  2.000
 Iterative localization: IB/PM,    3 iter; Final gradient 0.66E-16

 Bond order analysis:       [THRPRINT= 0.020]

   CEN ATOM   CEN ATOM     WIBERG.BO      RENORM.BO
     1   F  -   2   H       0.764696       1.000000

     2   H  -   1   F       0.764696       1.000000


 Valency analysis:

   CEN ATOM   TOT.VALENCE
     1   F       0.764696
     2   H       0.764696

 Total charge composition:

   CEN ATOM         s          p       ELECTRONS ->P.CHARGE
     1   F       3.83266    5.65242      9.48508   -0.48508
     2   H       0.51492                 0.51492    0.48508

 Total charge composition, AO contributions:

   CEN ATOM SHL      SPHERICAL COMPONENTS
     1   F  1s       1.99833
     1   F  2s       1.83433
     1   F  2p       2.00000    2.00000    1.65242

     2   H  1s       0.51492

 Summary of localized orbital composition:   [THRPRINT= 0.020]

   ORB  GRP  ORB.ENERGY      CENTERS/CHARGES
     1   1   -24.504896      F  1   2.000
     2   1    -0.992625      F  1   1.485   H  2   0.515
     3   1    -0.916916      F  1   2.000
     4   1    -0.404046      F  1   2.000
     5   1    -0.404046      F  1   2.000

 Localized orbitals saved to record      2201.2  (orbital set 4)


 **********************************************************************************************************************************
 DATASETS  * FILE   NREC   LENGTH (MB)   RECORD NAMES
              1      20       37.94       500      610      700      900      950      970     1000      129      960     1100   
                                          VAR    BASINP    GEOM    SYMINP    ZMAT    AOBASIS   BASIS     P2S    ABASIS      S 
                                         1400     1410     1200     1210     1080     1600     1650     1300     1700     1800   
                                           T        V       H0       H01     AOSYM     SMH    MOLCAS    ERIS     OPER     GRID   

              2       6        5.94       700     1000      520     2200     1800     2201   
                                         GEOM     BASIS   MCVARS     UHF     GRID      UKS  

 PROGRAMS   *        TOTAL      IBBA       UKS       UHF       INT
 CPU TIMES  *         9.37      0.01      0.42      8.07      0.71
 REAL TIME  *        10.65 SEC
 DISK USED  *        57.86 MB      
 **********************************************************************************************************************************

 IBBA/QZVP energy=      0.000000000000

        UKS-SCF         UHF-SCF 
   -100.45393090   -100.07026827
 **********************************************************************************************************************************
 Molpro calculation terminated
