
 Primary working directories    : /local
 Secondary working directories  : /local
 Wavefunction directory         : /local/
 Main file repository           : /local/

 SHA1      : b4a5b34a9e711420743f49e6833241d17c61fb3c
 NAME      : 2099.9.b4a5b34
 ARCHNAME  : linux/x86_64_openmp
 FC        : /cm/shared/languages/GCC-6.1/bin/gfortran
 BLASLIB   : -lblas
 id        : simonbennie

 Nodes     nprocs
 node32-007    1

 Using customized tuning parameters: mindgm=1; mindgv=20; mindgc=4; mindgr=1; noblas=0; minvec=7
 default implementation of scratch files=df  

 memory,500,m
 geomtyp=xyz
 nosym
 noorient
 geometry={
 F          0.00000        0.00000        0.00000
 H          0.00000        0.00000        0.91538
 }
 basis={ default,qzvp }
 {ks,PW91,direct;wf,10,1,0}
 {ibba,bonds=1}

 Variables initialized (895), CPU time= 0.00 sec
 Commands  initialized (725), CPU time= 0.01 sec, 591 directives.
 Default parameters read. Elapsed time= 0.08 sec

 Checking input...
 Passed
1


                                         ***  PROGRAM SYSTEM MOLPRO  ***
                                       Copyright, TTI GmbH Stuttgart, 2015
                                    Version 2099.9 linked May 26 2017 16:03:21


 **********************************************************************************************************************************
 LABEL *                                                                                 
  64 bit serial version                                                                  DATE: 20-Jun-17          TIME: 11:28:20  
 **********************************************************************************************************************************

 SHA1:             b4a5b34a9e711420743f49e6833241d17c61fb3c
 **********************************************************************************************************************************
 SETTING GEOMTYP        =    XYZ

 Variable memory set to  500000000 words,  buffer space 

 ZSYMEL=NOSYM

 SETTING BASIS          =    QZVP


 Recomputing integrals since basis changed


 Using spherical harmonics

 Library entry F      S def2-QZVP            selected for orbital group  1
 Library entry F      P def2-QZVP            selected for orbital group  1
 Library entry F      D def2-QZVP            selected for orbital group  1
 Library entry F      F def2-QZVP            selected for orbital group  1
 Library entry F      G def2-QZVP            selected for orbital group  1
 Library entry H      S def2-QZVP            selected for orbital group  2
 Library entry H      P def2-QZVP            selected for orbital group  2
 Library entry H      D def2-QZVP            selected for orbital group  2
 Library entry H      F def2-QZVP            selected for orbital group  2


 PROGRAM * SEWARD (Integral evaluation for generally contracted gaussian basis sets)     Author: Roland Lindh, 1990

 Geometry written to block  1 of record 700


 Point group  C1  



 ATOMIC COORDINATES

 NR  ATOM    CHARGE       X              Y              Z

   1  F       9.00    0.000000000    0.000000000    0.000000000
   2  H       1.00    0.000000000    0.000000000    1.729817500

 Bond lengths in Bohr (Angstrom)

 1-2  1.729817500
     ( 0.915380000)

 NUCLEAR CHARGE:                   10
 NUMBER OF PRIMITIVE AOS:         130
 NUMBER OF SYMMETRY AOS:          110
 NUMBER OF CONTRACTIONS:           87   (  87A   )
 NUMBER OF CORE ORBITALS:           1   (   1A   )
 NUMBER OF VALENCE ORBITALS:        5   (   5A   )


 NUCLEAR REPULSION ENERGY    5.20286100

 EXTRA SYMMETRY OF AOS IN SYMMETRY 1:   1 1 1 1 1 1 1 2 3 1   2 3 1 2 3 1 2 3 1 1   4 2 5 3 1 4 2 5 3 1   4 2 5 3 2 3 1 6 4 7
                                        5 2 3 1 6 4 7 5 1 4   2 8 3 5 9 6 7 1 1 1   1 2 3 1 2 3 1 2 3 1   1 4 2 5 3 1 4 2 5 3
                                        2 3 1 6 4 7 5

 Eigenvalues of metric

         1 0.502E-03 0.266E-02 0.511E-02 0.105E-01 0.126E-01 0.139E-01 0.139E-01 0.378E-01


 Contracted 2-electron integrals neglected if value below      1.0D-11
 AO integral compression algorithm  1   Integral accuracy      1.0D-11

     10.486 MB (compressed) written to integral file ( 14.9%)


 NUMBER OF SORTED TWO-ELECTRON INTEGRALS:    7328706.     BUFFER LENGTH:  32768
 NUMBER OF SEGMENTS:   1  SEGMENT LENGTH:    7328706      RECORD LENGTH: 524288

 Memory used in sort:       7.89 MW

 SORT1 READ     8948706. AND WROTE     1314946. INTEGRALS IN      4 RECORDS. CPU TIME:     0.04 SEC, REAL TIME:     0.06 SEC
 SORT2 READ     1314946. AND WROTE     7328706. INTEGRALS IN     40 RECORDS. CPU TIME:     0.19 SEC, REAL TIME:     0.20 SEC

 FILE SIZES:   FILE 1:    40.7 MBYTE,  FILE 4:    16.8 MBYTE,   TOTAL:     57.6 MBYTE

 OPERATOR DM      FOR CENTER  0  COORDINATES:    0.000000    0.000000    0.000000


 **********************************************************************************************************************************
 DATASETS  * FILE   NREC   LENGTH (MB)   RECORD NAMES
              1      19       37.67       500      610      700      900      950      970     1000      129      960     1100   
                                          VAR    BASINP    GEOM    SYMINP    ZMAT    AOBASIS   BASIS     P2S    ABASIS      S 
                                         1400     1410     1200     1210     1080     1600     1650     1300     1700   
                                           T        V       H0       H01     AOSYM     SMH    MOLCAS    ERIS     OPER   

 PROGRAMS   *        TOTAL       INT
 CPU TIMES  *         0.91      0.76
 REAL TIME  *         1.27 SEC
 DISK USED  *        57.86 MB      
 **********************************************************************************************************************************

 Density functional group PW91=PW91X+PW91C
 Functional: PW91X(Automatically generated (new) PW91X)                        Gradient terms: 1
 Functional: PW91C(Automatically generated (new) PW91C)                        Gradient terms: 1
 Use grid at  1800.2

 Functional: PW91X                     Factor:  1.0000
 Functional: PW91C                     Factor:  1.0000

 Generated new metagrid on record  1800.2 with target accuracy 1.0D-06 and 8346 points in CPU time    0.1
 Computed new grid on record 1800.1 in CPU time    0.1
   72978 words reserved for DFT integration

 PROGRAM * RKS-SCF (Restricted closed shell Kohn-Sham)     Authors: W. Meyer, H.-J. Werner, P.J. Knowles, 1993

 NUMBER OF ELECTRONS:       5+    5-    SPACE SYMMETRY=1    SPIN SYMMETRY: Singlet 
 CONVERGENCE THRESHOLDS:    1.00E-05 (Density)    1.00E-06 (Energy)
 MAX. NUMBER OF ITERATIONS:       60
 INTERPOLATION TYPE:            DIIS
 INTERPOLATION STEPS:              2 (START)      1 (STEP)
 LEVEL SHIFTS:                  0.00 (CLOSED)  0.00 (OPEN) 



 Use fine grid record 1800.2 for energy threshold  1.0D-06
 Orbital guess generated from atomic densities. Full valence occupancy:    5

 Molecular orbital dump at record        2100.2

 Initial occupancy:   5

 ITERATION    DDIFF          GRAD             ENERGY        2-EL.EN.            DIPOLE MOMENTS         DIIS   ORB.
    1      0.000D+00      0.000D+00      -100.43639403    114.521026   -0.00000   -0.00000    0.94462    0    start
    2      0.000D+00      0.115D-01      -100.34059009    104.668360   -0.00000   -0.00000    0.27514    1    diag
    3      0.620D-02      0.234D-01      -100.46944647    111.235802   -0.00000    0.00000    0.69131    2    diag
    4      0.404D-02      0.369D-03      -100.46947743    111.228920    0.00000   -0.00000    0.70668    3    diag
    5      0.210D-03      0.122D-03      -100.46948057    111.244705   -0.00000   -0.00000    0.70386    4    diag
    6      0.205D-04      0.153D-04      -100.46948063    111.249082    0.00000    0.00000    0.70415    5    diag
    7      0.360D-05      0.495D-06      -100.46948063    111.248918   -0.00000   -0.00000    0.70417    0    orth

 Final occupancy:   5

 !RKS STATE 1.1 Energy               -100.469480632759
 Nuclear energy                         5.20286100
 One-electron energy                 -150.50152012
 Two-electron energy                   55.62445899
 Density functional                   -10.79528050     PW91X=-10.43239828 PW91C= -0.36288222
 Virial quotient                       -1.00287606
 !RKS STATE 1.1 Dipole moment          -0.00000000    -0.00000000     0.70417102
 Dipole moment /Debye                  -0.00000000    -0.00000000     1.78970697

 Orbital energies:

         1.1          2.1          3.1          4.1          5.1          6.1          7.1
    -24.267015    -1.103721    -0.495393    -0.354443    -0.354443    -0.019074     0.239823

 HOMO      5.1    -0.354443 =      -9.6449eV
 LUMO      6.1    -0.019074 =      -0.5190eV
 LUMO-HOMO         0.335370 =       9.1259eV


 **********************************************************************************************************************************
 DATASETS  * FILE   NREC   LENGTH (MB)   RECORD NAMES
              1      20       37.94       500      610      700      900      950      970     1000      129      960     1100   
                                          VAR    BASINP    GEOM    SYMINP    ZMAT    AOBASIS   BASIS     P2S    ABASIS      S 
                                         1400     1410     1200     1210     1080     1600     1650     1300     1700     1800   
                                           T        V       H0       H01     AOSYM     SMH    MOLCAS    ERIS     OPER     GRID   

              2       5        2.92       700     1000      520     1800     2100   
                                         GEOM     BASIS   MCVARS    GRID      RKS  

 PROGRAMS   *        TOTAL        KS       INT
 CPU TIMES  *         2.22      1.31      0.76
 REAL TIME  *         2.63 SEC
 DISK USED  *        57.86 MB      
 **********************************************************************************************************************************


 PROGRAM * Intrinsic Basis Bonding Analysis (IBBA)          Author: G. Knizia

 Molecular orbitals read from record     2100.2  Type=RKS/CANONICAL (state 1.1)
 Fock matrix read from record            2100.2  Type=RKS/TOTAL (state 1.1)
 Orbital energies read from record       2100.2  Type=RKS/CANONICAL (state 1.1)
 Density matrix read from record         2100.2  Type=RKS/CHARGE (state 1.1)

 Number of core orbitals:           1 (   1 )
 Number of closed-shell orbitals:   4 (   4 )

 Basis set MINAO-AUTO-PP generated.      Number of basis functions:   6 

 Polarized AO type:                A = (O Ot + (1-O)(1-Ot)) P12
 Orthogonalization method:         Symmetric (Loewdin)
 Localization functional:          L = sum[A,i] <i|n_A|i>^4 -> max

 Localization group 1:   5 orbitals, occupancy  2.000
 Iterative localization: IB/PM,    3 iter; Final gradient 0.11E-15

 Bond order analysis:       [THRPRINT= 0.020]

   CEN ATOM   CEN ATOM     WIBERG.BO      RENORM.BO
     1   F  -   2   H       0.778585       1.000000

     2   H  -   1   F       0.778585       1.000000


 Valency analysis:

   CEN ATOM   TOT.VALENCE
     1   F       0.778585
     2   H       0.778585

 Total charge composition:

   CEN ATOM         s          p       ELECTRONS ->P.CHARGE
     1   F       3.83663    5.63392      9.47055   -0.47055
     2   H       0.52945                 0.52945    0.47055

 Total charge composition, AO contributions:

   CEN ATOM SHL      SPHERICAL COMPONENTS
     1   F  1s       1.99847
     1   F  2s       1.83816
     1   F  2p       2.00000    2.00000    1.63392

     2   H  1s       0.52945

 Summary of localized orbital composition:   [THRPRINT= 0.020]

   ORB  GRP  ORB.ENERGY      CENTERS/CHARGES
     1   1   -24.120735      F  1   2.000
     2   1    -0.912839      F  1   1.471   H  2   0.529
     3   1    -0.832554      F  1   2.000
     4   1    -0.354443      F  1   2.000
     5   1    -0.354443      F  1   2.000

 Localized orbitals saved to record      2100.2  (orbital set 2)


 **********************************************************************************************************************************
 DATASETS  * FILE   NREC   LENGTH (MB)   RECORD NAMES
              1      20       37.94       500      610      700      900      950      970     1000      129      960     1100   
                                          VAR    BASINP    GEOM    SYMINP    ZMAT    AOBASIS   BASIS     P2S    ABASIS      S 
                                         1400     1410     1200     1210     1080     1600     1650     1300     1700     1800   
                                           T        V       H0       H01     AOSYM     SMH    MOLCAS    ERIS     OPER     GRID   

              2       5        2.99       700     1000      520     1800     2100   
                                         GEOM     BASIS   MCVARS    GRID      RKS  

 PROGRAMS   *        TOTAL      IBBA        KS       INT
 CPU TIMES  *         2.24      0.02      1.31      0.76
 REAL TIME  *         2.67 SEC
 DISK USED  *        57.86 MB      
 **********************************************************************************************************************************
 Molecular orbitals read from record     2100.2  Type=RKS/LOCAL(IBO)  
 Occupation numbers read from record     2100.2  Type=RKS/LOCAL(IBO)  
 Orbital energies read from record       2100.2  Type=RKS/LOCAL(IBO)  
 Redundancy group numbers read from rec  2100.2  Type=RKS/LOCAL(IBO)  

 IBBA/QZVP energy=      0.000000000000

        KS-SCF  
   -100.46948063
 **********************************************************************************************************************************
 Molpro calculation terminated
