
 Primary working directories    : /local
 Secondary working directories  : /local
 Wavefunction directory         : /local/
 Main file repository           : /local/

 SHA1      : b4a5b34a9e711420743f49e6833241d17c61fb3c
 NAME      : 2099.9.b4a5b34
 ARCHNAME  : linux/x86_64_openmp
 FC        : /cm/shared/languages/GCC-6.1/bin/gfortran
 BLASLIB   : -lblas
 id        : simonbennie

 Nodes     nprocs
 node32-005    1

 Using customized tuning parameters: mindgm=1; mindgv=20; mindgc=4; mindgr=1; noblas=0; minvec=7
 default implementation of scratch files=df  

 memory,500,m
 geomtyp=xyz
 nosym
 noorient
 geometry={
 S          0.00000        0.00000        0.00000
 H          0.00000        0.00000        1.34020
 }
 basis={ default,avtz }
 {df-ks,M06-L,direct;disp;wf,17,1,1}
 {ibba,bonds=1}

 Variables initialized (895), CPU time= 0.01 sec
 Commands  initialized (725), CPU time= 0.01 sec, 591 directives.
 Default parameters read. Elapsed time= 0.08 sec

 Checking input...
 Passed
1


                                         ***  PROGRAM SYSTEM MOLPRO  ***
                                       Copyright, TTI GmbH Stuttgart, 2015
                                    Version 2099.9 linked May 26 2017 16:03:21


 **********************************************************************************************************************************
 LABEL *                                                                                 
  64 bit serial version                                                                  DATE: 13-Mar-18          TIME: 04:05:49  
 **********************************************************************************************************************************

 SHA1:             b4a5b34a9e711420743f49e6833241d17c61fb3c
 **********************************************************************************************************************************
 SETTING GEOMTYP        =    XYZ

 Variable memory set to  500000000 words,  buffer space 

 ZSYMEL=NOSYM

 SETTING BASIS          =    AVTZ


 Recomputing integrals since basis changed


 Using spherical harmonics

 Library entry S      S aug-cc-pVTZ          selected for orbital group  1
 Library entry S      P aug-cc-pVTZ          selected for orbital group  1
 Library entry S      D aug-cc-pVTZ          selected for orbital group  1
 Library entry S      F aug-cc-pVTZ          selected for orbital group  1
 Library entry H      S aug-cc-pVTZ          selected for orbital group  2
 Library entry H      P aug-cc-pVTZ          selected for orbital group  2
 Library entry H      D aug-cc-pVTZ          selected for orbital group  2


 PROGRAM * SEWARD (Integral evaluation for generally contracted gaussian basis sets)     Author: Roland Lindh, 1990

 Geometry written to block  1 of record 700


 Point group  C1  



 ATOMIC COORDINATES

 NR  ATOM    CHARGE       X              Y              Z

   1  S      16.00    0.000000000    0.000000000    0.000000000
   2  H       1.00    0.000000000    0.000000000    2.532610952

 Bond lengths in Bohr (Angstrom)

 1-2  2.532610952
     ( 1.340200000)

 NUCLEAR CHARGE:                   17
 NUMBER OF PRIMITIVE AOS:         111
 NUMBER OF SYMMETRY AOS:          100
 NUMBER OF CONTRACTIONS:           73   (  73A   )
 NUMBER OF CORE ORBITALS:           5   (   5A   )
 NUMBER OF VALENCE ORBITALS:        5   (   5A   )


 NUCLEAR REPULSION ENERGY    6.31759094

 EXTRA SYMMETRY OF AOS IN SYMMETRY 1:   1 1 1 1 1 1 2 3 1 2   3 1 2 3 1 2 3 1 2 3   1 1 4 2 5 3 1 4 2 5   3 1 4 2 5 3 2 3 1 6
                                        4 7 5 2 3 1 6 4 7 5   1 1 1 1 2 3 1 2 3 1   2 3 1 1 4 2 5 3 1 4   2 5 3

 Eigenvalues of metric

         1 0.282E-03 0.121E-02 0.401E-02 0.909E-02 0.128E-01 0.128E-01 0.166E-01 0.166E-01


 OPERATOR DM      FOR CENTER  0  COORDINATES:    0.000000    0.000000    0.000000


 **********************************************************************************************************************************
 DATASETS  * FILE   NREC   LENGTH (MB)   RECORD NAMES
              1      18       30.17       500      610      700      900      950      970     1000      129      960     1100   
                                          VAR    BASINP    GEOM    SYMINP    ZMAT    AOBASIS   BASIS     P2S    ABASIS      S 
                                         1400     1410     1200     1210     1080     1600     1650     1700   
                                           T        V       H0       H01     AOSYM     SMH    MOLCAS    OPER   

 PROGRAMS   *        TOTAL       INT
 CPU TIMES  *         0.30      0.16
 REAL TIME  *         0.55 SEC
 DISK USED  *        30.47 MB      
 **********************************************************************************************************************************

 Density functional group M06-L=XC-M06-L
 Functional: XC-M06-L(via MFM 1.6)                                             Gradient terms: 1

 dispersion correction activated
 Density functional: M06-L   
 functional not in list, set to default 

 Functional: XC-M06-L                  Factor:  1.0000

 Use grid at  1800.2

 Functional: XC-M06-L                  Factor:  1.0000

 Generated new metagrid on record  1800.2 with target accuracy 1.0D-06 and 9940 points in CPU time    0.1
 Computed new grid on record 1800.1 in CPU time    0.2
   62314 words reserved for DFT integration

 PROGRAM * RKS-SCF (Restricted open shell Kohn-Sham)     Authors: W. Meyer, H.-J. Werner, P.J. Knowles, 1993

 NUMBER OF ELECTRONS:       9+    8-    SPACE SYMMETRY=1    SPIN SYMMETRY: Doublet 
 CONVERGENCE THRESHOLDS:    1.00E-05 (Density)    1.00E-06 (Energy)
 INTEGRAL THRESHOLDS:       1.00E-11 (Initial)    1.00E-11 (Final)
 MAX. NUMBER OF ITERATIONS:       60
 INTERPOLATION TYPE:            DIIS
 INTERPOLATION STEPS:              2 (START)      1 (STEP)
 LEVEL SHIFTS:                 -0.60 (CLOSED) -0.30 (OPEN) 



 Use fine grid record 1800.2 for energy threshold  1.0D-06

 Basis set AUG-CC-PVTZ/JKFIT generated.  Number of basis functions:   192 
 Coulomb fitting
 Screening thresholds:    THRAO_COUL= 1.0D-14    THRAO= 1.0D-12    THROV= 1.0D-12

 Reserved 1 MW to cache 100.0% of significant integrals. CPU: 0.0 sec

 Orbital guess generated from atomic densities. Full valence occupancy:   10
 Using density fitting in orbital guess


 Molecular orbital dump at record        2100.2

 Initial alpha occupancy:   9
 Initial beta  occupancy:   8
 Wave function symmetry:    1

 ITERATION   DDIFF            GRAD            ENERGY        2-EL.EN.            DIPOLE MOMENTS         DIIS   CPU(IT)  CPU(TOT)  ORB.
    1      0.000D+00      0.000D+00      -398.74517786    369.101526    0.00000   -0.00000    0.37676    0      0.6      0.9     start
    2      0.000D+00      0.238D-02      -398.74936617    367.691504    0.00000   -0.00000    0.30573    1      0.6      1.5     diag,B
    3      0.930D-02      0.665D-03      -398.74968973    367.791062   -0.00000   -0.00000    0.30756    2      0.6      2.1     diag,B
    4      0.219D-02      0.237D-03      -398.74978240    367.719976   -0.00000   -0.00000    0.30530    3      0.6      2.7     diag,B
    5      0.119D-02      0.113D-03      -398.74981650    367.689148   -0.00000   -0.00000    0.30606    4      0.6      3.2     diag,B
    6      0.696D-03      0.392D-04      -398.74982149    367.679830   -0.00000   -0.00000    0.30680    5      0.6      3.8     diag,B
    7      0.156D-03      0.122D-04      -398.74982196    367.677393   -0.00000   -0.00000    0.30698    6      0.6      4.4     fixocc
    8      0.580D-04      0.276D-05      -398.74982198    367.677280   -0.00000   -0.00000    0.30696    7      0.6      5.0     diag,B
    9      0.108D-04      0.614D-06      -398.74982198    367.677291   -0.00000   -0.00000    0.30696    8      0.6      5.6     diag,B
   10      0.444D-05      0.171D-06      -398.74982198    367.677288   -0.00000   -0.00000    0.30696    0      0.6      6.1     orth

 Dispersion correction
 - - - - - - - - - - - 
  _________________________________
                                   
 |         DFTD3 V1.3 Rev 1        |
 | S.Grimme, University Muenster   |
 | Fri Jul  2 12:48:21 CEST 2010   |
  _________________________________

 Please cite DFT-D3 work done with this code as:
 S. Grimme, J. Antony, S. Ehrlich and H. Krieg,
 J. Chem. Phys, 132 (2010), 154104.
 For DFT-D2 the reference is
 S. Grimme, J. Comput. Chem., 27 (2006), 1787-1799

 C6 coefficients used:
                    2  C6 for element                     1
 Z=  1 CN=   0.912     C6(AA)=    3.03
 Z=  1 CN=   0.000     C6(AA)=    7.59
                    3  C6 for element                    16
 Z= 16 CN=   0.000     C6(AA)=  134.01
 Z= 16 CN=   0.995     C6(AA)=  131.00
 Z= 16 CN=   1.990     C6(AA)=  125.81

 #           XYZ [au]               R0(AA) [Ang.]   CN       C6(AA)     C8(AA)   C10(AA) [au]
  1   0.00000   0.00000   0.00000   s   1.655  0.995       131.0      6415.7    385030.4
  2   0.00000   0.00000   2.53261   h   1.091  0.995         3.1        37.4       553.6

 molecular C6(AA) [au] =       174.22

           DFT-D V3
 DF pbe                                               
 parameters
 s6       :    1.0000
 s8       :    0.7220
 rs6      :    1.2170
 alpha6   :   14.0000
 alpha8   :   16.0000
 k1-k3    :   16.0000    1.3333   -4.0000

 Edisp /kcal,au:    -0.0005 -0.00000084

 E6    /kcal :    -0.0000
 E8    /kcal :    -0.0005
 % E8        : 91.81
 normal termination of dftd3

 RKS STATE 1.1 ENERGY+DISP     -398.74982282

 Final alpha occupancy:   9
 Final beta  occupancy:   8

 !RKS STATE 1.1 Energy               -398.749822818699
 Nuclear energy                         6.31759094
 One-electron energy                 -562.89527273
 Two-electron energy                  183.83864408
 Density functional                   -26.01078427     XC-M06-L=-26.01078427
 Virial quotient                       -1.00209261
 !RKS STATE 1.1 Dipole moment          -0.00000000    -0.00000000     0.30695542
 Dipole moment /Debye                  -0.00000000    -0.00000000     0.78015175

 Orbital energies:

         1.1          2.1          3.1          4.1          5.1          6.1          7.1          8.1          9.1         10.1
    -88.574397    -7.921798    -5.835350    -5.830272    -5.820980    -0.682336    -0.379264    -0.241176    -0.290818    -0.012384

        11.1
      0.031574

 HOMO      9.1    -0.290818 =      -7.9136eV
 LUMO     10.1    -0.012384 =      -0.3370eV
 LUMO-HOMO         0.278434 =       7.5766eV


 **********************************************************************************************************************************
 DATASETS  * FILE   NREC   LENGTH (MB)   RECORD NAMES
              1      19       30.49       500      610      700      900      950      970     1000      129      960     1100   
                                          VAR    BASINP    GEOM    SYMINP    ZMAT    AOBASIS   BASIS     P2S    ABASIS      S 
                                         1400     1410     1200     1210     1080     1600     1650     1700     1800   
                                           T        V       H0       H01     AOSYM     SMH    MOLCAS    OPER     GRID   

              2       5        2.93       700     1000      520     1800     2100   
                                         GEOM     BASIS   MCVARS    GRID      RKS  

 PROGRAMS   *        TOTAL        KS       INT
 CPU TIMES  *         6.60      6.30      0.16
 REAL TIME  *         7.20 SEC
 DISK USED  *        34.45 MB      
 **********************************************************************************************************************************


 PROGRAM * Intrinsic Basis Bonding Analysis (IBBA)          Author: G. Knizia

 Molecular orbitals read from record     2100.2  Type=RKS/CANONICAL (state 1.1)
 Fock matrix read from record            2100.2  Type=RKS/TOTAL (state 1.1)
 Orbital energies read from record       2100.2  Type=RKS/CANONICAL (state 1.1)
 Density matrix read from record         2100.2  Type=RKS/CHARGE (state 1.1)

 Number of core orbitals:           5 (   5 )
 Number of closed-shell orbitals:   3 (   3 )
 Number of active  orbitals:        1 (   1 )

 Basis set MINAO-AUTO-PP generated.      Number of basis functions:   10 

 Polarized AO type:                A = (O Ot + (1-O)(1-Ot)) P12
 Orthogonalization method:         Symmetric (Loewdin)
 Localization functional:          L = sum[A,i] <i|n_A|i>^4 -> max

 Localization group 1:   8 orbitals, occupancy  2.000
 Iterative localization: IB/PM,    3 iter; Final gradient 0.68E-14

 Bond order analysis:       [THRPRINT= 0.020]

   CEN ATOM   CEN ATOM     WIBERG.BO      RENORM.BO
     1   S  -   2   H       0.986697       1.000000

     2   H  -   1   S       0.986697       1.000000


 Valency analysis:

   CEN ATOM   TOT.VALENCE
     1   S       0.986697
     2   H       0.986697
 Localization group 2:   1 orbitals, occupancy  1.000
 Iterative localization: IB/PM,    1 iter; Final gradient 0.00E+00

 Bond order analysis:       [THRPRINT= 0.020]

   CEN ATOM   CEN ATOM     WIBERG.BO      RENORM.BO



 Valency analysis:

   CEN ATOM   TOT.VALENCE
     1   S       0.000000
     2   H       0.000000

 Total charge composition:

   CEN ATOM         s          p       ELECTRONS ->P.CHARGE
     1   S       5.84195   10.27339     16.11534   -0.11534
     2   H       0.88466                 0.88466    0.11534

 Total charge composition, AO contributions:

   CEN ATOM SHL      SPHERICAL COMPONENTS
     1   S  1s       1.99995
     1   S  2s       1.99667
     1   S  3s       1.84533
     1   S  2p       2.00000    1.99999    1.99944
     1   S  3p       1.96296    1.03705    1.27395

     2   H  1s       0.88466

 Active orbital charges:

   CEN ATOM         s          p       ELECTRONS ->SPIN.DEN
     1   S       0.00000    1.00000      1.00000    1.00000
     2   H       0.00000                 0.00000    0.00000

 Active orbital charges, AO contributions:

   CEN ATOM SHL      SPHERICAL COMPONENTS
     1   S  1s       0.00000
     1   S  2s       0.00000
     1   S  3s       0.00000
     1   S  2p       0.00000    0.00001    0.00000
     1   S  3p       0.03704    0.96295    0.00000

     2   H  1s       0.00000

 Summary of localized orbital composition:   [THRPRINT= 0.020]

   ORB  GRP  ORB.ENERGY      CENTERS/CHARGES
     1   1   -87.415796      S  1   2.000
     2   1    -8.438622      S  1   2.000
     3   1    -6.357785      S  1   2.000
     4   1    -5.835350      S  1   2.000
     5   1    -5.820980      S  1   2.000
     6   1    -0.608564      S  1   2.000
     7   1    -0.567300      S  1   1.115   H  2   0.885
     8   1    -0.241176      S  1   2.000
     9   2    -0.246482      S  1   1.000

 Localized orbitals saved to record      2100.2  (orbital set 2)


 **********************************************************************************************************************************
 DATASETS  * FILE   NREC   LENGTH (MB)   RECORD NAMES
              1      19       30.49       500      610      700      900      950      970     1000      129      960     1100   
                                          VAR    BASINP    GEOM    SYMINP    ZMAT    AOBASIS   BASIS     P2S    ABASIS      S 
                                         1400     1410     1200     1210     1080     1600     1650     1700     1800   
                                           T        V       H0       H01     AOSYM     SMH    MOLCAS    OPER     GRID   

              2       5        2.97       700     1000      520     1800     2100   
                                         GEOM     BASIS   MCVARS    GRID      RKS  

 PROGRAMS   *        TOTAL      IBBA        KS       INT
 CPU TIMES  *         6.62      0.02      6.30      0.16
 REAL TIME  *         7.22 SEC
 DISK USED  *        34.45 MB      
 **********************************************************************************************************************************

 IBBA/aug-cc-pVTZ energy=      0.000000000000

        DF-KS   
   -398.74982282
 **********************************************************************************************************************************
 Molpro calculation terminated
