
 Primary working directories    : /local/molpro.zfqO8IWKpf
 Secondary working directories  : /local/molpro.zfqO8IWKpf
 Wavefunction directory         : /local/
 Main file repository           : /local/molpro.zfqO8IWKpf/

 id        : simonbennie

 Nodes     nprocs
 node33-007    1

 Using customized tuning parameters: mindgm=1; mindgv=20; mindgc=4; mindgr=1; noblas=0; minvec=7
 default implementation of scratch files=df  

 memory,500,m
 geomtyp=xyz
 nosym
 noorient
 geometry={
 S          0.00000        0.00000        0.00000
 H          0.00000        0.00000        1.34020
 }
 basis={default,sto-3g}
 {hf,direct;wf,17,1,1}
 
 basis={ default,6-31+G(d,p) }
 {ks,PBE0MOL,direct;wf,17,1,1}
 {ibba,bonds=1}

 Variables initialized (920), CPU time= 0.01 sec
 Commands  initialized (754), CPU time= 0.01 sec, 615 directives.
 Default parameters read. Elapsed time= 0.15 sec

 Checking input...
 Passed
1


                                         ***  PROGRAM SYSTEM MOLPRO  ***
                                       Copyright, TTI GmbH Stuttgart, 2015
                                    Version 2018.0 linked Jul  6 2018 18:07:13


 **********************************************************************************************************************************
 LABEL *                                                                                 
  64 bit serial version                                                                  DATE: 11-Oct-18          TIME: 10:33:04  
 **********************************************************************************************************************************

 SHA1:             b58f8fddb9d75525be9261ebe3faf0e4279c479b
 **********************************************************************************************************************************
 SETTING GEOMTYP        =    XYZ

 Variable memory set to  500000000 words,  buffer space 

 ZSYMEL=NOSYM

 SETTING BASIS          =    STO-3G


 Recomputing integrals since basis changed


 Using spherical harmonics

 Library entry S      S STO-3G               selected for orbital group  1
 Library entry S      P STO-3G               selected for orbital group  1
 Library entry H      S STO-3G               selected for orbital group  2


 PROGRAM * SEWARD (Integral evaluation for generally contracted gaussian basis sets)     Author: Roland Lindh, 1990

 Geometry written to block  1 of record 700


 Point group  C1  



 ATOMIC COORDINATES

 NR  ATOM    CHARGE       X              Y              Z

   1  S      16.00    0.000000000    0.000000000    0.000000000
   2  H       1.00    0.000000000    0.000000000    2.532610952

 Bond lengths in Bohr (Angstrom)

 1-2  2.532610952
     ( 1.340200000)

 NUCLEAR CHARGE:                   17
 NUMBER OF PRIMITIVE AOS:          30
 NUMBER OF SYMMETRY AOS:           30
 NUMBER OF CONTRACTIONS:           10   (  10A   )
 NUMBER OF CORE ORBITALS:           5   (   5A   )
 NUMBER OF VALENCE ORBITALS:        5   (   5A   )


 NUCLEAR REPULSION ENERGY    6.31759094

 EXTRA SYMMETRY OF AOS IN SYMMETRY 1:   1 1 1 2 3 1 2 3 1 1

 Eigenvalues of metric

         1 0.375E+00 0.613E+00 0.743E+00 0.743E+00 0.842E+00 0.112E+01 0.126E+01 0.126E+01


 Contracted 2-electron integrals neglected if value below      1.0D-11
 AO integral compression algorithm  1   Integral accuracy      1.0D-11

     0.262 MB (compressed) written to integral file ( 60.4%)


 NUMBER OF SORTED TWO-ELECTRON INTEGRALS:       1540.     BUFFER LENGTH:  32768
 NUMBER OF SEGMENTS:   1  SEGMENT LENGTH:       1540      RECORD LENGTH: 524288

 Memory used in sort:       0.56 MW

 SORT1 READ        2755. AND WROTE         406. INTEGRALS IN      1 RECORDS. CPU TIME:     0.00 SEC, REAL TIME:     0.01 SEC
 SORT2 READ         406. AND WROTE        1540. INTEGRALS IN      1 RECORDS. CPU TIME:     0.00 SEC, REAL TIME:     0.00 SEC

 FILE SIZES:   FILE 1:    30.2 MBYTE,  FILE 4:     4.2 MBYTE,   TOTAL:     34.4 MBYTE

 OPERATOR DM      FOR CENTER  0  COORDINATES:    0.000000    0.000000    0.000000


 **********************************************************************************************************************************
 DATASETS  * FILE   NREC   LENGTH (MB)   RECORD NAMES
              1      19       29.96       500      610      700      900      950      970     1000      129      960     1100   
                                          VAR    BASINP    GEOM    SYMINP    ZMAT    AOBASIS   BASIS     P2S    ABASIS      S 
                                         1400     1410     1200     1210     1080     1600     1650     1300     1700   
                                           T        V       H0       H01     AOSYM     SMH    MOLCAS    ERIS     OPER   

 PROGRAMS   *        TOTAL       INT
 CPU TIMES  *         0.42      0.28
 REAL TIME  *         0.88 SEC
 DISK USED  *        34.72 MB
 **********************************************************************************************************************************


 PROGRAM * RHF-SCF (OPEN SHELL)       Authors: W. Meyer, H.-J. Werner


 NUMBER OF ELECTRONS:       9+    8-    SPACE SYMMETRY=1    SPIN SYMMETRY: Doublet 
 CONVERGENCE THRESHOLDS:    1.00E-05 (Density)    1.00E-07 (Energy)
 INTEGRAL THRESHOLDS:       1.00E-11 (Initial)    1.00E-11 (Final)
 MAX. NUMBER OF ITERATIONS:       60
 INTERPOLATION TYPE:            DIIS
 INTERPOLATION STEPS:              2 (START)      1 (STEP)
 LEVEL SHIFTS:                 -0.60 (CLOSED) -0.30 (OPEN) 



 Orbital guess generated from atomic densities. Full valence occupancy:    9

 Molecular orbital dump at record        2100.2

 Initial alpha occupancy:   9
 Initial beta  occupancy:   8
 Wave function symmetry:    1

 Direct Fock-matrix evaluation.        Author: H.-J. Werner (1996)

 Integral Threshold:                  0.1D-10

 ITERATION   DDIFF            GRAD            ENERGY        2-EL.EN.            DIPOLE MOMENTS         DIIS   CPU(IT)  CPU(TOT)
    1      0.000D+00      0.000D+00      -393.68209737    323.347879   -0.00000    0.00000    0.89949    0      0.8      1.6     start
    2      0.000D+00      0.282D-01      -393.70457210    322.053419   -0.00000    0.00000    0.54379    1      0.4      2.0     diag,B
    3      0.363D-01      0.115D-01      -393.70946690    321.255850   -0.00000   -0.00000    0.29616    2      0.4      2.4     diag,B
    4      0.249D-01      0.126D-02      -393.70951804    321.195316   -0.00000   -0.00000    0.26976    3      0.4      2.8     diag,B
    5      0.271D-02      0.209D-03      -393.70951959    321.194866   -0.00000   -0.00000    0.26710    4      0.4      3.3     diag,B
    6      0.474D-03      0.194D-04      -393.70951961    321.195545   -0.00000   -0.00000    0.26712    5      0.4      3.7     diag,B
    7      0.347D-04      0.517D-06      -393.70951961    321.195528   -0.00000   -0.00000    0.26712    6      0.4      4.1     fixocc
    8      0.656D-06      0.698D-08      -393.70951961    321.195528   -0.00000    0.00000    0.26712    0      0.4      4.5     orth

 Final alpha occupancy:   9
 Final beta  occupancy:   8

 !RHF STATE  1.1 Energy              -393.709519605561
 Nuclear energy                         6.31759094
 One-electron energy                 -560.62487459
 Two-electron energy                  160.59776404
 Virial quotient                       -1.01099849
 !RHF STATE  1.1 Dipole moment         -0.00000000     0.00000000     0.26711589
 Dipole moment /Debye                  -0.00000000     0.00000000     0.67889639

 Orbital energies:

         1.1          2.1          3.1          4.1          5.1          6.1          7.1          8.1          9.1         10.1
    -90.698619    -8.611659    -6.242523    -6.242154    -6.238027    -0.827199    -0.422474    -0.260872    -0.342291     0.497636


 HOMO      9.1    -0.342291 =      -9.3142eV
 LUMO     10.1     0.497636 =      13.5414eV
 LUMO-HOMO         0.839927 =      22.8556eV


 **********************************************************************************************************************************
 DATASETS  * FILE   NREC   LENGTH (MB)   RECORD NAMES
              1      19       29.96       500      610      700      900      950      970     1000      129      960     1100   
                                          VAR    BASINP    GEOM    SYMINP    ZMAT    AOBASIS   BASIS     P2S    ABASIS      S 
                                         1400     1410     1200     1210     1080     1600     1650     1300     1700   
                                           T        V       H0       H01     AOSYM     SMH    MOLCAS    ERIS     OPER   

              2       4        2.76       700     1000      520     2100   
                                         GEOM     BASIS   MCVARS     RHF  

 PROGRAMS   *        TOTAL    HF-SCF       INT
 CPU TIMES  *         4.92      4.50      0.28
 REAL TIME  *         9.66 SEC
 DISK USED  *        34.72 MB
 **********************************************************************************************************************************
 SETTING BASIS          =    6-31+G(D,P)


 Recomputing integrals since basis changed


 Using spherical harmonics

 Library entry S      S 6-31G                selected for orbital group  1
 Library entry S      S 6-31++G              selected for orbital group  1
 Library entry S      P 6-31G                selected for orbital group  1
 Library entry S      P 6-31++G              selected for orbital group  1
 Library entry S      D 6-31G*               selected for orbital group  1
 Library entry H      S 6-31G                selected for orbital group  2
 Library entry H      P 6-31G**              selected for orbital group  2


 PROGRAM * SEWARD (Integral evaluation for generally contracted gaussian basis sets)     Author: Roland Lindh, 1990

 Geometry written to block  1 of record 700


 Point group  C1  



 ATOMIC COORDINATES

 NR  ATOM    CHARGE       X              Y              Z

   1  S      16.00    0.000000000    0.000000000    0.000000000
   2  H       1.00    0.000000000    0.000000000    2.532610952

 Bond lengths in Bohr (Angstrom)

 1-2  2.532610952
     ( 1.340200000)

 NUCLEAR CHARGE:                   17
 NUMBER OF PRIMITIVE AOS:          63
 NUMBER OF SYMMETRY AOS:           62
 NUMBER OF CONTRACTIONS:           27   (  27A   )
 NUMBER OF CORE ORBITALS:           5   (   5A   )
 NUMBER OF VALENCE ORBITALS:        5   (   5A   )


 NUCLEAR REPULSION ENERGY    6.31759094

 EXTRA SYMMETRY OF AOS IN SYMMETRY 1:   1 1 1 1 1 2 3 1 2 3   1 2 3 1 2 3 1 1 4 2   5 3 1 1 2 3 1

 Eigenvalues of metric

         1 0.457E-01 0.837E-01 0.153E+00 0.153E+00 0.162E+00 0.296E+00 0.455E+00 0.611E+00


 Contracted 2-electron integrals neglected if value below      1.0D-11
 AO integral compression algorithm  1   Integral accuracy      1.0D-11

     0.262 MB (compressed) written to integral file ( 40.8%)


 NUMBER OF SORTED TWO-ELECTRON INTEGRALS:      71631.     BUFFER LENGTH:  32768
 NUMBER OF SEGMENTS:   1  SEGMENT LENGTH:      71631      RECORD LENGTH: 524288

 Memory used in sort:       0.63 MW

 SORT1 READ      102438. AND WROTE       15218. INTEGRALS IN      1 RECORDS. CPU TIME:     0.00 SEC, REAL TIME:     0.01 SEC
 SORT2 READ       15218. AND WROTE       71631. INTEGRALS IN      1 RECORDS. CPU TIME:     0.01 SEC, REAL TIME:     0.01 SEC

 FILE SIZES:   FILE 1:    30.3 MBYTE,  FILE 4:     4.2 MBYTE,   TOTAL:     34.5 MBYTE

 OPERATOR DM      FOR CENTER  0  COORDINATES:    0.000000    0.000000    0.000000


 **********************************************************************************************************************************
 DATASETS  * FILE   NREC   LENGTH (MB)   RECORD NAMES
              1      19       30.10       500      610      700      900      950      970     1001      129      960     1100   
                                          VAR    BASINP    GEOM    SYMINP    ZMAT    AOBASIS   BASIS     P2S    ABASIS      S 
                                         1400     1410     1200     1210     1080     1600     1650     1300     1700   
                                           T        V       H0       H01     AOSYM     SMH    MOLCAS    ERIS     OPER   

              2       5        2.78       700     1000      520     2100     1001   
                                         GEOM     BASIS   MCVARS     RHF     BASIS   

 PROGRAMS   *        TOTAL       INT    HF-SCF       INT
 CPU TIMES  *         5.15      0.23      4.50      0.28
 REAL TIME  *         9.95 SEC
 DISK USED  *        37.30 MB
 **********************************************************************************************************************************

 Density functional group PBE0MOL=PBEX+PW91C
 Functional: PBEX(Automatically generated (new) PBEX)                          Gradient terms: 1
 Functional: PW91C(Automatically generated (new) PW91C)                        Gradient terms: 1
 Use libxcgrid:  F
 Use grid at  1800.2


 Exact exchange will be calculated, factor:  0.2500

 Functional: PBEX                      Factor:  0.7500
 Functional: PW91C                     Factor:  1.0000

 Generated new metagrid on record  1800.2 with target accuracy 1.0D-06 and 9524 points in CPU time    0.1
 Computed new grid on record 1800.1 in CPU time    0.1
   25467 words reserved for DFT integration

 PROGRAM * RKS-SCF (Restricted open shell Kohn-Sham)     Authors: W. Meyer, H.-J. Werner, P.J. Knowles, 1993

 NUMBER OF ELECTRONS:       9+    8-    SPACE SYMMETRY=1    SPIN SYMMETRY: Doublet 
 CONVERGENCE THRESHOLDS:    1.00E-05 (Density)    1.00E-06 (Energy)
 MAX. NUMBER OF ITERATIONS:       60
 INTERPOLATION TYPE:            DIIS
 INTERPOLATION STEPS:              2 (START)      1 (STEP)
 LEVEL SHIFTS:                 -0.60 (CLOSED) -0.30 (OPEN) 



 Use fine grid record 1800.2 for energy threshold  1.0D-06
 Molecular orbitals read from record     2100.2  Type=RHF/CANONICAL (state 1.1)

 Present basis size:      27
 Previous basis size:     10
 Previous occupation:      9
 Previous closed-shells:   8
 Previous core-orbitals:   5
 Present occupation:       9
 Present closed-shells:    8
 Present core-orbitals:    5
 Wavefunction symmetry:    1   Doublet 

 Orbital overlap <old|new>:  < 1.1| 1.1> = 0.999836   < 2.1| 2.1> = 0.999153   < 3.1| 3.1> = 0.998701   < 4.1| 4.1> = 0.998684
                             < 5.1| 5.1> = 0.998682   < 6.1| 6.1> = 0.999253   < 7.1| 7.1> = 0.999503   < 8.1| 8.1> = 0.999593
                             < 9.1| 9.1> = 0.999591


 Molecular orbital dump at record        2101.2

 ITERATION    DDIFF          GRAD             ENERGY        2-EL.EN.            DIPOLE MOMENTS         DIIS   ORB.
    1      0.000D+00      0.000D+00      -398.44347630    362.859514   -0.00000   -0.00000    0.25983    0    start
    2      0.000D+00      0.356D-01      -398.61253210    356.177711   -0.00000    0.00000    0.14976    1    diag,B
    3      0.460D-01      0.695D-02      -398.63012120    355.403549   -0.00000   -0.00000    0.29709    2    diag,B
    4      0.137D-01      0.292D-02      -398.63499225    354.966489    0.00000   -0.00000    0.39273    3    diag,B
    5      0.904D-02      0.979D-03      -398.63576321    354.878313    0.00000   -0.00000    0.42954    4    diag,B
    6      0.362D-02      0.350D-03      -398.63587822    354.832128    0.00000   -0.00000    0.43877    5    diag,B
    7      0.158D-02      0.936D-04      -398.63588545    354.824756    0.00000   -0.00000    0.43937    6    diag,B
    8      0.446D-03      0.197D-04      -398.63588572    354.823619    0.00000   -0.00000    0.43893    7    orth
    9      0.778D-04      0.565D-05      -398.63588574    354.823800    0.00000    0.00000    0.43868    8    diag,B
   10      0.208D-04      0.162D-05      -398.63588574    354.823781    0.00000   -0.00000    0.43862    9    diag,B
   11      0.553D-05      0.478D-06      -398.63588574    354.823789    0.00000   -0.00000    0.43861    0    orth

 Final alpha occupancy:   9
 Final beta  occupancy:   8

 !RKS STATE  1.1 Energy              -398.635885738327
 Nuclear energy                         6.31759094
 One-electron energy                 -562.77621578
 Two-electron energy                  177.41189449
 Density functional                   -19.58915538     PBEX=-25.20751486 PW91C= -0.68351924
 Virial quotient                       -1.00166170
 !RKS STATE  1.1 Dipole moment          0.00000000    -0.00000000     0.43860985
 Dipole moment /Debye                   0.00000000    -0.00000000     1.11476203

 Orbital energies:

         1.1          2.1          3.1          4.1          5.1          6.1          7.1          8.1          9.1         10.1
    -89.065638    -8.036949    -5.975541    -5.972567    -5.963777    -0.741497    -0.421987    -0.281153    -0.337960     0.002299

        11.1
      0.061990


 HOMO      9.1    -0.337960 =      -9.1964eV
 LUMO     10.1     0.002299 =       0.0626eV
 LUMO-HOMO         0.340259 =       9.2589eV


 **********************************************************************************************************************************
 DATASETS  * FILE   NREC   LENGTH (MB)   RECORD NAMES
              1      20       30.41       500      610      700      900      950      970     1001      129      960     1100   
                                          VAR    BASINP    GEOM    SYMINP    ZMAT    AOBASIS   BASIS     P2S    ABASIS      S 
                                         1400     1410     1200     1210     1080     1600     1650     1300     1700     1800   
                                           T        V       H0       H01     AOSYM     SMH    MOLCAS    ERIS     OPER     GRID   

              2       7        5.28       700     1000      520     2100     1001     1800     2101   
                                         GEOM     BASIS   MCVARS     RHF     BASIS    GRID      RKS  

 PROGRAMS   *        TOTAL    KS-SCF       INT    HF-SCF       INT
 CPU TIMES  *         5.74      0.59      0.23      4.50      0.28
 REAL TIME  *        10.58 SEC
 DISK USED  *        37.30 MB
 **********************************************************************************************************************************


 PROGRAM * Intrinsic Basis Bonding Analysis (IBBA)          Author: G. Knizia

 Molecular orbitals read from record     2101.2  Type=RKS/CANONICAL (state 1.1)
 Fock matrix read from record            2101.2  Type=RKS/TOTAL (state 1.1)
 Orbital energies read from record       2101.2  Type=RKS/CANONICAL (state 1.1)
 Density matrix read from record         2101.2  Type=RKS/CHARGE (state 1.1)

 Number of core orbitals:           5 (   5 )
 Number of closed-shell orbitals:   3 (   3 )
 Number of active  orbitals:        1 (   1 )

 Basis set MINAO-AUTO-PP generated.      Number of basis functions:   10 

 Polarized AO type:                A = (O Ot + (1-O)(1-Ot)) P12
 Orthogonalization method:         Symmetric (Loewdin)
 Localization functional:          L = sum[A,i] <i|n_A|i>^4 -> max

 Localization group 1:   8 orbitals, occupancy  2.000
 Iterative localization: IB/PM,    3 iter; Final gradient 0.12E-14

 Bond order analysis:       [THRPRINT= 0.020]

   CEN ATOM   CEN ATOM     WIBERG.BO      RENORM.BO
     1   S  -   2   H       0.988096       1.000000

     2   H  -   1   S       0.988096       1.000000


 Valency analysis:

   CEN ATOM   TOT.VALENCE
     1   S       0.988096
     2   H       0.988096
 Localization group 2:   1 orbitals, occupancy  1.000
 Iterative localization: IB/PM,    1 iter; Final gradient 0.00E+00

 Bond order analysis:       [THRPRINT= 0.020]

   CEN ATOM   CEN ATOM     WIBERG.BO      RENORM.BO



 Valency analysis:

   CEN ATOM   TOT.VALENCE
     1   S       0.000000
     2   H       0.000000

 Total charge composition:

   CEN ATOM         s          p       ELECTRONS ->P.CHARGE
     1   S       5.84488   10.26422     16.10910   -0.10910
     2   H       0.89090                 0.89090    0.10910

 Total charge composition, AO contributions:

   CEN ATOM SHL      SPHERICAL COMPONENTS
     1   S  1s       1.99995
     1   S  2s       1.99686
     1   S  3s       1.84808
     1   S  2p       2.00000    1.99999    1.99947
     1   S  3p       1.99220    1.00781    1.26475

     2   H  1s       0.89090

 Active orbital charges:

   CEN ATOM         s          p       ELECTRONS ->SPIN.DEN
     1   S       0.00000    1.00000      1.00000    1.00000
     2   H       0.00000                 0.00000    0.00000

 Active orbital charges, AO contributions:

   CEN ATOM SHL      SPHERICAL COMPONENTS
     1   S  1s       0.00000
     1   S  2s       0.00000
     1   S  3s       0.00000
     1   S  2p       0.00000    0.00001    0.00000
     1   S  3p       0.00780    0.99219    0.00000

     2   H  1s       0.00000

 Summary of localized orbital composition:   [THRPRINT= 0.020]

   ORB  GRP  ORB.ENERGY      CENTERS/CHARGES
     1   1   -87.907444      S  1   2.000
     2   1    -8.563660      S  1   2.000
     3   1    -6.492420      S  1   2.000
     4   1    -5.975540      S  1   2.000
     5   1    -5.963777      S  1   2.000
     6   1    -0.654970      S  1   2.000
     7   1    -0.620142      S  1   1.109   H  2   0.891
     8   1    -0.281153      S  1   2.000
     9   2    -0.253486      S  1   1.000

 Localized orbitals saved to record      2101.2  (orbital set 2)


 **********************************************************************************************************************************
 DATASETS  * FILE   NREC   LENGTH (MB)   RECORD NAMES
              1      20       30.41       500      610      700      900      950      970     1001      129      960     1100   
                                          VAR    BASINP    GEOM    SYMINP    ZMAT    AOBASIS   BASIS     P2S    ABASIS      S 
                                         1400     1410     1200     1210     1080     1600     1650     1300     1700     1800   
                                           T        V       H0       H01     AOSYM     SMH    MOLCAS    ERIS     OPER     GRID   

              2       7        5.29       700     1000      520     2100     1001     1800     2101   
                                         GEOM     BASIS   MCVARS     RHF     BASIS    GRID      RKS  

 PROGRAMS   *        TOTAL      IBBA    KS-SCF       INT    HF-SCF       INT
 CPU TIMES  *         5.75      0.01      0.59      0.23      4.50      0.28
 REAL TIME  *        10.61 SEC
 DISK USED  *        37.30 MB
 **********************************************************************************************************************************

 IBBA/6-31+G(D,P) energy=      0.000000000000

          KS-SCF          HF-SCF
   -398.63588574   -393.70951961
 **********************************************************************************************************************************
 Molpro calculation terminated
