
 Primary working directories    : /local
 Secondary working directories  : /local
 Wavefunction directory         : /local/
 Main file repository           : /local/

 SHA1      : b4a5b34a9e711420743f49e6833241d17c61fb3c
 NAME      : 2099.9.b4a5b34
 ARCHNAME  : linux/x86_64_openmp
 FC        : /cm/shared/languages/GCC-6.1/bin/gfortran
 BLASLIB   : -lblas
 id        : simonbennie

 Nodes     nprocs
 node33-040    1

 Using customized tuning parameters: mindgm=1; mindgv=20; mindgc=4; mindgr=1; noblas=0; minvec=7
 default implementation of scratch files=df  

 memory,500,m
 geomtyp=xyz
 nosym
 noorient
 geometry={
 S          0.00000        0.00000        0.00000
 H          0.00000        0.00000        1.34020
 }
 basis={ default,avtz }
 {ks,VWN,direct;wf,17,1,1}
 {ibba,bonds=1}

 Variables initialized (895), CPU time= 0.00 sec
 Commands  initialized (725), CPU time= 0.02 sec, 591 directives.
 Default parameters read. Elapsed time= 0.14 sec

 Checking input...
 Passed
1


                                         ***  PROGRAM SYSTEM MOLPRO  ***
                                       Copyright, TTI GmbH Stuttgart, 2015
                                    Version 2099.9 linked May 26 2017 16:03:21


 **********************************************************************************************************************************
 LABEL *                                                                                 
  64 bit serial version                                                                  DATE: 20-Jun-17          TIME: 14:03:00  
 **********************************************************************************************************************************

 SHA1:             b4a5b34a9e711420743f49e6833241d17c61fb3c
 **********************************************************************************************************************************
 SETTING GEOMTYP        =    XYZ

 Variable memory set to  500000000 words,  buffer space 

 ZSYMEL=NOSYM

 SETTING BASIS          =    AVTZ


 Recomputing integrals since basis changed


 Using spherical harmonics

 Library entry S      S aug-cc-pVTZ          selected for orbital group  1
 Library entry S      P aug-cc-pVTZ          selected for orbital group  1
 Library entry S      D aug-cc-pVTZ          selected for orbital group  1
 Library entry S      F aug-cc-pVTZ          selected for orbital group  1
 Library entry H      S aug-cc-pVTZ          selected for orbital group  2
 Library entry H      P aug-cc-pVTZ          selected for orbital group  2
 Library entry H      D aug-cc-pVTZ          selected for orbital group  2


 PROGRAM * SEWARD (Integral evaluation for generally contracted gaussian basis sets)     Author: Roland Lindh, 1990

 Geometry written to block  1 of record 700


 Point group  C1  



 ATOMIC COORDINATES

 NR  ATOM    CHARGE       X              Y              Z

   1  S      16.00    0.000000000    0.000000000    0.000000000
   2  H       1.00    0.000000000    0.000000000    2.532610952

 Bond lengths in Bohr (Angstrom)

 1-2  2.532610952
     ( 1.340200000)

 NUCLEAR CHARGE:                   17
 NUMBER OF PRIMITIVE AOS:         111
 NUMBER OF SYMMETRY AOS:          100
 NUMBER OF CONTRACTIONS:           73   (  73A   )
 NUMBER OF CORE ORBITALS:           5   (   5A   )
 NUMBER OF VALENCE ORBITALS:        5   (   5A   )


 NUCLEAR REPULSION ENERGY    6.31759094

 EXTRA SYMMETRY OF AOS IN SYMMETRY 1:   1 1 1 1 1 1 2 3 1 2   3 1 2 3 1 2 3 1 2 3   1 1 4 2 5 3 1 4 2 5   3 1 4 2 5 3 2 3 1 6
                                        4 7 5 2 3 1 6 4 7 5   1 1 1 1 2 3 1 2 3 1   2 3 1 1 4 2 5 3 1 4   2 5 3

 Eigenvalues of metric

         1 0.282E-03 0.121E-02 0.401E-02 0.909E-02 0.128E-01 0.128E-01 0.166E-01 0.166E-01


 Contracted 2-electron integrals neglected if value below      1.0D-11
 AO integral compression algorithm  1   Integral accuracy      1.0D-11

     6.029 MB (compressed) written to integral file ( 15.5%)


 NUMBER OF SORTED TWO-ELECTRON INTEGRALS:    3649051.     BUFFER LENGTH:  32768
 NUMBER OF SEGMENTS:   1  SEGMENT LENGTH:    3649051      RECORD LENGTH: 524288

 Memory used in sort:       4.21 MW

 SORT1 READ     4836086. AND WROTE      702267. INTEGRALS IN      3 RECORDS. CPU TIME:     0.02 SEC, REAL TIME:     0.04 SEC
 SORT2 READ      702267. AND WROTE     3649051. INTEGRALS IN     23 RECORDS. CPU TIME:     0.12 SEC, REAL TIME:     0.13 SEC

 FILE SIZES:   FILE 1:    36.2 MBYTE,  FILE 4:    12.6 MBYTE,   TOTAL:     48.8 MBYTE

 OPERATOR DM      FOR CENTER  0  COORDINATES:    0.000000    0.000000    0.000000


 **********************************************************************************************************************************
 DATASETS  * FILE   NREC   LENGTH (MB)   RECORD NAMES
              1      19       34.06       500      610      700      900      950      970     1000      129      960     1100   
                                          VAR    BASINP    GEOM    SYMINP    ZMAT    AOBASIS   BASIS     P2S    ABASIS      S 
                                         1400     1410     1200     1210     1080     1600     1650     1300     1700   
                                           T        V       H0       H01     AOSYM     SMH    MOLCAS    ERIS     OPER   

 PROGRAMS   *        TOTAL       INT
 CPU TIMES  *         0.70      0.55
 REAL TIME  *         1.12 SEC
 DISK USED  *        49.12 MB      
 **********************************************************************************************************************************

 Density functional group VWN=VWN5
 Functional: VWN5(Automatically generated (new) VWN5)                          Gradient terms: 0
 Use grid at  1800.2

 Functional: VWN5                      Factor:  1.0000

 Generated new metagrid on record  1800.2 with target accuracy 1.0D-06 and 9940 points in CPU time    0.2
 Computed new grid on record 1800.1 in CPU time    0.2
   34501 words reserved for DFT integration

 PROGRAM * RKS-SCF (Restricted open shell Kohn-Sham)     Authors: W. Meyer, H.-J. Werner, P.J. Knowles, 1993

 NUMBER OF ELECTRONS:       9+    8-    SPACE SYMMETRY=1    SPIN SYMMETRY: Doublet 
 CONVERGENCE THRESHOLDS:    1.00E-05 (Density)    1.00E-06 (Energy)
 MAX. NUMBER OF ITERATIONS:       60
 INTERPOLATION TYPE:            DIIS
 INTERPOLATION STEPS:              2 (START)      1 (STEP)
 LEVEL SHIFTS:                 -0.60 (CLOSED) -0.30 (OPEN) 



 Use fine grid record 1800.2 for energy threshold  1.0D-06
 Orbital guess generated from atomic densities. Full valence occupancy:   10

 Molecular orbital dump at record        2100.2

 Initial alpha occupancy:   9
 Initial beta  occupancy:   8
 Wave function symmetry:    1

 ITERATION    DDIFF          GRAD             ENERGY        2-EL.EN.            DIPOLE MOMENTS         DIIS   ORB.
    1      0.000D+00      0.000D+00      -372.89854986    301.819489   -0.00000   -0.00000   -5.05339    0    start
    2      0.000D+00      0.440D-01      -373.82352838    371.371272    0.00000   -0.00000    1.23178    1    diag,B
    3      0.762D+00      0.382D-01      -374.49103258    350.870692    0.00000   -0.00000    0.71723    2    diag,B
    4      0.301D-01      0.698D-02      -374.54929922    344.744508    0.00000   -0.00000    0.48401    3    diag,B
    5      0.193D-01      0.166D-02      -374.55404249    344.789981    0.00000   -0.00000    0.41316    4    diag,B
    6      0.535D-02      0.825D-03      -374.55625608    344.580575    0.00000   -0.00000    0.34351    5    diag,B
    7      0.336D-02      0.451D-03      -374.55684307    344.719978    0.00000   -0.00000    0.31342    6    fixocc
    8      0.164D-02      0.155D-03      -374.55694630    344.758738    0.00000   -0.00000    0.30138    7    diag,B
    9      0.921D-03      0.590D-04      -374.55695818    344.745479    0.00000   -0.00000    0.29802    8    diag,B
   10      0.302D-03      0.227D-04      -374.55696064    344.743602    0.00000   -0.00000    0.29764    9    orth
   11      0.198D-03      0.106D-04      -374.55696121    344.738656    0.00000   -0.00000    0.29709    9    diag,B
   12      0.147D-03      0.415D-05      -374.55696129    344.737807   -0.00000   -0.00000    0.29711    9    diag,B
   13      0.580D-04      0.123D-05      -374.55696129    344.737036    0.00000   -0.00000    0.29710    9    diag,B
   14      0.139D-04      0.446D-06      -374.55696129    344.737040    0.00000   -0.00000    0.29709    9    diag,B
   15      0.512D-05      0.182D-06      -374.55696129    344.737045    0.00000   -0.00000    0.29708    0    orth

 Final alpha occupancy:   9
 Final beta  occupancy:   8

 !RKS STATE 1.1 Energy               -374.556961294132
 Nuclear energy                         6.31759094
 One-electron energy                 -551.99676640
 Two-electron energy                  172.36852227
 Density functional                    -1.24630811     VWN5=-1.24630811
 Virial quotient                       -0.97522738
 !RKS STATE 1.1 Dipole moment           0.00000000    -0.00000000     0.29708293
 Dipole moment /Debye                   0.00000000    -0.00000000     0.75506002

 Orbital energies:

         1.1          2.1          3.1          4.1          5.1          6.1          7.1          8.1          9.1         10.1
    -83.184456    -6.584079    -4.638042    -4.632521    -4.625084    -0.422139    -0.151619    -0.049393    -0.068125     0.017112

        11.1
      0.075039

 HOMO      9.1    -0.068125 =      -1.8538eV
 LUMO     10.1     0.017112 =       0.4656eV
 LUMO-HOMO         0.085237 =       2.3194eV


 **********************************************************************************************************************************
 DATASETS  * FILE   NREC   LENGTH (MB)   RECORD NAMES
              1      20       34.38       500      610      700      900      950      970     1000      129      960     1100   
                                          VAR    BASINP    GEOM    SYMINP    ZMAT    AOBASIS   BASIS     P2S    ABASIS      S 
                                         1400     1410     1200     1210     1080     1600     1650     1300     1700     1800   
                                           T        V       H0       H01     AOSYM     SMH    MOLCAS    ERIS     OPER     GRID   

              2       5        2.92       700     1000      520     1800     2100   
                                         GEOM     BASIS   MCVARS    GRID      RKS  

 PROGRAMS   *        TOTAL        KS       INT
 CPU TIMES  *         3.14      2.44      0.55
 REAL TIME  *         3.68 SEC
 DISK USED  *        49.12 MB      
 **********************************************************************************************************************************


 PROGRAM * Intrinsic Basis Bonding Analysis (IBBA)          Author: G. Knizia

 Molecular orbitals read from record     2100.2  Type=RKS/CANONICAL (state 1.1)
 Fock matrix read from record            2100.2  Type=RKS/TOTAL (state 1.1)
 Orbital energies read from record       2100.2  Type=RKS/CANONICAL (state 1.1)
 Density matrix read from record         2100.2  Type=RKS/CHARGE (state 1.1)

 Number of core orbitals:           5 (   5 )
 Number of closed-shell orbitals:   3 (   3 )
 Number of active  orbitals:        1 (   1 )

 Basis set MINAO-AUTO-PP generated.      Number of basis functions:   10 

 Polarized AO type:                A = (O Ot + (1-O)(1-Ot)) P12
 Orthogonalization method:         Symmetric (Loewdin)
 Localization functional:          L = sum[A,i] <i|n_A|i>^4 -> max

 Localization group 1:   8 orbitals, occupancy  2.000
 Iterative localization: IB/PM,    3 iter; Final gradient 0.78E-15

 Bond order analysis:       [THRPRINT= 0.020]

   CEN ATOM   CEN ATOM     WIBERG.BO      RENORM.BO
     1   S  -   2   H       0.991505       1.000000

     2   H  -   1   S       0.991505       1.000000


 Valency analysis:

   CEN ATOM   TOT.VALENCE
     1   S       0.991505
     2   H       0.991505
 Localization group 2:   1 orbitals, occupancy  1.000
 Iterative localization: IB/PM,    1 iter; Final gradient 0.00E+00

 Bond order analysis:       [THRPRINT= 0.020]

   CEN ATOM   CEN ATOM     WIBERG.BO      RENORM.BO



 Valency analysis:

   CEN ATOM   TOT.VALENCE
     1   S      -0.000000
     2   H       0.000000

 Total charge composition:

   CEN ATOM         s          p       ELECTRONS ->P.CHARGE
     1   S       5.82004   10.27213     16.09217   -0.09217
     2   H       0.90783                 0.90783    0.09217

 Total charge composition, AO contributions:

   CEN ATOM SHL      SPHERICAL COMPONENTS
     1   S  1s       1.99992
     1   S  2s       1.99875
     1   S  3s       1.82137
     1   S  2p       1.99923    1.99831    1.99965
     1   S  3p       1.68889    1.31357    1.27247

     2   H  1s       0.90783

 Active orbital charges:

   CEN ATOM         s          p       ELECTRONS ->SPIN.DEN
     1   S       0.00000    1.00000      1.00000    1.00000
     2   H       0.00000                 0.00000    0.00000

 Active orbital charges, AO contributions:

   CEN ATOM SHL      SPHERICAL COMPONENTS
     1   S  1s       0.00000
     1   S  2s       0.00000
     1   S  3s       0.00000
     1   S  2p       0.00042    0.00093    0.00000
     1   S  3p       0.31145    0.68720    0.00000

     2   H  1s       0.00000

 Summary of localized orbital composition:   [THRPRINT= 0.020]

   ORB  GRP  ORB.ENERGY      CENTERS/CHARGES
     1   1   -81.769720      S  1   2.000
     2   1    -7.513598      S  1   2.000
     3   1    -5.027786      S  1   2.000
     4   1    -4.638042      S  1   2.000
     5   1    -4.625084      S  1   2.000
     6   1    -0.345445      S  1   2.000
     7   1    -0.318264      S  1   1.092   H  2   0.908
     8   1    -0.049393      S  1   2.000
     9   2    -0.077257      S  1   1.000

 Localized orbitals saved to record      2100.2  (orbital set 2)


 **********************************************************************************************************************************
 DATASETS  * FILE   NREC   LENGTH (MB)   RECORD NAMES
              1      20       34.38       500      610      700      900      950      970     1000      129      960     1100   
                                          VAR    BASINP    GEOM    SYMINP    ZMAT    AOBASIS   BASIS     P2S    ABASIS      S 
                                         1400     1410     1200     1210     1080     1600     1650     1300     1700     1800   
                                           T        V       H0       H01     AOSYM     SMH    MOLCAS    ERIS     OPER     GRID   

              2       5        2.97       700     1000      520     1800     2100   
                                         GEOM     BASIS   MCVARS    GRID      RKS  

 PROGRAMS   *        TOTAL      IBBA        KS       INT
 CPU TIMES  *         3.16      0.02      2.44      0.55
 REAL TIME  *         3.80 SEC
 DISK USED  *        49.12 MB      
 **********************************************************************************************************************************
 Molecular orbitals read from record     2100.2  Type=RKS/LOCAL(IBO)  
 Occupation numbers read from record     2100.2  Type=RKS/LOCAL(IBO)  
 Orbital energies read from record       2100.2  Type=RKS/LOCAL(IBO)  
 Redundancy group numbers read from rec  2100.2  Type=RKS/LOCAL(IBO)  

 IBBA/aug-cc-pVTZ energy=      0.000000000000

        KS-SCF  
   -374.55696129
 **********************************************************************************************************************************
 Molpro calculation terminated
