
 Primary working directories    : /local
 Secondary working directories  : /local
 Wavefunction directory         : /local/
 Main file repository           : /local/

 SHA1      : b4a5b34a9e711420743f49e6833241d17c61fb3c
 NAME      : 2099.9.b4a5b34
 ARCHNAME  : linux/x86_64_openmp
 FC        : /cm/shared/languages/GCC-6.1/bin/gfortran
 BLASLIB   : -lblas
 id        : simonbennie

 Nodes     nprocs
 node34-040    1

 Using customized tuning parameters: mindgm=1; mindgv=20; mindgc=4; mindgr=1; noblas=0; minvec=7
 default implementation of scratch files=df  

 memory,500,m
 geomtyp=xyz
 nosym
 noorient
 geometry={
 N          0.00000        0.00000        0.00000
 H          0.00000        0.00000        1.02405
 H          0.99716        0.00000       -0.23314
 }
 basis={ default,qzvp }
 {ks,MM06-HF,direct;wf,9,1,1}
 {ibba,bonds=1}

 Variables initialized (895), CPU time= 0.00 sec
 Commands  initialized (725), CPU time= 0.02 sec, 591 directives.
 Default parameters read. Elapsed time= 0.08 sec

 Checking input...
 Passed
1


                                         ***  PROGRAM SYSTEM MOLPRO  ***
                                       Copyright, TTI GmbH Stuttgart, 2015
                                    Version 2099.9 linked May 26 2017 16:03:21


 **********************************************************************************************************************************
 LABEL *                                                                                 
  64 bit serial version                                                                  DATE: 20-Jun-17          TIME: 17:44:20  
 **********************************************************************************************************************************

 SHA1:             b4a5b34a9e711420743f49e6833241d17c61fb3c
 **********************************************************************************************************************************
 SETTING GEOMTYP        =    XYZ

 Variable memory set to  500000000 words,  buffer space 

 ZSYMEL=NOSYM

 SETTING BASIS          =    QZVP


 Recomputing integrals since basis changed


 Using spherical harmonics

 Library entry N      S def2-QZVP            selected for orbital group  1
 Library entry N      P def2-QZVP            selected for orbital group  1
 Library entry N      D def2-QZVP            selected for orbital group  1
 Library entry N      F def2-QZVP            selected for orbital group  1
 Library entry N      G def2-QZVP            selected for orbital group  1
 Library entry H      S def2-QZVP            selected for orbital group  2
 Library entry H      P def2-QZVP            selected for orbital group  2
 Library entry H      D def2-QZVP            selected for orbital group  2
 Library entry H      F def2-QZVP            selected for orbital group  2


 PROGRAM * SEWARD (Integral evaluation for generally contracted gaussian basis sets)     Author: Roland Lindh, 1990

 Geometry written to block  1 of record 700


 Point group  C1  



 ATOMIC COORDINATES

 NR  ATOM    CHARGE       X              Y              Z

   1  N       7.00    0.000000000    0.000000000    0.000000000
   2  H       1.00    0.000000000    0.000000000    1.935174038
   3  H       1.00    1.884359302    0.000000000   -0.440570749

 Bond lengths in Bohr (Angstrom)

 1-2  1.935174038  1-3  1.935177657
     ( 1.024050000)     ( 1.024051915)

 Bond angles

  2-1-3  103.15959463

 NUCLEAR CHARGE:                    9
 NUMBER OF PRIMITIVE AOS:         168
 NUMBER OF SYMMETRY AOS:          143
 NUMBER OF CONTRACTIONS:          117   ( 117A   )
 NUMBER OF CORE ORBITALS:           1   (   1A   )
 NUMBER OF VALENCE ORBITALS:        6   (   6A   )


 NUCLEAR REPULSION ENERGY    7.56426501

 EXTRA SYMMETRY OF AOS IN SYMMETRY 1:   1 1 1 1 1 1 1 1 2 1   1 2 1 1 2 1 1 2 1 1   2 1 1 2 1 2 1 1 2 1   2 1 1 2 1 2 1 1 2 2
                                        1 1 2 1 1 2 2 1 1 2   1 1 2 1 2 1 2 1 1 1   1 1 2 1 1 2 1 1 2 1   1 2 1 1 2 1 2 1 1 2
                                        1 2 1 1 2 2 1 1 1 1   1 1 2 1 1 2 1 1 2 1   1 2 1 1 2 1 2 1 1 2   1 2 1 1 2 2 1

 Eigenvalues of metric

         1 0.317E-03 0.504E-03 0.206E-02 0.218E-02 0.436E-02 0.859E-02 0.883E-02 0.952E-02


 Contracted 2-electron integrals neglected if value below      1.0D-11
 AO integral compression algorithm  1   Integral accuracy      1.0D-11

     57.147 MB (compressed) written to integral file ( 24.8%)


 NUMBER OF SORTED TWO-ELECTRON INTEGRALS:   23829156.     BUFFER LENGTH:  32768
 NUMBER OF SEGMENTS:   2  SEGMENT LENGTH:   15997996      RECORD LENGTH: 524288

 Memory used in sort:      16.56 MW

 SORT1 READ    28862420. AND WROTE     9618401. INTEGRALS IN     29 RECORDS. CPU TIME:     0.19 SEC, REAL TIME:     0.33 SEC
 SORT2 READ     9618401. AND WROTE    23829156. INTEGRALS IN    218 RECORDS. CPU TIME:     0.51 SEC, REAL TIME:     2.24 SEC

 FILE SIZES:   FILE 1:    87.7 MBYTE,  FILE 4:   121.7 MBYTE,   TOTAL:    209.3 MBYTE

 OPERATOR DM      FOR CENTER  0  COORDINATES:    0.000000    0.000000    0.000000


 **********************************************************************************************************************************
 DATASETS  * FILE   NREC   LENGTH (MB)   RECORD NAMES
              1      19       76.40       500      610      700      900      950      970     1000      129      960     1100   
                                          VAR    BASINP    GEOM    SYMINP    ZMAT    AOBASIS   BASIS     P2S    ABASIS      S 
                                         1400     1410     1200     1210     1080     1600     1650     1300     1700   
                                           T        V       H0       H01     AOSYM     SMH    MOLCAS    ERIS     OPER   

 PROGRAMS   *        TOTAL       INT
 CPU TIMES  *         2.18      2.04
 REAL TIME  *         6.54 SEC
 DISK USED  *       209.65 MB      
 **********************************************************************************************************************************

 Density functional group MM06-HF=M06HFX+M06HFC
 Functional: M06HFX(Automatically generated (new) M06HFX)                      Gradient terms: 2
 Functional: M06HFC(Automatically generated (new) M06HFC)                      Gradient terms: 2
 Use grid at  1800.2


 Exact exchange will be calculated, factor:  1.0000

 Functional: M06HFX                    Factor:  1.0000
 Functional: M06HFC                    Factor:  1.0000

 Generated new metagrid on record  1800.2 with target accuracy 1.0D-06 and 11928 points in CPU time    0.2
 Computed new grid on record 1800.1 in CPU time    0.2
  185930 words reserved for DFT integration

 PROGRAM * RKS-SCF (Restricted open shell Kohn-Sham)     Authors: W. Meyer, H.-J. Werner, P.J. Knowles, 1993

 NUMBER OF ELECTRONS:       5+    4-    SPACE SYMMETRY=1    SPIN SYMMETRY: Doublet 
 CONVERGENCE THRESHOLDS:    1.00E-05 (Density)    1.00E-06 (Energy)
 MAX. NUMBER OF ITERATIONS:       60
 INTERPOLATION TYPE:            DIIS
 INTERPOLATION STEPS:              2 (START)      1 (STEP)
 LEVEL SHIFTS:                 -0.60 (CLOSED) -0.30 (OPEN) 



 Use fine grid record 1800.2 for energy threshold  1.0D-06
 Orbital guess generated from atomic densities. Full valence occupancy:    5

 Molecular orbital dump at record        2100.2

 Initial alpha occupancy:   5
 Initial beta  occupancy:   4
 Wave function symmetry:    1

 ITERATION    DDIFF          GRAD             ENERGY        2-EL.EN.            DIPOLE MOMENTS         DIIS   ORB.
    1      0.000D+00      0.000D+00       -55.86649848     54.325551    0.79311    0.00000    0.62908    0    start
    2      0.000D+00      0.604D-02       -55.88001602     53.965652    0.63474    0.00000    0.50357    1    diag,B
    3      0.512D-02      0.152D-02       -55.88142191     54.070738    0.60581    0.00000    0.48085    2    diag,B
    4      0.887D-03      0.644D-03       -55.88178468     54.040220    0.58909    0.00000    0.46798    3    diag,B
    5      0.499D-03      0.228D-03       -55.88185126     54.057202    0.58482    0.00000    0.46488    4    diag,B
    6      0.285D-03      0.741D-04       -55.88185994     54.054434    0.58383    0.00000    0.46423    5    diag,B
    7      0.178D-03      0.250D-04       -55.88186114     54.054598    0.58350    0.00000    0.46402    6    fixocc
    8      0.734D-04      0.782D-05       -55.88186126     54.054294    0.58333    0.00000    0.46390    7    diag,B
    9      0.197D-04      0.306D-05       -55.88186129     54.054210    0.58320    0.00000    0.46380    8    diag,B
   10      0.616D-05      0.123D-05       -55.88186129     54.054197    0.58317    0.00000    0.46378    0    orth

 Final alpha occupancy:   5
 Final beta  occupancy:   4

 !RKS STATE 1.1 Energy                -55.881861287309
 Nuclear energy                         7.56426501
 One-electron energy                  -90.16710029
 Two-electron energy                   27.02709825
 Density functional                    -0.30612426     M06HFX=-0.00763838 M06HFC=-0.29848589
 Virial quotient                       -1.00367950
 !RKS STATE 1.1 Dipole moment           0.58316554     0.00000000     0.46377613
 Dipole moment /Debye                   1.48216187     0.00000000     1.17872414

 Orbital energies:

         1.1          2.1          3.1          4.1          5.1          6.1          7.1
    -15.278715    -1.049949    -0.637076    -0.492549    -0.479270     0.058083     0.101991

 HOMO      5.1    -0.479270 =     -13.0416eV
 LUMO      6.1     0.058083 =       1.5805eV
 LUMO-HOMO         0.537353 =      14.6221eV


 **********************************************************************************************************************************
 DATASETS  * FILE   NREC   LENGTH (MB)   RECORD NAMES
              1      20       76.78       500      610      700      900      950      970     1000      129      960     1100   
                                          VAR    BASINP    GEOM    SYMINP    ZMAT    AOBASIS   BASIS     P2S    ABASIS      S 
                                         1400     1410     1200     1210     1080     1600     1650     1300     1700     1800   
                                           T        V       H0       H01     AOSYM     SMH    MOLCAS    ERIS     OPER     GRID   

              2       5        3.18       700     1000      520     1800     2100   
                                         GEOM     BASIS   MCVARS    GRID      RKS  

 PROGRAMS   *        TOTAL        KS       INT
 CPU TIMES  *        31.57     29.38      2.04
 REAL TIME  *        36.09 SEC
 DISK USED  *       209.65 MB      
 **********************************************************************************************************************************


 PROGRAM * Intrinsic Basis Bonding Analysis (IBBA)          Author: G. Knizia

 Molecular orbitals read from record     2100.2  Type=RKS/CANONICAL (state 1.1)
 Fock matrix read from record            2100.2  Type=RKS/TOTAL (state 1.1)
 Orbital energies read from record       2100.2  Type=RKS/CANONICAL (state 1.1)
 Density matrix read from record         2100.2  Type=RKS/CHARGE (state 1.1)

 Number of core orbitals:           1 (   1 )
 Number of closed-shell orbitals:   3 (   3 )
 Number of active  orbitals:        1 (   1 )

 Basis set MINAO-AUTO-PP generated.      Number of basis functions:   7 

 Polarized AO type:                A = (O Ot + (1-O)(1-Ot)) P12
 Orthogonalization method:         Symmetric (Loewdin)
 Localization functional:          L = sum[A,i] <i|n_A|i>^4 -> max

 Localization group 1:   4 orbitals, occupancy  2.000
 Iterative localization: IB/PM,    4 iter; Final gradient 0.78E-09

 Bond order analysis:       [THRPRINT= 0.020]

   CEN ATOM   CEN ATOM     WIBERG.BO      RENORM.BO
     1   N  -   3   H       0.938551       1.000000
     1   N  -   2   H       0.938451       1.000000

     2   H  -   1   N       0.938451       1.000000

     3   H  -   1   N       0.938551       1.000000


 Valency analysis:

   CEN ATOM   TOT.VALENCE
     1   N       1.877002
     2   H       0.938501
     3   H       0.938601
 Localization group 2:   1 orbitals, occupancy  1.000
 Iterative localization: IB/PM,    1 iter; Final gradient 0.00E+00

 Bond order analysis:       [THRPRINT= 0.020]

   CEN ATOM   CEN ATOM     WIBERG.BO      RENORM.BO




 Valency analysis:

   CEN ATOM   TOT.VALENCE
     1   N      -0.000000
     2   H       0.000000
     3   H       0.000000

 Total charge composition:

   CEN ATOM         s          p       ELECTRONS ->P.CHARGE
     1   N       3.57240    3.92338      7.49578   -0.49578
     2   H       0.75201                 0.75201    0.24799
     3   H       0.75221                 0.75221    0.24779

 Total charge composition, AO contributions:

   CEN ATOM SHL      SPHERICAL COMPONENTS
     1   N  1s       1.99576
     1   N  2s       1.57665
     1   N  2p       1.50842    1.00000    1.41495

     2   H  1s       0.75201

     3   H  1s       0.75221

 Active orbital charges:

   CEN ATOM         s          p       ELECTRONS ->SPIN.DEN
     1   N       0.00000    1.00000      1.00000    1.00000
     2   H       0.00000                 0.00000    0.00000
     3   H       0.00000                 0.00000    0.00000

 Active orbital charges, AO contributions:

   CEN ATOM SHL      SPHERICAL COMPONENTS
     1   N  1s       0.00000
     1   N  2s       0.00000
     1   N  2p       0.00000    1.00000    0.00000

     2   H  1s       0.00000

     3   H  1s       0.00000

 Summary of localized orbital composition:   [THRPRINT= 0.020]

   ORB  GRP  ORB.ENERGY      CENTERS/CHARGES
     1   1   -15.165074      N  1   2.000
     2   1    -0.852576      N  1   1.248   H  2   0.752
     3   1    -0.851972      N  1   1.248   H  3   0.752
     4   1    -0.588670      N  1   2.000
     5   2    -0.221517      N  1   1.000

 Localized orbitals saved to record      2100.2  (orbital set 2)


 **********************************************************************************************************************************
 DATASETS  * FILE   NREC   LENGTH (MB)   RECORD NAMES
              1      20       76.78       500      610      700      900      950      970     1000      129      960     1100   
                                          VAR    BASINP    GEOM    SYMINP    ZMAT    AOBASIS   BASIS     P2S    ABASIS      S 
                                         1400     1410     1200     1210     1080     1600     1650     1300     1700     1800   
                                           T        V       H0       H01     AOSYM     SMH    MOLCAS    ERIS     OPER     GRID   

              2       5        3.29       700     1000      520     1800     2100   
                                         GEOM     BASIS   MCVARS    GRID      RKS  

 PROGRAMS   *        TOTAL      IBBA        KS       INT
 CPU TIMES  *        31.60      0.02     29.38      2.04
 REAL TIME  *        36.14 SEC
 DISK USED  *       209.65 MB      
 **********************************************************************************************************************************
 Molecular orbitals read from record     2100.2  Type=RKS/LOCAL(IBO)  
 Occupation numbers read from record     2100.2  Type=RKS/LOCAL(IBO)  
 Orbital energies read from record       2100.2  Type=RKS/LOCAL(IBO)  
 Redundancy group numbers read from rec  2100.2  Type=RKS/LOCAL(IBO)  

 IBBA/QZVP energy=      0.000000000000

        KS-SCF  
    -55.88186129
 **********************************************************************************************************************************
 Molpro calculation terminated
