
 Primary working directories    : /local
 Secondary working directories  : /local
 Wavefunction directory         : /local/
 Main file repository           : /local/

 SHA1      : b4a5b34a9e711420743f49e6833241d17c61fb3c
 NAME      : 2099.9.b4a5b34
 ARCHNAME  : linux/x86_64_openmp
 FC        : /cm/shared/languages/GCC-6.1/bin/gfortran
 BLASLIB   : -lblas
 id        : simonbennie

 Nodes     nprocs
 node32-035    1

 Using customized tuning parameters: mindgm=1; mindgv=20; mindgc=4; mindgr=1; noblas=0; minvec=7
 default implementation of scratch files=df  

 memory,500,m
 geomtyp=xyz
 nosym
 noorient
 geometry={
 N          0.00000        0.00000        0.00000
 H          0.00000        0.00000        1.02405
 H          0.99716        0.00000       -0.23314
 }
 basis={ default,tzvp }
 {hf,direct;wf,9,1,1}
 {df-ks,M06-HF,direct;maxit,0;wf,9,1,1}
 {ibba,bonds=1}

 Variables initialized (895), CPU time= 0.00 sec
 Commands  initialized (725), CPU time= 0.02 sec, 591 directives.
 Default parameters read. Elapsed time= 0.08 sec

 Checking input...
 Passed
1


                                         ***  PROGRAM SYSTEM MOLPRO  ***
                                       Copyright, TTI GmbH Stuttgart, 2015
                                    Version 2099.9 linked May 26 2017 16:03:21


 **********************************************************************************************************************************
 LABEL *                                                                                 
  64 bit serial version                                                                  DATE: 15-Mar-18          TIME: 01:26:48  
 **********************************************************************************************************************************

 SHA1:             b4a5b34a9e711420743f49e6833241d17c61fb3c
 **********************************************************************************************************************************
 SETTING GEOMTYP        =    XYZ

 Variable memory set to  500000000 words,  buffer space 

 ZSYMEL=NOSYM

 SETTING BASIS          =    TZVP


 Recomputing integrals since basis changed


 Using spherical harmonics

 Library entry N      S def2-TZVP            selected for orbital group  1
 Library entry N      P def2-TZVP            selected for orbital group  1
 Library entry N      D def2-TZVP            selected for orbital group  1
 Library entry N      F def2-TZVP            selected for orbital group  1
 Library entry H      S def2-TZVP            selected for orbital group  2
 Library entry H      P def2-TZVP            selected for orbital group  2


 PROGRAM * SEWARD (Integral evaluation for generally contracted gaussian basis sets)     Author: Roland Lindh, 1990

 Geometry written to block  1 of record 700


 Point group  C1  



 ATOMIC COORDINATES

 NR  ATOM    CHARGE       X              Y              Z

   1  N       7.00    0.000000000    0.000000000    0.000000000
   2  H       1.00    0.000000000    0.000000000    1.935174038
   3  H       1.00    1.884359302    0.000000000   -0.440570749

 Bond lengths in Bohr (Angstrom)

 1-2  1.935174038  1-3  1.935177657
     ( 1.024050000)     ( 1.024051915)

 Bond angles

  2-1-3  103.15959463

 NUCLEAR CHARGE:                    9
 NUMBER OF PRIMITIVE AOS:          67
 NUMBER OF SYMMETRY AOS:           62
 NUMBER OF CONTRACTIONS:           43   (  43A   )
 NUMBER OF CORE ORBITALS:           1   (   1A   )
 NUMBER OF VALENCE ORBITALS:        6   (   6A   )


 NUCLEAR REPULSION ENERGY    7.56426501

 EXTRA SYMMETRY OF AOS IN SYMMETRY 1:   1 1 1 1 1 1 2 1 1 2   1 1 2 1 1 2 1 1 2 1   2 1 1 2 1 2 1 1 2 2   1 1 1 1 1 2 1 1 1 1
                                        1 2 1

 Eigenvalues of metric

         1 0.607E-02 0.112E-01 0.141E-01 0.445E-01 0.767E-01 0.113E+00 0.118E+00 0.161E+00


 Contracted 2-electron integrals neglected if value below      1.0D-11
 AO integral compression algorithm  1   Integral accuracy      1.0D-11

     1.311 MB (compressed) written to integral file ( 27.3%)


 NUMBER OF SORTED TWO-ELECTRON INTEGRALS:     447931.     BUFFER LENGTH:  32768
 NUMBER OF SEGMENTS:   1  SEGMENT LENGTH:     447931      RECORD LENGTH: 524288

 Memory used in sort:       1.00 MW

 SORT1 READ      537817. AND WROTE      147068. INTEGRALS IN      1 RECORDS. CPU TIME:     0.01 SEC, REAL TIME:     0.01 SEC
 SORT2 READ      147068. AND WROTE      447931. INTEGRALS IN      5 RECORDS. CPU TIME:     0.03 SEC, REAL TIME:     0.03 SEC

 FILE SIZES:   FILE 1:    31.4 MBYTE,  FILE 4:     4.2 MBYTE,   TOTAL:     35.6 MBYTE

 OPERATOR DM      FOR CENTER  0  COORDINATES:    0.000000    0.000000    0.000000


 **********************************************************************************************************************************
 DATASETS  * FILE   NREC   LENGTH (MB)   RECORD NAMES
              1      19       30.91       500      610      700      900      950      970     1000      129      960     1100   
                                          VAR    BASINP    GEOM    SYMINP    ZMAT    AOBASIS   BASIS     P2S    ABASIS      S 
                                         1400     1410     1200     1210     1080     1600     1650     1300     1700   
                                           T        V       H0       H01     AOSYM     SMH    MOLCAS    ERIS     OPER   

 PROGRAMS   *        TOTAL       INT
 CPU TIMES  *         0.39      0.25
 REAL TIME  *         0.66 SEC
 DISK USED  *        35.89 MB      
 **********************************************************************************************************************************


 PROGRAM * RHF-SCF (OPEN SHELL)       Authors: W. Meyer, H.-J. Werner


 NUMBER OF ELECTRONS:       5+    4-    SPACE SYMMETRY=1    SPIN SYMMETRY: Doublet 
 CONVERGENCE THRESHOLDS:    1.00E-05 (Density)    1.00E-07 (Energy)
 INTEGRAL THRESHOLDS:       1.00E-11 (Initial)    1.00E-11 (Final)
 MAX. NUMBER OF ITERATIONS:       60
 INTERPOLATION TYPE:            DIIS
 INTERPOLATION STEPS:              2 (START)      1 (STEP)
 LEVEL SHIFTS:                 -0.60 (CLOSED) -0.30 (OPEN) 



 Orbital guess generated from atomic densities. Full valence occupancy:    5

 Molecular orbital dump at record        2100.2

 Initial alpha occupancy:   5
 Initial beta  occupancy:   4
 Wave function symmetry:    1

 Direct Fock-matrix evaluation.        Author: H.-J. Werner (1996)

 Integral Threshold:                  0.1D-10

 ITERATION   DDIFF            GRAD            ENERGY        2-EL.EN.            DIPOLE MOMENTS         DIIS   CPU(IT)  CPU(TOT)
    1      0.000D+00      0.000D+00       -55.56942233     54.000864    0.77045    0.00000    0.61109    0      0.8      1.6     start
    2      0.000D+00      0.721D-02       -55.58007767     54.013965    0.65830    0.00000    0.52214    1      0.4      2.0     diag,B
    3      0.200D-02      0.215D-02       -55.58166205     54.073689    0.62886    0.00000    0.49879    2      0.4      2.5     diag,B
    4      0.116D-02      0.757D-03       -55.58195831     54.084262    0.62289    0.00000    0.49405    3      0.4      2.9     diag,B
    5      0.760D-03      0.234D-03       -55.58199278     54.086074    0.62267    0.00000    0.49388    4      0.4      3.3     diag,B
    6      0.346D-03      0.529D-04       -55.58199455     54.084648    0.62259    0.00000    0.49381    5      0.4      3.7     diag,B
    7      0.711D-04      0.201D-04       -55.58199483     54.084198    0.62263    0.00000    0.49385    6      0.4      4.1     fixocc
    8      0.336D-04      0.561D-05       -55.58199485     54.084142    0.62270    0.00000    0.49390    7      0.4      4.6     diag,B
    9      0.105D-04      0.207D-05       -55.58199485     54.084176    0.62275    0.00000    0.49394    8      0.4      5.0     diag,B
   10      0.519D-05      0.647D-06       -55.58199485     54.084184    0.62276    0.00000    0.49395    0      0.4      5.4     orth

 Final alpha occupancy:   5
 Final beta  occupancy:   4

 !RHF STATE 1.1 Energy                -55.581994854019
 Nuclear energy                         7.56426501
 One-electron energy                  -90.18835201
 Two-electron energy                   27.04209214
 Virial quotient                       -1.00084131
 !RHF STATE 1.1 Dipole moment           0.62275683     0.00000000     0.49394879
 Dipole moment /Debye                   1.58278630     0.00000000     1.25541035

 Orbital energies:

         1.1          2.1          3.1          4.1          5.1          6.1          7.1
    -15.578916    -1.102084    -0.634272    -0.484951    -0.503727     0.130767     0.203112

 HOMO      5.1    -0.503727 =     -13.7071eV
 LUMO      6.1     0.130767 =       3.5584eV
 LUMO-HOMO         0.634494 =      17.2655eV


 **********************************************************************************************************************************
 DATASETS  * FILE   NREC   LENGTH (MB)   RECORD NAMES
              1      19       30.91       500      610      700      900      950      970     1000      129      960     1100   
                                          VAR    BASINP    GEOM    SYMINP    ZMAT    AOBASIS   BASIS     P2S    ABASIS      S 
                                         1400     1410     1200     1210     1080     1600     1650     1300     1700   
                                           T        V       H0       H01     AOSYM     SMH    MOLCAS    ERIS     OPER   

              2       4        2.83       700     1000      520     2100   
                                         GEOM     BASIS   MCVARS     RHF  

 PROGRAMS   *        TOTAL        HF       INT
 CPU TIMES  *         5.83      5.44      0.25
 REAL TIME  *         6.83 SEC
 DISK USED  *        35.89 MB      
 **********************************************************************************************************************************

 Density functional group M06-HF=XC-M06-HF
 Functional: XC-M06-HF(via MFM 1.6)                                            Gradient terms: 1
 Use grid at  1800.2


 Exact exchange will be calculated, factor:  1.0000

 Functional: XC-M06-HF                 Factor:  1.0000

 Generated new metagrid on record  1800.2 with target accuracy 1.0D-06 and 11256 points in CPU time    0.2
 Computed new grid on record 1800.1 in CPU time    0.2
   37991 words reserved for DFT integration

 PROGRAM * RKS-SCF (Restricted open shell Kohn-Sham)     Authors: W. Meyer, H.-J. Werner, P.J. Knowles, 1993

 NUMBER OF ELECTRONS:       5+    4-    SPACE SYMMETRY=1    SPIN SYMMETRY: Doublet 
 CONVERGENCE THRESHOLDS:    1.00E-05 (Density)    1.00E-06 (Energy)
 INTEGRAL THRESHOLDS:       1.00E-11 (Initial)    1.00E-11 (Final)
 MAX. NUMBER OF ITERATIONS:        0
 INTERPOLATION TYPE:            DIIS
 INTERPOLATION STEPS:              2 (START)      1 (STEP)
 LEVEL SHIFTS:                 -0.60 (CLOSED) -0.30 (OPEN) 



 Use fine grid record 1800.2 for energy threshold  1.0D-06

 Basis set DEF2-TZVPP/JKFIT generated.   Number of basis functions:   113 

 Molecular orbitals read from record     2100.2  Type=RHF/CANONICAL (state 1.1)
 Coulomb and exchange fitting
 Thresholds for fitting:       THRAO_COUL= 1.0D-14    THRAO_EXCH= 1.0D-12    THRMO= 1.0D-11    THRPROD= 1.0D-11    THRASM= 1.0D-11
                               THR2HLF=    1.0D-11

 Molecular orbital dump at record        2101.2

 ITERATION   DDIFF            GRAD            ENERGY        2-EL.EN.            DIPOLE MOMENTS         DIIS   CPU(IT)  CPU(TOT)  ORB.
    1      0.000D+00      0.000D+00       -55.86524657     54.084188    0.62276    0.00000    0.49395    0      0.3      0.3     start

 Final alpha occupancy:   5
 Final beta  occupancy:   4

 !RKS STATE 1.1 Energy                -55.865246568404
 Nuclear energy                         7.56426501
 One-electron energy                  -90.18835201
 Two-electron energy                   27.04209376
 Density functional                    -0.28325333     XC-M06-HF=-0.28325333
 Virial quotient                       -1.00594170
 !RKS STATE 1.1 Dipole moment           0.62275683     0.00000000     0.49394879
 Dipole moment /Debye                   1.58278630     0.00000000     1.25541035

 Orbital energies:

         1.1          2.1          3.1          4.1          5.1          6.1          7.1
    -15.578916    -1.102084    -0.634272    -0.484951    -0.503727     0.130767     0.203112

 HOMO      5.1    -0.503727 =     -13.7071eV
 LUMO      6.1     0.130767 =       3.5584eV
 LUMO-HOMO         0.634494 =      17.2655eV


 **********************************************************************************************************************************
 DATASETS  * FILE   NREC   LENGTH (MB)   RECORD NAMES
              1      20       31.27       500      610      700      900      950      970     1000      129      960     1100   
                                          VAR    BASINP    GEOM    SYMINP    ZMAT    AOBASIS   BASIS     P2S    ABASIS      S 
                                         1400     1410     1200     1210     1080     1600     1650     1300     1700     1800   
                                           T        V       H0       H01     AOSYM     SMH    MOLCAS    ERIS     OPER     GRID   

              2       6        5.41       700     1000      520     2100     1800     2101   
                                         GEOM     BASIS   MCVARS     RHF     GRID      RKS  

 PROGRAMS   *        TOTAL        KS        HF       INT
 CPU TIMES  *         6.37      0.54      5.44      0.25
 REAL TIME  *         7.39 SEC
 DISK USED  *        37.04 MB      
 **********************************************************************************************************************************


 PROGRAM * Intrinsic Basis Bonding Analysis (IBBA)          Author: G. Knizia

 Molecular orbitals read from record     2101.2  Type=RKS/CANONICAL (state 1.1)
 Fock matrix read from record            2101.2  Type=RKS/TOTAL (state 1.1)
 Orbital energies read from record       2101.2  Type=RKS/CANONICAL (state 1.1)
 Density matrix read from record         2101.2  Type=RKS/CHARGE (state 1.1)

 Number of core orbitals:           1 (   1 )
 Number of closed-shell orbitals:   3 (   3 )
 Number of active  orbitals:        1 (   1 )

 Basis set MINAO-AUTO-PP generated.      Number of basis functions:   7 

 Polarized AO type:                A = (O Ot + (1-O)(1-Ot)) P12
 Orthogonalization method:         Symmetric (Loewdin)
 Localization functional:          L = sum[A,i] <i|n_A|i>^4 -> max

 Localization group 1:   4 orbitals, occupancy  2.000
 Iterative localization: IB/PM,    4 iter; Final gradient 0.52E-11

 Bond order analysis:       [THRPRINT= 0.020]

   CEN ATOM   CEN ATOM     WIBERG.BO      RENORM.BO
     1   N  -   3   H       0.938574       1.000000
     1   N  -   2   H       0.938574       1.000000

     2   H  -   1   N       0.938574       1.000000

     3   H  -   1   N       0.938574       1.000000


 Valency analysis:

   CEN ATOM   TOT.VALENCE
     1   N       1.877148
     2   H       0.938575
     3   H       0.938575
 Localization group 2:   1 orbitals, occupancy  1.000
 Iterative localization: IB/PM,    1 iter; Final gradient 0.00E+00

 Bond order analysis:       [THRPRINT= 0.020]

   CEN ATOM   CEN ATOM     WIBERG.BO      RENORM.BO




 Valency analysis:

   CEN ATOM   TOT.VALENCE
     1   N      -0.000000
     2   H       0.000000
     3   H       0.000000

 Total charge composition:

   CEN ATOM         s          p       ELECTRONS ->P.CHARGE
     1   N       3.58833    3.90735      7.49568   -0.49568
     2   H       0.75216                 0.75216    0.24784
     3   H       0.75216                 0.75216    0.24784

 Total charge composition, AO contributions:

   CEN ATOM SHL      SPHERICAL COMPONENTS
     1   N  1s       1.99565
     1   N  2s       1.59268
     1   N  2p       1.50037    1.00000    1.40698

     2   H  1s       0.75216

     3   H  1s       0.75216

 Active orbital charges:

   CEN ATOM         s          p       ELECTRONS ->SPIN.DEN
     1   N       0.00000    1.00000      1.00000    1.00000
     2   H       0.00000                 0.00000    0.00000
     3   H       0.00000                 0.00000    0.00000

 Active orbital charges, AO contributions:

   CEN ATOM SHL      SPHERICAL COMPONENTS
     1   N  1s       0.00000
     1   N  2s       0.00000
     1   N  2p       0.00000    1.00000    0.00000

     2   H  1s       0.00000

     3   H  1s       0.00000

 Summary of localized orbital composition:   [THRPRINT= 0.020]

   ORB  GRP  ORB.ENERGY      CENTERS/CHARGES
     1   1   -15.167095      N  1   2.000
     2   1    -0.841036      N  1   1.248   H  2   0.752
     3   1    -0.840731      N  1   1.248   H  3   0.752
     4   1    -0.590124      N  1   2.000
     5   2    -0.214704      N  1   1.000

 Localized orbitals saved to record      2101.2  (orbital set 2)


 **********************************************************************************************************************************
 DATASETS  * FILE   NREC   LENGTH (MB)   RECORD NAMES
              1      20       31.27       500      610      700      900      950      970     1000      129      960     1100   
                                          VAR    BASINP    GEOM    SYMINP    ZMAT    AOBASIS   BASIS     P2S    ABASIS      S 
                                         1400     1410     1200     1210     1080     1600     1650     1300     1700     1800   
                                           T        V       H0       H01     AOSYM     SMH    MOLCAS    ERIS     OPER     GRID   

              2       6        5.43       700     1000      520     2100     1800     2101   
                                         GEOM     BASIS   MCVARS     RHF     GRID      RKS  

 PROGRAMS   *        TOTAL      IBBA        KS        HF       INT
 CPU TIMES  *         6.39      0.02      0.54      5.44      0.25
 REAL TIME  *         7.41 SEC
 DISK USED  *        37.04 MB      
 **********************************************************************************************************************************

 IBBA/TZVP energy=      0.000000000000

        DF-KS           HF-SCF  
    -55.86524657    -55.58199485
 **********************************************************************************************************************************
 Molpro calculation terminated
