
 Primary working directories    : /local
 Secondary working directories  : /local
 Wavefunction directory         : /local/
 Main file repository           : /local/

 SHA1      : b4a5b34a9e711420743f49e6833241d17c61fb3c
 NAME      : 2099.9.b4a5b34
 ARCHNAME  : linux/x86_64_openmp
 FC        : /cm/shared/languages/GCC-6.1/bin/gfortran
 BLASLIB   : -lblas
 id        : simonbennie

 Nodes     nprocs
 node35-045    1

 Using customized tuning parameters: mindgm=1; mindgv=20; mindgc=4; mindgr=1; noblas=0; minvec=7
 default implementation of scratch files=df  

 memory,500,m
 geomtyp=xyz
 nosym
 noorient
 geometry={
 N          0.00000        0.00000        0.11289
 H          0.00000        0.93802       -0.26341
 H          0.81235       -0.46901       -0.26341
 H         -0.81235       -0.46901       -0.26341
 }
 basis={ default,avdz }
 {df-ks,B-LYP,direct;disp;wf,10,1,0}
 {ibba,bonds=1}

 Variables initialized (895), CPU time= 0.00 sec
 Commands  initialized (725), CPU time= 0.02 sec, 591 directives.
 Default parameters read. Elapsed time= 0.08 sec

 Checking input...
 Passed
1


                                         ***  PROGRAM SYSTEM MOLPRO  ***
                                       Copyright, TTI GmbH Stuttgart, 2015
                                    Version 2099.9 linked May 26 2017 16:03:21


 **********************************************************************************************************************************
 LABEL *                                                                                 
  64 bit serial version                                                                  DATE: 15-Mar-18          TIME: 07:25:50  
 **********************************************************************************************************************************

 SHA1:             b4a5b34a9e711420743f49e6833241d17c61fb3c
 **********************************************************************************************************************************
 SETTING GEOMTYP        =    XYZ

 Variable memory set to  500000000 words,  buffer space 

 ZSYMEL=NOSYM

 SETTING BASIS          =    AVDZ


 Recomputing integrals since basis changed


 Using spherical harmonics

 Library entry N      S aug-cc-pVDZ          selected for orbital group  1
 Library entry N      P aug-cc-pVDZ          selected for orbital group  1
 Library entry N      D aug-cc-pVDZ          selected for orbital group  1
 Library entry H      S aug-cc-pVDZ          selected for orbital group  2
 Library entry H      P aug-cc-pVDZ          selected for orbital group  2


 PROGRAM * SEWARD (Integral evaluation for generally contracted gaussian basis sets)     Author: Roland Lindh, 1990

 Geometry written to block  1 of record 700


 Point group  C1  



 ATOMIC COORDINATES

 NR  ATOM    CHARGE       X              Y              Z

   1  N       7.00    0.000000000    0.000000000    0.213331182
   2  H       1.00    0.000000000    1.772600899   -0.497772758
   3  H       1.00    1.535119017   -0.886300450   -0.497772758
   4  H       1.00   -1.535119017   -0.886300450   -0.497772758

 Bond lengths in Bohr (Angstrom)

 1-2  1.909916952  1-3  1.909918244  1-4  1.909918244
     ( 1.010684526)     ( 1.010685209)     ( 1.010685209)

 Bond angles

  2-1-3  106.98158839   2-1-4  106.98158839   3-1-4  106.98165762

 NUCLEAR CHARGE:                   10
 NUMBER OF PRIMITIVE AOS:          70
 NUMBER OF SYMMETRY AOS:           68
 NUMBER OF CONTRACTIONS:           50   (  50A   )
 NUMBER OF CORE ORBITALS:           1   (   1A   )
 NUMBER OF VALENCE ORBITALS:        7   (   7A   )


 NUCLEAR REPULSION ENERGY   11.97236097


 Eigenvalues of metric

         1 0.235E-02 0.235E-02 0.251E-02 0.985E-02 0.156E-01 0.156E-01 0.217E-01 0.217E-01


 OPERATOR DM      FOR CENTER  0  COORDINATES:    0.000000    0.000000    0.000000


 **********************************************************************************************************************************
 DATASETS  * FILE   NREC   LENGTH (MB)   RECORD NAMES
              1      18       30.09       500      610      700      900      950      970     1000      129      960     1100   
                                          VAR    BASINP    GEOM    SYMINP    ZMAT    AOBASIS   BASIS     P2S    ABASIS      S 
                                         1400     1410     1200     1210     1080     1600     1650     1700   
                                           T        V       H0       H01     AOSYM     SMH    MOLCAS    OPER   

 PROGRAMS   *        TOTAL       INT
 CPU TIMES  *         0.30      0.15
 REAL TIME  *         0.55 SEC
 DISK USED  *        30.41 MB      
 **********************************************************************************************************************************

 Density functional group B-LYP=B88+LYP
 Functional: B88(Automatically generated (new) B88)                            Gradient terms: 1
 Functional: LYP(Automatically generated (new) LYP)                            Gradient terms: 1

 dispersion correction activated
 Density functional: B-LYP   

 Functional: B88                       Factor:  1.0000
 Functional: LYP                       Factor:  1.0000

 Use grid at  1800.2

 Functional: B88                       Factor:  1.0000
 Functional: LYP                       Factor:  1.0000

 Generated new metagrid on record  1800.2 with target accuracy 1.0D-06 and 13266 points in CPU time    0.3
 Computed new grid on record 1800.1 in CPU time    0.3
   43564 words reserved for DFT integration

 PROGRAM * RKS-SCF (Restricted closed shell Kohn-Sham)     Authors: W. Meyer, H.-J. Werner, P.J. Knowles, 1993

 NUMBER OF ELECTRONS:       5+    5-    SPACE SYMMETRY=1    SPIN SYMMETRY: Singlet 
 CONVERGENCE THRESHOLDS:    1.00E-05 (Density)    1.00E-06 (Energy)
 INTEGRAL THRESHOLDS:       1.00E-11 (Initial)    1.00E-11 (Final)
 MAX. NUMBER OF ITERATIONS:       60
 INTERPOLATION TYPE:            DIIS
 INTERPOLATION STEPS:              2 (START)      1 (STEP)
 LEVEL SHIFTS:                  0.00 (CLOSED)  0.00 (OPEN) 



 Use fine grid record 1800.2 for energy threshold  1.0D-06

 Basis set AUG-CC-PVDZ/JKFIT generated.  Number of basis functions:   182 
 Coulomb fitting
 Screening thresholds:    THRAO_COUL= 1.0D-14    THRAO= 1.0D-12    THROV= 1.0D-12

 Reserved 0 MW to cache 100.0% of significant integrals. CPU: 0.0 sec

 Orbital guess generated from atomic densities. Full valence occupancy:    8
 Using density fitting in orbital guess


 Molecular orbital dump at record        2100.2

 Initial occupancy:   5

 ITERATION   DDIFF            GRAD            ENERGY        2-EL.EN.            DIPOLE MOMENTS         DIIS   CPU(IT)  CPU(TOT)  ORB.
    1      0.000D+00      0.000D+00       -56.43809845     83.036640    0.00000    0.00000   -0.94019    0      0.1      0.2     start
    2      0.000D+00      0.227D-01       -56.04373608     67.923290   -0.00000    0.00012    0.87354    1      0.1      0.3     diag
    3      0.615D-01      0.463D-01       -56.54142849     78.602490   -0.00000   -0.00000   -0.64674    2      0.1      0.4     diag
    4      0.413D-01      0.183D-02       -56.54236480     78.153089   -0.00000    0.00001   -0.56537    3      0.1      0.5     diag
    5      0.203D-02      0.205D-03       -56.54237439     78.171864   -0.00000    0.00001   -0.57727    4      0.1      0.5     diag
    6      0.158D-03      0.526D-04       -56.54237500     78.178529   -0.00000    0.00001   -0.57595    5      0.1      0.6     diag
    7      0.495D-04      0.224D-05       -56.54237500     78.178920   -0.00000    0.00001   -0.57592    6      0.1      0.7     diag
    8      0.249D-05      0.185D-06       -56.54237500     78.179011   -0.00000    0.00001   -0.57593    0      0.1      0.8     orth

 Dispersion correction
 - - - - - - - - - - - 
  _________________________________
                                   
 |         DFTD3 V1.3 Rev 1        |
 | S.Grimme, University Muenster   |
 | Fri Jul  2 12:48:21 CEST 2010   |
  _________________________________

 Please cite DFT-D3 work done with this code as:
 S. Grimme, J. Antony, S. Ehrlich and H. Krieg,
 J. Chem. Phys, 132 (2010), 154104.
 For DFT-D2 the reference is
 S. Grimme, J. Comput. Chem., 27 (2006), 1787-1799

 C6 coefficients used:
                    2  C6 for element                     1
 Z=  1 CN=   0.912     C6(AA)=    3.03
 Z=  1 CN=   0.000     C6(AA)=    7.59
                    4  C6 for element                     7
 Z=  7 CN=   0.000     C6(AA)=   25.27
 Z=  7 CN=   0.994     C6(AA)=   22.12
 Z=  7 CN=   2.014     C6(AA)=   19.68
 Z=  7 CN=   2.990     C6(AA)=   15.58

 #           XYZ [au]               R0(AA) [Ang.]   CN       C6(AA)     C8(AA)   C10(AA) [au]
  1   0.00000   0.00000   0.21333   n   1.311  2.990        15.7       345.6      9338.9
  2   0.00000   1.77260  -0.49777   h   1.091  0.998         3.1        37.4       553.4
  3   1.53512  -0.88630  -0.49777   h   1.091  0.998         3.1        37.4       553.4
  4  -1.53512  -0.88630  -0.49777   h   1.091  0.998         3.1        37.4       553.4

 molecular C6(AA) [au] =        84.66

           DFT-D V3
 DF b-lyp                                             
 parameters
 s6       :    1.0000
 s8       :    1.6820
 rs6      :    1.0940
 alpha6   :   14.0000
 alpha8   :   16.0000
 k1-k3    :   16.0000    1.3333   -4.0000

 Edisp /kcal,au:    -0.0280 -0.00004462

 E6    /kcal :    -0.0054
 E8    /kcal :    -0.0226
 % E8        : 80.81
 normal termination of dftd3

 RKS STATE 1.1 ENERGY+DISP      -56.54241962

 Final occupancy:   5

 !RKS STATE 1.1 Energy                -56.542419619206
 Nuclear energy                        11.97236097
 One-electron energy                  -99.61319509
 Two-electron energy                   39.08950557
 Density functional                    -7.99104645     B88=-7.67357819 LYP=-0.31746825
 Virial quotient                       -1.00648882
 !RKS STATE 1.1 Dipole moment          -0.00000000     0.00000831    -0.57593494
 Dipole moment /Debye                  -0.00000000     0.00002113    -1.46378473

 Orbital energies:

         1.1          2.1          3.1          4.1          5.1          6.1          7.1
    -14.009428    -0.775498    -0.413721    -0.413720    -0.223255    -0.029820     0.018790

 HOMO      5.1    -0.223255 =      -6.0751eV
 LUMO      6.1    -0.029820 =      -0.8114eV
 LUMO-HOMO         0.193435 =       5.2636eV


 **********************************************************************************************************************************
 DATASETS  * FILE   NREC   LENGTH (MB)   RECORD NAMES
              1      19       30.52       500      610      700      900      950      970     1000      129      960     1100   
                                          VAR    BASINP    GEOM    SYMINP    ZMAT    AOBASIS   BASIS     P2S    ABASIS      S 
                                         1400     1410     1200     1210     1080     1600     1650     1700     1800   
                                           T        V       H0       H01     AOSYM     SMH    MOLCAS    OPER     GRID   

              2       5        2.85       700     1000      520     1800     2100   
                                         GEOM     BASIS   MCVARS    GRID      RKS  

 PROGRAMS   *        TOTAL        KS       INT
 CPU TIMES  *         1.38      1.08      0.15
 REAL TIME  *         1.67 SEC
 DISK USED  *        33.76 MB      
 **********************************************************************************************************************************


 PROGRAM * Intrinsic Basis Bonding Analysis (IBBA)          Author: G. Knizia

 Molecular orbitals read from record     2100.2  Type=RKS/CANONICAL (state 1.1)
 Fock matrix read from record            2100.2  Type=RKS/TOTAL (state 1.1)
 Orbital energies read from record       2100.2  Type=RKS/CANONICAL (state 1.1)
 Density matrix read from record         2100.2  Type=RKS/CHARGE (state 1.1)

 Number of core orbitals:           1 (   1 )
 Number of closed-shell orbitals:   4 (   4 )

 Basis set MINAO-AUTO-PP generated.      Number of basis functions:   8 

 Polarized AO type:                A = (O Ot + (1-O)(1-Ot)) P12
 Orthogonalization method:         Symmetric (Loewdin)
 Localization functional:          L = sum[A,i] <i|n_A|i>^4 -> max

 Localization group 1:   5 orbitals, occupancy  2.000
 Iterative localization: IB/PM,    5 iter; Final gradient 0.35E-10

 Bond order analysis:       [THRPRINT= 0.020]

   CEN ATOM   CEN ATOM     WIBERG.BO      RENORM.BO
     1   N  -   2   H       0.933659       1.000000
     1   N  -   3   H       0.933658       1.000000
     1   N  -   4   H       0.933658       1.000000

     2   H  -   1   N       0.933659       1.000000

     3   H  -   1   N       0.933658       1.000000

     4   H  -   1   N       0.933658       1.000000


 Valency analysis:

   CEN ATOM   TOT.VALENCE
     1   N       2.800976
     2   H       0.933893
     3   H       0.933892
     4   H       0.933892

 Total charge composition:

   CEN ATOM         s          p       ELECTRONS ->P.CHARGE
     1   N       3.39870    4.37264      7.77134   -0.77134
     2   H       0.74289                 0.74289    0.25711
     3   H       0.74289                 0.74289    0.25711
     4   H       0.74289                 0.74289    0.25711

 Total charge composition, AO contributions:

   CEN ATOM SHL      SPHERICAL COMPONENTS
     1   N  1s       1.99423
     1   N  2s       1.40447
     1   N  2p       1.26793    1.26793    1.83678

     2   H  1s       0.74289

     3   H  1s       0.74289

     4   H  1s       0.74289

 Summary of localized orbital composition:   [THRPRINT= 0.020]

   ORB  GRP  ORB.ENERGY      CENTERS/CHARGES
     1   1   -13.878423      N  1   2.000
     2   1    -0.568185      N  1   1.257   H  2   0.743
     3   1    -0.568184      N  1   1.257   H  4   0.743
     4   1    -0.568184      N  1   1.257   H  3   0.743
     5   1    -0.252647      N  1   2.000

 Localized orbitals saved to record      2100.2  (orbital set 2)


 **********************************************************************************************************************************
 DATASETS  * FILE   NREC   LENGTH (MB)   RECORD NAMES
              1      19       30.52       500      610      700      900      950      970     1000      129      960     1100   
                                          VAR    BASINP    GEOM    SYMINP    ZMAT    AOBASIS   BASIS     P2S    ABASIS      S 
                                         1400     1410     1200     1210     1080     1600     1650     1700     1800   
                                           T        V       H0       H01     AOSYM     SMH    MOLCAS    OPER     GRID   

              2       5        2.88       700     1000      520     1800     2100   
                                         GEOM     BASIS   MCVARS    GRID      RKS  

 PROGRAMS   *        TOTAL      IBBA        KS       INT
 CPU TIMES  *         1.39      0.01      1.08      0.15
 REAL TIME  *         1.70 SEC
 DISK USED  *        33.76 MB      
 **********************************************************************************************************************************

 IBBA/aug-cc-pVDZ energy=      0.000000000000

        DF-KS   
    -56.54241962
 **********************************************************************************************************************************
 Molpro calculation terminated
