
 Primary working directories    : /local
 Secondary working directories  : /local
 Wavefunction directory         : /local/
 Main file repository           : /local/

 SHA1      : b4a5b34a9e711420743f49e6833241d17c61fb3c
 NAME      : 2099.9.b4a5b34
 ARCHNAME  : linux/x86_64_openmp
 FC        : /cm/shared/languages/GCC-6.1/bin/gfortran
 BLASLIB   : -lblas
 id        : simonbennie

 Nodes     nprocs
 node32-002    1

 Using customized tuning parameters: mindgm=1; mindgv=20; mindgc=4; mindgr=1; noblas=0; minvec=7
 default implementation of scratch files=df  

 memory,500,m
 geomtyp=xyz
 nosym
 noorient
 geometry={
 N          0.00000        0.00000        0.11289
 H          0.00000        0.93802       -0.26341
 H          0.81235       -0.46901       -0.26341
 H         -0.81235       -0.46901       -0.26341
 }
 basis={ default,SV(P) }
 {ks,B-P,direct;wf,10,1,0}
 {ibba,bonds=1}

 Variables initialized (895), CPU time= 0.00 sec
 Commands  initialized (725), CPU time= 0.01 sec, 591 directives.
 Default parameters read. Elapsed time= 0.08 sec

 Checking input...
 Passed
1


                                         ***  PROGRAM SYSTEM MOLPRO  ***
                                       Copyright, TTI GmbH Stuttgart, 2015
                                    Version 2099.9 linked May 26 2017 16:03:21


 **********************************************************************************************************************************
 LABEL *                                                                                 
  64 bit serial version                                                                  DATE: 20-Jun-17          TIME: 18:50:28  
 **********************************************************************************************************************************

 SHA1:             b4a5b34a9e711420743f49e6833241d17c61fb3c
 **********************************************************************************************************************************
 SETTING GEOMTYP        =    XYZ

 Variable memory set to  500000000 words,  buffer space 

 ZSYMEL=NOSYM

 SETTING BASIS          =    SV(P)


 Recomputing integrals since basis changed


 Using spherical harmonics

 Library entry N      S def2-SV(P)           selected for orbital group  1
 Library entry N      P def2-SV(P)           selected for orbital group  1
 Library entry N      D def2-SV(P)           selected for orbital group  1
 Library entry H      S def2-SV(P)           selected for orbital group  2


 PROGRAM * SEWARD (Integral evaluation for generally contracted gaussian basis sets)     Author: Roland Lindh, 1990

 Geometry written to block  1 of record 700


 Point group  C1  



 ATOMIC COORDINATES

 NR  ATOM    CHARGE       X              Y              Z

   1  N       7.00    0.000000000    0.000000000    0.213331182
   2  H       1.00    0.000000000    1.772600899   -0.497772758
   3  H       1.00    1.535119017   -0.886300450   -0.497772758
   4  H       1.00   -1.535119017   -0.886300450   -0.497772758

 Bond lengths in Bohr (Angstrom)

 1-2  1.909916952  1-3  1.909918244  1-4  1.909918244
     ( 1.010684526)     ( 1.010685209)     ( 1.010685209)

 Bond angles

  2-1-3  106.98158839   2-1-4  106.98158839   3-1-4  106.98165762

 NUCLEAR CHARGE:                   10
 NUMBER OF PRIMITIVE AOS:          37
 NUMBER OF SYMMETRY AOS:           36
 NUMBER OF CONTRACTIONS:           20   (  20A   )
 NUMBER OF CORE ORBITALS:           1   (   1A   )
 NUMBER OF VALENCE ORBITALS:        7   (   7A   )


 NUCLEAR REPULSION ENERGY   11.97236097


 Eigenvalues of metric

         1 0.362E-01 0.109E+00 0.109E+00 0.209E+00 0.209E+00 0.241E+00 0.433E+00 0.549E+00


 Contracted 2-electron integrals neglected if value below      1.0D-11
 AO integral compression algorithm  1   Integral accuracy      1.0D-11

     0.262 MB (compressed) written to integral file (100.0%)


 NUMBER OF SORTED TWO-ELECTRON INTEGRALS:      22155.     BUFFER LENGTH:  32768
 NUMBER OF SEGMENTS:   1  SEGMENT LENGTH:      22155      RECORD LENGTH: 524288

 Memory used in sort:       0.58 MW

 SORT1 READ       28886. AND WROTE       15646. INTEGRALS IN      1 RECORDS. CPU TIME:     0.00 SEC, REAL TIME:     0.01 SEC
 SORT2 READ       15646. AND WROTE       22155. INTEGRALS IN      1 RECORDS. CPU TIME:     0.00 SEC, REAL TIME:     0.01 SEC

 FILE SIZES:   FILE 1:    30.3 MBYTE,  FILE 4:     4.2 MBYTE,   TOTAL:     34.5 MBYTE

 OPERATOR DM      FOR CENTER  0  COORDINATES:    0.000000    0.000000    0.000000


 **********************************************************************************************************************************
 DATASETS  * FILE   NREC   LENGTH (MB)   RECORD NAMES
              1      19       30.11       500      610      700      900      950      970     1000      129      960     1100   
                                          VAR    BASINP    GEOM    SYMINP    ZMAT    AOBASIS   BASIS     P2S    ABASIS      S 
                                         1400     1410     1200     1210     1080     1600     1650     1300     1700   
                                           T        V       H0       H01     AOSYM     SMH    MOLCAS    ERIS     OPER   

 PROGRAMS   *        TOTAL       INT
 CPU TIMES  *         0.35      0.20
 REAL TIME  *         0.64 SEC
 DISK USED  *        34.81 MB      
 **********************************************************************************************************************************

 Density functional group B-P=B88+P86
 Functional: B88(Automatically generated (new) B88)                            Gradient terms: 1
 Functional: P86(Automatically generated (new) P86)                            Gradient terms: 1
 Use grid at  1800.2

 Functional: B88                       Factor:  1.0000
 Functional: P86                       Factor:  1.0000

 Generated new metagrid on record  1800.2 with target accuracy 1.0D-06 and 13266 points in CPU time    0.3
 Computed new grid on record 1800.1 in CPU time    0.3
   19753 words reserved for DFT integration

 PROGRAM * RKS-SCF (Restricted closed shell Kohn-Sham)     Authors: W. Meyer, H.-J. Werner, P.J. Knowles, 1993

 NUMBER OF ELECTRONS:       5+    5-    SPACE SYMMETRY=1    SPIN SYMMETRY: Singlet 
 CONVERGENCE THRESHOLDS:    1.00E-05 (Density)    1.00E-06 (Energy)
 MAX. NUMBER OF ITERATIONS:       60
 INTERPOLATION TYPE:            DIIS
 INTERPOLATION STEPS:              2 (START)      1 (STEP)
 LEVEL SHIFTS:                  0.00 (CLOSED)  0.00 (OPEN) 



 Use fine grid record 1800.2 for energy threshold  1.0D-06
 Orbital guess generated from atomic densities. Full valence occupancy:    5

 Molecular orbital dump at record        2100.2

 Initial occupancy:   5

 ITERATION    DDIFF          GRAD             ENERGY        2-EL.EN.            DIPOLE MOMENTS         DIIS   ORB.
    1      0.000D+00      0.000D+00       -56.39386996     83.069835    0.00000   -0.00000   -1.03191    0    start
    2      0.000D+00      0.395D-01       -56.21662720     71.292894   -0.00000    0.00002   -0.11337    1    diag
    3      0.922D-01      0.627D-01       -56.49465597     78.702496   -0.00000   -0.00000   -0.73352    2    diag
    4      0.655D-01      0.198D-02       -56.49493522     78.494686   -0.00000    0.00000   -0.72599    3    diag
    5      0.224D-02      0.333D-03       -56.49494182     78.485788   -0.00000   -0.00000   -0.72177    4    diag
    6      0.274D-03      0.216D-04       -56.49494185     78.488030   -0.00000    0.00000   -0.72203    5    diag
    7      0.164D-04      0.653D-06       -56.49494185     78.488053   -0.00000    0.00000   -0.72201    6    diag
    8      0.118D-05      0.748D-07       -56.49494185     78.488072   -0.00000    0.00000   -0.72201    0    orth

 Final occupancy:   5

 !RKS STATE 1.1 Energy                -56.494941849570
 Nuclear energy                        11.97236097
 One-electron energy                  -99.67228901
 Two-electron energy                   39.24403578
 Density functional                    -8.03904958     B88=-7.68815746 P86=-0.35089213
 Virial quotient                       -1.00723859
 !RKS STATE 1.1 Dipole moment          -0.00000000     0.00000007    -0.72201452
 Dipole moment /Debye                  -0.00000000     0.00000017    -1.83505765

 Orbital energies:

         1.1          2.1          3.1          4.1          5.1          6.1          7.1
    -13.969061    -0.762862    -0.409457    -0.409456    -0.198892     0.042043     0.124891

 HOMO      5.1    -0.198892 =      -5.4121eV
 LUMO      6.1     0.042043 =       1.1441eV
 LUMO-HOMO         0.240936 =       6.5562eV


 **********************************************************************************************************************************
 DATASETS  * FILE   NREC   LENGTH (MB)   RECORD NAMES
              1      20       30.53       500      610      700      900      950      970     1000      129      960     1100   
                                          VAR    BASINP    GEOM    SYMINP    ZMAT    AOBASIS   BASIS     P2S    ABASIS      S 
                                         1400     1410     1200     1210     1080     1600     1650     1300     1700     1800   
                                           T        V       H0       H01     AOSYM     SMH    MOLCAS    ERIS     OPER     GRID   

              2       5        2.81       700     1000      520     1800     2100   
                                         GEOM     BASIS   MCVARS    GRID      RKS  

 PROGRAMS   *        TOTAL        KS       INT
 CPU TIMES  *         1.05      0.70      0.20
 REAL TIME  *         1.70 SEC
 DISK USED  *        34.81 MB      
 **********************************************************************************************************************************


 PROGRAM * Intrinsic Basis Bonding Analysis (IBBA)          Author: G. Knizia

 Molecular orbitals read from record     2100.2  Type=RKS/CANONICAL (state 1.1)
 Fock matrix read from record            2100.2  Type=RKS/TOTAL (state 1.1)
 Orbital energies read from record       2100.2  Type=RKS/CANONICAL (state 1.1)
 Density matrix read from record         2100.2  Type=RKS/CHARGE (state 1.1)

 Number of core orbitals:           1 (   1 )
 Number of closed-shell orbitals:   4 (   4 )

 Basis set MINAO-AUTO-PP generated.      Number of basis functions:   8 

 Polarized AO type:                A = (O Ot + (1-O)(1-Ot)) P12
 Orthogonalization method:         Symmetric (Loewdin)
 Localization functional:          L = sum[A,i] <i|n_A|i>^4 -> max

 Localization group 1:   5 orbitals, occupancy  2.000
 Iterative localization: IB/PM,    5 iter; Final gradient 0.21E-10

 Bond order analysis:       [THRPRINT= 0.020]

   CEN ATOM   CEN ATOM     WIBERG.BO      RENORM.BO
     1   N  -   2   H       0.947458       1.000000
     1   N  -   3   H       0.947457       1.000000
     1   N  -   4   H       0.947457       1.000000

     2   H  -   1   N       0.947458       1.000000

     3   H  -   1   N       0.947457       1.000000

     4   H  -   1   N       0.947457       1.000000


 Valency analysis:

   CEN ATOM   TOT.VALENCE
     1   N       2.842373
     2   H       0.947681
     3   H       0.947681
     4   H       0.947681

 Total charge composition:

   CEN ATOM         s          p       ELECTRONS ->P.CHARGE
     1   N       3.37251    4.31369      7.68620   -0.68620
     2   H       0.77127                 0.77127    0.22873
     3   H       0.77127                 0.77127    0.22873
     4   H       0.77127                 0.77127    0.22873

 Total charge composition, AO contributions:

   CEN ATOM SHL      SPHERICAL COMPONENTS
     1   N  1s       1.99417
     1   N  2s       1.37834
     1   N  2p       1.23931    1.23930    1.83508

     2   H  1s       0.77127

     3   H  1s       0.77127

     4   H  1s       0.77127

 Summary of localized orbital composition:   [THRPRINT= 0.020]

   ORB  GRP  ORB.ENERGY      CENTERS/CHARGES
     1   1   -13.842882      N  1   2.000
     2   1    -0.561744      N  1   1.229   H  2   0.771
     3   1    -0.561742      N  1   1.229   H  4   0.771
     4   1    -0.561742      N  1   1.229   H  3   0.771
     5   1    -0.221619      N  1   2.000

 Localized orbitals saved to record      2100.2  (orbital set 2)


 **********************************************************************************************************************************
 DATASETS  * FILE   NREC   LENGTH (MB)   RECORD NAMES
              1      20       30.53       500      610      700      900      950      970     1000      129      960     1100   
                                          VAR    BASINP    GEOM    SYMINP    ZMAT    AOBASIS   BASIS     P2S    ABASIS      S 
                                         1400     1410     1200     1210     1080     1600     1650     1300     1700     1800   
                                           T        V       H0       H01     AOSYM     SMH    MOLCAS    ERIS     OPER     GRID   

              2       5        2.81       700     1000      520     1800     2100   
                                         GEOM     BASIS   MCVARS    GRID      RKS  

 PROGRAMS   *        TOTAL      IBBA        KS       INT
 CPU TIMES  *         1.07      0.02      0.70      0.20
 REAL TIME  *         1.75 SEC
 DISK USED  *        34.81 MB      
 **********************************************************************************************************************************
 Molecular orbitals read from record     2100.2  Type=RKS/LOCAL(IBO)  
 Occupation numbers read from record     2100.2  Type=RKS/LOCAL(IBO)  
 Orbital energies read from record       2100.2  Type=RKS/LOCAL(IBO)  
 Redundancy group numbers read from rec  2100.2  Type=RKS/LOCAL(IBO)  

 IBBA/SV(P) energy=      0.000000000000

        KS-SCF  
    -56.49494185
 **********************************************************************************************************************************
 Molpro calculation terminated
