
 Primary working directories    : /local/molpro.rc3aCv6BjT
 Secondary working directories  : /local/molpro.rc3aCv6BjT
 Wavefunction directory         : /local/
 Main file repository           : /local/molpro.rc3aCv6BjT/

 id        : simonbennie

 Nodes     nprocs
 node45-003    1

 Using customized tuning parameters: mindgm=1; mindgv=20; mindgc=4; mindgr=1; noblas=0; minvec=7
 default implementation of scratch files=df  

 memory,500,m
 geomtyp=xyz
 nosym
 noorient
 geometry={
 N          0.00000        0.00000        0.00000
 H          0.00000        0.00000        1.03673
 }
 basis={default,sto-3g}
 {hf,direct;wf,8,1,2}
 
 basis={ default,6-31+G(d,p) }
 {ks,LDA,direct;wf,8,1,2}
 {ibba,bonds=1}

 Variables initialized (920), CPU time= 0.01 sec
 Commands  initialized (754), CPU time= 0.01 sec, 615 directives.
 Default parameters read. Elapsed time= 0.09 sec

 Checking input...
 Passed
1


                                         ***  PROGRAM SYSTEM MOLPRO  ***
                                       Copyright, TTI GmbH Stuttgart, 2015
                                    Version 2018.0 linked Jul  6 2018 18:07:13


 **********************************************************************************************************************************
 LABEL *                                                                                 
  64 bit serial version                                                                  DATE: 10-Oct-18          TIME: 23:34:18  
 **********************************************************************************************************************************

 SHA1:             b58f8fddb9d75525be9261ebe3faf0e4279c479b
 **********************************************************************************************************************************
 SETTING GEOMTYP        =    XYZ

 Variable memory set to  500000000 words,  buffer space 

 ZSYMEL=NOSYM

 SETTING BASIS          =    STO-3G


 Recomputing integrals since basis changed


 Using spherical harmonics

 Library entry N      S STO-3G               selected for orbital group  1
 Library entry N      P STO-3G               selected for orbital group  1
 Library entry H      S STO-3G               selected for orbital group  2


 PROGRAM * SEWARD (Integral evaluation for generally contracted gaussian basis sets)     Author: Roland Lindh, 1990

 Geometry written to block  1 of record 700


 Point group  C1  



 ATOMIC COORDINATES

 NR  ATOM    CHARGE       X              Y              Z

   1  N       7.00    0.000000000    0.000000000    0.000000000
   2  H       1.00    0.000000000    0.000000000    1.959135765

 Bond lengths in Bohr (Angstrom)

 1-2  1.959135765
     ( 1.036730000)

 NUCLEAR CHARGE:                    8
 NUMBER OF PRIMITIVE AOS:          18
 NUMBER OF SYMMETRY AOS:           18
 NUMBER OF CONTRACTIONS:            6   (   6A   )
 NUMBER OF CORE ORBITALS:           1   (   1A   )
 NUMBER OF VALENCE ORBITALS:        5   (   5A   )


 NUCLEAR REPULSION ENERGY    3.57300404

 EXTRA SYMMETRY OF AOS IN SYMMETRY 1:   1 1 2 3 1 1

 Eigenvalues of metric

         1 0.343E+00 0.834E+00 0.100E+01 0.100E+01 0.114E+01 0.169E+01


 Contracted 2-electron integrals neglected if value below      1.0D-11
 AO integral compression algorithm  1   Integral accuracy      1.0D-11

     0.262 MB (compressed) written to integral file (100.0%)


 NUMBER OF SORTED TWO-ELECTRON INTEGRALS:        231.     BUFFER LENGTH:  32768
 NUMBER OF SEGMENTS:   1  SEGMENT LENGTH:        231      RECORD LENGTH: 524288

 Memory used in sort:       0.56 MW

 SORT1 READ         319. AND WROTE          83. INTEGRALS IN      1 RECORDS. CPU TIME:     0.00 SEC, REAL TIME:     0.01 SEC
 SORT2 READ          83. AND WROTE         231. INTEGRALS IN      1 RECORDS. CPU TIME:     0.00 SEC, REAL TIME:     0.00 SEC

 FILE SIZES:   FILE 1:    30.2 MBYTE,  FILE 4:     4.2 MBYTE,   TOTAL:     34.4 MBYTE

 OPERATOR DM      FOR CENTER  0  COORDINATES:    0.000000    0.000000    0.000000


 **********************************************************************************************************************************
 DATASETS  * FILE   NREC   LENGTH (MB)   RECORD NAMES
              1      19       29.95       500      610      700      900      950      970     1000      129      960     1100   
                                          VAR    BASINP    GEOM    SYMINP    ZMAT    AOBASIS   BASIS     P2S    ABASIS      S 
                                         1400     1410     1200     1210     1080     1600     1650     1300     1700   
                                           T        V       H0       H01     AOSYM     SMH    MOLCAS    ERIS     OPER   

 PROGRAMS   *        TOTAL       INT
 CPU TIMES  *         0.41      0.27
 REAL TIME  *         0.74 SEC
 DISK USED  *        34.71 MB
 **********************************************************************************************************************************


 PROGRAM * RHF-SCF (OPEN SHELL)       Authors: W. Meyer, H.-J. Werner


 NUMBER OF ELECTRONS:       5+    3-    SPACE SYMMETRY=1    SPIN SYMMETRY: Triplet 
 CONVERGENCE THRESHOLDS:    1.00E-05 (Density)    1.00E-07 (Energy)
 INTEGRAL THRESHOLDS:       1.00E-11 (Initial)    1.00E-11 (Final)
 MAX. NUMBER OF ITERATIONS:       60
 INTERPOLATION TYPE:            DIIS
 INTERPOLATION STEPS:              2 (START)      1 (STEP)
 LEVEL SHIFTS:                 -0.60 (CLOSED) -0.30 (OPEN) 



 Orbital guess generated from atomic densities. Full valence occupancy:    4

 Molecular orbital dump at record        2100.2

 Initial alpha occupancy:   5
 Initial beta  occupancy:   3
 Wave function symmetry:    1

 Direct Fock-matrix evaluation.        Author: H.-J. Werner (1996)

 Integral Threshold:                  0.1D-10

 ITERATION   DDIFF            GRAD            ENERGY        2-EL.EN.            DIPOLE MOMENTS         DIIS   CPU(IT)  CPU(TOT)
    1      0.000D+00      0.000D+00       -54.24999164     47.232496   -0.00000    0.00000    0.76152    0      0.9      1.7     start
    2      0.000D+00      0.196D-01       -54.25622431     46.923898   -0.00000    0.00000    0.62064    1      0.5      2.1     diag,B
    3      0.296D-01      0.784D-02       -54.25755329     46.731896   -0.00000    0.00000    0.52515    2      0.5      2.6     diag,B
    4      0.204D-01      0.115D-02       -54.25758080     46.718710   -0.00000    0.00000    0.51474    3      0.5      3.0     diag,B
    5      0.291D-02      0.385D-03       -54.25758386     46.719226   -0.00000    0.00000    0.51244    4      0.5      3.5     diag,B
    6      0.117D-02      0.339D-05       -54.25758386     46.719315   -0.00000    0.00000    0.51249    5      0.5      4.0     diag,B
    7      0.963D-05      0.138D-07       -54.25758386     46.719315   -0.00000    0.00000    0.51249    0      0.5      4.4     orth

 Final alpha occupancy:   5
 Final beta  occupancy:   3

 !RHF STATE  1.1 Energy               -54.257583862073
 Nuclear energy                         3.57300404
 One-electron energy                  -81.19024537
 Two-electron energy                   23.35965747
 Virial quotient                       -1.00227067
 !RHF STATE  1.1 Dipole moment         -0.00000000     0.00000000     0.51248934
 Dipole moment /Debye                  -0.00000000     0.00000000     1.30253265

 Orbital energies:

         1.1          2.1          3.1          4.1          5.1          6.1
    -15.328003    -0.978324    -0.462840    -0.466297    -0.466297     0.614036


 HOMO      5.1    -0.466297 =     -12.6886eV
 LUMO      6.1     0.614036 =      16.7088eV
 LUMO-HOMO         1.080334 =      29.3974eV


 **********************************************************************************************************************************
 DATASETS  * FILE   NREC   LENGTH (MB)   RECORD NAMES
              1      19       29.95       500      610      700      900      950      970     1000      129      960     1100   
                                          VAR    BASINP    GEOM    SYMINP    ZMAT    AOBASIS   BASIS     P2S    ABASIS      S 
                                         1400     1410     1200     1210     1080     1600     1650     1300     1700   
                                           T        V       H0       H01     AOSYM     SMH    MOLCAS    ERIS     OPER   

              2       4        2.76       700     1000      520     2100   
                                         GEOM     BASIS   MCVARS     RHF  

 PROGRAMS   *        TOTAL    HF-SCF       INT
 CPU TIMES  *         4.86      4.43      0.27
 REAL TIME  *         6.07 SEC
 DISK USED  *        34.71 MB
 **********************************************************************************************************************************
 SETTING BASIS          =    6-31+G(D,P)


 Recomputing integrals since basis changed


 Using spherical harmonics

 Library entry N      S 6-31G                selected for orbital group  1
 Library entry N      S 6-31++G              selected for orbital group  1
 Library entry N      P 6-31G                selected for orbital group  1
 Library entry N      P 6-31++G              selected for orbital group  1
 Library entry N      D 6-31G*               selected for orbital group  1
 Library entry H      S 6-31G                selected for orbital group  2
 Library entry H      P 6-31G**              selected for orbital group  2


 PROGRAM * SEWARD (Integral evaluation for generally contracted gaussian basis sets)     Author: Roland Lindh, 1990

 Geometry written to block  1 of record 700


 Point group  C1  



 ATOMIC COORDINATES

 NR  ATOM    CHARGE       X              Y              Z

   1  N       7.00    0.000000000    0.000000000    0.000000000
   2  H       1.00    0.000000000    0.000000000    1.959135765

 Bond lengths in Bohr (Angstrom)

 1-2  1.959135765
     ( 1.036730000)

 NUCLEAR CHARGE:                    8
 NUMBER OF PRIMITIVE AOS:          39
 NUMBER OF SYMMETRY AOS:           38
 NUMBER OF CONTRACTIONS:           23   (  23A   )
 NUMBER OF CORE ORBITALS:           1   (   1A   )
 NUMBER OF VALENCE ORBITALS:        5   (   5A   )


 NUCLEAR REPULSION ENERGY    3.57300404

 EXTRA SYMMETRY OF AOS IN SYMMETRY 1:   1 1 1 1 2 3 1 2 3 1   2 3 1 1 4 2 5 3 1 1   2 3 1

 Eigenvalues of metric

         1 0.417E-01 0.815E-01 0.156E+00 0.236E+00 0.236E+00 0.255E+00 0.533E+00 0.637E+00


 Contracted 2-electron integrals neglected if value below      1.0D-11
 AO integral compression algorithm  1   Integral accuracy      1.0D-11

     0.262 MB (compressed) written to integral file ( 45.2%)


 NUMBER OF SORTED TWO-ELECTRON INTEGRALS:      38226.     BUFFER LENGTH:  32768
 NUMBER OF SEGMENTS:   1  SEGMENT LENGTH:      38226      RECORD LENGTH: 524288

 Memory used in sort:       0.60 MW

 SORT1 READ       52420. AND WROTE        8381. INTEGRALS IN      1 RECORDS. CPU TIME:     0.00 SEC, REAL TIME:     0.00 SEC
 SORT2 READ        8381. AND WROTE       38226. INTEGRALS IN      1 RECORDS. CPU TIME:     0.01 SEC, REAL TIME:     0.01 SEC

 FILE SIZES:   FILE 1:    30.2 MBYTE,  FILE 4:     4.2 MBYTE,   TOTAL:     34.5 MBYTE

 OPERATOR DM      FOR CENTER  0  COORDINATES:    0.000000    0.000000    0.000000


 **********************************************************************************************************************************
 DATASETS  * FILE   NREC   LENGTH (MB)   RECORD NAMES
              1      19       30.05       500      610      700      900      950      970     1001      129      960     1100   
                                          VAR    BASINP    GEOM    SYMINP    ZMAT    AOBASIS   BASIS     P2S    ABASIS      S 
                                         1400     1410     1200     1210     1080     1600     1650     1300     1700   
                                           T        V       H0       H01     AOSYM     SMH    MOLCAS    ERIS     OPER   

              2       5        2.77       700     1000      520     2100     1001   
                                         GEOM     BASIS   MCVARS     RHF     BASIS   

 PROGRAMS   *        TOTAL       INT    HF-SCF       INT
 CPU TIMES  *         5.07      0.20      4.43      0.27
 REAL TIME  *         6.35 SEC
 DISK USED  *        37.28 MB
 **********************************************************************************************************************************

 Density functional group LDA=DIRAC+VWN5
 Functional: DIRAC(Automatically generated (new) DIRAC)                        Gradient terms: 0
 Functional: VWN5(Automatically generated (new) VWN5)                          Gradient terms: 0
 Use libxcgrid:  F
 Use grid at  1800.2

 Functional: DIRAC                     Factor:  1.0000
 Functional: VWN5                      Factor:  1.0000

 Generated new metagrid on record  1800.2 with target accuracy 1.0D-06 and 8054 points in CPU time    0.1
 Computed new grid on record 1800.1 in CPU time    0.1
   13304 words reserved for DFT integration

 PROGRAM * RKS-SCF (Restricted open shell Kohn-Sham)     Authors: W. Meyer, H.-J. Werner, P.J. Knowles, 1993

 NUMBER OF ELECTRONS:       5+    3-    SPACE SYMMETRY=1    SPIN SYMMETRY: Triplet 
 CONVERGENCE THRESHOLDS:    1.00E-05 (Density)    1.00E-06 (Energy)
 MAX. NUMBER OF ITERATIONS:       60
 INTERPOLATION TYPE:            DIIS
 INTERPOLATION STEPS:              2 (START)      1 (STEP)
 LEVEL SHIFTS:                 -0.60 (CLOSED) -0.30 (OPEN) 



 Use fine grid record 1800.2 for energy threshold  1.0D-06
 Molecular orbitals read from record     2100.2  Type=RHF/CANONICAL (state 1.1)

 Present basis size:      23
 Previous basis size:      6
 Previous occupation:      5
 Previous closed-shells:   3
 Previous core-orbitals:   1
 Present occupation:       5
 Present closed-shells:    3
 Present core-orbitals:    1
 Wavefunction symmetry:    1   Triplet 

 Orbital overlap <old|new>:  < 1.1| 1.1> = 0.999839   < 2.1| 2.1> = 0.999654   < 3.1| 3.1> = 0.998616   < 4.1| 4.1> = 0.996856
                             < 5.1| 5.1> = 0.996856


 Molecular orbital dump at record        2101.2

 ITERATION    DDIFF          GRAD             ENERGY        2-EL.EN.            DIPOLE MOMENTS         DIIS   ORB.
    1      0.000D+00      0.000D+00       -54.64665249     61.708916    0.00000    0.00000    0.50493    0    start
    2      0.000D+00      0.337D-01       -54.72781968     59.466542   -0.00000    0.00000    0.45470    1    diag,B
    3      0.230D-01      0.771D-02       -54.73611155     60.026203   -0.00000   -0.00000    0.60599    2    diag,B
    4      0.987D-02      0.245D-02       -54.73792269     59.689167   -0.00000   -0.00000    0.63284    3    diag,B
    5      0.343D-02      0.127D-02       -54.73840111     59.713035   -0.00000   -0.00000    0.67435    4    diag,B
    6      0.323D-02      0.342D-03       -54.73844467     59.700494   -0.00000    0.00000    0.68765    5    diag,B
    7      0.115D-02      0.969D-04       -54.73844841     59.699249   -0.00000    0.00000    0.69057    6    diag,B
    8      0.293D-03      0.290D-04       -54.73844878     59.699534   -0.00000    0.00000    0.69139    7    orth
    9      0.981D-04      0.702D-05       -54.73844880     59.699629   -0.00000    0.00000    0.69147    8    diag,B
   10      0.282D-04      0.188D-05       -54.73844880     59.699626   -0.00000    0.00000    0.69147    9    diag,B
   11      0.696D-05      0.395D-06       -54.73844881     59.699664   -0.00000    0.00000    0.69148    0    orth

 Final alpha occupancy:   5
 Final beta  occupancy:   3

 !RKS STATE  1.1 Energy               -54.738448805005
 Nuclear energy                         3.57300404
 One-electron energy                  -81.49371461
 Two-electron energy                   29.84983196
 Density functional                    -6.66757020     DIRAC=-6.16962378 VWN5=-0.49794641
 Virial quotient                       -1.00044478
 !RKS STATE  1.1 Dipole moment         -0.00000000     0.00000000     0.69148196
 Dipole moment /Debye                  -0.00000000     0.00000000     1.75745672

 Orbital energies:

         1.1          2.1          3.1          4.1          5.1          6.1          7.1
    -13.938607    -0.722818    -0.337503    -0.290280    -0.290280     0.008276     0.096757


 HOMO      5.1    -0.290280 =      -7.8989eV
 LUMO      6.1     0.008276 =       0.2252eV
 LUMO-HOMO         0.298556 =       8.1241eV


 **********************************************************************************************************************************
 DATASETS  * FILE   NREC   LENGTH (MB)   RECORD NAMES
              1      20       30.30       500      610      700      900      950      970     1001      129      960     1100   
                                          VAR    BASINP    GEOM    SYMINP    ZMAT    AOBASIS   BASIS     P2S    ABASIS      S 
                                         1400     1410     1200     1210     1080     1600     1650     1300     1700     1800   
                                           T        V       H0       H01     AOSYM     SMH    MOLCAS    ERIS     OPER     GRID   

              2       7        5.28       700     1000      520     2100     1001     1800     2101   
                                         GEOM     BASIS   MCVARS     RHF     BASIS    GRID      RKS  

 PROGRAMS   *        TOTAL    KS-SCF       INT    HF-SCF       INT
 CPU TIMES  *         5.47      0.40      0.20      4.43      0.27
 REAL TIME  *         6.83 SEC
 DISK USED  *        37.28 MB
 **********************************************************************************************************************************


 PROGRAM * Intrinsic Basis Bonding Analysis (IBBA)          Author: G. Knizia

 Molecular orbitals read from record     2101.2  Type=RKS/CANONICAL (state 1.1)
 Fock matrix read from record            2101.2  Type=RKS/TOTAL (state 1.1)
 Orbital energies read from record       2101.2  Type=RKS/CANONICAL (state 1.1)
 Density matrix read from record         2101.2  Type=RKS/CHARGE (state 1.1)

 Number of core orbitals:           1 (   1 )
 Number of closed-shell orbitals:   2 (   2 )
 Number of active  orbitals:        2 (   2 )

 Basis set MINAO-AUTO-PP generated.      Number of basis functions:   6 

 Polarized AO type:                A = (O Ot + (1-O)(1-Ot)) P12
 Orthogonalization method:         Symmetric (Loewdin)
 Localization functional:          L = sum[A,i] <i|n_A|i>^4 -> max

 Localization group 1:   3 orbitals, occupancy  2.000
 Iterative localization: IB/PM,    3 iter; Final gradient 0.51E-10

 Bond order analysis:       [THRPRINT= 0.020]

   CEN ATOM   CEN ATOM     WIBERG.BO      RENORM.BO
     1   N  -   2   H       0.929724       1.000000

     2   H  -   1   N       0.929724       1.000000


 Valency analysis:

   CEN ATOM   TOT.VALENCE
     1   N       0.929724
     2   H       0.929724
 Localization group 2:   2 orbitals, occupancy  1.000
 Iterative localization: IB/PM,    1 iter; Final gradient 0.00E+00

 Bond order analysis:       [THRPRINT= 0.020]

   CEN ATOM   CEN ATOM     WIBERG.BO      RENORM.BO



 Valency analysis:

   CEN ATOM   TOT.VALENCE
     1   N      -0.000000
     2   H       0.000000

 Total charge composition:

   CEN ATOM         s          p       ELECTRONS ->P.CHARGE
     1   N       3.80443    3.46066      7.26510   -0.26510
     2   H       0.73490                 0.73490    0.26510

 Total charge composition, AO contributions:

   CEN ATOM SHL      SPHERICAL COMPONENTS
     1   N  1s       1.99813
     1   N  2s       1.80630
     1   N  2p       1.00000    1.00000    1.46066

     2   H  1s       0.73490

 Active orbital charges:

   CEN ATOM         s          p       ELECTRONS ->SPIN.DEN
     1   N       0.00000    2.00000      2.00000    2.00000
     2   H       0.00000                 0.00000    0.00000

 Active orbital charges, AO contributions:

   CEN ATOM SHL      SPHERICAL COMPONENTS
     1   N  1s       0.00000
     1   N  2s       0.00000
     1   N  2p       1.00000    1.00000    0.00000

     2   H  1s       0.00000

 Summary of localized orbital composition:   [THRPRINT= 0.020]

   ORB  GRP  ORB.ENERGY      CENTERS/CHARGES
     1   1   -13.863768      N  1   2.000
     2   1    -0.636855      N  1   1.265   H  2   0.735
     3   1    -0.498298      N  1   2.000
     4   2    -0.232500      N  1   1.000
     5   2    -0.232500      N  1   1.000

 Localized orbitals saved to record      2101.2  (orbital set 2)


 **********************************************************************************************************************************
 DATASETS  * FILE   NREC   LENGTH (MB)   RECORD NAMES
              1      20       30.30       500      610      700      900      950      970     1001      129      960     1100   
                                          VAR    BASINP    GEOM    SYMINP    ZMAT    AOBASIS   BASIS     P2S    ABASIS      S 
                                         1400     1410     1200     1210     1080     1600     1650     1300     1700     1800   
                                           T        V       H0       H01     AOSYM     SMH    MOLCAS    ERIS     OPER     GRID   

              2       7        5.29       700     1000      520     2100     1001     1800     2101   
                                         GEOM     BASIS   MCVARS     RHF     BASIS    GRID      RKS  

 PROGRAMS   *        TOTAL      IBBA    KS-SCF       INT    HF-SCF       INT
 CPU TIMES  *         5.49      0.02      0.40      0.20      4.43      0.27
 REAL TIME  *         6.87 SEC
 DISK USED  *        37.28 MB
 **********************************************************************************************************************************

 IBBA/6-31+G(D,P) energy=      0.000000000000

          KS-SCF          HF-SCF
    -54.73844881    -54.25758386
 **********************************************************************************************************************************
 Molpro calculation terminated
