
 Primary working directories    : /local
 Secondary working directories  : /local
 Wavefunction directory         : /local/
 Main file repository           : /local/

 SHA1      : b4a5b34a9e711420743f49e6833241d17c61fb3c
 NAME      : 2099.9.b4a5b34
 ARCHNAME  : linux/x86_64_openmp
 FC        : /cm/shared/languages/GCC-6.1/bin/gfortran
 BLASLIB   : -lblas
 id        : simonbennie

 Nodes     nprocs
 node35-046    1

 Using customized tuning parameters: mindgm=1; mindgv=20; mindgc=4; mindgr=1; noblas=0; minvec=7
 default implementation of scratch files=df  

 memory,500,m
 geomtyp=xyz
 nosym
 noorient
 geometry={
 O          0.00000        0.00000        0.00000
 }
 basis={ default,avtz }
 {ks,BECKE,direct;wf,8,1,2}
 {ibba,bonds=1}

 Variables initialized (895), CPU time= 0.00 sec
 Commands  initialized (725), CPU time= 0.02 sec, 591 directives.
 Default parameters read. Elapsed time= 0.07 sec

 Checking input...
 Passed
1


                                         ***  PROGRAM SYSTEM MOLPRO  ***
                                       Copyright, TTI GmbH Stuttgart, 2015
                                    Version 2099.9 linked May 26 2017 16:03:21


 **********************************************************************************************************************************
 LABEL *                                                                                 
  64 bit serial version                                                                  DATE: 30-Jun-17          TIME: 05:46:36  
 **********************************************************************************************************************************

 SHA1:             b4a5b34a9e711420743f49e6833241d17c61fb3c
 **********************************************************************************************************************************
 SETTING GEOMTYP        =    XYZ

 Variable memory set to  500000000 words,  buffer space 

 ZSYMEL=NOSYM

 SETTING BASIS          =    AVTZ


 Recomputing integrals since basis changed


 Using spherical harmonics

 Library entry O      S aug-cc-pVTZ          selected for orbital group  1
 Library entry O      P aug-cc-pVTZ          selected for orbital group  1
 Library entry O      D aug-cc-pVTZ          selected for orbital group  1
 Library entry O      F aug-cc-pVTZ          selected for orbital group  1


 PROGRAM * SEWARD (Integral evaluation for generally contracted gaussian basis sets)     Author: Roland Lindh, 1990

 Geometry written to block  1 of record 700


 Point group  C1  



 ATOMIC COORDINATES

 NR  ATOM    CHARGE       X              Y              Z

   1  O       8.00    0.000000000    0.000000000    0.000000000

 NUCLEAR CHARGE:                    8
 NUMBER OF PRIMITIVE AOS:          67
 NUMBER OF SYMMETRY AOS:           58
 NUMBER OF CONTRACTIONS:           46   (  46A   )
 NUMBER OF CORE ORBITALS:           1   (   1A   )
 NUMBER OF VALENCE ORBITALS:        4   (   4A   )


 NUCLEAR REPULSION ENERGY    0.00000000

 EXTRA SYMMETRY OF AOS IN SYMMETRY 1:   1 1 1 1 1 2 3 4 2 3   4 2 3 4 2 3 4 5 6 7   8 9 5 6 7 8 9 5 6 7   8 91011121314151610
                                       111213141516

 Eigenvalues of metric

         1 0.111E-01 0.482E-01 0.482E-01 0.482E-01 0.159E+00 0.213E+00 0.213E+00 0.213E+00


 Contracted 2-electron integrals neglected if value below      1.0D-11
 AO integral compression algorithm  1   Integral accuracy      1.0D-11

     1.049 MB (compressed) written to integral file ( 16.6%)


 NUMBER OF SORTED TWO-ELECTRON INTEGRALS:     584821.     BUFFER LENGTH:  32768
 NUMBER OF SEGMENTS:   1  SEGMENT LENGTH:     584821      RECORD LENGTH: 524288

 Memory used in sort:       1.14 MW

 SORT1 READ      650998. AND WROTE       61179. INTEGRALS IN      1 RECORDS. CPU TIME:     0.00 SEC, REAL TIME:     0.01 SEC
 SORT2 READ       61179. AND WROTE      584821. INTEGRALS IN      4 RECORDS. CPU TIME:     0.04 SEC, REAL TIME:     0.04 SEC

 FILE SIZES:   FILE 1:    31.1 MBYTE,  FILE 4:     4.2 MBYTE,   TOTAL:     35.3 MBYTE

 OPERATOR DM      FOR CENTER  0  COORDINATES:    0.000000    0.000000    0.000000


 **********************************************************************************************************************************
 DATASETS  * FILE   NREC   LENGTH (MB)   RECORD NAMES
              1      19       30.48       500      610      700      900      950      970     1000      129      960     1100   
                                          VAR    BASINP    GEOM    SYMINP    ZMAT    AOBASIS   BASIS     P2S    ABASIS      S 
                                         1400     1410     1200     1210     1080     1600     1650     1300     1700   
                                           T        V       H0       H01     AOSYM     SMH    MOLCAS    ERIS     OPER   

 PROGRAMS   *        TOTAL       INT
 CPU TIMES  *         0.38      0.23
 REAL TIME  *         0.66 SEC
 DISK USED  *        35.57 MB      
 **********************************************************************************************************************************

 Density functional group BECKE=B88
 Functional: B88(Automatically generated (new) B88)                            Gradient terms: 1
 Use grid at  1800.2

 Functional: B88                       Factor:  1.0000

 Generated new metagrid on record  1800.2 with target accuracy 1.0D-06 and 1248 points in CPU time    0.0
 Computed new grid on record 1800.1 in CPU time    0.0
   40456 words reserved for DFT integration

 PROGRAM * RKS-SCF (Restricted open shell Kohn-Sham)     Authors: W. Meyer, H.-J. Werner, P.J. Knowles, 1993

 NUMBER OF ELECTRONS:       5+    3-    SPACE SYMMETRY=1    SPIN SYMMETRY: Triplet 
 CONVERGENCE THRESHOLDS:    1.00E-05 (Density)    1.00E-06 (Energy)
 MAX. NUMBER OF ITERATIONS:       60
 INTERPOLATION TYPE:            DIIS
 INTERPOLATION STEPS:              2 (START)      1 (STEP)
 LEVEL SHIFTS:                 -0.60 (CLOSED) -0.30 (OPEN) 



 Use fine grid record 1800.2 for energy threshold  1.0D-06
 Orbital guess generated from atomic densities. Full valence occupancy:    5

 Molecular orbital dump at record        2100.2

 Initial alpha occupancy:   5
 Initial beta  occupancy:   3
 Wave function symmetry:    1

 ITERATION    DDIFF          GRAD             ENERGY        2-EL.EN.            DIPOLE MOMENTS         DIIS   ORB.
    1      0.000D+00      0.000D+00       -74.81636578     72.036278    0.00000    0.00000   -0.00000    0    start
    2      0.000D+00      0.440D-02       -74.82168680     73.283589    0.00000    0.00000   -0.00000    1    diag,B
    3      0.666D-02      0.279D-02       -74.82269582     72.903548    0.00000   -0.00000   -0.00000    2    diag,B
    4      0.258D-02      0.428D-03       -74.82281063     72.893612    0.00000    0.00000    0.00000    3    diag,B
    5      0.613D-03      0.142D-03       -74.82283001     72.886026    0.00000   -0.00000   -0.00000    4    diag,B
    6      0.257D-03      0.413D-04       -74.82283342     72.883095    0.00000   -0.00000   -0.00000    5    diag,B
    7      0.103D-03      0.237D-04       -74.82283618     72.882318    0.00000   -0.00000    0.00000    6    fixocc
    8      0.102D-03      0.193D-04       -74.82283814     72.882069    0.00000   -0.00000   -0.00000    7    diag,B
    9      0.720D-04      0.193D-04       -74.82283456     72.882033    0.00000   -0.00000   -0.00000    8    diag,B
   10      0.132D-03      0.191D-04       -74.82275961     72.878785   -0.00000    0.00000   -0.00000    9    orth
   11      0.412D-02      0.872D-04       -74.82276590     72.879802   -0.00000    0.00000   -0.00000    9    diag,B
   12      0.693D-03      0.615D-04       -74.82277350     72.880350   -0.00000    0.00000   -0.00000    9    diag,B
   13      0.585D-03      0.438D-04       -74.82277284     72.880264   -0.00000    0.00000    0.00000    9    diag,B
   14      0.505D-04      0.454D-04       -74.82277240     72.880143   -0.00000    0.00000   -0.00000    9    diag,B
   15      0.284D-04      0.464D-04       -74.82276139     72.878987   -0.00000    0.00000   -0.00000    9    diag,B
   16      0.105D-02      0.788D-04       -74.82276164     72.879026   -0.00000    0.00000   -0.00000    9    diag,B
   17      0.785D-04      0.775D-04       -74.82277203     72.880379   -0.00000    0.00000   -0.00000    9    diag,B
   18      0.780D-03      0.386D-04       -74.82277599     72.880864   -0.00000    0.00000   -0.00000    9    diag,B
   19      0.252D-03      0.262D-04       -74.82278297     72.881549   -0.00000   -0.00000   -0.00000    9    diag,B
   20      0.519D-03      0.131D-04       -74.82278290     72.881545   -0.00000   -0.00000   -0.00000    9    orth
   21      0.672D-05      0.131D-04       -74.82278182     72.881369    0.00000    0.00000    0.00000    9    diag,B
   22      0.728D-04      0.154D-04       -74.82278090     72.881327    0.00000    0.00000    0.00000    9    diag,B
   23      0.585D-04      0.159D-04       -74.82277790     72.881882   -0.00000   -0.00000   -0.00000    9    diag,B
   24      0.220D-03      0.129D-04       -74.82275878     72.880772   -0.00000   -0.00000   -0.00000    9    diag,B
   25      0.180D-02      0.240D-04       -74.82275887     72.880837   -0.00000   -0.00000   -0.00000    9    diag,B
   26      0.195D-04      0.231D-04       -74.82275767     72.880924   -0.00000   -0.00000   -0.00000    9    diag,B
   27      0.316D-03      0.215D-04       -74.82275856     72.882005   -0.00000   -0.00000   -0.00000    9    diag,B
   28      0.270D-03      0.619D-05       -74.82275724     72.881408   -0.00000   -0.00000   -0.00000    9    diag,B
   29      0.557D-03      0.818D-05       -74.82275725     72.881509   -0.00000   -0.00000   -0.00000    9    diag,B
   30      0.170D-04      0.467D-05       -74.82275726     72.881496   -0.00000   -0.00000    0.00000    9    orth
   31      0.895D-04      0.312D-05       -74.82275725     72.881570    0.00000    0.00000    0.00000    9    diag,B
   32      0.501D-04      0.744D-06       -74.82275725     72.881570    0.00000    0.00000    0.00000    9    diag,B
   33      0.923D-05      0.419D-06       -74.82275725     72.881553    0.00000    0.00000    0.00000    0    orth

 Final alpha occupancy:   5
 Final beta  occupancy:   3

 !RKS STATE 1.1 Energy                -74.822757253205
 Nuclear energy                         0.00000000
 One-electron energy                 -103.09060398
 Two-electron energy                   36.44077668
 Density functional                    -8.17292995     B88=-8.17292995
 Virial quotient                       -1.00280464
 !RKS STATE 1.1 Dipole moment           0.00000000     0.00000000     0.00000000
 Dipole moment /Debye                   0.00000000     0.00000000     0.00000000

 Orbital energies:

         1.1          2.1          3.1          4.1          5.1          6.1          7.1
    -18.872260    -0.819918    -0.269488    -0.373790    -0.373790     0.058855     0.089298

 HOMO      5.1    -0.373790 =     -10.1713eV
 LUMO      6.1     0.058855 =       1.6015eV
 LUMO-HOMO         0.432645 =      11.7729eV


 **********************************************************************************************************************************
 DATASETS  * FILE   NREC   LENGTH (MB)   RECORD NAMES
              1      20       30.52       500      610      700      900      950      970     1000      129      960     1100   
                                          VAR    BASINP    GEOM    SYMINP    ZMAT    AOBASIS   BASIS     P2S    ABASIS      S 
                                         1400     1410     1200     1210     1080     1600     1650     1300     1700     1800   
                                           T        V       H0       H01     AOSYM     SMH    MOLCAS    ERIS     OPER     GRID   

              2       5        2.81       700     1000      520     1800     2100   
                                         GEOM     BASIS   MCVARS    GRID      RKS  

 PROGRAMS   *        TOTAL        KS       INT
 CPU TIMES  *         1.12      0.74      0.23
 REAL TIME  *         1.50 SEC
 DISK USED  *        35.57 MB      
 **********************************************************************************************************************************


 PROGRAM * Intrinsic Basis Bonding Analysis (IBBA)          Author: G. Knizia

 Molecular orbitals read from record     2100.2  Type=RKS/CANONICAL (state 1.1)
 Fock matrix read from record            2100.2  Type=RKS/TOTAL (state 1.1)
 Orbital energies read from record       2100.2  Type=RKS/CANONICAL (state 1.1)
 Density matrix read from record         2100.2  Type=RKS/CHARGE (state 1.1)

 Number of core orbitals:           1 (   1 )
 Number of closed-shell orbitals:   2 (   2 )
 Number of active  orbitals:        2 (   2 )

 Basis set MINAO-AUTO-PP generated.      Number of basis functions:   5 

 Polarized AO type:                A = (O Ot + (1-O)(1-Ot)) P12
 Orthogonalization method:         Symmetric (Loewdin)
 Localization functional:          L = sum[A,i] <i|n_A|i>^4 -> max

 Localization group 1:   3 orbitals, occupancy  2.000
 Iterative localization: IB/PM,    1 iter; Final gradient 0.00E+00

 Bond order analysis:       [THRPRINT= 0.020]

   CEN ATOM   CEN ATOM     WIBERG.BO      RENORM.BO


 Valency analysis:

   CEN ATOM   TOT.VALENCE
     1   O      -0.000000
 Localization group 2:   2 orbitals, occupancy  1.000
 Iterative localization: IB/PM,    1 iter; Final gradient 0.00E+00

 Bond order analysis:       [THRPRINT= 0.020]

   CEN ATOM   CEN ATOM     WIBERG.BO      RENORM.BO


 Valency analysis:

   CEN ATOM   TOT.VALENCE
     1   O      -0.000000

 Total charge composition:

   CEN ATOM         s          p       ELECTRONS ->P.CHARGE
     1   O       4.00000    4.00000      8.00000   -0.00000

 Total charge composition, AO contributions:

   CEN ATOM SHL      SPHERICAL COMPONENTS
     1   O  1s       2.00000
     1   O  2s       2.00000
     1   O  2p       1.33334    1.33322    1.33343

 Active orbital charges:

   CEN ATOM         s          p       ELECTRONS ->SPIN.DEN
     1   O       0.00000    2.00000      2.00000    2.00000

 Active orbital charges, AO contributions:

   CEN ATOM SHL      SPHERICAL COMPONENTS
     1   O  1s       0.00000
     1   O  2s       0.00000
     1   O  2p       0.66666    0.66678    0.66657

 Summary of localized orbital composition:   [THRPRINT= 0.020]

   ORB  GRP  ORB.ENERGY      CENTERS/CHARGES
     1   1   -18.872262      O  1   2.000
     2   1    -0.819919      O  1   2.000
     3   1    -0.269489      O  1   2.000
     4   2    -0.279557      O  1   1.000
     5   2    -0.279557      O  1   1.000

 Localized orbitals saved to record      2100.2  (orbital set 2)


 **********************************************************************************************************************************
 DATASETS  * FILE   NREC   LENGTH (MB)   RECORD NAMES
              1      20       30.52       500      610      700      900      950      970     1000      129      960     1100   
                                          VAR    BASINP    GEOM    SYMINP    ZMAT    AOBASIS   BASIS     P2S    ABASIS      S 
                                         1400     1410     1200     1210     1080     1600     1650     1300     1700     1800   
                                           T        V       H0       H01     AOSYM     SMH    MOLCAS    ERIS     OPER     GRID   

              2       5        2.83       700     1000      520     1800     2100   
                                         GEOM     BASIS   MCVARS    GRID      RKS  

 PROGRAMS   *        TOTAL      IBBA        KS       INT
 CPU TIMES  *         1.14      0.01      0.74      0.23
 REAL TIME  *         1.53 SEC
 DISK USED  *        35.57 MB      
 **********************************************************************************************************************************
 Molecular orbitals read from record     2100.2  Type=RKS/LOCAL(IBO)  
 Occupation numbers read from record     2100.2  Type=RKS/LOCAL(IBO)  
 Orbital energies read from record       2100.2  Type=RKS/LOCAL(IBO)  
 Redundancy group numbers read from rec  2100.2  Type=RKS/LOCAL(IBO)  

 IBBA/aug-cc-pVTZ energy=      0.000000000000

        KS-SCF  
    -74.82275725
 **********************************************************************************************************************************
 Molpro calculation terminated
