
 Primary working directories    : /scratch/12403905
 Secondary working directories  : /scratch/12403905
 Wavefunction directory         : /groups/kemi/lab/nonconverged/htbh38/
 Main file repository           : /groups/kemi/lab/nonconverged/htbh38/

 SHA1      : 2c68d29c09da70e1723824271fadde4bcd5f07a0
 ARCHNAME  : Linux/x86_64
 FC        : /users/software/kemi/intel/Compiler/composer_xe_2011_sp1.13.367/bin/intel64/ifort
 FCVERSION : 12.1.6
 BLASLIB   : /users/software/kemi/intel/Compiler/composer_xe_2011_sp1.13.367/mkl/lib/intel64/libmkl_blas95_ilp64.a /users/software/kemi/intel/Compiler/composer_xe_2011_sp1.13.367/mkl/lib/intel64/libmkl_lapack95_ilp64.a -Wl,--start-group /users/software/kemi/intel/Compiler/composer_xe_2011_sp1.13.367/mkl/lib/intel64/libmkl_intel_ilp64.a /users/software/kemi/intel/Compiler/composer_xe_2011_sp1.13.367/mkl/lib/intel64/libmkl_intel_thread.a /users/software/kemi/intel/Compiler/composer_xe_2011_sp1.13.367/mkl/lib/intel64/libmkl_core.a -Wl,--end-group -openmp -lpthread -lm
 id        : kiku

 Nodes          nprocs
 node317.cluster    1

 Using customized tuning parameters: mindgm=16; mindgv=24; mindgc=8; mindgr=1; noblas=0; minvec=7
 default implementation of scratch files=df  

 memory,500,m
 geomtyp=xyz
 nosym
 noorient
 geometry={
 O          0.00000        0.00000        0.00000
 }
 basis={default,sto-3g}
 
 
 basis={ default,6-31+G(d,p) }
 {ks,PBE,direct;wf,8,1,2}
 {ks,CS,direct,nitord=1;wf,8,1,2;shift,-1.0,-0.5}
 

 Variables initialized (766), CPU time= 0.00 sec
 Commands  initialized (545), CPU time= 0.01 sec, 513 directives.
 Default parameters read. Elapsed time= 0.13 sec

 Checking input...
 Passed
1


                                         ***  PROGRAM SYSTEM MOLPRO  ***
                         Copyright, University College Cardiff Consultants Limited, 2008

                                    Version 2012.1 linked 22 Jun 2017 13:51:13


 **********************************************************************************************************************************
 LABEL *                                                                                 
 Linux-2.6.32-754.6.3.el6.x86_64/node317.cluster(x86_64) 64 bit serial version           DATE: 04-Mar-19          TIME: 16:30:13  
 **********************************************************************************************************************************

 SHA1:             2c68d29c09da70e1723824271fadde4bcd5f07a0
 **********************************************************************************************************************************
 SETTING GEOMTYP        =    XYZ

 Variable memory set to  500000000 words,  buffer space   230000 words

 ZSYMEL=NOSYM
 
 SETTING BASIS          =    STO-3G
 SETTING BASIS          =    6-31+G(D,P)


 Recomputing integrals since basis changed


 Using spherical harmonics

 Library entry O      S 6-31G                selected for orbital group  1
 Library entry O      S 6-31++G              selected for orbital group  1
 Library entry O      P 6-31G                selected for orbital group  1
 Library entry O      P 6-31++G              selected for orbital group  1
 Library entry O      D 6-31G*               selected for orbital group  1

1PROGRAM * SEWARD (Integral evaluation for generally contracted gaussian basis sets)     Author: Roland Lindh, 1990

 Geometry written to block  1 of record 700


 Point group  C1  



 ATOMIC COORDINATES

 NR  ATOM    CHARGE       X              Y              Z

   1  O       8.00    0.000000000    0.000000000    0.000000000

 NUCLEAR CHARGE:                    8
 NUMBER OF PRIMITIVE AOS:          32
 NUMBER OF SYMMETRY AOS:           31
 NUMBER OF CONTRACTIONS:           18   (  18A   )
 NUMBER OF CORE ORBITALS:           1   (   1A   )
 NUMBER OF VALENCE ORBITALS:        4   (   4A   )


 NUCLEAR REPULSION ENERGY    0.00000000

 EXTRA SYMMETRY OF AOS IN SYMMETRY 1:   1 1 1 1 2 3 4 2 3 4   2 3 4 5 6 7 8 9

 Eigenvalues of metric

         1 0.892E-01 0.238E+00 0.238E+00 0.238E+00 0.557E+00 0.839E+00 0.839E+00 0.839E+00


 Contracted 2-electron integrals neglected if value below      1.0D-11
 AO integral compression algorithm  1   Integral accuracy      1.0D-11

     0.262 MB (compressed) written to integral file ( 46.9%)


 NUMBER OF SORTED TWO-ELECTRON INTEGRALS:      14706.     BUFFER LENGTH:  32768
 NUMBER OF SEGMENTS:   1  SEGMENT LENGTH:      14706      RECORD LENGTH: 524288

 Memory used in sort:       0.57 MW

 SORT1 READ       19124. AND WROTE        2041. INTEGRALS IN      1 RECORDS. CPU TIME:     0.01 SEC, REAL TIME:     0.01 SEC
 SORT2 READ        2041. AND WROTE       14706. INTEGRALS IN      1 RECORDS. CPU TIME:     0.00 SEC, REAL TIME:     0.00 SEC

 FILE SIZES:   FILE 1:     7.8 MBYTE,  FILE 4:     4.2 MBYTE,   TOTAL:     12.0 MBYTE

 OPERATOR DM      FOR CENTER  0  COORDINATES:    0.000000    0.000000    0.000000


 **********************************************************************************************************************************
 DATASETS  * FILE   NREC   LENGTH (MB)   RECORD NAMES
              1      19        7.54       500      610      700      900      950      970     1000      129      960     1100   
                                          VAR    BASINP    GEOM    SYMINP    ZMAT    AOBASIS   BASIS     P2S    ABASIS      S 
                                         1400     1410     1200     1210     1080     1600     1650     1300     1700   
                                           T        V       H0       H01     AOSYM     SMH    MOLCAS    ERIS     OPER   

 PROGRAMS   *        TOTAL       INT
 CPU TIMES  *         0.07      0.01
 REAL TIME  *         0.25 SEC
 DISK USED  *        12.26 MB      
 **********************************************************************************************************************************

 Density functional group PBE=PBEX+PBEC
 Functional: PBEX(Automatically generated (new) PBEX)                          Gradient terms: 1
 Functional: PBEC(Automatically generated (new) PBEC)                          Gradient terms: 1
 Use grid at  1800.2
 
 Functional: PBEX                      Factor:  1.0000
 Functional: PBEC                      Factor:  1.0000
 
 Generated new metagrid on record  1800.2 with target accuracy 1.0D-06 and 672 points in CPU time    0.0
 Computed new grid on record 1800.1 in CPU time    0.0
   18080 words reserved for DFT integration

 PROGRAM * RKS-SCF (Restricted open shell Kohn-Sham)     Authors: W. Meyer, H.-J. Werner, P.J. Knowles, 1993

 NUMBER OF ELECTRONS:       5+    3-    SPACE SYMMETRY=1    SPIN SYMMETRY: Triplet 
 CONVERGENCE THRESHOLDS:    1.00E-05 (Density)    1.00E-06 (Energy)
 MAX. NUMBER OF ITERATIONS:       60
 INTERPOLATION TYPE:            DIIS
 INTERPOLATION STEPS:              2 (START)      1 (STEP)
 LEVEL SHIFTS:                 -0.30 (CLOSED)  0.00 (OPEN) 



 Use fine grid record 1800.2 for energy threshold  1.0D-06
 Orbital guess generated from atomic densities. Full valence occupancy:    4

 Molecular orbital dump at record        2100.2

 ITERATION    DDIFF          GRAD             ENERGY        2-EL.EN.            DIPOLE MOMENTS         DIIS   ORB.
    1      0.000D+00      0.000D+00       -74.97331579     72.083596    0.00000    0.00000    0.00000    0    start
    2      0.000D+00      0.606D-02       -74.97614088     73.560993    0.00000    0.00000    0.00000    1    diag,B
    3      0.936D-02      0.554D-02       -74.97843056     72.923432    0.00000    0.00000    0.00000    2    diag,B
    4      0.413D-02      0.506D-03       -74.97848034     72.865410    0.00000    0.00000    0.00000    3    diag,B
    5      0.644D-03      0.131D-03       -74.97850695     72.863858    0.00000    0.00000    0.00000    4    diag,B
    6      0.413D-03      0.110D-03       -74.97853029     72.863706    0.00000    0.00000    0.00000    5    diag,B
    7      0.340D-03      0.108D-03       -74.97867793     72.865853    0.00000    0.00000    0.00000    6    fixocc
    8      0.227D-02      0.988D-04       -74.97901059     72.865340    0.00000    0.00000    0.00000    7    diag,B
    9      0.904D-02      0.243D-03       -74.97901093     72.865304    0.00000    0.00000    0.00000    8    diag,B
   10      0.672D-04      0.248D-03       -74.97888487     72.873155    0.00000    0.00000    0.00000    9    orth
   11      0.475D-02      0.363D-03       -74.97902993     72.867625    0.00000    0.00000    0.00000    9    diag,B
   12      0.522D-02      0.366D-04       -74.97903474     72.867034    0.00000    0.00000    0.00000    9    diag,B
   13      0.643D-03      0.335D-04       -74.97903589     72.866743    0.00000    0.00000    0.00000    9    diag,B
   14      0.280D-03      0.519D-04       -74.97903759     72.866979    0.00000    0.00000    0.00000    9    diag,B
   15      0.107D-03      0.284D-04       -74.97903754     72.867059    0.00000    0.00000    0.00000    9    diag,B
   16      0.103D-03      0.285D-04       -74.97901355     72.865643    0.00000    0.00000    0.00000    9    diag,B
   17      0.231D-02      0.100D-03       -74.97901312     72.866085    0.00000    0.00000    0.00000    9    diag,B
   18      0.409D-03      0.601D-04       -74.97900894     72.866325    0.00000    0.00000    0.00000    9    diag,B
   19      0.138D-02      0.436D-04       -74.97900930     72.867152    0.00000    0.00000    0.00000    9    diag,B
   20      0.227D-03      0.553D-05       -74.97900923     72.866795    0.00000    0.00000    0.00000    9    orth
   21      0.209D-03      0.209D-05       -74.97900923     72.866938    0.00000    0.00000    0.00000    9    diag,B
   22      0.150D-04      0.383D-06       -74.97900923     72.866926    0.00000    0.00000    0.00000    9    diag,B
   23      0.160D-05      0.185D-06       -74.97900923     72.866934    0.00000    0.00000    0.00000    0    orth

 Final alpha occupancy:   5
 Final beta  occupancy:   3

 !RKS STATE 1.1 Energy                -74.979009233482
 Nuclear energy                         0.00000000
 One-electron energy                 -103.05267742
 Two-electron energy                   36.43346683
 Density functional                    -8.35979864     PBEX=-8.12547457 PBEC=-0.23432408
 Virial quotient                       -1.00589579
 !RKS STATE 1.1 Dipole moment           0.00000000     0.00000000     0.00000000
 Dipole moment /Debye                   0.00000000     0.00000000     0.00000000

 Orbital energies:

         1.1          2.1          3.1          4.1          5.1          6.1          7.1
    -18.901986    -0.860494    -0.300526    -0.399669    -0.398995     0.063636     0.125056

 HOMO      5.1    -0.398995 =     -10.8572eV
 LUMO      6.1     0.063636 =       1.7316eV
 LUMO-HOMO         0.462632 =      12.5889eV


 **********************************************************************************************************************************
 DATASETS  * FILE   NREC   LENGTH (MB)   RECORD NAMES
              1      20        7.56       500      610      700      900      950      970     1000      129      960     1100   
                                          VAR    BASINP    GEOM    SYMINP    ZMAT    AOBASIS   BASIS     P2S    ABASIS      S 
                                         1400     1410     1200     1210     1080     1600     1650     1300     1700     1800   
                                           T        V       H0       H01     AOSYM     SMH    MOLCAS    ERIS     OPER     GRID   

              2       5        0.30       700     1000      520     1800     2100   
                                         GEOM     BASIS   MCVARS    GRID      RKS  

 PROGRAMS   *        TOTAL        KS       INT
 CPU TIMES  *         0.12      0.05      0.01
 REAL TIME  *         0.69 SEC
 DISK USED  *        12.26 MB      
 **********************************************************************************************************************************

 Density functional group CS=CS1
 Functional: CS1(Colle-Salvetti (Gradient form))                               Gradient terms: 1
 Use grid at  1800.2
 
 Functional: CS1                       Factor:  1.0000
 
   18080 words reserved for DFT integration

 PROGRAM * RKS-SCF (Restricted open shell Kohn-Sham)     Authors: W. Meyer, H.-J. Werner, P.J. Knowles, 1993

 NUMBER OF ELECTRONS:       5+    3-    SPACE SYMMETRY=1    SPIN SYMMETRY: Triplet 
 CONVERGENCE THRESHOLDS:    1.00E-05 (Density)    1.00E-06 (Energy)
 MAX. NUMBER OF ITERATIONS:       60
 INTERPOLATION TYPE:            DIIS
 INTERPOLATION STEPS:              2 (START)      1 (STEP)
 LEVEL SHIFTS:                 -1.00 (CLOSED) -0.50 (OPEN) 



 Use fine grid record 1800.2 for energy threshold  1.0D-06
 Molecular orbitals read from record     2100.2  Type=RKS/CANONICAL (state 1.1)

 Molecular orbital dump at record        2101.2

 ITERATION    DDIFF          GRAD             ENERGY        2-EL.EN.            DIPOLE MOMENTS         DIIS   ORB.
    1      0.000D+00      0.000D+00       -66.87227790     72.866934    0.00000    0.00000    0.00000    0    start
     Orbital  4.1 strongly deviates from fixed occupation: 0.89928  (now: 1.00)
     Orbital  5.1 strongly deviates from fixed occupation: 0.89862  (now: 1.00)
    2      0.000D+00      0.706D-01       -67.08753362     62.092721    0.00000    0.00000    0.00000    1    diag,B
    3      0.614D-01      0.335D-01       -67.15703435     65.540984    0.00000    0.00000    0.00000    2    diag,B
    4      0.239D-01      0.409D-02       -67.15983800     65.078953    0.00000    0.00000    0.00000    3    diag,B
    5      0.534D-02      0.231D-02       -67.16120588     64.965629    0.00000    0.00000    0.00000    4    diag,B
    6      0.615D-02      0.702D-03       -67.16141368     64.955299    0.00000    0.00000    0.00000    5    diag,B
    7      0.246D-02      0.187D-03       -67.16142270     64.936538    0.00000    0.00000    0.00000    6    diag,B
    8      0.457D-03      0.550D-04       -67.16142491     64.940688    0.00000    0.00000    0.00000    7    orth
    9      0.875D-04      0.435D-04       -67.16142725     64.940316    0.00000    0.00000    0.00000    8    diag,B
   10      0.865D-04      0.437D-04       -67.16141703     64.939630    0.00000    0.00000    0.00000    9    diag,B
   11      0.381D-03      0.432D-04       -67.16136395     64.940622    0.00000    0.00000    0.00000    9    diag,B
   12      0.226D-02      0.431D-04       -67.16135248     64.940551    0.00000    0.00000    0.00000    9    diag,B
   13      0.589D-03      0.394D-04       -67.16129792     64.941134    0.00000    0.00000    0.00000    9    diag,B
   14      0.537D-02      0.154D-03       -67.16129846     64.941599    0.00000    0.00000    0.00000    9    diag,B
   15      0.478D-03      0.166D-03       -67.16129853     64.940951    0.00000    0.00000    0.00000    9    diag,B
   16      0.719D-03      0.125D-03       -67.16129984     64.940288    0.00000    0.00000    0.00000    9    diag,B
   17      0.226D-03      0.242D-04       -67.16129983     64.939975    0.00000    0.00000    0.00000    9    diag,B
   18      0.252D-03      0.347D-05       -67.16129982     64.940062    0.00000    0.00000    0.00000    9    orth
   19      0.309D-04      0.773D-05       -67.16129983     64.940065    0.00000    0.00000    0.00000    9    diag,B
   20      0.165D-04      0.438D-05       -67.16129983     64.940078    0.00000    0.00000    0.00000    9    diag,B
   21      0.216D-04      0.538D-06       -67.16129983     64.940077    0.00000    0.00000    0.00000    9    diag,B
   22      0.617D-05      0.654D-07       -67.16129983     64.940077    0.00000    0.00000    0.00000    0    orth

 Final alpha occupancy:   5
 Final beta  occupancy:   3

 !RKS STATE 1.1 Energy                -67.161299828211
 Nuclear energy                         0.00000000
 One-electron energy                  -99.39167650
 Two-electron energy                   32.47003859
 Density functional                    -0.23966192     CS1=-0.23966192
 Virial quotient                       -0.95160708
 !RKS STATE 1.1 Dipole moment           0.00000000     0.00000000     0.00000000
 Dipole moment /Debye                   0.00000000     0.00000000     0.00000000

 Orbital energies:

         1.1          2.1          3.1          4.1          5.1          6.1          7.1
    -16.742455    -0.529476    -0.023855    -0.060597    -0.060460     0.183558     0.230360

 HOMO      5.1    -0.060460 =      -1.6452eV
 LUMO      6.1     0.183558 =       4.9949eV
 LUMO-HOMO         0.244018 =       6.6401eV


 **********************************************************************************************************************************
 DATASETS  * FILE   NREC   LENGTH (MB)   RECORD NAMES
              1      20        7.56       500      610      700      900      950      970     1000      129      960     1100   
                                          VAR    BASINP    GEOM    SYMINP    ZMAT    AOBASIS   BASIS     P2S    ABASIS      S 
                                         1400     1410     1200     1210     1080     1600     1650     1300     1700     1800   
                                           T        V       H0       H01     AOSYM     SMH    MOLCAS    ERIS     OPER     GRID   

              2       6        0.35       700     1000      520     1800     2100     2101   
                                         GEOM     BASIS   MCVARS    GRID      RKS      RKS  

 PROGRAMS   *        TOTAL        KS        KS       INT
 CPU TIMES  *         0.17      0.05      0.05      0.01
 REAL TIME  *         1.04 SEC
 DISK USED  *        12.26 MB      
 **********************************************************************************************************************************

        KS-SCF          KS-SCF  
    -67.16129983    -74.97900923
 **********************************************************************************************************************************
 Variable memory released
