
 Primary working directories    : /local
 Secondary working directories  : /local
 Wavefunction directory         : /local/
 Main file repository           : /local/

 SHA1      : b4a5b34a9e711420743f49e6833241d17c61fb3c
 NAME      : 2099.9.b4a5b34
 ARCHNAME  : linux/x86_64_openmp
 FC        : /cm/shared/languages/GCC-6.1/bin/gfortran
 BLASLIB   : -lblas
 id        : simonbennie

 Nodes     nprocs
 node36-003    1

 Using customized tuning parameters: mindgm=1; mindgv=20; mindgc=4; mindgr=1; noblas=0; minvec=7
 default implementation of scratch files=df  

 memory,500,m
 geomtyp=xyz
 nosym
 noorient
 geometry={
 O          0.00000        0.00000        0.00000
 }
 basis={ default,avdz }
 {uks,CS,direct;wf,8,1,2}
 {ibba,bonds=1}

 Variables initialized (895), CPU time= 0.01 sec
 Commands  initialized (725), CPU time= 0.01 sec, 591 directives.
 Default parameters read. Elapsed time= 0.83 sec

 Checking input...
 Passed
1


                                         ***  PROGRAM SYSTEM MOLPRO  ***
                                       Copyright, TTI GmbH Stuttgart, 2015
                                    Version 2099.9 linked May 26 2017 16:03:21


 **********************************************************************************************************************************
 LABEL *                                                                                 
  64 bit serial version                                                                  DATE: 21-Jun-17          TIME: 02:00:41  
 **********************************************************************************************************************************

 SHA1:             b4a5b34a9e711420743f49e6833241d17c61fb3c
 **********************************************************************************************************************************
 SETTING GEOMTYP        =    XYZ

 Variable memory set to  500000000 words,  buffer space 

 ZSYMEL=NOSYM

 SETTING BASIS          =    AVDZ


 Recomputing integrals since basis changed


 Using spherical harmonics

 Library entry O      S aug-cc-pVDZ          selected for orbital group  1
 Library entry O      P aug-cc-pVDZ          selected for orbital group  1
 Library entry O      D aug-cc-pVDZ          selected for orbital group  1


 PROGRAM * SEWARD (Integral evaluation for generally contracted gaussian basis sets)     Author: Roland Lindh, 1990

 Geometry written to block  1 of record 700


 Point group  C1  



 ATOMIC COORDINATES

 NR  ATOM    CHARGE       X              Y              Z

   1  O       8.00    0.000000000    0.000000000    0.000000000

 NUCLEAR CHARGE:                    8
 NUMBER OF PRIMITIVE AOS:          37
 NUMBER OF SYMMETRY AOS:           35
 NUMBER OF CONTRACTIONS:           23   (  23A   )
 NUMBER OF CORE ORBITALS:           1   (   1A   )
 NUMBER OF VALENCE ORBITALS:        4   (   4A   )


 NUCLEAR REPULSION ENERGY    0.00000000

 EXTRA SYMMETRY OF AOS IN SYMMETRY 1:   1 1 1 1 2 3 4 2 3 4   2 3 4 5 6 7 8 9 5 6   7 8 9

 Eigenvalues of metric

         1 0.309E-01 0.155E+00 0.155E+00 0.155E+00 0.434E+00 0.486E+00 0.486E+00 0.486E+00


 Contracted 2-electron integrals neglected if value below      1.0D-11
 AO integral compression algorithm  1   Integral accuracy      1.0D-11

     0.262 MB (compressed) written to integral file ( 38.9%)


 NUMBER OF SORTED TWO-ELECTRON INTEGRALS:      38226.     BUFFER LENGTH:  32768
 NUMBER OF SEGMENTS:   1  SEGMENT LENGTH:      38226      RECORD LENGTH: 524288

 Memory used in sort:       0.60 MW

 SORT1 READ       53289. AND WROTE        4806. INTEGRALS IN      1 RECORDS. CPU TIME:     0.00 SEC, REAL TIME:     0.01 SEC
 SORT2 READ        4806. AND WROTE       38226. INTEGRALS IN      1 RECORDS. CPU TIME:     0.01 SEC, REAL TIME:     0.01 SEC

 FILE SIZES:   FILE 1:    30.2 MBYTE,  FILE 4:     4.2 MBYTE,   TOTAL:     34.4 MBYTE

 OPERATOR DM      FOR CENTER  0  COORDINATES:    0.000000    0.000000    0.000000


 **********************************************************************************************************************************
 DATASETS  * FILE   NREC   LENGTH (MB)   RECORD NAMES
              1      19       30.01       500      610      700      900      950      970     1000      129      960     1100   
                                          VAR    BASINP    GEOM    SYMINP    ZMAT    AOBASIS   BASIS     P2S    ABASIS      S 
                                         1400     1410     1200     1210     1080     1600     1650     1300     1700   
                                           T        V       H0       H01     AOSYM     SMH    MOLCAS    ERIS     OPER   

 PROGRAMS   *        TOTAL       INT
 CPU TIMES  *         0.33      0.18
 REAL TIME  *         2.79 SEC
 DISK USED  *        34.71 MB      
 **********************************************************************************************************************************

 Density functional group CS=CS1
 Functional: CS1(Colle-Salvetti (Gradient form))                               Gradient terms: 1
 Use grid at  1800.2

 Functional: CS1                       Factor:  1.0000

 Generated new metagrid on record  1800.2 with target accuracy 1.0D-06 and 672 points in CPU time    0.0
 Computed new grid on record 1800.1 in CPU time    0.0
   22087 words reserved for DFT integration

 PROGRAM * UKS-SCF (Unrestricted Kohn-Sham)     Authors: W. Meyer, H.-J. Werner, P.J. Knowles, 1993

 NUMBER OF ELECTRONS:       5+    3-    SPACE SYMMETRY=1    SPIN SYMMETRY: Triplet 
 CONVERGENCE THRESHOLDS:    1.00E-05 (Density)    1.00E-06 (Energy)
 MAX. NUMBER OF ITERATIONS:       60
 INTERPOLATION TYPE:            DIIS
 INTERPOLATION STEPS:              2 (START)      1 (STEP)
 LEVEL SHIFTS:                 -0.20 (ALPHA)  -0.20 (BETA) 



 Use fine grid record 1800.2 for energy threshold  1.0D-06
 Orbital guess generated from atomic densities. Full valence occupancy:    5

 Molecular orbital dump at record        2200.2

 Initial alpha occupation   5
 Initial beta  occupation   3

 ITERATION    DDIFF          GRAD             ENERGY        2-EL.EN.            DIPOLE MOMENTS         DIIS
    1      0.000D+00      0.000D+00       -64.24620935     41.968134    0.00000   -0.00000   -0.00000    0
    2      0.376D+00      0.858D-01       -65.40338102     83.829687   -0.00000    0.00000    0.00000    1
    3      0.220D+00      0.941D-01       -67.04292249     69.946497   -0.00000   -0.00000    0.00000    2
    4      0.376D-01      0.287D-01       -67.16425108     66.089425   -0.00000   -0.00000   -0.00000    3
    5      0.102D-01      0.684D-02       -67.17209153     64.873813   -0.00000   -0.00000    0.00000    4
    6      0.153D-02      0.360D-03       -67.17218083     64.742213    0.00000   -0.00000    0.00000    5
    7      0.413D-03      0.267D-03       -67.17219858     64.776577    0.00000   -0.00000    0.00000    6
    8      0.232D-03      0.587D-04       -67.17220346     64.788849    0.00000    0.00000    0.00000    5
    9      0.171D-03      0.325D-04       -67.17220662     64.788367   -0.00000   -0.00000    0.00000    4
   10      0.430D-03      0.321D-04       -67.17221445     64.788328    0.00000    0.00000    0.00000    5
   11      0.119D-02      0.317D-04       -67.17223562     64.788437   -0.00000   -0.00000    0.00000    6
   12      0.799D-04      0.271D-04       -67.17223699     64.788825    0.00000    0.00000    0.00000    7
   13      0.110D-02      0.261D-04       -67.17225549     64.788341   -0.00000   -0.00000    0.00000    8
   14      0.925D-03      0.257D-04       -67.17227039     64.788425   -0.00000   -0.00000    0.00000    9
   15      0.198D-02      0.243D-04       -67.17229967     64.788637    0.00000    0.00000    0.00000    9
   16      0.255D-02      0.226D-04       -67.17233099     64.789041   -0.00000   -0.00000   -0.00000    9
   17      0.564D-03      0.199D-04       -67.17233527     64.793221    0.00000    0.00000    0.00000    9
   18      0.315D-03      0.803D-04       -67.17233812     64.790366    0.00000    0.00000    0.00000    9
   19      0.139D-02      0.439D-04       -67.17234971     64.791665    0.00000    0.00000    0.00000    9
   20      0.846D-03      0.385D-04       -67.17235495     64.791727   -0.00000   -0.00000   -0.00000    9
   21      0.118D-02      0.409D-04       -67.17235961     64.793163   -0.00000   -0.00000   -0.00000    9
   22      0.324D-03      0.612D-04       -67.17236031     64.791004   -0.00000   -0.00000   -0.00000    9
   23      0.356D-03      0.317D-04       -67.17236026     64.792043    0.00000    0.00000    0.00000    9
   24      0.513D-03      0.502D-04       -67.17236132     64.789530   -0.00000   -0.00000   -0.00000    9
   25      0.432D-03      0.107D-04       -67.17236177     64.789072    0.00000    0.00000    0.00000    9
   26      0.182D-03      0.258D-05       -67.17236200     64.789147   -0.00000   -0.00000   -0.00000    9
   27      0.506D-04      0.330D-05       -67.17236195     64.789003    0.00000    0.00000    0.00000    9
   28      0.175D-03      0.201D-05       -67.17236211     64.789125   -0.00000   -0.00000    0.00000    9
   29      0.112D-03      0.174D-05       -67.17236217     64.788916    0.00000    0.00000    0.00000    9
   30      0.119D-03      0.138D-05       -67.17236222     64.788993   -0.00000   -0.00000    0.00000    9
   31      0.800D-04      0.410D-06       -67.17236223     64.788984    0.00000    0.00000    0.00000    9
   32      0.143D-04      0.274D-06       -67.17236223     64.788996    0.00000    0.00000    0.00000    8
   33      0.748D-05      0.116D-06       -67.17236223     64.788995    0.00000   -0.00000    0.00000    9
   34      0.147D-04      0.763D-07       -67.17236223     64.788995    0.00000    0.00000    0.00000    9

 Final alpha occupancy:   5
 Final beta  occupancy:   3

 !UKS STATE 1.1 Energy                -67.172362227729
 Nuclear energy                         0.00000000
 One-electron energy                  -99.32736237
 Two-electron energy                   32.39449768
 Density functional                    -0.23949753     CS1=-0.23949753
 Virial quotient                       -0.95158721
 !UKS STATE 1.1 Dipole moment           0.00000000     0.00000000     0.00000000
 Dipole moment /Debye                   0.00000000     0.00000000     0.00000000

 Orbital energies for positive spin:

         1.1          2.1          3.1          4.1          5.1          6.1          7.1
    -16.751684    -0.522601    -0.069759    -0.069759    -0.027042     0.175997     0.188707

 Orbital energies for negative spin:

         1.1          2.1          3.1          4.1          5.1          6.1          7.1
    -16.759307    -0.557328    -0.041768    -0.110047    -0.110046     0.152891     0.164630

 HOMO      5.1    -0.027042 =      -0.7358eV
 LUMO     -4.1    -0.110047 =      -2.9945eV
 LUMO-HOMO        -0.083005 =      -2.2587eV

 EXPECTATION VALUE OF S**2:             2.00012643

 Occupation number threshold for canonical orbitals:  1.999000 (occupied),  0.001000 (virtual)

 Number of pseudo-canonical orbitals per symmetry:    3
 Number of active natural orbitals per symmetry:      2

 Natural orbitals saved to record    2200.2 (Orbital set 3)

 Orbital spaces for UNO-CAS (Min. occupation: 0.020  Max. occupation: 1.980):

 Closed:        3
 Active:        2


 **********************************************************************************************************************************
 DATASETS  * FILE   NREC   LENGTH (MB)   RECORD NAMES
              1      20       30.03       500      610      700      900      950      970     1000      129      960     1100   
                                          VAR    BASINP    GEOM    SYMINP    ZMAT    AOBASIS   BASIS     P2S    ABASIS      S 
                                         1400     1410     1200     1210     1080     1600     1650     1300     1700     1800   
                                           T        V       H0       H01     AOSYM     SMH    MOLCAS    ERIS     OPER     GRID   

              2       5        2.77       700     1000      520     1800     2200   
                                         GEOM     BASIS   MCVARS    GRID      UKS  

 PROGRAMS   *        TOTAL       UKS       INT
 CPU TIMES  *         0.75      0.42      0.18
 REAL TIME  *         3.31 SEC
 DISK USED  *        34.71 MB      
 **********************************************************************************************************************************


 PROGRAM * Intrinsic Basis Bonding Analysis (IBBA)          Author: G. Knizia

 Molecular orbitals read from record     2200.2  Type=UKS/ALPHA (state 1.1)
 Fock matrix read from record            2200.2  Type=UKS/TOTAL (state 1.1)
 Orbital energies read from record       2200.2  Type=UKS/ALPHA (state 1.1)
 Density matrix read from record         2200.2  Type=UKS/CHARGE (state 1.1)

 Number of core orbitals:           1 (   1 )
 Number of closed-shell orbitals:   2 (   2 )
 Number of active  orbitals:        2 (   2 )

 Basis set MINAO-AUTO-PP generated.      Number of basis functions:   5 

 Polarized AO type:                A = (O Ot + (1-O)(1-Ot)) P12
 Orthogonalization method:         Symmetric (Loewdin)
 Localization functional:          L = sum[A,i] <i|n_A|i>^4 -> max

 Localization group 1:   3 orbitals, occupancy  2.000
 Iterative localization: IB/PM,    1 iter; Final gradient 0.00E+00

 Bond order analysis:       [THRPRINT= 0.020]

   CEN ATOM   CEN ATOM     WIBERG.BO      RENORM.BO


 Valency analysis:

   CEN ATOM   TOT.VALENCE
     1   O      -0.000000
 Localization group 2:   2 orbitals, occupancy  1.000
 Iterative localization: IB/PM,    1 iter; Final gradient 0.00E+00

 Bond order analysis:       [THRPRINT= 0.020]

   CEN ATOM   CEN ATOM     WIBERG.BO      RENORM.BO


 Valency analysis:

   CEN ATOM   TOT.VALENCE
     1   O       0.000000

 Total charge composition:

   CEN ATOM         s          p       ELECTRONS ->P.CHARGE
     1   O       4.00000    4.00000      8.00000    0.00000

 Total charge composition, AO contributions:

   CEN ATOM SHL      SPHERICAL COMPONENTS
     1   O  1s       2.00000
     1   O  2s       2.00000
     1   O  2p       1.81347    1.18653    1.00000

 Active orbital charges:

   CEN ATOM         s          p       ELECTRONS ->SPIN.DEN
     1   O       0.00000    2.00000      2.00000    2.00000

 Active orbital charges, AO contributions:

   CEN ATOM SHL      SPHERICAL COMPONENTS
     1   O  1s       0.00000
     1   O  2s       0.00000
     1   O  2p       0.18653    0.81347    1.00000

 Summary of localized orbital composition:   [THRPRINT= 0.020]

   ORB  GRP  ORB.ENERGY      CENTERS/CHARGES
     1   1   -16.755491      O  1   2.000
     2   1    -0.539904      O  1   2.000
     3   1    -0.089856      O  1   2.000
     4   2    -0.089856      O  1   1.000
     5   2    -0.034398      O  1   1.000

 Localized orbitals saved to record      2200.2  (orbital set 4)


 **********************************************************************************************************************************
 DATASETS  * FILE   NREC   LENGTH (MB)   RECORD NAMES
              1      20       30.03       500      610      700      900      950      970     1000      129      960     1100   
                                          VAR    BASINP    GEOM    SYMINP    ZMAT    AOBASIS   BASIS     P2S    ABASIS      S 
                                         1400     1410     1200     1210     1080     1600     1650     1300     1700     1800   
                                           T        V       H0       H01     AOSYM     SMH    MOLCAS    ERIS     OPER     GRID   

              2       5        2.78       700     1000      520     1800     2200   
                                         GEOM     BASIS   MCVARS    GRID      UKS  

 PROGRAMS   *        TOTAL      IBBA       UKS       INT
 CPU TIMES  *         0.77      0.02      0.42      0.18
 REAL TIME  *         3.35 SEC
 DISK USED  *        34.71 MB      
 **********************************************************************************************************************************
 Molecular orbitals read from record     2200.2  Type=UKS/LOCAL(IBO)  
 Occupation numbers read from record     2200.2  Type=UKS/LOCAL(IBO)  
 Orbital energies read from record       2200.2  Type=UKS/LOCAL(IBO)  
 Redundancy group numbers read from rec  2200.2  Type=UKS/BETA (state 1.1)

 IBBA/aug-cc-pVDZ energy=      0.000000000000

        UKS-SCF 
    -67.17236223
 **********************************************************************************************************************************
 Molpro calculation terminated
