
 Primary working directories    : /local
 Secondary working directories  : /local
 Wavefunction directory         : /local/
 Main file repository           : /local/

 SHA1      : b4a5b34a9e711420743f49e6833241d17c61fb3c
 NAME      : 2099.9.b4a5b34
 ARCHNAME  : linux/x86_64_openmp
 FC        : /cm/shared/languages/GCC-6.1/bin/gfortran
 BLASLIB   : -lblas
 id        : simonbennie

 Nodes     nprocs
 node33-033    1

 Using customized tuning parameters: mindgm=1; mindgv=20; mindgc=4; mindgr=1; noblas=0; minvec=7
 default implementation of scratch files=df  

 memory,500,m
 geomtyp=xyz
 nosym
 noorient
 geometry={
 O          0.00000        0.00000        0.00000
 }
 basis={ default,avdz }
 {df-ks,B3LYP3,direct;disp;wf,8,1,2}
 {ibba,bonds=1}

 Variables initialized (895), CPU time= 0.01 sec
 Commands  initialized (725), CPU time= 0.01 sec, 591 directives.
 Default parameters read. Elapsed time= 0.08 sec

 Checking input...
 Passed
1


                                         ***  PROGRAM SYSTEM MOLPRO  ***
                                       Copyright, TTI GmbH Stuttgart, 2015
                                    Version 2099.9 linked May 26 2017 16:03:21


 **********************************************************************************************************************************
 LABEL *                                                                                 
  64 bit serial version                                                                  DATE: 15-Mar-18          TIME: 21:18:47  
 **********************************************************************************************************************************

 SHA1:             b4a5b34a9e711420743f49e6833241d17c61fb3c
 **********************************************************************************************************************************
 SETTING GEOMTYP        =    XYZ

 Variable memory set to  500000000 words,  buffer space 

 ZSYMEL=NOSYM

 SETTING BASIS          =    AVDZ


 Recomputing integrals since basis changed


 Using spherical harmonics

 Library entry O      S aug-cc-pVDZ          selected for orbital group  1
 Library entry O      P aug-cc-pVDZ          selected for orbital group  1
 Library entry O      D aug-cc-pVDZ          selected for orbital group  1


 PROGRAM * SEWARD (Integral evaluation for generally contracted gaussian basis sets)     Author: Roland Lindh, 1990

 Geometry written to block  1 of record 700


 Point group  C1  



 ATOMIC COORDINATES

 NR  ATOM    CHARGE       X              Y              Z

   1  O       8.00    0.000000000    0.000000000    0.000000000

 NUCLEAR CHARGE:                    8
 NUMBER OF PRIMITIVE AOS:          37
 NUMBER OF SYMMETRY AOS:           35
 NUMBER OF CONTRACTIONS:           23   (  23A   )
 NUMBER OF CORE ORBITALS:           1   (   1A   )
 NUMBER OF VALENCE ORBITALS:        4   (   4A   )


 NUCLEAR REPULSION ENERGY    0.00000000

 EXTRA SYMMETRY OF AOS IN SYMMETRY 1:   1 1 1 1 2 3 4 2 3 4   2 3 4 5 6 7 8 9 5 6   7 8 9

 Eigenvalues of metric

         1 0.309E-01 0.155E+00 0.155E+00 0.155E+00 0.434E+00 0.486E+00 0.486E+00 0.486E+00


 OPERATOR DM      FOR CENTER  0  COORDINATES:    0.000000    0.000000    0.000000


 **********************************************************************************************************************************
 DATASETS  * FILE   NREC   LENGTH (MB)   RECORD NAMES
              1      18       29.96       500      610      700      900      950      970     1000      129      960     1100   
                                          VAR    BASINP    GEOM    SYMINP    ZMAT    AOBASIS   BASIS     P2S    ABASIS      S 
                                         1400     1410     1200     1210     1080     1600     1650     1700   
                                           T        V       H0       H01     AOSYM     SMH    MOLCAS    OPER   

 PROGRAMS   *        TOTAL       INT
 CPU TIMES  *         0.31      0.18
 REAL TIME  *         3.24 SEC
 DISK USED  *        30.22 MB      
 **********************************************************************************************************************************

 Density functional group B3LYP3=B88+DIRAC+LYP+VWN3
 Functional: B88(Automatically generated (new) B88)                            Gradient terms: 1
 Functional: DIRAC(Automatically generated (new) DIRAC)                        Gradient terms: 0
 Functional: LYP(Automatically generated (new) LYP)                            Gradient terms: 1
 Functional: VWN3(Automatically generated (new) VWN3)                          Gradient terms: 0

 dispersion correction activated
 Density functional: B3LYP3  
 functional not in list, set to default 


 Exact exchange will be calculated, factor:  0.2000

 Functional: B88                       Factor:  0.7200
 Functional: DIRAC                     Factor:  0.0800
 Functional: LYP                       Factor:  0.8100
 Functional: VWN3                      Factor:  0.1900

 Use grid at  1800.2


 Exact exchange will be calculated, factor:  0.2000

 Functional: B88                       Factor:  0.7200
 Functional: DIRAC                     Factor:  0.0800
 Functional: LYP                       Factor:  0.8100
 Functional: VWN3                      Factor:  0.1900

 Generated new metagrid on record  1800.2 with target accuracy 1.0D-06 and 672 points in CPU time    0.0
 Computed new grid on record 1800.1 in CPU time    0.0
   22087 words reserved for DFT integration

 PROGRAM * RKS-SCF (Restricted open shell Kohn-Sham)     Authors: W. Meyer, H.-J. Werner, P.J. Knowles, 1993

 NUMBER OF ELECTRONS:       5+    3-    SPACE SYMMETRY=1    SPIN SYMMETRY: Triplet 
 CONVERGENCE THRESHOLDS:    1.00E-05 (Density)    1.00E-06 (Energy)
 INTEGRAL THRESHOLDS:       1.00E-11 (Initial)    1.00E-11 (Final)
 MAX. NUMBER OF ITERATIONS:       60
 INTERPOLATION TYPE:            DIIS
 INTERPOLATION STEPS:              2 (START)      1 (STEP)
 LEVEL SHIFTS:                 -0.60 (CLOSED) -0.30 (OPEN) 



 Use fine grid record 1800.2 for energy threshold  1.0D-06

 Basis set CC-PVDZ/JKFIT generated.      Number of basis functions:   70 

 Orbital guess generated from atomic densities. Full valence occupancy:    5
 Using density fitting in orbital guess

 Coulomb and exchange fitting
 Thresholds for fitting:       THRAO_COUL= 1.0D-14    THRAO_EXCH= 1.0D-12    THRMO= 1.0D-11    THRPROD= 1.0D-11    THRASM= 1.0D-11
                               THR2HLF=    1.0D-11

 Molecular orbital dump at record        2100.2

 Initial alpha occupancy:   5
 Initial beta  occupancy:   3
 Wave function symmetry:    1

 ITERATION   DDIFF            GRAD            ENERGY        2-EL.EN.            DIPOLE MOMENTS         DIIS   CPU(IT)  CPU(TOT)  ORB.
    1      0.000D+00      0.000D+00       -75.06741052     68.779479    0.00000   -0.00000    0.00000    0      0.0      0.0     start
    2      0.000D+00      0.651D-02       -75.07375029     70.074399    0.00000   -0.00000   -0.00000    1      0.0      0.1     diag,B
    3      0.149D-01      0.311D-02       -75.07451810     69.791555    0.00000    0.00000    0.00000    2      0.0      0.1     diag,B
    4      0.547D-02      0.693D-03       -75.07465623     69.773679    0.00000    0.00000    0.00000    3      0.0      0.1     diag,B
    5      0.192D-02      0.157D-03       -75.07468067     69.770256    0.00000    0.00000    0.00000    4      0.0      0.1     diag,B
    6      0.452D-03      0.956D-04       -75.07470086     69.767817    0.00000    0.00000    0.00000    5      0.0      0.1     diag,B
    7      0.379D-03      0.868D-04       -75.07472179     69.767490    0.00000    0.00000    0.00000    6      0.0      0.1     fixocc
    8      0.388D-03      0.853D-04       -75.07479127     69.767295    0.00000    0.00000   -0.00000    7      0.0      0.2     diag,B
    9      0.133D-02      0.815D-04       -75.07516421     69.760400    0.00000   -0.00000   -0.00000    8      0.0      0.2     diag,B
   10      0.120D-01      0.222D-03       -75.07516767     69.758645    0.00000   -0.00000   -0.00000    9      0.0      0.2     orth
   11      0.937D-03      0.270D-03       -75.07516177     69.761375    0.00000   -0.00000   -0.00000    9      0.0      0.2     diag,B
   12      0.141D-02      0.191D-03       -75.07516361     69.772404   -0.00000   -0.00000   -0.00000    9      0.0      0.2     diag,B
   13      0.935D-03      0.912D-04       -75.07519126     69.768467   -0.00000   -0.00000    0.00000    9      0.0      0.2     diag,B
   14      0.230D-02      0.300D-04       -75.07519433     69.769560   -0.00000   -0.00000    0.00000    9      0.0      0.2     diag,B
   15      0.209D-03      0.355D-04       -75.07519578     69.769508   -0.00000   -0.00000    0.00000    9      0.0      0.3     diag,B
   16      0.936D-04      0.354D-04       -75.07519299     69.769702   -0.00000   -0.00000    0.00000    9      0.0      0.3     diag,B
   17      0.201D-03      0.376D-04       -75.07514746     69.769451   -0.00000    0.00000    0.00000    9      0.0      0.3     diag,B
   18      0.411D-02      0.363D-04       -75.07514377     69.768754   -0.00000    0.00000    0.00000    9      0.0      0.3     diag,B
   19      0.640D-03      0.216D-04       -75.07513539     69.768518   -0.00000    0.00000    0.00000    9      0.0      0.3     diag,B
   20      0.247D-02      0.159D-04       -75.07513521     69.769241   -0.00000    0.00000    0.00000    9      0.0      0.3     orth
   21      0.290D-03      0.163D-04       -75.07513530     69.768385   -0.00000   -0.00000    0.00000    9      0.0      0.4     diag,B
   22      0.176D-03      0.541D-05       -75.07513527     69.768620   -0.00000   -0.00000    0.00000    9      0.0      0.4     diag,B
   23      0.176D-03      0.605D-06       -75.07513527     69.768619   -0.00000    0.00000    0.00000    9      0.0      0.4     diag,B
   24      0.277D-04      0.274D-06       -75.07513527     69.768633   -0.00000    0.00000    0.00000    9      0.0      0.4     diag,B
   25      0.861D-05      0.804D-07       -75.07513527     69.768633   -0.00000   -0.00000    0.00000    0      0.0      0.4     orth

 Dispersion correction
 - - - - - - - - - - - 
  _________________________________
                                   
 |         DFTD3 V1.3 Rev 1        |
 | S.Grimme, University Muenster   |
 | Fri Jul  2 12:48:21 CEST 2010   |
  _________________________________

 Please cite DFT-D3 work done with this code as:
 S. Grimme, J. Antony, S. Ehrlich and H. Krieg,
 J. Chem. Phys, 132 (2010), 154104.
 For DFT-D2 the reference is
 S. Grimme, J. Comput. Chem., 27 (2006), 1787-1799

 C6 coefficients used:
                    3  C6 for element                     8
 Z=  8 CN=   0.000     C6(AA)=   15.51
 Z=  8 CN=   0.993     C6(AA)=   12.82
 Z=  8 CN=   1.989     C6(AA)=   10.37

 #           XYZ [au]               R0(AA) [Ang.]   CN       C6(AA)     C8(AA)   C10(AA) [au]
  1   0.00000   0.00000   0.00000   o   1.241  0.000        15.5       311.8      7708.5

 molecular C6(AA) [au] =        15.45

           DFT-D V3
 DF pbe                                               
 parameters
 s6       :    1.0000
 s8       :    0.7220
 rs6      :    1.2170
 alpha6   :   14.0000
 alpha8   :   16.0000
 k1-k3    :   16.0000    1.3333   -4.0000

 Edisp /kcal,au:    -0.0000 -0.00000000

 E6    /kcal :    -0.0000
 E8    /kcal :    -0.0000
 % E8        :   NaN
 normal termination of dftd3

 RKS STATE 1.1 ENERGY+DISP      -75.07513527

 Final alpha occupancy:   5
 Final beta  occupancy:   3

 !RKS STATE 1.1 Energy                -75.075135270083
 Nuclear energy                         0.00000000
 One-electron energy                 -103.13452600
 Two-electron energy                   34.88431664
 Density functional                    -6.82492591     B88=-8.18979876 DIRAC=-7.35222017 LYP=-0.25832825 VWN3=-0.68867005
 Virial quotient                       -1.00526355
 !RKS STATE 1.1 Dipole moment          -0.00000000    -0.00000000     0.00000000
 Dipole moment /Debye                  -0.00000000    -0.00000000     0.00000000

 Orbital energies:

         1.1          2.1          3.1          4.1          5.1          6.1          7.1
    -19.278230    -0.947931    -0.364146    -0.464501    -0.462942     0.078356     0.112360

 HOMO      5.1    -0.462942 =     -12.5973eV
 LUMO      6.1     0.078356 =       2.1322eV
 LUMO-HOMO         0.541299 =      14.7295eV


 **********************************************************************************************************************************
 DATASETS  * FILE   NREC   LENGTH (MB)   RECORD NAMES
              1      19       29.98       500      610      700      900      950      970     1000      129      960     1100   
                                          VAR    BASINP    GEOM    SYMINP    ZMAT    AOBASIS   BASIS     P2S    ABASIS      S 
                                         1400     1410     1200     1210     1080     1600     1650     1700     1800   
                                           T        V       H0       H01     AOSYM     SMH    MOLCAS    OPER     GRID   

              2       5        2.77       700     1000      520     1800     2100   
                                         GEOM     BASIS   MCVARS    GRID      RKS  

 PROGRAMS   *        TOTAL        KS       INT
 CPU TIMES  *         0.75      0.44      0.18
 REAL TIME  *         3.93 SEC
 DISK USED  *        32.99 MB      
 **********************************************************************************************************************************


 PROGRAM * Intrinsic Basis Bonding Analysis (IBBA)          Author: G. Knizia

 Molecular orbitals read from record     2100.2  Type=RKS/CANONICAL (state 1.1)
 Fock matrix read from record            2100.2  Type=RKS/TOTAL (state 1.1)
 Orbital energies read from record       2100.2  Type=RKS/CANONICAL (state 1.1)
 Density matrix read from record         2100.2  Type=RKS/CHARGE (state 1.1)

 Number of core orbitals:           1 (   1 )
 Number of closed-shell orbitals:   2 (   2 )
 Number of active  orbitals:        2 (   2 )

 Basis set MINAO-AUTO-PP generated.      Number of basis functions:   5 

 Polarized AO type:                A = (O Ot + (1-O)(1-Ot)) P12
 Orthogonalization method:         Symmetric (Loewdin)
 Localization functional:          L = sum[A,i] <i|n_A|i>^4 -> max

 Localization group 1:   3 orbitals, occupancy  2.000
 Iterative localization: IB/PM,    1 iter; Final gradient 0.00E+00

 Bond order analysis:       [THRPRINT= 0.020]

   CEN ATOM   CEN ATOM     WIBERG.BO      RENORM.BO


 Valency analysis:

   CEN ATOM   TOT.VALENCE
     1   O       0.000000
 Localization group 2:   2 orbitals, occupancy  1.000
 Iterative localization: IB/PM,    1 iter; Final gradient 0.00E+00

 Bond order analysis:       [THRPRINT= 0.020]

   CEN ATOM   CEN ATOM     WIBERG.BO      RENORM.BO


 Valency analysis:

   CEN ATOM   TOT.VALENCE
     1   O      -0.000000

 Total charge composition:

   CEN ATOM         s          p       ELECTRONS ->P.CHARGE
     1   O       4.00000    4.00000      8.00000    0.00000

 Total charge composition, AO contributions:

   CEN ATOM SHL      SPHERICAL COMPONENTS
     1   O  1s       2.00000
     1   O  2s       2.00000
     1   O  2p       1.15569    1.15588    1.68843

 Active orbital charges:

   CEN ATOM         s          p       ELECTRONS ->SPIN.DEN
     1   O       0.00000    2.00000      2.00000    2.00000

 Active orbital charges, AO contributions:

   CEN ATOM SHL      SPHERICAL COMPONENTS
     1   O  1s       0.00000
     1   O  2s       0.00000
     1   O  2p       0.84431    0.84412    0.31157

 Summary of localized orbital composition:   [THRPRINT= 0.020]

   ORB  GRP  ORB.ENERGY      CENTERS/CHARGES
     1   1   -19.278230      O  1   2.000
     2   1    -0.947931      O  1   2.000
     3   1    -0.364146      O  1   2.000
     4   2    -0.321651      O  1   1.000
     5   2    -0.320833      O  1   1.000

 Localized orbitals saved to record      2100.2  (orbital set 2)


 **********************************************************************************************************************************
 DATASETS  * FILE   NREC   LENGTH (MB)   RECORD NAMES
              1      19       29.98       500      610      700      900      950      970     1000      129      960     1100   
                                          VAR    BASINP    GEOM    SYMINP    ZMAT    AOBASIS   BASIS     P2S    ABASIS      S 
                                         1400     1410     1200     1210     1080     1600     1650     1700     1800   
                                           T        V       H0       H01     AOSYM     SMH    MOLCAS    OPER     GRID   

              2       5        2.77       700     1000      520     1800     2100   
                                         GEOM     BASIS   MCVARS    GRID      RKS  

 PROGRAMS   *        TOTAL      IBBA        KS       INT
 CPU TIMES  *         0.77      0.02      0.44      0.18
 REAL TIME  *         3.96 SEC
 DISK USED  *        32.99 MB      
 **********************************************************************************************************************************

 IBBA/aug-cc-pVDZ energy=      0.000000000000

        DF-KS   
    -75.07513527
 **********************************************************************************************************************************
 Molpro calculation terminated
