
 Primary working directories    : /local
 Secondary working directories  : /local
 Wavefunction directory         : /local/
 Main file repository           : /local/

 SHA1      : b4a5b34a9e711420743f49e6833241d17c61fb3c
 NAME      : 2099.9.b4a5b34
 ARCHNAME  : linux/x86_64_openmp
 FC        : /cm/shared/languages/GCC-6.1/bin/gfortran
 BLASLIB   : -lblas
 id        : simonbennie

 Nodes     nprocs
 node47-013    1

 Using customized tuning parameters: mindgm=1; mindgv=20; mindgc=4; mindgr=1; noblas=0; minvec=7
 default implementation of scratch files=df  

 memory,500,m
 geomtyp=xyz
 nosym
 noorient
 geometry={
 O          0.00000        0.00000        0.00000
 }
 basis={ default,qzvp }
 {df-ks,LDA,direct;disp;wf,8,1,2}
 {ibba,bonds=1}

 Variables initialized (895), CPU time= 0.00 sec
 Commands  initialized (725), CPU time= 0.02 sec, 591 directives.
 Default parameters read. Elapsed time= 0.14 sec

 Checking input...
 Passed
1


                                         ***  PROGRAM SYSTEM MOLPRO  ***
                                       Copyright, TTI GmbH Stuttgart, 2015
                                    Version 2099.9 linked May 26 2017 16:03:21


 **********************************************************************************************************************************
 LABEL *                                                                                 
  64 bit serial version                                                                  DATE: 15-Mar-18          TIME: 20:53:23  
 **********************************************************************************************************************************

 SHA1:             b4a5b34a9e711420743f49e6833241d17c61fb3c
 **********************************************************************************************************************************
 SETTING GEOMTYP        =    XYZ

 Variable memory set to  500000000 words,  buffer space 

 ZSYMEL=NOSYM

 SETTING BASIS          =    QZVP


 Recomputing integrals since basis changed


 Using spherical harmonics

 Library entry O      S def2-QZVP            selected for orbital group  1
 Library entry O      P def2-QZVP            selected for orbital group  1
 Library entry O      D def2-QZVP            selected for orbital group  1
 Library entry O      F def2-QZVP            selected for orbital group  1
 Library entry O      G def2-QZVP            selected for orbital group  1


 PROGRAM * SEWARD (Integral evaluation for generally contracted gaussian basis sets)     Author: Roland Lindh, 1990

 Geometry written to block  1 of record 700


 Point group  C1  



 ATOMIC COORDINATES

 NR  ATOM    CHARGE       X              Y              Z

   1  O       8.00    0.000000000    0.000000000    0.000000000

 NUCLEAR CHARGE:                    8
 NUMBER OF PRIMITIVE AOS:          92
 NUMBER OF SYMMETRY AOS:           77
 NUMBER OF CONTRACTIONS:           57   (  57A   )
 NUMBER OF CORE ORBITALS:           1   (   1A   )
 NUMBER OF VALENCE ORBITALS:        4   (   4A   )


 NUCLEAR REPULSION ENERGY    0.00000000

 EXTRA SYMMETRY OF AOS IN SYMMETRY 1:   1 1 1 1 1 1 1 2 3 4   2 3 4 2 3 4 2 3 4 5   6 7 8 9 5 6 7 8 9 5   6 7 8 9101112131415
                                       16101112131415161718  19202122232425

 Eigenvalues of metric

         1 0.581E-02 0.128E-01 0.446E-01 0.611E-01 0.611E-01 0.611E-01 0.210E+00 0.210E+00


 OPERATOR DM      FOR CENTER  0  COORDINATES:    0.000000    0.000000    0.000000


 **********************************************************************************************************************************
 DATASETS  * FILE   NREC   LENGTH (MB)   RECORD NAMES
              1      18       30.08       500      610      700      900      950      970     1000      129      960     1100   
                                          VAR    BASINP    GEOM    SYMINP    ZMAT    AOBASIS   BASIS     P2S    ABASIS      S 
                                         1400     1410     1200     1210     1080     1600     1650     1700   
                                           T        V       H0       H01     AOSYM     SMH    MOLCAS    OPER   

 PROGRAMS   *        TOTAL       INT
 CPU TIMES  *         0.38      0.23
 REAL TIME  *         2.64 SEC
 DISK USED  *        30.35 MB      
 **********************************************************************************************************************************

 Density functional group LDA=DIRAC+VWN5
 Functional: DIRAC(Automatically generated (new) DIRAC)                        Gradient terms: 0
 Functional: VWN5(Automatically generated (new) VWN5)                          Gradient terms: 0

 dispersion correction activated
 Density functional: LDA     
 functional not in list, set to default 

 Functional: DIRAC                     Factor:  1.0000
 Functional: VWN5                      Factor:  1.0000

 Use grid at  1800.2

 Functional: DIRAC                     Factor:  1.0000
 Functional: VWN5                      Factor:  1.0000

 Generated new metagrid on record  1800.2 with target accuracy 1.0D-06 and 1824 points in CPU time    0.0
 Computed new grid on record 1800.1 in CPU time    0.0
   27463 words reserved for DFT integration

 PROGRAM * RKS-SCF (Restricted open shell Kohn-Sham)     Authors: W. Meyer, H.-J. Werner, P.J. Knowles, 1993

 NUMBER OF ELECTRONS:       5+    3-    SPACE SYMMETRY=1    SPIN SYMMETRY: Triplet 
 CONVERGENCE THRESHOLDS:    1.00E-05 (Density)    1.00E-06 (Energy)
 INTEGRAL THRESHOLDS:       1.00E-11 (Initial)    1.00E-11 (Final)
 MAX. NUMBER OF ITERATIONS:       60
 INTERPOLATION TYPE:            DIIS
 INTERPOLATION STEPS:              2 (START)      1 (STEP)
 LEVEL SHIFTS:                 -0.60 (CLOSED) -0.30 (OPEN) 



 Use fine grid record 1800.2 for energy threshold  1.0D-06

 Basis set DEF2-QZVPP/JFIT generated.    Number of basis functions:   49 
 Coulomb fitting
 Screening thresholds:    THRAO_COUL= 1.0D-14    THRAO= 1.0D-12    THROV= 1.0D-12

 Reserved 0 MW to cache 100.0% of significant integrals. CPU: 0.0 sec

 Orbital guess generated from atomic densities. Full valence occupancy:    4
 Using density fitting in orbital guess


 Molecular orbital dump at record        2100.2

 Initial alpha occupancy:   5
 Initial beta  occupancy:   3
 Wave function symmetry:    1

 ITERATION   DDIFF            GRAD            ENERGY        2-EL.EN.            DIPOLE MOMENTS         DIIS   CPU(IT)  CPU(TOT)  ORB.
    1      0.000D+00      0.000D+00       -74.52378405     72.280214   -0.00000    0.00000   -0.00000    0      0.0      0.0     start
    2      0.000D+00      0.398D-02       -74.52795165     73.184429   -0.00000    0.00000    0.00000    1      0.0      0.1     diag,B
    3      0.119D-02      0.191D-02       -74.52856437     72.859795   -0.00000    0.00000    0.00000    2      0.0      0.1     diag,B
    4      0.496D-03      0.291D-03       -74.52863450     72.889911   -0.00000    0.00000   -0.00000    3      0.0      0.1     diag,B
    5      0.168D-03      0.121D-03       -74.52864752     72.878303    0.00000    0.00000   -0.00000    4      0.0      0.1     diag,B
    6      0.117D-03      0.271D-04       -74.52864810     72.876324    0.00000    0.00000   -0.00000    5      0.0      0.2     diag,B
    7      0.374D-04      0.533D-05       -74.52864812     72.876283   -0.00000    0.00000    0.00000    6      0.0      0.2     fixocc
    8      0.772D-05      0.900D-06       -74.52864812     72.876221   -0.00000    0.00000   -0.00000    0      0.0      0.2     orth

 Dispersion correction
 - - - - - - - - - - - 
  _________________________________
                                   
 |         DFTD3 V1.3 Rev 1        |
 | S.Grimme, University Muenster   |
 | Fri Jul  2 12:48:21 CEST 2010   |
  _________________________________

 Please cite DFT-D3 work done with this code as:
 S. Grimme, J. Antony, S. Ehrlich and H. Krieg,
 J. Chem. Phys, 132 (2010), 154104.
 For DFT-D2 the reference is
 S. Grimme, J. Comput. Chem., 27 (2006), 1787-1799

 C6 coefficients used:
                    3  C6 for element                     8
 Z=  8 CN=   0.000     C6(AA)=   15.51
 Z=  8 CN=   0.993     C6(AA)=   12.82
 Z=  8 CN=   1.989     C6(AA)=   10.37

 #           XYZ [au]               R0(AA) [Ang.]   CN       C6(AA)     C8(AA)   C10(AA) [au]
  1   0.00000   0.00000   0.00000   o   1.241  0.000        15.5       311.8      7708.5

 molecular C6(AA) [au] =        15.45

           DFT-D V3
 DF pbe                                               
 parameters
 s6       :    1.0000
 s8       :    0.7220
 rs6      :    1.2170
 alpha6   :   14.0000
 alpha8   :   16.0000
 k1-k3    :   16.0000    1.3333   -4.0000

 Edisp /kcal,au:    -0.0000 -0.00000000

 E6    /kcal :    -0.0000
 E8    /kcal :    -0.0000
 % E8        :   NaN
 normal termination of dftd3

 RKS STATE 1.1 ENERGY+DISP      -74.52864812

 Final alpha occupancy:   5
 Final beta  occupancy:   3

 !RKS STATE 1.1 Energy                -74.528648122298
 Nuclear energy                         0.00000000
 One-electron energy                 -103.10787705
 Two-electron energy                   36.43811072
 Density functional                    -7.85888180     DIRAC=-7.32585767 VWN5=-0.53302412
 Virial quotient                       -1.00488963
 !RKS STATE 1.1 Dipole moment          -0.00000000     0.00000000    -0.00000000
 Dipole moment /Debye                  -0.00000000     0.00000000    -0.00000000

 Orbital energies:

         1.1          2.1          3.1          4.1          5.1          6.1          7.1
    -18.739624    -0.854042    -0.303355    -0.400247    -0.400228     0.214369     0.214402

 HOMO      5.1    -0.400228 =     -10.8908eV
 LUMO      6.1     0.214369 =       5.8333eV
 LUMO-HOMO         0.614597 =      16.7240eV


 **********************************************************************************************************************************
 DATASETS  * FILE   NREC   LENGTH (MB)   RECORD NAMES
              1      19       30.14       500      610      700      900      950      970     1000      129      960     1100   
                                          VAR    BASINP    GEOM    SYMINP    ZMAT    AOBASIS   BASIS     P2S    ABASIS      S 
                                         1400     1410     1200     1210     1080     1600     1650     1700     1800   
                                           T        V       H0       H01     AOSYM     SMH    MOLCAS    OPER     GRID   

              2       5        2.84       700     1000      520     1800     2100   
                                         GEOM     BASIS   MCVARS    GRID      RKS  

 PROGRAMS   *        TOTAL        KS       INT
 CPU TIMES  *         0.62      0.24      0.23
 REAL TIME  *         3.61 SEC
 DISK USED  *        33.50 MB      
 **********************************************************************************************************************************


 PROGRAM * Intrinsic Basis Bonding Analysis (IBBA)          Author: G. Knizia

 Molecular orbitals read from record     2100.2  Type=RKS/CANONICAL (state 1.1)
 Fock matrix read from record            2100.2  Type=RKS/TOTAL (state 1.1)
 Orbital energies read from record       2100.2  Type=RKS/CANONICAL (state 1.1)
 Density matrix read from record         2100.2  Type=RKS/CHARGE (state 1.1)

 Number of core orbitals:           1 (   1 )
 Number of closed-shell orbitals:   2 (   2 )
 Number of active  orbitals:        2 (   2 )

 Basis set MINAO-AUTO-PP generated.      Number of basis functions:   5 

 Polarized AO type:                A = (O Ot + (1-O)(1-Ot)) P12
 Orthogonalization method:         Symmetric (Loewdin)
 Localization functional:          L = sum[A,i] <i|n_A|i>^4 -> max

 Localization group 1:   3 orbitals, occupancy  2.000
 Iterative localization: IB/PM,    1 iter; Final gradient 0.00E+00

 Bond order analysis:       [THRPRINT= 0.020]

   CEN ATOM   CEN ATOM     WIBERG.BO      RENORM.BO


 Valency analysis:

   CEN ATOM   TOT.VALENCE
     1   O       0.000000
 Localization group 2:   2 orbitals, occupancy  1.000
 Iterative localization: IB/PM,    1 iter; Final gradient 0.00E+00

 Bond order analysis:       [THRPRINT= 0.020]

   CEN ATOM   CEN ATOM     WIBERG.BO      RENORM.BO


 Valency analysis:

   CEN ATOM   TOT.VALENCE
     1   O       0.000000

 Total charge composition:

   CEN ATOM         s          p       ELECTRONS ->P.CHARGE
     1   O       4.00000    4.00000      8.00000    0.00000

 Total charge composition, AO contributions:

   CEN ATOM SHL      SPHERICAL COMPONENTS
     1   O  1s       2.00000
     1   O  2s       2.00000
     1   O  2p       1.08742    1.42235    1.49023

 Active orbital charges:

   CEN ATOM         s          p       ELECTRONS ->SPIN.DEN
     1   O       0.00000    2.00000      2.00000    2.00000

 Active orbital charges, AO contributions:

   CEN ATOM SHL      SPHERICAL COMPONENTS
     1   O  1s       0.00000
     1   O  2s       0.00000
     1   O  2p       0.91258    0.57765    0.50977

 Summary of localized orbital composition:   [THRPRINT= 0.020]

   ORB  GRP  ORB.ENERGY      CENTERS/CHARGES
     1   1   -18.739631      O  1   2.000
     2   1    -0.854044      O  1   2.000
     3   1    -0.303358      O  1   2.000
     4   2    -0.329602      O  1   1.000
     5   2    -0.329552      O  1   1.000

 Localized orbitals saved to record      2100.2  (orbital set 2)


 **********************************************************************************************************************************
 DATASETS  * FILE   NREC   LENGTH (MB)   RECORD NAMES
              1      19       30.14       500      610      700      900      950      970     1000      129      960     1100   
                                          VAR    BASINP    GEOM    SYMINP    ZMAT    AOBASIS   BASIS     P2S    ABASIS      S 
                                         1400     1410     1200     1210     1080     1600     1650     1700     1800   
                                           T        V       H0       H01     AOSYM     SMH    MOLCAS    OPER     GRID   

              2       5        2.87       700     1000      520     1800     2100   
                                         GEOM     BASIS   MCVARS    GRID      RKS  

 PROGRAMS   *        TOTAL      IBBA        KS       INT
 CPU TIMES  *         0.64      0.02      0.24      0.23
 REAL TIME  *         3.63 SEC
 DISK USED  *        33.50 MB      
 **********************************************************************************************************************************

 IBBA/QZVP energy=      0.000000000000

        DF-KS   
    -74.52864812
 **********************************************************************************************************************************
 Molpro calculation terminated
