
 Primary working directories    : /local
 Secondary working directories  : /local
 Wavefunction directory         : /local/
 Main file repository           : /local/

 SHA1      : c0a9389f28099e76fc5c27f221137d89bf5b3532
 NAME      : 2018.0.c0a9389
 ARCHNAME  : linux/x86_64_openmp
 FC        : /cm/shared/languages/GCC-6.1/bin/gfortran
 BLASLIB   : -lblas
 id        : simonbennie

 Nodes     nprocs
 node34-011    1

 Using customized tuning parameters: mindgm=1; mindgv=20; mindgc=4; mindgr=1; noblas=0; minvec=7
 default implementation of scratch files=df  

 memory,500,m
 geomtyp=xyz
 nosym
 noorient
 geometry={
 O          0.00000        0.00000        0.00000
 }
 basis={ default,sto-3g }
 {uhf,direct;wf,8,1,2}
 {uks,B3LYP3,direct;maxit,0;wf,8,1,2}
 {ibba,bonds=1}

 Variables initialized (918), CPU time= 0.00 sec
 Commands  initialized (754), CPU time= 0.02 sec, 610 directives.
 Default parameters read. Elapsed time= 0.08 sec

 Checking input...
 Passed
1


                                         ***  PROGRAM SYSTEM MOLPRO  ***
                                       Copyright, TTI GmbH Stuttgart, 2015
                                    Version 2018.0 linked Apr  9 2018 18:26:23


 **********************************************************************************************************************************
 LABEL *                                                                                 
  64 bit serial version                                                                  DATE: 29-Jun-18          TIME: 16:12:00  
 **********************************************************************************************************************************

 SHA1:             c0a9389f28099e76fc5c27f221137d89bf5b3532
 **********************************************************************************************************************************
 SETTING GEOMTYP        =    XYZ

 Variable memory set to  500000000 words,  buffer space 

 ZSYMEL=NOSYM

 SETTING BASIS          =    STO-3G


 Recomputing integrals since basis changed


 Using spherical harmonics

 Library entry O      S STO-3G               selected for orbital group  1
 Library entry O      P STO-3G               selected for orbital group  1


 PROGRAM * SEWARD (Integral evaluation for generally contracted gaussian basis sets)     Author: Roland Lindh, 1990

 Geometry written to block  1 of record 700


 Point group  C1  



 ATOMIC COORDINATES

 NR  ATOM    CHARGE       X              Y              Z

   1  O       8.00    0.000000000    0.000000000    0.000000000

 NUCLEAR CHARGE:                    8
 NUMBER OF PRIMITIVE AOS:          15
 NUMBER OF SYMMETRY AOS:           15
 NUMBER OF CONTRACTIONS:            5   (   5A   )
 NUMBER OF CORE ORBITALS:           1   (   1A   )
 NUMBER OF VALENCE ORBITALS:        4   (   4A   )


 NUCLEAR REPULSION ENERGY    0.00000000

 EXTRA SYMMETRY OF AOS IN SYMMETRY 1:   1 1 2 3 4

 Eigenvalues of metric

         1 0.763E+00 0.100E+01 0.100E+01 0.100E+01 0.124E+01


 Contracted 2-electron integrals neglected if value below      1.0D-11
 AO integral compression algorithm  1   Integral accuracy      1.0D-11

     0.262 MB (compressed) written to integral file ( 98.8%)


 NUMBER OF SORTED TWO-ELECTRON INTEGRALS:        120.     BUFFER LENGTH:  32768
 NUMBER OF SEGMENTS:   1  SEGMENT LENGTH:        120      RECORD LENGTH: 524288

 Memory used in sort:       0.56 MW

 SORT1 READ         169. AND WROTE          33. INTEGRALS IN      1 RECORDS. CPU TIME:     0.00 SEC, REAL TIME:     0.01 SEC
 SORT2 READ          33. AND WROTE         120. INTEGRALS IN      1 RECORDS. CPU TIME:     0.00 SEC, REAL TIME:     0.00 SEC

 FILE SIZES:   FILE 1:    30.2 MBYTE,  FILE 4:     4.2 MBYTE,   TOTAL:     34.4 MBYTE

 OPERATOR DM      FOR CENTER  0  COORDINATES:    0.000000    0.000000    0.000000


 **********************************************************************************************************************************
 DATASETS  * FILE   NREC   LENGTH (MB)   RECORD NAMES
              1      19       29.93       500      610      700      900      950      970     1000      129      960     1100   
                                          VAR    BASINP    GEOM    SYMINP    ZMAT    AOBASIS   BASIS     P2S    ABASIS      S 
                                         1400     1410     1200     1210     1080     1600     1650     1300     1700   
                                           T        V       H0       H01     AOSYM     SMH    MOLCAS    ERIS     OPER   

 PROGRAMS   *        TOTAL       INT
 CPU TIMES  *         0.52      0.37
 REAL TIME  *         0.83 SEC
 DISK USED  *        34.68 MB
 **********************************************************************************************************************************


 PROGRAM * UHF-SCF       Authors: W. Meyer, H.-J. Werner


 NUMBER OF ELECTRONS:       5+    3-    SPACE SYMMETRY=1    SPIN SYMMETRY: Triplet 
 CONVERGENCE THRESHOLDS:    1.00E-05 (Density)    1.00E-07 (Energy)
 INTEGRAL THRESHOLDS:       1.00E-11 (Initial)    1.00E-11 (Final)
 MAX. NUMBER OF ITERATIONS:       60
 INTERPOLATION TYPE:            DIIS
 INTERPOLATION STEPS:              2 (START)      1 (STEP)
 LEVEL SHIFTS:                 -0.20 (ALPHA)  -0.20 (BETA) 



 Orbital guess generated from atomic densities. Full valence occupancy:    4

 Molecular orbital dump at record        2200.2

 Initial alpha occupation   5
 Initial beta  occupation   3

 Direct Fock-matrix evaluation.        Author: H.-J. Werner (1996)

 Integral Threshold:                  0.1D-10

 ITERATION   DDIFF            GRAD            ENERGY        2-EL.EN.            DIPOLE MOMENTS         DIIS   CPU(IT)  CPU(TOT)
    1      0.000D+00      0.000D+00       -73.80415023     58.150410    0.00000    0.00000    0.00000    0      0.9      1.9
    2      0.573D-16      0.161D-14       -73.80415023     58.150410    0.00000    0.00000    0.00000    1      0.0      1.9
    3      0.000D+00      0.149D-14       -73.80415023     58.150410    0.00000    0.00000    0.00000    2      0.0      1.9
    4      0.000D+00      0.149D-14       -73.80415023     58.150410    0.00000    0.00000    0.00000    1      0.0      1.9

 Final alpha occupancy:   5
 Final beta  occupancy:   3

 !UHF STATE  1.1 Energy               -73.804150233256
 Nuclear energy                         0.00000000
 One-electron energy                 -102.87935540
 Two-electron energy                   29.07520517
 Virial quotient                       -1.00489062
 !UHF STATE  1.1 Dipole moment          0.00000000     0.00000000     0.00000000
 Dipole moment /Debye                   0.00000000     0.00000000     0.00000000

 Orbital energies for positive spin:

         1.1          2.1          3.1          4.1          5.1
    -20.311229    -1.293091    -0.550344    -0.550344    -0.455455

 Orbital energies for negative spin:

         1.1          2.1          3.1          4.1          5.1
    -20.259573    -0.948343    -0.360566     0.377259     0.377259


 HOMO     -3.1    -0.360566 =      -9.8115eV
 LUMO     -4.1     0.377259 =      10.2658eV
 LUMO-HOMO         0.737826 =      20.0773eV

 EXPECTATION VALUE OF S**2:             2.00000000

 Occupation number threshold for pseudo-canonical orbitals: 1.9990 (occupied), 0.0010 (virtual)

 Number of pseudo-canonical occupied orbitals per symmetry:    3
 Number of active natural orbitals per symmetry:               2

 Natural orbitals saved to record    2200.2 (Orbital set 3)

 Orbital spaces for UNO-CAS (Min. occupation: 0.020  Max. occupation: 1.980):

 Closed:        3
 Active:        2


 **********************************************************************************************************************************
 DATASETS  * FILE   NREC   LENGTH (MB)   RECORD NAMES
              1      19       29.93       500      610      700      900      950      970     1000      129      960     1100   
                                          VAR    BASINP    GEOM    SYMINP    ZMAT    AOBASIS   BASIS     P2S    ABASIS      S 
                                         1400     1410     1200     1210     1080     1600     1650     1300     1700   
                                           T        V       H0       H01     AOSYM     SMH    MOLCAS    ERIS     OPER   

              2       4        2.75       700     1000      520     2200   
                                         GEOM     BASIS   MCVARS     UHF  

 PROGRAMS   *        TOTAL   UHF-SCF       INT
 CPU TIMES  *         2.48      1.95      0.37
 REAL TIME  *         5.01 SEC
 DISK USED  *        34.68 MB
 **********************************************************************************************************************************

 Density functional group B3LYP3=B88+DIRAC+LYP+VWN3
 Functional: B88(Automatically generated (new) B88)                            Gradient terms: 1
 Functional: DIRAC(Automatically generated (new) DIRAC)                        Gradient terms: 0
 Functional: LYP(Automatically generated (new) LYP)                            Gradient terms: 1
 Functional: VWN3(Automatically generated (new) VWN3)                          Gradient terms: 0
 Use libxcgrid:  F
 Use grid at  1800.2


 Exact exchange will be calculated, factor:  0.2000

 Functional: B88                       Factor:  0.7200
 Functional: DIRAC                     Factor:  0.0800
 Functional: LYP                       Factor:  0.8100
 Functional: VWN3                      Factor:  0.1900

 Generated new metagrid on record  1800.2 with target accuracy 1.0D-06 and 672 points in CPU time    0.0
 Computed new grid on record 1800.1 in CPU time    0.0
    7767 words reserved for DFT integration

 PROGRAM * UKS-SCF (Unrestricted Kohn-Sham)     Authors: W. Meyer, H.-J. Werner, P.J. Knowles, 1993

 NUMBER OF ELECTRONS:       5+    3-    SPACE SYMMETRY=1    SPIN SYMMETRY: Triplet 
 CONVERGENCE THRESHOLDS:    1.00E-05 (Density)    1.00E-06 (Energy)
 MAX. NUMBER OF ITERATIONS:        0
 INTERPOLATION TYPE:            DIIS
 INTERPOLATION STEPS:              2 (START)      1 (STEP)
 LEVEL SHIFTS:                 -0.20 (ALPHA)  -0.20 (BETA) 



 Use fine grid record 1800.2 for energy threshold  1.0D-06
 Molecular orbitals read from record     2200.2  Type=UHF/ALPHA (state 1.1)
 Molecular orbitals read from record     2200.2  Type=UHF/BETA (state 1.1)

 Molecular orbital dump at record        2201.2

 Initial alpha occupation   5
 Initial beta  occupation   3

 ITERATION    DDIFF          GRAD             ENERGY        2-EL.EN.            DIPOLE MOMENTS         DIIS
    1      0.000D+00      0.000D+00       -74.03446378     71.569933    0.00000    0.00000    0.00000    0

 Final alpha occupancy:   5
 Final beta  occupancy:   3

 !UKS STATE  1.1 Energy               -74.034463778991
 Nuclear energy                         0.00000000
 One-electron energy                 -102.87935540
 Two-electron energy                   35.78496633
 Density functional                    -6.94007471     B88=-8.33033829 DIRAC=-7.48944826 LYP=-0.25932887 VWN3=-0.70009947
 Virial quotient                       -1.00802649
 !UKS STATE  1.1 Dipole moment          0.00000000     0.00000000     0.00000000
 Dipole moment /Debye                   0.00000000     0.00000000     0.00000000

 Orbital energies for positive spin:

         1.1          2.1          3.1          4.1          5.1
    -20.285334    -1.120784    -0.408011    -0.086542    -0.086542

 Orbital energies for negative spin:

         1.1          2.1          3.1          4.1          5.1
    -20.285334    -1.120784    -0.408011    -0.086542    -0.086542


 HOMO      5.1    -0.086542 =      -2.3549eV
 LUMO     -4.1    -0.086542 =      -2.3549eV
 LUMO-HOMO         0.000000 =       0.0000eV

 EXPECTATION VALUE OF S**2:             2.00000000

 Occupation number threshold for pseudo-canonical orbitals: 1.9990 (occupied), 0.0010 (virtual)

 Number of pseudo-canonical occupied orbitals per symmetry:    3
 Number of active natural orbitals per symmetry:               2

 Natural orbitals saved to record    2201.2 (Orbital set 3)

 Orbital spaces for UNO-CAS (Min. occupation: 0.020  Max. occupation: 1.980):

 Closed:        3
 Active:        2

 No convergence



 **********************************************************************************************************************************
 DATASETS  * FILE   NREC   LENGTH (MB)   RECORD NAMES
              1      20       29.95       500      610      700      900      950      970     1000      129      960     1100   
                                          VAR    BASINP    GEOM    SYMINP    ZMAT    AOBASIS   BASIS     P2S    ABASIS      S 
                                         1400     1410     1200     1210     1080     1600     1650     1300     1700     1800   
                                           T        V       H0       H01     AOSYM     SMH    MOLCAS    ERIS     OPER     GRID   

              2       6        5.25       700     1000      520     2200     1800     2201   
                                         GEOM     BASIS   MCVARS     UHF     GRID      UKS  

 PROGRAMS   *        TOTAL   UKS-SCF   UHF-SCF       INT
 CPU TIMES  *         2.55      0.07      1.95      0.37
 REAL TIME  *         5.09 SEC
 DISK USED  *        35.27 MB
 **********************************************************************************************************************************


 PROGRAM * Intrinsic Basis Bonding Analysis (IBBA)          Author: G. Knizia

 Molecular orbitals read from record     2201.2  Type=UKS/ALPHA (state 1.1)
 Fock matrix read from record            2201.2  Type=UKS/TOTAL (state 1.1)
 Orbital energies read from record       2201.2  Type=UKS/ALPHA (state 1.1)
 Density matrix read from record         2201.2  Type=UKS/CHARGE (state 1.1)

 Number of core orbitals:           1 (   1 )
 Number of closed-shell orbitals:   2 (   2 )
 Number of active  orbitals:        2 (   2 )

 Basis set MINAO-AUTO-PP generated.      Number of basis functions:   5 

 Polarized AO type:                A = (O Ot + (1-O)(1-Ot)) P12
 Orthogonalization method:         Symmetric (Loewdin)
 Localization functional:          L = sum[A,i] <i|n_A|i>^4 -> max

 Localization group 1:   3 orbitals, occupancy  2.000
 Iterative localization: IB/PM,    1 iter; Final gradient 0.00E+00

 Bond order analysis:       [THRPRINT= 0.020]

   CEN ATOM   CEN ATOM     WIBERG.BO      RENORM.BO


 Valency analysis:

   CEN ATOM   TOT.VALENCE
     1   O      -0.000000
 Localization group 2:   2 orbitals, occupancy  1.000
 Iterative localization: IB/PM,    1 iter; Final gradient 0.00E+00

 Bond order analysis:       [THRPRINT= 0.020]

   CEN ATOM   CEN ATOM     WIBERG.BO      RENORM.BO


 Valency analysis:

   CEN ATOM   TOT.VALENCE
     1   O       0.000000

 Total charge composition:

   CEN ATOM         s          p       ELECTRONS ->P.CHARGE
     1   O       4.00000    4.00000      8.00000   -0.00000

 Total charge composition, AO contributions:

   CEN ATOM SHL      SPHERICAL COMPONENTS
     1   O  1s       2.00000
     1   O  2s       2.00000
     1   O  2p       1.00000    1.00000    2.00000

 Active orbital charges:

   CEN ATOM         s          p       ELECTRONS ->SPIN.DEN
     1   O       0.00000    2.00000      2.00000    2.00000

 Active orbital charges, AO contributions:

   CEN ATOM SHL      SPHERICAL COMPONENTS
     1   O  1s       0.00000
     1   O  2s       0.00000
     1   O  2p       1.00000    1.00000    0.00000

 Summary of localized orbital composition:   [THRPRINT= 0.020]

   ORB  GRP  ORB.ENERGY      CENTERS/CHARGES
     1   1   -18.872356      O  1   2.000
     2   1    -0.797765      O  1   2.000
     3   1    -0.120566      O  1   2.000
     4   2    -0.158402      O  1   1.000
     5   2    -0.120566      O  1   1.000

 Localized orbitals saved to record      2201.2  (orbital set 4)


 **********************************************************************************************************************************
 DATASETS  * FILE   NREC   LENGTH (MB)   RECORD NAMES
              1      20       29.95       500      610      700      900      950      970     1000      129      960     1100   
                                          VAR    BASINP    GEOM    SYMINP    ZMAT    AOBASIS   BASIS     P2S    ABASIS      S 
                                         1400     1410     1200     1210     1080     1600     1650     1300     1700     1800   
                                           T        V       H0       H01     AOSYM     SMH    MOLCAS    ERIS     OPER     GRID   

              2       6        5.25       700     1000      520     2200     1800     2201   
                                         GEOM     BASIS   MCVARS     UHF     GRID      UKS  

 PROGRAMS   *        TOTAL      IBBA   UKS-SCF   UHF-SCF       INT
 CPU TIMES  *         2.56      0.01      0.07      1.95      0.37
 REAL TIME  *         5.12 SEC
 DISK USED  *        35.27 MB
 **********************************************************************************************************************************

 IBBA/STO-3G energy=      0.000000000000

         UKS-SCF         UHF-SCF
    -74.03446378    -73.80415023
 **********************************************************************************************************************************
 Molpro calculation terminated
