
 Primary working directories    : /local/molpro.kFEi3EOCAp
 Secondary working directories  : /local/molpro.kFEi3EOCAp
 Wavefunction directory         : /local/
 Main file repository           : /local/molpro.kFEi3EOCAp/

 id        : simonbennie

 Nodes     nprocs
 node35-005    1

 Using customized tuning parameters: mindgm=1; mindgv=20; mindgc=4; mindgr=1; noblas=0; minvec=7
 default implementation of scratch files=df  

 memory,500,m
 geomtyp=xyz
 nosym
 noorient
 geometry={
 O          0.00000        0.00000        0.00000
 H          0.00000        0.00000        0.96890
 }
 basis={default,sto-3g}
 {hf,direct;wf,9,1,1}
 
 basis={ default,6-31+G(d,p) }
 {ks,M06-2X,direct;wf,9,1,1}
 {ibba,bonds=1}

 Variables initialized (920), CPU time= 0.01 sec
 Commands  initialized (754), CPU time= 0.01 sec, 615 directives.
 Default parameters read. Elapsed time= 0.09 sec

 Checking input...
 Passed
1


                                         ***  PROGRAM SYSTEM MOLPRO  ***
                                       Copyright, TTI GmbH Stuttgart, 2015
                                    Version 2018.0 linked Jul  6 2018 18:07:13


 **********************************************************************************************************************************
 LABEL *                                                                                 
  64 bit serial version                                                                  DATE: 10-Oct-18          TIME: 22:57:25  
 **********************************************************************************************************************************

 SHA1:             b58f8fddb9d75525be9261ebe3faf0e4279c479b
 **********************************************************************************************************************************
 SETTING GEOMTYP        =    XYZ

 Variable memory set to  500000000 words,  buffer space 

 ZSYMEL=NOSYM

 SETTING BASIS          =    STO-3G


 Recomputing integrals since basis changed


 Using spherical harmonics

 Library entry O      S STO-3G               selected for orbital group  1
 Library entry O      P STO-3G               selected for orbital group  1
 Library entry H      S STO-3G               selected for orbital group  2


 PROGRAM * SEWARD (Integral evaluation for generally contracted gaussian basis sets)     Author: Roland Lindh, 1990

 Geometry written to block  1 of record 700


 Point group  C1  



 ATOMIC COORDINATES

 NR  ATOM    CHARGE       X              Y              Z

   1  O       8.00    0.000000000    0.000000000    0.000000000
   2  H       1.00    0.000000000    0.000000000    1.830955642

 Bond lengths in Bohr (Angstrom)

 1-2  1.830955642
     ( 0.968900000)

 NUCLEAR CHARGE:                    9
 NUMBER OF PRIMITIVE AOS:          18
 NUMBER OF SYMMETRY AOS:           18
 NUMBER OF CONTRACTIONS:            6   (   6A   )
 NUMBER OF CORE ORBITALS:           1   (   1A   )
 NUMBER OF VALENCE ORBITALS:        5   (   5A   )


 NUCLEAR REPULSION ENERGY    4.36930301

 EXTRA SYMMETRY OF AOS IN SYMMETRY 1:   1 1 2 3 1 1

 Eigenvalues of metric

         1 0.377E+00 0.840E+00 0.100E+01 0.100E+01 0.113E+01 0.165E+01


 Contracted 2-electron integrals neglected if value below      1.0D-11
 AO integral compression algorithm  1   Integral accuracy      1.0D-11

     0.262 MB (compressed) written to integral file (100.0%)


 NUMBER OF SORTED TWO-ELECTRON INTEGRALS:        231.     BUFFER LENGTH:  32768
 NUMBER OF SEGMENTS:   1  SEGMENT LENGTH:        231      RECORD LENGTH: 524288

 Memory used in sort:       0.56 MW

 SORT1 READ         319. AND WROTE          83. INTEGRALS IN      1 RECORDS. CPU TIME:     0.00 SEC, REAL TIME:     0.00 SEC
 SORT2 READ          83. AND WROTE         231. INTEGRALS IN      1 RECORDS. CPU TIME:     0.00 SEC, REAL TIME:     0.00 SEC

 FILE SIZES:   FILE 1:    30.2 MBYTE,  FILE 4:     4.2 MBYTE,   TOTAL:     34.4 MBYTE

 OPERATOR DM      FOR CENTER  0  COORDINATES:    0.000000    0.000000    0.000000


 **********************************************************************************************************************************
 DATASETS  * FILE   NREC   LENGTH (MB)   RECORD NAMES
              1      19       29.95       500      610      700      900      950      970     1000      129      960     1100   
                                          VAR    BASINP    GEOM    SYMINP    ZMAT    AOBASIS   BASIS     P2S    ABASIS      S 
                                         1400     1410     1200     1210     1080     1600     1650     1300     1700   
                                           T        V       H0       H01     AOSYM     SMH    MOLCAS    ERIS     OPER   

 PROGRAMS   *        TOTAL       INT
 CPU TIMES  *         0.42      0.28
 REAL TIME  *         0.69 SEC
 DISK USED  *        34.71 MB
 **********************************************************************************************************************************


 PROGRAM * RHF-SCF (OPEN SHELL)       Authors: W. Meyer, H.-J. Werner


 NUMBER OF ELECTRONS:       5+    4-    SPACE SYMMETRY=1    SPIN SYMMETRY: Doublet 
 CONVERGENCE THRESHOLDS:    1.00E-05 (Density)    1.00E-07 (Energy)
 INTEGRAL THRESHOLDS:       1.00E-11 (Initial)    1.00E-11 (Final)
 MAX. NUMBER OF ITERATIONS:       60
 INTERPOLATION TYPE:            DIIS
 INTERPOLATION STEPS:              2 (START)      1 (STEP)
 LEVEL SHIFTS:                 -0.60 (CLOSED) -0.30 (OPEN) 



 Orbital guess generated from atomic densities. Full valence occupancy:    5

 Molecular orbital dump at record        2100.2

 Initial alpha occupancy:   5
 Initial beta  occupancy:   4
 Wave function symmetry:    1

 Direct Fock-matrix evaluation.        Author: H.-J. Werner (1996)

 Integral Threshold:                  0.1D-10

 ITERATION   DDIFF            GRAD            ENERGY        2-EL.EN.            DIPOLE MOMENTS         DIIS   CPU(IT)  CPU(TOT)
    1      0.000D+00      0.000D+00       -74.32808313     68.262883    0.00000   -0.00000    0.97043    0      1.0      1.8     start
    2      0.000D+00      0.445D-01       -74.35542789     67.373619    0.00000    0.00000    0.70920    1      0.5      2.3     diag,B
    3      0.579D-01      0.185D-01       -74.36135283     66.788908    0.00000    0.00000    0.51913    2      0.5      2.8     diag,B
    4      0.418D-01      0.245D-02       -74.36143877     66.773443    0.00000    0.00000    0.50671    3      0.5      3.3     diag,B
    5      0.440D-02      0.702D-03       -74.36144624     66.770035    0.00000    0.00000    0.50245    4      0.5      3.8     diag,B
    6      0.170D-02      0.176D-04       -74.36144625     66.770610    0.00000    0.00000    0.50265    5      0.5      4.2     diag,B
    7      0.438D-04      0.161D-06       -74.36144625     66.770606    0.00000    0.00000    0.50264    6      0.5      4.7     fixocc
    8      0.442D-06      0.181D-09       -74.36144625     66.770606    0.00000   -0.00000    0.50264    0      0.5      5.2     orth

 Final alpha occupancy:   5
 Final beta  occupancy:   4

 !RHF STATE  1.1 Energy               -74.361446246477
 Nuclear energy                         4.36930301
 One-electron energy                 -112.11605228
 Two-electron energy                   33.38530302
 Virial quotient                       -1.00477798
 !RHF STATE  1.1 Dipole moment          0.00000000    -0.00000000     0.50264389
 Dipole moment /Debye                   0.00000000    -0.00000000     1.27750966

 Orbital energies:

         1.1          2.1          3.1          4.1          5.1          6.1
    -20.271235    -1.209212    -0.527448    -0.403682    -0.522293     0.622593


 HOMO      5.1    -0.522293 =     -14.2123eV
 LUMO      6.1     0.622593 =      16.9416eV
 LUMO-HOMO         1.144887 =      31.1540eV


 **********************************************************************************************************************************
 DATASETS  * FILE   NREC   LENGTH (MB)   RECORD NAMES
              1      19       29.95       500      610      700      900      950      970     1000      129      960     1100   
                                          VAR    BASINP    GEOM    SYMINP    ZMAT    AOBASIS   BASIS     P2S    ABASIS      S 
                                         1400     1410     1200     1210     1080     1600     1650     1300     1700   
                                           T        V       H0       H01     AOSYM     SMH    MOLCAS    ERIS     OPER   

              2       4        2.76       700     1000      520     2100   
                                         GEOM     BASIS   MCVARS     RHF  

 PROGRAMS   *        TOTAL    HF-SCF       INT
 CPU TIMES  *         5.66      5.24      0.28
 REAL TIME  *         6.86 SEC
 DISK USED  *        34.71 MB
 **********************************************************************************************************************************
 SETTING BASIS          =    6-31+G(D,P)


 Recomputing integrals since basis changed


 Using spherical harmonics

 Library entry O      S 6-31G                selected for orbital group  1
 Library entry O      S 6-31++G              selected for orbital group  1
 Library entry O      P 6-31G                selected for orbital group  1
 Library entry O      P 6-31++G              selected for orbital group  1
 Library entry O      D 6-31G*               selected for orbital group  1
 Library entry H      S 6-31G                selected for orbital group  2
 Library entry H      P 6-31G**              selected for orbital group  2


 PROGRAM * SEWARD (Integral evaluation for generally contracted gaussian basis sets)     Author: Roland Lindh, 1990

 Geometry written to block  1 of record 700


 Point group  C1  



 ATOMIC COORDINATES

 NR  ATOM    CHARGE       X              Y              Z

   1  O       8.00    0.000000000    0.000000000    0.000000000
   2  H       1.00    0.000000000    0.000000000    1.830955642

 Bond lengths in Bohr (Angstrom)

 1-2  1.830955642
     ( 0.968900000)

 NUCLEAR CHARGE:                    9
 NUMBER OF PRIMITIVE AOS:          39
 NUMBER OF SYMMETRY AOS:           38
 NUMBER OF CONTRACTIONS:           23   (  23A   )
 NUMBER OF CORE ORBITALS:           1   (   1A   )
 NUMBER OF VALENCE ORBITALS:        5   (   5A   )


 NUCLEAR REPULSION ENERGY    4.36930301

 EXTRA SYMMETRY OF AOS IN SYMMETRY 1:   1 1 1 1 2 3 1 2 3 1   2 3 1 1 4 2 5 3 1 1   2 3 1

 Eigenvalues of metric

         1 0.334E-01 0.608E-01 0.133E+00 0.229E+00 0.229E+00 0.283E+00 0.510E+00 0.576E+00


 Contracted 2-electron integrals neglected if value below      1.0D-11
 AO integral compression algorithm  1   Integral accuracy      1.0D-11

     0.262 MB (compressed) written to integral file ( 46.1%)


 NUMBER OF SORTED TWO-ELECTRON INTEGRALS:      38226.     BUFFER LENGTH:  32768
 NUMBER OF SEGMENTS:   1  SEGMENT LENGTH:      38226      RECORD LENGTH: 524288

 Memory used in sort:       0.60 MW

 SORT1 READ       52420. AND WROTE        8381. INTEGRALS IN      1 RECORDS. CPU TIME:     0.00 SEC, REAL TIME:     0.01 SEC
 SORT2 READ        8381. AND WROTE       38226. INTEGRALS IN      1 RECORDS. CPU TIME:     0.01 SEC, REAL TIME:     0.01 SEC

 FILE SIZES:   FILE 1:    30.2 MBYTE,  FILE 4:     4.2 MBYTE,   TOTAL:     34.5 MBYTE

 OPERATOR DM      FOR CENTER  0  COORDINATES:    0.000000    0.000000    0.000000


 **********************************************************************************************************************************
 DATASETS  * FILE   NREC   LENGTH (MB)   RECORD NAMES
              1      19       30.05       500      610      700      900      950      970     1001      129      960     1100   
                                          VAR    BASINP    GEOM    SYMINP    ZMAT    AOBASIS   BASIS     P2S    ABASIS      S 
                                         1400     1410     1200     1210     1080     1600     1650     1300     1700   
                                           T        V       H0       H01     AOSYM     SMH    MOLCAS    ERIS     OPER   

              2       5        2.77       700     1000      520     2100     1001   
                                         GEOM     BASIS   MCVARS     RHF     BASIS   

 PROGRAMS   *        TOTAL       INT    HF-SCF       INT
 CPU TIMES  *         5.86      0.20      5.24      0.28
 REAL TIME  *         7.10 SEC
 DISK USED  *        37.28 MB
 **********************************************************************************************************************************

 Density functional group M06-2X=XC-M06-2X
 Functional: XC-M06-2X(via MFM 1.6)                                            Gradient terms: 1
 Use libxcgrid:  F
 Use grid at  1800.2


 Exact exchange will be calculated, factor:  0.5400

 Functional: XC-M06-2X                 Factor:  1.0000

 Generated new metagrid on record  1800.2 with target accuracy 1.0D-06 and 8274 points in CPU time    0.1
 Computed new grid on record 1800.1 in CPU time    0.1
   22067 words reserved for DFT integration

 PROGRAM * RKS-SCF (Restricted open shell Kohn-Sham)     Authors: W. Meyer, H.-J. Werner, P.J. Knowles, 1993

 NUMBER OF ELECTRONS:       5+    4-    SPACE SYMMETRY=1    SPIN SYMMETRY: Doublet 
 CONVERGENCE THRESHOLDS:    1.00E-05 (Density)    1.00E-06 (Energy)
 MAX. NUMBER OF ITERATIONS:       60
 INTERPOLATION TYPE:            DIIS
 INTERPOLATION STEPS:              2 (START)      1 (STEP)
 LEVEL SHIFTS:                 -0.60 (CLOSED) -0.30 (OPEN) 



 Use fine grid record 1800.2 for energy threshold  1.0D-06
 Molecular orbitals read from record     2100.2  Type=RHF/CANONICAL (state 1.1)

 Present basis size:      23
 Previous basis size:      6
 Previous occupation:      5
 Previous closed-shells:   4
 Previous core-orbitals:   1
 Present occupation:       5
 Present closed-shells:    4
 Present core-orbitals:    1
 Wavefunction symmetry:    1   Doublet 

 Orbital overlap <old|new>:  < 1.1| 1.1> = 0.999844   < 2.1| 2.1> = 0.999497   < 3.1| 3.1> = 0.998139   < 4.1| 4.1> = 0.995792
                             < 5.1| 5.1> = 0.995792


 Molecular orbital dump at record        2101.2

 ITERATION    DDIFF          GRAD             ENERGY        2-EL.EN.            DIPOLE MOMENTS         DIIS   ORB.
    1      0.000D+00      0.000D+00       -75.55540049     76.511673   -0.00000    0.00000    0.49492    0    start
    2      0.000D+00      0.398D-01       -75.67413369     73.203840    0.00000    0.00000    0.41964    1    diag,B
    3      0.251D-01      0.117D-01       -75.69211289     73.802161    0.00000   -0.00000    0.57866    2    diag,B
    4      0.115D-01      0.496D-02       -75.69856390     73.434920    0.00000   -0.00000    0.66495    3    diag,B
    5      0.679D-02      0.209D-02       -75.69990299     73.443053    0.00000   -0.00000    0.72549    4    diag,B
    6      0.423D-02      0.591D-03       -75.70003176     73.433122    0.00000   -0.00000    0.74147    5    diag,B
    7      0.134D-02      0.155D-03       -75.70004966     73.431038    0.00000   -0.00000    0.74223    6    diag,B
    8      0.310D-03      0.844D-04       -75.70006090     73.432529    0.00000   -0.00000    0.74233    7    orth
    9      0.157D-03      0.780D-04       -75.70007802     73.432437    0.00000   -0.00000    0.74214    8    diag,B
   10      0.221D-03      0.741D-04       -75.70018022     73.433643   -0.00000   -0.00000    0.74182    9    diag,B
   11      0.190D-02      0.375D-04       -75.70019147     73.433573   -0.00000   -0.00000    0.74196    9    diag,B
   12      0.589D-03      0.187D-04       -75.70019307     73.433634   -0.00000    0.00000    0.74210    9    diag,B
   13      0.304D-03      0.419D-05       -75.70019308     73.433668   -0.00000    0.00000    0.74213    9    diag,B
   14      0.219D-04      0.163D-05       -75.70019308     73.433704   -0.00000    0.00000    0.74216    9    diag,B
   15      0.209D-04      0.739D-06       -75.70019308     73.433699   -0.00000    0.00000    0.74216    9    diag,B
   16      0.766D-05      0.148D-06       -75.70019308     73.433697   -0.00000    0.00000    0.74216    0    orth

 Final alpha occupancy:   5
 Final beta  occupancy:   4

 !RKS STATE  1.1 Energy               -75.700193079284
 Nuclear energy                         4.36930301
 One-electron energy                 -112.54941215
 Two-electron energy                   36.71684858
 Density functional                    -4.23693252     XC-M06-2X=-4.23693252
 Virial quotient                       -1.00610759
 !RKS STATE  1.1 Dipole moment         -0.00000000     0.00000000     0.74215531
 Dipole moment /Debye                  -0.00000000     0.00000000     1.88624710

 Orbital energies:

         1.1          2.1          3.1          4.1          5.1          6.1          7.1
    -19.708747    -1.106961    -0.550056    -0.420833    -0.500098     0.087258     0.173376


 HOMO      5.1    -0.500098 =     -13.6084eV
 LUMO      6.1     0.087258 =       2.3744eV
 LUMO-HOMO         0.587356 =      15.9828eV


 **********************************************************************************************************************************
 DATASETS  * FILE   NREC   LENGTH (MB)   RECORD NAMES
              1      20       30.31       500      610      700      900      950      970     1001      129      960     1100   
                                          VAR    BASINP    GEOM    SYMINP    ZMAT    AOBASIS   BASIS     P2S    ABASIS      S 
                                         1400     1410     1200     1210     1080     1600     1650     1300     1700     1800   
                                           T        V       H0       H01     AOSYM     SMH    MOLCAS    ERIS     OPER     GRID   

              2       7        5.28       700     1000      520     2100     1001     1800     2101   
                                         GEOM     BASIS   MCVARS     RHF     BASIS    GRID      RKS  

 PROGRAMS   *        TOTAL    KS-SCF       INT    HF-SCF       INT
 CPU TIMES  *         7.09      1.23      0.20      5.24      0.28
 REAL TIME  *         8.39 SEC
 DISK USED  *        37.28 MB
 **********************************************************************************************************************************


 PROGRAM * Intrinsic Basis Bonding Analysis (IBBA)          Author: G. Knizia

 Molecular orbitals read from record     2101.2  Type=RKS/CANONICAL (state 1.1)
 Fock matrix read from record            2101.2  Type=RKS/TOTAL (state 1.1)
 Orbital energies read from record       2101.2  Type=RKS/CANONICAL (state 1.1)
 Density matrix read from record         2101.2  Type=RKS/CHARGE (state 1.1)

 Number of core orbitals:           1 (   1 )
 Number of closed-shell orbitals:   3 (   3 )
 Number of active  orbitals:        1 (   1 )

 Basis set MINAO-AUTO-PP generated.      Number of basis functions:   6 

 Polarized AO type:                A = (O Ot + (1-O)(1-Ot)) P12
 Orthogonalization method:         Symmetric (Loewdin)
 Localization functional:          L = sum[A,i] <i|n_A|i>^4 -> max

 Localization group 1:   4 orbitals, occupancy  2.000
 Iterative localization: IB/PM,    3 iter; Final gradient 0.15E-13

 Bond order analysis:       [THRPRINT= 0.020]

   CEN ATOM   CEN ATOM     WIBERG.BO      RENORM.BO
     1   O  -   2   H       0.855468       1.000000

     2   H  -   1   O       0.855468       1.000000


 Valency analysis:

   CEN ATOM   TOT.VALENCE
     1   O       0.855468
     2   H       0.855468
 Localization group 2:   1 orbitals, occupancy  1.000
 Iterative localization: IB/PM,    1 iter; Final gradient 0.00E+00

 Bond order analysis:       [THRPRINT= 0.020]

   CEN ATOM   CEN ATOM     WIBERG.BO      RENORM.BO



 Valency analysis:

   CEN ATOM   TOT.VALENCE
     1   O      -0.000000
     2   H       0.000000

 Total charge composition:

   CEN ATOM         s          p       ELECTRONS ->P.CHARGE
     1   O       3.81501    4.56516      8.38017   -0.38017
     2   H       0.61983                 0.61983    0.38017

 Total charge composition, AO contributions:

   CEN ATOM SHL      SPHERICAL COMPONENTS
     1   O  1s       1.99813
     1   O  2s       1.81689
     1   O  2p       1.00000    2.00000    1.56516

     2   H  1s       0.61983

 Active orbital charges:

   CEN ATOM         s          p       ELECTRONS ->SPIN.DEN
     1   O       0.00000    1.00000      1.00000    1.00000
     2   H       0.00000                 0.00000    0.00000

 Active orbital charges, AO contributions:

   CEN ATOM SHL      SPHERICAL COMPONENTS
     1   O  1s       0.00000
     1   O  2s       0.00000
     1   O  2p       1.00000    0.00000    0.00000

     2   H  1s       0.00000

 Summary of localized orbital composition:   [THRPRINT= 0.020]

   ORB  GRP  ORB.ENERGY      CENTERS/CHARGES
     1   1   -19.588854      O  1   2.000
     2   1    -0.937194      O  1   1.380   H  2   0.620
     3   1    -0.839716      O  1   2.000
     4   1    -0.420833      O  1   2.000
     5   2    -0.291408      O  1   1.000

 Localized orbitals saved to record      2101.2  (orbital set 2)


 **********************************************************************************************************************************
 DATASETS  * FILE   NREC   LENGTH (MB)   RECORD NAMES
              1      20       30.31       500      610      700      900      950      970     1001      129      960     1100   
                                          VAR    BASINP    GEOM    SYMINP    ZMAT    AOBASIS   BASIS     P2S    ABASIS      S 
                                         1400     1410     1200     1210     1080     1600     1650     1300     1700     1800   
                                           T        V       H0       H01     AOSYM     SMH    MOLCAS    ERIS     OPER     GRID   

              2       7        5.29       700     1000      520     2100     1001     1800     2101   
                                         GEOM     BASIS   MCVARS     RHF     BASIS    GRID      RKS  

 PROGRAMS   *        TOTAL      IBBA    KS-SCF       INT    HF-SCF       INT
 CPU TIMES  *         7.11      0.02      1.23      0.20      5.24      0.28
 REAL TIME  *         8.41 SEC
 DISK USED  *        37.28 MB
 **********************************************************************************************************************************

 IBBA/6-31+G(D,P) energy=      0.000000000000

          KS-SCF          HF-SCF
    -75.70019308    -74.36144625
 **********************************************************************************************************************************
 Molpro calculation terminated
