
 Primary working directories    : /local
 Secondary working directories  : /local
 Wavefunction directory         : /local/
 Main file repository           : /local/

 SHA1      : b4a5b34a9e711420743f49e6833241d17c61fb3c
 NAME      : 2099.9.b4a5b34
 ARCHNAME  : linux/x86_64_openmp
 FC        : /cm/shared/languages/GCC-6.1/bin/gfortran
 BLASLIB   : -lblas
 id        : simonbennie

 Nodes     nprocs
 node32-002    1

 Using customized tuning parameters: mindgm=1; mindgv=20; mindgc=4; mindgr=1; noblas=0; minvec=7
 default implementation of scratch files=df  

 memory,500,m
 geomtyp=xyz
 nosym
 noorient
 geometry={
 O          0.00000        0.00000        0.00000
 H          0.00000        0.00000        0.96890
 }
 basis={ default,avtz }
 {ks,M06,direct;wf,9,1,1}
 {ibba,bonds=1}

 Variables initialized (895), CPU time= 0.00 sec
 Commands  initialized (725), CPU time= 0.01 sec, 591 directives.
 Default parameters read. Elapsed time= 0.07 sec

 Checking input...
 Passed
1


                                         ***  PROGRAM SYSTEM MOLPRO  ***
                                       Copyright, TTI GmbH Stuttgart, 2015
                                    Version 2099.9 linked May 26 2017 16:03:21


 **********************************************************************************************************************************
 LABEL *                                                                                 
  64 bit serial version                                                                  DATE: 21-Jun-17          TIME: 00:27:48  
 **********************************************************************************************************************************

 SHA1:             b4a5b34a9e711420743f49e6833241d17c61fb3c
 **********************************************************************************************************************************
 SETTING GEOMTYP        =    XYZ

 Variable memory set to  500000000 words,  buffer space 

 ZSYMEL=NOSYM

 SETTING BASIS          =    AVTZ


 Recomputing integrals since basis changed


 Using spherical harmonics

 Library entry O      S aug-cc-pVTZ          selected for orbital group  1
 Library entry O      P aug-cc-pVTZ          selected for orbital group  1
 Library entry O      D aug-cc-pVTZ          selected for orbital group  1
 Library entry O      F aug-cc-pVTZ          selected for orbital group  1
 Library entry H      S aug-cc-pVTZ          selected for orbital group  2
 Library entry H      P aug-cc-pVTZ          selected for orbital group  2
 Library entry H      D aug-cc-pVTZ          selected for orbital group  2


 PROGRAM * SEWARD (Integral evaluation for generally contracted gaussian basis sets)     Author: Roland Lindh, 1990

 Geometry written to block  1 of record 700


 Point group  C1  



 ATOMIC COORDINATES

 NR  ATOM    CHARGE       X              Y              Z

   1  O       8.00    0.000000000    0.000000000    0.000000000
   2  H       1.00    0.000000000    0.000000000    1.830955642

 Bond lengths in Bohr (Angstrom)

 1-2  1.830955642
     ( 0.968900000)

 NUCLEAR CHARGE:                    9
 NUMBER OF PRIMITIVE AOS:          94
 NUMBER OF SYMMETRY AOS:           83
 NUMBER OF CONTRACTIONS:           69   (  69A   )
 NUMBER OF CORE ORBITALS:           1   (   1A   )
 NUMBER OF VALENCE ORBITALS:        5   (   5A   )


 NUCLEAR REPULSION ENERGY    4.36930301

 EXTRA SYMMETRY OF AOS IN SYMMETRY 1:   1 1 1 1 1 2 3 1 2 3   1 2 3 1 2 3 1 1 4 2   5 3 1 4 2 5 3 1 4 2   5 3 2 3 1 6 4 7 5 2
                                        3 1 6 4 7 5 1 1 1 1   2 3 1 2 3 1 2 3 1 1   4 2 5 3 1 4 2 5 3

 Eigenvalues of metric

         1 0.490E-03 0.243E-02 0.428E-02 0.748E-02 0.860E-02 0.860E-02 0.154E-01 0.419E-01


 Contracted 2-electron integrals neglected if value below      1.0D-11
 AO integral compression algorithm  1   Integral accuracy      1.0D-11

     4.981 MB (compressed) written to integral file ( 16.4%)


 NUMBER OF SORTED TWO-ELECTRON INTEGRALS:    2917320.     BUFFER LENGTH:  32768
 NUMBER OF SEGMENTS:   1  SEGMENT LENGTH:    2917320      RECORD LENGTH: 524288

 Memory used in sort:       3.47 MW

 SORT1 READ     3936244. AND WROTE      564134. INTEGRALS IN      2 RECORDS. CPU TIME:     0.02 SEC, REAL TIME:     0.03 SEC
 SORT2 READ      564134. AND WROTE     2917320. INTEGRALS IN     19 RECORDS. CPU TIME:     0.10 SEC, REAL TIME:     0.12 SEC

 FILE SIZES:   FILE 1:    35.1 MBYTE,  FILE 4:     8.4 MBYTE,   TOTAL:     43.5 MBYTE

 OPERATOR DM      FOR CENTER  0  COORDINATES:    0.000000    0.000000    0.000000


 **********************************************************************************************************************************
 DATASETS  * FILE   NREC   LENGTH (MB)   RECORD NAMES
              1      19       33.41       500      610      700      900      950      970     1000      129      960     1100   
                                          VAR    BASINP    GEOM    SYMINP    ZMAT    AOBASIS   BASIS     P2S    ABASIS      S 
                                         1400     1410     1200     1210     1080     1600     1650     1300     1700   
                                           T        V       H0       H01     AOSYM     SMH    MOLCAS    ERIS     OPER   

 PROGRAMS   *        TOTAL       INT
 CPU TIMES  *         0.57      0.42
 REAL TIME  *         0.95 SEC
 DISK USED  *        43.84 MB      
 **********************************************************************************************************************************

 Density functional group M06=XC-M06
 Functional: XC-M06(via MFM 1.6)                                               Gradient terms: 1
 Use grid at  1800.2


 Exact exchange will be calculated, factor:  0.2700

 Functional: XC-M06                    Factor:  1.0000

 Generated new metagrid on record  1800.2 with target accuracy 1.0D-06 and 8574 points in CPU time    0.1
 Computed new grid on record 1800.1 in CPU time    0.1
   58734 words reserved for DFT integration

 PROGRAM * RKS-SCF (Restricted open shell Kohn-Sham)     Authors: W. Meyer, H.-J. Werner, P.J. Knowles, 1993

 NUMBER OF ELECTRONS:       5+    4-    SPACE SYMMETRY=1    SPIN SYMMETRY: Doublet 
 CONVERGENCE THRESHOLDS:    1.00E-05 (Density)    1.00E-06 (Energy)
 MAX. NUMBER OF ITERATIONS:       60
 INTERPOLATION TYPE:            DIIS
 INTERPOLATION STEPS:              2 (START)      1 (STEP)
 LEVEL SHIFTS:                 -0.60 (CLOSED) -0.30 (OPEN) 



 Use fine grid record 1800.2 for energy threshold  1.0D-06
 Orbital guess generated from atomic densities. Full valence occupancy:    6

 Molecular orbital dump at record        2100.2

 Initial alpha occupancy:   5
 Initial beta  occupancy:   4
 Wave function symmetry:    1

 ITERATION    DDIFF          GRAD             ENERGY        2-EL.EN.            DIPOLE MOMENTS         DIIS   ORB.
    1      0.000D+00      0.000D+00       -75.70752582     79.737181    0.00000   -0.00000    0.88576    0    start
    2      0.000D+00      0.712D-02       -75.72021782     77.772377    0.00000   -0.00000    0.65404    1    diag,B
    3      0.992D-02      0.327D-02       -75.72225157     78.369435    0.00000   -0.00000    0.67372    2    diag,B
    4      0.313D-02      0.457D-03       -75.72241065     78.314422   -0.00000   -0.00000    0.65927    3    diag,B
    5      0.861D-03      0.186D-03       -75.72245156     78.304855    0.00000   -0.00000    0.65266    4    diag,B
    6      0.507D-03      0.597D-04       -75.72245769     78.298396    0.00000   -0.00000    0.65076    5    diag,B
    7      0.165D-03      0.211D-04       -75.72245979     78.297983    0.00000   -0.00000    0.65068    6    fixocc
    8      0.384D-04      0.179D-04       -75.72246177     78.297853    0.00000   -0.00000    0.65070    7    diag,B
    9      0.319D-04      0.182D-04       -75.72245738     78.297836    0.00000   -0.00000    0.65068    8    diag,B
   10      0.706D-04      0.167D-04       -75.72243982     78.297557   -0.00000   -0.00000    0.65063    9    orth
   11      0.474D-03      0.750D-05       -75.72243904     78.297511   -0.00000   -0.00000    0.65066    9    diag,B
   12      0.774D-04      0.376D-05       -75.72243884     78.297602   -0.00000    0.00000    0.65069    9    diag,B
   13      0.646D-04      0.467D-06       -75.72243884     78.297583   -0.00000    0.00000    0.65068    9    diag,B
   14      0.255D-05      0.170D-06       -75.72243884     78.297593    0.00000   -0.00000    0.65069    0    orth

 Final alpha occupancy:   5
 Final beta  occupancy:   4

 !RKS STATE 1.1 Energy                -75.722438841838
 Nuclear energy                         4.36930301
 One-electron energy                 -112.69997987
 Two-electron energy                   39.14879636
 Density functional                    -6.54055835     XC-M06=-6.54055835
 Virial quotient                       -1.00559286
 !RKS STATE 1.1 Dipole moment           0.00000000    -0.00000000     0.65068578
 Dipole moment /Debye                   0.00000000    -0.00000000     1.65376998

 Orbital energies:

         1.1          2.1          3.1          4.1          5.1          6.1          7.1
    -19.283528    -1.009303    -0.487600    -0.354611    -0.426818    -0.047141     0.040911

 HOMO      5.1    -0.426818 =     -11.6143eV
 LUMO      6.1    -0.047141 =      -1.2828eV
 LUMO-HOMO         0.379677 =      10.3315eV


 **********************************************************************************************************************************
 DATASETS  * FILE   NREC   LENGTH (MB)   RECORD NAMES
              1      20       33.69       500      610      700      900      950      970     1000      129      960     1100   
                                          VAR    BASINP    GEOM    SYMINP    ZMAT    AOBASIS   BASIS     P2S    ABASIS      S 
                                         1400     1410     1200     1210     1080     1600     1650     1300     1700     1800   
                                           T        V       H0       H01     AOSYM     SMH    MOLCAS    ERIS     OPER     GRID   

              2       5        2.90       700     1000      520     1800     2100   
                                         GEOM     BASIS   MCVARS    GRID      RKS  

 PROGRAMS   *        TOTAL        KS       INT
 CPU TIMES  *         7.44      6.88      0.42
 REAL TIME  *         8.14 SEC
 DISK USED  *        43.84 MB      
 **********************************************************************************************************************************


 PROGRAM * Intrinsic Basis Bonding Analysis (IBBA)          Author: G. Knizia

 Molecular orbitals read from record     2100.2  Type=RKS/CANONICAL (state 1.1)
 Fock matrix read from record            2100.2  Type=RKS/TOTAL (state 1.1)
 Orbital energies read from record       2100.2  Type=RKS/CANONICAL (state 1.1)
 Density matrix read from record         2100.2  Type=RKS/CHARGE (state 1.1)

 Number of core orbitals:           1 (   1 )
 Number of closed-shell orbitals:   3 (   3 )
 Number of active  orbitals:        1 (   1 )

 Basis set MINAO-AUTO-PP generated.      Number of basis functions:   6 

 Polarized AO type:                A = (O Ot + (1-O)(1-Ot)) P12
 Orthogonalization method:         Symmetric (Loewdin)
 Localization functional:          L = sum[A,i] <i|n_A|i>^4 -> max

 Localization group 1:   4 orbitals, occupancy  2.000
 Iterative localization: IB/PM,    3 iter; Final gradient 0.30E-13

 Bond order analysis:       [THRPRINT= 0.020]

   CEN ATOM   CEN ATOM     WIBERG.BO      RENORM.BO
     1   O  -   2   H       0.851209       1.000000

     2   H  -   1   O       0.851209       1.000000


 Valency analysis:

   CEN ATOM   TOT.VALENCE
     1   O       0.851209
     2   H       0.851209
 Localization group 2:   1 orbitals, occupancy  1.000
 Iterative localization: IB/PM,    1 iter; Final gradient 0.00E+00

 Bond order analysis:       [THRPRINT= 0.020]

   CEN ATOM   CEN ATOM     WIBERG.BO      RENORM.BO



 Valency analysis:

   CEN ATOM   TOT.VALENCE
     1   O       0.000000
     2   H       0.000000

 Total charge composition:

   CEN ATOM         s          p       ELECTRONS ->P.CHARGE
     1   O       3.81760    4.56813      8.38573   -0.38573
     2   H       0.61427                 0.61427    0.38573

 Total charge composition, AO contributions:

   CEN ATOM SHL      SPHERICAL COMPONENTS
     1   O  1s       1.99823
     1   O  2s       1.81937
     1   O  2p       1.00000    2.00000    1.56813

     2   H  1s       0.61427

 Active orbital charges:

   CEN ATOM         s          p       ELECTRONS ->SPIN.DEN
     1   O       0.00000    1.00000      1.00000    1.00000
     2   H       0.00000                 0.00000    0.00000

 Active orbital charges, AO contributions:

   CEN ATOM SHL      SPHERICAL COMPONENTS
     1   O  1s       0.00000
     1   O  2s       0.00000
     1   O  2p       1.00000    0.00000    0.00000

     2   H  1s       0.00000

 Summary of localized orbital composition:   [THRPRINT= 0.020]

   ORB  GRP  ORB.ENERGY      CENTERS/CHARGES
     1   1   -19.167785      O  1   2.000
     2   1    -0.856495      O  1   1.386   H  2   0.614
     3   1    -0.756150      O  1   2.000
     4   1    -0.354610      O  1   2.000
     5   2    -0.288979      O  1   1.000

 Localized orbitals saved to record      2100.2  (orbital set 2)


 **********************************************************************************************************************************
 DATASETS  * FILE   NREC   LENGTH (MB)   RECORD NAMES
              1      20       33.69       500      610      700      900      950      970     1000      129      960     1100   
                                          VAR    BASINP    GEOM    SYMINP    ZMAT    AOBASIS   BASIS     P2S    ABASIS      S 
                                         1400     1410     1200     1210     1080     1600     1650     1300     1700     1800   
                                           T        V       H0       H01     AOSYM     SMH    MOLCAS    ERIS     OPER     GRID   

              2       5        2.94       700     1000      520     1800     2100   
                                         GEOM     BASIS   MCVARS    GRID      RKS  

 PROGRAMS   *        TOTAL      IBBA        KS       INT
 CPU TIMES  *         7.46      0.02      6.88      0.42
 REAL TIME  *         8.18 SEC
 DISK USED  *        43.84 MB      
 **********************************************************************************************************************************
 Molecular orbitals read from record     2100.2  Type=RKS/LOCAL(IBO)  
 Occupation numbers read from record     2100.2  Type=RKS/LOCAL(IBO)  
 Orbital energies read from record       2100.2  Type=RKS/LOCAL(IBO)  
 Redundancy group numbers read from rec  2100.2  Type=RKS/LOCAL(IBO)  

 IBBA/aug-cc-pVTZ energy=      0.000000000000

        KS-SCF  
    -75.72243884
 **********************************************************************************************************************************
 Molpro calculation terminated
