
 Primary working directories    : /local
 Secondary working directories  : /local
 Wavefunction directory         : /local/
 Main file repository           : /local/

 SHA1      : b4a5b34a9e711420743f49e6833241d17c61fb3c
 NAME      : 2099.9.b4a5b34
 ARCHNAME  : linux/x86_64_openmp
 FC        : /cm/shared/languages/GCC-6.1/bin/gfortran
 BLASLIB   : -lblas
 id        : simonbennie

 Nodes     nprocs
 node35-001    1

 Using customized tuning parameters: mindgm=1; mindgv=20; mindgc=4; mindgr=1; noblas=0; minvec=7
 default implementation of scratch files=df  

 memory,500,m
 geomtyp=xyz
 nosym
 noorient
 geometry={
 P          0.00000        0.00000       -0.11566
 H          1.02013        0.00000        0.86743
 H         -1.02013        0.00000        0.86743
 }
 basis={ default,SV(P) }
 {uks,MM06,direct;wf,17,1,1}
 {ibba,bonds=1}

 Variables initialized (895), CPU time= 0.00 sec
 Commands  initialized (725), CPU time= 0.01 sec, 591 directives.
 Default parameters read. Elapsed time= 0.18 sec

 Checking input...
 Passed
1


                                         ***  PROGRAM SYSTEM MOLPRO  ***
                                       Copyright, TTI GmbH Stuttgart, 2015
                                    Version 2099.9 linked May 26 2017 16:03:21


 **********************************************************************************************************************************
 LABEL *                                                                                 
  64 bit serial version                                                                  DATE: 30-Jun-17          TIME: 06:11:40  
 **********************************************************************************************************************************

 SHA1:             b4a5b34a9e711420743f49e6833241d17c61fb3c
 **********************************************************************************************************************************
 SETTING GEOMTYP        =    XYZ

 Variable memory set to  500000000 words,  buffer space 

 ZSYMEL=NOSYM

 SETTING BASIS          =    SV(P)


 Recomputing integrals since basis changed


 Using spherical harmonics

 Library entry P      S def2-SV(P)           selected for orbital group  1
 Library entry P      P def2-SV(P)           selected for orbital group  1
 Library entry P      D def2-SV(P)           selected for orbital group  1
 Library entry H      S def2-SV(P)           selected for orbital group  2


 PROGRAM * SEWARD (Integral evaluation for generally contracted gaussian basis sets)     Author: Roland Lindh, 1990

 Geometry written to block  1 of record 700


 Point group  C1  



 ATOMIC COORDINATES

 NR  ATOM    CHARGE       X              Y              Z

   1  P      15.00    0.000000000    0.000000000   -0.218565724
   2  H       1.00    1.927766311    0.000000000    1.639205132
   3  H       1.00   -1.927766311    0.000000000    1.639205132

 Bond lengths in Bohr (Angstrom)

 1-2  2.677236542  1-3  2.677236542
     ( 1.416732567)     ( 1.416732567)

 Bond angles

  2-1-3   92.11858295

 NUCLEAR CHARGE:                   17
 NUMBER OF PRIMITIVE AOS:          45
 NUMBER OF SYMMETRY AOS:           44
 NUMBER OF CONTRACTIONS:           22   (  22A   )
 NUMBER OF CORE ORBITALS:           5   (   5A   )
 NUMBER OF VALENCE ORBITALS:        6   (   6A   )


 NUCLEAR REPULSION ENERGY   11.46495192

 EXTRA SYMMETRY OF AOS IN SYMMETRY 1:   1 1 1 1 1 2 1 1 2 1   1 2 1 1 3 1 1 2 1 1   1 1

 Eigenvalues of metric

         1 0.308E-01 0.103E+00 0.198E+00 0.276E+00 0.308E+00 0.320E+00 0.417E+00 0.476E+00


 Contracted 2-electron integrals neglected if value below      1.0D-11
 AO integral compression algorithm  1   Integral accuracy      1.0D-11

     0.262 MB (compressed) written to integral file ( 64.7%)


 NUMBER OF SORTED TWO-ELECTRON INTEGRALS:      32131.     BUFFER LENGTH:  32768
 NUMBER OF SEGMENTS:   1  SEGMENT LENGTH:      32131      RECORD LENGTH: 524288

 Memory used in sort:       0.59 MW

 SORT1 READ       43152. AND WROTE       11988. INTEGRALS IN      1 RECORDS. CPU TIME:     0.00 SEC, REAL TIME:     0.00 SEC
 SORT2 READ       11988. AND WROTE       32131. INTEGRALS IN      1 RECORDS. CPU TIME:     0.01 SEC, REAL TIME:     0.01 SEC

 FILE SIZES:   FILE 1:    30.3 MBYTE,  FILE 4:     4.2 MBYTE,   TOTAL:     34.5 MBYTE

 OPERATOR DM      FOR CENTER  0  COORDINATES:    0.000000    0.000000    0.000000


 **********************************************************************************************************************************
 DATASETS  * FILE   NREC   LENGTH (MB)   RECORD NAMES
              1      19       30.08       500      610      700      900      950      970     1000      129      960     1100   
                                          VAR    BASINP    GEOM    SYMINP    ZMAT    AOBASIS   BASIS     P2S    ABASIS      S 
                                         1400     1410     1200     1210     1080     1600     1650     1300     1700   
                                           T        V       H0       H01     AOSYM     SMH    MOLCAS    ERIS     OPER   

 PROGRAMS   *        TOTAL       INT
 CPU TIMES  *         0.34      0.19
 REAL TIME  *         0.84 SEC
 DISK USED  *        34.78 MB      
 **********************************************************************************************************************************

 Density functional group MM06=M06X+M06C
 Functional: M06X(Automatically generated (new) M06X)                          Gradient terms: 2
 Functional: M06C(Automatically generated (new) M06C)                          Gradient terms: 2
 Use grid at  1800.2


 Exact exchange will be calculated, factor:  0.2700

 Functional: M06X                      Factor:  0.7300
 Functional: M06C                      Factor:  1.0000

 Generated new metagrid on record  1800.2 with target accuracy 1.0D-06 and 14934 points in CPU time    0.3
 Computed new grid on record 1800.1 in CPU time    0.3
   38149 words reserved for DFT integration

 PROGRAM * UKS-SCF (Unrestricted Kohn-Sham)     Authors: W. Meyer, H.-J. Werner, P.J. Knowles, 1993

 NUMBER OF ELECTRONS:       9+    8-    SPACE SYMMETRY=1    SPIN SYMMETRY: Doublet 
 CONVERGENCE THRESHOLDS:    1.00E-05 (Density)    1.00E-06 (Energy)
 MAX. NUMBER OF ITERATIONS:       60
 INTERPOLATION TYPE:            DIIS
 INTERPOLATION STEPS:              2 (START)      1 (STEP)
 LEVEL SHIFTS:                 -0.20 (ALPHA)  -0.20 (BETA) 



 Use fine grid record 1800.2 for energy threshold  1.0D-06
 Orbital guess generated from atomic densities. Full valence occupancy:    9

 Molecular orbital dump at record        2200.2

 Initial alpha occupation   9
 Initial beta  occupation   8

 ITERATION    DDIFF          GRAD             ENERGY        2-EL.EN.            DIPOLE MOMENTS         DIIS
    1      0.000D+00      0.000D+00      -337.83776744    315.947305    0.00000   -0.00000    0.45043    0
    2      0.392D-02      0.219D-02      -337.83900176    316.166495   -0.00000   -0.00000    0.39009    1
    3      0.219D-02      0.639D-03      -337.83922877    316.116088   -0.00000   -0.00000    0.36611    2
    4      0.140D-02      0.274D-03      -337.83928610    316.116816    0.00000   -0.00000    0.35248    3
    5      0.189D-03      0.641D-04      -337.83928926    316.113906    0.00000   -0.00000    0.35073    4
    6      0.356D-04      0.216D-04      -337.83928987    316.115133    0.00000   -0.00000    0.35059    5
    7      0.961D-05      0.676D-05      -337.83928993    316.114501   -0.00000   -0.00000    0.35055    6
    8      0.140D-05      0.112D-05      -337.83928993    316.114665    0.00000   -0.00000    0.35057    6

 Final alpha occupancy:   9
 Final beta  occupancy:   8

 !UKS STATE 1.1 Energy               -337.839289932199
 Nuclear energy                        11.46495192
 One-electron energy                 -494.34834739
 Two-electron energy                  158.05733246
 Density functional                   -13.01322693     M06X=-16.74096299 M06C= -0.79232395
 Virial quotient                       -0.99319706
 !UKS STATE 1.1 Dipole moment           0.00000000    -0.00000000     0.35056869
 Dipole moment /Debye                   0.00000000    -0.00000000     0.89099836

 Orbital energies for positive spin:

         1.1          2.1          3.1          4.1          5.1          6.1          7.1          8.1          9.1         10.1
    -76.214383    -6.395563    -4.525447    -4.521433    -4.518380    -0.583284    -0.340823    -0.259334    -0.188560     0.087594

        11.1
      0.105996

 Orbital energies for negative spin:

         1.1          2.1          3.1          4.1          5.1          6.1          7.1          8.1          9.1         10.1
    -76.211436    -6.392765    -4.519011    -4.516025    -4.515915    -0.559045    -0.334712    -0.246579    -0.079476     0.091994

        11.1
      0.114295

 HOMO      9.1    -0.188560 =      -5.1310eV
 LUMO     -9.1    -0.079476 =      -2.1627eV
 LUMO-HOMO         0.109084 =       2.9683eV

 EXPECTATION VALUE OF S**2:             0.75196643

 Occupation number threshold for canonical orbitals:  1.999000 (occupied),  0.001000 (virtual)

 Number of pseudo-canonical orbitals per symmetry:    8
 Number of active natural orbitals per symmetry:      1

 Natural orbitals saved to record    2200.2 (Orbital set 3)

 Orbital spaces for UNO-CAS (Min. occupation: 0.020  Max. occupation: 1.980):

 Closed:        8
 Active:        1


 **********************************************************************************************************************************
 DATASETS  * FILE   NREC   LENGTH (MB)   RECORD NAMES
              1      20       30.55       500      610      700      900      950      970     1000      129      960     1100   
                                          VAR    BASINP    GEOM    SYMINP    ZMAT    AOBASIS   BASIS     P2S    ABASIS      S 
                                         1400     1410     1200     1210     1080     1600     1650     1300     1700     1800   
                                           T        V       H0       H01     AOSYM     SMH    MOLCAS    ERIS     OPER     GRID   

              2       5        2.80       700     1000      520     1800     2200   
                                         GEOM     BASIS   MCVARS    GRID      UKS  

 PROGRAMS   *        TOTAL       UKS       INT
 CPU TIMES  *         2.48      2.14      0.19
 REAL TIME  *         3.06 SEC
 DISK USED  *        34.78 MB      
 **********************************************************************************************************************************


 PROGRAM * Intrinsic Basis Bonding Analysis (IBBA)          Author: G. Knizia

 Molecular orbitals read from record     2200.2  Type=UKS/ALPHA (state 1.1)
 Fock matrix read from record            2200.2  Type=UKS/TOTAL (state 1.1)
 Orbital energies read from record       2200.2  Type=UKS/ALPHA (state 1.1)
 Density matrix read from record         2200.2  Type=UKS/CHARGE (state 1.1)

 Number of core orbitals:           5 (   5 )
 Number of closed-shell orbitals:   3 (   3 )
 Number of active  orbitals:        1 (   1 )

 Basis set MINAO-AUTO-PP generated.      Number of basis functions:   11 

 Polarized AO type:                A = (O Ot + (1-O)(1-Ot)) P12
 Orthogonalization method:         Symmetric (Loewdin)
 Localization functional:          L = sum[A,i] <i|n_A|i>^4 -> max

 Localization group 1:   8 orbitals, occupancy  2.000
 Iterative localization: IB/PM,    5 iter; Final gradient 0.90E-10

 Bond order analysis:       [THRPRINT= 0.020]

   CEN ATOM   CEN ATOM     WIBERG.BO      RENORM.BO
     1   P  -   3   H       0.998327       1.000000
     1   P  -   2   H       0.998327       1.000000

     2   H  -   1   P       0.998327       1.000000

     3   H  -   1   P       0.998327       1.000000


 Valency analysis:

   CEN ATOM   TOT.VALENCE
     1   P       1.996654
     2   H       0.999996
     3   H       0.999996
 Localization group 2:   1 orbitals, occupancy  1.000
 Iterative localization: IB/PM,    1 iter; Final gradient 0.00E+00

 Bond order analysis:       [THRPRINT= 0.020]

   CEN ATOM   CEN ATOM     WIBERG.BO      RENORM.BO




 Valency analysis:

   CEN ATOM   TOT.VALENCE
     1   P      -0.000000
     2   H       0.000000
     3   H       0.000000

 Total charge composition:

   CEN ATOM         s          p       ELECTRONS ->P.CHARGE
     1   P       5.68128    9.32276     15.00404   -0.00404
     2   H       0.99798                 0.99798    0.00202
     3   H       0.99798                 0.99798    0.00202

 Total charge composition, AO contributions:

   CEN ATOM SHL      SPHERICAL COMPONENTS
     1   P  1s       1.99989
     1   P  2s       1.99488
     1   P  3s       1.68651
     1   P  2p       1.99981    1.99983    1.99975
     1   P  3p       0.96136    1.00017    1.36184

     2   H  1s       0.99798

     3   H  1s       0.99798

 Active orbital charges:

   CEN ATOM         s          p       ELECTRONS ->SPIN.DEN
     1   P       0.00000    1.00000      1.00000    1.00000
     2   H       0.00000                 0.00000    0.00000
     3   H       0.00000                 0.00000    0.00000

 Active orbital charges, AO contributions:

   CEN ATOM SHL      SPHERICAL COMPONENTS
     1   P  1s       0.00000
     1   P  2s       0.00000
     1   P  3s       0.00000
     1   P  2p       0.00000    0.00015    0.00000
     1   P  3p       0.00000    0.99985    0.00000

     2   H  1s       0.00000

     3   H  1s       0.00000

 Summary of localized orbital composition:   [THRPRINT= 0.020]

   ORB  GRP  ORB.ENERGY      CENTERS/CHARGES
     1   1   -75.203240      P  1   2.000
     2   1    -7.016904      P  1   2.000
     3   1    -4.805160      P  1   2.000
     4   1    -4.520674      P  1   2.000
     5   1    -4.514987      P  1   2.000
     6   1    -0.443433      P  1   1.002   H  3   0.998
     7   1    -0.443433      P  1   1.002   H  2   0.998
     8   1    -0.378375      P  1   2.000
     9   2    -0.131577      P  1   1.000

 Localized orbitals saved to record      2200.2  (orbital set 4)


 **********************************************************************************************************************************
 DATASETS  * FILE   NREC   LENGTH (MB)   RECORD NAMES
              1      20       30.55       500      610      700      900      950      970     1000      129      960     1100   
                                          VAR    BASINP    GEOM    SYMINP    ZMAT    AOBASIS   BASIS     P2S    ABASIS      S 
                                         1400     1410     1200     1210     1080     1600     1650     1300     1700     1800   
                                           T        V       H0       H01     AOSYM     SMH    MOLCAS    ERIS     OPER     GRID   

              2       5        2.81       700     1000      520     1800     2200   
                                         GEOM     BASIS   MCVARS    GRID      UKS  

 PROGRAMS   *        TOTAL      IBBA       UKS       INT
 CPU TIMES  *         2.51      0.01      2.14      0.19
 REAL TIME  *         3.10 SEC
 DISK USED  *        34.78 MB      
 **********************************************************************************************************************************
 Molecular orbitals read from record     2200.2  Type=UKS/LOCAL(IBO)  
 Occupation numbers read from record     2200.2  Type=UKS/LOCAL(IBO)  
 Orbital energies read from record       2200.2  Type=UKS/LOCAL(IBO)  
 Redundancy group numbers read from rec  2200.2  Type=UKS/BETA (state 1.1)

 IBBA/SV(P) energy=      0.000000000000

        UKS-SCF 
   -337.83928993
 **********************************************************************************************************************************
 Molpro calculation terminated
