
 Primary working directories    : /local
 Secondary working directories  : /local
 Wavefunction directory         : /local/
 Main file repository           : /local/

 SHA1      : b4a5b34a9e711420743f49e6833241d17c61fb3c
 NAME      : 2099.9.b4a5b34
 ARCHNAME  : linux/x86_64_openmp
 FC        : /cm/shared/languages/GCC-6.1/bin/gfortran
 BLASLIB   : -lblas
 id        : simonbennie

 Nodes     nprocs
 node34-020    1

 Using customized tuning parameters: mindgm=1; mindgv=20; mindgc=4; mindgr=1; noblas=0; minvec=7
 default implementation of scratch files=df  

 memory,500,m
 geomtyp=xyz
 nosym
 noorient
 geometry={
 P          0.00000        0.00000       -0.11566
 H          1.02013        0.00000        0.86743
 H         -1.02013        0.00000        0.86743
 }
 basis={ default,qzvp }
 {hf,direct;wf,17,1,1}
 {df-ks,M06-HF,direct;maxit,0;wf,17,1,1}
 {ibba,bonds=1}

 Variables initialized (895), CPU time= 0.00 sec
 Commands  initialized (725), CPU time= 0.01 sec, 591 directives.
 Default parameters read. Elapsed time= 0.08 sec

 Checking input...
 Passed
1


                                         ***  PROGRAM SYSTEM MOLPRO  ***
                                       Copyright, TTI GmbH Stuttgart, 2015
                                    Version 2099.9 linked May 26 2017 16:03:21


 **********************************************************************************************************************************
 LABEL *                                                                                 
  64 bit serial version                                                                  DATE: 16-Mar-18          TIME: 01:08:19  
 **********************************************************************************************************************************

 SHA1:             b4a5b34a9e711420743f49e6833241d17c61fb3c
 **********************************************************************************************************************************
 SETTING GEOMTYP        =    XYZ

 Variable memory set to  500000000 words,  buffer space 

 ZSYMEL=NOSYM

 SETTING BASIS          =    QZVP


 Recomputing integrals since basis changed


 Using spherical harmonics

 Library entry P      S def2-QZVP            selected for orbital group  1
 Library entry P      P def2-QZVP            selected for orbital group  1
 Library entry P      D def2-QZVP            selected for orbital group  1
 Library entry P      F def2-QZVP            selected for orbital group  1
 Library entry P      G def2-QZVP            selected for orbital group  1
 Library entry H      S def2-QZVP            selected for orbital group  2
 Library entry H      P def2-QZVP            selected for orbital group  2
 Library entry H      D def2-QZVP            selected for orbital group  2
 Library entry H      F def2-QZVP            selected for orbital group  2


 PROGRAM * SEWARD (Integral evaluation for generally contracted gaussian basis sets)     Author: Roland Lindh, 1990

 Geometry written to block  1 of record 700


 Point group  C1  



 ATOMIC COORDINATES

 NR  ATOM    CHARGE       X              Y              Z

   1  P      15.00    0.000000000    0.000000000   -0.218565724
   2  H       1.00    1.927766311    0.000000000    1.639205132
   3  H       1.00   -1.927766311    0.000000000    1.639205132

 Bond lengths in Bohr (Angstrom)

 1-2  2.677236542  1-3  2.677236542
     ( 1.416732567)     ( 1.416732567)

 Bond angles

  2-1-3   92.11858295

 NUCLEAR CHARGE:                   17
 NUMBER OF PRIMITIVE AOS:         197
 NUMBER OF SYMMETRY AOS:          171
 NUMBER OF CONTRACTIONS:          130   ( 130A   )
 NUMBER OF CORE ORBITALS:           5   (   5A   )
 NUMBER OF VALENCE ORBITALS:        6   (   6A   )


 NUCLEAR REPULSION ENERGY   11.46495192

 EXTRA SYMMETRY OF AOS IN SYMMETRY 1:   1 1 1 1 1 1 1 1 1 1   2 1 1 2 1 1 2 1 1 2   1 1 2 1 1 2 1 1 2 1   1 2 1 2 1 1 2 1 2 1
                                        1 2 1 2 1 1 2 1 2 1   1 2 2 1 1 2 1 1 2 2   1 1 2 1 1 2 1 2 1 2   1 1 1 1 1 2 1 1 2 1
                                        1 2 1 1 2 1 1 2 1 2   1 1 2 1 2 1 1 2 2 1   1 1 1 1 1 2 1 1 2 1   1 2 1 1 2 1 1 2 1 2
                                        1 1 2 1 2 1 1 2 2 1

 Eigenvalues of metric

         1 0.344E-03 0.524E-03 0.187E-02 0.353E-02 0.695E-02 0.754E-02 0.128E-01 0.135E-01


 Contracted 2-electron integrals neglected if value below      1.0D-11
 AO integral compression algorithm  1   Integral accuracy      1.0D-11

     92.275 MB (compressed) written to integral file ( 26.6%)


 NUMBER OF SORTED TWO-ELECTRON INTEGRALS:   36256870.     BUFFER LENGTH:  32768
 NUMBER OF SEGMENTS:   3  SEGMENT LENGTH:   15998004      RECORD LENGTH: 524288

 Memory used in sort:      16.56 MW

 SORT1 READ    43503473. AND WROTE    16537499. INTEGRALS IN     49 RECORDS. CPU TIME:     0.29 SEC, REAL TIME:     0.57 SEC
 SORT2 READ    16537499. AND WROTE    36256870. INTEGRALS IN    352 RECORDS. CPU TIME:     0.76 SEC, REAL TIME:     0.92 SEC

 FILE SIZES:   FILE 1:   122.9 MBYTE,  FILE 4:   205.6 MBYTE,   TOTAL:    328.5 MBYTE

 OPERATOR DM      FOR CENTER  0  COORDINATES:    0.000000    0.000000    0.000000


 **********************************************************************************************************************************
 DATASETS  * FILE   NREC   LENGTH (MB)   RECORD NAMES
              1      19      104.32       500      610      700      900      950      970     1000      129      960     1100   
                                          VAR    BASINP    GEOM    SYMINP    ZMAT    AOBASIS   BASIS     P2S    ABASIS      S 
                                         1400     1410     1200     1210     1080     1600     1650     1300     1700   
                                           T        V       H0       H01     AOSYM     SMH    MOLCAS    ERIS     OPER   

 PROGRAMS   *        TOTAL       INT
 CPU TIMES  *         3.44      3.30
 REAL TIME  *         8.27 SEC
 DISK USED  *       328.80 MB      
 **********************************************************************************************************************************


 PROGRAM * RHF-SCF (OPEN SHELL)       Authors: W. Meyer, H.-J. Werner


 NUMBER OF ELECTRONS:       9+    8-    SPACE SYMMETRY=1    SPIN SYMMETRY: Doublet 
 CONVERGENCE THRESHOLDS:    1.00E-05 (Density)    1.00E-07 (Energy)
 INTEGRAL THRESHOLDS:       1.00E-11 (Initial)    1.00E-11 (Final)
 MAX. NUMBER OF ITERATIONS:       60
 INTERPOLATION TYPE:            DIIS
 INTERPOLATION STEPS:              2 (START)      1 (STEP)
 LEVEL SHIFTS:                 -0.60 (CLOSED) -0.30 (OPEN) 



 Orbital guess generated from atomic densities. Full valence occupancy:    9

 Molecular orbital dump at record        2100.2

 Initial alpha occupancy:   9
 Initial beta  occupancy:   8
 Wave function symmetry:    1

 Direct Fock-matrix evaluation.        Author: H.-J. Werner (1996)

 Integral Threshold:                  0.1D-10

 ITERATION   DDIFF            GRAD            ENERGY        2-EL.EN.            DIPOLE MOMENTS         DIIS   CPU(IT)  CPU(TOT)
    1      0.000D+00      0.000D+00      -341.87501614    283.747477    0.00000   -0.00000    0.44318    0      3.0      4.4     start
    2      0.000D+00      0.212D-02      -341.88334213    284.246730   -0.00000    0.00000    0.31920    1      2.5      7.0     diag,B
    3      0.558D-03      0.979D-03      -341.88613391    284.422766   -0.00000   -0.00000    0.26679    2      2.5      9.5     diag,B
    4      0.419D-03      0.427D-03      -341.88688125    284.471044   -0.00000   -0.00000    0.25155    3      2.5     12.0     diag,B
    5      0.294D-03      0.171D-03      -341.88702583    284.456529   -0.00000   -0.00000    0.25364    4      2.5     14.5     diag,B
    6      0.181D-03      0.535D-04      -341.88703904    284.452647   -0.00000   -0.00000    0.25536    5      2.5     17.1     diag,B
    7      0.728D-04      0.177D-04      -341.88704021    284.450530   -0.00000   -0.00000    0.25560    6      2.5     19.6     fixocc
    8      0.337D-04      0.488D-05      -341.88704029    284.450030   -0.00000    0.00000    0.25547    7      2.6     22.2     diag,B
    9      0.132D-04      0.122D-05      -341.88704029    284.449844   -0.00000    0.00000    0.25538    8      2.6     24.8     diag,B
   10      0.292D-05      0.390D-06      -341.88704030    284.449847   -0.00000    0.00000    0.25535    0      2.6     27.4     orth

 Final alpha occupancy:   9
 Final beta  occupancy:   8

 !RHF STATE 1.1 Energy               -341.887040295341
 Nuclear energy                        11.46495192
 One-electron energy                 -495.57691570
 Two-electron energy                  142.22492348
 Virial quotient                       -1.00006157
 !RHF STATE 1.1 Dipole moment          -0.00000000     0.00000000     0.25535268
 Dipole moment /Debye                  -0.00000000     0.00000000     0.64899926

 Orbital energies:

         1.1          2.1          3.1          4.1          5.1          6.1          7.1          8.1          9.1         10.1
    -79.954653    -7.496901    -5.389399    -5.389285    -5.388663    -0.820071    -0.523018    -0.419101    -0.364890     0.107763

        11.1
      0.129680

 HOMO      9.1    -0.364890 =      -9.9292eV
 LUMO     10.1     0.107763 =       2.9324eV
 LUMO-HOMO         0.472653 =      12.8616eV


 **********************************************************************************************************************************
 DATASETS  * FILE   NREC   LENGTH (MB)   RECORD NAMES
              1      19      104.32       500      610      700      900      950      970     1000      129      960     1100   
                                          VAR    BASINP    GEOM    SYMINP    ZMAT    AOBASIS   BASIS     P2S    ABASIS      S 
                                         1400     1410     1200     1210     1080     1600     1650     1300     1700   
                                           T        V       H0       H01     AOSYM     SMH    MOLCAS    ERIS     OPER   

              2       4        3.27       700     1000      520     2100   
                                         GEOM     BASIS   MCVARS     RHF  

 PROGRAMS   *        TOTAL        HF       INT
 CPU TIMES  *        30.86     27.41      3.30
 REAL TIME  *        42.03 SEC
 DISK USED  *       328.80 MB      
 **********************************************************************************************************************************

 Density functional group M06-HF=XC-M06-HF
 Functional: XC-M06-HF(via MFM 1.6)                                            Gradient terms: 1
 Use grid at  1800.2


 Exact exchange will be calculated, factor:  1.0000

 Functional: XC-M06-HF                 Factor:  1.0000

 Generated new metagrid on record  1800.2 with target accuracy 1.0D-06 and 16046 points in CPU time    0.3
 Computed new grid on record 1800.1 in CPU time    0.3
  107229 words reserved for DFT integration

 PROGRAM * RKS-SCF (Restricted open shell Kohn-Sham)     Authors: W. Meyer, H.-J. Werner, P.J. Knowles, 1993

 NUMBER OF ELECTRONS:       9+    8-    SPACE SYMMETRY=1    SPIN SYMMETRY: Doublet 
 CONVERGENCE THRESHOLDS:    1.00E-05 (Density)    1.00E-06 (Energy)
 INTEGRAL THRESHOLDS:       1.00E-11 (Initial)    1.00E-11 (Final)
 MAX. NUMBER OF ITERATIONS:        0
 INTERPOLATION TYPE:            DIIS
 INTERPOLATION STEPS:              2 (START)      1 (STEP)
 LEVEL SHIFTS:                 -0.60 (CLOSED) -0.30 (OPEN) 



 Use fine grid record 1800.2 for energy threshold  1.0D-06

 Basis set DEF2-QZVPP/JKFIT generated.   Number of basis functions:   164 

 Molecular orbitals read from record     2100.2  Type=RHF/CANONICAL (state 1.1)
 Coulomb and exchange fitting
 Thresholds for fitting:       THRAO_COUL= 1.0D-14    THRAO_EXCH= 1.0D-12    THRMO= 1.0D-11    THRPROD= 1.0D-11    THRASM= 1.0D-11
                               THR2HLF=    1.0D-11

 Molecular orbital dump at record        2101.2

 ITERATION   DDIFF            GRAD            ENERGY        2-EL.EN.            DIPOLE MOMENTS         DIIS   CPU(IT)  CPU(TOT)  ORB.
    1      0.000D+00      0.000D+00      -342.48664313    284.449871   -0.00000    0.00000    0.25535    0      2.1      2.1     start

 Final alpha occupancy:   9
 Final beta  occupancy:   8

 !RKS STATE 1.1 Energy               -342.486643134507
 Nuclear energy                        11.46495192
 One-electron energy                 -495.57691570
 Two-electron energy                  142.22493571
 Density functional                    -0.59961508     XC-M06-HF=-0.59961508
 Virial quotient                       -1.00181549
 !RKS STATE 1.1 Dipole moment          -0.00000000     0.00000000     0.25535268
 Dipole moment /Debye                  -0.00000000     0.00000000     0.64899926

 Orbital energies:

         1.1          2.1          3.1          4.1          5.1          6.1          7.1          8.1          9.1         10.1
    -79.954653    -7.496901    -5.389399    -5.389285    -5.388663    -0.820071    -0.523018    -0.419101    -0.364890     0.107763

        11.1
      0.129680

 HOMO      9.1    -0.364890 =      -9.9292eV
 LUMO     10.1     0.107763 =       2.9324eV
 LUMO-HOMO         0.472653 =      12.8616eV


 **********************************************************************************************************************************
 DATASETS  * FILE   NREC   LENGTH (MB)   RECORD NAMES
              1      20      104.83       500      610      700      900      950      970     1000      129      960     1100   
                                          VAR    BASINP    GEOM    SYMINP    ZMAT    AOBASIS   BASIS     P2S    ABASIS      S 
                                         1400     1410     1200     1210     1080     1600     1650     1300     1700     1800   
                                           T        V       H0       H01     AOSYM     SMH    MOLCAS    ERIS     OPER     GRID   

              2       6        6.52       700     1000      520     2100     1800     2101   
                                         GEOM     BASIS   MCVARS     RHF     GRID      RKS  

 PROGRAMS   *        TOTAL        KS        HF       INT
 CPU TIMES  *        33.30      2.43     27.41      3.30
 REAL TIME  *        44.52 SEC
 DISK USED  *       328.80 MB      
 **********************************************************************************************************************************


 PROGRAM * Intrinsic Basis Bonding Analysis (IBBA)          Author: G. Knizia

 Molecular orbitals read from record     2101.2  Type=RKS/CANONICAL (state 1.1)
 Fock matrix read from record            2101.2  Type=RKS/TOTAL (state 1.1)
 Orbital energies read from record       2101.2  Type=RKS/CANONICAL (state 1.1)
 Density matrix read from record         2101.2  Type=RKS/CHARGE (state 1.1)

 Number of core orbitals:           5 (   5 )
 Number of closed-shell orbitals:   3 (   3 )
 Number of active  orbitals:        1 (   1 )

 Basis set MINAO-AUTO-PP generated.      Number of basis functions:   11 

 Polarized AO type:                A = (O Ot + (1-O)(1-Ot)) P12
 Orthogonalization method:         Symmetric (Loewdin)
 Localization functional:          L = sum[A,i] <i|n_A|i>^4 -> max

 Localization group 1:   8 orbitals, occupancy  2.000
 Iterative localization: IB/PM,    5 iter; Final gradient 0.46E-09

 Bond order analysis:       [THRPRINT= 0.020]

   CEN ATOM   CEN ATOM     WIBERG.BO      RENORM.BO
     1   P  -   3   H       0.994264       1.000000
     1   P  -   2   H       0.994264       1.000000

     2   H  -   1   P       0.994264       1.000000

     3   H  -   1   P       0.994264       1.000000


 Valency analysis:

   CEN ATOM   TOT.VALENCE
     1   P       1.988529
     2   H       0.997706
     3   H       0.997706
 Localization group 2:   1 orbitals, occupancy  1.000
 Iterative localization: IB/PM,    1 iter; Final gradient 0.00E+00

 Bond order analysis:       [THRPRINT= 0.020]

   CEN ATOM   CEN ATOM     WIBERG.BO      RENORM.BO




 Valency analysis:

   CEN ATOM   TOT.VALENCE
     1   P       0.000000
     2   H       0.000000
     3   H       0.000000

 Total charge composition:

   CEN ATOM         s          p       ELECTRONS ->P.CHARGE
     1   P       5.64298    9.26122     14.90421    0.09579
     2   H       1.04790                 1.04790   -0.04790
     3   H       1.04790                 1.04790   -0.04790

 Total charge composition, AO contributions:

   CEN ATOM SHL      SPHERICAL COMPONENTS
     1   P  1s       1.99991
     1   P  2s       1.99335
     1   P  3s       1.64973
     1   P  2p       1.99917    2.00000    1.99917
     1   P  3p       0.89427    1.00000    1.36862

     2   H  1s       1.04790

     3   H  1s       1.04790

 Active orbital charges:

   CEN ATOM         s          p       ELECTRONS ->SPIN.DEN
     1   P       0.00000    1.00000      1.00000    1.00000
     2   H       0.00000                 0.00000    0.00000
     3   H       0.00000                 0.00000    0.00000

 Active orbital charges, AO contributions:

   CEN ATOM SHL      SPHERICAL COMPONENTS
     1   P  1s       0.00000
     1   P  2s       0.00000
     1   P  3s       0.00000
     1   P  2p       0.00000    0.00000    0.00000
     1   P  3p       0.00000    1.00000    0.00000

     2   H  1s       0.00000

     3   H  1s       0.00000

 Summary of localized orbital composition:   [THRPRINT= 0.020]

   ORB  GRP  ORB.ENERGY      CENTERS/CHARGES
     1   1   -78.249173      P  1   2.000
     2   1    -7.666780      P  1   2.000
     3   1    -5.586939      P  1   2.000
     4   1    -5.276508      P  1   2.000
     5   1    -5.270693      P  1   2.000
     6   1    -0.646807      H  2   1.047   P  1   0.952
     7   1    -0.646807      H  3   1.047   P  1   0.952
     8   1    -0.569293      P  1   2.000
     9   2    -0.190471      P  1   1.000

 Localized orbitals saved to record      2101.2  (orbital set 2)


 **********************************************************************************************************************************
 DATASETS  * FILE   NREC   LENGTH (MB)   RECORD NAMES
              1      20      104.83       500      610      700      900      950      970     1000      129      960     1100   
                                          VAR    BASINP    GEOM    SYMINP    ZMAT    AOBASIS   BASIS     P2S    ABASIS      S 
                                         1400     1410     1200     1210     1080     1600     1650     1300     1700     1800   
                                           T        V       H0       H01     AOSYM     SMH    MOLCAS    ERIS     OPER     GRID   

              2       6        6.66       700     1000      520     2100     1800     2101   
                                         GEOM     BASIS   MCVARS     RHF     GRID      RKS  

 PROGRAMS   *        TOTAL      IBBA        KS        HF       INT
 CPU TIMES  *        33.33      0.04      2.43     27.41      3.30
 REAL TIME  *        44.55 SEC
 DISK USED  *       328.80 MB      
 **********************************************************************************************************************************

 IBBA/QZVP energy=      0.000000000000

        DF-KS           HF-SCF  
   -342.48664313   -341.88704030
 **********************************************************************************************************************************
 Molpro calculation terminated
