
 Primary working directories    : /local/molpro.IjAdMFUrFs
 Secondary working directories  : /local/molpro.IjAdMFUrFs
 Wavefunction directory         : /local/
 Main file repository           : /local/molpro.IjAdMFUrFs/

 id        : simonbennie

 Nodes     nprocs
 node35-048    1

 Using customized tuning parameters: mindgm=1; mindgv=20; mindgc=4; mindgr=1; noblas=0; minvec=7
 default implementation of scratch files=df  

 memory,500,m
 geomtyp=xyz
 nosym
 noorient
 geometry={
 P          0.00000        0.00000       -0.11566
 H          1.02013        0.00000        0.86743
 H         -1.02013        0.00000        0.86743
 }
 basis={default,sto-3g}
 {uhf,direct;wf,17,1,1}
 
 basis={ default,6-31+G(d,p) }
 {uks,MM06-L,direct;wf,17,1,1}
 {ibba,bonds=1}

 Variables initialized (920), CPU time= 0.00 sec
 Commands  initialized (754), CPU time= 0.01 sec, 615 directives.
 Default parameters read. Elapsed time= 0.09 sec

 Checking input...
 Passed
1


                                         ***  PROGRAM SYSTEM MOLPRO  ***
                                       Copyright, TTI GmbH Stuttgart, 2015
                                    Version 2018.0 linked Jul  6 2018 18:07:13


 **********************************************************************************************************************************
 LABEL *                                                                                 
  64 bit serial version                                                                  DATE: 10-Oct-18          TIME: 22:09:06  
 **********************************************************************************************************************************

 SHA1:             b58f8fddb9d75525be9261ebe3faf0e4279c479b
 **********************************************************************************************************************************
 SETTING GEOMTYP        =    XYZ

 Variable memory set to  500000000 words,  buffer space 

 ZSYMEL=NOSYM

 SETTING BASIS          =    STO-3G


 Recomputing integrals since basis changed


 Using spherical harmonics

 Library entry P      S STO-3G               selected for orbital group  1
 Library entry P      P STO-3G               selected for orbital group  1
 Library entry H      S STO-3G               selected for orbital group  2


 PROGRAM * SEWARD (Integral evaluation for generally contracted gaussian basis sets)     Author: Roland Lindh, 1990

 Geometry written to block  1 of record 700


 Point group  C1  



 ATOMIC COORDINATES

 NR  ATOM    CHARGE       X              Y              Z

   1  P      15.00    0.000000000    0.000000000   -0.218565724
   2  H       1.00    1.927766311    0.000000000    1.639205132
   3  H       1.00   -1.927766311    0.000000000    1.639205132

 Bond lengths in Bohr (Angstrom)

 1-2  2.677236542  1-3  2.677236542
     ( 1.416732567)     ( 1.416732567)

 Bond angles

  2-1-3   92.11858295

 NUCLEAR CHARGE:                   17
 NUMBER OF PRIMITIVE AOS:          33
 NUMBER OF SYMMETRY AOS:           33
 NUMBER OF CONTRACTIONS:           11   (  11A   )
 NUMBER OF CORE ORBITALS:           5   (   5A   )
 NUMBER OF VALENCE ORBITALS:        6   (   6A   )


 NUCLEAR REPULSION ENERGY   11.46495192

 EXTRA SYMMETRY OF AOS IN SYMMETRY 1:   1 1 1 1 2 1 1 2 1 1   1

 Eigenvalues of metric

         1 0.325E+00 0.448E+00 0.627E+00 0.738E+00 0.816E+00 0.946E+00 0.115E+01 0.126E+01


 Contracted 2-electron integrals neglected if value below      1.0D-11
 AO integral compression algorithm  1   Integral accuracy      1.0D-11

     0.262 MB (compressed) written to integral file ( 78.1%)


 NUMBER OF SORTED TWO-ELECTRON INTEGRALS:       2211.     BUFFER LENGTH:  32768
 NUMBER OF SEGMENTS:   1  SEGMENT LENGTH:       2211      RECORD LENGTH: 524288

 Memory used in sort:       0.56 MW

 SORT1 READ        3679. AND WROTE         949. INTEGRALS IN      1 RECORDS. CPU TIME:     0.00 SEC, REAL TIME:     0.00 SEC
 SORT2 READ         949. AND WROTE        2211. INTEGRALS IN      1 RECORDS. CPU TIME:     0.00 SEC, REAL TIME:     0.01 SEC

 FILE SIZES:   FILE 1:    30.2 MBYTE,  FILE 4:     4.2 MBYTE,   TOTAL:     34.5 MBYTE

 OPERATOR DM      FOR CENTER  0  COORDINATES:    0.000000    0.000000    0.000000


 **********************************************************************************************************************************
 DATASETS  * FILE   NREC   LENGTH (MB)   RECORD NAMES
              1      19       29.98       500      610      700      900      950      970     1000      129      960     1100   
                                          VAR    BASINP    GEOM    SYMINP    ZMAT    AOBASIS   BASIS     P2S    ABASIS      S 
                                         1400     1410     1200     1210     1080     1600     1650     1300     1700   
                                           T        V       H0       H01     AOSYM     SMH    MOLCAS    ERIS     OPER   

 PROGRAMS   *        TOTAL       INT
 CPU TIMES  *         0.45      0.32
 REAL TIME  *         2.99 SEC
 DISK USED  *        34.76 MB
 **********************************************************************************************************************************


 PROGRAM * UHF-SCF       Authors: W. Meyer, H.-J. Werner


 NUMBER OF ELECTRONS:       9+    8-    SPACE SYMMETRY=1    SPIN SYMMETRY: Doublet 
 CONVERGENCE THRESHOLDS:    1.00E-05 (Density)    1.00E-07 (Energy)
 INTEGRAL THRESHOLDS:       1.00E-11 (Initial)    1.00E-11 (Final)
 MAX. NUMBER OF ITERATIONS:       60
 INTERPOLATION TYPE:            DIIS
 INTERPOLATION STEPS:              2 (START)      1 (STEP)
 LEVEL SHIFTS:                 -0.20 (ALPHA)  -0.20 (BETA) 



 Orbital guess generated from atomic densities. Full valence occupancy:    9

 Molecular orbital dump at record        2200.2

 Initial alpha occupation   9
 Initial beta  occupation   8

 Direct Fock-matrix evaluation.        Author: H.-J. Werner (1996)

 Integral Threshold:                  0.1D-10

 ITERATION   DDIFF            GRAD            ENERGY        2-EL.EN.            DIPOLE MOMENTS         DIIS   CPU(IT)  CPU(TOT)
    1      0.000D+00      0.000D+00      -338.00641916    290.155996   -0.00000    0.00000    0.65279    0      0.9      1.8
    2      0.302D-01      0.154D-01      -338.02540778    288.569964   -0.00000    0.00000    0.32651    1      0.6      2.4
    3      0.136D-01      0.558D-02      -338.02810641    287.932576    0.00000    0.00000    0.17964    2      0.5      2.9
    4      0.200D-02      0.141D-02      -338.02830587    287.866779    0.00000    0.00000    0.16147    3      0.5      3.4
    5      0.127D-02      0.649D-03      -338.02843448    287.879558    0.00000    0.00000    0.16588    4      0.5      3.9
    6      0.159D-03      0.246D-03      -338.02845847    287.879943    0.00000    0.00000    0.16672    5      0.5      4.4
    7      0.183D-03      0.963D-04      -338.02846195    287.881183    0.00000    0.00000    0.16715    6      0.5      4.9
    8      0.250D-04      0.124D-04      -338.02846198    287.881150    0.00000    0.00000    0.16707    6      0.6      5.5
    9      0.391D-05      0.315D-05      -338.02846198    287.881144    0.00000    0.00000    0.16706    6      0.6      6.1
   10      0.104D-05      0.478D-06      -338.02846198    287.881155    0.00000    0.00000    0.16707    5      0.6      6.6

 Final alpha occupancy:   9
 Final beta  occupancy:   8

 !UHF STATE  1.1 Energy              -338.028461977266
 Nuclear energy                        11.46495192
 One-electron energy                 -493.43399130
 Two-electron energy                  143.94057740
 Virial quotient                       -1.01181472
 !UHF STATE  1.1 Dipole moment          0.00000000     0.00000000     0.16706598
 Dipole moment /Debye                   0.00000000     0.00000000     0.42461154

 Orbital energies for positive spin:

         1.1          2.1          3.1          4.1          5.1          6.1          7.1          8.1          9.1         10.1
    -78.881264    -7.209971    -5.050804    -5.028968    -5.026354    -0.787038    -0.434890    -0.329090    -0.274631     0.479385

        11.1
      0.564702

 Orbital energies for negative spin:

         1.1          2.1          3.1          4.1          5.1          6.1          7.1          8.1          9.1         10.1
    -78.871159    -7.194339    -5.019879    -5.019049    -4.996918    -0.704007    -0.432497    -0.291979     0.251177     0.497819

        11.1
      0.594347


 HOMO      9.1    -0.274631 =      -7.4731eV
 LUMO     -9.1     0.251177 =       6.8349eV
 LUMO-HOMO         0.525808 =      14.3080eV

 EXPECTATION VALUE OF S**2:             0.75736059

 Occupation number threshold for pseudo-canonical orbitals: 1.9990 (occupied), 0.0010 (virtual)

 Number of pseudo-canonical occupied orbitals per symmetry:    6
 Number of active natural orbitals per symmetry:               5

 Natural orbitals saved to record    2200.2 (Orbital set 3)

 Orbital spaces for UNO-CAS (Min. occupation: 0.020  Max. occupation: 1.980):

 Closed:        8
 Active:        1


 **********************************************************************************************************************************
 DATASETS  * FILE   NREC   LENGTH (MB)   RECORD NAMES
              1      19       29.98       500      610      700      900      950      970     1000      129      960     1100   
                                          VAR    BASINP    GEOM    SYMINP    ZMAT    AOBASIS   BASIS     P2S    ABASIS      S 
                                         1400     1410     1200     1210     1080     1600     1650     1300     1700   
                                           T        V       H0       H01     AOSYM     SMH    MOLCAS    ERIS     OPER   

              2       4        2.79       700     1000      520     2200   
                                         GEOM     BASIS   MCVARS     UHF  

 PROGRAMS   *        TOTAL   UHF-SCF       INT
 CPU TIMES  *         7.12      6.67      0.32
 REAL TIME  *        16.00 SEC
 DISK USED  *        34.76 MB
 **********************************************************************************************************************************
 SETTING BASIS          =    6-31+G(D,P)


 Recomputing integrals since basis changed


 Using spherical harmonics

 Library entry P      S 6-31G                selected for orbital group  1
 Library entry P      S 6-31++G              selected for orbital group  1
 Library entry P      P 6-31G                selected for orbital group  1
 Library entry P      P 6-31++G              selected for orbital group  1
 Library entry P      D 6-31G*               selected for orbital group  1
 Library entry H      S 6-31G                selected for orbital group  2
 Library entry H      P 6-31G**              selected for orbital group  2


 PROGRAM * SEWARD (Integral evaluation for generally contracted gaussian basis sets)     Author: Roland Lindh, 1990

 Geometry written to block  1 of record 700


 Point group  C1  



 ATOMIC COORDINATES

 NR  ATOM    CHARGE       X              Y              Z

   1  P      15.00    0.000000000    0.000000000   -0.218565724
   2  H       1.00    1.927766311    0.000000000    1.639205132
   3  H       1.00   -1.927766311    0.000000000    1.639205132

 Bond lengths in Bohr (Angstrom)

 1-2  2.677236542  1-3  2.677236542
     ( 1.416732567)     ( 1.416732567)

 Bond angles

  2-1-3   92.11858295

 NUCLEAR CHARGE:                   17
 NUMBER OF PRIMITIVE AOS:          70
 NUMBER OF SYMMETRY AOS:           69
 NUMBER OF CONTRACTIONS:           32   (  32A   )
 NUMBER OF CORE ORBITALS:           5   (   5A   )
 NUMBER OF VALENCE ORBITALS:        6   (   6A   )


 NUCLEAR REPULSION ENERGY   11.46495192

 EXTRA SYMMETRY OF AOS IN SYMMETRY 1:   1 1 1 1 1 1 2 1 1 2   1 1 2 1 1 2 1 1 2 1   1 2 1 1 1 2 1 1 1 1   2 1

 Eigenvalues of metric

         1 0.287E-01 0.809E-01 0.912E-01 0.143E+00 0.156E+00 0.170E+00 0.300E+00 0.318E+00


 Contracted 2-electron integrals neglected if value below      1.0D-11
 AO integral compression algorithm  1   Integral accuracy      1.0D-11

     0.524 MB (compressed) written to integral file ( 44.0%)


 NUMBER OF SORTED TWO-ELECTRON INTEGRALS:     139656.     BUFFER LENGTH:  32768
 NUMBER OF SEGMENTS:   1  SEGMENT LENGTH:     139656      RECORD LENGTH: 524288

 Memory used in sort:       0.70 MW

 SORT1 READ      192526. AND WROTE       61742. INTEGRALS IN      1 RECORDS. CPU TIME:     0.00 SEC, REAL TIME:     0.01 SEC
 SORT2 READ       61742. AND WROTE      139656. INTEGRALS IN      2 RECORDS. CPU TIME:     0.02 SEC, REAL TIME:     0.02 SEC

 FILE SIZES:   FILE 1:    30.5 MBYTE,  FILE 4:     4.2 MBYTE,   TOTAL:     34.8 MBYTE

 OPERATOR DM      FOR CENTER  0  COORDINATES:    0.000000    0.000000    0.000000


 **********************************************************************************************************************************
 DATASETS  * FILE   NREC   LENGTH (MB)   RECORD NAMES
              1      19       30.36       500      610      700      900      950      970     1001      129      960     1100   
                                          VAR    BASINP    GEOM    SYMINP    ZMAT    AOBASIS   BASIS     P2S    ABASIS      S 
                                         1400     1410     1200     1210     1080     1600     1650     1300     1700   
                                           T        V       H0       H01     AOSYM     SMH    MOLCAS    ERIS     OPER   

              2       5        2.80       700     1000      520     2200     1001   
                                         GEOM     BASIS   MCVARS     UHF     BASIS   

 PROGRAMS   *        TOTAL       INT   UHF-SCF       INT
 CPU TIMES  *         7.49      0.36      6.67      0.32
 REAL TIME  *        16.42 SEC
 DISK USED  *        37.61 MB
 **********************************************************************************************************************************

 Density functional group MM06-L=M06LX+M06LC
 Functional: M06LX(Automatically generated (new) M06LX)                        Gradient terms: 2
 Functional: M06LC(Automatically generated (new) M06LC)                        Gradient terms: 2
 Use libxcgrid:  F
 Use grid at  1800.2

 Functional: M06LX                     Factor:  1.0000
 Functional: M06LC                     Factor:  1.0000

 Generated new metagrid on record  1800.2 with target accuracy 1.0D-06 and 14934 points in CPU time    0.3
 Computed new grid on record 1800.1 in CPU time    0.3
   53838 words reserved for DFT integration

 PROGRAM * UKS-SCF (Unrestricted Kohn-Sham)     Authors: W. Meyer, H.-J. Werner, P.J. Knowles, 1993

 NUMBER OF ELECTRONS:       9+    8-    SPACE SYMMETRY=1    SPIN SYMMETRY: Doublet 
 CONVERGENCE THRESHOLDS:    1.00E-05 (Density)    1.00E-06 (Energy)
 MAX. NUMBER OF ITERATIONS:       60
 INTERPOLATION TYPE:            DIIS
 INTERPOLATION STEPS:              2 (START)      1 (STEP)
 LEVEL SHIFTS:                 -0.20 (ALPHA)  -0.20 (BETA) 



 Use fine grid record 1800.2 for energy threshold  1.0D-06
 Molecular orbitals read from record     2200.2  Type=UHF/ALPHA (state 1.1)

 Present basis size:      32
 Previous basis size:     11
 Previous occupation:      9
 Previous closed-shells:   8
 Previous core-orbitals:   5
 Present occupation:       9
 Present closed-shells:    8
 Present core-orbitals:    5
 Wavefunction symmetry:    1   Doublet 

 Orbital overlap <old|new>:  < 1.1| 1.1> = 0.999841   < 2.1| 2.1> = 0.999337   < 3.1| 3.1> = 0.998478   < 4.1| 4.1> = 0.998509
                             < 5.1| 5.1> = 0.998505   < 6.1| 6.1> = 0.999636   < 7.1| 7.1> = 0.999794   < 8.1| 8.1> = 0.999607
                             < 9.1| 9.1> = 0.999504

 Molecular orbitals read from record     2200.2  Type=UHF/BETA (state 1.1)

 Present basis size:      32
 Previous basis size:     11
 Previous occupation:      9
 Previous closed-shells:   8
 Previous core-orbitals:   5
 Present occupation:       9
 Present closed-shells:    8
 Present core-orbitals:    5
 Wavefunction symmetry:    1   Doublet 

 Orbital overlap <old|new>:  < 1.1| 1.1> = 0.999841   < 2.1| 2.1> = 0.999338   < 3.1| 3.1> = 0.998508   < 4.1| 4.1> = 0.998504
                             < 5.1| 5.1> = 0.998481   < 6.1| 6.1> = 0.999708   < 7.1| 7.1> = 0.999811   < 8.1| 8.1> = 0.999571
                             < 9.1| 9.1> = 0.999500


 Molecular orbital dump at record        2201.2

 Initial alpha occupation   9
 Initial beta  occupation   8

 ITERATION    DDIFF          GRAD             ENERGY        2-EL.EN.            DIPOLE MOMENTS         DIIS
    1      0.000D+00      0.000D+00      -342.32883303    336.733725    0.00000   -0.00000    0.17109    0
    2      0.323D-01      0.175D-01      -342.46346712    333.101068    0.00000    0.00000    0.10765    1
    3      0.944D-02      0.399D-02      -342.47776878    332.096346    0.00000   -0.00000    0.21756    2
    4      0.507D-02      0.141D-02      -342.48052301    331.515603   -0.00000    0.00000    0.28588    3
    5      0.218D-02      0.312D-03      -342.48075203    331.524175    0.00000    0.00000    0.32448    4
    6      0.448D-03      0.119D-03      -342.48076977    331.465576   -0.00000   -0.00000    0.32604    5
    7      0.146D-03      0.262D-04      -342.48077117    331.469095   -0.00000   -0.00000    0.32863    6
    8      0.236D-04      0.668D-05      -342.48077126    331.468613   -0.00000   -0.00000    0.32877    6
    9      0.490D-05      0.142D-05      -342.48077127    331.468627    0.00000    0.00000    0.32877    6
   10      0.108D-05      0.416D-06      -342.48077127    331.468648    0.00000   -0.00000    0.32875    6

 Final alpha occupancy:   9
 Final beta  occupancy:   8

 !UKS STATE  1.1 Energy              -342.480771270252
 Nuclear energy                        11.46495192
 One-electron energy                 -495.72901735
 Two-electron energy                  165.73432389
 Density functional                   -23.95102973     M06LX=-23.20649251 M06LC= -0.74453722
 Virial quotient                       -1.00189689
 !UKS STATE  1.1 Dipole moment          0.00000000    -0.00000000     0.32874979
 Dipole moment /Debye                   0.00000000    -0.00000000     0.83554389

 Orbital energies for positive spin:

         1.1          2.1          3.1          4.1          5.1          6.1          7.1          8.1          9.1         10.1
    -76.767454    -6.524127    -4.638990    -4.634202    -4.630505    -0.609739    -0.368701    -0.286799    -0.224095     0.010172

        11.1
      0.013333

 Orbital energies for negative spin:

         1.1          2.1          3.1          4.1          5.1          6.1          7.1          8.1          9.1         10.1
    -76.762580    -6.520936    -4.631054    -4.628418    -4.627611    -0.574702    -0.359350    -0.267959    -0.145282     0.017895

        11.1
      0.019132


 HOMO      9.1    -0.224095 =      -6.0979eV
 LUMO     -9.1    -0.145282 =      -3.9533eV
 LUMO-HOMO         0.078814 =       2.1446eV

 EXPECTATION VALUE OF S**2:             0.75517574

 Occupation number threshold for pseudo-canonical orbitals: 1.9990 (occupied), 0.0010 (virtual)

 Number of pseudo-canonical occupied orbitals per symmetry:    7
 Number of active natural orbitals per symmetry:               3

 Natural orbitals saved to record    2201.2 (Orbital set 3)

 Orbital spaces for UNO-CAS (Min. occupation: 0.020  Max. occupation: 1.980):

 Closed:        8
 Active:        1


 **********************************************************************************************************************************
 DATASETS  * FILE   NREC   LENGTH (MB)   RECORD NAMES
              1      20       30.84       500      610      700      900      950      970     1001      129      960     1100   
                                          VAR    BASINP    GEOM    SYMINP    ZMAT    AOBASIS   BASIS     P2S    ABASIS      S 
                                         1400     1410     1200     1210     1080     1600     1650     1300     1700     1800   
                                           T        V       H0       H01     AOSYM     SMH    MOLCAS    ERIS     OPER     GRID   

              2       7        5.33       700     1000      520     2200     1001     1800     2201   
                                         GEOM     BASIS   MCVARS     UHF     BASIS    GRID      UKS  

 PROGRAMS   *        TOTAL   UKS-SCF       INT   UHF-SCF       INT
 CPU TIMES  *         9.19      1.70      0.36      6.67      0.32
 REAL TIME  *        18.17 SEC
 DISK USED  *        37.61 MB
 **********************************************************************************************************************************


 PROGRAM * Intrinsic Basis Bonding Analysis (IBBA)          Author: G. Knizia

 Molecular orbitals read from record     2201.2  Type=UKS/ALPHA (state 1.1)
 Fock matrix read from record            2201.2  Type=UKS/TOTAL (state 1.1)
 Orbital energies read from record       2201.2  Type=UKS/ALPHA (state 1.1)
 Density matrix read from record         2201.2  Type=UKS/CHARGE (state 1.1)

 Number of core orbitals:           5 (   5 )
 Number of closed-shell orbitals:   3 (   3 )
 Number of active  orbitals:        1 (   1 )

 Basis set MINAO-AUTO-PP generated.      Number of basis functions:   11 

 Polarized AO type:                A = (O Ot + (1-O)(1-Ot)) P12
 Orthogonalization method:         Symmetric (Loewdin)
 Localization functional:          L = sum[A,i] <i|n_A|i>^4 -> max

 Localization group 1:   8 orbitals, occupancy  2.000
 Iterative localization: IB/PM,    5 iter; Final gradient 0.41E-10

 Bond order analysis:       [THRPRINT= 0.020]

   CEN ATOM   CEN ATOM     WIBERG.BO      RENORM.BO
     1   P  -   3   H       0.997007       1.000000
     1   P  -   2   H       0.997007       1.000000

     2   H  -   1   P       0.997007       1.000000

     3   H  -   1   P       0.997007       1.000000


 Valency analysis:

   CEN ATOM   TOT.VALENCE
     1   P       1.994014
     2   H       0.999638
     3   H       0.999638
 Localization group 2:   1 orbitals, occupancy  1.000
 Iterative localization: IB/PM,    1 iter; Final gradient 0.00E+00

 Bond order analysis:       [THRPRINT= 0.020]

   CEN ATOM   CEN ATOM     WIBERG.BO      RENORM.BO




 Valency analysis:

   CEN ATOM   TOT.VALENCE
     1   P      -0.000000
     2   H       0.000000
     3   H       0.000000

 Total charge composition:

   CEN ATOM         s          p       ELECTRONS ->P.CHARGE
     1   P       5.70693    9.33112     15.03805   -0.03805
     2   H       0.98098                 0.98098    0.01902
     3   H       0.98098                 0.98098    0.01902

 Total charge composition, AO contributions:

   CEN ATOM SHL      SPHERICAL COMPONENTS
     1   P  1s       1.99990
     1   P  2s       1.99359
     1   P  3s       1.71344
     1   P  2p       1.99937    1.99998    1.99934
     1   P  3p       0.96836    1.00002    1.36404

     2   H  1s       0.98098

     3   H  1s       0.98098

 Active orbital charges:

   CEN ATOM         s          p       ELECTRONS ->SPIN.DEN
     1   P       0.00000    1.00000      1.00000    1.00000
     2   H       0.00000                 0.00000    0.00000
     3   H       0.00000                 0.00000    0.00000

 Active orbital charges, AO contributions:

   CEN ATOM SHL      SPHERICAL COMPONENTS
     1   P  1s       0.00000
     1   P  2s       0.00000
     1   P  3s       0.00000
     1   P  2p       0.00000    0.00002    0.00000
     1   P  3p       0.00000    0.99998    0.00000

     2   H  1s       0.00000

     3   H  1s       0.00000

 Summary of localized orbital composition:   [THRPRINT= 0.020]

   ORB  GRP  ORB.ENERGY      CENTERS/CHARGES
     1   1   -75.825933      P  1   2.000
     2   1    -7.057043      P  1   2.000
     3   1    -4.926838      P  1   2.000
     4   1    -4.633700      P  1   2.000
     5   1    -4.626916      P  1   2.000
     6   1    -0.467829      P  1   1.019   H  2   0.980
     7   1    -0.467829      P  1   1.019   H  3   0.980
     8   1    -0.408394      P  1   2.000
     9   2    -0.182506      P  1   1.000

 Localized orbitals saved to record      2201.2  (orbital set 4)


 **********************************************************************************************************************************
 DATASETS  * FILE   NREC   LENGTH (MB)   RECORD NAMES
              1      20       30.84       500      610      700      900      950      970     1001      129      960     1100   
                                          VAR    BASINP    GEOM    SYMINP    ZMAT    AOBASIS   BASIS     P2S    ABASIS      S 
                                         1400     1410     1200     1210     1080     1600     1650     1300     1700     1800   
                                           T        V       H0       H01     AOSYM     SMH    MOLCAS    ERIS     OPER     GRID   

              2       7        5.34       700     1000      520     2200     1001     1800     2201   
                                         GEOM     BASIS   MCVARS     UHF     BASIS    GRID      UKS  

 PROGRAMS   *        TOTAL      IBBA   UKS-SCF       INT   UHF-SCF       INT
 CPU TIMES  *         9.21      0.02      1.70      0.36      6.67      0.32
 REAL TIME  *        18.20 SEC
 DISK USED  *        37.61 MB
 **********************************************************************************************************************************

 IBBA/6-31+G(D,P) energy=      0.000000000000

         UKS-SCF         UHF-SCF
   -342.48077127   -338.02846198
 **********************************************************************************************************************************
 Molpro calculation terminated
