
 Primary working directories    : /local/molpro.XSniZL7FuQ
 Secondary working directories  : /local/molpro.XSniZL7FuQ
 Wavefunction directory         : /local/
 Main file repository           : /local/molpro.XSniZL7FuQ/

 id        : simonbennie

 Nodes     nprocs
 node32-022    1

 Using customized tuning parameters: mindgm=1; mindgv=20; mindgc=4; mindgr=1; noblas=0; minvec=7
 default implementation of scratch files=df  

 memory,500,m
 geomtyp=xyz
 nosym
 noorient
 geometry={
 P          0.00000        0.00000        0.12641
 H          1.19134        0.00000       -0.63206
 H         -0.59567       -1.03173       -0.63206
 H         -0.59567        1.03173       -0.63206
 }
 basis={default,sto-3g}
 {uhf,direct;wf,18,1,0}
 
 basis={ default,6-31+G(d,p) }
 {uks,M06,direct;wf,18,1,0}
 {ibba,bonds=1}

 Variables initialized (920), CPU time= 0.00 sec
 Commands  initialized (754), CPU time= 0.01 sec, 615 directives.
 Default parameters read. Elapsed time= 0.09 sec

 Checking input...
 Passed
1


                                         ***  PROGRAM SYSTEM MOLPRO  ***
                                       Copyright, TTI GmbH Stuttgart, 2015
                                    Version 2018.0 linked Jul  6 2018 18:07:13


 **********************************************************************************************************************************
 LABEL *                                                                                 
  64 bit serial version                                                                  DATE: 10-Oct-18          TIME: 21:43:41  
 **********************************************************************************************************************************

 SHA1:             b58f8fddb9d75525be9261ebe3faf0e4279c479b
 **********************************************************************************************************************************
 SETTING GEOMTYP        =    XYZ

 Variable memory set to  500000000 words,  buffer space 

 ZSYMEL=NOSYM

 SETTING BASIS          =    STO-3G


 Recomputing integrals since basis changed


 Using spherical harmonics

 Library entry P      S STO-3G               selected for orbital group  1
 Library entry P      P STO-3G               selected for orbital group  1
 Library entry H      S STO-3G               selected for orbital group  2


 PROGRAM * SEWARD (Integral evaluation for generally contracted gaussian basis sets)     Author: Roland Lindh, 1990

 Geometry written to block  1 of record 700


 Point group  C1  



 ATOMIC COORDINATES

 NR  ATOM    CHARGE       X              Y              Z

   1  P      15.00    0.000000000    0.000000000    0.238880279
   2  H       1.00    2.251306321    0.000000000   -1.194420294
   3  H       1.00   -1.125653161   -1.949687134   -1.194420294
   4  H       1.00   -1.125653161    1.949687134   -1.194420294

 Bond lengths in Bohr (Angstrom)

 1-2  2.668844448  1-3  2.668843475  1-4  2.668843475
     ( 1.412291661)     ( 1.412291147)     ( 1.412291147)

 Bond angles

  2-1-3   93.86279220   2-1-4   93.86279220   3-1-4   93.86275176

 NUCLEAR CHARGE:                   18
 NUMBER OF PRIMITIVE AOS:          36
 NUMBER OF SYMMETRY AOS:           36
 NUMBER OF CONTRACTIONS:           12   (  12A   )
 NUMBER OF CORE ORBITALS:           5   (   5A   )
 NUMBER OF VALENCE ORBITALS:        7   (   7A   )


 NUCLEAR REPULSION ENERGY   17.63058802


 Eigenvalues of metric

         1 0.284E+00 0.443E+00 0.443E+00 0.635E+00 0.796E+00 0.947E+00 0.947E+00 0.118E+01


 Contracted 2-electron integrals neglected if value below      1.0D-11
 AO integral compression algorithm  1   Integral accuracy      1.0D-11

     0.262 MB (compressed) written to integral file (100.0%)


 NUMBER OF SORTED TWO-ELECTRON INTEGRALS:       3081.     BUFFER LENGTH:  32768
 NUMBER OF SEGMENTS:   1  SEGMENT LENGTH:       3081      RECORD LENGTH: 524288

 Memory used in sort:       0.56 MW

 SORT1 READ        4831. AND WROTE        2053. INTEGRALS IN      1 RECORDS. CPU TIME:     0.00 SEC, REAL TIME:     0.00 SEC
 SORT2 READ        2053. AND WROTE        3081. INTEGRALS IN      1 RECORDS. CPU TIME:     0.00 SEC, REAL TIME:     0.01 SEC

 FILE SIZES:   FILE 1:    30.3 MBYTE,  FILE 4:     4.2 MBYTE,   TOTAL:     34.5 MBYTE

 OPERATOR DM      FOR CENTER  0  COORDINATES:    0.000000    0.000000    0.000000


 **********************************************************************************************************************************
 DATASETS  * FILE   NREC   LENGTH (MB)   RECORD NAMES
              1      19       30.01       500      610      700      900      950      970     1000      129      960     1100   
                                          VAR    BASINP    GEOM    SYMINP    ZMAT    AOBASIS   BASIS     P2S    ABASIS      S 
                                         1400     1410     1200     1210     1080     1600     1650     1300     1700   
                                           T        V       H0       H01     AOSYM     SMH    MOLCAS    ERIS     OPER   

 PROGRAMS   *        TOTAL       INT
 CPU TIMES  *         0.56      0.42
 REAL TIME  *         0.88 SEC
 DISK USED  *        34.80 MB
 **********************************************************************************************************************************


 PROGRAM * UHF-SCF       Authors: W. Meyer, H.-J. Werner


 NUMBER OF ELECTRONS:       9+    9-    SPACE SYMMETRY=1    SPIN SYMMETRY: Singlet 
 CONVERGENCE THRESHOLDS:    1.00E-05 (Density)    1.00E-07 (Energy)
 INTEGRAL THRESHOLDS:       1.00E-11 (Initial)    1.00E-11 (Final)
 MAX. NUMBER OF ITERATIONS:       60
 INTERPOLATION TYPE:            DIIS
 INTERPOLATION STEPS:              2 (START)      1 (STEP)
 LEVEL SHIFTS:                 -0.20 (ALPHA)  -0.20 (BETA) 



 Orbital guess generated from atomic densities. Full valence occupancy:    9

 Molecular orbital dump at record        2200.2

 Initial alpha occupation   9
 Initial beta  occupation   9

 Direct Fock-matrix evaluation.        Author: H.-J. Werner (1996)

 Integral Threshold:                  0.1D-10

 ITERATION   DDIFF            GRAD            ENERGY        2-EL.EN.            DIPOLE MOMENTS         DIIS   CPU(IT)  CPU(TOT)
    1      0.000D+00      0.000D+00      -338.60201824    302.310483    0.00000   -0.00000   -0.79893    0      1.0      1.9
    2      0.362D-01      0.157D-01      -338.63165188    299.826758    0.00000   -0.00000   -0.39373    1      0.5      2.4
    3      0.137D-01      0.436D-02      -338.63447302    298.993700    0.00000   -0.00000   -0.24043    2      0.5      2.9
    4      0.201D-02      0.638D-03      -338.63453429    298.929335    0.00000   -0.00000   -0.22442    3      0.4      3.3
    5      0.133D-02      0.203D-03      -338.63454462    298.933094    0.00000   -0.00000   -0.22399    4      0.4      3.7
    6      0.155D-03      0.234D-04      -338.63454474    298.933082    0.00000   -0.00000   -0.22418    5      0.4      4.1
    7      0.283D-04      0.497D-05      -338.63454474    298.933146    0.00000   -0.00000   -0.22428    5      0.4      4.5
    8      0.456D-06      0.139D-06      -338.63454474    298.933147    0.00000   -0.00000   -0.22428    5      0.4      4.9
    9      0.102D-07      0.472D-08      -338.63454474    298.933146    0.00000   -0.00000   -0.22428    4      0.4      5.3

 Final alpha occupancy:   9
 Final beta  occupancy:   9

 !UHF STATE  1.1 Energy              -338.634544741811
 Nuclear energy                        17.63058802
 One-electron energy                 -505.73170591
 Two-electron energy                  149.46657315
 Virial quotient                       -1.01295588
 !UHF STATE  1.1 Dipole moment          0.00000005    -0.00000000    -0.22428360
 Dipole moment /Debye                   0.00000012    -0.00000000    -0.57003470

 Orbital energies for positive spin:

         1.1          2.1          3.1          4.1          5.1          6.1          7.1          8.1          9.1         10.1
    -78.935299    -7.248125    -5.071698    -5.071698    -5.069267    -0.801540    -0.452153    -0.452153    -0.297347     0.477348

        11.1
      0.477348

 Orbital energies for negative spin:

         1.1          2.1          3.1          4.1          5.1          6.1          7.1          8.1          9.1         10.1
    -78.935299    -7.248125    -5.071698    -5.071698    -5.069267    -0.801540    -0.452153    -0.452153    -0.297347     0.477348

        11.1
      0.477348


 HOMO      9.1    -0.297347 =      -8.0912eV
 LUMO     10.1     0.477348 =      12.9893eV
 LUMO-HOMO         0.774695 =      21.0805eV

 EXPECTATION VALUE OF S**2:             0.00000000

 Occupation number threshold for pseudo-canonical orbitals: 1.9990 (occupied), 0.0010 (virtual)

 Number of pseudo-canonical occupied orbitals per symmetry:    9
 Number of active natural orbitals per symmetry:               0

 Natural orbitals saved to record    2200.2 (Orbital set 3)

 Orbital spaces for UNO-CAS (Min. occupation: 0.020  Max. occupation: 1.980):

 Closed:        9
 Active:        0


 **********************************************************************************************************************************
 DATASETS  * FILE   NREC   LENGTH (MB)   RECORD NAMES
              1      19       30.01       500      610      700      900      950      970     1000      129      960     1100   
                                          VAR    BASINP    GEOM    SYMINP    ZMAT    AOBASIS   BASIS     P2S    ABASIS      S 
                                         1400     1410     1200     1210     1080     1600     1650     1300     1700   
                                           T        V       H0       H01     AOSYM     SMH    MOLCAS    ERIS     OPER   

              2       4        2.81       700     1000      520     2200   
                                         GEOM     BASIS   MCVARS     UHF  

 PROGRAMS   *        TOTAL   UHF-SCF       INT
 CPU TIMES  *         5.85      5.29      0.42
 REAL TIME  *         7.41 SEC
 DISK USED  *        34.80 MB
 **********************************************************************************************************************************
 SETTING BASIS          =    6-31+G(D,P)


 Recomputing integrals since basis changed


 Using spherical harmonics

 Library entry P      S 6-31G                selected for orbital group  1
 Library entry P      S 6-31++G              selected for orbital group  1
 Library entry P      P 6-31G                selected for orbital group  1
 Library entry P      P 6-31++G              selected for orbital group  1
 Library entry P      D 6-31G*               selected for orbital group  1
 Library entry H      S 6-31G                selected for orbital group  2
 Library entry H      P 6-31G**              selected for orbital group  2


 PROGRAM * SEWARD (Integral evaluation for generally contracted gaussian basis sets)     Author: Roland Lindh, 1990

 Geometry written to block  1 of record 700


 Point group  C1  



 ATOMIC COORDINATES

 NR  ATOM    CHARGE       X              Y              Z

   1  P      15.00    0.000000000    0.000000000    0.238880279
   2  H       1.00    2.251306321    0.000000000   -1.194420294
   3  H       1.00   -1.125653161   -1.949687134   -1.194420294
   4  H       1.00   -1.125653161    1.949687134   -1.194420294

 Bond lengths in Bohr (Angstrom)

 1-2  2.668844448  1-3  2.668843475  1-4  2.668843475
     ( 1.412291661)     ( 1.412291147)     ( 1.412291147)

 Bond angles

  2-1-3   93.86279220   2-1-4   93.86279220   3-1-4   93.86275176

 NUCLEAR CHARGE:                   18
 NUMBER OF PRIMITIVE AOS:          77
 NUMBER OF SYMMETRY AOS:           76
 NUMBER OF CONTRACTIONS:           37   (  37A   )
 NUMBER OF CORE ORBITALS:           5   (   5A   )
 NUMBER OF VALENCE ORBITALS:        7   (   7A   )


 NUCLEAR REPULSION ENERGY   17.63058802


 Eigenvalues of metric

         1 0.131E-01 0.791E-01 0.894E-01 0.894E-01 0.152E+00 0.170E+00 0.170E+00 0.292E+00


 Contracted 2-electron integrals neglected if value below      1.0D-11
 AO integral compression algorithm  1   Integral accuracy      1.0D-11

     1.311 MB (compressed) written to integral file ( 53.8%)


 NUMBER OF SORTED TWO-ELECTRON INTEGRALS:     247456.     BUFFER LENGTH:  32768
 NUMBER OF SEGMENTS:   1  SEGMENT LENGTH:     247456      RECORD LENGTH: 524288

 Memory used in sort:       0.80 MW

 SORT1 READ      328225. AND WROTE      197156. INTEGRALS IN      1 RECORDS. CPU TIME:     0.00 SEC, REAL TIME:     0.01 SEC
 SORT2 READ      197156. AND WROTE      247456. INTEGRALS IN      5 RECORDS. CPU TIME:     0.02 SEC, REAL TIME:     0.03 SEC

 FILE SIZES:   FILE 1:    31.4 MBYTE,  FILE 4:     4.2 MBYTE,   TOTAL:     35.6 MBYTE

 OPERATOR DM      FOR CENTER  0  COORDINATES:    0.000000    0.000000    0.000000


 **********************************************************************************************************************************
 DATASETS  * FILE   NREC   LENGTH (MB)   RECORD NAMES
              1      19       31.00       500      610      700      900      950      970     1001      129      960     1100   
                                          VAR    BASINP    GEOM    SYMINP    ZMAT    AOBASIS   BASIS     P2S    ABASIS      S 
                                         1400     1410     1200     1210     1080     1600     1650     1300     1700   
                                           T        V       H0       H01     AOSYM     SMH    MOLCAS    ERIS     OPER   

              2       5        2.82       700     1000      520     2200     1001   
                                         GEOM     BASIS   MCVARS     UHF     BASIS   

 PROGRAMS   *        TOTAL       INT   UHF-SCF       INT
 CPU TIMES  *         6.15      0.30      5.29      0.42
 REAL TIME  *         7.76 SEC
 DISK USED  *        38.45 MB
 **********************************************************************************************************************************

 Density functional group M06=XC-M06
 Functional: XC-M06(via MFM 1.6)                                               Gradient terms: 1
 Use libxcgrid:  F
 Use grid at  1800.2


 Exact exchange will be calculated, factor:  0.2700

 Functional: XC-M06                    Factor:  1.0000

 Generated new metagrid on record  1800.2 with target accuracy 1.0D-06 and 16336 points in CPU time    0.4
 Computed new grid on record 1800.1 in CPU time    0.4
   33441 words reserved for DFT integration

 PROGRAM * UKS-SCF (Unrestricted Kohn-Sham)     Authors: W. Meyer, H.-J. Werner, P.J. Knowles, 1993

 NUMBER OF ELECTRONS:       9+    9-    SPACE SYMMETRY=1    SPIN SYMMETRY: Singlet 
 CONVERGENCE THRESHOLDS:    1.00E-05 (Density)    1.00E-06 (Energy)
 MAX. NUMBER OF ITERATIONS:       60
 INTERPOLATION TYPE:            DIIS
 INTERPOLATION STEPS:              2 (START)      1 (STEP)
 LEVEL SHIFTS:                 -0.20 (ALPHA)  -0.20 (BETA) 



 Use fine grid record 1800.2 for energy threshold  1.0D-06
 Molecular orbitals read from record     2200.2  Type=UHF/ALPHA (state 1.1)

 Present basis size:      37
 Previous basis size:     12
 Previous occupation:      9
 Previous closed-shells:   9
 Previous core-orbitals:   5
 Present occupation:       9
 Present closed-shells:    9
 Present core-orbitals:    5
 Wavefunction symmetry:    1   Singlet 

 Orbital overlap <old|new>:  < 1.1| 1.1> = 0.999841   < 2.1| 2.1> = 0.999346   < 3.1| 3.1> = 0.998510   < 4.1| 4.1> = 0.998510
                             < 5.1| 5.1> = 0.998501   < 6.1| 6.1> = 0.999706   < 7.1| 7.1> = 0.999803   < 8.1| 8.1> = 0.999803
                             < 9.1| 9.1> = 0.999585

 Molecular orbitals read from record     2200.2  Type=UHF/BETA (state 1.1)

 Present basis size:      37
 Previous basis size:     12
 Previous occupation:      9
 Previous closed-shells:   9
 Previous core-orbitals:   5
 Present occupation:       9
 Present closed-shells:    9
 Present core-orbitals:    5
 Wavefunction symmetry:    1   Singlet 

 Orbital overlap <old|new>:  < 1.1| 1.1> = 0.999841   < 2.1| 2.1> = 0.999346   < 3.1| 3.1> = 0.998510   < 4.1| 4.1> = 0.998510
                             < 5.1| 5.1> = 0.998501   < 6.1| 6.1> = 0.999706   < 7.1| 7.1> = 0.999803   < 8.1| 8.1> = 0.999803
                             < 9.1| 9.1> = 0.999585


 Molecular orbital dump at record        2201.2

 Initial alpha occupation   9
 Initial beta  occupation   9

 ITERATION    DDIFF          GRAD             ENERGY        2-EL.EN.            DIPOLE MOMENTS         DIIS
    1      0.000D+00      0.000D+00      -342.94981880    335.559591    0.00000   -0.00000   -0.23212    0
    2      0.255D-01      0.156D-01      -343.08783111    333.003457    0.00148   -0.00000   -0.17480    1
    3      0.785D-02      0.308D-02      -343.10049995    332.226134    0.00183   -0.00000   -0.25000    2
    4      0.549D-02      0.916D-03      -343.10271909    331.785059    0.00175   -0.00000   -0.29694    3
    5      0.192D-02      0.230D-03      -343.10288129    331.818702    0.00179   -0.00000   -0.32386    4
    6      0.356D-03      0.716D-04      -343.10289109    331.769775    0.00177   -0.00000   -0.32411    5
    7      0.897D-04      0.141D-04      -343.10289171    331.773589    0.00173   -0.00000   -0.32557    6
    8      0.147D-04      0.259D-05      -343.10289173    331.773367    0.00172   -0.00000   -0.32568    6
    9      0.166D-05      0.289D-06      -343.10289173    331.773312    0.00172   -0.00000   -0.32569    5
   10      0.258D-06      0.467D-07      -343.10289173    331.773319    0.00172   -0.00000   -0.32568    5

 Final alpha occupancy:   9
 Final beta  occupancy:   9

 !UKS STATE  1.1 Energy              -343.102891731860
 Nuclear energy                        17.63058802
 One-electron energy                 -508.68901974
 Two-electron energy                  165.88665960
 Density functional                   -17.93111960     XC-M06=-17.93111960
 Virial quotient                       -1.00212948
 !UKS STATE  1.1 Dipole moment          0.00172169    -0.00000000    -0.32568186
 Dipole moment /Debye                   0.00437581    -0.00000000    -0.82774651

 Orbital energies for positive spin:

         1.1          2.1          3.1          4.1          5.1          6.1          7.1          8.1          9.1         10.1
    -77.227922    -6.655004    -4.774135    -4.774102    -4.769797    -0.662629    -0.397254    -0.396765    -0.281923    -0.015520

        11.1
      0.005801

 Orbital energies for negative spin:

         1.1          2.1          3.1          4.1          5.1          6.1          7.1          8.1          9.1         10.1
    -77.227922    -6.655004    -4.774135    -4.774102    -4.769797    -0.662629    -0.397254    -0.396765    -0.281923    -0.015520

        11.1
      0.005801


 HOMO      9.1    -0.281923 =      -7.6715eV
 LUMO     10.1    -0.015520 =      -0.4223eV
 LUMO-HOMO         0.266403 =       7.2492eV

 EXPECTATION VALUE OF S**2:            -0.00000000

 Occupation number threshold for pseudo-canonical orbitals: 1.9990 (occupied), 0.0010 (virtual)

 Number of pseudo-canonical occupied orbitals per symmetry:    9
 Number of active natural orbitals per symmetry:               0

 Natural orbitals saved to record    2201.2 (Orbital set 3)

 Orbital spaces for UNO-CAS (Min. occupation: 0.020  Max. occupation: 1.980):

 Closed:        9
 Active:        0


 **********************************************************************************************************************************
 DATASETS  * FILE   NREC   LENGTH (MB)   RECORD NAMES
              1      20       31.53       500      610      700      900      950      970     1001      129      960     1100   
                                          VAR    BASINP    GEOM    SYMINP    ZMAT    AOBASIS   BASIS     P2S    ABASIS      S 
                                         1400     1410     1200     1210     1080     1600     1650     1300     1700     1800   
                                           T        V       H0       H01     AOSYM     SMH    MOLCAS    ERIS     OPER     GRID   

              2       7        5.37       700     1000      520     2200     1001     1800     2201   
                                         GEOM     BASIS   MCVARS     UHF     BASIS    GRID      UKS  

 PROGRAMS   *        TOTAL   UKS-SCF       INT   UHF-SCF       INT
 CPU TIMES  *         8.36      2.20      0.30      5.29      0.42
 REAL TIME  *        10.33 SEC
 DISK USED  *        38.45 MB
 **********************************************************************************************************************************


 PROGRAM * Intrinsic Basis Bonding Analysis (IBBA)          Author: G. Knizia

 Molecular orbitals read from record     2201.2  Type=UKS/ALPHA (state 1.1)
 Fock matrix read from record            2201.2  Type=UKS/TOTAL (state 1.1)
 Orbital energies read from record       2201.2  Type=UKS/ALPHA (state 1.1)
 Density matrix read from record         2201.2  Type=UKS/CHARGE (state 1.1)

 Number of core orbitals:           5 (   5 )
 Number of closed-shell orbitals:   4 (   4 )

 Basis set MINAO-AUTO-PP generated.      Number of basis functions:   12 

 Polarized AO type:                A = (O Ot + (1-O)(1-Ot)) P12
 Orthogonalization method:         Symmetric (Loewdin)
 Localization functional:          L = sum[A,i] <i|n_A|i>^4 -> max

 Localization group 1:   9 orbitals, occupancy  2.000
 Iterative localization: IB/PM,    5 iter; Final gradient 0.33E-08

 Bond order analysis:       [THRPRINT= 0.020]

   CEN ATOM   CEN ATOM     WIBERG.BO      RENORM.BO
     1   P  -   2   H       0.995910       1.000000
     1   P  -   3   H       0.995886       1.000000
     1   P  -   4   H       0.995886       1.000000

     2   H  -   1   P       0.995910       1.000000

     3   H  -   1   P       0.995886       1.000000

     4   H  -   1   P       0.995886       1.000000


 Valency analysis:

   CEN ATOM   TOT.VALENCE
     1   P       2.987682
     2   H       0.999711
     3   H       0.999708
     4   H       0.999708

 Total charge composition:

   CEN ATOM         s          p       ELECTRONS ->P.CHARGE
     1   P       5.53998    9.40884     14.94882    0.05118
     2   H       1.01700                 1.01700   -0.01700
     3   H       1.01709                 1.01709   -0.01709
     4   H       1.01709                 1.01709   -0.01709

 Total charge composition, AO contributions:

   CEN ATOM SHL      SPHERICAL COMPONENTS
     1   P  1s       1.99985
     1   P  2s       1.99085
     1   P  3s       1.54928
     1   P  2p       1.99942    1.99942    1.99945
     1   P  3p       0.94004    0.93965    1.53086

     2   H  1s       1.01700

     3   H  1s       1.01709

     4   H  1s       1.01709

 Summary of localized orbital composition:   [THRPRINT= 0.020]

   ORB  GRP  ORB.ENERGY      CENTERS/CHARGES
     1   1   -76.280675      P  1   2.000
     2   1    -7.297845      P  1   2.000
     3   1    -4.949045      P  1   2.000
     4   1    -4.768354      P  1   2.000
     5   1    -4.768312      P  1   2.000
     6   1    -0.499398      H  2   1.016   P  1   0.983
     7   1    -0.499061      H  3   1.016   P  1   0.983
     8   1    -0.499061      H  4   1.016   P  1   0.983
     9   1    -0.377778      P  1   2.000

 Localized orbitals saved to record      2201.2  (orbital set 4)


 **********************************************************************************************************************************
 DATASETS  * FILE   NREC   LENGTH (MB)   RECORD NAMES
              1      20       31.53       500      610      700      900      950      970     1001      129      960     1100   
                                          VAR    BASINP    GEOM    SYMINP    ZMAT    AOBASIS   BASIS     P2S    ABASIS      S 
                                         1400     1410     1200     1210     1080     1600     1650     1300     1700     1800   
                                           T        V       H0       H01     AOSYM     SMH    MOLCAS    ERIS     OPER     GRID   

              2       7        5.38       700     1000      520     2200     1001     1800     2201   
                                         GEOM     BASIS   MCVARS     UHF     BASIS    GRID      UKS  

 PROGRAMS   *        TOTAL      IBBA   UKS-SCF       INT   UHF-SCF       INT
 CPU TIMES  *         8.37      0.02      2.20      0.30      5.29      0.42
 REAL TIME  *        10.48 SEC
 DISK USED  *        38.45 MB
 **********************************************************************************************************************************

 IBBA/6-31+G(D,P) energy=      0.000000000000

         UKS-SCF         UHF-SCF
   -343.10289173   -338.63454474
 **********************************************************************************************************************************
 Molpro calculation terminated
