
 Primary working directories    : /local/molpro.2goSnNEin0
 Secondary working directories  : /local/molpro.2goSnNEin0
 Wavefunction directory         : /local/
 Main file repository           : /local/molpro.2goSnNEin0/

 id        : simonbennie

 Nodes     nprocs
 node32-016    1

 Using customized tuning parameters: mindgm=1; mindgv=20; mindgc=4; mindgr=1; noblas=0; minvec=7
 default implementation of scratch files=df  

 memory,500,m
 geomtyp=xyz
 nosym
 noorient
 geometry={
 P          0.00000        0.00000        0.12641
 H          1.19134        0.00000       -0.63206
 H         -0.59567       -1.03173       -0.63206
 H         -0.59567        1.03173       -0.63206
 }
 basis={default,sto-3g}
 {hf,direct;wf,18,1,0}
 
 basis={ default,6-31+G(d,p) }
 {hf,direct;wf,18,1,0}
 {ks,M06,direct;maxit,0;wf,18,1,0}
 {ibba,bonds=1}

 Variables initialized (920), CPU time= 0.00 sec
 Commands  initialized (754), CPU time= 0.01 sec, 615 directives.
 Default parameters read. Elapsed time= 0.09 sec

 Checking input...
 Passed
1


                                         ***  PROGRAM SYSTEM MOLPRO  ***
                                       Copyright, TTI GmbH Stuttgart, 2015
                                    Version 2018.0 linked Jul  6 2018 18:07:13


 **********************************************************************************************************************************
 LABEL *                                                                                 
  64 bit serial version                                                                  DATE: 10-Oct-18          TIME: 21:35:27  
 **********************************************************************************************************************************

 SHA1:             b58f8fddb9d75525be9261ebe3faf0e4279c479b
 **********************************************************************************************************************************
 SETTING GEOMTYP        =    XYZ

 Variable memory set to  500000000 words,  buffer space 

 ZSYMEL=NOSYM

 SETTING BASIS          =    STO-3G


 Recomputing integrals since basis changed


 Using spherical harmonics

 Library entry P      S STO-3G               selected for orbital group  1
 Library entry P      P STO-3G               selected for orbital group  1
 Library entry H      S STO-3G               selected for orbital group  2


 PROGRAM * SEWARD (Integral evaluation for generally contracted gaussian basis sets)     Author: Roland Lindh, 1990

 Geometry written to block  1 of record 700


 Point group  C1  



 ATOMIC COORDINATES

 NR  ATOM    CHARGE       X              Y              Z

   1  P      15.00    0.000000000    0.000000000    0.238880279
   2  H       1.00    2.251306321    0.000000000   -1.194420294
   3  H       1.00   -1.125653161   -1.949687134   -1.194420294
   4  H       1.00   -1.125653161    1.949687134   -1.194420294

 Bond lengths in Bohr (Angstrom)

 1-2  2.668844448  1-3  2.668843475  1-4  2.668843475
     ( 1.412291661)     ( 1.412291147)     ( 1.412291147)

 Bond angles

  2-1-3   93.86279220   2-1-4   93.86279220   3-1-4   93.86275176

 NUCLEAR CHARGE:                   18
 NUMBER OF PRIMITIVE AOS:          36
 NUMBER OF SYMMETRY AOS:           36
 NUMBER OF CONTRACTIONS:           12   (  12A   )
 NUMBER OF CORE ORBITALS:           5   (   5A   )
 NUMBER OF VALENCE ORBITALS:        7   (   7A   )


 NUCLEAR REPULSION ENERGY   17.63058802


 Eigenvalues of metric

         1 0.284E+00 0.443E+00 0.443E+00 0.635E+00 0.796E+00 0.947E+00 0.947E+00 0.118E+01


 Contracted 2-electron integrals neglected if value below      1.0D-11
 AO integral compression algorithm  1   Integral accuracy      1.0D-11

     0.262 MB (compressed) written to integral file (100.0%)


 NUMBER OF SORTED TWO-ELECTRON INTEGRALS:       3081.     BUFFER LENGTH:  32768
 NUMBER OF SEGMENTS:   1  SEGMENT LENGTH:       3081      RECORD LENGTH: 524288

 Memory used in sort:       0.56 MW

 SORT1 READ        4831. AND WROTE        2053. INTEGRALS IN      1 RECORDS. CPU TIME:     0.00 SEC, REAL TIME:     0.01 SEC
 SORT2 READ        2053. AND WROTE        3081. INTEGRALS IN      1 RECORDS. CPU TIME:     0.00 SEC, REAL TIME:     0.00 SEC

 FILE SIZES:   FILE 1:    30.3 MBYTE,  FILE 4:     4.2 MBYTE,   TOTAL:     34.5 MBYTE

 OPERATOR DM      FOR CENTER  0  COORDINATES:    0.000000    0.000000    0.000000


 **********************************************************************************************************************************
 DATASETS  * FILE   NREC   LENGTH (MB)   RECORD NAMES
              1      19       30.01       500      610      700      900      950      970     1000      129      960     1100   
                                          VAR    BASINP    GEOM    SYMINP    ZMAT    AOBASIS   BASIS     P2S    ABASIS      S 
                                         1400     1410     1200     1210     1080     1600     1650     1300     1700   
                                           T        V       H0       H01     AOSYM     SMH    MOLCAS    ERIS     OPER   

 PROGRAMS   *        TOTAL       INT
 CPU TIMES  *         0.53      0.40
 REAL TIME  *         0.85 SEC
 DISK USED  *        34.80 MB
 **********************************************************************************************************************************


 PROGRAM * RHF-SCF (CLOSED SHELL)       Authors: W. Meyer, H.-J. Werner


 NUMBER OF ELECTRONS:       9+    9-    SPACE SYMMETRY=1    SPIN SYMMETRY: Singlet 
 CONVERGENCE THRESHOLDS:    1.00E-05 (Density)    1.00E-07 (Energy)
 INTEGRAL THRESHOLDS:       1.00E-11 (Initial)    1.00E-11 (Final)
 MAX. NUMBER OF ITERATIONS:       60
 INTERPOLATION TYPE:            DIIS
 INTERPOLATION STEPS:              2 (START)      1 (STEP)
 LEVEL SHIFTS:                  0.00 (CLOSED)  0.00 (OPEN) 



 Orbital guess generated from atomic densities. Full valence occupancy:    9

 Molecular orbital dump at record        2100.2

 Initial occupancy:   9

 Direct Fock-matrix evaluation.        Authors: Roland Lindh & Martin Schuetz (1993/96)

 Integral Threshold:                  0.1D-10
 Threshold for writing integrals:     0.1D-06
 Prescreening on density matrix:        ON 
 Calculation will be performed fully direct        

 ITERATION   DDIFF            GRAD            ENERGY        2-EL.EN.            DIPOLE MOMENTS         DIIS   CPU(IT)  CPU(TOT)
    1      0.000D+00      0.000D+00      -338.60201824    302.310483    0.00000   -0.00000   -0.79893    0      0.9      1.7     start
    2      0.000D+00      0.266D-01      -338.63426607    298.697443    0.00000   -0.00000   -0.18240    1      0.4      2.1     diag
    3      0.543D-01      0.279D-02      -338.63452768    298.932991    0.00000   -0.00000   -0.22286    2      0.4      2.5     diag
    4      0.529D-02      0.457D-03      -338.63454409    298.934047    0.00000   -0.00000   -0.22426    3      0.4      3.0     diag
    5      0.171D-02      0.870D-04      -338.63454474    298.933028    0.00000   -0.00000   -0.22430    4      0.4      3.4     diag
    6      0.395D-03      0.383D-05      -338.63454474    298.933149    0.00000   -0.00000   -0.22429    5      0.4      3.9     diag
    7      0.896D-05      0.131D-06      -338.63454474    298.933145    0.00000   -0.00000   -0.22428    0      0.4      4.3     orth

 Final occupancy:   9

 !RHF STATE  1.1 Energy              -338.634544741575
 Nuclear energy                        17.63058802
 One-electron energy                 -505.73170546
 Two-electron energy                  149.46657270
 Virial quotient                       -1.01295588
 !RHF STATE  1.1 Dipole moment          0.00000005    -0.00000000    -0.22428373
 Dipole moment /Debye                   0.00000012    -0.00000000    -0.57003505

 Orbital energies:

         1.1          2.1          3.1          4.1          5.1          6.1          7.1          8.1          9.1         10.1
    -78.935299    -7.248125    -5.071698    -5.071698    -5.069267    -0.801540    -0.452153    -0.452153    -0.297347     0.477348

        11.1
      0.477348


 HOMO      9.1    -0.297347 =      -8.0912eV
 LUMO     10.1     0.477348 =      12.9893eV
 LUMO-HOMO         0.774695 =      21.0805eV


 **********************************************************************************************************************************
 DATASETS  * FILE   NREC   LENGTH (MB)   RECORD NAMES
              1      19       30.01       500      610      700      900      950      970     1000      129      960     1100   
                                          VAR    BASINP    GEOM    SYMINP    ZMAT    AOBASIS   BASIS     P2S    ABASIS      S 
                                         1400     1410     1200     1210     1080     1600     1650     1300     1700   
                                           T        V       H0       H01     AOSYM     SMH    MOLCAS    ERIS     OPER   

              2       4        2.80       700     1000      520     2100   
                                         GEOM     BASIS   MCVARS     RHF  

 PROGRAMS   *        TOTAL    HF-SCF       INT
 CPU TIMES  *         4.83      4.30      0.40
 REAL TIME  *         7.26 SEC
 DISK USED  *        34.80 MB
 **********************************************************************************************************************************
 SETTING BASIS          =    6-31+G(D,P)


 Recomputing integrals since basis changed


 Using spherical harmonics

 Library entry P      S 6-31G                selected for orbital group  1
 Library entry P      S 6-31++G              selected for orbital group  1
 Library entry P      P 6-31G                selected for orbital group  1
 Library entry P      P 6-31++G              selected for orbital group  1
 Library entry P      D 6-31G*               selected for orbital group  1
 Library entry H      S 6-31G                selected for orbital group  2
 Library entry H      P 6-31G**              selected for orbital group  2


 PROGRAM * SEWARD (Integral evaluation for generally contracted gaussian basis sets)     Author: Roland Lindh, 1990

 Geometry written to block  1 of record 700


 Point group  C1  



 ATOMIC COORDINATES

 NR  ATOM    CHARGE       X              Y              Z

   1  P      15.00    0.000000000    0.000000000    0.238880279
   2  H       1.00    2.251306321    0.000000000   -1.194420294
   3  H       1.00   -1.125653161   -1.949687134   -1.194420294
   4  H       1.00   -1.125653161    1.949687134   -1.194420294

 Bond lengths in Bohr (Angstrom)

 1-2  2.668844448  1-3  2.668843475  1-4  2.668843475
     ( 1.412291661)     ( 1.412291147)     ( 1.412291147)

 Bond angles

  2-1-3   93.86279220   2-1-4   93.86279220   3-1-4   93.86275176

 NUCLEAR CHARGE:                   18
 NUMBER OF PRIMITIVE AOS:          77
 NUMBER OF SYMMETRY AOS:           76
 NUMBER OF CONTRACTIONS:           37   (  37A   )
 NUMBER OF CORE ORBITALS:           5   (   5A   )
 NUMBER OF VALENCE ORBITALS:        7   (   7A   )


 NUCLEAR REPULSION ENERGY   17.63058802


 Eigenvalues of metric

         1 0.131E-01 0.791E-01 0.894E-01 0.894E-01 0.152E+00 0.170E+00 0.170E+00 0.292E+00


 Contracted 2-electron integrals neglected if value below      1.0D-11
 AO integral compression algorithm  1   Integral accuracy      1.0D-11

     1.311 MB (compressed) written to integral file ( 53.8%)


 NUMBER OF SORTED TWO-ELECTRON INTEGRALS:     247456.     BUFFER LENGTH:  32768
 NUMBER OF SEGMENTS:   1  SEGMENT LENGTH:     247456      RECORD LENGTH: 524288

 Memory used in sort:       0.80 MW

 SORT1 READ      328225. AND WROTE      197156. INTEGRALS IN      1 RECORDS. CPU TIME:     0.01 SEC, REAL TIME:     0.01 SEC
 SORT2 READ      197156. AND WROTE      247456. INTEGRALS IN      5 RECORDS. CPU TIME:     0.02 SEC, REAL TIME:     0.03 SEC

 FILE SIZES:   FILE 1:    31.4 MBYTE,  FILE 4:     4.2 MBYTE,   TOTAL:     35.6 MBYTE

 OPERATOR DM      FOR CENTER  0  COORDINATES:    0.000000    0.000000    0.000000


 **********************************************************************************************************************************
 DATASETS  * FILE   NREC   LENGTH (MB)   RECORD NAMES
              1      19       31.00       500      610      700      900      950      970     1001      129      960     1100   
                                          VAR    BASINP    GEOM    SYMINP    ZMAT    AOBASIS   BASIS     P2S    ABASIS      S 
                                         1400     1410     1200     1210     1080     1600     1650     1300     1700   
                                           T        V       H0       H01     AOSYM     SMH    MOLCAS    ERIS     OPER   

              2       5        2.82       700     1000      520     2100     1001   
                                         GEOM     BASIS   MCVARS     RHF     BASIS   

 PROGRAMS   *        TOTAL       INT    HF-SCF       INT
 CPU TIMES  *         5.15      0.32      4.30      0.40
 REAL TIME  *         7.66 SEC
 DISK USED  *        38.45 MB
 **********************************************************************************************************************************


 PROGRAM * RHF-SCF (CLOSED SHELL)       Authors: W. Meyer, H.-J. Werner


 NUMBER OF ELECTRONS:       9+    9-    SPACE SYMMETRY=1    SPIN SYMMETRY: Singlet 
 CONVERGENCE THRESHOLDS:    1.00E-05 (Density)    1.00E-07 (Energy)
 INTEGRAL THRESHOLDS:       1.00E-11 (Initial)    1.00E-11 (Final)
 MAX. NUMBER OF ITERATIONS:       60
 INTERPOLATION TYPE:            DIIS
 INTERPOLATION STEPS:              2 (START)      1 (STEP)
 LEVEL SHIFTS:                  0.00 (CLOSED)  0.00 (OPEN) 



 Molecular orbitals read from record     2100.2  Type=RHF/CANONICAL (state 1.1)

 Present basis size:      37
 Previous basis size:     12
 Previous occupation:      9
 Previous closed-shells:   9
 Previous core-orbitals:   5
 Present occupation:       9
 Present closed-shells:    9
 Present core-orbitals:    5
 Wavefunction symmetry:    1   Singlet 

 Orbital overlap <old|new>:  < 1.1| 1.1> = 0.999841   < 2.1| 2.1> = 0.999346   < 3.1| 3.1> = 0.998510   < 4.1| 4.1> = 0.998510
                             < 5.1| 5.1> = 0.998501   < 6.1| 6.1> = 0.999706   < 7.1| 7.1> = 0.999803   < 8.1| 8.1> = 0.999803
                             < 9.1| 9.1> = 0.999585


 Molecular orbital dump at record        2101.2

 Direct Fock-matrix evaluation.        Authors: Roland Lindh & Martin Schuetz (1993/96)

 Integral Threshold:                  0.1D-10
 Threshold for writing integrals:     0.1D-06
 Prescreening on density matrix:        ON 
 Calculation will be performed fully direct        

 ITERATION   DDIFF            GRAD            ENERGY        2-EL.EN.            DIPOLE MOMENTS         DIIS   CPU(IT)  CPU(TOT)
    1      0.000D+00      0.000D+00      -342.27434270    300.677219    0.00000   -0.00000   -0.23212    0      1.0      1.1     start
    2      0.000D+00      0.270D-01      -342.44710482    296.626106   -0.00000    0.00000   -0.08208    1      0.5      1.5     diag
    3      0.317D-01      0.396D-02      -342.45325980    296.880679   -0.00000    0.00000   -0.26815    2      0.5      2.0     diag
    4      0.643D-02      0.696D-03      -342.45362797    296.685460   -0.00000    0.00000   -0.29184    3      0.5      2.5     diag
    5      0.190D-02      0.194D-03      -342.45366008    296.707763   -0.00000    0.00000   -0.30986    4      0.5      3.0     diag
    6      0.618D-03      0.353D-04      -342.45366141    296.699871   -0.00000    0.00000   -0.31326    5      0.5      3.5     diag
    7      0.119D-03      0.472D-05      -342.45366144    296.700299   -0.00000    0.00000   -0.31377    6      0.5      4.0     diag
    8      0.153D-04      0.105D-05      -342.45366144    296.700242   -0.00000    0.00000   -0.31391    7      0.6      4.6     orth
    9      0.414D-05      0.205D-06      -342.45366144    296.700227   -0.00000    0.00000   -0.31392    0      0.6      5.1     orth

 Final occupancy:   9

 !RHF STATE  1.1 Energy              -342.453661439354
 Nuclear energy                        17.63058802
 One-electron energy                 -508.43436318
 Two-electron energy                  148.35011373
 Virial quotient                       -0.99979835
 !RHF STATE  1.1 Dipole moment         -0.00000013     0.00000000    -0.31392383
 Dipole moment /Debye                  -0.00000034     0.00000000    -0.79786253

 Orbital energies:

         1.1          2.1          3.1          4.1          5.1          6.1          7.1          8.1          9.1         10.1
    -79.933082    -7.489482    -5.382855    -5.382855    -5.381299    -0.860298    -0.525124    -0.525124    -0.386950     0.067937

        11.1
      0.091991


 HOMO      9.1    -0.386950 =     -10.5294eV
 LUMO     10.1     0.067937 =       1.8487eV
 LUMO-HOMO         0.454887 =      12.3781eV


 **********************************************************************************************************************************
 DATASETS  * FILE   NREC   LENGTH (MB)   RECORD NAMES
              1      19       31.00       500      610      700      900      950      970     1001      129      960     1100   
                                          VAR    BASINP    GEOM    SYMINP    ZMAT    AOBASIS   BASIS     P2S    ABASIS      S 
                                         1400     1410     1200     1210     1080     1600     1650     1300     1700   
                                           T        V       H0       H01     AOSYM     SMH    MOLCAS    ERIS     OPER   

              2       6        5.33       700     1000      520     2100     1001     2101   
                                         GEOM     BASIS   MCVARS     RHF     BASIS     RHF  

 PROGRAMS   *        TOTAL    HF-SCF       INT    HF-SCF       INT
 CPU TIMES  *        10.27      5.12      0.32      4.30      0.40
 REAL TIME  *        13.18 SEC
 DISK USED  *        38.45 MB
 **********************************************************************************************************************************

 Density functional group M06=XC-M06
 Functional: XC-M06(via MFM 1.6)                                               Gradient terms: 1
 Use libxcgrid:  F
 Use grid at  1800.2


 Exact exchange will be calculated, factor:  0.2700

 Functional: XC-M06                    Factor:  1.0000

 Generated new metagrid on record  1800.2 with target accuracy 1.0D-06 and 16336 points in CPU time    0.4
 Computed new grid on record 1800.1 in CPU time    0.4
   33441 words reserved for DFT integration

 PROGRAM * RKS-SCF (Restricted closed shell Kohn-Sham)     Authors: W. Meyer, H.-J. Werner, P.J. Knowles, 1993

 NUMBER OF ELECTRONS:       9+    9-    SPACE SYMMETRY=1    SPIN SYMMETRY: Singlet 
 CONVERGENCE THRESHOLDS:    1.00E-05 (Density)    1.00E-06 (Energy)
 MAX. NUMBER OF ITERATIONS:        0
 INTERPOLATION TYPE:            DIIS
 INTERPOLATION STEPS:              2 (START)      1 (STEP)
 LEVEL SHIFTS:                  0.00 (CLOSED)  0.00 (OPEN) 



 Use fine grid record 1800.2 for energy threshold  1.0D-06
 Molecular orbitals read from record     2101.2  Type=RHF/CANONICAL (state 1.1)

 Molecular orbital dump at record        2102.2

 ITERATION    DDIFF          GRAD             ENERGY        2-EL.EN.            DIPOLE MOMENTS         DIIS   ORB.
    1      0.000D+00      0.000D+00      -343.09685124    331.272250   -0.00000    0.00000   -0.31392    0    start

 Final occupancy:   9

 !RKS STATE  1.1 Energy              -343.096851235378
 Nuclear energy                        17.63058802
 One-electron energy                 -508.43436318
 Two-electron energy                  165.63612498
 SCF exchange energy                  -23.67946747     Factor= 0.2700
 Density functional                   -17.92920105     XC-M06=-17.92920105
 Virial quotient                       -1.00167615
 !RKS STATE  1.1 Dipole moment         -0.00000013     0.00000000    -0.31392383
 Dipole moment /Debye                  -0.00000034     0.00000000    -0.79786253

 Orbital energies:

         1.1          2.1          3.1          4.1          5.1          6.1          7.1          8.1          9.1         10.1
    -79.933082    -7.489482    -5.382855    -5.382855    -5.381299    -0.860298    -0.525124    -0.525124    -0.386950     0.067937

        11.1
      0.091991


 HOMO      9.1    -0.386950 =     -10.5294eV
 LUMO     10.1     0.067937 =       1.8487eV
 LUMO-HOMO         0.454887 =      12.3781eV


 **********************************************************************************************************************************
 DATASETS  * FILE   NREC   LENGTH (MB)   RECORD NAMES
              1      20       31.53       500      610      700      900      950      970     1001      129      960     1100   
                                          VAR    BASINP    GEOM    SYMINP    ZMAT    AOBASIS   BASIS     P2S    ABASIS      S 
                                         1400     1410     1200     1210     1080     1600     1650     1300     1700     1800   
                                           T        V       H0       H01     AOSYM     SMH    MOLCAS    ERIS     OPER     GRID   

              2       8        7.88       700     1000      520     2100     1001     2101     1800     2102   
                                         GEOM     BASIS   MCVARS     RHF     BASIS     RHF     GRID      RKS  

 PROGRAMS   *        TOTAL    KS-SCF    HF-SCF       INT    HF-SCF       INT
 CPU TIMES  *        10.87      0.59      5.12      0.32      4.30      0.40
 REAL TIME  *        13.79 SEC
 DISK USED  *        39.45 MB
 **********************************************************************************************************************************


 PROGRAM * Intrinsic Basis Bonding Analysis (IBBA)          Author: G. Knizia

 Molecular orbitals read from record     2102.2  Type=RKS/CANONICAL (state 1.1)
 Fock matrix read from record            2102.2  Type=RKS/TOTAL (state 1.1)
 Orbital energies read from record       2102.2  Type=RKS/CANONICAL (state 1.1)
 Density matrix read from record         2102.2  Type=RKS/CHARGE (state 1.1)

 Number of core orbitals:           5 (   5 )
 Number of closed-shell orbitals:   4 (   4 )

 Basis set MINAO-AUTO-PP generated.      Number of basis functions:   12 

 Polarized AO type:                A = (O Ot + (1-O)(1-Ot)) P12
 Orthogonalization method:         Symmetric (Loewdin)
 Localization functional:          L = sum[A,i] <i|n_A|i>^4 -> max

 Localization group 1:   9 orbitals, occupancy  2.000
 Iterative localization: IB/PM,    5 iter; Final gradient 0.25E-08

 Bond order analysis:       [THRPRINT= 0.020]

   CEN ATOM   CEN ATOM     WIBERG.BO      RENORM.BO
     1   P  -   4   H       0.993041       1.000000
     1   P  -   3   H       0.993041       1.000000
     1   P  -   2   H       0.993041       1.000000

     2   H  -   1   P       0.993041       1.000000

     3   H  -   1   P       0.993041       1.000000

     4   H  -   1   P       0.993041       1.000000


 Valency analysis:

   CEN ATOM   TOT.VALENCE
     1   P       2.979124
     2   H       0.997618
     3   H       0.997618
     4   H       0.997618

 Total charge composition:

   CEN ATOM         s          p       ELECTRONS ->P.CHARGE
     1   P       5.48953    9.36405     14.85358    0.14642
     2   H       1.04881                 1.04881   -0.04881
     3   H       1.04881                 1.04881   -0.04881
     4   H       1.04881                 1.04881   -0.04881

 Total charge composition, AO contributions:

   CEN ATOM SHL      SPHERICAL COMPONENTS
     1   P  1s       1.99986
     1   P  2s       1.98970
     1   P  3s       1.49997
     1   P  2p       1.99913    1.99913    1.99924
     1   P  3p       0.90423    0.90423    1.55810

     2   H  1s       1.04881

     3   H  1s       1.04881

     4   H  1s       1.04881

 Summary of localized orbital composition:   [THRPRINT= 0.020]

   ORB  GRP  ORB.ENERGY      CENTERS/CHARGES
     1   1   -76.309967      P  1   2.000
     2   1    -7.282824      P  1   2.000
     3   1    -4.976159      P  1   2.000
     4   1    -4.786630      P  1   2.000
     5   1    -4.786612      P  1   2.000
     6   1    -0.512704      H  2   1.048   P  1   0.951
     7   1    -0.512456      H  3   1.048   P  1   0.951
     8   1    -0.512456      H  4   1.048   P  1   0.951
     9   1    -0.379173      P  1   2.000

 Localized orbitals saved to record      2102.2  (orbital set 2)


 **********************************************************************************************************************************
 DATASETS  * FILE   NREC   LENGTH (MB)   RECORD NAMES
              1      20       31.53       500      610      700      900      950      970     1001      129      960     1100   
                                          VAR    BASINP    GEOM    SYMINP    ZMAT    AOBASIS   BASIS     P2S    ABASIS      S 
                                         1400     1410     1200     1210     1080     1600     1650     1300     1700     1800   
                                           T        V       H0       H01     AOSYM     SMH    MOLCAS    ERIS     OPER     GRID   

              2       8        7.90       700     1000      520     2100     1001     2101     1800     2102   
                                         GEOM     BASIS   MCVARS     RHF     BASIS     RHF     GRID      RKS  

 PROGRAMS   *        TOTAL      IBBA    KS-SCF    HF-SCF       INT    HF-SCF       INT
 CPU TIMES  *        10.88      0.01      0.59      5.12      0.32      4.30      0.40
 REAL TIME  *        13.88 SEC
 DISK USED  *        39.47 MB
 **********************************************************************************************************************************

 IBBA/6-31+G(D,P) energy=      0.000000000000

          KS-SCF          HF-SCF          HF-SCF
   -343.09685124   -342.45366144   -338.63454474
 **********************************************************************************************************************************
 Molpro calculation terminated
