
 Primary working directories    : /local
 Secondary working directories  : /local
 Wavefunction directory         : /local/
 Main file repository           : /local/

 SHA1      : b4a5b34a9e711420743f49e6833241d17c61fb3c
 NAME      : 2099.9.b4a5b34
 ARCHNAME  : linux/x86_64_openmp
 FC        : /cm/shared/languages/GCC-6.1/bin/gfortran
 BLASLIB   : -lblas
 id        : simonbennie

 Nodes     nprocs
 node32-009    1

 Using customized tuning parameters: mindgm=1; mindgv=20; mindgc=4; mindgr=1; noblas=0; minvec=7
 default implementation of scratch files=df  

 memory,500,m
 geomtyp=xyz
 nosym
 noorient
 geometry={
 P          0.00000        0.00000        0.12641
 H          1.19134        0.00000       -0.63206
 H         -0.59567       -1.03173       -0.63206
 H         -0.59567        1.03173       -0.63206
 }
 basis={ default,sto-3g }
 {uks,PBE,direct;wf,18,1,0}
 {ibba,bonds=1}

 Variables initialized (895), CPU time= 0.01 sec
 Commands  initialized (725), CPU time= 0.01 sec, 591 directives.
 Default parameters read. Elapsed time= 0.08 sec

 Checking input...
 Passed
1


                                         ***  PROGRAM SYSTEM MOLPRO  ***
                                       Copyright, TTI GmbH Stuttgart, 2015
                                    Version 2099.9 linked May 26 2017 16:03:21


 **********************************************************************************************************************************
 LABEL *                                                                                 
  64 bit serial version                                                                  DATE: 21-Jun-17          TIME: 04:42:20  
 **********************************************************************************************************************************

 SHA1:             b4a5b34a9e711420743f49e6833241d17c61fb3c
 **********************************************************************************************************************************
 SETTING GEOMTYP        =    XYZ

 Variable memory set to  500000000 words,  buffer space 

 ZSYMEL=NOSYM

 SETTING BASIS          =    STO-3G


 Recomputing integrals since basis changed


 Using spherical harmonics

 Library entry P      S STO-3G               selected for orbital group  1
 Library entry P      P STO-3G               selected for orbital group  1
 Library entry H      S STO-3G               selected for orbital group  2


 PROGRAM * SEWARD (Integral evaluation for generally contracted gaussian basis sets)     Author: Roland Lindh, 1990

 Geometry written to block  1 of record 700


 Point group  C1  



 ATOMIC COORDINATES

 NR  ATOM    CHARGE       X              Y              Z

   1  P      15.00    0.000000000    0.000000000    0.238880279
   2  H       1.00    2.251306321    0.000000000   -1.194420294
   3  H       1.00   -1.125653161   -1.949687134   -1.194420294
   4  H       1.00   -1.125653161    1.949687134   -1.194420294

 Bond lengths in Bohr (Angstrom)

 1-2  2.668844448  1-3  2.668843475  1-4  2.668843475
     ( 1.412291661)     ( 1.412291147)     ( 1.412291147)

 Bond angles

  2-1-3   93.86279220   2-1-4   93.86279220   3-1-4   93.86275176

 NUCLEAR CHARGE:                   18
 NUMBER OF PRIMITIVE AOS:          36
 NUMBER OF SYMMETRY AOS:           36
 NUMBER OF CONTRACTIONS:           12   (  12A   )
 NUMBER OF CORE ORBITALS:           5   (   5A   )
 NUMBER OF VALENCE ORBITALS:        7   (   7A   )


 NUCLEAR REPULSION ENERGY   17.63058802


 Eigenvalues of metric

         1 0.284E+00 0.443E+00 0.443E+00 0.635E+00 0.796E+00 0.947E+00 0.947E+00 0.118E+01


 Contracted 2-electron integrals neglected if value below      1.0D-11
 AO integral compression algorithm  1   Integral accuracy      1.0D-11

     0.262 MB (compressed) written to integral file (100.0%)


 NUMBER OF SORTED TWO-ELECTRON INTEGRALS:       3081.     BUFFER LENGTH:  32768
 NUMBER OF SEGMENTS:   1  SEGMENT LENGTH:       3081      RECORD LENGTH: 524288

 Memory used in sort:       0.56 MW

 SORT1 READ        4831. AND WROTE        2053. INTEGRALS IN      1 RECORDS. CPU TIME:     0.00 SEC, REAL TIME:     0.01 SEC
 SORT2 READ        2053. AND WROTE        3081. INTEGRALS IN      1 RECORDS. CPU TIME:     0.00 SEC, REAL TIME:     0.00 SEC

 FILE SIZES:   FILE 1:    30.3 MBYTE,  FILE 4:     4.2 MBYTE,   TOTAL:     34.5 MBYTE

 OPERATOR DM      FOR CENTER  0  COORDINATES:    0.000000    0.000000    0.000000


 **********************************************************************************************************************************
 DATASETS  * FILE   NREC   LENGTH (MB)   RECORD NAMES
              1      19       30.01       500      610      700      900      950      970     1000      129      960     1100   
                                          VAR    BASINP    GEOM    SYMINP    ZMAT    AOBASIS   BASIS     P2S    ABASIS      S 
                                         1400     1410     1200     1210     1080     1600     1650     1300     1700   
                                           T        V       H0       H01     AOSYM     SMH    MOLCAS    ERIS     OPER   

 PROGRAMS   *        TOTAL       INT
 CPU TIMES  *         0.49      0.36
 REAL TIME  *         0.78 SEC
 DISK USED  *        34.80 MB      
 **********************************************************************************************************************************

 Density functional group PBE=PBEX+PBEC
 Functional: PBEX(Automatically generated (new) PBEX)                          Gradient terms: 1
 Functional: PBEC(Automatically generated (new) PBEC)                          Gradient terms: 1
 Use grid at  1800.2

 Functional: PBEX                      Factor:  1.0000
 Functional: PBEC                      Factor:  1.0000

 Generated new metagrid on record  1800.2 with target accuracy 1.0D-06 and 16336 points in CPU time    0.4
 Computed new grid on record 1800.1 in CPU time    0.4
   13504 words reserved for DFT integration

 PROGRAM * UKS-SCF (Unrestricted Kohn-Sham)     Authors: W. Meyer, H.-J. Werner, P.J. Knowles, 1993

 NUMBER OF ELECTRONS:       9+    9-    SPACE SYMMETRY=1    SPIN SYMMETRY: Singlet 
 CONVERGENCE THRESHOLDS:    1.00E-05 (Density)    1.00E-06 (Energy)
 MAX. NUMBER OF ITERATIONS:       60
 INTERPOLATION TYPE:            DIIS
 INTERPOLATION STEPS:              2 (START)      1 (STEP)
 LEVEL SHIFTS:                 -0.20 (ALPHA)  -0.20 (BETA) 



 Use fine grid record 1800.2 for energy threshold  1.0D-06
 Orbital guess generated from atomic densities. Full valence occupancy:    9

 Molecular orbital dump at record        2200.2

 Initial alpha occupation   9
 Initial beta  occupation   9

 ITERATION    DDIFF          GRAD             ENERGY        2-EL.EN.            DIPOLE MOMENTS         DIIS
    1      0.000D+00      0.000D+00      -339.05595963    349.818369   -0.00000   -0.00000   -0.81883    0
    2      0.486D-01      0.142D-01      -339.08117053    346.515629   -0.00000   -0.00000   -0.27000    1
    3      0.382D-02      0.205D-02      -339.08144195    346.820693    0.00000   -0.00000   -0.30152    2
    4      0.109D-02      0.227D-03      -339.08145123    346.827753    0.00000   -0.00000   -0.29833    3
    5      0.580D-03      0.719D-04      -339.08145258    346.828494    0.00000   -0.00000   -0.29703    4
    6      0.919D-04      0.121D-04      -339.08145262    346.828067    0.00000   -0.00000   -0.29700    4
    7      0.128D-04      0.223D-05      -339.08145262    346.828412    0.00000   -0.00000   -0.29706    5
    8      0.510D-07      0.130D-07      -339.08145262    346.828410    0.00000   -0.00000   -0.29706    5
    9      0.566D-09      0.232D-09      -339.08145262    346.828410    0.00000   -0.00000   -0.29706    3

 Final alpha occupancy:   9
 Final beta  occupancy:   9

 !UKS STATE 1.1 Energy               -339.081452621647
 Nuclear energy                        17.63058802
 One-electron energy                 -505.87522338
 Two-electron energy                  173.41420492
 Density functional                   -24.25102218     PBEX=-23.58630420 PBEC= -0.66471798
 Virial quotient                       -1.01501827
 !UKS STATE 1.1 Dipole moment           0.00000018    -0.00000000    -0.29706145
 Dipole moment /Debye                   0.00000045    -0.00000000    -0.75500543

 Orbital energies for positive spin:

         1.1          2.1          3.1          4.1          5.1          6.1          7.1          8.1          9.1         10.1
    -75.338162    -6.022202    -4.208972    -4.208972    -4.197546    -0.531218    -0.277957    -0.277957    -0.123323     0.238156

        11.1
      0.238157

 Orbital energies for negative spin:

         1.1          2.1          3.1          4.1          5.1          6.1          7.1          8.1          9.1         10.1
    -75.338162    -6.022202    -4.208972    -4.208972    -4.197546    -0.531218    -0.277957    -0.277957    -0.123323     0.238156

        11.1
      0.238157

 HOMO      9.1    -0.123323 =      -3.3558eV
 LUMO     10.1     0.238156 =       6.4806eV
 LUMO-HOMO         0.361479 =       9.8363eV

 EXPECTATION VALUE OF S**2:            -0.00000000

 Natural orbitals saved to record    2200.2 (Orbital set 3)

 Orbital spaces for UNO-CAS (Min. occupation: 0.020  Max. occupation: 1.980):

 Closed:        9
 Active:        0


 **********************************************************************************************************************************
 DATASETS  * FILE   NREC   LENGTH (MB)   RECORD NAMES
              1      20       30.53       500      610      700      900      950      970     1000      129      960     1100   
                                          VAR    BASINP    GEOM    SYMINP    ZMAT    AOBASIS   BASIS     P2S    ABASIS      S 
                                         1400     1410     1200     1210     1080     1600     1650     1300     1700     1800   
                                           T        V       H0       H01     AOSYM     SMH    MOLCAS    ERIS     OPER     GRID   

              2       5        2.81       700     1000      520     1800     2200   
                                         GEOM     BASIS   MCVARS    GRID      UKS  

 PROGRAMS   *        TOTAL       UKS       INT
 CPU TIMES  *         1.45      0.96      0.36
 REAL TIME  *         1.94 SEC
 DISK USED  *        34.80 MB      
 **********************************************************************************************************************************


 PROGRAM * Intrinsic Basis Bonding Analysis (IBBA)          Author: G. Knizia

 Molecular orbitals read from record     2200.2  Type=UKS/ALPHA (state 1.1)
 Fock matrix read from record            2200.2  Type=UKS/TOTAL (state 1.1)
 Orbital energies read from record       2200.2  Type=UKS/ALPHA (state 1.1)
 Density matrix read from record         2200.2  Type=UKS/CHARGE (state 1.1)

 Number of core orbitals:           5 (   5 )
 Number of closed-shell orbitals:   4 (   4 )

 Basis set MINAO-AUTO-PP generated.      Number of basis functions:   12 

 Polarized AO type:                A = (O Ot + (1-O)(1-Ot)) P12
 Orthogonalization method:         Symmetric (Loewdin)
 Localization functional:          L = sum[A,i] <i|n_A|i>^4 -> max

 Localization group 1:   9 orbitals, occupancy  2.000
 Iterative localization: IB/PM,    5 iter; Final gradient 0.10E-08

 Bond order analysis:       [THRPRINT= 0.020]

   CEN ATOM   CEN ATOM     WIBERG.BO      RENORM.BO
     1   P  -   2   H       0.995789       1.000000
     1   P  -   3   H       0.995789       1.000000
     1   P  -   4   H       0.995789       1.000000

     2   H  -   1   P       0.995789       1.000000

     3   H  -   1   P       0.995789       1.000000

     4   H  -   1   P       0.995789       1.000000


 Valency analysis:

   CEN ATOM   TOT.VALENCE
     1   P       2.987368
     2   H       0.997344
     3   H       0.997343
     4   H       0.997343

 Total charge composition:

   CEN ATOM         s          p       ELECTRONS ->P.CHARGE
     1   P       5.57607    9.26931     14.84538    0.15462
     2   H       1.05154                 1.05154   -0.05154
     3   H       1.05154                 1.05154   -0.05154
     4   H       1.05154                 1.05154   -0.05154

 Total charge composition, AO contributions:

   CEN ATOM SHL      SPHERICAL COMPONENTS
     1   P  1s       1.99985
     1   P  2s       1.99040
     1   P  3s       1.58582
     1   P  2p       2.00000    2.00000    2.00000
     1   P  3p       0.92059    0.92059    1.42815

     2   H  1s       1.05154

     3   H  1s       1.05154

     4   H  1s       1.05154

 Summary of localized orbital composition:   [THRPRINT= 0.020]

   ORB  GRP  ORB.ENERGY      CENTERS/CHARGES
     1   1   -74.490569      P  1   2.000
     2   1    -6.667114      P  1   2.000
     3   1    -4.282161      P  1   2.000
     4   1    -4.205235      P  1   2.000
     5   1    -4.205235      P  1   2.000
     6   1    -0.373769      H  4   1.051   P  1   0.948
     7   1    -0.373769      H  3   1.051   P  1   0.948
     8   1    -0.373768      H  2   1.051   P  1   0.948
     9   1    -0.214689      P  1   2.000

 Localized orbitals saved to record      2200.2  (orbital set 4)


 **********************************************************************************************************************************
 DATASETS  * FILE   NREC   LENGTH (MB)   RECORD NAMES
              1      20       30.53       500      610      700      900      950      970     1000      129      960     1100   
                                          VAR    BASINP    GEOM    SYMINP    ZMAT    AOBASIS   BASIS     P2S    ABASIS      S 
                                         1400     1410     1200     1210     1080     1600     1650     1300     1700     1800   
                                           T        V       H0       H01     AOSYM     SMH    MOLCAS    ERIS     OPER     GRID   

              2       5        2.81       700     1000      520     1800     2200   
                                         GEOM     BASIS   MCVARS    GRID      UKS  

 PROGRAMS   *        TOTAL      IBBA       UKS       INT
 CPU TIMES  *         1.47      0.01      0.96      0.36
 REAL TIME  *         2.00 SEC
 DISK USED  *        34.80 MB      
 **********************************************************************************************************************************
 Molecular orbitals read from record     2200.2  Type=UKS/LOCAL(IBO)  
 Occupation numbers read from record     2200.2  Type=UKS/LOCAL(IBO)  
 Orbital energies read from record       2200.2  Type=UKS/LOCAL(IBO)  
 Redundancy group numbers read from rec  2200.2  Type=UKS/BETA (state 1.1)

 IBBA/STO-3G energy=      0.000000000000

        UKS-SCF 
   -339.08145262
 **********************************************************************************************************************************
 Molpro calculation terminated
