
 Primary working directories    : /local
 Secondary working directories  : /local
 Wavefunction directory         : /local/
 Main file repository           : /local/

 SHA1      : b4a5b34a9e711420743f49e6833241d17c61fb3c
 NAME      : 2099.9.b4a5b34
 ARCHNAME  : linux/x86_64_openmp
 FC        : /cm/shared/languages/GCC-6.1/bin/gfortran
 BLASLIB   : -lblas
 id        : simonbennie

 Nodes     nprocs
 node33-011    1

 Using customized tuning parameters: mindgm=1; mindgv=20; mindgc=4; mindgr=1; noblas=0; minvec=7
 default implementation of scratch files=df  

 memory,500,m
 geomtyp=xyz
 nosym
 noorient
 geometry={
 P          0.00000        0.00000        0.12641
 H          1.19134        0.00000       -0.63206
 H         -0.59567       -1.03173       -0.63206
 H         -0.59567        1.03173       -0.63206
 }
 basis={ default,tzvp }
 {uhf,direct;wf,18,1,0}
 {uks,M06-HF,direct;maxit,0;wf,18,1,0}
 {ibba,bonds=1}

 Variables initialized (895), CPU time= 0.01 sec
 Commands  initialized (725), CPU time= 0.01 sec, 591 directives.
 Default parameters read. Elapsed time= 0.08 sec

 Checking input...
 Passed
1


                                         ***  PROGRAM SYSTEM MOLPRO  ***
                                       Copyright, TTI GmbH Stuttgart, 2015
                                    Version 2099.9 linked May 26 2017 16:03:21


 **********************************************************************************************************************************
 LABEL *                                                                                 
  64 bit serial version                                                                  DATE: 16-Mar-18          TIME: 04:07:37  
 **********************************************************************************************************************************

 SHA1:             b4a5b34a9e711420743f49e6833241d17c61fb3c
 **********************************************************************************************************************************
 SETTING GEOMTYP        =    XYZ

 Variable memory set to  500000000 words,  buffer space 

 ZSYMEL=NOSYM

 SETTING BASIS          =    TZVP


 Recomputing integrals since basis changed


 Using spherical harmonics

 Library entry P      S def2-TZVP            selected for orbital group  1
 Library entry P      P def2-TZVP            selected for orbital group  1
 Library entry P      D def2-TZVP            selected for orbital group  1
 Library entry P      F def2-TZVP            selected for orbital group  1
 Library entry H      S def2-TZVP            selected for orbital group  2
 Library entry H      P def2-TZVP            selected for orbital group  2


 PROGRAM * SEWARD (Integral evaluation for generally contracted gaussian basis sets)     Author: Roland Lindh, 1990

 Geometry written to block  1 of record 700


 Point group  C1  



 ATOMIC COORDINATES

 NR  ATOM    CHARGE       X              Y              Z

   1  P      15.00    0.000000000    0.000000000    0.238880279
   2  H       1.00    2.251306321    0.000000000   -1.194420294
   3  H       1.00   -1.125653161   -1.949687134   -1.194420294
   4  H       1.00   -1.125653161    1.949687134   -1.194420294

 Bond lengths in Bohr (Angstrom)

 1-2  2.668844448  1-3  2.668843475  1-4  2.668843475
     ( 1.412291661)     ( 1.412291147)     ( 1.412291147)

 Bond angles

  2-1-3   93.86279220   2-1-4   93.86279220   3-1-4   93.86275176

 NUCLEAR CHARGE:                   18
 NUMBER OF PRIMITIVE AOS:          93
 NUMBER OF SYMMETRY AOS:           87
 NUMBER OF CONTRACTIONS:           55   (  55A   )
 NUMBER OF CORE ORBITALS:           5   (   5A   )
 NUMBER OF VALENCE ORBITALS:        7   (   7A   )


 NUCLEAR REPULSION ENERGY   17.63058802


 Eigenvalues of metric

         1 0.133E-01 0.168E-01 0.168E-01 0.282E-01 0.410E-01 0.410E-01 0.559E-01 0.689E-01


 Contracted 2-electron integrals neglected if value below      1.0D-11
 AO integral compression algorithm  1   Integral accuracy      1.0D-11

     5.243 MB (compressed) written to integral file ( 45.1%)


 NUMBER OF SORTED TWO-ELECTRON INTEGRALS:    1186570.     BUFFER LENGTH:  32768
 NUMBER OF SEGMENTS:   1  SEGMENT LENGTH:    1186570      RECORD LENGTH: 524288

 Memory used in sort:       1.74 MW

 SORT1 READ     1451947. AND WROTE      860099. INTEGRALS IN      3 RECORDS. CPU TIME:     0.02 SEC, REAL TIME:     0.03 SEC
 SORT2 READ      860099. AND WROTE     1186570. INTEGRALS IN     20 RECORDS. CPU TIME:     0.06 SEC, REAL TIME:     0.07 SEC

 FILE SIZES:   FILE 1:    35.4 MBYTE,  FILE 4:    12.6 MBYTE,   TOTAL:     48.0 MBYTE

 OPERATOR DM      FOR CENTER  0  COORDINATES:    0.000000    0.000000    0.000000


 **********************************************************************************************************************************
 DATASETS  * FILE   NREC   LENGTH (MB)   RECORD NAMES
              1      19       34.17       500      610      700      900      950      970     1000      129      960     1100   
                                          VAR    BASINP    GEOM    SYMINP    ZMAT    AOBASIS   BASIS     P2S    ABASIS      S 
                                         1400     1410     1200     1210     1080     1600     1650     1300     1700   
                                           T        V       H0       H01     AOSYM     SMH    MOLCAS    ERIS     OPER   

 PROGRAMS   *        TOTAL       INT
 CPU TIMES  *         0.56      0.41
 REAL TIME  *         2.06 SEC
 DISK USED  *        48.30 MB      
 **********************************************************************************************************************************


 PROGRAM * UHF-SCF       Authors: W. Meyer, H.-J. Werner


 NUMBER OF ELECTRONS:       9+    9-    SPACE SYMMETRY=1    SPIN SYMMETRY: Singlet 
 CONVERGENCE THRESHOLDS:    1.00E-05 (Density)    1.00E-07 (Energy)
 INTEGRAL THRESHOLDS:       1.00E-11 (Initial)    1.00E-11 (Final)
 MAX. NUMBER OF ITERATIONS:       60
 INTERPOLATION TYPE:            DIIS
 INTERPOLATION STEPS:              2 (START)      1 (STEP)
 LEVEL SHIFTS:                 -0.20 (ALPHA)  -0.20 (BETA) 



 Orbital guess generated from atomic densities. Full valence occupancy:    9

 Molecular orbital dump at record        2200.2

 Initial alpha occupation   9
 Initial beta  occupation   9

 Direct Fock-matrix evaluation.        Author: H.-J. Werner (1996)

 Integral Threshold:                  0.1D-10

 ITERATION   DDIFF            GRAD            ENERGY        2-EL.EN.            DIPOLE MOMENTS         DIIS   CPU(IT)  CPU(TOT)
    1      0.000D+00      0.000D+00      -342.46594350    296.958082    0.00000   -0.00000   -0.52673    0      1.0      2.0
    2      0.161D-02      0.204D-02      -342.47783281    296.833949    0.00000   -0.00000   -0.34636    1      0.6      2.6
    3      0.132D-02      0.999D-03      -342.48233373    296.863246   -0.00000   -0.00000   -0.27474    2      0.6      3.2
    4      0.836D-03      0.395D-03      -342.48325074    296.844180   -0.00000   -0.00000   -0.26501    3      0.6      3.7
    5      0.417D-03      0.132D-03      -342.48335369    296.836855   -0.00000   -0.00000   -0.26656    4      0.6      4.3
    6      0.148D-03      0.341D-04      -342.48335990    296.828816   -0.00000   -0.00000   -0.26622    5      0.6      4.9
    7      0.489D-04      0.916D-05      -342.48336033    296.828280   -0.00000    0.00000   -0.26594    6      0.6      5.5
    8      0.590D-05      0.164D-05      -342.48336035    296.828197   -0.00000    0.00000   -0.26596    6      0.6      6.1
    9      0.244D-05      0.499D-06      -342.48336035    296.828262   -0.00000    0.00000   -0.26601    6      0.6      6.7

 Final alpha occupancy:   9
 Final beta  occupancy:   9

 !UHF STATE 1.1 Energy               -342.483360349044
 Nuclear energy                        17.63058802
 One-electron energy                 -508.52807913
 Two-electron energy                  148.41413076
 Virial quotient                       -1.00001155
 !UHF STATE 1.1 Dipole moment          -0.00000011     0.00000000    -0.26601344
 Dipole moment /Debye                  -0.00000028     0.00000000    -0.67609443

 Orbital energies for positive spin:

         1.1          2.1          3.1          4.1          5.1          6.1          7.1          8.1          9.1         10.1
    -79.939601    -7.485451    -5.379051    -5.379051    -5.378251    -0.855417    -0.523237    -0.523237    -0.386623     0.143141

        11.1
      0.150571

 Orbital energies for negative spin:

         1.1          2.1          3.1          4.1          5.1          6.1          7.1          8.1          9.1         10.1
    -79.939601    -7.485451    -5.379051    -5.379051    -5.378251    -0.855417    -0.523237    -0.523237    -0.386623     0.143141

        11.1
      0.150571

 HOMO      9.1    -0.386623 =     -10.5206eV
 LUMO     10.1     0.143141 =       3.8951eV
 LUMO-HOMO         0.529764 =      14.4156eV

 EXPECTATION VALUE OF S**2:            -0.00000000

 Natural orbitals saved to record    2200.2 (Orbital set 3)

 Orbital spaces for UNO-CAS (Min. occupation: 0.020  Max. occupation: 1.980):

 Closed:        9
 Active:        0


 **********************************************************************************************************************************
 DATASETS  * FILE   NREC   LENGTH (MB)   RECORD NAMES
              1      19       34.17       500      610      700      900      950      970     1000      129      960     1100   
                                          VAR    BASINP    GEOM    SYMINP    ZMAT    AOBASIS   BASIS     P2S    ABASIS      S 
                                         1400     1410     1200     1210     1080     1600     1650     1300     1700   
                                           T        V       H0       H01     AOSYM     SMH    MOLCAS    ERIS     OPER   

              2       4        2.93       700     1000      520     2200   
                                         GEOM     BASIS   MCVARS     UHF  

 PROGRAMS   *        TOTAL       UHF       INT
 CPU TIMES  *         7.26      6.70      0.41
 REAL TIME  *        11.92 SEC
 DISK USED  *        48.30 MB      
 **********************************************************************************************************************************

 Density functional group M06-HF=XC-M06-HF
 Functional: XC-M06-HF(via MFM 1.6)                                            Gradient terms: 1
 Use grid at  1800.2


 Exact exchange will be calculated, factor:  1.0000

 Functional: XC-M06-HF                 Factor:  1.0000

 Generated new metagrid on record  1800.2 with target accuracy 1.0D-06 and 16712 points in CPU time    0.4
 Computed new grid on record 1800.1 in CPU time    0.5
   47647 words reserved for DFT integration

 PROGRAM * UKS-SCF (Unrestricted Kohn-Sham)     Authors: W. Meyer, H.-J. Werner, P.J. Knowles, 1993

 NUMBER OF ELECTRONS:       9+    9-    SPACE SYMMETRY=1    SPIN SYMMETRY: Singlet 
 CONVERGENCE THRESHOLDS:    1.00E-05 (Density)    1.00E-06 (Energy)
 MAX. NUMBER OF ITERATIONS:        0
 INTERPOLATION TYPE:            DIIS
 INTERPOLATION STEPS:              2 (START)      1 (STEP)
 LEVEL SHIFTS:                 -0.20 (ALPHA)  -0.20 (BETA) 



 Use fine grid record 1800.2 for energy threshold  1.0D-06
 Molecular orbitals read from record     2200.2  Type=UHF/ALPHA (state 1.1)
 Molecular orbitals read from record     2200.2  Type=UHF/BETA (state 1.1)

 Molecular orbital dump at record        2201.2

 Initial alpha occupation   9
 Initial beta  occupation   9

 ITERATION    DDIFF          GRAD             ENERGY        2-EL.EN.            DIPOLE MOMENTS         DIIS
    1      0.000D+00      0.000D+00      -343.11049476    296.828262   -0.00000    0.00000   -0.26601    0

 Final alpha occupancy:   9
 Final beta  occupancy:   9

 !UKS STATE 1.1 Energy               -343.110494759782
 Nuclear energy                        17.63058802
 One-electron energy                 -508.52807913
 Two-electron energy                  148.41413076
 Density functional                    -0.62713441     XC-M06-HF=-0.62713441
 Virial quotient                       -1.00184271
 !UKS STATE 1.1 Dipole moment          -0.00000011     0.00000000    -0.26601344
 Dipole moment /Debye                  -0.00000028     0.00000000    -0.67609443

 Orbital energies for positive spin:

         1.1          2.1          3.1          4.1          5.1          6.1          7.1          8.1          9.1         10.1
    -79.939601    -7.485451    -5.379051    -5.379051    -5.378251    -0.855417    -0.523237    -0.523237    -0.386623     0.143141

        11.1
      0.150571

 Orbital energies for negative spin:

         1.1          2.1          3.1          4.1          5.1          6.1          7.1          8.1          9.1         10.1
    -79.939601    -7.485451    -5.379051    -5.379051    -5.378251    -0.855417    -0.523237    -0.523237    -0.386623     0.143141

        11.1
      0.150571

 HOMO      9.1    -0.386623 =     -10.5206eV
 LUMO     10.1     0.143141 =       3.8951eV
 LUMO-HOMO         0.529764 =      14.4156eV

 EXPECTATION VALUE OF S**2:             0.00000000

 Natural orbitals saved to record    2201.2 (Orbital set 3)

 Orbital spaces for UNO-CAS (Min. occupation: 0.020  Max. occupation: 1.980):

 Closed:        9
 Active:        0

 No convergence



 **********************************************************************************************************************************
 DATASETS  * FILE   NREC   LENGTH (MB)   RECORD NAMES
              1      20       34.70       500      610      700      900      950      970     1000      129      960     1100   
                                          VAR    BASINP    GEOM    SYMINP    ZMAT    AOBASIS   BASIS     P2S    ABASIS      S 
                                         1400     1410     1200     1210     1080     1600     1650     1300     1700     1800   
                                           T        V       H0       H01     AOSYM     SMH    MOLCAS    ERIS     OPER     GRID   

              2       6        5.55       700     1000      520     2200     1800     2201   
                                         GEOM     BASIS   MCVARS     UHF     GRID      UKS  

 PROGRAMS   *        TOTAL       UKS       UHF       INT
 CPU TIMES  *         8.32      1.06      6.70      0.41
 REAL TIME  *        12.99 SEC
 DISK USED  *        48.30 MB      
 **********************************************************************************************************************************


 PROGRAM * Intrinsic Basis Bonding Analysis (IBBA)          Author: G. Knizia

 Molecular orbitals read from record     2201.2  Type=UKS/ALPHA (state 1.1)
 Fock matrix read from record            2201.2  Type=UKS/TOTAL (state 1.1)
 Orbital energies read from record       2201.2  Type=UKS/ALPHA (state 1.1)
 Density matrix read from record         2201.2  Type=UKS/CHARGE (state 1.1)

 Number of core orbitals:           5 (   5 )
 Number of closed-shell orbitals:   4 (   4 )

 Basis set MINAO-AUTO-PP generated.      Number of basis functions:   12 

 Polarized AO type:                A = (O Ot + (1-O)(1-Ot)) P12
 Orthogonalization method:         Symmetric (Loewdin)
 Localization functional:          L = sum[A,i] <i|n_A|i>^4 -> max

 Localization group 1:   9 orbitals, occupancy  2.000
 Iterative localization: IB/PM,    5 iter; Final gradient 0.27E-08

 Bond order analysis:       [THRPRINT= 0.020]

   CEN ATOM   CEN ATOM     WIBERG.BO      RENORM.BO
     1   P  -   4   H       0.992196       1.000000
     1   P  -   3   H       0.992196       1.000000
     1   P  -   2   H       0.992196       1.000000

     2   H  -   1   P       0.992196       1.000000

     3   H  -   1   P       0.992196       1.000000

     4   H  -   1   P       0.992196       1.000000


 Valency analysis:

   CEN ATOM   TOT.VALENCE
     1   P       2.976589
     2   H       0.996959
     3   H       0.996959
     4   H       0.996959

 Total charge composition:

   CEN ATOM         s          p       ELECTRONS ->P.CHARGE
     1   P       5.48595    9.34862     14.83458    0.16542
     2   H       1.05514                 1.05514   -0.05514
     3   H       1.05514                 1.05514   -0.05514
     4   H       1.05514                 1.05514   -0.05514

 Total charge composition, AO contributions:

   CEN ATOM SHL      SPHERICAL COMPONENTS
     1   P  1s       1.99986
     1   P  2s       1.98973
     1   P  3s       1.49637
     1   P  2p       1.99913    1.99913    1.99924
     1   P  3p       0.89693    0.89693    1.55727

     2   H  1s       1.05514

     3   H  1s       1.05514

     4   H  1s       1.05514

 Summary of localized orbital composition:   [THRPRINT= 0.020]

   ORB  GRP  ORB.ENERGY      CENTERS/CHARGES
     1   1   -78.232963      P  1   2.000
     2   1    -7.749551      P  1   2.000
     3   1    -5.459892      P  1   2.000
     4   1    -5.260619      P  1   2.000
     5   1    -5.260571      P  1   2.000
     6   1    -0.642441      H  4   1.054   P  1   0.945
     7   1    -0.642441      H  3   1.054   P  1   0.945
     8   1    -0.642102      H  2   1.054   P  1   0.945
     9   1    -0.495394      P  1   2.000

 Localized orbitals saved to record      2201.2  (orbital set 4)


 **********************************************************************************************************************************
 DATASETS  * FILE   NREC   LENGTH (MB)   RECORD NAMES
              1      20       34.70       500      610      700      900      950      970     1000      129      960     1100   
                                          VAR    BASINP    GEOM    SYMINP    ZMAT    AOBASIS   BASIS     P2S    ABASIS      S 
                                         1400     1410     1200     1210     1080     1600     1650     1300     1700     1800   
                                           T        V       H0       H01     AOSYM     SMH    MOLCAS    ERIS     OPER     GRID   

              2       6        5.58       700     1000      520     2200     1800     2201   
                                         GEOM     BASIS   MCVARS     UHF     GRID      UKS  

 PROGRAMS   *        TOTAL      IBBA       UKS       UHF       INT
 CPU TIMES  *         8.34      0.02      1.06      6.70      0.41
 REAL TIME  *        13.01 SEC
 DISK USED  *        48.30 MB      
 **********************************************************************************************************************************

 IBBA/TZVP energy=      0.000000000000

        UKS-SCF         UHF-SCF 
   -343.11049476   -342.48336035
 **********************************************************************************************************************************
 Molpro calculation terminated
