
 Primary working directories    : /local
 Secondary working directories  : /local
 Wavefunction directory         : /local/
 Main file repository           : /local/

 SHA1      : b4a5b34a9e711420743f49e6833241d17c61fb3c
 NAME      : 2099.9.b4a5b34
 ARCHNAME  : linux/x86_64_openmp
 FC        : /cm/shared/languages/GCC-6.1/bin/gfortran
 BLASLIB   : -lblas
 id        : simonbennie

 Nodes     nprocs
 node46-002    1

 Using customized tuning parameters: mindgm=1; mindgv=20; mindgc=4; mindgr=1; noblas=0; minvec=7
 default implementation of scratch files=df  

 memory,500,m
 geomtyp=xyz
 nosym
 noorient
 geometry={
 C          0.00029       -1.14229        0.00000
 H         -1.05596       -1.38474        0.00000
 H          0.52017       -1.40739        0.91245
 H          0.52017       -1.40739       -0.91245
 H          0.01156        0.16010        0.00000
 O          0.00029        1.36164        0.00000
 }
 basis={ default,SV(P) }
 {uks,MM05-2X,direct;wf,18,1,2}
 {ibba,bonds=1}

 Variables initialized (895), CPU time= 0.00 sec
 Commands  initialized (725), CPU time= 0.01 sec, 591 directives.
 Default parameters read. Elapsed time= 0.34 sec

 Checking input...
 Passed
1


                                         ***  PROGRAM SYSTEM MOLPRO  ***
                                       Copyright, TTI GmbH Stuttgart, 2015
                                    Version 2099.9 linked May 26 2017 16:03:21


 **********************************************************************************************************************************
 LABEL *                                                                                 
  64 bit serial version                                                                  DATE: 30-Jun-17          TIME: 08:09:02  
 **********************************************************************************************************************************

 SHA1:             b4a5b34a9e711420743f49e6833241d17c61fb3c
 **********************************************************************************************************************************
 SETTING GEOMTYP        =    XYZ

 Variable memory set to  500000000 words,  buffer space 

 ZSYMEL=NOSYM

 SETTING BASIS          =    SV(P)


 Recomputing integrals since basis changed


 Using spherical harmonics

 Library entry C      S def2-SV(P)           selected for orbital group  1
 Library entry C      P def2-SV(P)           selected for orbital group  1
 Library entry C      D def2-SV(P)           selected for orbital group  1
 Library entry H      S def2-SV(P)           selected for orbital group  2
 Library entry O      S def2-SV(P)           selected for orbital group  3
 Library entry O      P def2-SV(P)           selected for orbital group  3
 Library entry O      D def2-SV(P)           selected for orbital group  3


 PROGRAM * SEWARD (Integral evaluation for generally contracted gaussian basis sets)     Author: Roland Lindh, 1990

 Geometry written to block  1 of record 700


 Point group  C1  



 ATOMIC COORDINATES

 NR  ATOM    CHARGE       X              Y              Z

   1  C       6.00    0.000548021   -2.158615255    0.000000000
   2  H       1.00   -1.995475198   -2.616779354    0.000000000
   3  H       1.00    0.982978838   -2.659581650    1.724280602
   4  H       1.00    0.982978838   -2.659581650   -1.724280602
   5  H       1.00    0.021845234    0.302545153    0.000000000
   6  O       8.00    0.000548021    2.573126680    0.000000000

 Bond lengths in Bohr (Angstrom)

 1-2  2.047931403  1-3  2.046773372  1-4  2.046773372  1-5  2.461252551  5-6  2.270681405
     ( 1.083718628)     ( 1.083105824)     ( 1.083105824)     ( 1.302438761)     ( 1.201592853)

 Bond angles

  1-5-6  178.96681612   2-1-3  114.39760025   2-1-4  114.39760025   2-1-5  103.42343284

  3-1-4  114.79703525   3-1-5  103.92175352   4-1-5  103.92175352

 NUCLEAR CHARGE:                   18
 NUMBER OF PRIMITIVE AOS:          66
 NUMBER OF SYMMETRY AOS:           64
 NUMBER OF CONTRACTIONS:           36   (  36A   )
 NUMBER OF CORE ORBITALS:           2   (   2A   )
 NUMBER OF VALENCE ORBITALS:       12   (  12A   )


 NUCLEAR REPULSION ENERGY   30.91031049


 Eigenvalues of metric

         1 0.992E-02 0.298E-01 0.657E-01 0.661E-01 0.147E+00 0.235E+00 0.235E+00 0.259E+00


 Contracted 2-electron integrals neglected if value below      1.0D-11
 AO integral compression algorithm  1   Integral accuracy      1.0D-11

     1.049 MB (compressed) written to integral file ( 35.2%)


 NUMBER OF SORTED TWO-ELECTRON INTEGRALS:     222111.     BUFFER LENGTH:  32768
 NUMBER OF SEGMENTS:   1  SEGMENT LENGTH:     222111      RECORD LENGTH: 524288

 Memory used in sort:       0.78 MW

 SORT1 READ      294599. AND WROTE      132692. INTEGRALS IN      1 RECORDS. CPU TIME:     0.00 SEC, REAL TIME:     0.02 SEC
 SORT2 READ      132692. AND WROTE      222111. INTEGRALS IN      4 RECORDS. CPU TIME:     0.03 SEC, REAL TIME:     0.05 SEC

 FILE SIZES:   FILE 1:    31.1 MBYTE,  FILE 4:     4.2 MBYTE,   TOTAL:     35.4 MBYTE

 OPERATOR DM      FOR CENTER  0  COORDINATES:    0.000000    0.000000    0.000000


 **********************************************************************************************************************************
 DATASETS  * FILE   NREC   LENGTH (MB)   RECORD NAMES
              1      19       30.71       500      610      700      900      950      970     1000      129      960     1100   
                                          VAR    BASINP    GEOM    SYMINP    ZMAT    AOBASIS   BASIS     P2S    ABASIS      S 
                                         1400     1410     1200     1210     1080     1600     1650     1300     1700   
                                           T        V       H0       H01     AOSYM     SMH    MOLCAS    ERIS     OPER   

 PROGRAMS   *        TOTAL       INT
 CPU TIMES  *         0.40      0.25
 REAL TIME  *         1.69 SEC
 DISK USED  *        35.71 MB      
 **********************************************************************************************************************************

 Density functional group MM05-2X=M052XX+M052XC
 Functional: M052XX(Automatically generated (new) M052XX)                      Gradient terms: 2
 Functional: M052XC(Automatically generated (new) M052XC)                      Gradient terms: 2
 Use grid at  1800.2


 Exact exchange will be calculated, factor:  0.5600

 Functional: M052XX                    Factor:  0.4400
 Functional: M052XC                    Factor:  1.0000

 Generated new metagrid on record  1800.2 with target accuracy 1.0D-06 and 21772 points in CPU time    0.5
 Computed new grid on record 1800.1 in CPU time    0.5
   60006 words reserved for DFT integration

 PROGRAM * UKS-SCF (Unrestricted Kohn-Sham)     Authors: W. Meyer, H.-J. Werner, P.J. Knowles, 1993

 NUMBER OF ELECTRONS:      10+    8-    SPACE SYMMETRY=1    SPIN SYMMETRY: Triplet 
 CONVERGENCE THRESHOLDS:    1.00E-05 (Density)    1.00E-06 (Energy)
 MAX. NUMBER OF ITERATIONS:       60
 INTERPOLATION TYPE:            DIIS
 INTERPOLATION STEPS:              2 (START)      1 (STEP)
 LEVEL SHIFTS:                 -0.20 (ALPHA)  -0.20 (BETA) 



 Use fine grid record 1800.2 for energy threshold  1.0D-06
 Orbital guess generated from atomic densities. Full valence occupancy:    9

 Molecular orbital dump at record        2200.2

 Initial alpha occupation  10
 Initial beta  occupation   8

 ITERATION    DDIFF          GRAD             ENERGY        2-EL.EN.            DIPOLE MOMENTS         DIIS
    1      0.000D+00      0.000D+00      -115.39225927    158.539787   -0.00299   -0.96821    0.00000    0
    2      0.960D-02      0.617D-02      -115.41789038    157.043763   -0.00023   -0.94966    0.00000    1
    3      0.246D-02      0.183D-02      -115.42095781    157.276078    0.00048   -0.88199    0.00000    2
    4      0.160D-02      0.872D-03      -115.42221101    157.299872    0.00147   -0.83826    0.00000    3
    5      0.699D-03      0.394D-03      -115.42244306    157.255103    0.00183   -0.80518    0.00000    4
    6      0.488D-03      0.164D-03      -115.42252406    157.250730    0.00203   -0.77891    0.00000    5
    7      0.238D-03      0.697D-04      -115.42254056    157.239492    0.00204   -0.76471    0.00000    6
    8      0.112D-03      0.279D-04      -115.42254324    157.239762    0.00200   -0.75898    0.00000    7
    9      0.273D-04      0.795D-05      -115.42254342    157.239135    0.00199   -0.75792    0.00000    7
   10      0.416D-05      0.181D-05      -115.42254342    157.239072    0.00199   -0.75793    0.00000    8
   11      0.822D-06      0.447D-06      -115.42254342    157.239096    0.00199   -0.75791    0.00000    7

 Final alpha occupancy:  10
 Final beta  occupancy:   8

 !UKS STATE 1.1 Energy               -115.422543424537
 Nuclear energy                        30.91031049
 One-electron energy                 -217.85705239
 Two-electron energy                   78.61954802
 Density functional                    -7.09534955     M052XX=-14.74894357 M052XC= -0.60581438
 Virial quotient                       -1.00682962
 !UKS STATE 1.1 Dipole moment           0.00199461    -0.75790788     0.00000000
 Dipole moment /Debye                   0.00506946    -1.92628352     0.00000000

 Orbital energies for positive spin:

         1.1          2.1          3.1          4.1          5.1          6.1          7.1          8.1          9.1         10.1
    -19.737076   -10.596169    -1.082919    -0.814273    -0.570417    -0.511493    -0.508408    -0.491515    -0.420286    -0.349995

        11.1         12.1
      0.120864     0.184340

 Orbital energies for negative spin:

         1.1          2.1          3.1          4.1          5.1          6.1          7.1          8.1          9.1         10.1
    -19.703115   -10.588079    -0.959628    -0.782650    -0.500586    -0.499452    -0.460451    -0.373676    -0.072761    -0.052100

        11.1         12.1
      0.123160     0.188974

 HOMO     10.1    -0.349995 =      -9.5239eV
 LUMO     -9.1    -0.072761 =      -1.9799eV
 LUMO-HOMO         0.277234 =       7.5439eV

 EXPECTATION VALUE OF S**2:             2.01417719

 Occupation number threshold for canonical orbitals:  1.999000 (occupied),  0.001000 (virtual)

 Number of pseudo-canonical orbitals per symmetry:    7
 Number of active natural orbitals per symmetry:      4

 Natural orbitals saved to record    2200.2 (Orbital set 3)

 Orbital spaces for UNO-CAS (Min. occupation: 0.020  Max. occupation: 1.980):

 Closed:        8
 Active:        2


 **********************************************************************************************************************************
 DATASETS  * FILE   NREC   LENGTH (MB)   RECORD NAMES
              1      20       31.41       500      610      700      900      950      970     1000      129      960     1100   
                                          VAR    BASINP    GEOM    SYMINP    ZMAT    AOBASIS   BASIS     P2S    ABASIS      S 
                                         1400     1410     1200     1210     1080     1600     1650     1300     1700     1800   
                                           T        V       H0       H01     AOSYM     SMH    MOLCAS    ERIS     OPER     GRID   

              2       5        2.90       700     1000      520     1800     2200   
                                         GEOM     BASIS   MCVARS    GRID      UKS  

 PROGRAMS   *        TOTAL       UKS       INT
 CPU TIMES  *         6.80      6.40      0.25
 REAL TIME  *        12.35 SEC
 DISK USED  *        35.71 MB      
 **********************************************************************************************************************************


 PROGRAM * Intrinsic Basis Bonding Analysis (IBBA)          Author: G. Knizia

 Molecular orbitals read from record     2200.2  Type=UKS/ALPHA (state 1.1)
 Fock matrix read from record            2200.2  Type=UKS/TOTAL (state 1.1)
 Orbital energies read from record       2200.2  Type=UKS/ALPHA (state 1.1)
 Density matrix read from record         2200.2  Type=UKS/CHARGE (state 1.1)

 Number of core orbitals:           2 (   2 )
 Number of closed-shell orbitals:   6 (   6 )
 Number of active  orbitals:        2 (   2 )

 Basis set MINAO-AUTO-PP generated.      Number of basis functions:   14 

 Polarized AO type:                A = (O Ot + (1-O)(1-Ot)) P12
 Orthogonalization method:         Symmetric (Loewdin)
 Localization functional:          L = sum[A,i] <i|n_A|i>^4 -> max

 Localization group 1:   8 orbitals, occupancy  2.000
 Iterative localization: IB/PM,    6 iter; Final gradient 0.76E-08

 Bond order analysis:       [THRPRINT= 0.020]

   CEN ATOM   CEN ATOM     WIBERG.BO      RENORM.BO
     1   C  -   2   H       0.944683       0.999599
     1   C  -   4   H       0.935303       0.999764
     1   C  -   3   H       0.935303       0.999764
     1   C  -   6   O       0.422524       2.003702
     1   C  -   5   H       0.208638       0.809429

     2   H  -   1   C       0.944683       0.999599

     3   H  -   1   C       0.935303       0.999764
     3   H  -   6   O       0.020539       0.500125

     4   H  -   1   C       0.935303       0.999764
     4   H  -   6   O       0.020539       0.500125

     5   H  -   6   O       0.619290       0.850951
     5   H  -   1   C       0.208638       0.809429

     6   O  -   5   H       0.619290       0.850951
     6   O  -   1   C       0.422524       2.003702
     6   O  -   3   H       0.020539       0.500125
     6   O  -   4   H       0.020539       0.500125


 Valency analysis:

   CEN ATOM   TOT.VALENCE
     1   C       3.446451
     2   H       0.965943
     3   H       0.963596
     4   H       0.963596
     5   H       0.848754
     6   O       1.096570
 Localization group 2:   2 orbitals, occupancy  1.000
 Iterative localization: IB/PM,    1 iter; Final gradient 0.55E-14

 Bond order analysis:       [THRPRINT= 0.020]

   CEN ATOM   CEN ATOM     WIBERG.BO      RENORM.BO
     1   C  -   6   O       0.397731       1.000000
     1   C  -   5   H       0.059883       0.500000




     5   H  -   1   C       0.059883       0.500000
     5   H  -   6   O       0.032062       0.500000

     6   O  -   1   C       0.397731       1.000000
     6   O  -   5   H       0.032062       0.500000


 Valency analysis:

   CEN ATOM   TOT.VALENCE
     1   C       0.486715
     2   H       0.015886
     3   H       0.020472
     4   H       0.020472
     5   H       0.094336
     6   O       0.454485

 Total charge composition:

   CEN ATOM         s          p       ELECTRONS ->P.CHARGE
     1   C       3.10784    3.31407      6.42192   -0.42192
     2   H       0.82346                 0.82346    0.17654
     3   H       0.81954                 0.81954    0.18046
     4   H       0.81954                 0.81954    0.18046
     5   H       0.66073                 0.66073    0.33927
     6   O       3.90403    4.55077      8.45480   -0.45480

 Total charge composition, AO contributions:

   CEN ATOM SHL      SPHERICAL COMPONENTS
     1   C  1s       1.99120
     1   C  2s       1.11664
     1   C  2p       1.20289    0.91219    1.19899

     2   H  1s       0.82346

     3   H  1s       0.81954

     4   H  1s       0.81954

     5   H  1s       0.66073

     6   O  1s       1.99928
     6   O  2s       1.90475
     6   O  2p       1.99976    1.54135    1.00966

 Active orbital charges:

   CEN ATOM         s          p       ELECTRONS ->SPIN.DEN
     1   C       0.01620    0.59112      0.60731    0.60731
     2   H       0.00801                 0.00801    0.00801
     3   H       0.01034                 0.01034    0.01034
     4   H       0.01034                 0.01034    0.01034
     5   H       0.04963                 0.04963    0.04963
     6   O       0.00616    1.30820      1.31436    1.31436

 Active orbital charges, AO contributions:

   CEN ATOM SHL      SPHERICAL COMPONENTS
     1   C  1s       0.00003
     1   C  2s       0.01617
     1   C  2p       0.00012    0.58695    0.00404

     2   H  1s       0.00801

     3   H  1s       0.01034

     4   H  1s       0.01034

     5   H  1s       0.04963

     6   O  1s       0.00005
     6   O  2s       0.00612
     6   O  2p       0.00002    0.31683    0.99136

 Summary of localized orbital composition:   [THRPRINT= 0.020]

   ORB  GRP  ORB.ENERGY      CENTERS/CHARGES
     1   1   -19.575281      O  6   2.000
     2   1   -10.473310      C  1   2.000
     3   1    -1.037271      O  6   1.955   C  1   0.029
     4   1    -0.640105      C  1   1.164   H  4   0.803   H  5   0.023
     5   1    -0.640105      C  1   1.164   H  3   0.803   H  5   0.023
     6   1    -0.638980      C  1   1.167   H  2   0.809   H  5   0.023
     7   1    -0.633191      O  6   1.164   H  5   0.527   C  1   0.291
     8   1    -0.263030      O  6   2.000
     9   2    -0.396629      O  6   0.991
    10   2    -0.216463      C  1   0.603   O  6   0.323   H  5   0.050   (other: 0.024)

 Localized orbitals saved to record      2200.2  (orbital set 4)


 **********************************************************************************************************************************
 DATASETS  * FILE   NREC   LENGTH (MB)   RECORD NAMES
              1      20       31.41       500      610      700      900      950      970     1000      129      960     1100   
                                          VAR    BASINP    GEOM    SYMINP    ZMAT    AOBASIS   BASIS     P2S    ABASIS      S 
                                         1400     1410     1200     1210     1080     1600     1650     1300     1700     1800   
                                           T        V       H0       H01     AOSYM     SMH    MOLCAS    ERIS     OPER     GRID   

              2       5        2.91       700     1000      520     1800     2200   
                                         GEOM     BASIS   MCVARS    GRID      UKS  

 PROGRAMS   *        TOTAL      IBBA       UKS       INT
 CPU TIMES  *         6.83      0.03      6.40      0.25
 REAL TIME  *        12.46 SEC
 DISK USED  *        35.71 MB      
 **********************************************************************************************************************************
 Molecular orbitals read from record     2200.2  Type=UKS/LOCAL(IBO)  
 Occupation numbers read from record     2200.2  Type=UKS/LOCAL(IBO)  
 Orbital energies read from record       2200.2  Type=UKS/LOCAL(IBO)  
 Redundancy group numbers read from rec  2200.2  Type=UKS/BETA (state 1.1)

 IBBA/SV(P) energy=      0.000000000000

        UKS-SCF 
   -115.42254342
 **********************************************************************************************************************************
 Molpro calculation terminated
