
 Primary working directories    : /local
 Secondary working directories  : /local
 Wavefunction directory         : /local/
 Main file repository           : /local/

 SHA1      : b4a5b34a9e711420743f49e6833241d17c61fb3c
 NAME      : 2099.9.b4a5b34
 ARCHNAME  : linux/x86_64_openmp
 FC        : /cm/shared/languages/GCC-6.1/bin/gfortran
 BLASLIB   : -lblas
 id        : simonbennie

 Nodes     nprocs
 node36-003    1

 Using customized tuning parameters: mindgm=1; mindgv=20; mindgc=4; mindgr=1; noblas=0; minvec=7
 default implementation of scratch files=df  

 memory,500,m
 geomtyp=xyz
 nosym
 noorient
 geometry={
 C          0.00029       -1.14229        0.00000
 H         -1.05596       -1.38474        0.00000
 H          0.52017       -1.40739        0.91245
 H          0.52017       -1.40739       -0.91245
 H          0.01156        0.16010        0.00000
 O          0.00029        1.36164        0.00000
 }
 basis={ default,avdz }
 {ks,B-VWN,direct;wf,18,1,2}
 {ibba,bonds=1}

 Variables initialized (895), CPU time= 0.00 sec
 Commands  initialized (725), CPU time= 0.01 sec, 591 directives.
 Default parameters read. Elapsed time= 0.08 sec

 Checking input...
 Passed
1


                                         ***  PROGRAM SYSTEM MOLPRO  ***
                                       Copyright, TTI GmbH Stuttgart, 2015
                                    Version 2099.9 linked May 26 2017 16:03:21


 **********************************************************************************************************************************
 LABEL *                                                                                 
  64 bit serial version                                                                  DATE: 30-Jun-17          TIME: 09:11:27  
 **********************************************************************************************************************************

 SHA1:             b4a5b34a9e711420743f49e6833241d17c61fb3c
 **********************************************************************************************************************************
 SETTING GEOMTYP        =    XYZ

 Variable memory set to  500000000 words,  buffer space 

 ZSYMEL=NOSYM

 SETTING BASIS          =    AVDZ


 Recomputing integrals since basis changed


 Using spherical harmonics

 Library entry C      S aug-cc-pVDZ          selected for orbital group  1
 Library entry C      P aug-cc-pVDZ          selected for orbital group  1
 Library entry C      D aug-cc-pVDZ          selected for orbital group  1
 Library entry H      S aug-cc-pVDZ          selected for orbital group  2
 Library entry H      P aug-cc-pVDZ          selected for orbital group  2
 Library entry O      S aug-cc-pVDZ          selected for orbital group  3
 Library entry O      P aug-cc-pVDZ          selected for orbital group  3
 Library entry O      D aug-cc-pVDZ          selected for orbital group  3


 PROGRAM * SEWARD (Integral evaluation for generally contracted gaussian basis sets)     Author: Roland Lindh, 1990

 Geometry written to block  1 of record 700


 Point group  C1  



 ATOMIC COORDINATES

 NR  ATOM    CHARGE       X              Y              Z

   1  C       6.00    0.000548021   -2.158615255    0.000000000
   2  H       1.00   -1.995475198   -2.616779354    0.000000000
   3  H       1.00    0.982978838   -2.659581650    1.724280602
   4  H       1.00    0.982978838   -2.659581650   -1.724280602
   5  H       1.00    0.021845234    0.302545153    0.000000000
   6  O       8.00    0.000548021    2.573126680    0.000000000

 Bond lengths in Bohr (Angstrom)

 1-2  2.047931403  1-3  2.046773372  1-4  2.046773372  1-5  2.461252551  5-6  2.270681405
     ( 1.083718628)     ( 1.083105824)     ( 1.083105824)     ( 1.302438761)     ( 1.201592853)

 Bond angles

  1-5-6  178.96681612   2-1-3  114.39760025   2-1-4  114.39760025   2-1-5  103.42343284

  3-1-4  114.79703525   3-1-5  103.92175352   4-1-5  103.92175352

 NUCLEAR CHARGE:                   18
 NUMBER OF PRIMITIVE AOS:         118
 NUMBER OF SYMMETRY AOS:          114
 NUMBER OF CONTRACTIONS:           82   (  82A   )
 NUMBER OF CORE ORBITALS:           2   (   2A   )
 NUMBER OF VALENCE ORBITALS:       12   (  12A   )


 NUCLEAR REPULSION ENERGY   30.91031049


 Eigenvalues of metric

         1 0.437E-03 0.758E-03 0.760E-03 0.826E-03 0.333E-02 0.433E-02 0.637E-02 0.643E-02


 Contracted 2-electron integrals neglected if value below      1.0D-11
 AO integral compression algorithm  1   Integral accuracy      1.0D-11

     25.690 MB (compressed) written to integral file ( 43.8%)


 NUMBER OF SORTED TWO-ELECTRON INTEGRALS:    5791906.     BUFFER LENGTH:  32768
 NUMBER OF SEGMENTS:   1  SEGMENT LENGTH:    5791906      RECORD LENGTH: 524288

 Memory used in sort:       6.35 MW

 SORT1 READ     7357314. AND WROTE     4574922. INTEGRALS IN     14 RECORDS. CPU TIME:     0.07 SEC, REAL TIME:     0.14 SEC
 SORT2 READ     4574922. AND WROTE     5791906. INTEGRALS IN     98 RECORDS. CPU TIME:     0.17 SEC, REAL TIME:     0.23 SEC

 FILE SIZES:   FILE 1:    56.0 MBYTE,  FILE 4:    58.8 MBYTE,   TOTAL:    114.7 MBYTE

 OPERATOR DM      FOR CENTER  0  COORDINATES:    0.000000    0.000000    0.000000


 **********************************************************************************************************************************
 DATASETS  * FILE   NREC   LENGTH (MB)   RECORD NAMES
              1      19       51.28       500      610      700      900      950      970     1000      129      960     1100   
                                          VAR    BASINP    GEOM    SYMINP    ZMAT    AOBASIS   BASIS     P2S    ABASIS      S 
                                         1400     1410     1200     1210     1080     1600     1650     1300     1700   
                                           T        V       H0       H01     AOSYM     SMH    MOLCAS    ERIS     OPER   

 PROGRAMS   *        TOTAL       INT
 CPU TIMES  *         0.90      0.75
 REAL TIME  *         1.37 SEC
 DISK USED  *       115.10 MB      
 **********************************************************************************************************************************

 Density functional group B-VWN=B88+VWN5
 Functional: B88(Automatically generated (new) B88)                            Gradient terms: 1
 Functional: VWN5(Automatically generated (new) VWN5)                          Gradient terms: 0
 Use grid at  1800.2

 Functional: B88                       Factor:  1.0000
 Functional: VWN5                      Factor:  1.0000

 Generated new metagrid on record  1800.2 with target accuracy 1.0D-06 and 21772 points in CPU time    0.5
 Computed new grid on record 1800.1 in CPU time    0.5
   69126 words reserved for DFT integration

 PROGRAM * RKS-SCF (Restricted open shell Kohn-Sham)     Authors: W. Meyer, H.-J. Werner, P.J. Knowles, 1993

 NUMBER OF ELECTRONS:      10+    8-    SPACE SYMMETRY=1    SPIN SYMMETRY: Triplet 
 CONVERGENCE THRESHOLDS:    1.00E-05 (Density)    1.00E-06 (Energy)
 MAX. NUMBER OF ITERATIONS:       60
 INTERPOLATION TYPE:            DIIS
 INTERPOLATION STEPS:              2 (START)      1 (STEP)
 LEVEL SHIFTS:                 -0.60 (CLOSED) -0.30 (OPEN) 



 Use fine grid record 1800.2 for energy threshold  1.0D-06
 Orbital guess generated from atomic densities. Full valence occupancy:   14

 Molecular orbital dump at record        2100.2

 Initial alpha occupancy:  10
 Initial beta  occupancy:   8
 Wave function symmetry:    1

 ITERATION    DDIFF          GRAD             ENERGY        2-EL.EN.            DIPOLE MOMENTS         DIIS   ORB.
    1      0.000D+00      0.000D+00      -116.03172567    177.270134   -0.00149   -0.53974    0.00000    0    start
    2      0.000D+00      0.948D-02      -116.09152752    173.473803   -0.00040   -1.19794    0.00000    1    diag,B
    3      0.253D-01      0.468D-02      -116.10877923    173.491685   -0.00047   -0.79898    0.00000    2    diag,B
    4      0.989D-02      0.127D-02      -116.11001649    173.854720   -0.00014   -0.87982    0.00000    3    diag,B
    5      0.195D-02      0.320D-03      -116.11022201    173.734853    0.00016   -0.85265    0.00000    4    diag,B
    6      0.136D-02      0.935D-04      -116.11024635    173.722872    0.00030   -0.85224    0.00000    5    diag,B
    7      0.358D-03      0.282D-04      -116.11024866    173.717491    0.00034   -0.85246    0.00000    6    fixocc
    8      0.128D-03      0.963D-05      -116.11024895    173.716869    0.00036   -0.85290    0.00000    7    diag,B
    9      0.736D-04      0.280D-05      -116.11024897    173.716734    0.00037   -0.85318    0.00000    8    diag,B
   10      0.236D-04      0.981D-06      -116.11024898    173.716706    0.00037   -0.85326    0.00000    9    orth
   11      0.990D-05      0.347D-06      -116.11024898    173.716692    0.00037   -0.85327    0.00000    0    orth

 Final alpha occupancy:  10
 Final beta  occupancy:   8

 !RKS STATE 1.1 Energy               -116.110248978962
 Nuclear energy                        30.91031049
 One-electron energy                 -217.97246561
 Two-electron energy                   86.85834598
 Density functional                   -15.90643985     B88=-14.76879140 VWN5= -1.13764845
 Virial quotient                       -1.00986607
 !RKS STATE 1.1 Dipole moment           0.00037129    -0.85326760     0.00000000
 Dipole moment /Debye                   0.00094367    -2.16864788     0.00000000

 Orbital energies:

         1.1          2.1          3.1          4.1          5.1          6.1          7.1          8.1          9.1         10.1
    -18.891904    -9.992122    -0.862582    -0.662617    -0.418539    -0.405135    -0.405058    -0.276361    -0.357738    -0.258575

        11.1         12.1
     -0.026966     0.012479

 HOMO     10.1    -0.258575 =      -7.0362eV
 LUMO     11.1    -0.026966 =      -0.7338eV
 LUMO-HOMO         0.231608 =       6.3024eV


 **********************************************************************************************************************************
 DATASETS  * FILE   NREC   LENGTH (MB)   RECORD NAMES
              1      20       51.98       500      610      700      900      950      970     1000      129      960     1100   
                                          VAR    BASINP    GEOM    SYMINP    ZMAT    AOBASIS   BASIS     P2S    ABASIS      S 
                                         1400     1410     1200     1210     1080     1600     1650     1300     1700     1800   
                                           T        V       H0       H01     AOSYM     SMH    MOLCAS    ERIS     OPER     GRID   

              2       5        3.03       700     1000      520     1800     2100   
                                         GEOM     BASIS   MCVARS    GRID      RKS  

 PROGRAMS   *        TOTAL        KS       INT
 CPU TIMES  *         6.63      5.73      0.75
 REAL TIME  *         7.68 SEC
 DISK USED  *       115.10 MB      
 **********************************************************************************************************************************


 PROGRAM * Intrinsic Basis Bonding Analysis (IBBA)          Author: G. Knizia

 Molecular orbitals read from record     2100.2  Type=RKS/CANONICAL (state 1.1)
 Fock matrix read from record            2100.2  Type=RKS/TOTAL (state 1.1)
 Orbital energies read from record       2100.2  Type=RKS/CANONICAL (state 1.1)
 Density matrix read from record         2100.2  Type=RKS/CHARGE (state 1.1)

 Number of core orbitals:           2 (   2 )
 Number of closed-shell orbitals:   6 (   6 )
 Number of active  orbitals:        2 (   2 )

 Basis set MINAO-AUTO-PP generated.      Number of basis functions:   14 

 Polarized AO type:                A = (O Ot + (1-O)(1-Ot)) P12
 Orthogonalization method:         Symmetric (Loewdin)
 Localization functional:          L = sum[A,i] <i|n_A|i>^4 -> max

 Localization group 1:   8 orbitals, occupancy  2.000
 Iterative localization: IB/PM,    6 iter; Final gradient 0.21E-09

 Bond order analysis:       [THRPRINT= 0.020]

   CEN ATOM   CEN ATOM     WIBERG.BO      RENORM.BO
     1   C  -   4   H       0.955435       0.999024
     1   C  -   3   H       0.955435       0.999024
     1   C  -   2   H       0.954053       0.999833
     1   C  -   6   O       0.465757       2.003402
     1   C  -   5   H       0.319324       0.832178

     2   H  -   1   C       0.954053       0.999833

     3   H  -   1   C       0.955435       0.999024

     4   H  -   1   C       0.955435       0.999024

     5   H  -   6   O       0.594792       0.901307
     5   H  -   1   C       0.319324       0.832178

     6   O  -   5   H       0.594792       0.901307
     6   O  -   1   C       0.465757       2.003402


 Valency analysis:

   CEN ATOM   TOT.VALENCE
     1   C       3.650005
     2   H       0.970450
     3   H       0.970564
     4   H       0.970564
     5   H       0.922824
     6   O       1.097138
 Localization group 2:   2 orbitals, occupancy  1.000
 Iterative localization: IB/PM,    2 iter; Final gradient 0.57E-08

 Bond order analysis:       [THRPRINT= 0.020]

   CEN ATOM   CEN ATOM     WIBERG.BO      RENORM.BO
     1   C  -   6   O       0.460236       1.000000
     1   C  -   5   H       0.025624       0.500000




     5   H  -   1   C       0.025624       0.500000
     5   H  -   6   O       0.022883       0.500000

     6   O  -   1   C       0.460236       1.000000
     6   O  -   5   H       0.022883       0.500000


 Valency analysis:

   CEN ATOM   TOT.VALENCE
     1   C       0.500967
     2   H       0.011554
     3   H       0.010439
     4   H       0.010439
     5   H       0.049260
     6   O       0.499420

 Total charge composition:

   CEN ATOM         s          p       ELECTRONS ->P.CHARGE
     1   C       3.12052    3.34986      6.47038   -0.47038
     2   H       0.83391                 0.83391    0.16609
     3   H       0.83368                 0.83368    0.16632
     4   H       0.83368                 0.83368    0.16632
     5   H       0.74746                 0.74746    0.25254
     6   O       3.90983    4.37106      8.28089   -0.28089

 Total charge composition, AO contributions:

   CEN ATOM SHL      SPHERICAL COMPONENTS
     1   C  1s       1.99176
     1   C  2s       1.12875
     1   C  2p       1.18480    0.97919    1.18587

     2   H  1s       0.83391

     3   H  1s       0.83368

     4   H  1s       0.83368

     5   H  1s       0.74746

     6   O  1s       1.99937
     6   O  2s       1.91046
     6   O  2p       1.00207    1.36977    1.99922

 Active orbital charges:

   CEN ATOM         s          p       ELECTRONS ->SPIN.DEN
     1   C       0.02366    0.48394      0.50759    0.50759
     2   H       0.00581                 0.00581    0.00581
     3   H       0.00525                 0.00525    0.00525
     4   H       0.00525                 0.00525    0.00525
     5   H       0.02527                 0.02527    0.02527
     6   O       0.00356    1.44728      1.45083    1.45083

 Active orbital charges, AO contributions:

   CEN ATOM SHL      SPHERICAL COMPONENTS
     1   C  1s       0.00003
     1   C  2s       0.02363
     1   C  2p       0.00063    0.48331    0.00000

     2   H  1s       0.00581

     3   H  1s       0.00525

     4   H  1s       0.00525

     5   H  1s       0.02527

     6   O  1s       0.00003
     6   O  2s       0.00353
     6   O  2p       0.99800    0.44927    0.00000

 Summary of localized orbital composition:   [THRPRINT= 0.020]

   ORB  GRP  ORB.ENERGY      CENTERS/CHARGES
     1   1   -18.760949      O  6   2.000
     2   1    -9.880312      C  1   2.000
     3   1    -0.906672      O  6   1.947   C  1   0.032   H  5   0.020
     4   1    -0.523819      C  1   1.158   H  2   0.825
     5   1    -0.523281      C  1   1.160   H  3   0.825
     6   1    -0.523281      C  1   1.160   H  4   0.825
     7   1    -0.519250      O  6   0.871   H  5   0.667   C  1   0.452
     8   1    -0.276758      O  6   1.999
     9   2    -0.290837      O  6   0.998
    10   2    -0.225194      C  1   0.507   O  6   0.453   H  5   0.025

 Localized orbitals saved to record      2100.2  (orbital set 2)


 **********************************************************************************************************************************
 DATASETS  * FILE   NREC   LENGTH (MB)   RECORD NAMES
              1      20       51.98       500      610      700      900      950      970     1000      129      960     1100   
                                          VAR    BASINP    GEOM    SYMINP    ZMAT    AOBASIS   BASIS     P2S    ABASIS      S 
                                         1400     1410     1200     1210     1080     1600     1650     1300     1700     1800   
                                           T        V       H0       H01     AOSYM     SMH    MOLCAS    ERIS     OPER     GRID   

              2       5        3.09       700     1000      520     1800     2100   
                                         GEOM     BASIS   MCVARS    GRID      RKS  

 PROGRAMS   *        TOTAL      IBBA        KS       INT
 CPU TIMES  *         6.66      0.02      5.73      0.75
 REAL TIME  *         7.77 SEC
 DISK USED  *       115.10 MB      
 **********************************************************************************************************************************
 Molecular orbitals read from record     2100.2  Type=RKS/LOCAL(IBO)  
 Occupation numbers read from record     2100.2  Type=RKS/LOCAL(IBO)  
 Orbital energies read from record       2100.2  Type=RKS/LOCAL(IBO)  
 Redundancy group numbers read from rec  2100.2  Type=RKS/LOCAL(IBO)  

 IBBA/aug-cc-pVDZ energy=      0.000000000000

        KS-SCF  
   -116.11024898
 **********************************************************************************************************************************
 Molpro calculation terminated
