
 Primary working directories    : /local
 Secondary working directories  : /local
 Wavefunction directory         : /local/
 Main file repository           : /local/

 SHA1      : b4a5b34a9e711420743f49e6833241d17c61fb3c
 NAME      : 2099.9.b4a5b34
 ARCHNAME  : linux/x86_64_openmp
 FC        : /cm/shared/languages/GCC-6.1/bin/gfortran
 BLASLIB   : -lblas
 id        : simonbennie

 Nodes     nprocs
 node34-019    1

 Using customized tuning parameters: mindgm=1; mindgv=20; mindgc=4; mindgr=1; noblas=0; minvec=7
 default implementation of scratch files=df  

 memory,500,m
 geomtyp=xyz
 nosym
 noorient
 geometry={
 C          0.00029       -1.14229        0.00000
 H         -1.05596       -1.38474        0.00000
 H          0.52017       -1.40739        0.91245
 H          0.52017       -1.40739       -0.91245
 H          0.01156        0.16010        0.00000
 O          0.00029        1.36164        0.00000
 }
 basis={ default,avtz }
 {uks,B97,direct;wf,18,1,2}
 {ibba,bonds=1}

 Variables initialized (895), CPU time= 0.00 sec
 Commands  initialized (725), CPU time= 0.02 sec, 591 directives.
 Default parameters read. Elapsed time= 0.09 sec

 Checking input...
 Passed
1


                                         ***  PROGRAM SYSTEM MOLPRO  ***
                                       Copyright, TTI GmbH Stuttgart, 2015
                                    Version 2099.9 linked May 26 2017 16:03:21


 **********************************************************************************************************************************
 LABEL *                                                                                 
  64 bit serial version                                                                  DATE: 21-Jun-17          TIME: 08:16:44  
 **********************************************************************************************************************************

 SHA1:             b4a5b34a9e711420743f49e6833241d17c61fb3c
 **********************************************************************************************************************************
 SETTING GEOMTYP        =    XYZ

 Variable memory set to  500000000 words,  buffer space 

 ZSYMEL=NOSYM

 SETTING BASIS          =    AVTZ


 Recomputing integrals since basis changed


 Using spherical harmonics

 Library entry C      S aug-cc-pVTZ          selected for orbital group  1
 Library entry C      P aug-cc-pVTZ          selected for orbital group  1
 Library entry C      D aug-cc-pVTZ          selected for orbital group  1
 Library entry C      F aug-cc-pVTZ          selected for orbital group  1
 Library entry H      S aug-cc-pVTZ          selected for orbital group  2
 Library entry H      P aug-cc-pVTZ          selected for orbital group  2
 Library entry H      D aug-cc-pVTZ          selected for orbital group  2
 Library entry O      S aug-cc-pVTZ          selected for orbital group  3
 Library entry O      P aug-cc-pVTZ          selected for orbital group  3
 Library entry O      D aug-cc-pVTZ          selected for orbital group  3
 Library entry O      F aug-cc-pVTZ          selected for orbital group  3


 PROGRAM * SEWARD (Integral evaluation for generally contracted gaussian basis sets)     Author: Roland Lindh, 1990

 Geometry written to block  1 of record 700


 Point group  C1  



 ATOMIC COORDINATES

 NR  ATOM    CHARGE       X              Y              Z

   1  C       6.00    0.000548021   -2.158615255    0.000000000
   2  H       1.00   -1.995475198   -2.616779354    0.000000000
   3  H       1.00    0.982978838   -2.659581650    1.724280602
   4  H       1.00    0.982978838   -2.659581650   -1.724280602
   5  H       1.00    0.021845234    0.302545153    0.000000000
   6  O       8.00    0.000548021    2.573126680    0.000000000

 Bond lengths in Bohr (Angstrom)

 1-2  2.047931403  1-3  2.046773372  1-4  2.046773372  1-5  2.461252551  5-6  2.270681405
     ( 1.083718628)     ( 1.083105824)     ( 1.083105824)     ( 1.302438761)     ( 1.201592853)

 Bond angles

  1-5-6  178.96681612   2-1-3  114.39760025   2-1-4  114.39760025   2-1-5  103.42343284

  3-1-4  114.79703525   3-1-5  103.92175352   4-1-5  103.92175352

 NUCLEAR CHARGE:                   18
 NUMBER OF PRIMITIVE AOS:         242
 NUMBER OF SYMMETRY AOS:          216
 NUMBER OF CONTRACTIONS:          184   ( 184A   )
 NUMBER OF CORE ORBITALS:           2   (   2A   )
 NUMBER OF VALENCE ORBITALS:       12   (  12A   )


 NUCLEAR REPULSION ENERGY   30.91031049


 Eigenvalues of metric

         1 0.539E-04 0.884E-04 0.103E-03 0.104E-03 0.467E-03 0.514E-03 0.516E-03 0.878E-03


 Contracted 2-electron integrals neglected if value below      1.0D-11
 AO integral compression algorithm  1   Integral accuracy      1.0D-11

     576.193 MB (compressed) written to integral file ( 41.9%)


 NUMBER OF SORTED TWO-ELECTRON INTEGRALS:  144848710.     BUFFER LENGTH:  32768
 NUMBER OF SEGMENTS:  10  SEGMENT LENGTH:   15999503      RECORD LENGTH: 524288

 Memory used in sort:      16.56 MW

 SORT1 READ   171965764. AND WROTE   117452286. INTEGRALS IN    341 RECORDS. CPU TIME:     1.76 SEC, REAL TIME:    11.61 SEC
 SORT2 READ   117452286. AND WROTE   144848710. INTEGRALS IN   2198 RECORDS. CPU TIME:     2.88 SEC, REAL TIME:    13.51 SEC

 FILE SIZES:   FILE 1:   607.5 MBYTE,  FILE 4:  1430.3 MBYTE,   TOTAL:   2037.8 MBYTE

 OPERATOR DM      FOR CENTER  0  COORDINATES:    0.000000    0.000000    0.000000


 **********************************************************************************************************************************
 DATASETS  * FILE   NREC   LENGTH (MB)   RECORD NAMES
              1      19      531.26       500      610      700      900      950      970     1000      129      960     1100   
                                          VAR    BASINP    GEOM    SYMINP    ZMAT    AOBASIS   BASIS     P2S    ABASIS      S 
                                         1400     1410     1200     1210     1080     1600     1650     1300     1700   
                                           T        V       H0       H01     AOSYM     SMH    MOLCAS    ERIS     OPER   

 PROGRAMS   *        TOTAL       INT
 CPU TIMES  *        10.67     10.52
 REAL TIME  *        48.50 SEC
 DISK USED  *         2.04 GB      
 **********************************************************************************************************************************

 Density functional group B97=B97DF
 Functional: B97DF(Automatically generated (new) B97DF)                        Gradient terms: 1
 Use grid at  1800.2


 Exact exchange will be calculated, factor:  0.1943

 Functional: B97DF                     Factor:  1.0000

 Generated new metagrid on record  1800.2 with target accuracy 1.0D-06 and 22580 points in CPU time    0.5
 Computed new grid on record 1800.1 in CPU time    0.5
  150340 words reserved for DFT integration

 PROGRAM * UKS-SCF (Unrestricted Kohn-Sham)     Authors: W. Meyer, H.-J. Werner, P.J. Knowles, 1993

 NUMBER OF ELECTRONS:      10+    8-    SPACE SYMMETRY=1    SPIN SYMMETRY: Triplet 
 CONVERGENCE THRESHOLDS:    1.00E-05 (Density)    1.00E-06 (Energy)
 MAX. NUMBER OF ITERATIONS:       60
 INTERPOLATION TYPE:            DIIS
 INTERPOLATION STEPS:              2 (START)      1 (STEP)
 LEVEL SHIFTS:                 -0.20 (ALPHA)  -0.20 (BETA) 



 Use fine grid record 1800.2 for energy threshold  1.0D-06
 Orbital guess generated from atomic densities. Full valence occupancy:   14

 Molecular orbital dump at record        2200.2

 Initial alpha occupation  10
 Initial beta  occupation   8

 ITERATION    DDIFF          GRAD             ENERGY        2-EL.EN.            DIPOLE MOMENTS         DIIS
    1      0.000D+00      0.000D+00      -115.52427820    170.415352   -0.00158   -0.72163    0.00000    0
    2      0.654D-02      0.167D-02      -115.56601776    167.603195   -0.00035   -0.94128    0.00000    1
    3      0.206D-02      0.689D-03      -115.57212969    167.968871   -0.00040   -0.84538    0.00000    2
    4      0.445D-03      0.185D-03      -115.57276269    168.076668   -0.00003   -0.85183    0.00000    3
    5      0.262D-03      0.967D-04      -115.57300216    168.001387    0.00019   -0.83839    0.00000    4
    6      0.117D-03      0.327D-04      -115.57306494    167.989830    0.00043   -0.82875    0.00000    5
    7      0.548D-04      0.837D-05      -115.57306899    167.991274    0.00049   -0.82696    0.00000    6
    8      0.159D-04      0.236D-05      -115.57306930    167.990070    0.00051   -0.82563    0.00000    7
    9      0.321D-05      0.907D-06      -115.57306934    167.990126    0.00051   -0.82536    0.00000    7
   10      0.204D-05      0.189D-06      -115.57306934    167.990278    0.00051   -0.82524    0.00000    7

 Final alpha occupancy:  10
 Final beta  occupancy:   8

 !UKS STATE 1.1 Energy               -115.573069340358
 Nuclear energy                        30.91031049
 One-electron energy                 -218.00193156
 Two-electron energy                   83.99513893
 Density functional                   -12.47658721     B97DF=-12.47658721
 Virial quotient                       -1.00560827
 !UKS STATE 1.1 Dipole moment           0.00051156    -0.82523990     0.00000000
 Dipole moment /Debye                   0.00130018    -2.09741323     0.00000000

 Orbital energies for positive spin:

         1.1          2.1          3.1          4.1          5.1          6.1          7.1          8.1          9.1         10.1
    -19.189339   -10.191808    -0.991074    -0.728284    -0.487967    -0.438942    -0.437314    -0.407313    -0.339400    -0.289420

        11.1         12.1
     -0.006428     0.025668

 Orbital energies for negative spin:

         1.1          2.1          3.1          4.1          5.1          6.1          7.1          8.1          9.1         10.1
    -19.156328   -10.184488    -0.877719    -0.698399    -0.429116    -0.428582    -0.411314    -0.295531    -0.158427    -0.140078

        11.1         12.1
     -0.001193     0.029209

 HOMO     10.1    -0.289420 =      -7.8755eV
 LUMO     -9.1    -0.158427 =      -4.3110eV
 LUMO-HOMO         0.130992 =       3.5645eV

 EXPECTATION VALUE OF S**2:             2.01132101

 Occupation number threshold for canonical orbitals:  1.999000 (occupied),  0.001000 (virtual)

 Number of pseudo-canonical orbitals per symmetry:    7
 Number of active natural orbitals per symmetry:      4

 Natural orbitals saved to record    2200.2 (Orbital set 3)

 Orbital spaces for UNO-CAS (Min. occupation: 0.020  Max. occupation: 1.980):

 Closed:        8
 Active:        2


 **********************************************************************************************************************************
 DATASETS  * FILE   NREC   LENGTH (MB)   RECORD NAMES
              1      20      531.98       500      610      700      900      950      970     1000      129      960     1100   
                                          VAR    BASINP    GEOM    SYMINP    ZMAT    AOBASIS   BASIS     P2S    ABASIS      S 
                                         1400     1410     1200     1210     1080     1600     1650     1300     1700     1800   
                                           T        V       H0       H01     AOSYM     SMH    MOLCAS    ERIS     OPER     GRID   

              2       5        4.23       700     1000      520     1800     2200   
                                         GEOM     BASIS   MCVARS    GRID      UKS  

 PROGRAMS   *        TOTAL       UKS       INT
 CPU TIMES  *        56.92     46.25     10.52
 REAL TIME  *       116.34 SEC
 DISK USED  *         2.04 GB      
 **********************************************************************************************************************************


 PROGRAM * Intrinsic Basis Bonding Analysis (IBBA)          Author: G. Knizia

 Molecular orbitals read from record     2200.2  Type=UKS/ALPHA (state 1.1)
 Fock matrix read from record            2200.2  Type=UKS/TOTAL (state 1.1)
 Orbital energies read from record       2200.2  Type=UKS/ALPHA (state 1.1)
 Density matrix read from record         2200.2  Type=UKS/CHARGE (state 1.1)

 Number of core orbitals:           2 (   2 )
 Number of closed-shell orbitals:   6 (   6 )
 Number of active  orbitals:        2 (   2 )

 Basis set MINAO-AUTO-PP generated.      Number of basis functions:   14 

 Polarized AO type:                A = (O Ot + (1-O)(1-Ot)) P12
 Orthogonalization method:         Symmetric (Loewdin)
 Localization functional:          L = sum[A,i] <i|n_A|i>^4 -> max

 Localization group 1:   8 orbitals, occupancy  2.000
 Iterative localization: IB/PM,    6 iter; Final gradient 0.70E-09

 Bond order analysis:       [THRPRINT= 0.020]

   CEN ATOM   CEN ATOM     WIBERG.BO      RENORM.BO
     1   C  -   2   H       0.941137       0.999434
     1   C  -   4   H       0.933236       0.999725
     1   C  -   3   H       0.933236       0.999725
     1   C  -   6   O       0.444814       2.003348
     1   C  -   5   H       0.235724       0.828687

     2   H  -   1   C       0.941137       0.999434

     3   H  -   1   C       0.933236       0.999725

     4   H  -   1   C       0.933236       0.999725

     5   H  -   6   O       0.605307       0.857270
     5   H  -   1   C       0.235724       0.828687

     6   O  -   5   H       0.605307       0.857270
     6   O  -   1   C       0.444814       2.003348


 Valency analysis:

   CEN ATOM   TOT.VALENCE
     1   C       3.488147
     2   H       0.960623
     3   H       0.958253
     4   H       0.958253
     5   H       0.857465
     6   O       1.102759
 Localization group 2:   2 orbitals, occupancy  1.000
 Iterative localization: IB/PM,    1 iter; Final gradient 0.26E-13

 Bond order analysis:       [THRPRINT= 0.020]

   CEN ATOM   CEN ATOM     WIBERG.BO      RENORM.BO
     1   C  -   6   O       0.414213       1.000000
     1   C  -   5   H       0.050550       0.500000




     5   H  -   1   C       0.050550       0.500000
     5   H  -   6   O       0.030913       0.500000

     6   O  -   1   C       0.414213       1.000000
     6   O  -   5   H       0.030913       0.500000


 Valency analysis:

   CEN ATOM   TOT.VALENCE
     1   C       0.493238
     2   H       0.016030
     3   H       0.020395
     4   H       0.020395
     5   H       0.083614
     6   O       0.470630

 Total charge composition:

   CEN ATOM         s          p       ELECTRONS ->P.CHARGE
     1   C       3.14739    3.33906      6.48645   -0.48645
     2   H       0.80964                 0.80964    0.19036
     3   H       0.80598                 0.80598    0.19402
     4   H       0.80598                 0.80598    0.19402
     5   H       0.66618                 0.66618    0.33382
     6   O       3.91541    4.51035      8.42577   -0.42577

 Total charge composition, AO contributions:

   CEN ATOM SHL      SPHERICAL COMPONENTS
     1   C  1s       1.99153
     1   C  2s       1.15586
     1   C  2p       1.20660    0.92886    1.20360

     2   H  1s       0.80964

     3   H  1s       0.80598

     4   H  1s       0.80598

     5   H  1s       0.66618

     6   O  1s       1.99933
     6   O  2s       1.91608
     6   O  2p       1.99964    1.50310    1.00762

 Active orbital charges:

   CEN ATOM         s          p       ELECTRONS ->SPIN.DEN
     1   C       0.01655    0.56431      0.58086    0.58086
     2   H       0.00808                 0.00808    0.00808
     3   H       0.01030                 0.01030    0.01030
     4   H       0.01030                 0.01030    0.01030
     5   H       0.04372                 0.04372    0.04372
     6   O       0.00468    1.34205      1.34673    1.34673

 Active orbital charges, AO contributions:

   CEN ATOM SHL      SPHERICAL COMPONENTS
     1   C  1s       0.00004
     1   C  2s       0.01652
     1   C  2p       0.00011    0.56147    0.00273

     2   H  1s       0.00808

     3   H  1s       0.01030

     4   H  1s       0.01030

     5   H  1s       0.04372

     6   O  1s       0.00004
     6   O  2s       0.00464
     6   O  2p       0.00001    0.34884    0.99319

 Summary of localized orbital composition:   [THRPRINT= 0.020]

   ORB  GRP  ORB.ENERGY      CENTERS/CHARGES
     1   1   -19.024363      O  6   2.000
     2   1   -10.070118      C  1   2.000
     3   1    -0.977829      O  6   1.956   C  1   0.027
     4   1    -0.563703      C  1   1.181   H  3   0.789   H  5   0.022
     5   1    -0.563703      C  1   1.181   H  4   0.789   H  5   0.022
     6   1    -0.563249      C  1   1.182   H  2   0.795   H  5   0.021
     7   1    -0.552505      O  6   1.105   H  5   0.542   C  1   0.335
     8   1    -0.275849      O  6   2.000
     9   2    -0.316767      O  6   0.993
    10   2    -0.214969      C  1   0.578   O  6   0.354   H  5   0.044   (other: 0.025)

 Localized orbitals saved to record      2200.2  (orbital set 4)


 **********************************************************************************************************************************
 DATASETS  * FILE   NREC   LENGTH (MB)   RECORD NAMES
              1      20      531.98       500      610      700      900      950      970     1000      129      960     1100   
                                          VAR    BASINP    GEOM    SYMINP    ZMAT    AOBASIS   BASIS     P2S    ABASIS      S 
                                         1400     1410     1200     1210     1080     1600     1650     1300     1700     1800   
                                           T        V       H0       H01     AOSYM     SMH    MOLCAS    ERIS     OPER     GRID   

              2       5        4.50       700     1000      520     1800     2200   
                                         GEOM     BASIS   MCVARS    GRID      UKS  

 PROGRAMS   *        TOTAL      IBBA       UKS       INT
 CPU TIMES  *        56.95      0.03     46.25     10.52
 REAL TIME  *       116.43 SEC
 DISK USED  *         2.04 GB      
 **********************************************************************************************************************************
 Molecular orbitals read from record     2200.2  Type=UKS/LOCAL(IBO)  
 Occupation numbers read from record     2200.2  Type=UKS/LOCAL(IBO)  
 Orbital energies read from record       2200.2  Type=UKS/LOCAL(IBO)  
 Redundancy group numbers read from rec  2200.2  Type=UKS/BETA (state 1.1)

 IBBA/aug-cc-pVTZ energy=      0.000000000000

        UKS-SCF 
   -115.57306934
 **********************************************************************************************************************************
 Molpro calculation terminated
