
 Primary working directories    : /local
 Secondary working directories  : /local
 Wavefunction directory         : /local/
 Main file repository           : /local/

 SHA1      : b4a5b34a9e711420743f49e6833241d17c61fb3c
 NAME      : 2099.9.b4a5b34
 ARCHNAME  : linux/x86_64_openmp
 FC        : /cm/shared/languages/GCC-6.1/bin/gfortran
 BLASLIB   : -lblas
 id        : simonbennie

 Nodes     nprocs
 node34-040    1

 Using customized tuning parameters: mindgm=1; mindgv=20; mindgc=4; mindgr=1; noblas=0; minvec=7
 default implementation of scratch files=df  

 memory,500,m
 geomtyp=xyz
 nosym
 noorient
 geometry={
 C          0.00029       -1.14229        0.00000
 H         -1.05596       -1.38474        0.00000
 H          0.52017       -1.40739        0.91245
 H          0.52017       -1.40739       -0.91245
 H          0.01156        0.16010        0.00000
 O          0.00029        1.36164        0.00000
 }
 basis={ default,avtz }
 {ks,PW91,direct;wf,18,1,2}
 {ibba,bonds=1}

 Variables initialized (895), CPU time= 0.00 sec
 Commands  initialized (725), CPU time= 0.02 sec, 591 directives.
 Default parameters read. Elapsed time= 0.08 sec

 Checking input...
 Passed
1


                                         ***  PROGRAM SYSTEM MOLPRO  ***
                                       Copyright, TTI GmbH Stuttgart, 2015
                                    Version 2099.9 linked May 26 2017 16:03:21


 **********************************************************************************************************************************
 LABEL *                                                                                 
  64 bit serial version                                                                  DATE: 21-Jun-17          TIME: 08:24:12  
 **********************************************************************************************************************************

 SHA1:             b4a5b34a9e711420743f49e6833241d17c61fb3c
 **********************************************************************************************************************************
 SETTING GEOMTYP        =    XYZ

 Variable memory set to  500000000 words,  buffer space 

 ZSYMEL=NOSYM

 SETTING BASIS          =    AVTZ


 Recomputing integrals since basis changed


 Using spherical harmonics

 Library entry C      S aug-cc-pVTZ          selected for orbital group  1
 Library entry C      P aug-cc-pVTZ          selected for orbital group  1
 Library entry C      D aug-cc-pVTZ          selected for orbital group  1
 Library entry C      F aug-cc-pVTZ          selected for orbital group  1
 Library entry H      S aug-cc-pVTZ          selected for orbital group  2
 Library entry H      P aug-cc-pVTZ          selected for orbital group  2
 Library entry H      D aug-cc-pVTZ          selected for orbital group  2
 Library entry O      S aug-cc-pVTZ          selected for orbital group  3
 Library entry O      P aug-cc-pVTZ          selected for orbital group  3
 Library entry O      D aug-cc-pVTZ          selected for orbital group  3
 Library entry O      F aug-cc-pVTZ          selected for orbital group  3


 PROGRAM * SEWARD (Integral evaluation for generally contracted gaussian basis sets)     Author: Roland Lindh, 1990

 Geometry written to block  1 of record 700


 Point group  C1  



 ATOMIC COORDINATES

 NR  ATOM    CHARGE       X              Y              Z

   1  C       6.00    0.000548021   -2.158615255    0.000000000
   2  H       1.00   -1.995475198   -2.616779354    0.000000000
   3  H       1.00    0.982978838   -2.659581650    1.724280602
   4  H       1.00    0.982978838   -2.659581650   -1.724280602
   5  H       1.00    0.021845234    0.302545153    0.000000000
   6  O       8.00    0.000548021    2.573126680    0.000000000

 Bond lengths in Bohr (Angstrom)

 1-2  2.047931403  1-3  2.046773372  1-4  2.046773372  1-5  2.461252551  5-6  2.270681405
     ( 1.083718628)     ( 1.083105824)     ( 1.083105824)     ( 1.302438761)     ( 1.201592853)

 Bond angles

  1-5-6  178.96681612   2-1-3  114.39760025   2-1-4  114.39760025   2-1-5  103.42343284

  3-1-4  114.79703525   3-1-5  103.92175352   4-1-5  103.92175352

 NUCLEAR CHARGE:                   18
 NUMBER OF PRIMITIVE AOS:         242
 NUMBER OF SYMMETRY AOS:          216
 NUMBER OF CONTRACTIONS:          184   ( 184A   )
 NUMBER OF CORE ORBITALS:           2   (   2A   )
 NUMBER OF VALENCE ORBITALS:       12   (  12A   )


 NUCLEAR REPULSION ENERGY   30.91031049


 Eigenvalues of metric

         1 0.539E-04 0.884E-04 0.103E-03 0.104E-03 0.467E-03 0.514E-03 0.516E-03 0.878E-03


 Contracted 2-electron integrals neglected if value below      1.0D-11
 AO integral compression algorithm  1   Integral accuracy      1.0D-11

     576.193 MB (compressed) written to integral file ( 41.9%)


 NUMBER OF SORTED TWO-ELECTRON INTEGRALS:  144848710.     BUFFER LENGTH:  32768
 NUMBER OF SEGMENTS:  10  SEGMENT LENGTH:   15999503      RECORD LENGTH: 524288

 Memory used in sort:      16.56 MW

 SORT1 READ   171965764. AND WROTE   117452286. INTEGRALS IN    341 RECORDS. CPU TIME:     1.61 SEC, REAL TIME:     3.42 SEC
 SORT2 READ   117452286. AND WROTE   144848710. INTEGRALS IN   2198 RECORDS. CPU TIME:     3.12 SEC, REAL TIME:     5.08 SEC

 FILE SIZES:   FILE 1:   607.5 MBYTE,  FILE 4:  1430.3 MBYTE,   TOTAL:   2037.8 MBYTE

 OPERATOR DM      FOR CENTER  0  COORDINATES:    0.000000    0.000000    0.000000


 **********************************************************************************************************************************
 DATASETS  * FILE   NREC   LENGTH (MB)   RECORD NAMES
              1      19      531.26       500      610      700      900      950      970     1000      129      960     1100   
                                          VAR    BASINP    GEOM    SYMINP    ZMAT    AOBASIS   BASIS     P2S    ABASIS      S 
                                         1400     1410     1200     1210     1080     1600     1650     1300     1700   
                                           T        V       H0       H01     AOSYM     SMH    MOLCAS    ERIS     OPER   

 PROGRAMS   *        TOTAL       INT
 CPU TIMES  *        10.34     10.20
 REAL TIME  *        31.70 SEC
 DISK USED  *         2.04 GB      
 **********************************************************************************************************************************

 Density functional group PW91=PW91X+PW91C
 Functional: PW91X(Automatically generated (new) PW91X)                        Gradient terms: 1
 Functional: PW91C(Automatically generated (new) PW91C)                        Gradient terms: 1
 Use grid at  1800.2

 Functional: PW91X                     Factor:  1.0000
 Functional: PW91C                     Factor:  1.0000

 Generated new metagrid on record  1800.2 with target accuracy 1.0D-06 and 22580 points in CPU time    0.5
 Computed new grid on record 1800.1 in CPU time    0.5
  150340 words reserved for DFT integration

 PROGRAM * RKS-SCF (Restricted open shell Kohn-Sham)     Authors: W. Meyer, H.-J. Werner, P.J. Knowles, 1993

 NUMBER OF ELECTRONS:      10+    8-    SPACE SYMMETRY=1    SPIN SYMMETRY: Triplet 
 CONVERGENCE THRESHOLDS:    1.00E-05 (Density)    1.00E-06 (Energy)
 MAX. NUMBER OF ITERATIONS:       60
 INTERPOLATION TYPE:            DIIS
 INTERPOLATION STEPS:              2 (START)      1 (STEP)
 LEVEL SHIFTS:                 -0.60 (CLOSED) -0.30 (OPEN) 



 Use fine grid record 1800.2 for energy threshold  1.0D-06
 Orbital guess generated from atomic densities. Full valence occupancy:   14

 Molecular orbital dump at record        2100.2

 Initial alpha occupancy:  10
 Initial beta  occupancy:   8
 Wave function symmetry:    1

 ITERATION    DDIFF          GRAD             ENERGY        2-EL.EN.            DIPOLE MOMENTS         DIIS   ORB.
    1      0.000D+00      0.000D+00      -115.48095682    177.274330   -0.00176   -0.51668    0.00000    0    start
    2      0.000D+00      0.656D-02      -115.54236097    173.342057   -0.00084   -1.20924    0.00000    1    diag,B
    3      0.101D-01      0.349D-02      -115.56266664    173.388951   -0.00074   -0.78708    0.00000    2    diag,B
    4      0.362D-02      0.930D-03      -115.56392986    173.783604   -0.00044   -0.86706    0.00000    3    diag,B
    5      0.838D-03      0.216D-03      -115.56412520    173.675837   -0.00019   -0.84128    0.00000    4    diag,B
    6      0.441D-03      0.744D-04      -115.56416433    173.653436    0.00000   -0.83713    0.00000    5    diag,B
    7      0.178D-03      0.247D-04      -115.56416907    173.646210    0.00008   -0.83661    0.00000    6    fixocc
    8      0.175D-03      0.793D-05      -115.56416955    173.645579    0.00012   -0.83710    0.00000    7    diag,B
    9      0.859D-04      0.264D-05      -115.56416961    173.645209    0.00013   -0.83743    0.00000    8    diag,B
   10      0.259D-04      0.965D-06      -115.56416962    173.645158    0.00013   -0.83754    0.00000    9    orth
   11      0.791D-05      0.329D-06      -115.56416962    173.645142    0.00013   -0.83757    0.00000    0    orth

 Final alpha occupancy:  10
 Final beta  occupancy:   8

 !RKS STATE 1.1 Energy               -115.564169618743
 Nuclear energy                        30.91031049
 One-electron energy                 -217.99016531
 Two-electron energy                   86.82257090
 Density functional                   -15.30688570     PW91X=-14.71592989 PW91C= -0.59095581
 Virial quotient                       -1.00597161
 !RKS STATE 1.1 Dipole moment           0.00013068    -0.83756565     0.00000000
 Dipole moment /Debye                   0.00033213    -2.12874010     0.00000000

 Orbital energies:

         1.1          2.1          3.1          4.1          5.1          6.1          7.1          8.1          9.1         10.1
    -18.826099    -9.925887    -0.850522    -0.650282    -0.407675    -0.391789    -0.391705    -0.265052    -0.351506    -0.249770

        11.1         12.1
     -0.025261     0.015403

 HOMO     10.1    -0.249770 =      -6.7966eV
 LUMO     11.1    -0.025261 =      -0.6874eV
 LUMO-HOMO         0.224509 =       6.1092eV


 **********************************************************************************************************************************
 DATASETS  * FILE   NREC   LENGTH (MB)   RECORD NAMES
              1      20      531.98       500      610      700      900      950      970     1000      129      960     1100   
                                          VAR    BASINP    GEOM    SYMINP    ZMAT    AOBASIS   BASIS     P2S    ABASIS      S 
                                         1400     1410     1200     1210     1080     1600     1650     1300     1700     1800   
                                           T        V       H0       H01     AOSYM     SMH    MOLCAS    ERIS     OPER     GRID   

              2       5        3.81       700     1000      520     1800     2100   
                                         GEOM     BASIS   MCVARS    GRID      RKS  

 PROGRAMS   *        TOTAL        KS       INT
 CPU TIMES  *        37.36     27.02     10.20
 REAL TIME  *        60.44 SEC
 DISK USED  *         2.04 GB      
 **********************************************************************************************************************************


 PROGRAM * Intrinsic Basis Bonding Analysis (IBBA)          Author: G. Knizia

 Molecular orbitals read from record     2100.2  Type=RKS/CANONICAL (state 1.1)
 Fock matrix read from record            2100.2  Type=RKS/TOTAL (state 1.1)
 Orbital energies read from record       2100.2  Type=RKS/CANONICAL (state 1.1)
 Density matrix read from record         2100.2  Type=RKS/CHARGE (state 1.1)

 Number of core orbitals:           2 (   2 )
 Number of closed-shell orbitals:   6 (   6 )
 Number of active  orbitals:        2 (   2 )

 Basis set MINAO-AUTO-PP generated.      Number of basis functions:   14 

 Polarized AO type:                A = (O Ot + (1-O)(1-Ot)) P12
 Orthogonalization method:         Symmetric (Loewdin)
 Localization functional:          L = sum[A,i] <i|n_A|i>^4 -> max

 Localization group 1:   8 orbitals, occupancy  2.000
 Iterative localization: IB/PM,    6 iter; Final gradient 0.22E-09

 Bond order analysis:       [THRPRINT= 0.020]

   CEN ATOM   CEN ATOM     WIBERG.BO      RENORM.BO
     1   C  -   4   H       0.951596       0.999013
     1   C  -   3   H       0.951596       0.999013
     1   C  -   2   H       0.949978       0.999836
     1   C  -   6   O       0.473216       2.003471
     1   C  -   5   H       0.324019       0.829744

     2   H  -   1   C       0.949978       0.999836

     3   H  -   1   C       0.951596       0.999013

     4   H  -   1   C       0.951596       0.999013

     5   H  -   6   O       0.589308       0.899168
     5   H  -   1   C       0.324019       0.829744

     6   O  -   5   H       0.589308       0.899168
     6   O  -   1   C       0.473216       2.003471


 Valency analysis:

   CEN ATOM   TOT.VALENCE
     1   C       3.650406
     2   H       0.966710
     3   H       0.966892
     4   H       0.966892
     5   H       0.922521
     6   O       1.098856
 Localization group 2:   2 orbitals, occupancy  1.000
 Iterative localization: IB/PM,    2 iter; Final gradient 0.60E-08

 Bond order analysis:       [THRPRINT= 0.020]

   CEN ATOM   CEN ATOM     WIBERG.BO      RENORM.BO
     1   C  -   6   O       0.462488       1.000000
     1   C  -   5   H       0.024515       0.500000




     5   H  -   1   C       0.024515       0.500000
     5   H  -   6   O       0.022164       0.500000

     6   O  -   1   C       0.462488       1.000000
     6   O  -   5   H       0.022164       0.500000


 Valency analysis:

   CEN ATOM   TOT.VALENCE
     1   C       0.501251
     2   H       0.011191
     3   H       0.009953
     4   H       0.009953
     5   H       0.047364
     6   O       0.500578

 Total charge composition:

   CEN ATOM         s          p       ELECTRONS ->P.CHARGE
     1   C       3.12343    3.38514      6.50857   -0.50857
     2   H       0.82317                 0.82317    0.17683
     3   H       0.82304                 0.82304    0.17696
     4   H       0.82304                 0.82304    0.17696
     5   H       0.74592                 0.74592    0.25408
     6   O       3.90916    4.36709      8.27625   -0.27625

 Total charge composition, AO contributions:

   CEN ATOM SHL      SPHERICAL COMPONENTS
     1   C  1s       1.99186
     1   C  2s       1.13156
     1   C  2p       1.19732    0.98939    1.19843

     2   H  1s       0.82317

     3   H  1s       0.82304

     4   H  1s       0.82304

     5   H  1s       0.74592

     6   O  1s       1.99938
     6   O  2s       1.90979
     6   O  2p       1.00229    1.36558    1.99921

 Active orbital charges:

   CEN ATOM         s          p       ELECTRONS ->SPIN.DEN
     1   C       0.02265    0.48304      0.50569    0.50569
     2   H       0.00563                 0.00563    0.00563
     3   H       0.00500                 0.00500    0.00500
     4   H       0.00500                 0.00500    0.00500
     5   H       0.02427                 0.02427    0.02427
     6   O       0.00336    1.45105      1.45440    1.45440

 Active orbital charges, AO contributions:

   CEN ATOM SHL      SPHERICAL COMPONENTS
     1   C  1s       0.00002
     1   C  2s       0.02263
     1   C  2p       0.00074    0.48230    0.00000

     2   H  1s       0.00563

     3   H  1s       0.00500

     4   H  1s       0.00500

     5   H  1s       0.02427

     6   O  1s       0.00003
     6   O  2s       0.00333
     6   O  2p       0.99777    0.45328    0.00000

 Summary of localized orbital composition:   [THRPRINT= 0.020]

   ORB  GRP  ORB.ENERGY      CENTERS/CHARGES
     1   1   -18.697429      O  6   2.000
     2   1    -9.814155      C  1   2.000
     3   1    -0.892960      O  6   1.946   C  1   0.032   H  5   0.021
     4   1    -0.510710      C  1   1.168   H  2   0.814
     5   1    -0.510105      C  1   1.170   H  3   0.814
     6   1    -0.510105      C  1   1.170   H  4   0.814
     7   1    -0.508052      O  6   0.863   H  5   0.665   C  1   0.462
     8   1    -0.265498      O  6   1.999
     9   2    -0.281406      O  6   0.998
    10   2    -0.215597      C  1   0.505   O  6   0.457   H  5   0.024

 Localized orbitals saved to record      2100.2  (orbital set 2)


 **********************************************************************************************************************************
 DATASETS  * FILE   NREC   LENGTH (MB)   RECORD NAMES
              1      20      531.98       500      610      700      900      950      970     1000      129      960     1100   
                                          VAR    BASINP    GEOM    SYMINP    ZMAT    AOBASIS   BASIS     P2S    ABASIS      S 
                                         1400     1410     1200     1210     1080     1600     1650     1300     1700     1800   
                                           T        V       H0       H01     AOSYM     SMH    MOLCAS    ERIS     OPER     GRID   

              2       5        4.09       700     1000      520     1800     2100   
                                         GEOM     BASIS   MCVARS    GRID      RKS  

 PROGRAMS   *        TOTAL      IBBA        KS       INT
 CPU TIMES  *        37.40      0.04     27.02     10.20
 REAL TIME  *        60.51 SEC
 DISK USED  *         2.04 GB      
 **********************************************************************************************************************************
 Molecular orbitals read from record     2100.2  Type=RKS/LOCAL(IBO)  
 Occupation numbers read from record     2100.2  Type=RKS/LOCAL(IBO)  
 Orbital energies read from record       2100.2  Type=RKS/LOCAL(IBO)  
 Redundancy group numbers read from rec  2100.2  Type=RKS/LOCAL(IBO)  

 IBBA/aug-cc-pVTZ energy=      0.000000000000

        KS-SCF  
   -115.56416962
 **********************************************************************************************************************************
 Molpro calculation terminated
