
 Primary working directories    : /local
 Secondary working directories  : /local
 Wavefunction directory         : /local/
 Main file repository           : /local/

 SHA1      : b4a5b34a9e711420743f49e6833241d17c61fb3c
 NAME      : 2099.9.b4a5b34
 ARCHNAME  : linux/x86_64_openmp
 FC        : /cm/shared/languages/GCC-6.1/bin/gfortran
 BLASLIB   : -lblas
 id        : simonbennie

 Nodes     nprocs
 node35-007    1

 Using customized tuning parameters: mindgm=1; mindgv=20; mindgc=4; mindgr=1; noblas=0; minvec=7
 default implementation of scratch files=df  

 memory,500,m
 geomtyp=xyz
 nosym
 noorient
 geometry={
 C          0.00029       -1.14229        0.00000
 H         -1.05596       -1.38474        0.00000
 H          0.52017       -1.40739        0.91245
 H          0.52017       -1.40739       -0.91245
 H          0.01156        0.16010        0.00000
 O          0.00029        1.36164        0.00000
 }
 basis={ default,SV(P) }
 {uks,M05,direct;wf,18,1,2}
 {ibba,bonds=1}

 Variables initialized (895), CPU time= 0.00 sec
 Commands  initialized (725), CPU time= 0.02 sec, 591 directives.
 Default parameters read. Elapsed time= 0.09 sec

 Checking input...
 Passed
1


                                         ***  PROGRAM SYSTEM MOLPRO  ***
                                       Copyright, TTI GmbH Stuttgart, 2015
                                    Version 2099.9 linked May 26 2017 16:03:21


 **********************************************************************************************************************************
 LABEL *                                                                                 
  64 bit serial version                                                                  DATE: 30-Jun-17          TIME: 08:14:55  
 **********************************************************************************************************************************

 SHA1:             b4a5b34a9e711420743f49e6833241d17c61fb3c
 **********************************************************************************************************************************
 SETTING GEOMTYP        =    XYZ

 Variable memory set to  500000000 words,  buffer space 

 ZSYMEL=NOSYM

 SETTING BASIS          =    SV(P)


 Recomputing integrals since basis changed


 Using spherical harmonics

 Library entry C      S def2-SV(P)           selected for orbital group  1
 Library entry C      P def2-SV(P)           selected for orbital group  1
 Library entry C      D def2-SV(P)           selected for orbital group  1
 Library entry H      S def2-SV(P)           selected for orbital group  2
 Library entry O      S def2-SV(P)           selected for orbital group  3
 Library entry O      P def2-SV(P)           selected for orbital group  3
 Library entry O      D def2-SV(P)           selected for orbital group  3


 PROGRAM * SEWARD (Integral evaluation for generally contracted gaussian basis sets)     Author: Roland Lindh, 1990

 Geometry written to block  1 of record 700


 Point group  C1  



 ATOMIC COORDINATES

 NR  ATOM    CHARGE       X              Y              Z

   1  C       6.00    0.000548021   -2.158615255    0.000000000
   2  H       1.00   -1.995475198   -2.616779354    0.000000000
   3  H       1.00    0.982978838   -2.659581650    1.724280602
   4  H       1.00    0.982978838   -2.659581650   -1.724280602
   5  H       1.00    0.021845234    0.302545153    0.000000000
   6  O       8.00    0.000548021    2.573126680    0.000000000

 Bond lengths in Bohr (Angstrom)

 1-2  2.047931403  1-3  2.046773372  1-4  2.046773372  1-5  2.461252551  5-6  2.270681405
     ( 1.083718628)     ( 1.083105824)     ( 1.083105824)     ( 1.302438761)     ( 1.201592853)

 Bond angles

  1-5-6  178.96681612   2-1-3  114.39760025   2-1-4  114.39760025   2-1-5  103.42343284

  3-1-4  114.79703525   3-1-5  103.92175352   4-1-5  103.92175352

 NUCLEAR CHARGE:                   18
 NUMBER OF PRIMITIVE AOS:          66
 NUMBER OF SYMMETRY AOS:           64
 NUMBER OF CONTRACTIONS:           36   (  36A   )
 NUMBER OF CORE ORBITALS:           2   (   2A   )
 NUMBER OF VALENCE ORBITALS:       12   (  12A   )


 NUCLEAR REPULSION ENERGY   30.91031049


 Eigenvalues of metric

         1 0.992E-02 0.298E-01 0.657E-01 0.661E-01 0.147E+00 0.235E+00 0.235E+00 0.259E+00


 Contracted 2-electron integrals neglected if value below      1.0D-11
 AO integral compression algorithm  1   Integral accuracy      1.0D-11

     1.049 MB (compressed) written to integral file ( 35.2%)


 NUMBER OF SORTED TWO-ELECTRON INTEGRALS:     222111.     BUFFER LENGTH:  32768
 NUMBER OF SEGMENTS:   1  SEGMENT LENGTH:     222111      RECORD LENGTH: 524288

 Memory used in sort:       0.78 MW

 SORT1 READ      294599. AND WROTE      132692. INTEGRALS IN      1 RECORDS. CPU TIME:     0.00 SEC, REAL TIME:     0.01 SEC
 SORT2 READ      132692. AND WROTE      222111. INTEGRALS IN      4 RECORDS. CPU TIME:     0.02 SEC, REAL TIME:     0.02 SEC

 FILE SIZES:   FILE 1:    31.1 MBYTE,  FILE 4:     4.2 MBYTE,   TOTAL:     35.4 MBYTE

 OPERATOR DM      FOR CENTER  0  COORDINATES:    0.000000    0.000000    0.000000


 **********************************************************************************************************************************
 DATASETS  * FILE   NREC   LENGTH (MB)   RECORD NAMES
              1      19       30.71       500      610      700      900      950      970     1000      129      960     1100   
                                          VAR    BASINP    GEOM    SYMINP    ZMAT    AOBASIS   BASIS     P2S    ABASIS      S 
                                         1400     1410     1200     1210     1080     1600     1650     1300     1700   
                                           T        V       H0       H01     AOSYM     SMH    MOLCAS    ERIS     OPER   

 PROGRAMS   *        TOTAL       INT
 CPU TIMES  *         0.40      0.27
 REAL TIME  *         0.80 SEC
 DISK USED  *        35.71 MB      
 **********************************************************************************************************************************

 Density functional group M05=XC-M05
 Functional: XC-M05(via MFM 1.6)                                               Gradient terms: 1
 Use grid at  1800.2


 Exact exchange will be calculated, factor:  0.2800

 Functional: XC-M05                    Factor:  1.0000

 Generated new metagrid on record  1800.2 with target accuracy 1.0D-06 and 21772 points in CPU time    0.5
 Computed new grid on record 1800.1 in CPU time    0.5
   32574 words reserved for DFT integration

 PROGRAM * UKS-SCF (Unrestricted Kohn-Sham)     Authors: W. Meyer, H.-J. Werner, P.J. Knowles, 1993

 NUMBER OF ELECTRONS:      10+    8-    SPACE SYMMETRY=1    SPIN SYMMETRY: Triplet 
 CONVERGENCE THRESHOLDS:    1.00E-05 (Density)    1.00E-06 (Energy)
 MAX. NUMBER OF ITERATIONS:       60
 INTERPOLATION TYPE:            DIIS
 INTERPOLATION STEPS:              2 (START)      1 (STEP)
 LEVEL SHIFTS:                 -0.20 (ALPHA)  -0.20 (BETA) 



 Use fine grid record 1800.2 for energy threshold  1.0D-06
 Orbital guess generated from atomic densities. Full valence occupancy:    9

 Molecular orbital dump at record        2200.2

 Initial alpha occupation  10
 Initial beta  occupation   8

 ITERATION    DDIFF          GRAD             ENERGY        2-EL.EN.            DIPOLE MOMENTS         DIIS
    1      0.000D+00      0.000D+00      -115.37628004    168.133709   -0.00212   -0.86410    0.00000    0
    2      0.138D-01      0.818D-02      -115.41773257    165.099385   -0.00196   -0.87018    0.00000    1
    3      0.429D-02      0.268D-02      -115.42366532    165.641110   -0.00152   -0.79499    0.00000    2
    4      0.198D-02      0.811D-03      -115.42613747    165.650172   -0.00110   -0.74959    0.00000    3
    5      0.833D-03      0.399D-03      -115.42681115    165.588164   -0.00096   -0.71354    0.00000    4
    6      0.471D-03      0.160D-03      -115.42708992    165.587639   -0.00084   -0.69162    0.00000    5
    7      0.222D-03      0.632D-04      -115.42715743    165.581124   -0.00083   -0.68234    0.00000    6
    8      0.792D-04      0.222D-04      -115.42716995    165.582247   -0.00084   -0.68004    0.00000    7
    9      0.191D-04      0.668D-05      -115.42716969    165.581825   -0.00084   -0.67971    0.00000    7
   10      0.458D-05      0.185D-05      -115.42716878    165.581804   -0.00084   -0.67970    0.00000    7
   11      0.921D-06      0.495D-06      -115.42716849    165.581876   -0.00084   -0.67969   -0.00000    7

 Final alpha occupancy:  10
 Final beta  occupancy:   8

 !UKS STATE 1.1 Energy               -115.427168486447
 Nuclear energy                        30.91031049
 One-electron energy                 -217.89645426
 Two-electron energy                   82.79093788
 Density functional                   -11.23196261     XC-M05=-11.23196261
 Virial quotient                       -1.00609288
 !UKS STATE 1.1 Dipole moment          -0.00084220    -0.67968610    -0.00000000
 Dipole moment /Debye                  -0.00214052    -1.72747660    -0.00000000

 Orbital energies for positive spin:

         1.1          2.1          3.1          4.1          5.1          6.1          7.1          8.1          9.1         10.1
    -19.243739   -10.233406    -1.002511    -0.733982    -0.501244    -0.446532    -0.444760    -0.418015    -0.352611    -0.294691

        11.1         12.1
      0.072269     0.136208

 Orbital energies for negative spin:

         1.1          2.1          3.1          4.1          5.1          6.1          7.1          8.1          9.1         10.1
    -19.215017   -10.226223    -0.866129    -0.698035    -0.433847    -0.433458    -0.405115    -0.303501    -0.115883    -0.100421

        11.1         12.1
      0.078566     0.143398

 HOMO     10.1    -0.294691 =      -8.0190eV
 LUMO     -9.1    -0.115883 =      -3.1533eV
 LUMO-HOMO         0.178808 =       4.8656eV

 EXPECTATION VALUE OF S**2:             2.01501639

 Occupation number threshold for canonical orbitals:  1.999000 (occupied),  0.001000 (virtual)

 Number of pseudo-canonical orbitals per symmetry:    7
 Number of active natural orbitals per symmetry:      4

 Natural orbitals saved to record    2200.2 (Orbital set 3)

 Orbital spaces for UNO-CAS (Min. occupation: 0.020  Max. occupation: 1.980):

 Closed:        8
 Active:        2


 **********************************************************************************************************************************
 DATASETS  * FILE   NREC   LENGTH (MB)   RECORD NAMES
              1      20       31.41       500      610      700      900      950      970     1000      129      960     1100   
                                          VAR    BASINP    GEOM    SYMINP    ZMAT    AOBASIS   BASIS     P2S    ABASIS      S 
                                         1400     1410     1200     1210     1080     1600     1650     1300     1700     1800   
                                           T        V       H0       H01     AOSYM     SMH    MOLCAS    ERIS     OPER     GRID   

              2       5        2.90       700     1000      520     1800     2200   
                                         GEOM     BASIS   MCVARS    GRID      UKS  

 PROGRAMS   *        TOTAL       UKS       INT
 CPU TIMES  *         5.05      4.64      0.27
 REAL TIME  *         5.85 SEC
 DISK USED  *        35.71 MB      
 **********************************************************************************************************************************


 PROGRAM * Intrinsic Basis Bonding Analysis (IBBA)          Author: G. Knizia

 Molecular orbitals read from record     2200.2  Type=UKS/ALPHA (state 1.1)
 Fock matrix read from record            2200.2  Type=UKS/TOTAL (state 1.1)
 Orbital energies read from record       2200.2  Type=UKS/ALPHA (state 1.1)
 Density matrix read from record         2200.2  Type=UKS/CHARGE (state 1.1)

 Number of core orbitals:           2 (   2 )
 Number of closed-shell orbitals:   6 (   6 )
 Number of active  orbitals:        2 (   2 )

 Basis set MINAO-AUTO-PP generated.      Number of basis functions:   14 

 Polarized AO type:                A = (O Ot + (1-O)(1-Ot)) P12
 Orthogonalization method:         Symmetric (Loewdin)
 Localization functional:          L = sum[A,i] <i|n_A|i>^4 -> max

 Localization group 1:   8 orbitals, occupancy  2.000
 Iterative localization: IB/PM,    6 iter; Final gradient 0.58E-09

 Bond order analysis:       [THRPRINT= 0.020]

   CEN ATOM   CEN ATOM     WIBERG.BO      RENORM.BO
     1   C  -   2   H       0.944064       0.999604
     1   C  -   4   H       0.936707       0.999777
     1   C  -   3   H       0.936707       0.999777
     1   C  -   6   O       0.415153       2.003398
     1   C  -   5   H       0.209978       0.819242

     2   H  -   1   C       0.944064       0.999604

     3   H  -   1   C       0.936707       0.999777

     4   H  -   1   C       0.936707       0.999777

     5   H  -   6   O       0.617229       0.853159
     5   H  -   1   C       0.209978       0.819242

     6   O  -   5   H       0.617229       0.853159
     6   O  -   1   C       0.415153       2.003398


 Valency analysis:

   CEN ATOM   TOT.VALENCE
     1   C       3.442609
     2   H       0.964197
     3   H       0.962295
     4   H       0.962295
     5   H       0.846620
     6   O       1.083375
 Localization group 2:   2 orbitals, occupancy  1.000
 Iterative localization: IB/PM,    1 iter; Final gradient 0.50E-12

 Bond order analysis:       [THRPRINT= 0.020]

   CEN ATOM   CEN ATOM     WIBERG.BO      RENORM.BO
     1   C  -   6   O       0.395679       1.000000
     1   C  -   5   H       0.061272       0.500000




     5   H  -   1   C       0.061272       0.500000
     5   H  -   6   O       0.033207       0.500000

     6   O  -   1   C       0.395679       1.000000
     6   O  -   5   H       0.033207       0.500000


 Valency analysis:

   CEN ATOM   TOT.VALENCE
     1   C       0.485898
     2   H       0.015668
     3   H       0.019708
     4   H       0.019708
     5   H       0.096942
     6   O       0.451890

 Total charge composition:

   CEN ATOM         s          p       ELECTRONS ->P.CHARGE
     1   C       3.12638    3.30747      6.43385   -0.43385
     2   H       0.81868                 0.81868    0.18132
     3   H       0.81577                 0.81577    0.18423
     4   H       0.81577                 0.81577    0.18423
     5   H       0.65944                 0.65944    0.34056
     6   O       3.91090    4.54558      8.45648   -0.45648

 Total charge composition, AO contributions:

   CEN ATOM SHL      SPHERICAL COMPONENTS
     1   C  1s       1.99136
     1   C  2s       1.13502
     1   C  2p       1.20097    0.90898    1.19752

     2   H  1s       0.81868

     3   H  1s       0.81577

     4   H  1s       0.81577

     5   H  1s       0.65944

     6   O  1s       1.99930
     6   O  2s       1.91160
     6   O  2p       1.99975    1.53846    1.00737

 Active orbital charges:

   CEN ATOM         s          p       ELECTRONS ->SPIN.DEN
     1   C       0.01623    0.58644      0.60267    0.60267
     2   H       0.00790                 0.00790    0.00790
     3   H       0.00995                 0.00995    0.00995
     4   H       0.00995                 0.00995    0.00995
     5   H       0.05108                 0.05108    0.05108
     6   O       0.00567    1.31278      1.31845    1.31845

 Active orbital charges, AO contributions:

   CEN ATOM SHL      SPHERICAL COMPONENTS
     1   C  1s       0.00003
     1   C  2s       0.01620
     1   C  2p       0.00012    0.58341    0.00291

     2   H  1s       0.00790

     3   H  1s       0.00995

     4   H  1s       0.00995

     5   H  1s       0.05108

     6   O  1s       0.00005
     6   O  2s       0.00562
     6   O  2p       0.00001    0.31936    0.99340

 Summary of localized orbital composition:   [THRPRINT= 0.020]

   ORB  GRP  ORB.ENERGY      CENTERS/CHARGES
     1   1   -19.082314      O  6   2.000
     2   1   -10.113189      C  1   2.000
     3   1    -0.961933      O  6   1.958   C  1   0.027
     4   1    -0.568400      C  1   1.170   H  4   0.800   H  5   0.023
     5   1    -0.568400      C  1   1.170   H  3   0.800   H  5   0.023
     6   1    -0.568264      C  1   1.172   H  2   0.804   H  5   0.023
     7   1    -0.561771      O  6   1.163   H  5   0.526   C  1   0.292
     8   1    -0.258836      O  6   2.000
     9   2    -0.327621      O  6   0.993
    10   2    -0.202368      C  1   0.600   O  6   0.325   H  5   0.051   (other: 0.024)

 Localized orbitals saved to record      2200.2  (orbital set 4)


 **********************************************************************************************************************************
 DATASETS  * FILE   NREC   LENGTH (MB)   RECORD NAMES
              1      20       31.41       500      610      700      900      950      970     1000      129      960     1100   
                                          VAR    BASINP    GEOM    SYMINP    ZMAT    AOBASIS   BASIS     P2S    ABASIS      S 
                                         1400     1410     1200     1210     1080     1600     1650     1300     1700     1800   
                                           T        V       H0       H01     AOSYM     SMH    MOLCAS    ERIS     OPER     GRID   

              2       5        2.91       700     1000      520     1800     2200   
                                         GEOM     BASIS   MCVARS    GRID      UKS  

 PROGRAMS   *        TOTAL      IBBA       UKS       INT
 CPU TIMES  *         5.07      0.03      4.64      0.27
 REAL TIME  *         5.94 SEC
 DISK USED  *        35.71 MB      
 **********************************************************************************************************************************
 Molecular orbitals read from record     2200.2  Type=UKS/LOCAL(IBO)  
 Occupation numbers read from record     2200.2  Type=UKS/LOCAL(IBO)  
 Orbital energies read from record       2200.2  Type=UKS/LOCAL(IBO)  
 Redundancy group numbers read from rec  2200.2  Type=UKS/BETA (state 1.1)

 IBBA/SV(P) energy=      0.000000000000

        UKS-SCF 
   -115.42716849
 **********************************************************************************************************************************
 Molpro calculation terminated
