
 Primary working directories    : /local
 Secondary working directories  : /local
 Wavefunction directory         : /local/
 Main file repository           : /local/

 SHA1      : b4a5b34a9e711420743f49e6833241d17c61fb3c
 NAME      : 2099.9.b4a5b34
 ARCHNAME  : linux/x86_64_openmp
 FC        : /cm/shared/languages/GCC-6.1/bin/gfortran
 BLASLIB   : -lblas
 id        : simonbennie

 Nodes     nprocs
 node34-010    1

 Using customized tuning parameters: mindgm=1; mindgv=20; mindgc=4; mindgr=1; noblas=0; minvec=7
 default implementation of scratch files=df  

 memory,500,m
 geomtyp=xyz
 nosym
 noorient
 geometry={
 P          0.21743        0.00009       -0.11125
 H          0.24661        1.03467        0.85216
 H          0.26266       -1.02506        0.86162
 H         -1.26642       -0.01095       -0.15063
 H         -2.50429        0.00003        0.10558
 }
 basis={ default,SV(P) }
 {ks,BH-LYP,direct;wf,19,1,1}
 {ibba,bonds=1}

 Variables initialized (895), CPU time= 0.01 sec
 Commands  initialized (725), CPU time= 0.01 sec, 591 directives.
 Default parameters read. Elapsed time= 0.08 sec

 Checking input...
 Passed
1


                                         ***  PROGRAM SYSTEM MOLPRO  ***
                                       Copyright, TTI GmbH Stuttgart, 2015
                                    Version 2099.9 linked May 26 2017 16:03:21


 **********************************************************************************************************************************
 LABEL *                                                                                 
  64 bit serial version                                                                  DATE: 21-Jun-17          TIME: 08:50:20  
 **********************************************************************************************************************************

 SHA1:             b4a5b34a9e711420743f49e6833241d17c61fb3c
 **********************************************************************************************************************************
 SETTING GEOMTYP        =    XYZ

 Variable memory set to  500000000 words,  buffer space 

 ZSYMEL=NOSYM

 SETTING BASIS          =    SV(P)


 Recomputing integrals since basis changed


 Using spherical harmonics

 Library entry P      S def2-SV(P)           selected for orbital group  1
 Library entry P      P def2-SV(P)           selected for orbital group  1
 Library entry P      D def2-SV(P)           selected for orbital group  1
 Library entry H      S def2-SV(P)           selected for orbital group  2


 PROGRAM * SEWARD (Integral evaluation for generally contracted gaussian basis sets)     Author: Roland Lindh, 1990

 Geometry written to block  1 of record 700


 Point group  C1  



 ATOMIC COORDINATES

 NR  ATOM    CHARGE       X              Y              Z

   1  P      15.00    0.410883151    0.000170075   -0.210232031
   2  H       1.00    0.466025360    1.955242929    1.610349014
   3  H       1.00    0.496355464   -1.937082661    1.628225823
   4  H       1.00   -2.393186959   -0.020692501   -0.284649446
   5  H       1.00   -4.732422236    0.000056692    0.199517284

 Bond lengths in Bohr (Angstrom)

 1-2  2.672052745  1-3  2.672111705  1-4  2.805135002
     ( 1.413989419)     ( 1.414020619)     ( 1.484413517)

 Bond angles

  2-1-3   93.49845302   2-1-4   92.53018991   3-1-4   92.56972382

 NUCLEAR CHARGE:                   19
 NUMBER OF PRIMITIVE AOS:          53
 NUMBER OF SYMMETRY AOS:           52
 NUMBER OF CONTRACTIONS:           26   (  26A   )
 NUMBER OF CORE ORBITALS:           5   (   5A   )
 NUMBER OF VALENCE ORBITALS:        8   (   8A   )


 NUCLEAR REPULSION ENERGY   21.01062334

 Eigenvalues of metric

         1 0.123E-01 0.535E-01 0.102E+00 0.188E+00 0.231E+00 0.273E+00 0.293E+00 0.363E+00


 Contracted 2-electron integrals neglected if value below      1.0D-11
 AO integral compression algorithm  1   Integral accuracy      1.0D-11

     0.524 MB (compressed) written to integral file ( 57.9%)


 NUMBER OF SORTED TWO-ELECTRON INTEGRALS:      61776.     BUFFER LENGTH:  32768
 NUMBER OF SEGMENTS:   1  SEGMENT LENGTH:      61776      RECORD LENGTH: 524288

 Memory used in sort:       0.62 MW

 SORT1 READ       81356. AND WROTE       48693. INTEGRALS IN      1 RECORDS. CPU TIME:     0.00 SEC, REAL TIME:     0.01 SEC
 SORT2 READ       48693. AND WROTE       61776. INTEGRALS IN      2 RECORDS. CPU TIME:     0.02 SEC, REAL TIME:     0.01 SEC

 FILE SIZES:   FILE 1:    30.6 MBYTE,  FILE 4:     4.2 MBYTE,   TOTAL:     34.8 MBYTE

 OPERATOR DM      FOR CENTER  0  COORDINATES:    0.000000    0.000000    0.000000


 **********************************************************************************************************************************
 DATASETS  * FILE   NREC   LENGTH (MB)   RECORD NAMES
              1      19       30.28       500      610      700      900      950      970     1000      129      960     1100   
                                          VAR    BASINP    GEOM    SYMINP    ZMAT    AOBASIS   BASIS     P2S    ABASIS      S 
                                         1400     1410     1200     1210     1080     1600     1650     1300     1700   
                                           T        V       H0       H01     AOSYM     SMH    MOLCAS    ERIS     OPER   

 PROGRAMS   *        TOTAL       INT
 CPU TIMES  *         0.35      0.21
 REAL TIME  *         0.66 SEC
 DISK USED  *        35.12 MB      
 **********************************************************************************************************************************

 Density functional group BH-LYP=B88+LYP
 Functional: B88(Automatically generated (new) B88)                            Gradient terms: 1
 Functional: LYP(Automatically generated (new) LYP)                            Gradient terms: 1
 Use grid at  1800.2


 Exact exchange will be calculated, factor:  0.5000

 Functional: B88                       Factor:  0.5000
 Functional: LYP                       Factor:  1.0000

 Generated new metagrid on record  1800.2 with target accuracy 1.0D-06 and 17598 points in CPU time    0.5
 Computed new grid on record 1800.1 in CPU time    0.5
   24633 words reserved for DFT integration

 PROGRAM * RKS-SCF (Restricted open shell Kohn-Sham)     Authors: W. Meyer, H.-J. Werner, P.J. Knowles, 1993

 NUMBER OF ELECTRONS:      10+    9-    SPACE SYMMETRY=1    SPIN SYMMETRY: Doublet 
 CONVERGENCE THRESHOLDS:    1.00E-05 (Density)    1.00E-06 (Energy)
 MAX. NUMBER OF ITERATIONS:       60
 INTERPOLATION TYPE:            DIIS
 INTERPOLATION STEPS:              2 (START)      1 (STEP)
 LEVEL SHIFTS:                 -0.60 (CLOSED) -0.30 (OPEN) 



 Use fine grid record 1800.2 for energy threshold  1.0D-06
 Orbital guess generated from atomic densities. Full valence occupancy:   10

 Molecular orbital dump at record        2100.2

 Initial alpha occupancy:  10
 Initial beta  occupancy:   9
 Wave function symmetry:    1

 ITERATION    DDIFF          GRAD             ENERGY        2-EL.EN.            DIPOLE MOMENTS         DIIS   ORB.
    1      0.000D+00      0.000D+00      -343.49958962    328.338210   -0.01613    0.00088    0.43879    0    start
    2      0.000D+00      0.372D-02      -343.50608773    327.401664    0.15273    0.00088    0.31774    1    diag,B
    3      0.761D-02      0.153D-02      -343.50819523    327.494144    0.12527    0.00084    0.28900    2    diag,B
    4      0.353D-02      0.872D-03      -343.50963175    327.506437    0.08763    0.00069    0.26660    3    diag,B
    5      0.394D-02      0.441D-03      -343.51017389    327.514398    0.05019    0.00049    0.26052    4    diag,B
    6      0.280D-02      0.216D-03      -343.51031024    327.526609    0.02261    0.00033    0.26026    5    diag,B
    7      0.177D-02      0.597D-04      -343.51031620    327.532933    0.01469    0.00030    0.26187    6    fixocc
    8      0.332D-03      0.157D-04      -343.51031647    327.532616    0.01334    0.00029    0.26236    7    diag,B
    9      0.752D-04      0.609D-05      -343.51031651    327.532765    0.01318    0.00029    0.26248    8    diag,B
   10      0.327D-04      0.184D-05      -343.51031651    327.532588    0.01321    0.00029    0.26243    9    orth
   11      0.985D-05      0.473D-06      -343.51031651    327.532578    0.01323    0.00029    0.26242    0    orth

 Final alpha occupancy:  10
 Final beta  occupancy:   9

 !RKS STATE 1.1 Energy               -343.510316513920
 Nuclear energy                        21.01062334
 One-electron energy                 -515.63429928
 Two-electron energy                  163.76628886
 Density functional                   -12.65292944     B88=-23.93061429 LYP= -0.68762229
 Virial quotient                       -1.00228221
 !RKS STATE 1.1 Dipole moment           0.01323257     0.00028639     0.26241546
 Dipole moment /Debye                   0.03363163     0.00072787     0.66694989

 Orbital energies:

         1.1          2.1          3.1          4.1          5.1          6.1          7.1          8.1          9.1         10.1
    -78.155231    -6.918796    -4.983030    -4.983000    -4.979890    -0.738318    -0.472411    -0.451178    -0.339799    -0.316254

        11.1         12.1
      0.081971     0.085168

 HOMO     10.1    -0.316254 =      -8.6057eV
 LUMO     11.1     0.081971 =       2.2305eV
 LUMO-HOMO         0.398224 =      10.8362eV


 **********************************************************************************************************************************
 DATASETS  * FILE   NREC   LENGTH (MB)   RECORD NAMES
              1      20       30.85       500      610      700      900      950      970     1000      129      960     1100   
                                          VAR    BASINP    GEOM    SYMINP    ZMAT    AOBASIS   BASIS     P2S    ABASIS      S 
                                         1400     1410     1200     1210     1080     1600     1650     1300     1700     1800   
                                           T        V       H0       H01     AOSYM     SMH    MOLCAS    ERIS     OPER     GRID   

              2       5        2.84       700     1000      520     1800     2100   
                                         GEOM     BASIS   MCVARS    GRID      RKS  

 PROGRAMS   *        TOTAL        KS       INT
 CPU TIMES  *         1.79      1.44      0.21
 REAL TIME  *         2.18 SEC
 DISK USED  *        35.12 MB      
 **********************************************************************************************************************************


 PROGRAM * Intrinsic Basis Bonding Analysis (IBBA)          Author: G. Knizia

 Molecular orbitals read from record     2100.2  Type=RKS/CANONICAL (state 1.1)
 Fock matrix read from record            2100.2  Type=RKS/TOTAL (state 1.1)
 Orbital energies read from record       2100.2  Type=RKS/CANONICAL (state 1.1)
 Density matrix read from record         2100.2  Type=RKS/CHARGE (state 1.1)

 Number of core orbitals:           5 (   5 )
 Number of closed-shell orbitals:   4 (   4 )
 Number of active  orbitals:        1 (   1 )

 Basis set MINAO-AUTO-PP generated.      Number of basis functions:   13 

 Polarized AO type:                A = (O Ot + (1-O)(1-Ot)) P12
 Orthogonalization method:         Symmetric (Loewdin)
 Localization functional:          L = sum[A,i] <i|n_A|i>^4 -> max

 Localization group 1:   9 orbitals, occupancy  2.000
 Iterative localization: IB/PM,    6 iter; Final gradient 0.21E-09

 Bond order analysis:       [THRPRINT= 0.020]

   CEN ATOM   CEN ATOM     WIBERG.BO      RENORM.BO
     1   P  -   2   H       0.994551       1.000000
     1   P  -   3   H       0.994498       1.000000
     1   P  -   4   H       0.802520       1.000000
     1   P  -   5   H       0.210015       1.000000

     2   H  -   1   P       0.994551       1.000000

     3   H  -   1   P       0.994498       1.000000

     4   H  -   1   P       0.802520       1.000000
     4   H  -   5   H       0.193582       0.813955

     5   H  -   1   P       0.210015       1.000000
     5   H  -   4   H       0.193582       0.813955


 Valency analysis:

   CEN ATOM   TOT.VALENCE
     1   P       3.001584
     2   H       0.999031
     3   H       0.999037
     4   H       0.998641
     5   H       0.406133
 Localization group 2:   1 orbitals, occupancy  1.000
 Iterative localization: IB/PM,    1 iter; Final gradient 0.00E+00

 Bond order analysis:       [THRPRINT= 0.020]

   CEN ATOM   CEN ATOM     WIBERG.BO      RENORM.BO
     1   P  -   5   H       0.321496       0.500000




     5   H  -   1   P       0.321496       0.500000


 Valency analysis:

   CEN ATOM   TOT.VALENCE
     1   P       0.321935
     2   H       0.000975
     3   H       0.001080
     4   H       0.000120
     5   H       0.323232

 Total charge composition:

   CEN ATOM         s          p       ELECTRONS ->P.CHARGE
     1   P       5.54476    9.32845     14.87321    0.12679
     2   H       1.03162                 1.03162   -0.03162
     3   H       1.03158                 1.03158   -0.03158
     4   H       1.03693                 1.03693   -0.03693
     5   H       1.02667                 1.02667   -0.02667

 Total charge composition, AO contributions:

   CEN ATOM SHL      SPHERICAL COMPONENTS
     1   P  1s       1.99986
     1   P  2s       1.99137
     1   P  3s       1.55353
     1   P  2p       1.99949    1.99933    1.99936
     1   P  3p       1.07096    0.92518    1.33413

     2   H  1s       1.03162

     3   H  1s       1.03158

     4   H  1s       1.03693

     5   H  1s       1.02667

 Active orbital charges:

   CEN ATOM         s          p       ELECTRONS ->SPIN.DEN
     1   P       0.00222    0.19940      0.20162    0.20162
     2   H       0.00049                 0.00049    0.00049
     3   H       0.00054                 0.00054    0.00054
     4   H       0.00006                 0.00006    0.00006
     5   H       0.79729                 0.79729    0.79729

 Active orbital charges, AO contributions:

   CEN ATOM SHL      SPHERICAL COMPONENTS
     1   P  1s       0.00000
     1   P  2s       0.00001
     1   P  3s       0.00221
     1   P  2p       0.00000    0.00000    0.00000
     1   P  3p       0.19924    0.00001    0.00015

     2   H  1s       0.00049

     3   H  1s       0.00054

     4   H  1s       0.00006

     5   H  1s       0.79729

 Summary of localized orbital composition:   [THRPRINT= 0.020]

   ORB  GRP  ORB.ENERGY      CENTERS/CHARGES
     1   1   -77.193082      P  1   2.000
     2   1    -7.484817      P  1   2.000
     3   1    -5.177912      P  1   2.000
     4   1    -4.977001      P  1   2.000
     5   1    -4.957772      P  1   2.000
     6   1    -0.564062      H  3   1.030   P  1   0.969
     7   1    -0.564012      H  2   1.030   P  1   0.969
     8   1    -0.554140      P  1   1.965   H  5   0.031
     9   1    -0.548858      H  4   1.032   P  1   0.769   H  5   0.197
    10   2    -0.181274      H  5   0.797   P  1   0.202

 Localized orbitals saved to record      2100.2  (orbital set 2)


 **********************************************************************************************************************************
 DATASETS  * FILE   NREC   LENGTH (MB)   RECORD NAMES
              1      20       30.85       500      610      700      900      950      970     1000      129      960     1100   
                                          VAR    BASINP    GEOM    SYMINP    ZMAT    AOBASIS   BASIS     P2S    ABASIS      S 
                                         1400     1410     1200     1210     1080     1600     1650     1300     1700     1800   
                                           T        V       H0       H01     AOSYM     SMH    MOLCAS    ERIS     OPER     GRID   

              2       5        2.84       700     1000      520     1800     2100   
                                         GEOM     BASIS   MCVARS    GRID      RKS  

 PROGRAMS   *        TOTAL      IBBA        KS       INT
 CPU TIMES  *         1.81      0.02      1.44      0.21
 REAL TIME  *         2.23 SEC
 DISK USED  *        35.12 MB      
 **********************************************************************************************************************************
 Molecular orbitals read from record     2100.2  Type=RKS/LOCAL(IBO)  
 Occupation numbers read from record     2100.2  Type=RKS/LOCAL(IBO)  
 Orbital energies read from record       2100.2  Type=RKS/LOCAL(IBO)  
 Redundancy group numbers read from rec  2100.2  Type=RKS/LOCAL(IBO)  

 IBBA/SV(P) energy=      0.000000000000

        KS-SCF  
   -343.51031651
 **********************************************************************************************************************************
 Molpro calculation terminated
