
 Primary working directories    : /local
 Secondary working directories  : /local
 Wavefunction directory         : /local/
 Main file repository           : /local/

 SHA1      : b4a5b34a9e711420743f49e6833241d17c61fb3c
 NAME      : 2099.9.b4a5b34
 ARCHNAME  : linux/x86_64_openmp
 FC        : /cm/shared/languages/GCC-6.1/bin/gfortran
 BLASLIB   : -lblas
 id        : simonbennie

 Nodes     nprocs
 node34-005    1

 Using customized tuning parameters: mindgm=1; mindgv=20; mindgc=4; mindgr=1; noblas=0; minvec=7
 default implementation of scratch files=df  

 memory,500,m
 geomtyp=xyz
 nosym
 noorient
 geometry={
 P          0.21743        0.00009       -0.11125
 H          0.24661        1.03467        0.85216
 H          0.26266       -1.02506        0.86162
 H         -1.26642       -0.01095       -0.15063
 H         -2.50429        0.00003        0.10558
 }
 basis={ default,qzvp }
 {uks,LDA,direct;wf,19,1,1}
 {ibba,bonds=1}

 Variables initialized (895), CPU time= 0.00 sec
 Commands  initialized (725), CPU time= 0.02 sec, 591 directives.
 Default parameters read. Elapsed time= 0.09 sec

 Checking input...
 Passed
1


                                         ***  PROGRAM SYSTEM MOLPRO  ***
                                       Copyright, TTI GmbH Stuttgart, 2015
                                    Version 2099.9 linked May 26 2017 16:03:21


 **********************************************************************************************************************************
 LABEL *                                                                                 
  64 bit serial version                                                                  DATE: 21-Jun-17          TIME: 09:43:43  
 **********************************************************************************************************************************

 SHA1:             b4a5b34a9e711420743f49e6833241d17c61fb3c
 **********************************************************************************************************************************
 SETTING GEOMTYP        =    XYZ

 Variable memory set to  500000000 words,  buffer space 

 ZSYMEL=NOSYM

 SETTING BASIS          =    QZVP


 Recomputing integrals since basis changed


 Using spherical harmonics

 Library entry P      S def2-QZVP            selected for orbital group  1
 Library entry P      P def2-QZVP            selected for orbital group  1
 Library entry P      D def2-QZVP            selected for orbital group  1
 Library entry P      F def2-QZVP            selected for orbital group  1
 Library entry P      G def2-QZVP            selected for orbital group  1
 Library entry H      S def2-QZVP            selected for orbital group  2
 Library entry H      P def2-QZVP            selected for orbital group  2
 Library entry H      D def2-QZVP            selected for orbital group  2
 Library entry H      F def2-QZVP            selected for orbital group  2


 PROGRAM * SEWARD (Integral evaluation for generally contracted gaussian basis sets)     Author: Roland Lindh, 1990

 Geometry written to block  1 of record 700


 Point group  C1  



 ATOMIC COORDINATES

 NR  ATOM    CHARGE       X              Y              Z

   1  P      15.00    0.410883151    0.000170075   -0.210232031
   2  H       1.00    0.466025360    1.955242929    1.610349014
   3  H       1.00    0.496355464   -1.937082661    1.628225823
   4  H       1.00   -2.393186959   -0.020692501   -0.284649446
   5  H       1.00   -4.732422236    0.000056692    0.199517284

 Bond lengths in Bohr (Angstrom)

 1-2  2.672052745  1-3  2.672111705  1-4  2.805135002
     ( 1.413989419)     ( 1.414020619)     ( 1.484413517)

 Bond angles

  2-1-3   93.49845302   2-1-4   92.53018991   3-1-4   92.56972382

 NUCLEAR CHARGE:                   19
 NUMBER OF PRIMITIVE AOS:         273
 NUMBER OF SYMMETRY AOS:          237
 NUMBER OF CONTRACTIONS:          190   ( 190A   )
 NUMBER OF CORE ORBITALS:           5   (   5A   )
 NUMBER OF VALENCE ORBITALS:        8   (   8A   )


 NUCLEAR REPULSION ENERGY   21.01062334


 Eigenvalues of metric

         1 0.269E-03 0.459E-03 0.462E-03 0.130E-02 0.191E-02 0.353E-02 0.517E-02 0.663E-02


 Contracted 2-electron integrals neglected if value below      1.0D-11
 AO integral compression algorithm  1   Integral accuracy      1.0D-11

     632.553 MB (compressed) written to integral file ( 41.7%)


 NUMBER OF SORTED TWO-ELECTRON INTEGRALS:  164629585.     BUFFER LENGTH:  32768
 NUMBER OF SEGMENTS:  11  SEGMENT LENGTH:   15999503      RECORD LENGTH: 524288

 Memory used in sort:      16.56 MW

 SORT1 READ   189433676. AND WROTE   145191474. INTEGRALS IN    422 RECORDS. CPU TIME:     1.90 SEC, REAL TIME:     4.21 SEC
 SORT2 READ   145191474. AND WROTE   164629585. INTEGRALS IN   2413 RECORDS. CPU TIME:     3.75 SEC, REAL TIME:    22.67 SEC

 FILE SIZES:   FILE 1:   663.9 MBYTE,  FILE 4:  1770.0 MBYTE,   TOTAL:   2434.0 MBYTE

 OPERATOR DM      FOR CENTER  0  COORDINATES:    0.000000    0.000000    0.000000


 **********************************************************************************************************************************
 DATASETS  * FILE   NREC   LENGTH (MB)   RECORD NAMES
              1      19      577.58       500      610      700      900      950      970     1000      129      960     1100   
                                          VAR    BASINP    GEOM    SYMINP    ZMAT    AOBASIS   BASIS     P2S    ABASIS      S 
                                         1400     1410     1200     1210     1080     1600     1650     1300     1700   
                                           T        V       H0       H01     AOSYM     SMH    MOLCAS    ERIS     OPER   

 PROGRAMS   *        TOTAL       INT
 CPU TIMES  *        13.97     13.82
 REAL TIME  *        36.71 SEC
 DISK USED  *         2.43 GB      
 **********************************************************************************************************************************

 Density functional group LDA=DIRAC+VWN5
 Functional: DIRAC(Automatically generated (new) DIRAC)                        Gradient terms: 0
 Functional: VWN5(Automatically generated (new) VWN5)                          Gradient terms: 0
 Use grid at  1800.2

 Functional: DIRAC                     Factor:  1.0000
 Functional: VWN5                      Factor:  1.0000

 Generated new metagrid on record  1800.2 with target accuracy 1.0D-06 and 19262 points in CPU time    0.4
 Computed new grid on record 1800.1 in CPU time    0.5
   82435 words reserved for DFT integration

 PROGRAM * UKS-SCF (Unrestricted Kohn-Sham)     Authors: W. Meyer, H.-J. Werner, P.J. Knowles, 1993

 NUMBER OF ELECTRONS:      10+    9-    SPACE SYMMETRY=1    SPIN SYMMETRY: Doublet 
 CONVERGENCE THRESHOLDS:    1.00E-05 (Density)    1.00E-06 (Energy)
 MAX. NUMBER OF ITERATIONS:       60
 INTERPOLATION TYPE:            DIIS
 INTERPOLATION STEPS:              2 (START)      1 (STEP)
 LEVEL SHIFTS:                 -0.20 (ALPHA)  -0.20 (BETA) 



 Use fine grid record 1800.2 for energy threshold  1.0D-06
 Orbital guess generated from atomic densities. Full valence occupancy:   10

 Molecular orbital dump at record        2200.2

 Initial alpha occupation  10
 Initial beta  occupation   9

 ITERATION    DDIFF          GRAD             ENERGY        2-EL.EN.            DIPOLE MOMENTS         DIIS
    1      0.000D+00      0.000D+00      -342.34357857    354.440643   -0.12985    0.00077    0.25560    0
    2      0.121D-02      0.814D-03      -342.35929160    350.878245    0.13200    0.00013    0.18504    1
    3      0.346D-03      0.298D-03      -342.36042314    351.600468    0.10563    0.00023    0.21193    2
    4      0.138D-03      0.984D-04      -342.36065182    351.477752    0.11092    0.00019    0.20777    3
    5      0.146D-03      0.413D-04      -342.36078858    351.448769    0.11133    0.00014    0.20487    4
    6      0.111D-03      0.206D-04      -342.36084211    351.461578    0.10228    0.00010    0.20431    5
    7      0.444D-04      0.786D-05      -342.36085075    351.456882    0.09964    0.00007    0.20362    6
    8      0.127D-04      0.278D-05      -342.36085177    351.461468    0.09705    0.00008    0.20462    7
    9      0.497D-05      0.137D-05      -342.36085198    351.460243    0.09691    0.00007    0.20446    8
   10      0.248D-05      0.585D-06      -342.36085203    351.460591    0.09648    0.00007    0.20462    8

 Final alpha occupancy:  10
 Final beta  occupancy:   9

 !UKS STATE 1.1 Energy               -342.360852031236
 Nuclear energy                        21.01062334
 One-electron energy                 -515.84517771
 Two-electron energy                  175.73029535
 Density functional                   -23.25659301     DIRAC=-21.92022403 VWN5= -1.33636898
 Virial quotient                       -1.00258020
 !UKS STATE 1.1 Dipole moment           0.09648135     0.00006900     0.20461880
 Dipole moment /Debye                   0.24521506     0.00017538     0.52005505

 Orbital energies for positive spin:

         1.1          2.1          3.1          4.1          5.1          6.1          7.1          8.1          9.1         10.1
    -76.001748    -6.277704    -4.526097    -4.524651    -4.521282    -0.601078    -0.388849    -0.356526    -0.274525    -0.210317

        11.1         12.1
     -0.019898    -0.018646

 Orbital energies for negative spin:

         1.1          2.1          3.1          4.1          5.1          6.1          7.1          8.1          9.1         10.1
    -76.000037    -6.275771    -4.523184    -4.522435    -4.519187    -0.592295    -0.367390    -0.353659    -0.262042    -0.148964

        11.1         12.1
     -0.016402    -0.013800

 HOMO     10.1    -0.210317 =      -5.7230eV
 LUMO    -10.1    -0.148964 =      -4.0535eV
 LUMO-HOMO         0.061353 =       1.6695eV

 EXPECTATION VALUE OF S**2:             0.75317261

 Occupation number threshold for canonical orbitals:  1.999000 (occupied),  0.001000 (virtual)

 Number of pseudo-canonical orbitals per symmetry:    8
 Number of active natural orbitals per symmetry:      3

 Natural orbitals saved to record    2200.2 (Orbital set 3)

 Orbital spaces for UNO-CAS (Min. occupation: 0.020  Max. occupation: 1.980):

 Closed:        9
 Active:        1


 **********************************************************************************************************************************
 DATASETS  * FILE   NREC   LENGTH (MB)   RECORD NAMES
              1      20      578.20       500      610      700      900      950      970     1000      129      960     1100   
                                          VAR    BASINP    GEOM    SYMINP    ZMAT    AOBASIS   BASIS     P2S    ABASIS      S 
                                         1400     1410     1200     1210     1080     1600     1650     1300     1700     1800   
                                           T        V       H0       H01     AOSYM     SMH    MOLCAS    ERIS     OPER     GRID   

              2       5        4.31       700     1000      520     1800     2200   
                                         GEOM     BASIS   MCVARS    GRID      UKS  

 PROGRAMS   *        TOTAL       UKS       INT
 CPU TIMES  *        34.07     20.10     13.82
 REAL TIME  *        57.69 SEC
 DISK USED  *         2.43 GB      
 **********************************************************************************************************************************


 PROGRAM * Intrinsic Basis Bonding Analysis (IBBA)          Author: G. Knizia

 Molecular orbitals read from record     2200.2  Type=UKS/ALPHA (state 1.1)
 Fock matrix read from record            2200.2  Type=UKS/TOTAL (state 1.1)
 Orbital energies read from record       2200.2  Type=UKS/ALPHA (state 1.1)
 Density matrix read from record         2200.2  Type=UKS/CHARGE (state 1.1)

 Number of core orbitals:           5 (   5 )
 Number of closed-shell orbitals:   4 (   4 )
 Number of active  orbitals:        1 (   1 )

 Basis set MINAO-AUTO-PP generated.      Number of basis functions:   13 

 Polarized AO type:                A = (O Ot + (1-O)(1-Ot)) P12
 Orthogonalization method:         Symmetric (Loewdin)
 Localization functional:          L = sum[A,i] <i|n_A|i>^4 -> max

 Localization group 1:   9 orbitals, occupancy  2.000
 Iterative localization: IB/PM,    5 iter; Final gradient 0.84E-08

 Bond order analysis:       [THRPRINT= 0.020]

   CEN ATOM   CEN ATOM     WIBERG.BO      RENORM.BO
     1   P  -   3   H       0.996874       1.000000
     1   P  -   2   H       0.996821       1.000000
     1   P  -   4   H       0.613780       1.000000
     1   P  -   5   H       0.515108       1.000000

     2   H  -   1   P       0.996821       1.000000

     3   H  -   1   P       0.996874       1.000000

     4   H  -   1   P       0.613780       1.000000
     4   H  -   5   H       0.382447       0.589832

     5   H  -   1   P       0.515108       1.000000
     5   H  -   4   H       0.382447       0.589832


 Valency analysis:

   CEN ATOM   TOT.VALENCE
     1   P       3.122583
     2   H       0.999042
     3   H       0.999046
     4   H       0.997847
     5   H       0.897567
 Localization group 2:   1 orbitals, occupancy  1.000
 Iterative localization: IB/PM,    1 iter; Final gradient 0.00E+00

 Bond order analysis:       [THRPRINT= 0.020]

   CEN ATOM   CEN ATOM     WIBERG.BO      RENORM.BO
     1   P  -   5   H       0.492304       0.500000




     5   H  -   1   P       0.492304       0.500000


 Valency analysis:

   CEN ATOM   TOT.VALENCE
     1   P       0.496351
     2   H       0.000030
     3   H       0.000010
     4   H       0.008770
     5   H       0.497068

 Total charge composition:

   CEN ATOM         s          p       ELECTRONS ->P.CHARGE
     1   P       5.57180    9.31377     14.88557    0.11443
     2   H       0.96907                 0.96907    0.03093
     3   H       0.96912                 0.96912    0.03088
     4   H       0.95800                 0.95800    0.04200
     5   H       1.21824                 1.21824   -0.21824

 Total charge composition, AO contributions:

   CEN ATOM SHL      SPHERICAL COMPONENTS
     1   P  1s       1.99985
     1   P  2s       1.99239
     1   P  3s       1.57956
     1   P  2p       1.99959    1.99954    1.99953
     1   P  3p       0.98801    0.99423    1.33287

     2   H  1s       0.96907

     3   H  1s       0.96912

     4   H  1s       0.95800

     5   H  1s       1.21824

 Active orbital charges:

   CEN ATOM         s          p       ELECTRONS ->SPIN.DEN
     1   P       0.00446    0.45283      0.45729    0.45729
     2   H       0.00002                 0.00002    0.00002
     3   H       0.00000                 0.00000    0.00000
     4   H       0.00440                 0.00440    0.00440
     5   H       0.53829                 0.53829    0.53829

 Active orbital charges, AO contributions:

   CEN ATOM SHL      SPHERICAL COMPONENTS
     1   P  1s       0.00000
     1   P  2s       0.00000
     1   P  3s       0.00446
     1   P  2p       0.00003    0.00000    0.00000
     1   P  3p       0.42756    0.00002    0.02522

     2   H  1s       0.00002

     3   H  1s       0.00000

     4   H  1s       0.00440

     5   H  1s       0.53829

 Summary of localized orbital composition:   [THRPRINT= 0.020]

   ORB  GRP  ORB.ENERGY      CENTERS/CHARGES
     1   1   -75.028421      P  1   2.000
     2   1    -6.925923      P  1   2.000
     3   1    -4.696023      P  1   2.000
     4   1    -4.525039      P  1   2.000
     5   1    -4.518224      P  1   2.000
     6   1    -0.447888      P  1   1.031   H  3   0.968
     7   1    -0.447754      P  1   1.031   H  2   0.968
     8   1    -0.442745      P  1   1.817   H  5   0.119   H  4   0.063
     9   1    -0.407130      H  4   0.890   H  5   0.560   P  1   0.549
    10   2    -0.181063      H  5   0.538   P  1   0.457

 Localized orbitals saved to record      2200.2  (orbital set 4)


 **********************************************************************************************************************************
 DATASETS  * FILE   NREC   LENGTH (MB)   RECORD NAMES
              1      20      578.20       500      610      700      900      950      970     1000      129      960     1100   
                                          VAR    BASINP    GEOM    SYMINP    ZMAT    AOBASIS   BASIS     P2S    ABASIS      S 
                                         1400     1410     1200     1210     1080     1600     1650     1300     1700     1800   
                                           T        V       H0       H01     AOSYM     SMH    MOLCAS    ERIS     OPER     GRID   

              2       5        4.60       700     1000      520     1800     2200   
                                         GEOM     BASIS   MCVARS    GRID      UKS  

 PROGRAMS   *        TOTAL      IBBA       UKS       INT
 CPU TIMES  *        34.11      0.04     20.10     13.82
 REAL TIME  *        57.82 SEC
 DISK USED  *         2.43 GB      
 **********************************************************************************************************************************
 Molecular orbitals read from record     2200.2  Type=UKS/LOCAL(IBO)  
 Occupation numbers read from record     2200.2  Type=UKS/LOCAL(IBO)  
 Orbital energies read from record       2200.2  Type=UKS/LOCAL(IBO)  
 Redundancy group numbers read from rec  2200.2  Type=UKS/BETA (state 1.1)

 IBBA/QZVP energy=      0.000000000000

        UKS-SCF 
   -342.36085203
 **********************************************************************************************************************************
 Molpro calculation terminated
