
 Primary working directories    : /local
 Secondary working directories  : /local
 Wavefunction directory         : /local/
 Main file repository           : /local/

 SHA1      : b4a5b34a9e711420743f49e6833241d17c61fb3c
 NAME      : 2099.9.b4a5b34
 ARCHNAME  : linux/x86_64_openmp
 FC        : /cm/shared/languages/GCC-6.1/bin/gfortran
 BLASLIB   : -lblas
 id        : simonbennie

 Nodes     nprocs
 node34-010    1

 Using customized tuning parameters: mindgm=1; mindgv=20; mindgc=4; mindgr=1; noblas=0; minvec=7
 default implementation of scratch files=df  

 memory,500,m
 geomtyp=xyz
 nosym
 noorient
 geometry={
 P          0.21743        0.00009       -0.11125
 H          0.24661        1.03467        0.85216
 H          0.26266       -1.02506        0.86162
 H         -1.26642       -0.01095       -0.15063
 H         -2.50429        0.00003        0.10558
 }
 basis={ default,SV(P) }
 {ks,M06-L,direct;wf,19,1,1}
 {ibba,bonds=1}

 Variables initialized (895), CPU time= 0.01 sec
 Commands  initialized (725), CPU time= 0.01 sec, 591 directives.
 Default parameters read. Elapsed time= 0.08 sec

 Checking input...
 Passed
1


                                         ***  PROGRAM SYSTEM MOLPRO  ***
                                       Copyright, TTI GmbH Stuttgart, 2015
                                    Version 2099.9 linked May 26 2017 16:03:21


 **********************************************************************************************************************************
 LABEL *                                                                                 
  64 bit serial version                                                                  DATE: 21-Jun-17          TIME: 09:01:32  
 **********************************************************************************************************************************

 SHA1:             b4a5b34a9e711420743f49e6833241d17c61fb3c
 **********************************************************************************************************************************
 SETTING GEOMTYP        =    XYZ

 Variable memory set to  500000000 words,  buffer space 

 ZSYMEL=NOSYM

 SETTING BASIS          =    SV(P)


 Recomputing integrals since basis changed


 Using spherical harmonics

 Library entry P      S def2-SV(P)           selected for orbital group  1
 Library entry P      P def2-SV(P)           selected for orbital group  1
 Library entry P      D def2-SV(P)           selected for orbital group  1
 Library entry H      S def2-SV(P)           selected for orbital group  2


 PROGRAM * SEWARD (Integral evaluation for generally contracted gaussian basis sets)     Author: Roland Lindh, 1990

 Geometry written to block  1 of record 700


 Point group  C1  



 ATOMIC COORDINATES

 NR  ATOM    CHARGE       X              Y              Z

   1  P      15.00    0.410883151    0.000170075   -0.210232031
   2  H       1.00    0.466025360    1.955242929    1.610349014
   3  H       1.00    0.496355464   -1.937082661    1.628225823
   4  H       1.00   -2.393186959   -0.020692501   -0.284649446
   5  H       1.00   -4.732422236    0.000056692    0.199517284

 Bond lengths in Bohr (Angstrom)

 1-2  2.672052745  1-3  2.672111705  1-4  2.805135002
     ( 1.413989419)     ( 1.414020619)     ( 1.484413517)

 Bond angles

  2-1-3   93.49845302   2-1-4   92.53018991   3-1-4   92.56972382

 NUCLEAR CHARGE:                   19
 NUMBER OF PRIMITIVE AOS:          53
 NUMBER OF SYMMETRY AOS:           52
 NUMBER OF CONTRACTIONS:           26   (  26A   )
 NUMBER OF CORE ORBITALS:           5   (   5A   )
 NUMBER OF VALENCE ORBITALS:        8   (   8A   )


 NUCLEAR REPULSION ENERGY   21.01062334

 Eigenvalues of metric

         1 0.123E-01 0.535E-01 0.102E+00 0.188E+00 0.231E+00 0.273E+00 0.293E+00 0.363E+00


 Contracted 2-electron integrals neglected if value below      1.0D-11
 AO integral compression algorithm  1   Integral accuracy      1.0D-11

     0.524 MB (compressed) written to integral file ( 57.9%)


 NUMBER OF SORTED TWO-ELECTRON INTEGRALS:      61776.     BUFFER LENGTH:  32768
 NUMBER OF SEGMENTS:   1  SEGMENT LENGTH:      61776      RECORD LENGTH: 524288

 Memory used in sort:       0.62 MW

 SORT1 READ       81356. AND WROTE       48693. INTEGRALS IN      1 RECORDS. CPU TIME:     0.00 SEC, REAL TIME:     0.00 SEC
 SORT2 READ       48693. AND WROTE       61776. INTEGRALS IN      2 RECORDS. CPU TIME:     0.01 SEC, REAL TIME:     0.02 SEC

 FILE SIZES:   FILE 1:    30.6 MBYTE,  FILE 4:     4.2 MBYTE,   TOTAL:     34.8 MBYTE

 OPERATOR DM      FOR CENTER  0  COORDINATES:    0.000000    0.000000    0.000000


 **********************************************************************************************************************************
 DATASETS  * FILE   NREC   LENGTH (MB)   RECORD NAMES
              1      19       30.28       500      610      700      900      950      970     1000      129      960     1100   
                                          VAR    BASINP    GEOM    SYMINP    ZMAT    AOBASIS   BASIS     P2S    ABASIS      S 
                                         1400     1410     1200     1210     1080     1600     1650     1300     1700   
                                           T        V       H0       H01     AOSYM     SMH    MOLCAS    ERIS     OPER   

 PROGRAMS   *        TOTAL       INT
 CPU TIMES  *         0.35      0.21
 REAL TIME  *         0.66 SEC
 DISK USED  *        35.12 MB      
 **********************************************************************************************************************************

 Density functional group M06-L=XC-M06-L
 Functional: XC-M06-L(via MFM 1.6)                                             Gradient terms: 1
 Use grid at  1800.2

 Functional: XC-M06-L                  Factor:  1.0000

 Generated new metagrid on record  1800.2 with target accuracy 1.0D-06 and 17598 points in CPU time    0.5
 Computed new grid on record 1800.1 in CPU time    0.5
   24633 words reserved for DFT integration

 PROGRAM * RKS-SCF (Restricted open shell Kohn-Sham)     Authors: W. Meyer, H.-J. Werner, P.J. Knowles, 1993

 NUMBER OF ELECTRONS:      10+    9-    SPACE SYMMETRY=1    SPIN SYMMETRY: Doublet 
 CONVERGENCE THRESHOLDS:    1.00E-05 (Density)    1.00E-06 (Energy)
 MAX. NUMBER OF ITERATIONS:       60
 INTERPOLATION TYPE:            DIIS
 INTERPOLATION STEPS:              2 (START)      1 (STEP)
 LEVEL SHIFTS:                 -0.60 (CLOSED) -0.30 (OPEN) 



 Use fine grid record 1800.2 for energy threshold  1.0D-06
 Orbital guess generated from atomic densities. Full valence occupancy:   10

 Molecular orbital dump at record        2100.2

 Initial alpha occupancy:  10
 Initial beta  occupancy:   9
 Wave function symmetry:    1

 ITERATION    DDIFF          GRAD             ENERGY        2-EL.EN.            DIPOLE MOMENTS         DIIS   ORB.
    1      0.000D+00      0.000D+00      -343.51347861    353.461803   -0.07390    0.00117    0.38516    0    start
    2      0.000D+00      0.472D-02      -343.51990246    351.259870    0.16075    0.00098    0.30899    1    diag,B
    3      0.122D-01      0.126D-02      -343.52057925    351.570582    0.08364    0.00094    0.32868    2    diag,B
    4      0.231D-02      0.456D-03      -343.52090356    351.525946    0.06491    0.00083    0.32602    3    diag,B
    5      0.213D-02      0.212D-03      -343.52102887    351.526777    0.04924    0.00074    0.32299    4    diag,B
    6      0.135D-02      0.108D-03      -343.52106938    351.539246    0.03486    0.00067    0.32150    5    diag,B
    7      0.961D-03      0.342D-04      -343.52107224    351.541225    0.03002    0.00065    0.32208    6    fixocc
    8      0.247D-03      0.103D-04      -343.52107246    351.541389    0.02893    0.00065    0.32244    7    diag,B
    9      0.666D-04      0.273D-05      -343.52107248    351.541592    0.02874    0.00065    0.32254    8    diag,B
   10      0.138D-04      0.660D-06      -343.52107248    351.541607    0.02868    0.00065    0.32255    9    orth
   11      0.376D-05      0.147D-06      -343.52107248    351.541611    0.02868    0.00065    0.32256    0    orth

 Final alpha occupancy:  10
 Final beta  occupancy:   9

 !RKS STATE 1.1 Energy               -343.521072476415
 Nuclear energy                        21.01062334
 One-electron energy                 -515.66922522
 Two-electron energy                  175.77080554
 Density functional                   -24.63327614     XC-M06-L=-24.63327614
 Virial quotient                       -1.00230733
 !RKS STATE 1.1 Dipole moment           0.02868156     0.00064999     0.32255562
 Dipole moment /Debye                   0.07289647     0.00165199     0.81980092

 Orbital energies:

         1.1          2.1          3.1          4.1          5.1          6.1          7.1          8.1          9.1         10.1
    -76.733207    -6.521826    -4.634005    -4.633954    -4.629689    -0.618055    -0.390873    -0.367614    -0.268661    -0.228143

        11.1         12.1
      0.017482     0.026249

 HOMO     10.1    -0.228143 =      -6.2081eV
 LUMO     11.1     0.017482 =       0.4757eV
 LUMO-HOMO         0.245625 =       6.6838eV


 **********************************************************************************************************************************
 DATASETS  * FILE   NREC   LENGTH (MB)   RECORD NAMES
              1      20       30.85       500      610      700      900      950      970     1000      129      960     1100   
                                          VAR    BASINP    GEOM    SYMINP    ZMAT    AOBASIS   BASIS     P2S    ABASIS      S 
                                         1400     1410     1200     1210     1080     1600     1650     1300     1700     1800   
                                           T        V       H0       H01     AOSYM     SMH    MOLCAS    ERIS     OPER     GRID   

              2       5        2.84       700     1000      520     1800     2100   
                                         GEOM     BASIS   MCVARS    GRID      RKS  

 PROGRAMS   *        TOTAL        KS       INT
 CPU TIMES  *         3.83      3.48      0.21
 REAL TIME  *         4.20 SEC
 DISK USED  *        35.12 MB      
 **********************************************************************************************************************************


 PROGRAM * Intrinsic Basis Bonding Analysis (IBBA)          Author: G. Knizia

 Molecular orbitals read from record     2100.2  Type=RKS/CANONICAL (state 1.1)
 Fock matrix read from record            2100.2  Type=RKS/TOTAL (state 1.1)
 Orbital energies read from record       2100.2  Type=RKS/CANONICAL (state 1.1)
 Density matrix read from record         2100.2  Type=RKS/CHARGE (state 1.1)

 Number of core orbitals:           5 (   5 )
 Number of closed-shell orbitals:   4 (   4 )
 Number of active  orbitals:        1 (   1 )

 Basis set MINAO-AUTO-PP generated.      Number of basis functions:   13 

 Polarized AO type:                A = (O Ot + (1-O)(1-Ot)) P12
 Orthogonalization method:         Symmetric (Loewdin)
 Localization functional:          L = sum[A,i] <i|n_A|i>^4 -> max

 Localization group 1:   9 orbitals, occupancy  2.000
 Iterative localization: IB/PM,    6 iter; Final gradient 0.14E-09

 Bond order analysis:       [THRPRINT= 0.020]

   CEN ATOM   CEN ATOM     WIBERG.BO      RENORM.BO
     1   P  -   2   H       0.996442       1.000000
     1   P  -   3   H       0.996383       1.000000
     1   P  -   4   H       0.775858       1.000000
     1   P  -   5   H       0.275389       1.000000

     2   H  -   1   P       0.996442       1.000000

     3   H  -   1   P       0.996383       1.000000

     4   H  -   1   P       0.775858       1.000000
     4   H  -   5   H       0.221960       0.745339

     5   H  -   1   P       0.275389       1.000000
     5   H  -   4   H       0.221960       0.745339


 Valency analysis:

   CEN ATOM   TOT.VALENCE
     1   P       3.044072
     2   H       0.999883
     3   H       0.999881
     4   H       0.999675
     5   H       0.499480
 Localization group 2:   1 orbitals, occupancy  1.000
 Iterative localization: IB/PM,    1 iter; Final gradient 0.00E+00

 Bond order analysis:       [THRPRINT= 0.020]

   CEN ATOM   CEN ATOM     WIBERG.BO      RENORM.BO
     1   P  -   5   H       0.378795       0.500000




     5   H  -   1   P       0.378795       0.500000


 Valency analysis:

   CEN ATOM   TOT.VALENCE
     1   P       0.378945
     2   H       0.000261
     3   H       0.000326
     4   H       0.000001
     5   H       0.379234

 Total charge composition:

   CEN ATOM         s          p       ELECTRONS ->P.CHARGE
     1   P       5.55202    9.36967     14.92169    0.07831
     2   H       1.01095                 1.01095   -0.01095
     3   H       1.01108                 1.01108   -0.01108
     4   H       1.01802                 1.01802   -0.01802
     5   H       1.03826                 1.03826   -0.03826

 Total charge composition, AO contributions:

   CEN ATOM SHL      SPHERICAL COMPONENTS
     1   P  1s       1.99986
     1   P  2s       1.99111
     1   P  3s       1.56106
     1   P  2p       1.99951    1.99938    1.99939
     1   P  3p       1.07822    0.95136    1.34181

     2   H  1s       1.01095

     3   H  1s       1.01108

     4   H  1s       1.01802

     5   H  1s       1.03826

 Active orbital charges:

   CEN ATOM         s          p       ELECTRONS ->SPIN.DEN
     1   P       0.00039    0.25358      0.25398    0.25398
     2   H       0.00013                 0.00013    0.00013
     3   H       0.00016                 0.00016    0.00016
     4   H       0.00000                 0.00000    0.00000
     5   H       0.74573                 0.74573    0.74573

 Active orbital charges, AO contributions:

   CEN ATOM SHL      SPHERICAL COMPONENTS
     1   P  1s       0.00000
     1   P  2s       0.00001
     1   P  3s       0.00038
     1   P  2p       0.00000    0.00000    0.00000
     1   P  3p       0.25278    0.00001    0.00079

     2   H  1s       0.00013

     3   H  1s       0.00016

     4   H  1s       0.00000

     5   H  1s       0.74573

 Summary of localized orbital composition:   [THRPRINT= 0.020]

   ORB  GRP  ORB.ENERGY      CENTERS/CHARGES
     1   1   -75.771713      P  1   2.000
     2   1    -7.130978      P  1   2.000
     3   1    -4.820544      P  1   2.000
     4   1    -4.628178      P  1   2.000
     5   1    -4.617410      P  1   2.000
     6   1    -0.469308      H  2   1.010   P  1   0.989
     7   1    -0.469294      H  3   1.010   P  1   0.989
     8   1    -0.455174      H  4   1.009   P  1   0.749   H  5   0.241
     9   1    -0.435286      P  1   1.940   H  5   0.051
    10   2    -0.177517      H  5   0.746   P  1   0.254

 Localized orbitals saved to record      2100.2  (orbital set 2)


 **********************************************************************************************************************************
 DATASETS  * FILE   NREC   LENGTH (MB)   RECORD NAMES
              1      20       30.85       500      610      700      900      950      970     1000      129      960     1100   
                                          VAR    BASINP    GEOM    SYMINP    ZMAT    AOBASIS   BASIS     P2S    ABASIS      S 
                                         1400     1410     1200     1210     1080     1600     1650     1300     1700     1800   
                                           T        V       H0       H01     AOSYM     SMH    MOLCAS    ERIS     OPER     GRID   

              2       5        2.84       700     1000      520     1800     2100   
                                         GEOM     BASIS   MCVARS    GRID      RKS  

 PROGRAMS   *        TOTAL      IBBA        KS       INT
 CPU TIMES  *         3.85      0.02      3.48      0.21
 REAL TIME  *         4.75 SEC
 DISK USED  *        35.12 MB      
 **********************************************************************************************************************************
 Molecular orbitals read from record     2100.2  Type=RKS/LOCAL(IBO)  
 Occupation numbers read from record     2100.2  Type=RKS/LOCAL(IBO)  
 Orbital energies read from record       2100.2  Type=RKS/LOCAL(IBO)  
 Redundancy group numbers read from rec  2100.2  Type=RKS/LOCAL(IBO)  

 IBBA/SV(P) energy=      0.000000000000

        KS-SCF  
   -343.52107248
 **********************************************************************************************************************************
 Molpro calculation terminated
