
 Primary working directories    : /local
 Secondary working directories  : /local
 Wavefunction directory         : /local/
 Main file repository           : /local/

 SHA1      : b4a5b34a9e711420743f49e6833241d17c61fb3c
 NAME      : 2099.9.b4a5b34
 ARCHNAME  : linux/x86_64_openmp
 FC        : /cm/shared/languages/GCC-6.1/bin/gfortran
 BLASLIB   : -lblas
 id        : simonbennie

 Nodes     nprocs
 node32-003    1

 Using customized tuning parameters: mindgm=1; mindgv=20; mindgc=4; mindgr=1; noblas=0; minvec=7
 default implementation of scratch files=df  

 memory,500,m
 geomtyp=xyz
 nosym
 noorient
 geometry={
 P          0.21743        0.00009       -0.11125
 H          0.24661        1.03467        0.85216
 H          0.26266       -1.02506        0.86162
 H         -1.26642       -0.01095       -0.15063
 H         -2.50429        0.00003        0.10558
 }
 basis={ default,SV(P) }
 {ks,B3LYP5,direct;disp;wf,19,1,1}
 {ibba,bonds=1}

 Variables initialized (895), CPU time= 0.00 sec
 Commands  initialized (725), CPU time= 0.01 sec, 591 directives.
 Default parameters read. Elapsed time= 0.09 sec

 Checking input...
 Passed
1


                                         ***  PROGRAM SYSTEM MOLPRO  ***
                                       Copyright, TTI GmbH Stuttgart, 2015
                                    Version 2099.9 linked May 26 2017 16:03:21


 **********************************************************************************************************************************
 LABEL *                                                                                 
  64 bit serial version                                                                  DATE: 16-Mar-18          TIME: 12:47:05  
 **********************************************************************************************************************************

 SHA1:             b4a5b34a9e711420743f49e6833241d17c61fb3c
 **********************************************************************************************************************************
 SETTING GEOMTYP        =    XYZ

 Variable memory set to  500000000 words,  buffer space 

 ZSYMEL=NOSYM

 SETTING BASIS          =    SV(P)


 Recomputing integrals since basis changed


 Using spherical harmonics

 Library entry P      S def2-SV(P)           selected for orbital group  1
 Library entry P      P def2-SV(P)           selected for orbital group  1
 Library entry P      D def2-SV(P)           selected for orbital group  1
 Library entry H      S def2-SV(P)           selected for orbital group  2


 PROGRAM * SEWARD (Integral evaluation for generally contracted gaussian basis sets)     Author: Roland Lindh, 1990

 Geometry written to block  1 of record 700


 Point group  C1  



 ATOMIC COORDINATES

 NR  ATOM    CHARGE       X              Y              Z

   1  P      15.00    0.410883151    0.000170075   -0.210232031
   2  H       1.00    0.466025360    1.955242929    1.610349014
   3  H       1.00    0.496355464   -1.937082661    1.628225823
   4  H       1.00   -2.393186959   -0.020692501   -0.284649446
   5  H       1.00   -4.732422236    0.000056692    0.199517284

 Bond lengths in Bohr (Angstrom)

 1-2  2.672052745  1-3  2.672111705  1-4  2.805135002
     ( 1.413989419)     ( 1.414020619)     ( 1.484413517)

 Bond angles

  2-1-3   93.49845302   2-1-4   92.53018991   3-1-4   92.56972382

 NUCLEAR CHARGE:                   19
 NUMBER OF PRIMITIVE AOS:          53
 NUMBER OF SYMMETRY AOS:           52
 NUMBER OF CONTRACTIONS:           26   (  26A   )
 NUMBER OF CORE ORBITALS:           5   (   5A   )
 NUMBER OF VALENCE ORBITALS:        8   (   8A   )


 NUCLEAR REPULSION ENERGY   21.01062334

 Eigenvalues of metric

         1 0.123E-01 0.535E-01 0.102E+00 0.188E+00 0.231E+00 0.273E+00 0.293E+00 0.363E+00


 Contracted 2-electron integrals neglected if value below      1.0D-11
 AO integral compression algorithm  1   Integral accuracy      1.0D-11

     0.524 MB (compressed) written to integral file ( 57.9%)


 NUMBER OF SORTED TWO-ELECTRON INTEGRALS:      61776.     BUFFER LENGTH:  32768
 NUMBER OF SEGMENTS:   1  SEGMENT LENGTH:      61776      RECORD LENGTH: 524288

 Memory used in sort:       0.62 MW

 SORT1 READ       81356. AND WROTE       48693. INTEGRALS IN      1 RECORDS. CPU TIME:     0.00 SEC, REAL TIME:     0.01 SEC
 SORT2 READ       48693. AND WROTE       61776. INTEGRALS IN      2 RECORDS. CPU TIME:     0.01 SEC, REAL TIME:     0.02 SEC

 FILE SIZES:   FILE 1:    30.6 MBYTE,  FILE 4:     4.2 MBYTE,   TOTAL:     34.8 MBYTE

 OPERATOR DM      FOR CENTER  0  COORDINATES:    0.000000    0.000000    0.000000


 **********************************************************************************************************************************
 DATASETS  * FILE   NREC   LENGTH (MB)   RECORD NAMES
              1      19       30.28       500      610      700      900      950      970     1000      129      960     1100   
                                          VAR    BASINP    GEOM    SYMINP    ZMAT    AOBASIS   BASIS     P2S    ABASIS      S 
                                         1400     1410     1200     1210     1080     1600     1650     1300     1700   
                                           T        V       H0       H01     AOSYM     SMH    MOLCAS    ERIS     OPER   

 PROGRAMS   *        TOTAL       INT
 CPU TIMES  *         0.35      0.21
 REAL TIME  *         0.66 SEC
 DISK USED  *        35.12 MB      
 **********************************************************************************************************************************

 Density functional group B3LYP5=B88+DIRAC+LYP+VWN5
 Functional: B88(Automatically generated (new) B88)                            Gradient terms: 1
 Functional: DIRAC(Automatically generated (new) DIRAC)                        Gradient terms: 0
 Functional: LYP(Automatically generated (new) LYP)                            Gradient terms: 1
 Functional: VWN5(Automatically generated (new) VWN5)                          Gradient terms: 0

 dispersion correction activated
 Density functional: B3LYP5  
 functional not in list, set to default 


 Exact exchange will be calculated, factor:  0.2000

 Functional: B88                       Factor:  0.7200
 Functional: DIRAC                     Factor:  0.0800
 Functional: LYP                       Factor:  0.8100
 Functional: VWN5                      Factor:  0.1900

 Use grid at  1800.2


 Exact exchange will be calculated, factor:  0.2000

 Functional: B88                       Factor:  0.7200
 Functional: DIRAC                     Factor:  0.0800
 Functional: LYP                       Factor:  0.8100
 Functional: VWN5                      Factor:  0.1900

 Generated new metagrid on record  1800.2 with target accuracy 1.0D-06 and 17598 points in CPU time    0.5
 Computed new grid on record 1800.1 in CPU time    0.5
   24633 words reserved for DFT integration

 PROGRAM * RKS-SCF (Restricted open shell Kohn-Sham)     Authors: W. Meyer, H.-J. Werner, P.J. Knowles, 1993

 NUMBER OF ELECTRONS:      10+    9-    SPACE SYMMETRY=1    SPIN SYMMETRY: Doublet 
 CONVERGENCE THRESHOLDS:    1.00E-05 (Density)    1.00E-06 (Energy)
 MAX. NUMBER OF ITERATIONS:       60
 INTERPOLATION TYPE:            DIIS
 INTERPOLATION STEPS:              2 (START)      1 (STEP)
 LEVEL SHIFTS:                 -0.60 (CLOSED) -0.30 (OPEN) 



 Use fine grid record 1800.2 for energy threshold  1.0D-06
 Orbital guess generated from atomic densities. Full valence occupancy:   10

 Molecular orbital dump at record        2100.2

 Initial alpha occupancy:  10
 Initial beta  occupancy:   9
 Wave function symmetry:    1

 ITERATION    DDIFF          GRAD             ENERGY        2-EL.EN.            DIPOLE MOMENTS         DIIS   ORB.
    1      0.000D+00      0.000D+00      -343.46916830    343.420656    0.01804    0.00094    0.35462    0    start
    2      0.000D+00      0.382D-02      -343.47435913    341.679801    0.20990    0.00070    0.27264    1    diag,B
    3      0.111D-01      0.111D-02      -343.47513972    341.883326    0.14430    0.00066    0.27457    2    diag,B
    4      0.242D-02      0.539D-03      -343.47568645    341.854698    0.11010    0.00053    0.26386    3    diag,B
    5      0.270D-02      0.283D-03      -343.47593478    341.858581    0.08058    0.00038    0.25677    4    diag,B
    6      0.199D-02      0.129D-03      -343.47599214    341.874852    0.06127    0.00029    0.25609    5    diag,B
    7      0.113D-02      0.360D-04      -343.47599531    341.875370    0.05702    0.00027    0.25785    6    fixocc
    8      0.279D-03      0.945D-05      -343.47599550    341.875661    0.05657    0.00027    0.25825    7    diag,B
    9      0.500D-04      0.319D-05      -343.47599552    341.875741    0.05640    0.00027    0.25833    8    diag,B
   10      0.171D-04      0.689D-06      -343.47599552    341.875713    0.05638    0.00027    0.25832    9    orth
   11      0.334D-05      0.224D-06      -343.47599552    341.875704    0.05638    0.00027    0.25832    0    orth

 Dispersion correction
 - - - - - - - - - - - 
  _________________________________
                                   
 |         DFTD3 V1.3 Rev 1        |
 | S.Grimme, University Muenster   |
 | Fri Jul  2 12:48:21 CEST 2010   |
  _________________________________

 Please cite DFT-D3 work done with this code as:
 S. Grimme, J. Antony, S. Ehrlich and H. Krieg,
 J. Chem. Phys, 132 (2010), 154104.
 For DFT-D2 the reference is
 S. Grimme, J. Comput. Chem., 27 (2006), 1787-1799

 C6 coefficients used:
                    2  C6 for element                     1
 Z=  1 CN=   0.912     C6(AA)=    3.03
 Z=  1 CN=   0.000     C6(AA)=    7.59
                    4  C6 for element                    15
 Z= 15 CN=   0.000     C6(AA)=  191.69
 Z= 15 CN=   0.995     C6(AA)=  180.62
 Z= 15 CN=   2.010     C6(AA)=  175.55
 Z= 15 CN=   2.986     C6(AA)=  151.69

 #           XYZ [au]               R0(AA) [Ang.]   CN       C6(AA)     C8(AA)   C10(AA) [au]
  1   0.41088   0.00017  -0.21023   p   1.751  2.987       152.2      8430.8    572153.4
  2   0.46603   1.95524   1.61035   h   1.091  0.996         3.1        37.4       553.6
  3   0.49636  -1.93708   1.62823   h   1.091  0.996         3.1        37.4       553.6
  4  -2.39319  -0.02069  -0.28465   h   1.091  0.994         3.1        37.4       553.8
  5  -4.73242   0.00006   0.19952   h   1.091  0.013         7.4        89.2      1320.4

 molecular C6(AA) [au] =       411.90

           DFT-D V3
 DF pbe                                               
 parameters
 s6       :    1.0000
 s8       :    0.7220
 rs6      :    1.2170
 alpha6   :   14.0000
 alpha8   :   16.0000
 k1-k3    :   16.0000    1.3333   -4.0000

 Edisp /kcal,au:    -0.2783 -0.00044346

 E6    /kcal :    -0.1026
 E8    /kcal :    -0.1757
 % E8        : 63.15
 normal termination of dftd3

 RKS STATE 1.1 ENERGY+DISP     -343.47643898

 Final alpha occupancy:  10
 Final beta  occupancy:   9

 !RKS STATE 1.1 Energy               -343.476438977446
 Nuclear energy                        21.01062334
 One-electron energy                 -515.63210464
 Two-electron energy                  170.93785196
 Density functional                   -19.79236619     B88=-23.92028366 DIRAC=-21.96980046 LYP= -0.68880540 VWN5= -1.33813441
 Virial quotient                       -1.00253155
 !RKS STATE 1.1 Dipole moment           0.05638405     0.00026958     0.25832082
 Dipole moment /Debye                   0.14330457     0.00068516     0.65654303

 Orbital energies:

         1.1          2.1          3.1          4.1          5.1          6.1          7.1          8.1          9.1         10.1
    -77.050042    -6.554498    -4.719616    -4.719521    -4.715742    -0.650350    -0.413005    -0.391911    -0.290193    -0.252557

        11.1         12.1
      0.037571     0.042329

 HOMO     10.1    -0.252557 =      -6.8724eV
 LUMO     11.1     0.037571 =       1.0224eV
 LUMO-HOMO         0.290128 =       7.8948eV


 **********************************************************************************************************************************
 DATASETS  * FILE   NREC   LENGTH (MB)   RECORD NAMES
              1      20       30.85       500      610      700      900      950      970     1000      129      960     1100   
                                          VAR    BASINP    GEOM    SYMINP    ZMAT    AOBASIS   BASIS     P2S    ABASIS      S 
                                         1400     1410     1200     1210     1080     1600     1650     1300     1700     1800   
                                           T        V       H0       H01     AOSYM     SMH    MOLCAS    ERIS     OPER     GRID   

              2       5        2.84       700     1000      520     1800     2100   
                                         GEOM     BASIS   MCVARS    GRID      RKS  

 PROGRAMS   *        TOTAL        KS       INT
 CPU TIMES  *         2.07      1.71      0.21
 REAL TIME  *         2.43 SEC
 DISK USED  *        35.12 MB      
 **********************************************************************************************************************************


 PROGRAM * Intrinsic Basis Bonding Analysis (IBBA)          Author: G. Knizia

 Molecular orbitals read from record     2100.2  Type=RKS/CANONICAL (state 1.1)
 Fock matrix read from record            2100.2  Type=RKS/TOTAL (state 1.1)
 Orbital energies read from record       2100.2  Type=RKS/CANONICAL (state 1.1)
 Density matrix read from record         2100.2  Type=RKS/CHARGE (state 1.1)

 Number of core orbitals:           5 (   5 )
 Number of closed-shell orbitals:   4 (   4 )
 Number of active  orbitals:        1 (   1 )

 Basis set MINAO-AUTO-PP generated.      Number of basis functions:   13 

 Polarized AO type:                A = (O Ot + (1-O)(1-Ot)) P12
 Orthogonalization method:         Symmetric (Loewdin)
 Localization functional:          L = sum[A,i] <i|n_A|i>^4 -> max

 Localization group 1:   9 orbitals, occupancy  2.000
 Iterative localization: IB/PM,    6 iter; Final gradient 0.17E-09

 Bond order analysis:       [THRPRINT= 0.020]

   CEN ATOM   CEN ATOM     WIBERG.BO      RENORM.BO
     1   P  -   2   H       0.995681       1.000000
     1   P  -   3   H       0.995630       1.000000
     1   P  -   4   H       0.774035       1.000000
     1   P  -   5   H       0.259546       1.000000

     2   H  -   1   P       0.995681       1.000000

     3   H  -   1   P       0.995630       1.000000

     4   H  -   1   P       0.774035       1.000000
     4   H  -   5   H       0.223083       0.770775

     5   H  -   1   P       0.259546       1.000000
     5   H  -   4   H       0.223083       0.770775


 Valency analysis:

   CEN ATOM   TOT.VALENCE
     1   P       3.024893
     2   H       0.999558
     3   H       0.999560
     4   H       0.999327
     5   H       0.484631
 Localization group 2:   1 orbitals, occupancy  1.000
 Iterative localization: IB/PM,    1 iter; Final gradient 0.00E+00

 Bond order analysis:       [THRPRINT= 0.020]

   CEN ATOM   CEN ATOM     WIBERG.BO      RENORM.BO
     1   P  -   5   H       0.367754       0.500000




     5   H  -   1   P       0.367754       0.500000


 Valency analysis:

   CEN ATOM   TOT.VALENCE
     1   P       0.368116
     2   H       0.000665
     3   H       0.000763
     4   H       0.000060
     5   H       0.368879

 Total charge composition:

   CEN ATOM         s          p       ELECTRONS ->P.CHARGE
     1   P       5.56248    9.33068     14.89316    0.10684
     2   H       1.02137                 1.02137   -0.02137
     3   H       1.02135                 1.02135   -0.02135
     4   H       1.02597                 1.02597   -0.02597
     5   H       1.03816                 1.03816   -0.03816

 Total charge composition, AO contributions:

   CEN ATOM SHL      SPHERICAL COMPONENTS
     1   P  1s       1.99986
     1   P  2s       1.99188
     1   P  3s       1.57073
     1   P  2p       1.99956    1.99944    1.99944
     1   P  3p       1.06598    0.93716    1.32911

     2   H  1s       1.02137

     3   H  1s       1.02135

     4   H  1s       1.02597

     5   H  1s       1.03816

 Active orbital charges:

   CEN ATOM         s          p       ELECTRONS ->SPIN.DEN
     1   P       0.00084    0.24237      0.24321    0.24321
     2   H       0.00033                 0.00033    0.00033
     3   H       0.00038                 0.00038    0.00038
     4   H       0.00003                 0.00003    0.00003
     5   H       0.75605                 0.75605    0.75605

 Active orbital charges, AO contributions:

   CEN ATOM SHL      SPHERICAL COMPONENTS
     1   P  1s       0.00000
     1   P  2s       0.00001
     1   P  3s       0.00083
     1   P  2p       0.00000    0.00000    0.00000
     1   P  3p       0.24153    0.00001    0.00082

     2   H  1s       0.00033

     3   H  1s       0.00038

     4   H  1s       0.00003

     5   H  1s       0.75605

 Summary of localized orbital composition:   [THRPRINT= 0.020]

   ORB  GRP  ORB.ENERGY      CENTERS/CHARGES
     1   1   -76.083486      P  1   2.000
     2   1    -7.162441      P  1   2.000
     3   1    -4.904094      P  1   2.000
     4   1    -4.713832      P  1   2.000
     5   1    -4.700896      P  1   2.000
     6   1    -0.494519      H  3   1.020   P  1   0.979
     7   1    -0.494461      H  2   1.020   P  1   0.979
     8   1    -0.477745      H  4   1.018   P  1   0.744   H  5   0.237
     9   1    -0.473405      P  1   1.947   H  5   0.045
    10   2    -0.176023      H  5   0.756   P  1   0.243

 Localized orbitals saved to record      2100.2  (orbital set 2)


 **********************************************************************************************************************************
 DATASETS  * FILE   NREC   LENGTH (MB)   RECORD NAMES
              1      20       30.85       500      610      700      900      950      970     1000      129      960     1100   
                                          VAR    BASINP    GEOM    SYMINP    ZMAT    AOBASIS   BASIS     P2S    ABASIS      S 
                                         1400     1410     1200     1210     1080     1600     1650     1300     1700     1800   
                                           T        V       H0       H01     AOSYM     SMH    MOLCAS    ERIS     OPER     GRID   

              2       5        2.84       700     1000      520     1800     2100   
                                         GEOM     BASIS   MCVARS    GRID      RKS  

 PROGRAMS   *        TOTAL      IBBA        KS       INT
 CPU TIMES  *         2.09      0.03      1.71      0.21
 REAL TIME  *         2.45 SEC
 DISK USED  *        35.12 MB      
 **********************************************************************************************************************************

 IBBA/SV(P) energy=      0.000000000000

        KS-SCF  
   -343.47643898
 **********************************************************************************************************************************
 Molpro calculation terminated
