
 Primary working directories    : /local
 Secondary working directories  : /local
 Wavefunction directory         : /local/
 Main file repository           : /local/

 SHA1      : b4a5b34a9e711420743f49e6833241d17c61fb3c
 NAME      : 2099.9.b4a5b34
 ARCHNAME  : linux/x86_64_openmp
 FC        : /cm/shared/languages/GCC-6.1/bin/gfortran
 BLASLIB   : -lblas
 id        : simonbennie

 Nodes     nprocs
 node33-033    1

 Using customized tuning parameters: mindgm=1; mindgv=20; mindgc=4; mindgr=1; noblas=0; minvec=7
 default implementation of scratch files=df  

 memory,500,m
 geomtyp=xyz
 nosym
 noorient
 geometry={
 P          0.21743        0.00009       -0.11125
 H          0.24661        1.03467        0.85216
 H          0.26266       -1.02506        0.86162
 H         -1.26642       -0.01095       -0.15063
 H         -2.50429        0.00003        0.10558
 }
 basis={ default,avtz }
 {hf,direct;wf,19,1,1}
 {df-ks,M06,direct;maxit,0;wf,19,1,1}
 {ibba,bonds=1}

 Variables initialized (895), CPU time= 0.00 sec
 Commands  initialized (725), CPU time= 0.02 sec, 591 directives.
 Default parameters read. Elapsed time= 0.08 sec

 Checking input...
 Passed
1


                                         ***  PROGRAM SYSTEM MOLPRO  ***
                                       Copyright, TTI GmbH Stuttgart, 2015
                                    Version 2099.9 linked May 26 2017 16:03:21


 **********************************************************************************************************************************
 LABEL *                                                                                 
  64 bit serial version                                                                  DATE: 16-Mar-18          TIME: 15:02:31  
 **********************************************************************************************************************************

 SHA1:             b4a5b34a9e711420743f49e6833241d17c61fb3c
 **********************************************************************************************************************************
 SETTING GEOMTYP        =    XYZ

 Variable memory set to  500000000 words,  buffer space 

 ZSYMEL=NOSYM

 SETTING BASIS          =    AVTZ


 Recomputing integrals since basis changed


 Using spherical harmonics

 Library entry P      S aug-cc-pVTZ          selected for orbital group  1
 Library entry P      P aug-cc-pVTZ          selected for orbital group  1
 Library entry P      D aug-cc-pVTZ          selected for orbital group  1
 Library entry P      F aug-cc-pVTZ          selected for orbital group  1
 Library entry H      S aug-cc-pVTZ          selected for orbital group  2
 Library entry H      P aug-cc-pVTZ          selected for orbital group  2
 Library entry H      D aug-cc-pVTZ          selected for orbital group  2


 PROGRAM * SEWARD (Integral evaluation for generally contracted gaussian basis sets)     Author: Roland Lindh, 1990

 Geometry written to block  1 of record 700


 Point group  C1  



 ATOMIC COORDINATES

 NR  ATOM    CHARGE       X              Y              Z

   1  P      15.00    0.410883151    0.000170075   -0.210232031
   2  H       1.00    0.466025360    1.955242929    1.610349014
   3  H       1.00    0.496355464   -1.937082661    1.628225823
   4  H       1.00   -2.393186959   -0.020692501   -0.284649446
   5  H       1.00   -4.732422236    0.000056692    0.199517284

 Bond lengths in Bohr (Angstrom)

 1-2  2.672052745  1-3  2.672111705  1-4  2.805135002
     ( 1.413989419)     ( 1.414020619)     ( 1.484413517)

 Bond angles

  2-1-3   93.49845302   2-1-4   92.53018991   3-1-4   92.56972382

 NUCLEAR CHARGE:                   19
 NUMBER OF PRIMITIVE AOS:         192
 NUMBER OF SYMMETRY AOS:          175
 NUMBER OF CONTRACTIONS:          142   ( 142A   )
 NUMBER OF CORE ORBITALS:           5   (   5A   )
 NUMBER OF VALENCE ORBITALS:        8   (   8A   )


 NUCLEAR REPULSION ENERGY   21.01062334

 Eigenvalues of metric

         1 0.548E-04 0.187E-03 0.201E-03 0.246E-03 0.717E-03 0.898E-03 0.147E-02 0.161E-02


 Contracted 2-electron integrals neglected if value below      1.0D-11
 AO integral compression algorithm  1   Integral accuracy      1.0D-11

     251.920 MB (compressed) written to integral file ( 50.5%)


 NUMBER OF SORTED TWO-ELECTRON INTEGRALS:   51546781.     BUFFER LENGTH:  32768
 NUMBER OF SEGMENTS:   4  SEGMENT LENGTH:   15999503      RECORD LENGTH: 524288

 Memory used in sort:      16.56 MW

 SORT1 READ    62296273. AND WROTE    50388734. INTEGRALS IN    147 RECORDS. CPU TIME:     0.71 SEC, REAL TIME:     1.49 SEC
 SORT2 READ    50388734. AND WROTE    51546781. INTEGRALS IN    961 RECORDS. CPU TIME:     1.25 SEC, REAL TIME:    10.60 SEC

 FILE SIZES:   FILE 1:   282.7 MBYTE,  FILE 4:   616.6 MBYTE,   TOTAL:    899.3 MBYTE

 OPERATOR DM      FOR CENTER  0  COORDINATES:    0.000000    0.000000    0.000000


 **********************************************************************************************************************************
 DATASETS  * FILE   NREC   LENGTH (MB)   RECORD NAMES
              1      19      243.66       500      610      700      900      950      970     1000      129      960     1100   
                                          VAR    BASINP    GEOM    SYMINP    ZMAT    AOBASIS   BASIS     P2S    ABASIS      S 
                                         1400     1410     1200     1210     1080     1600     1650     1300     1700   
                                           T        V       H0       H01     AOSYM     SMH    MOLCAS    ERIS     OPER   

 PROGRAMS   *        TOTAL       INT
 CPU TIMES  *         4.71      4.56
 REAL TIME  *        15.60 SEC
 DISK USED  *       899.67 MB      
 **********************************************************************************************************************************


 PROGRAM * RHF-SCF (OPEN SHELL)       Authors: W. Meyer, H.-J. Werner


 NUMBER OF ELECTRONS:      10+    9-    SPACE SYMMETRY=1    SPIN SYMMETRY: Doublet 
 CONVERGENCE THRESHOLDS:    1.00E-05 (Density)    1.00E-07 (Energy)
 INTEGRAL THRESHOLDS:       1.00E-11 (Initial)    1.00E-11 (Final)
 MAX. NUMBER OF ITERATIONS:       60
 INTERPOLATION TYPE:            DIIS
 INTERPOLATION STEPS:              2 (START)      1 (STEP)
 LEVEL SHIFTS:                 -0.60 (CLOSED) -0.30 (OPEN) 



 Orbital guess generated from atomic densities. Full valence occupancy:   13

 Molecular orbital dump at record        2100.2

 Initial alpha occupancy:  10
 Initial beta  occupancy:   9
 Wave function symmetry:    1

 Direct Fock-matrix evaluation.        Author: H.-J. Werner (1996)

 Integral Threshold:                  0.1D-10

 ITERATION   DDIFF            GRAD            ENERGY        2-EL.EN.            DIPOLE MOMENTS         DIIS   CPU(IT)  CPU(TOT)
    1      0.000D+00      0.000D+00      -342.93371147    302.846496    0.08308   -0.00013    0.37780    0      3.3      4.5     start
    2      0.000D+00      0.220D-02      -342.94953161    303.105751    0.16874    0.00032    0.25958    1      2.9      7.4     diag,B
    3      0.238D-02      0.118D-02      -342.95943672    303.314618    0.15634    0.00049    0.20909    2      2.9     10.3     diag,B
    4      0.183D-02      0.613D-03      -342.96448193    303.367953    0.09015    0.00035    0.20985    3      2.9     13.2     diag,B
    5      0.131D-02      0.351D-03      -342.96675643    303.379217    0.01680    0.00005    0.21807    4      2.9     16.1     diag,B
    6      0.121D-02      0.160D-03      -342.96712255    303.404013   -0.02795   -0.00018    0.22077    5      3.1     19.2     diag,B
    7      0.463D-03      0.587D-04      -342.96716024    303.409983   -0.04594   -0.00026    0.22114    6      3.1     22.3     fixocc
    8      0.180D-03      0.239D-04      -342.96716467    303.414679   -0.05261   -0.00029    0.22099    7      3.1     25.5     diag,B
    9      0.683D-04      0.912D-05      -342.96716532    303.414337   -0.05539   -0.00030    0.22074    8      3.0     28.5     diag,B
   10      0.419D-04      0.370D-05      -342.96716542    303.414745   -0.05581   -0.00030    0.22060    9      3.2     31.6     orth
   11      0.192D-04      0.154D-05      -342.96716544    303.414564   -0.05595   -0.00030    0.22055    9      3.3     34.9     diag,B
   12      0.619D-05      0.618D-06      -342.96716544    303.414500   -0.05593   -0.00030    0.22054    0      3.3     38.2     orth

 Final alpha occupancy:  10
 Final beta  occupancy:   9

 !RHF STATE 1.1 Energy               -342.967165436750
 Nuclear energy                        21.01062334
 One-electron energy                 -515.68503858
 Two-electron energy                  151.70724980
 Virial quotient                       -1.00005489
 !RHF STATE 1.1 Dipole moment          -0.05592687    -0.00030122     0.22054488
 Dipole moment /Debye                  -0.14214261    -0.00076558     0.56053247

 Orbital energies:

         1.1          2.1          3.1          4.1          5.1          6.1          7.1          8.1          9.1         10.1
    -79.949577    -7.491961    -5.385242    -5.385120    -5.384323    -0.856398    -0.541770    -0.524655    -0.399018    -0.434380

        11.1         12.1
      0.032729     0.052837

 HOMO     10.1    -0.434380 =     -11.8201eV
 LUMO     11.1     0.032729 =       0.8906eV
 LUMO-HOMO         0.467109 =      12.7107eV


 **********************************************************************************************************************************
 DATASETS  * FILE   NREC   LENGTH (MB)   RECORD NAMES
              1      19      243.66       500      610      700      900      950      970     1000      129      960     1100   
                                          VAR    BASINP    GEOM    SYMINP    ZMAT    AOBASIS   BASIS     P2S    ABASIS      S 
                                         1400     1410     1200     1210     1080     1600     1650     1300     1700   
                                           T        V       H0       H01     AOSYM     SMH    MOLCAS    ERIS     OPER   

              2       4        3.40       700     1000      520     2100   
                                         GEOM     BASIS   MCVARS     RHF  

 PROGRAMS   *        TOTAL        HF       INT
 CPU TIMES  *        42.92     38.21      4.56
 REAL TIME  *        62.21 SEC
 DISK USED  *       899.67 MB      
 **********************************************************************************************************************************

 Density functional group M06=XC-M06
 Functional: XC-M06(via MFM 1.6)                                               Gradient terms: 1
 Use grid at  1800.2


 Exact exchange will be calculated, factor:  0.2700

 Functional: XC-M06                    Factor:  1.0000

 Generated new metagrid on record  1800.2 with target accuracy 1.0D-06 and 18266 points in CPU time    0.5
 Computed new grid on record 1800.1 in CPU time    0.5
  117229 words reserved for DFT integration

 PROGRAM * RKS-SCF (Restricted open shell Kohn-Sham)     Authors: W. Meyer, H.-J. Werner, P.J. Knowles, 1993

 NUMBER OF ELECTRONS:      10+    9-    SPACE SYMMETRY=1    SPIN SYMMETRY: Doublet 
 CONVERGENCE THRESHOLDS:    1.00E-05 (Density)    1.00E-06 (Energy)
 INTEGRAL THRESHOLDS:       1.00E-11 (Initial)    1.00E-11 (Final)
 MAX. NUMBER OF ITERATIONS:        0
 INTERPOLATION TYPE:            DIIS
 INTERPOLATION STEPS:              2 (START)      1 (STEP)
 LEVEL SHIFTS:                 -0.60 (CLOSED) -0.30 (OPEN) 



 Use fine grid record 1800.2 for energy threshold  1.0D-06

 Basis set CC-PVTZ/JKFIT generated.      Number of basis functions:   241 

 Molecular orbitals read from record     2100.2  Type=RHF/CANONICAL (state 1.1)
 Coulomb and exchange fitting
 Thresholds for fitting:       THRAO_COUL= 1.0D-14    THRAO_EXCH= 1.0D-12    THRMO= 1.0D-11    THRPROD= 1.0D-11    THRASM= 1.0D-11
                               THR2HLF=    1.0D-11

 Molecular orbital dump at record        2101.2

 ITERATION   DDIFF            GRAD            ENERGY        2-EL.EN.            DIPOLE MOMENTS         DIIS   CPU(IT)  CPU(TOT)  ORB.
    1      0.000D+00      0.000D+00      -343.61610633    338.420964   -0.05593   -0.00030    0.22054    0      3.4      3.4     start

 Final alpha occupancy:  10
 Final beta  occupancy:   9

 !RKS STATE 1.1 Energy               -343.616106329467
 Nuclear energy                        21.01062334
 One-electron energy                 -515.68503858
 Two-electron energy                  169.21048204
 Density functional                   -18.15217313     XC-M06=-18.15217313
 Virial quotient                       -1.00194714
 !RKS STATE 1.1 Dipole moment          -0.05592687    -0.00030122     0.22054488
 Dipole moment /Debye                  -0.14214261    -0.00076558     0.56053247

 Orbital energies:

         1.1          2.1          3.1          4.1          5.1          6.1          7.1          8.1          9.1         10.1
    -79.949577    -7.491961    -5.385242    -5.385120    -5.384323    -0.856398    -0.541770    -0.524655    -0.399018    -0.434380

        11.1         12.1
      0.032729     0.052837

 HOMO     10.1    -0.434380 =     -11.8201eV
 LUMO     11.1     0.032729 =       0.8906eV
 LUMO-HOMO         0.467109 =      12.7107eV


 **********************************************************************************************************************************
 DATASETS  * FILE   NREC   LENGTH (MB)   RECORD NAMES
              1      20      244.24       500      610      700      900      950      970     1000      129      960     1100   
                                          VAR    BASINP    GEOM    SYMINP    ZMAT    AOBASIS   BASIS     P2S    ABASIS      S 
                                         1400     1410     1200     1210     1080     1600     1650     1300     1700     1800   
                                           T        V       H0       H01     AOSYM     SMH    MOLCAS    ERIS     OPER     GRID   

              2       6        6.79       700     1000      520     2100     1800     2101   
                                         GEOM     BASIS   MCVARS     RHF     GRID      RKS  

 PROGRAMS   *        TOTAL        KS        HF       INT
 CPU TIMES  *        46.87      3.95     38.21      4.56
 REAL TIME  *        67.72 SEC
 DISK USED  *       899.67 MB      
 **********************************************************************************************************************************


 PROGRAM * Intrinsic Basis Bonding Analysis (IBBA)          Author: G. Knizia

 Molecular orbitals read from record     2101.2  Type=RKS/CANONICAL (state 1.1)
 Fock matrix read from record            2101.2  Type=RKS/TOTAL (state 1.1)
 Orbital energies read from record       2101.2  Type=RKS/CANONICAL (state 1.1)
 Density matrix read from record         2101.2  Type=RKS/CHARGE (state 1.1)

 Number of core orbitals:           5 (   5 )
 Number of closed-shell orbitals:   4 (   4 )
 Number of active  orbitals:        1 (   1 )

 Basis set MINAO-AUTO-PP generated.      Number of basis functions:   13 

 Polarized AO type:                A = (O Ot + (1-O)(1-Ot)) P12
 Orthogonalization method:         Symmetric (Loewdin)
 Localization functional:          L = sum[A,i] <i|n_A|i>^4 -> max

 Localization group 1:   9 orbitals, occupancy  2.000
 Iterative localization: IB/PM,    6 iter; Final gradient 0.35E-09

 Bond order analysis:       [THRPRINT= 0.020]

   CEN ATOM   CEN ATOM     WIBERG.BO      RENORM.BO
     1   P  -   2   H       0.992297       1.000000
     1   P  -   3   H       0.992257       1.000000
     1   P  -   4   H       0.871333       1.000000
     1   P  -   5   H       0.125347       1.000000

     2   H  -   1   P       0.992297       1.000000

     3   H  -   1   P       0.992257       1.000000

     4   H  -   1   P       0.871333       1.000000
     4   H  -   5   H       0.122330       0.868106

     5   H  -   1   P       0.125347       1.000000
     5   H  -   4   H       0.122330       0.868106


 Valency analysis:

   CEN ATOM   TOT.VALENCE
     1   P       2.981234
     2   H       0.997618
     3   H       0.997627
     4   H       0.997288
     5   H       0.249943
 Localization group 2:   1 orbitals, occupancy  1.000
 Iterative localization: IB/PM,    1 iter; Final gradient 0.00E+00

 Bond order analysis:       [THRPRINT= 0.020]

   CEN ATOM   CEN ATOM     WIBERG.BO      RENORM.BO
     1   P  -   5   H       0.222885       0.500000




     5   H  -   1   P       0.222885       0.500000


 Valency analysis:

   CEN ATOM   TOT.VALENCE
     1   P       0.223160
     2   H       0.001022
     3   H       0.001111
     4   H       0.000013
     5   H       0.224755

 Total charge composition:

   CEN ATOM         s          p       ELECTRONS ->P.CHARGE
     1   P       5.50957    9.33484     14.84442    0.15558
     2   H       1.04932                 1.04932   -0.04932
     3   H       1.04927                 1.04927   -0.04927
     4   H       1.05208                 1.05208   -0.05208
     5   H       1.00492                 1.00492   -0.00492

 Total charge composition, AO contributions:

   CEN ATOM SHL      SPHERICAL COMPONENTS
     1   P  1s       1.99987
     1   P  2s       1.99053
     1   P  3s       1.51917
     1   P  2p       1.99934    1.99914    1.99920
     1   P  3p       1.09144    0.90311    1.34262

     2   H  1s       1.04932

     3   H  1s       1.04927

     4   H  1s       1.05208

     5   H  1s       1.00492

 Active orbital charges:

   CEN ATOM         s          p       ELECTRONS ->SPIN.DEN
     1   P       0.00449    0.12347      0.12795    0.12795
     2   H       0.00051                 0.00051    0.00051
     3   H       0.00056                 0.00056    0.00056
     4   H       0.00001                 0.00001    0.00001
     5   H       0.87097                 0.87097    0.87097

 Active orbital charges, AO contributions:

   CEN ATOM SHL      SPHERICAL COMPONENTS
     1   P  1s       0.00000
     1   P  2s       0.00001
     1   P  3s       0.00447
     1   P  2p       0.00000    0.00000    0.00000
     1   P  3p       0.12343    0.00001    0.00003

     2   H  1s       0.00051

     3   H  1s       0.00056

     4   H  1s       0.00001

     5   H  1s       0.87097

 Summary of localized orbital composition:   [THRPRINT= 0.020]

   ORB  GRP  ORB.ENERGY      CENTERS/CHARGES
     1   1   -76.328253      P  1   2.000
     2   1    -7.142608      P  1   2.000
     3   1    -4.984223      P  1   2.000
     4   1    -4.789138      P  1   2.000
     5   1    -4.761955      P  1   2.000
     6   1    -0.571060      P  1   1.985
     7   1    -0.511923      H  2   1.047   P  1   0.951
     8   1    -0.511887      H  3   1.047   P  1   0.951
     9   1    -0.503515      H  4   1.050   P  1   0.829   H  5   0.119
    10   2    -0.175336      H  5   0.871   P  1   0.128

 Localized orbitals saved to record      2101.2  (orbital set 2)


 **********************************************************************************************************************************
 DATASETS  * FILE   NREC   LENGTH (MB)   RECORD NAMES
              1      20      244.24       500      610      700      900      950      970     1000      129      960     1100   
                                          VAR    BASINP    GEOM    SYMINP    ZMAT    AOBASIS   BASIS     P2S    ABASIS      S 
                                         1400     1410     1200     1210     1080     1600     1650     1300     1700     1800   
                                           T        V       H0       H01     AOSYM     SMH    MOLCAS    ERIS     OPER     GRID   

              2       6        6.96       700     1000      520     2100     1800     2101   
                                         GEOM     BASIS   MCVARS     RHF     GRID      RKS  

 PROGRAMS   *        TOTAL      IBBA        KS        HF       INT
 CPU TIMES  *        46.89      0.02      3.95     38.21      4.56
 REAL TIME  *        67.76 SEC
 DISK USED  *       899.67 MB      
 **********************************************************************************************************************************

 IBBA/aug-cc-pVTZ energy=      0.000000000000

        DF-KS           HF-SCF  
   -343.61610633   -342.96716544
 **********************************************************************************************************************************
 Molpro calculation terminated
