
 Primary working directories    : /local
 Secondary working directories  : /local
 Wavefunction directory         : /local/
 Main file repository           : /local/

 SHA1      : b4a5b34a9e711420743f49e6833241d17c61fb3c
 NAME      : 2099.9.b4a5b34
 ARCHNAME  : linux/x86_64_openmp
 FC        : /cm/shared/languages/GCC-6.1/bin/gfortran
 BLASLIB   : -lblas
 id        : simonbennie

 Nodes     nprocs
 node34-005    1

 Using customized tuning parameters: mindgm=1; mindgv=20; mindgc=4; mindgr=1; noblas=0; minvec=7
 default implementation of scratch files=df  

 memory,500,m
 geomtyp=xyz
 nosym
 noorient
 geometry={
 P          0.21743        0.00009       -0.11125
 H          0.24661        1.03467        0.85216
 H          0.26266       -1.02506        0.86162
 H         -1.26642       -0.01095       -0.15063
 H         -2.50429        0.00003        0.10558
 }
 basis={ default,svp }
 {ks,M08-SO,direct;wf,19,1,1}
 {ibba,bonds=1}

 Variables initialized (895), CPU time= 0.00 sec
 Commands  initialized (725), CPU time= 0.01 sec, 591 directives.
 Default parameters read. Elapsed time= 0.09 sec

 Checking input...
 Passed
1


                                         ***  PROGRAM SYSTEM MOLPRO  ***
                                       Copyright, TTI GmbH Stuttgart, 2015
                                    Version 2099.9 linked May 26 2017 16:03:21


 **********************************************************************************************************************************
 LABEL *                                                                                 
  64 bit serial version                                                                  DATE: 21-Jun-17          TIME: 09:19:41  
 **********************************************************************************************************************************

 SHA1:             b4a5b34a9e711420743f49e6833241d17c61fb3c
 **********************************************************************************************************************************
 SETTING GEOMTYP        =    XYZ

 Variable memory set to  500000000 words,  buffer space 

 ZSYMEL=NOSYM

 SETTING BASIS          =    SVP


 Recomputing integrals since basis changed


 Using spherical harmonics

 Library entry P      S def2-SVP             selected for orbital group  1
 Library entry P      P def2-SVP             selected for orbital group  1
 Library entry P      D def2-SVP             selected for orbital group  1
 Library entry H      S def2-SVP             selected for orbital group  2
 Library entry H      P def2-SVP             selected for orbital group  2


 PROGRAM * SEWARD (Integral evaluation for generally contracted gaussian basis sets)     Author: Roland Lindh, 1990

 Geometry written to block  1 of record 700


 Point group  C1  



 ATOMIC COORDINATES

 NR  ATOM    CHARGE       X              Y              Z

   1  P      15.00    0.410883151    0.000170075   -0.210232031
   2  H       1.00    0.466025360    1.955242929    1.610349014
   3  H       1.00    0.496355464   -1.937082661    1.628225823
   4  H       1.00   -2.393186959   -0.020692501   -0.284649446
   5  H       1.00   -4.732422236    0.000056692    0.199517284

 Bond lengths in Bohr (Angstrom)

 1-2  2.672052745  1-3  2.672111705  1-4  2.805135002
     ( 1.413989419)     ( 1.414020619)     ( 1.484413517)

 Bond angles

  2-1-3   93.49845302   2-1-4   92.53018991   3-1-4   92.56972382

 NUCLEAR CHARGE:                   19
 NUMBER OF PRIMITIVE AOS:          65
 NUMBER OF SYMMETRY AOS:           64
 NUMBER OF CONTRACTIONS:           38   (  38A   )
 NUMBER OF CORE ORBITALS:           5   (   5A   )
 NUMBER OF VALENCE ORBITALS:        8   (   8A   )


 NUCLEAR REPULSION ENERGY   21.01062334


 Eigenvalues of metric

         1 0.106E-01 0.485E-01 0.903E-01 0.155E+00 0.189E+00 0.210E+00 0.215E+00 0.283E+00


 Contracted 2-electron integrals neglected if value below      1.0D-11
 AO integral compression algorithm  1   Integral accuracy      1.0D-11

     1.573 MB (compressed) written to integral file ( 54.7%)


 NUMBER OF SORTED TWO-ELECTRON INTEGRALS:     274911.     BUFFER LENGTH:  32768
 NUMBER OF SEGMENTS:   1  SEGMENT LENGTH:     274911      RECORD LENGTH: 524288

 Memory used in sort:       0.83 MW

 SORT1 READ      344579. AND WROTE      256820. INTEGRALS IN      1 RECORDS. CPU TIME:     0.01 SEC, REAL TIME:     0.01 SEC
 SORT2 READ      256820. AND WROTE      274911. INTEGRALS IN      6 RECORDS. CPU TIME:     0.03 SEC, REAL TIME:     0.03 SEC

 FILE SIZES:   FILE 1:    31.6 MBYTE,  FILE 4:     4.2 MBYTE,   TOTAL:     35.9 MBYTE

 OPERATOR DM      FOR CENTER  0  COORDINATES:    0.000000    0.000000    0.000000


 **********************************************************************************************************************************
 DATASETS  * FILE   NREC   LENGTH (MB)   RECORD NAMES
              1      19       31.20       500      610      700      900      950      970     1000      129      960     1100   
                                          VAR    BASINP    GEOM    SYMINP    ZMAT    AOBASIS   BASIS     P2S    ABASIS      S 
                                         1400     1410     1200     1210     1080     1600     1650     1300     1700   
                                           T        V       H0       H01     AOSYM     SMH    MOLCAS    ERIS     OPER   

 PROGRAMS   *        TOTAL       INT
 CPU TIMES  *         0.41      0.27
 REAL TIME  *         0.73 SEC
 DISK USED  *        36.20 MB      
 **********************************************************************************************************************************

 Density functional group M08-SO=XC-M08-SO
 Functional: XC-M08-SO(via MFM 1.6)                                            Gradient terms: 1
 Use grid at  1800.2


 Exact exchange will be calculated, factor:  0.5679

 Functional: XC-M08-SO                 Factor:  1.0000

 Generated new metagrid on record  1800.2 with target accuracy 1.0D-06 and 17598 points in CPU time    0.5
 Computed new grid on record 1800.1 in CPU time    0.5
   34085 words reserved for DFT integration

 PROGRAM * RKS-SCF (Restricted open shell Kohn-Sham)     Authors: W. Meyer, H.-J. Werner, P.J. Knowles, 1993

 NUMBER OF ELECTRONS:      10+    9-    SPACE SYMMETRY=1    SPIN SYMMETRY: Doublet 
 CONVERGENCE THRESHOLDS:    1.00E-05 (Density)    1.00E-06 (Energy)
 MAX. NUMBER OF ITERATIONS:       60
 INTERPOLATION TYPE:            DIIS
 INTERPOLATION STEPS:              2 (START)      1 (STEP)
 LEVEL SHIFTS:                 -0.60 (CLOSED) -0.30 (OPEN) 



 Use fine grid record 1800.2 for energy threshold  1.0D-06
 Orbital guess generated from atomic densities. Full valence occupancy:   10

 Molecular orbital dump at record        2100.2

 Initial alpha occupancy:  10
 Initial beta  occupancy:   9
 Wave function symmetry:    1

 ITERATION    DDIFF          GRAD             ENERGY        2-EL.EN.            DIPOLE MOMENTS         DIIS   ORB.
    1      0.000D+00      0.000D+00      -343.49674144    324.934596   -0.07991    0.00064    0.45616    0    start
    2      0.000D+00      0.271D-02      -343.50231753    324.010438    0.09441    0.00112    0.33235    1    diag,B
    3      0.559D-02      0.108D-02      -343.50390724    324.096334    0.07322    0.00127    0.30402    2    diag,B
    4      0.222D-02      0.612D-03      -343.50498296    324.090097    0.04756    0.00132    0.28304    3    diag,B
    5      0.215D-02      0.373D-03      -343.50566392    324.098442    0.01104    0.00126    0.27348    4    diag,B
    6      0.205D-02      0.195D-03      -343.50588928    324.118372   -0.02061    0.00113    0.27390    5    diag,B
    7      0.139D-02      0.739D-04      -343.50591624    324.130775   -0.03785    0.00105    0.27664    6    fixocc
    8      0.556D-03      0.165D-04      -343.50591680    324.131778   -0.04110    0.00103    0.27702    7    diag,B
    9      0.907D-04      0.603D-05      -343.50591687    324.132351   -0.04161    0.00103    0.27716    8    diag,B
   10      0.296D-04      0.263D-05      -343.50591688    324.132052   -0.04179    0.00103    0.27708    9    orth
   11      0.136D-04      0.914D-06      -343.50591688    324.132107   -0.04177    0.00103    0.27706    9    diag,B
   12      0.421D-05      0.268D-06      -343.50591688    324.132083   -0.04176    0.00103    0.27705    0    orth

 Final alpha occupancy:  10
 Final beta  occupancy:   9

 !RKS STATE 1.1 Energy               -343.505916879906
 Nuclear energy                        21.01062334
 One-electron energy                 -515.57463698
 Two-electron energy                  162.06604153
 Density functional                   -11.00794477     XC-M08-SO=-11.00794477
 Virial quotient                       -1.00310264
 !RKS STATE 1.1 Dipole moment          -0.04176048     0.00102616     0.27704940
 Dipole moment /Debye                  -0.10613759     0.00260806     0.70414321

 Orbital energies:

         1.1          2.1          3.1          4.1          5.1          6.1          7.1          8.1          9.1         10.1
    -77.955591    -6.804659    -4.967685    -4.967566    -4.964293    -0.731535    -0.472168    -0.451972    -0.345780    -0.311991

        11.1         12.1
      0.073815     0.078580

 HOMO     10.1    -0.311991 =      -8.4897eV
 LUMO     11.1     0.073815 =       2.0086eV
 LUMO-HOMO         0.385806 =      10.4983eV


 **********************************************************************************************************************************
 DATASETS  * FILE   NREC   LENGTH (MB)   RECORD NAMES
              1      20       31.76       500      610      700      900      950      970     1000      129      960     1100   
                                          VAR    BASINP    GEOM    SYMINP    ZMAT    AOBASIS   BASIS     P2S    ABASIS      S 
                                         1400     1410     1200     1210     1080     1600     1650     1300     1700     1800   
                                           T        V       H0       H01     AOSYM     SMH    MOLCAS    ERIS     OPER     GRID   

              2       5        2.86       700     1000      520     1800     2100   
                                         GEOM     BASIS   MCVARS    GRID      RKS  

 PROGRAMS   *        TOTAL        KS       INT
 CPU TIMES  *         4.84      4.43      0.27
 REAL TIME  *         5.52 SEC
 DISK USED  *        36.20 MB      
 **********************************************************************************************************************************


 PROGRAM * Intrinsic Basis Bonding Analysis (IBBA)          Author: G. Knizia

 Molecular orbitals read from record     2100.2  Type=RKS/CANONICAL (state 1.1)
 Fock matrix read from record            2100.2  Type=RKS/TOTAL (state 1.1)
 Orbital energies read from record       2100.2  Type=RKS/CANONICAL (state 1.1)
 Density matrix read from record         2100.2  Type=RKS/CHARGE (state 1.1)

 Number of core orbitals:           5 (   5 )
 Number of closed-shell orbitals:   4 (   4 )
 Number of active  orbitals:        1 (   1 )

 Basis set MINAO-AUTO-PP generated.      Number of basis functions:   13 

 Polarized AO type:                A = (O Ot + (1-O)(1-Ot)) P12
 Orthogonalization method:         Symmetric (Loewdin)
 Localization functional:          L = sum[A,i] <i|n_A|i>^4 -> max

 Localization group 1:   9 orbitals, occupancy  2.000
 Iterative localization: IB/PM,    6 iter; Final gradient 0.17E-09

 Bond order analysis:       [THRPRINT= 0.020]

   CEN ATOM   CEN ATOM     WIBERG.BO      RENORM.BO
     1   P  -   2   H       0.995719       1.000000
     1   P  -   3   H       0.995645       1.000000
     1   P  -   4   H       0.803594       1.000000
     1   P  -   5   H       0.215300       1.000000

     2   H  -   1   P       0.995719       1.000000

     3   H  -   1   P       0.995645       1.000000

     4   H  -   1   P       0.803594       1.000000
     4   H  -   5   H       0.193861       0.811918

     5   H  -   1   P       0.215300       1.000000
     5   H  -   4   H       0.193861       0.811918


 Valency analysis:

   CEN ATOM   TOT.VALENCE
     1   P       3.010258
     2   H       0.999632
     3   H       0.999623
     4   H       0.999415
     5   H       0.411914
 Localization group 2:   1 orbitals, occupancy  1.000
 Iterative localization: IB/PM,    1 iter; Final gradient 0.00E+00

 Bond order analysis:       [THRPRINT= 0.020]

   CEN ATOM   CEN ATOM     WIBERG.BO      RENORM.BO
     1   P  -   5   H       0.331917       0.500000




     5   H  -   1   P       0.331917       0.500000


 Valency analysis:

   CEN ATOM   TOT.VALENCE
     1   P       0.332304
     2   H       0.000863
     3   H       0.000967
     4   H       0.000009
     5   H       0.333368

 Total charge composition:

   CEN ATOM         s          p       ELECTRONS ->P.CHARGE
     1   P       5.53771    9.37681     14.91451    0.08549
     2   H       1.01963                 1.01963   -0.01963
     3   H       1.01990                 1.01990   -0.01990
     4   H       1.02418                 1.02418   -0.02418
     5   H       1.02178                 1.02178   -0.02178

 Total charge composition, AO contributions:

   CEN ATOM SHL      SPHERICAL COMPONENTS
     1   P  1s       1.99986
     1   P  2s       1.99207
     1   P  3s       1.54578
     1   P  2p       1.99947    1.99931    1.99934
     1   P  3p       1.09023    0.94154    1.34692

     2   H  1s       1.01963

     3   H  1s       1.01990

     4   H  1s       1.02418

     5   H  1s       1.02178

 Active orbital charges:

   CEN ATOM         s          p       ELECTRONS ->SPIN.DEN
     1   P       0.00245    0.20798      0.21043    0.21043
     2   H       0.00043                 0.00043    0.00043
     3   H       0.00048                 0.00048    0.00048
     4   H       0.00000                 0.00000    0.00000
     5   H       0.78865                 0.78865    0.78865

 Active orbital charges, AO contributions:

   CEN ATOM SHL      SPHERICAL COMPONENTS
     1   P  1s       0.00000
     1   P  2s       0.00001
     1   P  3s       0.00244
     1   P  2p       0.00000    0.00000    0.00000
     1   P  3p       0.20790    0.00001    0.00006

     2   H  1s       0.00043

     3   H  1s       0.00048

     4   H  1s       0.00000

     5   H  1s       0.78865

 Summary of localized orbital composition:   [THRPRINT= 0.020]

   ORB  GRP  ORB.ENERGY      CENTERS/CHARGES
     1   1   -76.964864      P  1   2.000
     2   1    -7.413097      P  1   2.000
     3   1    -5.156623      P  1   2.000
     4   1    -4.961653      P  1   2.000
     5   1    -4.942468      P  1   2.000
     6   1    -0.563662      H  2   1.018   P  1   0.981
     7   1    -0.563488      H  3   1.018   P  1   0.980
     8   1    -0.548075      P  1   1.964   H  5   0.031
     9   1    -0.547324      H  4   1.019   P  1   0.779   H  5   0.200
    10   2    -0.183727      H  5   0.789   P  1   0.210

 Localized orbitals saved to record      2100.2  (orbital set 2)


 **********************************************************************************************************************************
 DATASETS  * FILE   NREC   LENGTH (MB)   RECORD NAMES
              1      20       31.76       500      610      700      900      950      970     1000      129      960     1100   
                                          VAR    BASINP    GEOM    SYMINP    ZMAT    AOBASIS   BASIS     P2S    ABASIS      S 
                                         1400     1410     1200     1210     1080     1600     1650     1300     1700     1800   
                                           T        V       H0       H01     AOSYM     SMH    MOLCAS    ERIS     OPER     GRID   

              2       5        2.87       700     1000      520     1800     2100   
                                         GEOM     BASIS   MCVARS    GRID      RKS  

 PROGRAMS   *        TOTAL      IBBA        KS       INT
 CPU TIMES  *         4.86      0.02      4.43      0.27
 REAL TIME  *         5.57 SEC
 DISK USED  *        36.20 MB      
 **********************************************************************************************************************************
 Molecular orbitals read from record     2100.2  Type=RKS/LOCAL(IBO)  
 Occupation numbers read from record     2100.2  Type=RKS/LOCAL(IBO)  
 Orbital energies read from record       2100.2  Type=RKS/LOCAL(IBO)  
 Redundancy group numbers read from rec  2100.2  Type=RKS/LOCAL(IBO)  

 IBBA/SVP energy=      0.000000000000

        KS-SCF  
   -343.50591688
 **********************************************************************************************************************************
 Molpro calculation terminated
