
 Primary working directories    : /local
 Secondary working directories  : /local
 Wavefunction directory         : /local/
 Main file repository           : /local/

 SHA1      : b4a5b34a9e711420743f49e6833241d17c61fb3c
 NAME      : 2099.9.b4a5b34
 ARCHNAME  : linux/x86_64_openmp
 FC        : /cm/shared/languages/GCC-6.1/bin/gfortran
 BLASLIB   : -lblas
 id        : simonbennie

 Nodes     nprocs
 node34-047    1

 Using customized tuning parameters: mindgm=1; mindgv=20; mindgc=4; mindgr=1; noblas=0; minvec=7
 default implementation of scratch files=df  

 memory,500,m
 geomtyp=xyz
 nosym
 noorient
 geometry={
 P          0.21743        0.00009       -0.11125
 H          0.24661        1.03467        0.85216
 H          0.26266       -1.02506        0.86162
 H         -1.26642       -0.01095       -0.15063
 H         -2.50429        0.00003        0.10558
 }
 basis={ default,svp }
 {df-ks,M06,direct;disp;wf,19,1,1}
 {ibba,bonds=1}

 Variables initialized (895), CPU time= 0.00 sec
 Commands  initialized (725), CPU time= 0.01 sec, 591 directives.
 Default parameters read. Elapsed time= 0.08 sec

 Checking input...
 Passed
1


                                         ***  PROGRAM SYSTEM MOLPRO  ***
                                       Copyright, TTI GmbH Stuttgart, 2015
                                    Version 2099.9 linked May 26 2017 16:03:21


 **********************************************************************************************************************************
 LABEL *                                                                                 
  64 bit serial version                                                                  DATE: 16-Mar-18          TIME: 13:22:32  
 **********************************************************************************************************************************

 SHA1:             b4a5b34a9e711420743f49e6833241d17c61fb3c
 **********************************************************************************************************************************
 SETTING GEOMTYP        =    XYZ

 Variable memory set to  500000000 words,  buffer space 

 ZSYMEL=NOSYM

 SETTING BASIS          =    SVP


 Recomputing integrals since basis changed


 Using spherical harmonics

 Library entry P      S def2-SVP             selected for orbital group  1
 Library entry P      P def2-SVP             selected for orbital group  1
 Library entry P      D def2-SVP             selected for orbital group  1
 Library entry H      S def2-SVP             selected for orbital group  2
 Library entry H      P def2-SVP             selected for orbital group  2


 PROGRAM * SEWARD (Integral evaluation for generally contracted gaussian basis sets)     Author: Roland Lindh, 1990

 Geometry written to block  1 of record 700


 Point group  C1  



 ATOMIC COORDINATES

 NR  ATOM    CHARGE       X              Y              Z

   1  P      15.00    0.410883151    0.000170075   -0.210232031
   2  H       1.00    0.466025360    1.955242929    1.610349014
   3  H       1.00    0.496355464   -1.937082661    1.628225823
   4  H       1.00   -2.393186959   -0.020692501   -0.284649446
   5  H       1.00   -4.732422236    0.000056692    0.199517284

 Bond lengths in Bohr (Angstrom)

 1-2  2.672052745  1-3  2.672111705  1-4  2.805135002
     ( 1.413989419)     ( 1.414020619)     ( 1.484413517)

 Bond angles

  2-1-3   93.49845302   2-1-4   92.53018991   3-1-4   92.56972382

 NUCLEAR CHARGE:                   19
 NUMBER OF PRIMITIVE AOS:          65
 NUMBER OF SYMMETRY AOS:           64
 NUMBER OF CONTRACTIONS:           38   (  38A   )
 NUMBER OF CORE ORBITALS:           5   (   5A   )
 NUMBER OF VALENCE ORBITALS:        8   (   8A   )


 NUCLEAR REPULSION ENERGY   21.01062334


 Eigenvalues of metric

         1 0.106E-01 0.485E-01 0.903E-01 0.155E+00 0.189E+00 0.210E+00 0.215E+00 0.283E+00


 OPERATOR DM      FOR CENTER  0  COORDINATES:    0.000000    0.000000    0.000000


 **********************************************************************************************************************************
 DATASETS  * FILE   NREC   LENGTH (MB)   RECORD NAMES
              1      18       30.07       500      610      700      900      950      970     1000      129      960     1100   
                                          VAR    BASINP    GEOM    SYMINP    ZMAT    AOBASIS   BASIS     P2S    ABASIS      S 
                                         1400     1410     1200     1210     1080     1600     1650     1700   
                                           T        V       H0       H01     AOSYM     SMH    MOLCAS    OPER   

 PROGRAMS   *        TOTAL       INT
 CPU TIMES  *         0.31      0.17
 REAL TIME  *         0.60 SEC
 DISK USED  *        30.41 MB      
 **********************************************************************************************************************************

 Density functional group M06=XC-M06
 Functional: XC-M06(via MFM 1.6)                                               Gradient terms: 1

 dispersion correction activated
 Density functional: M06     
 functional not in list, set to default 


 Exact exchange will be calculated, factor:  0.2700

 Functional: XC-M06                    Factor:  1.0000

 Use grid at  1800.2


 Exact exchange will be calculated, factor:  0.2700

 Functional: XC-M06                    Factor:  1.0000

 Generated new metagrid on record  1800.2 with target accuracy 1.0D-06 and 17598 points in CPU time    0.5
 Computed new grid on record 1800.1 in CPU time    0.5
   34085 words reserved for DFT integration

 PROGRAM * RKS-SCF (Restricted open shell Kohn-Sham)     Authors: W. Meyer, H.-J. Werner, P.J. Knowles, 1993

 NUMBER OF ELECTRONS:      10+    9-    SPACE SYMMETRY=1    SPIN SYMMETRY: Doublet 
 CONVERGENCE THRESHOLDS:    1.00E-05 (Density)    1.00E-06 (Energy)
 INTEGRAL THRESHOLDS:       1.00E-11 (Initial)    1.00E-11 (Final)
 MAX. NUMBER OF ITERATIONS:       60
 INTERPOLATION TYPE:            DIIS
 INTERPOLATION STEPS:              2 (START)      1 (STEP)
 LEVEL SHIFTS:                 -0.60 (CLOSED) -0.30 (OPEN) 



 Use fine grid record 1800.2 for energy threshold  1.0D-06

 Basis set DEF2-SVP/JKFIT generated.     Number of basis functions:   151 

 Orbital guess generated from atomic densities. Full valence occupancy:   10
 Using density fitting in orbital guess

 Coulomb and exchange fitting
 Thresholds for fitting:       THRAO_COUL= 1.0D-14    THRAO_EXCH= 1.0D-12    THRMO= 1.0D-11    THRPROD= 1.0D-11    THRASM= 1.0D-11
                               THR2HLF=    1.0D-11

 Molecular orbital dump at record        2100.2

 Initial alpha occupancy:  10
 Initial beta  occupancy:   9
 Wave function symmetry:    1

 ITERATION   DDIFF            GRAD            ENERGY        2-EL.EN.            DIPOLE MOMENTS         DIIS   CPU(IT)  CPU(TOT)  ORB.
    1      0.000D+00      0.000D+00      -343.49741740    340.478073   -0.10876    0.00078    0.41478    0      0.4      0.7     start
    2      0.000D+00      0.354D-02      -343.50465839    338.392837    0.16796    0.00077    0.28237    1      0.4      1.1     diag,B
    3      0.830D-02      0.107D-02      -343.50551111    338.627962    0.11550    0.00076    0.28035    2      0.4      1.5     diag,B
    4      0.191D-02      0.466D-03      -343.50605694    338.593482    0.09517    0.00069    0.26177    3      0.4      1.9     diag,B
    5      0.207D-02      0.225D-03      -343.50627354    338.592117    0.07576    0.00063    0.25220    4      0.4      2.3     diag,B
    6      0.127D-02      0.116D-03      -343.50634771    338.605456    0.05742    0.00059    0.25010    5      0.4      2.7     diag,B
    7      0.806D-03      0.470D-04      -343.50635910    338.610740    0.04742    0.00056    0.25149    6      0.4      3.0     fixocc
    8      0.375D-03      0.113D-04      -343.50635958    338.611340    0.04578    0.00056    0.25224    7      0.4      3.4     diag,B
    9      0.692D-04      0.341D-05      -343.50635962    338.611434    0.04555    0.00056    0.25241    8      0.4      3.8     diag,B
   10      0.162D-04      0.114D-05      -343.50635963    338.611480    0.04552    0.00056    0.25244    9      0.4      4.2     orth
   11      0.560D-05      0.294D-06      -343.50635963    338.611461    0.04553    0.00056    0.25244    0      0.4      4.6     orth

 Dispersion correction
 - - - - - - - - - - - 
  _________________________________
                                   
 |         DFTD3 V1.3 Rev 1        |
 | S.Grimme, University Muenster   |
 | Fri Jul  2 12:48:21 CEST 2010   |
  _________________________________

 Please cite DFT-D3 work done with this code as:
 S. Grimme, J. Antony, S. Ehrlich and H. Krieg,
 J. Chem. Phys, 132 (2010), 154104.
 For DFT-D2 the reference is
 S. Grimme, J. Comput. Chem., 27 (2006), 1787-1799

 C6 coefficients used:
                    2  C6 for element                     1
 Z=  1 CN=   0.912     C6(AA)=    3.03
 Z=  1 CN=   0.000     C6(AA)=    7.59
                    4  C6 for element                    15
 Z= 15 CN=   0.000     C6(AA)=  191.69
 Z= 15 CN=   0.995     C6(AA)=  180.62
 Z= 15 CN=   2.010     C6(AA)=  175.55
 Z= 15 CN=   2.986     C6(AA)=  151.69

 #           XYZ [au]               R0(AA) [Ang.]   CN       C6(AA)     C8(AA)   C10(AA) [au]
  1   0.41088   0.00017  -0.21023   p   1.751  2.987       152.2      8430.8    572153.4
  2   0.46603   1.95524   1.61035   h   1.091  0.996         3.1        37.4       553.6
  3   0.49636  -1.93708   1.62823   h   1.091  0.996         3.1        37.4       553.6
  4  -2.39319  -0.02069  -0.28465   h   1.091  0.994         3.1        37.4       553.8
  5  -4.73242   0.00006   0.19952   h   1.091  0.013         7.4        89.2      1320.4

 molecular C6(AA) [au] =       411.90

           DFT-D V3
 DF pbe                                               
 parameters
 s6       :    1.0000
 s8       :    0.7220
 rs6      :    1.2170
 alpha6   :   14.0000
 alpha8   :   16.0000
 k1-k3    :   16.0000    1.3333   -4.0000

 Edisp /kcal,au:    -0.2783 -0.00044346

 E6    /kcal :    -0.1026
 E8    /kcal :    -0.1757
 % E8        : 63.15
 normal termination of dftd3

 RKS STATE 1.1 ENERGY+DISP     -343.50680309

 Final alpha occupancy:  10
 Final beta  occupancy:   9

 !RKS STATE 1.1 Energy               -343.506803085476
 Nuclear energy                        21.01062334
 One-electron energy                 -515.68087375
 Two-electron energy                  169.30573042
 Density functional                   -18.14183964     XC-M06=-18.14183964
 Virial quotient                       -1.00291672
 !RKS STATE 1.1 Dipole moment           0.04552776     0.00055540     0.25244033
 Dipole moment /Debye                   0.11571245     0.00141160     0.64159730

 Orbital energies:

         1.1          2.1          3.1          4.1          5.1          6.1          7.1          8.1          9.1         10.1
    -77.214282    -6.667669    -4.788635    -4.788557    -4.784829    -0.662818    -0.419952    -0.398097    -0.298671    -0.255496

        11.1         12.1
      0.043239     0.050182

 HOMO     10.1    -0.255496 =      -6.9524eV
 LUMO     11.1     0.043239 =       1.1766eV
 LUMO-HOMO         0.298735 =       8.1290eV


 **********************************************************************************************************************************
 DATASETS  * FILE   NREC   LENGTH (MB)   RECORD NAMES
              1      19       30.63       500      610      700      900      950      970     1000      129      960     1100   
                                          VAR    BASINP    GEOM    SYMINP    ZMAT    AOBASIS   BASIS     P2S    ABASIS      S 
                                         1400     1410     1200     1210     1080     1600     1650     1700     1800   
                                           T        V       H0       H01     AOSYM     SMH    MOLCAS    OPER     GRID   

              2       5        2.87       700     1000      520     1800     2100   
                                         GEOM     BASIS   MCVARS    GRID      RKS  

 PROGRAMS   *        TOTAL        KS       INT
 CPU TIMES  *         5.40      5.09      0.17
 REAL TIME  *         8.13 SEC
 DISK USED  *        34.42 MB      
 **********************************************************************************************************************************


 PROGRAM * Intrinsic Basis Bonding Analysis (IBBA)          Author: G. Knizia

 Molecular orbitals read from record     2100.2  Type=RKS/CANONICAL (state 1.1)
 Fock matrix read from record            2100.2  Type=RKS/TOTAL (state 1.1)
 Orbital energies read from record       2100.2  Type=RKS/CANONICAL (state 1.1)
 Density matrix read from record         2100.2  Type=RKS/CHARGE (state 1.1)

 Number of core orbitals:           5 (   5 )
 Number of closed-shell orbitals:   4 (   4 )
 Number of active  orbitals:        1 (   1 )

 Basis set MINAO-AUTO-PP generated.      Number of basis functions:   13 

 Polarized AO type:                A = (O Ot + (1-O)(1-Ot)) P12
 Orthogonalization method:         Symmetric (Loewdin)
 Localization functional:          L = sum[A,i] <i|n_A|i>^4 -> max

 Localization group 1:   9 orbitals, occupancy  2.000
 Iterative localization: IB/PM,    6 iter; Final gradient 0.16E-09

 Bond order analysis:       [THRPRINT= 0.020]

   CEN ATOM   CEN ATOM     WIBERG.BO      RENORM.BO
     1   P  -   2   H       0.996126       1.000000
     1   P  -   3   H       0.996069       1.000000
     1   P  -   4   H       0.776327       1.000000
     1   P  -   5   H       0.260893       1.000000

     2   H  -   1   P       0.996126       1.000000

     3   H  -   1   P       0.996069       1.000000

     4   H  -   1   P       0.776327       1.000000
     4   H  -   5   H       0.221284       0.771995

     5   H  -   1   P       0.260893       1.000000
     5   H  -   4   H       0.221284       0.771995


 Valency analysis:

   CEN ATOM   TOT.VALENCE
     1   P       3.029415
     2   H       0.999808
     3   H       0.999805
     4   H       0.999704
     5   H       0.484181
 Localization group 2:   1 orbitals, occupancy  1.000
 Iterative localization: IB/PM,    1 iter; Final gradient 0.00E+00

 Bond order analysis:       [THRPRINT= 0.020]

   CEN ATOM   CEN ATOM     WIBERG.BO      RENORM.BO
     1   P  -   5   H       0.368484       0.500000




     5   H  -   1   P       0.368484       0.500000


 Valency analysis:

   CEN ATOM   TOT.VALENCE
     1   P       0.368751
     2   H       0.000497
     3   H       0.000584
     4   H       0.000014
     5   H       0.369311

 Total charge composition:

   CEN ATOM         s          p       ELECTRONS ->P.CHARGE
     1   P       5.56516    9.35186     14.91702    0.08298
     2   H       1.01409                 1.01409   -0.01409
     3   H       1.01427                 1.01427   -0.01427
     4   H       1.01720                 1.01720   -0.01720
     5   H       1.03742                 1.03742   -0.03742

 Total charge composition, AO contributions:

   CEN ATOM SHL      SPHERICAL COMPONENTS
     1   P  1s       1.99986
     1   P  2s       1.99165
     1   P  3s       1.57365
     1   P  2p       1.99955    1.99943    1.99944
     1   P  3p       1.07484    0.94593    1.33267

     2   H  1s       1.01409

     3   H  1s       1.01427

     4   H  1s       1.01720

     5   H  1s       1.03742

 Active orbital charges:

   CEN ATOM         s          p       ELECTRONS ->SPIN.DEN
     1   P       0.00083    0.24300      0.24383    0.24383
     2   H       0.00025                 0.00025    0.00025
     3   H       0.00029                 0.00029    0.00029
     4   H       0.00001                 0.00001    0.00001
     5   H       0.75563                 0.75563    0.75563

 Active orbital charges, AO contributions:

   CEN ATOM SHL      SPHERICAL COMPONENTS
     1   P  1s       0.00000
     1   P  2s       0.00001
     1   P  3s       0.00082
     1   P  2p       0.00000    0.00000    0.00000
     1   P  3p       0.24227    0.00001    0.00071

     2   H  1s       0.00025

     3   H  1s       0.00029

     4   H  1s       0.00001

     5   H  1s       0.75563

 Summary of localized orbital composition:   [THRPRINT= 0.020]

   ORB  GRP  ORB.ENERGY      CENTERS/CHARGES
     1   1   -76.245985      P  1   2.000
     2   1    -7.272757      P  1   2.000
     3   1    -4.973668      P  1   2.000
     4   1    -4.782795      P  1   2.000
     5   1    -4.769614      P  1   2.000
     6   1    -0.502190      H  2   1.013   P  1   0.986
     7   1    -0.502150      H  3   1.013   P  1   0.986
     8   1    -0.488449      P  1   1.948   H  5   0.044
     9   1    -0.485906      H  4   1.009   P  1   0.753   H  5   0.237
    10   2    -0.176992      H  5   0.756   P  1   0.244

 Localized orbitals saved to record      2100.2  (orbital set 2)


 **********************************************************************************************************************************
 DATASETS  * FILE   NREC   LENGTH (MB)   RECORD NAMES
              1      19       30.63       500      610      700      900      950      970     1000      129      960     1100   
                                          VAR    BASINP    GEOM    SYMINP    ZMAT    AOBASIS   BASIS     P2S    ABASIS      S 
                                         1400     1410     1200     1210     1080     1600     1650     1700     1800   
                                           T        V       H0       H01     AOSYM     SMH    MOLCAS    OPER     GRID   

              2       5        2.88       700     1000      520     1800     2100   
                                         GEOM     BASIS   MCVARS    GRID      RKS  

 PROGRAMS   *        TOTAL      IBBA        KS       INT
 CPU TIMES  *         5.42      0.01      5.09      0.17
 REAL TIME  *         8.16 SEC
 DISK USED  *        34.42 MB      
 **********************************************************************************************************************************

 IBBA/SVP energy=      0.000000000000

        DF-KS   
   -343.50680309
 **********************************************************************************************************************************
 Molpro calculation terminated
