
 Primary working directories    : /local
 Secondary working directories  : /local
 Wavefunction directory         : /local/
 Main file repository           : /local/

 SHA1      : b4a5b34a9e711420743f49e6833241d17c61fb3c
 NAME      : 2099.9.b4a5b34
 ARCHNAME  : linux/x86_64_openmp
 FC        : /cm/shared/languages/GCC-6.1/bin/gfortran
 BLASLIB   : -lblas
 id        : simonbennie

 Nodes     nprocs
 node32-018    1

 Using customized tuning parameters: mindgm=1; mindgv=20; mindgc=4; mindgr=1; noblas=0; minvec=7
 default implementation of scratch files=df  

 memory,500,m
 geomtyp=xyz
 nosym
 noorient
 geometry={
 H          0.00000        0.00000       -0.86029
 O          0.00000        0.00000        0.32902
 H          0.00000        0.00000       -1.77191
 }
 basis={ default,avtz }
 {uks,M06-2X,direct;wf,10,1,2}
 {ibba,bonds=1}

 Variables initialized (895), CPU time= 0.00 sec
 Commands  initialized (725), CPU time= 0.02 sec, 591 directives.
 Default parameters read. Elapsed time= 0.08 sec

 Checking input...
 Passed
1


                                         ***  PROGRAM SYSTEM MOLPRO  ***
                                       Copyright, TTI GmbH Stuttgart, 2015
                                    Version 2099.9 linked May 26 2017 16:03:21


 **********************************************************************************************************************************
 LABEL *                                                                                 
  64 bit serial version                                                                  DATE: 23-Jun-17          TIME: 02:36:33  
 **********************************************************************************************************************************

 SHA1:             b4a5b34a9e711420743f49e6833241d17c61fb3c
 **********************************************************************************************************************************
 SETTING GEOMTYP        =    XYZ

 Variable memory set to  500000000 words,  buffer space 

 ZSYMEL=NOSYM

 SETTING BASIS          =    AVTZ


 Recomputing integrals since basis changed


 Using spherical harmonics

 Library entry H      S aug-cc-pVTZ          selected for orbital group  1
 Library entry H      P aug-cc-pVTZ          selected for orbital group  1
 Library entry H      D aug-cc-pVTZ          selected for orbital group  1
 Library entry O      S aug-cc-pVTZ          selected for orbital group  2
 Library entry O      P aug-cc-pVTZ          selected for orbital group  2
 Library entry O      D aug-cc-pVTZ          selected for orbital group  2
 Library entry O      F aug-cc-pVTZ          selected for orbital group  2


 PROGRAM * SEWARD (Integral evaluation for generally contracted gaussian basis sets)     Author: Roland Lindh, 1990

 Geometry written to block  1 of record 700


 Point group  C1  



 ATOMIC COORDINATES

 NR  ATOM    CHARGE       X              Y              Z

   1  H       1.00    0.000000000    0.000000000   -1.625712488
   2  O       8.00    0.000000000    0.000000000    0.621757690
   3  H       1.00    0.000000000    0.000000000   -3.348424617

 Bond lengths in Bohr (Angstrom)

 1-2  2.247470177
     ( 1.189310000)

 NUCLEAR CHARGE:                   10
 NUMBER OF PRIMITIVE AOS:         121
 NUMBER OF SYMMETRY AOS:          108
 NUMBER OF CONTRACTIONS:           92   (  92A   )
 NUMBER OF CORE ORBITALS:           1   (   1A   )
 NUMBER OF VALENCE ORBITALS:        6   (   6A   )


 NUCLEAR REPULSION ENERGY    6.15505865

 EXTRA SYMMETRY OF AOS IN SYMMETRY 1:   1 1 1 1 2 3 1 2 3 1   2 3 1 1 4 2 5 3 1 4   2 5 3 1 1 1 1 1 2 3   1 2 3 1 2 3 1 2 3 1
                                        1 4 2 5 3 1 4 2 5 3   1 4 2 5 3 2 3 1 6 4   7 5 2 3 1 6 4 7 5 1   1 1 1 2 3 1 2 3 1 2
                                        3 1 1 4 2 5 3 1 4 2   5 3

 Eigenvalues of metric

         1 0.384E-04 0.311E-03 0.681E-03 0.200E-02 0.568E-02 0.619E-02 0.619E-02 0.712E-02


 Contracted 2-electron integrals neglected if value below      1.0D-12
 AO integral compression algorithm  1   Integral accuracy      1.0D-12

     18.874 MB (compressed) written to integral file ( 19.2%)


 NUMBER OF SORTED TWO-ELECTRON INTEGRALS:    9152781.     BUFFER LENGTH:  32768
 NUMBER OF SEGMENTS:   1  SEGMENT LENGTH:    9152781      RECORD LENGTH: 524288

 Memory used in sort:       9.71 MW

 SORT1 READ    12161524. AND WROTE     1938421. INTEGRALS IN      6 RECORDS. CPU TIME:     0.06 SEC, REAL TIME:     0.09 SEC
 SORT2 READ     1938421. AND WROTE     9152781. INTEGRALS IN     72 RECORDS. CPU TIME:     0.24 SEC, REAL TIME:     0.26 SEC

 FILE SIZES:   FILE 1:    49.2 MBYTE,  FILE 4:    25.2 MBYTE,   TOTAL:     74.4 MBYTE

 OPERATOR DM      FOR CENTER  0  COORDINATES:    0.000000    0.000000    0.000000


 **********************************************************************************************************************************
 DATASETS  * FILE   NREC   LENGTH (MB)   RECORD NAMES
              1      19       43.45       500      610      700      900      950      970     1000      129      960     1100   
                                          VAR    BASINP    GEOM    SYMINP    ZMAT    AOBASIS   BASIS     P2S    ABASIS      S 
                                         1400     1410     1200     1210     1080     1600     1650     1300     1700   
                                           T        V       H0       H01     AOSYM     SMH    MOLCAS    ERIS     OPER   

 PROGRAMS   *        TOTAL       INT
 CPU TIMES  *         1.01      0.86
 REAL TIME  *         1.36 SEC
 DISK USED  *        74.70 MB      
 **********************************************************************************************************************************

 Density functional group M06-2X=XC-M06-2X
 Functional: XC-M06-2X(via MFM 1.6)                                            Gradient terms: 1
 Use grid at  1800.2


 Exact exchange will be calculated, factor:  0.5400

 Functional: XC-M06-2X                 Factor:  1.0000

 Generated new metagrid on record  1800.2 with target accuracy 1.0D-06 and 10944 points in CPU time    0.2
 Computed new grid on record 1800.1 in CPU time    0.2
   77012 words reserved for DFT integration

 PROGRAM * UKS-SCF (Unrestricted Kohn-Sham)     Authors: W. Meyer, H.-J. Werner, P.J. Knowles, 1993

 NUMBER OF ELECTRONS:       6+    4-    SPACE SYMMETRY=1    SPIN SYMMETRY: Triplet 
 CONVERGENCE THRESHOLDS:    1.00E-05 (Density)    1.00E-06 (Energy)
 MAX. NUMBER OF ITERATIONS:       60
 INTERPOLATION TYPE:            DIIS
 INTERPOLATION STEPS:              2 (START)      1 (STEP)
 LEVEL SHIFTS:                 -0.20 (ALPHA)  -0.20 (BETA) 



 Use fine grid record 1800.2 for energy threshold  1.0D-06
 Orbital guess generated from atomic densities. Full valence occupancy:    7

 Molecular orbital dump at record        2200.2

 Initial alpha occupation   6
 Initial beta  occupation   4

 ITERATION    DDIFF          GRAD             ENERGY        2-EL.EN.            DIPOLE MOMENTS         DIIS
    1      0.000D+00      0.000D+00       -76.19937342     77.439690   -0.00000   -0.00000   -0.90106    0
    2      0.572D-02      0.179D-02       -76.21228752     77.163679   -0.00000   -0.00000   -0.64684    1
    3      0.191D-02      0.681D-03       -76.21504199     77.306841   -0.00000   -0.00000   -0.58841    2
    4      0.124D-02      0.323D-03       -76.21601755     77.208838    0.00000   -0.00000   -0.53678    3
    5      0.695D-03      0.175D-03       -76.21636585     77.235857   -0.00000   -0.00000   -0.50954    4
    6      0.414D-03      0.689D-04       -76.21646893     77.208984   -0.00000   -0.00000   -0.48991    5
    7      0.285D-03      0.376D-04       -76.21650455     77.207978   -0.00000    0.00000   -0.47847    6
    8      0.114D-03      0.215D-04       -76.21651683     77.202622   -0.00000    0.00000   -0.47271    7
    9      0.406D-04      0.171D-04       -76.21652192     77.203214    0.00000    0.00000   -0.47237    8
   10      0.101D-03      0.175D-04       -76.21650671     77.203259   -0.00000    0.00000   -0.47235    8
   11      0.370D-03      0.152D-04       -76.21647004     77.203167   -0.00000    0.00000   -0.47268    8
   12      0.779D-04      0.664D-05       -76.21646723     77.202869   -0.00000    0.00000   -0.47266    9
   13      0.985D-04      0.344D-05       -76.21646596     77.202849   -0.00000    0.00000   -0.47270    9
   14      0.466D-05      0.913D-06       -76.21646596     77.202684   -0.00000    0.00000   -0.47266    9
   15      0.116D-05      0.211D-06       -76.21646596     77.202706    0.00000    0.00000   -0.47268    9

 Final alpha occupancy:   6
 Final beta  occupancy:   4

 !UKS STATE 1.1 Energy                -76.216465958771
 Nuclear energy                         6.15505865
 One-electron energy                 -116.59417515
 Two-electron energy                   38.60135315
 Density functional                    -4.37870262     XC-M06-2X=-4.37870262
 Virial quotient                       -1.00475515
 !UKS STATE 1.1 Dipole moment           0.00000000     0.00000000    -0.47267542
 Dipole moment /Debye                   0.00000000     0.00000000    -1.20134239

 Orbital energies for positive spin:

         1.1          2.1          3.1          4.1          5.1          6.1          7.1          8.1
    -19.731450    -1.145478    -0.626429    -0.526220    -0.462965    -0.403952     0.008734     0.022962

 Orbital energies for negative spin:

         1.1          2.1          3.1          4.1          5.1          6.1          7.1          8.1
    -19.703882    -1.008788    -0.515474    -0.401239    -0.122319    -0.109834     0.022983     0.041568

 HOMO     -4.1    -0.401239 =     -10.9183eV
 LUMO     -5.1    -0.122319 =      -3.3285eV
 LUMO-HOMO         0.278920 =       7.5898eV

 EXPECTATION VALUE OF S**2:             2.01696609

 Occupation number threshold for canonical orbitals:  1.999000 (occupied),  0.001000 (virtual)

 Number of pseudo-canonical orbitals per symmetry:    2
 Number of active natural orbitals per symmetry:      6

 Natural orbitals saved to record    2200.2 (Orbital set 3)

 Orbital spaces for UNO-CAS (Min. occupation: 0.020  Max. occupation: 1.980):

 Closed:        4
 Active:        2


 **********************************************************************************************************************************
 DATASETS  * FILE   NREC   LENGTH (MB)   RECORD NAMES
              1      20       43.80       500      610      700      900      950      970     1000      129      960     1100   
                                          VAR    BASINP    GEOM    SYMINP    ZMAT    AOBASIS   BASIS     P2S    ABASIS      S 
                                         1400     1410     1200     1210     1080     1600     1650     1300     1700     1800   
                                           T        V       H0       H01     AOSYM     SMH    MOLCAS    ERIS     OPER     GRID   

              2       5        3.14       700     1000      520     1800     2200   
                                         GEOM     BASIS   MCVARS    GRID      UKS  

 PROGRAMS   *        TOTAL       UKS       INT
 CPU TIMES  *        16.87     15.86      0.86
 REAL TIME  *        17.48 SEC
 DISK USED  *        74.70 MB      
 **********************************************************************************************************************************


 PROGRAM * Intrinsic Basis Bonding Analysis (IBBA)          Author: G. Knizia

 Molecular orbitals read from record     2200.2  Type=UKS/ALPHA (state 1.1)
 Fock matrix read from record            2200.2  Type=UKS/TOTAL (state 1.1)
 Orbital energies read from record       2200.2  Type=UKS/ALPHA (state 1.1)
 Density matrix read from record         2200.2  Type=UKS/CHARGE (state 1.1)

 Number of core orbitals:           1 (   1 )
 Number of closed-shell orbitals:   3 (   3 )
 Number of active  orbitals:        2 (   2 )

 Basis set MINAO-AUTO-PP generated.      Number of basis functions:   7 

 Polarized AO type:                A = (O Ot + (1-O)(1-Ot)) P12
 Orthogonalization method:         Symmetric (Loewdin)
 Localization functional:          L = sum[A,i] <i|n_A|i>^4 -> max

 Localization group 1:   4 orbitals, occupancy  2.000
 Iterative localization: IB/PM,    4 iter; Final gradient 0.18E-09

 Bond order analysis:       [THRPRINT= 0.020]

   CEN ATOM   CEN ATOM     WIBERG.BO      RENORM.BO
     1   H  -   2   O       0.686647       1.000000
     1   H  -   3   H       0.176956       0.807859

     2   O  -   1   H       0.686647       1.000000
     2   O  -   3   H       0.397043       1.000000

     3   H  -   2   O       0.397043       1.000000
     3   H  -   1   H       0.176956       0.807859


 Valency analysis:

   CEN ATOM   TOT.VALENCE
     1   H       0.863603
     2   O       1.083690
     3   H       0.573999
 Localization group 2:   2 orbitals, occupancy  1.000
 Iterative localization: IB/PM,    1 iter; Final gradient 0.26E-14

 Bond order analysis:       [THRPRINT= 0.020]

   CEN ATOM   CEN ATOM     WIBERG.BO      RENORM.BO
     1   H  -   3   H       0.070277       0.500000
     1   H  -   2   O       0.046972       0.500000

     2   O  -   3   H       0.422059       0.500000
     2   O  -   1   H       0.046972       0.500000

     3   H  -   2   O       0.422059       0.500000
     3   H  -   1   H       0.070277       0.500000


 Valency analysis:

   CEN ATOM   TOT.VALENCE
     1   H       0.117249
     2   O       0.469031
     3   H       0.492336

 Total charge composition:

   CEN ATOM         s          p       ELECTRONS ->P.CHARGE
     1   H       0.69322                 0.69322    0.30678
     2   O       3.91237    4.48520      8.39757   -0.39757
     3   H       0.90921                 0.90921    0.09079

 Total charge composition, AO contributions:

   CEN ATOM SHL      SPHERICAL COMPONENTS
     1   H  1s       0.69322

     2   O  1s       1.99926
     2   O  2s       1.91311
     2   O  2p       2.00000    1.00000    1.48520

     3   H  1s       0.90921

 Active orbital charges:

   CEN ATOM         s          p       ELECTRONS ->SPIN.DEN
     1   H       0.06253                 0.06253    0.06253
     2   O       0.00506    1.37050      1.37556    1.37556
     3   H       0.56190                 0.56190    0.56190

 Active orbital charges, AO contributions:

   CEN ATOM SHL      SPHERICAL COMPONENTS
     1   H  1s       0.06253

     2   O  1s       0.00005
     2   O  2s       0.00502
     2   O  2p       0.00000    1.00000    0.37050

     3   H  1s       0.56190

 Summary of localized orbital composition:   [THRPRINT= 0.020]

   ORB  GRP  ORB.ENERGY      CENTERS/CHARGES
     1   1   -19.558911      O  2   2.000
     2   1    -1.127122      O  2   1.955   H  3   0.030
     3   1    -0.667063      O  2   1.067   H  1   0.616   H  3   0.317
     4   1    -0.301114      O  2   2.000
     5   2    -0.430954      O  2   1.000
     6   2    -0.258148      H  3   0.562   O  2   0.376   H  1   0.063

 Localized orbitals saved to record      2200.2  (orbital set 4)


 **********************************************************************************************************************************
 DATASETS  * FILE   NREC   LENGTH (MB)   RECORD NAMES
              1      20       43.80       500      610      700      900      950      970     1000      129      960     1100   
                                          VAR    BASINP    GEOM    SYMINP    ZMAT    AOBASIS   BASIS     P2S    ABASIS      S 
                                         1400     1410     1200     1210     1080     1600     1650     1300     1700     1800   
                                           T        V       H0       H01     AOSYM     SMH    MOLCAS    ERIS     OPER     GRID   

              2       5        3.21       700     1000      520     1800     2200   
                                         GEOM     BASIS   MCVARS    GRID      UKS  

 PROGRAMS   *        TOTAL      IBBA       UKS       INT
 CPU TIMES  *        16.89      0.01     15.86      0.86
 REAL TIME  *        17.52 SEC
 DISK USED  *        74.70 MB      
 **********************************************************************************************************************************
 Molecular orbitals read from record     2200.2  Type=UKS/LOCAL(IBO)  
 Occupation numbers read from record     2200.2  Type=UKS/LOCAL(IBO)  
 Orbital energies read from record       2200.2  Type=UKS/LOCAL(IBO)  
 Redundancy group numbers read from rec  2200.2  Type=UKS/BETA (state 1.1)

 IBBA/aug-cc-pVTZ energy=      0.000000000000

        UKS-SCF 
    -76.21646596
 **********************************************************************************************************************************
 Molpro calculation terminated
