
 Primary working directories    : /local/molpro.ogDdnM87Jt
 Secondary working directories  : /local/molpro.ogDdnM87Jt
 Wavefunction directory         : /local/
 Main file repository           : /local/molpro.ogDdnM87Jt/

 id        : simonbennie

 Nodes     nprocs
 node35-048    1

 Using customized tuning parameters: mindgm=1; mindgv=20; mindgc=4; mindgr=1; noblas=0; minvec=7
 default implementation of scratch files=df  

 memory,500,m
 geomtyp=xyz
 nosym
 noorient
 geometry={
 H          0.00000        0.00000       -0.86029
 O          0.00000        0.00000        0.32902
 H          0.00000        0.00000       -1.77191
 }
 basis={default,sto-3g}
 {uhf,direct;wf,10,1,2}
 
 basis={ default,6-31+G(d,p) }
 {uks,MM06-HF,direct;wf,10,1,2}
 {ibba,bonds=1}

 Variables initialized (920), CPU time= 0.00 sec
 Commands  initialized (754), CPU time= 0.01 sec, 615 directives.
 Default parameters read. Elapsed time= 0.10 sec

 Checking input...
 Passed
1


                                         ***  PROGRAM SYSTEM MOLPRO  ***
                                       Copyright, TTI GmbH Stuttgart, 2015
                                    Version 2018.0 linked Jul  6 2018 18:07:13


 **********************************************************************************************************************************
 LABEL *                                                                                 
  64 bit serial version                                                                  DATE: 10-Oct-18          TIME: 20:33:09  
 **********************************************************************************************************************************

 SHA1:             b58f8fddb9d75525be9261ebe3faf0e4279c479b
 **********************************************************************************************************************************
 SETTING GEOMTYP        =    XYZ

 Variable memory set to  500000000 words,  buffer space 

 ZSYMEL=NOSYM

 SETTING BASIS          =    STO-3G


 Recomputing integrals since basis changed


 Using spherical harmonics

 Library entry H      S STO-3G               selected for orbital group  1
 Library entry O      S STO-3G               selected for orbital group  2
 Library entry O      P STO-3G               selected for orbital group  2


 PROGRAM * SEWARD (Integral evaluation for generally contracted gaussian basis sets)     Author: Roland Lindh, 1990

 Geometry written to block  1 of record 700


 Point group  C1  



 ATOMIC COORDINATES

 NR  ATOM    CHARGE       X              Y              Z

   1  H       1.00    0.000000000    0.000000000   -1.625712488
   2  O       8.00    0.000000000    0.000000000    0.621757690
   3  H       1.00    0.000000000    0.000000000   -3.348424617

 Bond lengths in Bohr (Angstrom)

 1-2  2.247470177
     ( 1.189310000)

 NUCLEAR CHARGE:                   10
 NUMBER OF PRIMITIVE AOS:          21
 NUMBER OF SYMMETRY AOS:           21
 NUMBER OF CONTRACTIONS:            7   (   7A   )
 NUMBER OF CORE ORBITALS:           1   (   1A   )
 NUMBER OF VALENCE ORBITALS:        6   (   6A   )


 NUCLEAR REPULSION ENERGY    6.15505865

 EXTRA SYMMETRY OF AOS IN SYMMETRY 1:   1 1 1 2 3 1 1

 Eigenvalues of metric

         1 0.325E+00 0.769E+00 0.942E+00 0.100E+01 0.100E+01 0.119E+01 0.178E+01


 Contracted 2-electron integrals neglected if value below      1.0D-11
 AO integral compression algorithm  1   Integral accuracy      1.0D-11

     0.262 MB (compressed) written to integral file (100.0%)


 NUMBER OF SORTED TWO-ELECTRON INTEGRALS:        406.     BUFFER LENGTH:  32768
 NUMBER OF SEGMENTS:   1  SEGMENT LENGTH:        406      RECORD LENGTH: 524288

 Memory used in sort:       0.56 MW

 SORT1 READ         585. AND WROTE         168. INTEGRALS IN      1 RECORDS. CPU TIME:     0.00 SEC, REAL TIME:     0.00 SEC
 SORT2 READ         168. AND WROTE         406. INTEGRALS IN      1 RECORDS. CPU TIME:     0.00 SEC, REAL TIME:     0.01 SEC

 FILE SIZES:   FILE 1:    30.2 MBYTE,  FILE 4:     4.2 MBYTE,   TOTAL:     34.5 MBYTE

 OPERATOR DM      FOR CENTER  0  COORDINATES:    0.000000    0.000000    0.000000


 **********************************************************************************************************************************
 DATASETS  * FILE   NREC   LENGTH (MB)   RECORD NAMES
              1      19       29.97       500      610      700      900      950      970     1000      129      960     1100   
                                          VAR    BASINP    GEOM    SYMINP    ZMAT    AOBASIS   BASIS     P2S    ABASIS      S 
                                         1400     1410     1200     1210     1080     1600     1650     1300     1700   
                                           T        V       H0       H01     AOSYM     SMH    MOLCAS    ERIS     OPER   

 PROGRAMS   *        TOTAL       INT
 CPU TIMES  *         0.43      0.29
 REAL TIME  *         0.79 SEC
 DISK USED  *        34.75 MB
 **********************************************************************************************************************************


 PROGRAM * UHF-SCF       Authors: W. Meyer, H.-J. Werner


 NUMBER OF ELECTRONS:       6+    4-    SPACE SYMMETRY=1    SPIN SYMMETRY: Triplet 
 CONVERGENCE THRESHOLDS:    1.00E-05 (Density)    1.00E-07 (Energy)
 INTEGRAL THRESHOLDS:       1.00E-11 (Initial)    1.00E-11 (Final)
 MAX. NUMBER OF ITERATIONS:       60
 INTERPOLATION TYPE:            DIIS
 INTERPOLATION STEPS:              2 (START)      1 (STEP)
 LEVEL SHIFTS:                 -0.20 (ALPHA)  -0.20 (BETA) 



 Orbital guess generated from atomic densities. Full valence occupancy:    5

 Molecular orbital dump at record        2200.2

 Initial alpha occupation   6
 Initial beta  occupation   4

 Direct Fock-matrix evaluation.        Author: H.-J. Werner (1996)

 Integral Threshold:                  0.1D-10

 ITERATION   DDIFF            GRAD            ENERGY        2-EL.EN.            DIPOLE MOMENTS         DIIS   CPU(IT)  CPU(TOT)
    1      0.000D+00      0.000D+00       -74.76879769     72.625324   -0.00000   -0.00000   -1.21855    0      1.1      2.0
    2      0.472D-01      0.374D-01       -74.82169626     71.192921   -0.00000   -0.00000   -0.64052    1      0.6      2.6
    3      0.296D-01      0.206D-01       -74.84270408     70.255166   -0.00000   -0.00000   -0.22694    2      0.7      3.3
    4      0.195D-01      0.760D-02       -74.84829831     70.024172    0.00000    0.00000   -0.08816    3      0.6      3.9
    5      0.850D-02      0.260D-02       -74.84909245     70.001441    0.00000    0.00000   -0.06207    4      0.8      4.8
    6      0.738D-02      0.172D-02       -74.84947809     69.941305   -0.00000   -0.00000   -0.01916    5      0.9      5.7
    7      0.266D-02      0.621D-03       -74.84952217     69.915476   -0.00000    0.00000   -0.00044    6      0.9      6.5
    8      0.204D-03      0.503D-04       -74.84952236     69.915269   -0.00000    0.00000   -0.00013    6      0.8      7.4
    9      0.296D-04      0.125D-04       -74.84952236     69.915426   -0.00000    0.00000   -0.00035    6      0.9      8.3
   10      0.867D-05      0.383D-05       -74.84952237     69.915403   -0.00000    0.00000   -0.00035    6      0.8      9.1
   11      0.224D-05      0.135D-05       -74.84952237     69.915385   -0.00000    0.00000   -0.00035    5      0.7      9.8

 Final alpha occupancy:   6
 Final beta  occupancy:   4

 !UHF STATE  1.1 Energy               -74.849522365936
 Nuclear energy                         6.15505865
 One-electron energy                 -115.96227353
 Two-electron energy                   34.95769251
 Virial quotient                       -1.00251802
 !UHF STATE  1.1 Dipole moment         -0.00000000     0.00000000    -0.00034891
 Dipole moment /Debye                  -0.00000000     0.00000000    -0.00088679

 Orbital energies for positive spin:

         1.1          2.1          3.1          4.1          5.1          6.1          7.1
    -20.341991    -1.329730    -0.681026    -0.572333    -0.477445    -0.414900     0.735966

 Orbital energies for negative spin:

         1.1          2.1          3.1          4.1          5.1          6.1          7.1
    -20.296053    -1.049384    -0.489908    -0.394123     0.240823     0.343703     0.858158


 HOMO     -4.1    -0.394123 =     -10.7246eV
 LUMO     -5.1     0.240823 =       6.5531eV
 LUMO-HOMO         0.634946 =      17.2778eV

 EXPECTATION VALUE OF S**2:             2.04243376

 Occupation number threshold for pseudo-canonical orbitals: 1.9990 (occupied), 0.0010 (virtual)

 Number of pseudo-canonical occupied orbitals per symmetry:    3
 Number of active natural orbitals per symmetry:               4

 Natural orbitals saved to record    2200.2 (Orbital set 3)

 Orbital spaces for UNO-CAS (Min. occupation: 0.020  Max. occupation: 1.980):

 Closed:        3
 Active:        4


 **********************************************************************************************************************************
 DATASETS  * FILE   NREC   LENGTH (MB)   RECORD NAMES
              1      19       29.97       500      610      700      900      950      970     1000      129      960     1100   
                                          VAR    BASINP    GEOM    SYMINP    ZMAT    AOBASIS   BASIS     P2S    ABASIS      S 
                                         1400     1410     1200     1210     1080     1600     1650     1300     1700   
                                           T        V       H0       H01     AOSYM     SMH    MOLCAS    ERIS     OPER   

              2       4        2.79       700     1000      520     2200   
                                         GEOM     BASIS   MCVARS     UHF  

 PROGRAMS   *        TOTAL   UHF-SCF       INT
 CPU TIMES  *        10.20      9.77      0.29
 REAL TIME  *        15.62 SEC
 DISK USED  *        34.75 MB
 **********************************************************************************************************************************
 SETTING BASIS          =    6-31+G(D,P)


 Recomputing integrals since basis changed


 Using spherical harmonics

 Library entry H      S 6-31G                selected for orbital group  1
 Library entry H      P 6-31G**              selected for orbital group  1
 Library entry O      S 6-31G                selected for orbital group  2
 Library entry O      S 6-31++G              selected for orbital group  2
 Library entry O      P 6-31G                selected for orbital group  2
 Library entry O      P 6-31++G              selected for orbital group  2
 Library entry O      D 6-31G*               selected for orbital group  2


 PROGRAM * SEWARD (Integral evaluation for generally contracted gaussian basis sets)     Author: Roland Lindh, 1990

 Geometry written to block  1 of record 700


 Point group  C1  



 ATOMIC COORDINATES

 NR  ATOM    CHARGE       X              Y              Z

   1  H       1.00    0.000000000    0.000000000   -1.625712488
   2  O       8.00    0.000000000    0.000000000    0.621757690
   3  H       1.00    0.000000000    0.000000000   -3.348424617

 Bond lengths in Bohr (Angstrom)

 1-2  2.247470177
     ( 1.189310000)

 NUCLEAR CHARGE:                   10
 NUMBER OF PRIMITIVE AOS:          46
 NUMBER OF SYMMETRY AOS:           45
 NUMBER OF CONTRACTIONS:           28   (  28A   )
 NUMBER OF CORE ORBITALS:           1   (   1A   )
 NUMBER OF VALENCE ORBITALS:        6   (   6A   )


 NUCLEAR REPULSION ENERGY    6.15505865

 EXTRA SYMMETRY OF AOS IN SYMMETRY 1:   1 1 2 3 1 1 1 1 1 2   3 1 2 3 1 2 3 1 1 4   2 5 3 1 1 2 3 1

 Eigenvalues of metric

         1 0.229E-01 0.618E-01 0.150E+00 0.197E+00 0.232E+00 0.233E+00 0.233E+00 0.417E+00


 Contracted 2-electron integrals neglected if value below      1.0D-11
 AO integral compression algorithm  1   Integral accuracy      1.0D-11

     0.262 MB (compressed) written to integral file ( 42.7%)


 NUMBER OF SORTED TWO-ELECTRON INTEGRALS:      82621.     BUFFER LENGTH:  32768
 NUMBER OF SEGMENTS:   1  SEGMENT LENGTH:      82621      RECORD LENGTH: 524288

 Memory used in sort:       0.64 MW

 SORT1 READ      116832. AND WROTE       20600. INTEGRALS IN      1 RECORDS. CPU TIME:     0.00 SEC, REAL TIME:     0.01 SEC
 SORT2 READ       20600. AND WROTE       82621. INTEGRALS IN      1 RECORDS. CPU TIME:     0.01 SEC, REAL TIME:     0.02 SEC

 FILE SIZES:   FILE 1:    30.3 MBYTE,  FILE 4:     4.2 MBYTE,   TOTAL:     34.5 MBYTE

 OPERATOR DM      FOR CENTER  0  COORDINATES:    0.000000    0.000000    0.000000


 **********************************************************************************************************************************
 DATASETS  * FILE   NREC   LENGTH (MB)   RECORD NAMES
              1      19       30.15       500      610      700      900      950      970     1001      129      960     1100   
                                          VAR    BASINP    GEOM    SYMINP    ZMAT    AOBASIS   BASIS     P2S    ABASIS      S 
                                         1400     1410     1200     1210     1080     1600     1650     1300     1700   
                                           T        V       H0       H01     AOSYM     SMH    MOLCAS    ERIS     OPER   

              2       5        2.79       700     1000      520     2200     1001   
                                         GEOM     BASIS   MCVARS     UHF     BASIS   

 PROGRAMS   *        TOTAL       INT   UHF-SCF       INT
 CPU TIMES  *        10.53      0.33      9.77      0.29
 REAL TIME  *        16.01 SEC
 DISK USED  *        37.33 MB
 **********************************************************************************************************************************

 Density functional group MM06-HF=M06HFX+M06HFC
 Functional: M06HFX(Automatically generated (new) M06HFX)                      Gradient terms: 2
 Functional: M06HFC(Automatically generated (new) M06HFC)                      Gradient terms: 2
 Use libxcgrid:  F
 Use grid at  1800.2


 Exact exchange will be calculated, factor:  1.0000

 Functional: M06HFX                    Factor:  1.0000
 Functional: M06HFC                    Factor:  1.0000

 Generated new metagrid on record  1800.2 with target accuracy 1.0D-06 and 10564 points in CPU time    0.2
 Computed new grid on record 1800.1 in CPU time    0.2
   47390 words reserved for DFT integration

 PROGRAM * UKS-SCF (Unrestricted Kohn-Sham)     Authors: W. Meyer, H.-J. Werner, P.J. Knowles, 1993

 NUMBER OF ELECTRONS:       6+    4-    SPACE SYMMETRY=1    SPIN SYMMETRY: Triplet 
 CONVERGENCE THRESHOLDS:    1.00E-05 (Density)    1.00E-06 (Energy)
 MAX. NUMBER OF ITERATIONS:       60
 INTERPOLATION TYPE:            DIIS
 INTERPOLATION STEPS:              2 (START)      1 (STEP)
 LEVEL SHIFTS:                 -0.20 (ALPHA)  -0.20 (BETA) 



 Use fine grid record 1800.2 for energy threshold  1.0D-06
 Molecular orbitals read from record     2200.2  Type=UHF/ALPHA (state 1.1)

 Present basis size:      28
 Previous basis size:      7
 Previous occupation:      6
 Previous closed-shells:   4
 Previous core-orbitals:   1
 Present occupation:       6
 Present closed-shells:    4
 Present core-orbitals:    1
 Wavefunction symmetry:    1   Triplet 

 Orbital overlap <old|new>:  < 1.1| 1.1> = 0.999844   < 2.1| 2.1> = 0.999427   < 3.1| 3.1> = 0.998196   < 4.1| 4.1> = 0.995793
                             < 5.1| 5.1> = 0.995793   < 6.1| 6.1> = 0.998332

 Molecular orbitals read from record     2200.2  Type=UHF/BETA (state 1.1)

 Present basis size:      28
 Previous basis size:      7
 Previous occupation:      6
 Previous closed-shells:   4
 Previous core-orbitals:   1
 Present occupation:       6
 Present closed-shells:    4
 Present core-orbitals:    1
 Wavefunction symmetry:    1   Triplet 

 Orbital overlap <old|new>:  < 1.1| 1.1> = 0.999845   < 2.1| 2.1> = 0.999492   < 3.1| 3.1> = 0.999452   < 4.1| 4.1> = 0.995793
                             < 5.1| 5.1> = 0.997729   < 6.1| 6.1> = 0.995793


 Molecular orbital dump at record        2201.2

 Initial alpha occupation   6
 Initial beta  occupation   4

 ITERATION    DDIFF          GRAD             ENERGY        2-EL.EN.            DIPOLE MOMENTS         DIIS
    1      0.000D+00      0.000D+00       -76.05081734     71.593223   -0.00000   -0.00000   -0.00356    0
    2      0.186D-01      0.196D-01       -76.15598733     68.850727    0.00000   -0.00000    0.01642    1
    3      0.744D-02      0.478D-02       -76.17162876     68.977892    0.00000    0.00000   -0.12235    2
    4      0.536D-02      0.248D-02       -76.17844951     68.772649    0.00000    0.00000   -0.27504    3
    5      0.216D-02      0.106D-02       -76.17968957     68.848026    0.00000    0.00000   -0.37419    4
    6      0.110D-02      0.460D-03       -76.18003636     68.857214   -0.00000   -0.00000   -0.42535    5
    7      0.820D-03      0.224D-03       -76.18016447     68.867612   -0.00000   -0.00000   -0.44296    6
    8      0.394D-03      0.144D-03       -76.18021167     68.871770   -0.00000   -0.00000   -0.44423    7
    9      0.353D-03      0.114D-03       -76.18025194     68.871330   -0.00000   -0.00000   -0.44345    7
   10      0.600D-03      0.823D-04       -76.18029107     68.869847   -0.00000   -0.00000   -0.44213    8
   11      0.179D-03      0.276D-04       -76.18029441     68.869102   -0.00000    0.00000   -0.44139    8
   12      0.496D-04      0.885D-05       -76.18029468     68.868797   -0.00000    0.00000   -0.44110    9
   13      0.675D-05      0.244D-05       -76.18029469     68.868717   -0.00000    0.00000   -0.44101    9
   14      0.149D-05      0.610D-06       -76.18029469     68.868688   -0.00000    0.00000   -0.44102    9

 Final alpha occupancy:   6
 Final beta  occupancy:   4

 !UKS STATE  1.1 Energy               -76.180294691176
 Nuclear energy                         6.15505865
 One-electron energy                 -116.44567753
 Two-electron energy                   34.43434400
 Density functional                    -0.32401981     M06HFX= 0.00196167 M06HFC=-0.32598149
 Virial quotient                       -1.00604255
 !UKS STATE  1.1 Dipole moment         -0.00000000     0.00000000    -0.44101642
 Dipole moment /Debye                  -0.00000000     0.00000000    -1.12087852

 Orbital energies for positive spin:

         1.1          2.1          3.1          4.1          5.1          6.1          7.1          8.1
    -20.326967    -1.253936    -0.727479    -0.638411    -0.578720    -0.479133     0.169233     0.186596

 Orbital energies for negative spin:

         1.1          2.1          3.1          4.1          5.1          6.1          7.1          8.1
    -20.305736    -1.154478    -0.587640    -0.518890    -0.054050    -0.045453     0.132779     0.164274


 HOMO      6.1    -0.479133 =     -13.0379eV
 LUMO     -5.1    -0.054050 =      -1.4708eV
 LUMO-HOMO         0.425083 =      11.5671eV

 EXPECTATION VALUE OF S**2:             2.02695272

 Occupation number threshold for pseudo-canonical orbitals: 1.9990 (occupied), 0.0010 (virtual)

 Number of pseudo-canonical occupied orbitals per symmetry:    2
 Number of active natural orbitals per symmetry:               6

 Natural orbitals saved to record    2201.2 (Orbital set 3)

 Orbital spaces for UNO-CAS (Min. occupation: 0.020  Max. occupation: 1.980):

 Closed:        4
 Active:        2


 **********************************************************************************************************************************
 DATASETS  * FILE   NREC   LENGTH (MB)   RECORD NAMES
              1      20       30.49       500      610      700      900      950      970     1001      129      960     1100   
                                          VAR    BASINP    GEOM    SYMINP    ZMAT    AOBASIS   BASIS     P2S    ABASIS      S 
                                         1400     1410     1200     1210     1080     1600     1650     1300     1700     1800   
                                           T        V       H0       H01     AOSYM     SMH    MOLCAS    ERIS     OPER     GRID   

              2       7        5.32       700     1000      520     2200     1001     1800     2201   
                                         GEOM     BASIS   MCVARS     UHF     BASIS    GRID      UKS  

 PROGRAMS   *        TOTAL   UKS-SCF       INT   UHF-SCF       INT
 CPU TIMES  *        11.99      1.46      0.33      9.77      0.29
 REAL TIME  *        17.53 SEC
 DISK USED  *        37.33 MB
 **********************************************************************************************************************************


 PROGRAM * Intrinsic Basis Bonding Analysis (IBBA)          Author: G. Knizia

 Molecular orbitals read from record     2201.2  Type=UKS/ALPHA (state 1.1)
 Fock matrix read from record            2201.2  Type=UKS/TOTAL (state 1.1)
 Orbital energies read from record       2201.2  Type=UKS/ALPHA (state 1.1)
 Density matrix read from record         2201.2  Type=UKS/CHARGE (state 1.1)

 Number of core orbitals:           1 (   1 )
 Number of closed-shell orbitals:   3 (   3 )
 Number of active  orbitals:        2 (   2 )

 Basis set MINAO-AUTO-PP generated.      Number of basis functions:   7 

 Polarized AO type:                A = (O Ot + (1-O)(1-Ot)) P12
 Orthogonalization method:         Symmetric (Loewdin)
 Localization functional:          L = sum[A,i] <i|n_A|i>^4 -> max

 Localization group 1:   4 orbitals, occupancy  2.000
 Iterative localization: IB/PM,    4 iter; Final gradient 0.20E-09

 Bond order analysis:       [THRPRINT= 0.020]

   CEN ATOM   CEN ATOM     WIBERG.BO      RENORM.BO
     1   H  -   2   O       0.706440       1.000000
     1   H  -   3   H       0.118395       0.782596

     2   O  -   1   H       0.706440       1.000000
     2   O  -   3   H       0.334265       1.000000

     3   H  -   2   O       0.334265       1.000000
     3   H  -   1   H       0.118395       0.782596


 Valency analysis:

   CEN ATOM   TOT.VALENCE
     1   H       0.824835
     2   O       1.040705
     3   H       0.452660
 Localization group 2:   2 orbitals, occupancy  1.000
 Iterative localization: IB/PM,    1 iter; Final gradient 0.37E-14

 Bond order analysis:       [THRPRINT= 0.020]

   CEN ATOM   CEN ATOM     WIBERG.BO      RENORM.BO
     1   H  -   3   H       0.098535       0.500000
     1   H  -   2   O       0.049248       0.500000

     2   O  -   3   H       0.375844       0.500000
     2   O  -   1   H       0.049248       0.500000

     3   H  -   2   O       0.375844       0.500000
     3   H  -   1   H       0.098535       0.500000


 Valency analysis:

   CEN ATOM   TOT.VALENCE
     1   H       0.147783
     2   O       0.425092
     3   H       0.474379

 Total charge composition:

   CEN ATOM         s          p       ELECTRONS ->P.CHARGE
     1   H       0.66182                 0.66182    0.33818
     2   O       3.89957    4.56525      8.46482   -0.46482
     3   H       0.87336                 0.87336    0.12664

 Total charge composition, AO contributions:

   CEN ATOM SHL      SPHERICAL COMPONENTS
     1   H  1s       0.66182

     2   O  1s       1.99922
     2   O  2s       1.90035
     2   O  2p       1.04900    1.95100    1.56525

     3   H  1s       0.87336

 Active orbital charges:

   CEN ATOM         s          p       ELECTRONS ->SPIN.DEN
     1   H       0.08035                 0.08035    0.08035
     2   O       0.00835    1.29812      1.30647    1.30647
     3   H       0.61318                 0.61318    0.61318

 Active orbital charges, AO contributions:

   CEN ATOM SHL      SPHERICAL COMPONENTS
     1   H  1s       0.08035

     2   O  1s       0.00006
     2   O  2s       0.00829
     2   O  2p       0.95100    0.04900    0.29812

     3   H  1s       0.61318

 Summary of localized orbital composition:   [THRPRINT= 0.020]

   ORB  GRP  ORB.ENERGY      CENTERS/CHARGES
     1   1   -20.157717      O  2   2.000
     2   1    -1.217557      O  2   1.959   H  3   0.030
     3   1    -0.770521      O  2   1.199   H  1   0.570   H  3   0.230
     4   1    -0.310874      O  2   2.000
     5   2    -0.546895      O  2   1.000
     6   2    -0.272018      H  3   0.613   O  2   0.306   H  1   0.080

 Localized orbitals saved to record      2201.2  (orbital set 4)


 **********************************************************************************************************************************
 DATASETS  * FILE   NREC   LENGTH (MB)   RECORD NAMES
              1      20       30.49       500      610      700      900      950      970     1001      129      960     1100   
                                          VAR    BASINP    GEOM    SYMINP    ZMAT    AOBASIS   BASIS     P2S    ABASIS      S 
                                         1400     1410     1200     1210     1080     1600     1650     1300     1700     1800   
                                           T        V       H0       H01     AOSYM     SMH    MOLCAS    ERIS     OPER     GRID   

              2       7        5.33       700     1000      520     2200     1001     1800     2201   
                                         GEOM     BASIS   MCVARS     UHF     BASIS    GRID      UKS  

 PROGRAMS   *        TOTAL      IBBA   UKS-SCF       INT   UHF-SCF       INT
 CPU TIMES  *        12.01      0.02      1.46      0.33      9.77      0.29
 REAL TIME  *        17.56 SEC
 DISK USED  *        37.33 MB
 **********************************************************************************************************************************

 IBBA/6-31+G(D,P) energy=      0.000000000000

         UKS-SCF         UHF-SCF
    -76.18029469    -74.84952237
 **********************************************************************************************************************************
 Molpro calculation terminated
