
 Primary working directories    : /local
 Secondary working directories  : /local
 Wavefunction directory         : /local/
 Main file repository           : /local/

 SHA1      : b4a5b34a9e711420743f49e6833241d17c61fb3c
 NAME      : 2099.9.b4a5b34
 ARCHNAME  : linux/x86_64_openmp
 FC        : /cm/shared/languages/GCC-6.1/bin/gfortran
 BLASLIB   : -lblas
 id        : simonbennie

 Nodes     nprocs
 node32-023    1

 Using customized tuning parameters: mindgm=1; mindgv=20; mindgc=4; mindgr=1; noblas=0; minvec=7
 default implementation of scratch files=df  

 memory,500,m
 geomtyp=xyz
 nosym
 noorient
 geometry={
 H          0.00000        0.00000       -0.86029
 O          0.00000        0.00000        0.32902
 H          0.00000        0.00000       -1.77191
 }
 basis={ default,avdz }
 {ks,MM06,direct;wf,10,1,2}
 {ibba,bonds=1}

 Variables initialized (895), CPU time= 0.01 sec
 Commands  initialized (725), CPU time= 0.01 sec, 591 directives.
 Default parameters read. Elapsed time= 0.09 sec

 Checking input...
 Passed
1


                                         ***  PROGRAM SYSTEM MOLPRO  ***
                                       Copyright, TTI GmbH Stuttgart, 2015
                                    Version 2099.9 linked May 26 2017 16:03:21


 **********************************************************************************************************************************
 LABEL *                                                                                 
  64 bit serial version                                                                  DATE: 23-Jun-17          TIME: 02:11:48  
 **********************************************************************************************************************************

 SHA1:             b4a5b34a9e711420743f49e6833241d17c61fb3c
 **********************************************************************************************************************************
 SETTING GEOMTYP        =    XYZ

 Variable memory set to  500000000 words,  buffer space 

 ZSYMEL=NOSYM

 SETTING BASIS          =    AVDZ


 Recomputing integrals since basis changed


 Using spherical harmonics

 Library entry H      S aug-cc-pVDZ          selected for orbital group  1
 Library entry H      P aug-cc-pVDZ          selected for orbital group  1
 Library entry O      S aug-cc-pVDZ          selected for orbital group  2
 Library entry O      P aug-cc-pVDZ          selected for orbital group  2
 Library entry O      D aug-cc-pVDZ          selected for orbital group  2


 PROGRAM * SEWARD (Integral evaluation for generally contracted gaussian basis sets)     Author: Roland Lindh, 1990

 Geometry written to block  1 of record 700


 Point group  C1  



 ATOMIC COORDINATES

 NR  ATOM    CHARGE       X              Y              Z

   1  H       1.00    0.000000000    0.000000000   -1.625712488
   2  O       8.00    0.000000000    0.000000000    0.621757690
   3  H       1.00    0.000000000    0.000000000   -3.348424617

 Bond lengths in Bohr (Angstrom)

 1-2  2.247470177
     ( 1.189310000)

 NUCLEAR CHARGE:                   10
 NUMBER OF PRIMITIVE AOS:          59
 NUMBER OF SYMMETRY AOS:           57
 NUMBER OF CONTRACTIONS:           41   (  41A   )
 NUMBER OF CORE ORBITALS:           1   (   1A   )
 NUMBER OF VALENCE ORBITALS:        6   (   6A   )


 NUCLEAR REPULSION ENERGY    6.15505865

 EXTRA SYMMETRY OF AOS IN SYMMETRY 1:   1 1 1 2 3 1 2 3 1 1   1 1 1 2 3 1 2 3 1 2   3 1 1 4 2 5 3 1 4 2   5 3 1 1 1 2 3 1 2 3
                                        1

 Eigenvalues of metric

         1 0.261E-03 0.355E-02 0.118E-01 0.239E-01 0.352E-01 0.533E-01 0.533E-01 0.533E-01


 Contracted 2-electron integrals neglected if value below      1.0D-11
 AO integral compression algorithm  1   Integral accuracy      1.0D-11

     1.049 MB (compressed) written to integral file ( 20.9%)


 NUMBER OF SORTED TWO-ELECTRON INTEGRALS:     371091.     BUFFER LENGTH:  32768
 NUMBER OF SEGMENTS:   1  SEGMENT LENGTH:     371091      RECORD LENGTH: 524288

 Memory used in sort:       0.93 MW

 SORT1 READ      544617. AND WROTE       90660. INTEGRALS IN      1 RECORDS. CPU TIME:     0.00 SEC, REAL TIME:     0.01 SEC
 SORT2 READ       90660. AND WROTE      371091. INTEGRALS IN      4 RECORDS. CPU TIME:     0.03 SEC, REAL TIME:     0.03 SEC

 FILE SIZES:   FILE 1:    31.1 MBYTE,  FILE 4:     4.2 MBYTE,   TOTAL:     35.3 MBYTE

 OPERATOR DM      FOR CENTER  0  COORDINATES:    0.000000    0.000000    0.000000


 **********************************************************************************************************************************
 DATASETS  * FILE   NREC   LENGTH (MB)   RECORD NAMES
              1      19       30.62       500      610      700      900      950      970     1000      129      960     1100   
                                          VAR    BASINP    GEOM    SYMINP    ZMAT    AOBASIS   BASIS     P2S    ABASIS      S 
                                         1400     1410     1200     1210     1080     1600     1650     1300     1700   
                                           T        V       H0       H01     AOSYM     SMH    MOLCAS    ERIS     OPER   

 PROGRAMS   *        TOTAL       INT
 CPU TIMES  *         0.44      0.28
 REAL TIME  *         0.76 SEC
 DISK USED  *        35.62 MB      
 **********************************************************************************************************************************

 Density functional group MM06=M06X+M06C
 Functional: M06X(Automatically generated (new) M06X)                          Gradient terms: 2
 Functional: M06C(Automatically generated (new) M06C)                          Gradient terms: 2
 Use grid at  1800.2


 Exact exchange will be calculated, factor:  0.2700

 Functional: M06X                      Factor:  0.7300
 Functional: M06C                      Factor:  1.0000

 Generated new metagrid on record  1800.2 with target accuracy 1.0D-06 and 10564 points in CPU time    0.2
 Computed new grid on record 1800.1 in CPU time    0.2
   67647 words reserved for DFT integration

 PROGRAM * RKS-SCF (Restricted open shell Kohn-Sham)     Authors: W. Meyer, H.-J. Werner, P.J. Knowles, 1993

 NUMBER OF ELECTRONS:       6+    4-    SPACE SYMMETRY=1    SPIN SYMMETRY: Triplet 
 CONVERGENCE THRESHOLDS:    1.00E-05 (Density)    1.00E-06 (Energy)
 MAX. NUMBER OF ITERATIONS:       60
 INTERPOLATION TYPE:            DIIS
 INTERPOLATION STEPS:              2 (START)      1 (STEP)
 LEVEL SHIFTS:                 -0.60 (CLOSED) -0.30 (OPEN) 



 Use fine grid record 1800.2 for energy threshold  1.0D-06
 Orbital guess generated from atomic densities. Full valence occupancy:    7

 Molecular orbital dump at record        2100.2

 Initial alpha occupancy:   6
 Initial beta  occupancy:   4
 Wave function symmetry:    1

 ITERATION    DDIFF          GRAD             ENERGY        2-EL.EN.            DIPOLE MOMENTS         DIIS   ORB.
    1      0.000D+00      0.000D+00       -74.45541666     78.170832    0.00000    0.00000   -0.40986    0    start
    2      0.000D+00      0.948D-02       -74.47024911     81.591981    0.00000   -0.00000   -0.66695    1    diag,B
    3      0.181D-01      0.637D-02       -74.47832520     80.303190    0.00000    0.00000   -0.46274    2    diag,B
    4      0.825D-02      0.547D-03       -74.47863021     80.382141    0.00000    0.00000   -0.45190    3    diag,B
    5      0.283D-02      0.235D-03       -74.47868878     80.376022    0.00000    0.00000   -0.43921    4    diag,B
    6      0.894D-03      0.751D-04       -74.47869928     80.373895    0.00000    0.00000   -0.43437    5    diag,B
    7      0.353D-03      0.411D-04       -74.47870233     80.374687    0.00000    0.00000   -0.43119    6    fixocc
    8      0.325D-03      0.117D-04       -74.47870261     80.374478    0.00000    0.00000   -0.43013    7    diag,B
    9      0.987D-04      0.362D-05       -74.47870265     80.374343    0.00000    0.00000   -0.42990    8    diag,B
   10      0.351D-04      0.224D-05       -74.47870268     80.374357    0.00000    0.00000   -0.42983    9    orth
   11      0.141D-04      0.207D-05       -74.47870271     80.374346    0.00000    0.00000   -0.42982    9    diag,B
   12      0.941D-05      0.204D-05       -74.47870274     80.374348   -0.00000   -0.00000   -0.42982    0    orth

 Final alpha occupancy:   6
 Final beta  occupancy:   4

 !RKS STATE 1.1 Energy                -74.478702736722
 Nuclear energy                         6.15505865
 One-electron energy                 -115.86815827
 Two-electron energy                   40.18717410
 Density functional                    -4.95277723     M06X=-6.29459008 M06C=-0.35772647
 Virial quotient                       -0.99401315
 !RKS STATE 1.1 Dipole moment          -0.00000000    -0.00000000    -0.42981691
 Dipole moment /Debye                  -0.00000000    -0.00000000    -1.09241405

 Orbital energies:

         1.1          2.1          3.1          4.1          5.1          6.1          7.1          8.1
    -18.903037    -0.909443    -0.451294    -0.296443    -0.370125    -0.274915    -0.012816    -0.000015

 HOMO      6.1    -0.274915 =      -7.4808eV
 LUMO      7.1    -0.012816 =      -0.3488eV
 LUMO-HOMO         0.262099 =       7.1321eV


 **********************************************************************************************************************************
 DATASETS  * FILE   NREC   LENGTH (MB)   RECORD NAMES
              1      20       30.96       500      610      700      900      950      970     1000      129      960     1100   
                                          VAR    BASINP    GEOM    SYMINP    ZMAT    AOBASIS   BASIS     P2S    ABASIS      S 
                                         1400     1410     1200     1210     1080     1600     1650     1300     1700     1800   
                                           T        V       H0       H01     AOSYM     SMH    MOLCAS    ERIS     OPER     GRID   

              2       5        2.83       700     1000      520     1800     2100   
                                         GEOM     BASIS   MCVARS    GRID      RKS  

 PROGRAMS   *        TOTAL        KS       INT
 CPU TIMES  *         5.91      5.47      0.28
 REAL TIME  *         6.53 SEC
 DISK USED  *        35.62 MB      
 **********************************************************************************************************************************


 PROGRAM * Intrinsic Basis Bonding Analysis (IBBA)          Author: G. Knizia

 Molecular orbitals read from record     2100.2  Type=RKS/CANONICAL (state 1.1)
 Fock matrix read from record            2100.2  Type=RKS/TOTAL (state 1.1)
 Orbital energies read from record       2100.2  Type=RKS/CANONICAL (state 1.1)
 Density matrix read from record         2100.2  Type=RKS/CHARGE (state 1.1)

 Number of core orbitals:           1 (   1 )
 Number of closed-shell orbitals:   3 (   3 )
 Number of active  orbitals:        2 (   2 )

 Basis set MINAO-AUTO-PP generated.      Number of basis functions:   7 

 Polarized AO type:                A = (O Ot + (1-O)(1-Ot)) P12
 Orthogonalization method:         Symmetric (Loewdin)
 Localization functional:          L = sum[A,i] <i|n_A|i>^4 -> max

 Localization group 1:   4 orbitals, occupancy  2.000
 Iterative localization: IB/PM,    4 iter; Final gradient 0.74E-09

 Bond order analysis:       [THRPRINT= 0.020]

   CEN ATOM   CEN ATOM     WIBERG.BO      RENORM.BO
     1   H  -   2   O       0.638405       1.000000
     1   H  -   3   H       0.319301       0.826530

     2   O  -   1   H       0.638405       1.000000
     2   O  -   3   H       0.416844       1.000000

     3   H  -   2   O       0.416844       1.000000
     3   H  -   1   H       0.319301       0.826530


 Valency analysis:

   CEN ATOM   TOT.VALENCE
     1   H       0.957706
     2   O       1.055249
     3   H       0.736145
 Localization group 2:   2 orbitals, occupancy  1.000
 Iterative localization: IB/PM,    1 iter; Final gradient 0.28E-14

 Bond order analysis:       [THRPRINT= 0.020]

   CEN ATOM   CEN ATOM     WIBERG.BO      RENORM.BO
     1   H  -   2   O       0.029383       0.500000
     1   H  -   3   H       0.028353       0.500000

     2   O  -   3   H       0.470539       0.500000
     2   O  -   1   H       0.029383       0.500000

     3   H  -   2   O       0.470539       0.500000
     3   H  -   1   H       0.028353       0.500000


 Valency analysis:

   CEN ATOM   TOT.VALENCE
     1   H       0.057737
     2   O       0.499923
     3   H       0.498893

 Total charge composition:

   CEN ATOM         s          p       ELECTRONS ->P.CHARGE
     1   H       0.82410                 0.82410    0.17590
     2   O       3.90578    4.30732      8.21310   -0.21310
     3   H       0.96280                 0.96280    0.03720

 Total charge composition, AO contributions:

   CEN ATOM SHL      SPHERICAL COMPONENTS
     1   H  1s       0.82410

     2   O  1s       1.99944
     2   O  2s       1.90634
     2   O  2p       1.62915    1.37085    1.30732

     3   H  1s       0.96280

 Active orbital charges:

   CEN ATOM         s          p       ELECTRONS ->SPIN.DEN
     1   H       0.02975                 0.02975    0.02975
     2   O       0.00384    1.48994      1.49378    1.49378
     3   H       0.47647                 0.47647    0.47647

 Active orbital charges, AO contributions:

   CEN ATOM SHL      SPHERICAL COMPONENTS
     1   H  1s       0.02975

     2   O  1s       0.00002
     2   O  2s       0.00382
     2   O  2p       0.37086    0.62914    0.48994

     3   H  1s       0.47647

 Summary of localized orbital composition:   [THRPRINT= 0.020]

   ORB  GRP  ORB.ENERGY      CENTERS/CHARGES
     1   1   -18.776587      O  2   2.000
     2   1    -0.945152      O  2   1.945   H  3   0.036
     3   1    -0.542034      H  1   0.776   O  2   0.774   H  3   0.450
     4   1    -0.296443      O  2   2.000
     5   2    -0.243013      O  2   1.000
     6   2    -0.195283      O  2   0.494   H  3   0.476   H  1   0.030

 Localized orbitals saved to record      2100.2  (orbital set 2)


 **********************************************************************************************************************************
 DATASETS  * FILE   NREC   LENGTH (MB)   RECORD NAMES
              1      20       30.96       500      610      700      900      950      970     1000      129      960     1100   
                                          VAR    BASINP    GEOM    SYMINP    ZMAT    AOBASIS   BASIS     P2S    ABASIS      S 
                                         1400     1410     1200     1210     1080     1600     1650     1300     1700     1800   
                                           T        V       H0       H01     AOSYM     SMH    MOLCAS    ERIS     OPER     GRID   

              2       5        2.85       700     1000      520     1800     2100   
                                         GEOM     BASIS   MCVARS    GRID      RKS  

 PROGRAMS   *        TOTAL      IBBA        KS       INT
 CPU TIMES  *         5.93      0.02      5.47      0.28
 REAL TIME  *         6.58 SEC
 DISK USED  *        35.62 MB      
 **********************************************************************************************************************************
 Molecular orbitals read from record     2100.2  Type=RKS/LOCAL(IBO)  
 Occupation numbers read from record     2100.2  Type=RKS/LOCAL(IBO)  
 Orbital energies read from record       2100.2  Type=RKS/LOCAL(IBO)  
 Redundancy group numbers read from rec  2100.2  Type=RKS/LOCAL(IBO)  

 IBBA/aug-cc-pVDZ energy=      0.000000000000

        KS-SCF  
    -74.47870274
 **********************************************************************************************************************************
 Molpro calculation terminated
