
 Primary working directories    : /local
 Secondary working directories  : /local
 Wavefunction directory         : /local/
 Main file repository           : /local/

 SHA1      : b4a5b34a9e711420743f49e6833241d17c61fb3c
 NAME      : 2099.9.b4a5b34
 ARCHNAME  : linux/x86_64_openmp
 FC        : /cm/shared/languages/GCC-6.1/bin/gfortran
 BLASLIB   : -lblas
 id        : simonbennie

 Nodes     nprocs
 node32-002    1

 Using customized tuning parameters: mindgm=1; mindgv=20; mindgc=4; mindgr=1; noblas=0; minvec=7
 default implementation of scratch files=df  

 memory,500,m
 geomtyp=xyz
 nosym
 noorient
 geometry={
 H          0.00000        0.00000       -0.86029
 O          0.00000        0.00000        0.32902
 H          0.00000        0.00000       -1.77191
 }
 basis={ default,tzvp }
 {ks,MM06-2X,direct;wf,10,1,2}
 {ibba,bonds=1}

 Variables initialized (895), CPU time= 0.00 sec
 Commands  initialized (725), CPU time= 0.02 sec, 591 directives.
 Default parameters read. Elapsed time= 0.08 sec

 Checking input...
 Passed
1


                                         ***  PROGRAM SYSTEM MOLPRO  ***
                                       Copyright, TTI GmbH Stuttgart, 2015
                                    Version 2099.9 linked May 26 2017 16:03:21


 **********************************************************************************************************************************
 LABEL *                                                                                 
  64 bit serial version                                                                  DATE: 30-Jun-17          TIME: 09:35:59  
 **********************************************************************************************************************************

 SHA1:             b4a5b34a9e711420743f49e6833241d17c61fb3c
 **********************************************************************************************************************************
 SETTING GEOMTYP        =    XYZ

 Variable memory set to  500000000 words,  buffer space 

 ZSYMEL=NOSYM

 SETTING BASIS          =    TZVP


 Recomputing integrals since basis changed


 Using spherical harmonics

 Library entry H      S def2-TZVP            selected for orbital group  1
 Library entry H      P def2-TZVP            selected for orbital group  1
 Library entry O      S def2-TZVP            selected for orbital group  2
 Library entry O      P def2-TZVP            selected for orbital group  2
 Library entry O      D def2-TZVP            selected for orbital group  2
 Library entry O      F def2-TZVP            selected for orbital group  2


 PROGRAM * SEWARD (Integral evaluation for generally contracted gaussian basis sets)     Author: Roland Lindh, 1990

 Geometry written to block  1 of record 700


 Point group  C1  



 ATOMIC COORDINATES

 NR  ATOM    CHARGE       X              Y              Z

   1  H       1.00    0.000000000    0.000000000   -1.625712488
   2  O       8.00    0.000000000    0.000000000    0.621757690
   3  H       1.00    0.000000000    0.000000000   -3.348424617

 Bond lengths in Bohr (Angstrom)

 1-2  2.247470177
     ( 1.189310000)

 NUCLEAR CHARGE:                   10
 NUMBER OF PRIMITIVE AOS:          67
 NUMBER OF SYMMETRY AOS:           62
 NUMBER OF CONTRACTIONS:           43   (  43A   )
 NUMBER OF CORE ORBITALS:           1   (   1A   )
 NUMBER OF VALENCE ORBITALS:        6   (   6A   )


 NUCLEAR REPULSION ENERGY    6.15505865

 EXTRA SYMMETRY OF AOS IN SYMMETRY 1:   1 1 1 2 3 1 1 1 1 1   1 2 3 1 2 3 1 2 3 1   1 4 2 5 3 1 4 2 5 3   2 3 1 6 4 7 5 1 1 1
                                        2 3 1

 Eigenvalues of metric

         1 0.856E-02 0.263E-01 0.314E-01 0.665E-01 0.127E+00 0.165E+00 0.185E+00 0.185E+00


 Contracted 2-electron integrals neglected if value below      1.0D-11
 AO integral compression algorithm  1   Integral accuracy      1.0D-11

     0.786 MB (compressed) written to integral file ( 22.5%)


 NUMBER OF SORTED TWO-ELECTRON INTEGRALS:     447931.     BUFFER LENGTH:  32768
 NUMBER OF SEGMENTS:   1  SEGMENT LENGTH:     447931      RECORD LENGTH: 524288

 Memory used in sort:       1.00 MW

 SORT1 READ      562315. AND WROTE       87184. INTEGRALS IN      1 RECORDS. CPU TIME:     0.01 SEC, REAL TIME:     0.00 SEC
 SORT2 READ       87184. AND WROTE      447931. INTEGRALS IN      3 RECORDS. CPU TIME:     0.03 SEC, REAL TIME:     0.03 SEC

 FILE SIZES:   FILE 1:    30.8 MBYTE,  FILE 4:     4.2 MBYTE,   TOTAL:     35.1 MBYTE

 OPERATOR DM      FOR CENTER  0  COORDINATES:    0.000000    0.000000    0.000000


 **********************************************************************************************************************************
 DATASETS  * FILE   NREC   LENGTH (MB)   RECORD NAMES
              1      19       30.59       500      610      700      900      950      970     1000      129      960     1100   
                                          VAR    BASINP    GEOM    SYMINP    ZMAT    AOBASIS   BASIS     P2S    ABASIS      S 
                                         1400     1410     1200     1210     1080     1600     1650     1300     1700   
                                           T        V       H0       H01     AOSYM     SMH    MOLCAS    ERIS     OPER   

 PROGRAMS   *        TOTAL       INT
 CPU TIMES  *         0.41      0.26
 REAL TIME  *         0.73 SEC
 DISK USED  *        35.37 MB      
 **********************************************************************************************************************************

 Density functional group MM06-2X=M062XX+M062XC
 Functional: M062XX(Automatically generated (new) M062XX)                      Gradient terms: 2
 Functional: M062XC(Automatically generated (new) M062XC)                      Gradient terms: 2
 Use grid at  1800.2


 Exact exchange will be calculated, factor:  0.5400

 Functional: M062XX                    Factor:  0.4600
 Functional: M062XC                    Factor:  1.0000

 Generated new metagrid on record  1800.2 with target accuracy 1.0D-06 and 10804 points in CPU time    0.2
 Computed new grid on record 1800.1 in CPU time    0.2
   70757 words reserved for DFT integration

 PROGRAM * RKS-SCF (Restricted open shell Kohn-Sham)     Authors: W. Meyer, H.-J. Werner, P.J. Knowles, 1993

 NUMBER OF ELECTRONS:       6+    4-    SPACE SYMMETRY=1    SPIN SYMMETRY: Triplet 
 CONVERGENCE THRESHOLDS:    1.00E-05 (Density)    1.00E-06 (Energy)
 MAX. NUMBER OF ITERATIONS:       60
 INTERPOLATION TYPE:            DIIS
 INTERPOLATION STEPS:              2 (START)      1 (STEP)
 LEVEL SHIFTS:                 -0.60 (CLOSED) -0.30 (OPEN) 



 Use fine grid record 1800.2 for energy threshold  1.0D-06
 Orbital guess generated from atomic densities. Full valence occupancy:    5

 Molecular orbital dump at record        2100.2

 Initial alpha occupancy:   6
 Initial beta  occupancy:   4
 Wave function symmetry:    1

 ITERATION    DDIFF          GRAD             ENERGY        2-EL.EN.            DIPOLE MOMENTS         DIIS   ORB.
    1      0.000D+00      0.000D+00       -74.01756480     73.407280   -0.00000   -0.00000   -0.46952    0    start
    2      0.000D+00      0.107D-01       -74.03617628     76.190826    0.00000   -0.00000   -0.60058    1    diag,B
    3      0.596D-02      0.512D-02       -74.04075837     75.275695    0.00000   -0.00000   -0.45201    2    diag,B
    4      0.191D-02      0.639D-03       -74.04111312     75.351870    0.00000   -0.00000   -0.43320    3    diag,B
    5      0.686D-03      0.281D-03       -74.04123941     75.347611    0.00000   -0.00000   -0.41332    4    diag,B
    6      0.425D-03      0.131D-03       -74.04128087     75.342847    0.00000   -0.00000   -0.40431    5    diag,B
    7      0.213D-03      0.846D-04       -74.04131103     75.336561    0.00000    0.00000   -0.39448    6    fixocc
    8      0.269D-03      0.427D-04       -74.04132030     75.335601    0.00000    0.00000   -0.39193    7    diag,B
    9      0.101D-03      0.376D-04       -74.04132908     75.335376    0.00000    0.00000   -0.39151    8    diag,B
   10      0.796D-04      0.362D-04       -74.04136793     75.335561    0.00000    0.00000   -0.39116    9    orth
   11      0.383D-03      0.305D-04       -74.04142978     75.334290   -0.00000    0.00000   -0.39100    9    diag,B
   12      0.102D-02      0.262D-04       -74.04142980     75.334549   -0.00000    0.00000   -0.39104    9    diag,B
   13      0.438D-05      0.210D-04       -74.04143622     75.334661   -0.00000    0.00000   -0.39088    9    diag,B
   14      0.423D-03      0.147D-04       -74.04143626     75.335164   -0.00000    0.00000   -0.39110    9    diag,B
   15      0.189D-04      0.257D-05       -74.04143630     75.335377   -0.00000    0.00000   -0.39104    9    diag,B
   16      0.341D-04      0.726D-06       -74.04143630     75.335355   -0.00000    0.00000   -0.39108    9    diag,B
   17      0.190D-05      0.422D-06       -74.04143630     75.335361   -0.00000    0.00000   -0.39108    0    orth

 Final alpha occupancy:   6
 Final beta  occupancy:   4

 !RKS STATE 1.1 Energy                -74.041436304931
 Nuclear energy                         6.15505865
 One-electron energy                 -115.71540799
 Two-electron energy                   37.66768032
 Density functional                    -2.14876729     M062XX=-3.97480160 M062XC=-0.32035855
 Virial quotient                       -1.00095839
 !RKS STATE 1.1 Dipole moment          -0.00000000     0.00000000    -0.39108170
 Dipole moment /Debye                  -0.00000000     0.00000000    -0.99396542

 Orbital energies:

         1.1          2.1          3.1          4.1          5.1          6.1          7.1          8.1
    -19.257146    -0.992636    -0.490472    -0.351030    -0.429299    -0.312843     0.206638     0.293329

 HOMO      6.1    -0.312843 =      -8.5129eV
 LUMO      7.1     0.206638 =       5.6229eV
 LUMO-HOMO         0.519481 =      14.1358eV


 **********************************************************************************************************************************
 DATASETS  * FILE   NREC   LENGTH (MB)   RECORD NAMES
              1      20       30.94       500      610      700      900      950      970     1000      129      960     1100   
                                          VAR    BASINP    GEOM    SYMINP    ZMAT    AOBASIS   BASIS     P2S    ABASIS      S 
                                         1400     1410     1200     1210     1080     1600     1650     1300     1700     1800   
                                           T        V       H0       H01     AOSYM     SMH    MOLCAS    ERIS     OPER     GRID   

              2       5        2.84       700     1000      520     1800     2100   
                                         GEOM     BASIS   MCVARS    GRID      RKS  

 PROGRAMS   *        TOTAL        KS       INT
 CPU TIMES  *         6.90      6.49      0.26
 REAL TIME  *         7.55 SEC
 DISK USED  *        35.37 MB      
 **********************************************************************************************************************************


 PROGRAM * Intrinsic Basis Bonding Analysis (IBBA)          Author: G. Knizia

 Molecular orbitals read from record     2100.2  Type=RKS/CANONICAL (state 1.1)
 Fock matrix read from record            2100.2  Type=RKS/TOTAL (state 1.1)
 Orbital energies read from record       2100.2  Type=RKS/CANONICAL (state 1.1)
 Density matrix read from record         2100.2  Type=RKS/CHARGE (state 1.1)

 Number of core orbitals:           1 (   1 )
 Number of closed-shell orbitals:   3 (   3 )
 Number of active  orbitals:        2 (   2 )

 Basis set MINAO-AUTO-PP generated.      Number of basis functions:   7 

 Polarized AO type:                A = (O Ot + (1-O)(1-Ot)) P12
 Orthogonalization method:         Symmetric (Loewdin)
 Localization functional:          L = sum[A,i] <i|n_A|i>^4 -> max

 Localization group 1:   4 orbitals, occupancy  2.000
 Iterative localization: IB/PM,    4 iter; Final gradient 0.45E-09

 Bond order analysis:       [THRPRINT= 0.020]

   CEN ATOM   CEN ATOM     WIBERG.BO      RENORM.BO
     1   H  -   2   O       0.611604       1.000000
     1   H  -   3   H       0.355233       0.830866

     2   O  -   1   H       0.611604       1.000000
     2   O  -   3   H       0.416991       1.000000

     3   H  -   2   O       0.416991       1.000000
     3   H  -   1   H       0.355233       0.830866


 Valency analysis:

   CEN ATOM   TOT.VALENCE
     1   H       0.966837
     2   O       1.028594
     3   H       0.772224
 Localization group 2:   2 orbitals, occupancy  1.000
 Iterative localization: IB/PM,    1 iter; Final gradient 0.58E-14

 Bond order analysis:       [THRPRINT= 0.020]

   CEN ATOM   CEN ATOM     WIBERG.BO      RENORM.BO
     1   H  -   2   O       0.024906       0.500000
     1   H  -   3   H       0.021791       0.500000

     2   O  -   3   H       0.474246       0.500000
     2   O  -   1   H       0.024906       0.500000

     3   H  -   2   O       0.474246       0.500000
     3   H  -   1   H       0.021791       0.500000


 Valency analysis:

   CEN ATOM   TOT.VALENCE
     1   H       0.046697
     2   O       0.499152
     3   H       0.496037

 Total charge composition:

   CEN ATOM         s          p       ELECTRONS ->P.CHARGE
     1   H       0.84181                 0.84181    0.15819
     2   O       3.90526    4.27470      8.17996   -0.17996
     3   H       0.97823                 0.97823    0.02177

 Total charge composition, AO contributions:

   CEN ATOM SHL      SPHERICAL COMPONENTS
     1   H  1s       0.84181

     2   O  1s       1.99943
     2   O  2s       1.90583
     2   O  2p       1.49994    1.50006    1.27470

     3   H  1s       0.97823

 Active orbital charges:

   CEN ATOM         s          p       ELECTRONS ->SPIN.DEN
     1   H       0.02392                 0.02392    0.02392
     2   O       0.00362    1.51697      1.52059    1.52059
     3   H       0.45549                 0.45549    0.45549

 Active orbital charges, AO contributions:

   CEN ATOM SHL      SPHERICAL COMPONENTS
     1   H  1s       0.02392

     2   O  1s       0.00002
     2   O  2s       0.00360
     2   O  2p       0.50006    0.49994    0.51697

     3   H  1s       0.45549

 Summary of localized orbital composition:   [THRPRINT= 0.020]

   ORB  GRP  ORB.ENERGY      CENTERS/CHARGES
     1   1   -19.127282      O  2   2.000
     2   1    -1.029117      O  2   1.944   H  3   0.036
     3   1    -0.583854      H  1   0.798   O  2   0.716   H  3   0.486
     4   1    -0.351029      O  2   2.000
     5   2    -0.228565      O  2   1.000
     6   2    -0.182986      O  2   0.521   H  3   0.455   H  1   0.024

 Localized orbitals saved to record      2100.2  (orbital set 2)


 **********************************************************************************************************************************
 DATASETS  * FILE   NREC   LENGTH (MB)   RECORD NAMES
              1      20       30.94       500      610      700      900      950      970     1000      129      960     1100   
                                          VAR    BASINP    GEOM    SYMINP    ZMAT    AOBASIS   BASIS     P2S    ABASIS      S 
                                         1400     1410     1200     1210     1080     1600     1650     1300     1700     1800   
                                           T        V       H0       H01     AOSYM     SMH    MOLCAS    ERIS     OPER     GRID   

              2       5        2.85       700     1000      520     1800     2100   
                                         GEOM     BASIS   MCVARS    GRID      RKS  

 PROGRAMS   *        TOTAL      IBBA        KS       INT
 CPU TIMES  *         6.92      0.01      6.49      0.26
 REAL TIME  *         7.63 SEC
 DISK USED  *        35.37 MB      
 **********************************************************************************************************************************
 Molecular orbitals read from record     2100.2  Type=RKS/LOCAL(IBO)  
 Occupation numbers read from record     2100.2  Type=RKS/LOCAL(IBO)  
 Orbital energies read from record       2100.2  Type=RKS/LOCAL(IBO)  
 Redundancy group numbers read from rec  2100.2  Type=RKS/LOCAL(IBO)  

 IBBA/TZVP energy=      0.000000000000

        KS-SCF  
    -74.04143630
 **********************************************************************************************************************************
 Molpro calculation terminated
