
 Primary working directories    : /local
 Secondary working directories  : /local
 Wavefunction directory         : /local/
 Main file repository           : /local/

 SHA1      : b4a5b34a9e711420743f49e6833241d17c61fb3c
 NAME      : 2099.9.b4a5b34
 ARCHNAME  : linux/x86_64_openmp
 FC        : /cm/shared/languages/GCC-6.1/bin/gfortran
 BLASLIB   : -lblas
 id        : simonbennie

 Nodes     nprocs
 node34-040    1

 Using customized tuning parameters: mindgm=1; mindgv=20; mindgc=4; mindgr=1; noblas=0; minvec=7
 default implementation of scratch files=df  

 memory,500,m
 geomtyp=xyz
 nosym
 noorient
 geometry={
 H          1.26210       -0.22010        0.00000
 S          0.00000        0.22315        0.00000
 H         -0.50058       -1.11545        0.00000
 H         -0.76152       -2.23491        0.00000
 }
 basis={ default,tzvp }
 {df-ks,M06-2X,direct;disp;wf,19,1,1}
 {ibba,bonds=1}

 Variables initialized (895), CPU time= 0.01 sec
 Commands  initialized (725), CPU time= 0.01 sec, 591 directives.
 Default parameters read. Elapsed time= 0.11 sec

 Checking input...
 Passed
1


                                         ***  PROGRAM SYSTEM MOLPRO  ***
                                       Copyright, TTI GmbH Stuttgart, 2015
                                    Version 2099.9 linked May 26 2017 16:03:21


 **********************************************************************************************************************************
 LABEL *                                                                                 
  64 bit serial version                                                                  DATE: 16-Mar-18          TIME: 22:15:02  
 **********************************************************************************************************************************

 SHA1:             b4a5b34a9e711420743f49e6833241d17c61fb3c
 **********************************************************************************************************************************
 SETTING GEOMTYP        =    XYZ

 Variable memory set to  500000000 words,  buffer space 

 ZSYMEL=NOSYM

 SETTING BASIS          =    TZVP


 Recomputing integrals since basis changed


 Using spherical harmonics

 Library entry H      S def2-TZVP            selected for orbital group  1
 Library entry H      P def2-TZVP            selected for orbital group  1
 Library entry S      S def2-TZVP            selected for orbital group  2
 Library entry S      P def2-TZVP            selected for orbital group  2
 Library entry S      D def2-TZVP            selected for orbital group  2
 Library entry S      F def2-TZVP            selected for orbital group  2


 PROGRAM * SEWARD (Integral evaluation for generally contracted gaussian basis sets)     Author: Roland Lindh, 1990

 Geometry written to block  1 of record 700


 Point group  C1  



 ATOMIC COORDINATES

 NR  ATOM    CHARGE       X              Y              Z

   1  H       1.00    2.385023342   -0.415928720    0.000000000
   2  S      16.00    0.000000000    0.421692385    0.000000000
   3  H       1.00   -0.945959103   -2.107895006    0.000000000
   4  H       1.00   -1.439064238   -4.223367813    0.000000000

 Bond lengths in Bohr (Angstrom)

 1-2  2.527834143  2-3  2.700676025
     ( 1.337672222)     ( 1.429136206)

 Bond angles

  1-2-3   91.15238463

 NUCLEAR CHARGE:                   19
 NUMBER OF PRIMITIVE AOS:          93
 NUMBER OF SYMMETRY AOS:           87
 NUMBER OF CONTRACTIONS:           55   (  55A   )
 NUMBER OF CORE ORBITALS:           5   (   5A   )
 NUMBER OF VALENCE ORBITALS:        7   (   7A   )


 NUCLEAR REPULSION ENERGY   16.45755001

 EXTRA SYMMETRY OF AOS IN SYMMETRY 1:   1 1 1 1 1 2 1 1 1 1   1 1 1 2 1 1 2 1 1 2   1 1 2 1 1 2 1 1 2 1   2 1 1 2 1 2 1 1 2 1
                                        2 1 2 1 1 1 1 1 2 1   1 1 1 1 2

 Eigenvalues of metric

         1 0.103E-01 0.166E-01 0.225E-01 0.343E-01 0.527E-01 0.572E-01 0.589E-01 0.766E-01


 OPERATOR DM      FOR CENTER  0  COORDINATES:    0.000000    0.000000    0.000000


 **********************************************************************************************************************************
 DATASETS  * FILE   NREC   LENGTH (MB)   RECORD NAMES
              1      18       30.12       500      610      700      900      950      970     1000      129      960     1100   
                                          VAR    BASINP    GEOM    SYMINP    ZMAT    AOBASIS   BASIS     P2S    ABASIS      S 
                                         1400     1410     1200     1210     1080     1600     1650     1700   
                                           T        V       H0       H01     AOSYM     SMH    MOLCAS    OPER   

 PROGRAMS   *        TOTAL       INT
 CPU TIMES  *         0.39      0.22
 REAL TIME  *        13.03 SEC
 DISK USED  *        30.45 MB      
 **********************************************************************************************************************************

 Density functional group M06-2X=XC-M06-2X
 Functional: XC-M06-2X(via MFM 1.6)                                            Gradient terms: 1

 dispersion correction activated
 Density functional: M06-2X  
 functional not in list, set to default 


 Exact exchange will be calculated, factor:  0.5400

 Functional: XC-M06-2X                 Factor:  1.0000

 Use grid at  1800.2


 Exact exchange will be calculated, factor:  0.5400

 Functional: XC-M06-2X                 Factor:  1.0000

 Generated new metagrid on record  1800.2 with target accuracy 1.0D-06 and 14832 points in CPU time    0.3
 Computed new grid on record 1800.1 in CPU time    0.3
   47647 words reserved for DFT integration

 PROGRAM * RKS-SCF (Restricted open shell Kohn-Sham)     Authors: W. Meyer, H.-J. Werner, P.J. Knowles, 1993

 NUMBER OF ELECTRONS:      10+    9-    SPACE SYMMETRY=1    SPIN SYMMETRY: Doublet 
 CONVERGENCE THRESHOLDS:    1.00E-05 (Density)    1.00E-06 (Energy)
 INTEGRAL THRESHOLDS:       1.00E-11 (Initial)    1.00E-11 (Final)
 MAX. NUMBER OF ITERATIONS:       60
 INTERPOLATION TYPE:            DIIS
 INTERPOLATION STEPS:              2 (START)      1 (STEP)
 LEVEL SHIFTS:                 -0.60 (CLOSED) -0.30 (OPEN) 



 Use fine grid record 1800.2 for energy threshold  1.0D-06

 Basis set DEF2-TZVPP/JKFIT generated.   Number of basis functions:   182 

 Orbital guess generated from atomic densities. Full valence occupancy:   10
 Using density fitting in orbital guess

 Coulomb and exchange fitting
 Thresholds for fitting:       THRAO_COUL= 1.0D-14    THRAO_EXCH= 1.0D-12    THRMO= 1.0D-11    THRPROD= 1.0D-11    THRASM= 1.0D-11
                               THR2HLF=    1.0D-11

 Molecular orbital dump at record        2100.2

 Initial alpha occupancy:  10
 Initial beta  occupancy:   9
 Wave function symmetry:    1

 ITERATION   DDIFF            GRAD            ENERGY        2-EL.EN.            DIPOLE MOMENTS         DIIS   CPU(IT)  CPU(TOT)  ORB.
    1      0.000D+00      0.000D+00      -399.84989105    363.594221    0.30402   -0.90050    0.00000    0      0.5      0.9     start
    2      0.000D+00      0.428D-02      -399.86512580    360.915642    0.26103   -0.35043   -0.00000    1      0.5      1.4     diag,B
    3      0.438D-02      0.148D-02      -399.86638809    361.388174    0.24012   -0.36530   -0.00000    2      0.5      1.9     diag,B
    4      0.119D-02      0.539D-03      -399.86703537    361.405065    0.22556   -0.35714   -0.00000    3      0.5      2.4     diag,B
    5      0.847D-03      0.290D-03      -399.86738460    361.415861    0.21451   -0.35833   -0.00000    4      0.5      3.0     diag,B
    6      0.743D-03      0.139D-03      -399.86751026    361.423474    0.20797   -0.36756   -0.00000    5      0.5      3.5     diag,B
    7      0.522D-03      0.584D-04      -399.86753288    361.426513    0.20565   -0.37443   -0.00000    6      0.5      4.0     fixocc
    8      0.231D-03      0.190D-04      -399.86753475    361.427809    0.20498   -0.37706   -0.00000    7      0.5      4.5     diag,B
    9      0.715D-04      0.486D-05      -399.86753482    361.428379    0.20489   -0.37778   -0.00000    8      0.5      5.0     diag,B
   10      0.141D-04      0.106D-05      -399.86753482    361.428464    0.20489   -0.37792   -0.00000    9      0.5      5.6     orth
   11      0.291D-05      0.350D-06      -399.86753482    361.428459    0.20490   -0.37794    0.00000    0      0.5      6.1     orth

 Dispersion correction
 - - - - - - - - - - - 
  _________________________________
                                   
 |         DFTD3 V1.3 Rev 1        |
 | S.Grimme, University Muenster   |
 | Fri Jul  2 12:48:21 CEST 2010   |
  _________________________________

 Please cite DFT-D3 work done with this code as:
 S. Grimme, J. Antony, S. Ehrlich and H. Krieg,
 J. Chem. Phys, 132 (2010), 154104.
 For DFT-D2 the reference is
 S. Grimme, J. Comput. Chem., 27 (2006), 1787-1799

 C6 coefficients used:
                    2  C6 for element                     1
 Z=  1 CN=   0.912     C6(AA)=    3.03
 Z=  1 CN=   0.000     C6(AA)=    7.59
                    3  C6 for element                    16
 Z= 16 CN=   0.000     C6(AA)=  134.01
 Z= 16 CN=   0.995     C6(AA)=  131.00
 Z= 16 CN=   1.990     C6(AA)=  125.81

 #           XYZ [au]               R0(AA) [Ang.]   CN       C6(AA)     C8(AA)   C10(AA) [au]
  1   2.38502  -0.41593   0.00000   h   1.091  0.995         3.1        37.4       553.6
  2   0.00000   0.42169   0.00000   s   1.655  1.985       125.9      6168.5    370198.5
  3  -0.94596  -2.10790   0.00000   h   1.091  0.998         3.1        37.4       553.4
  4  -1.43906  -4.22337   0.00000   h   1.091  0.023         7.4        89.0      1317.5

 molecular C6(AA) [au] =       303.95

           DFT-D V3
 DF pbe                                               
 parameters
 s6       :    1.0000
 s8       :    0.7220
 rs6      :    1.2170
 alpha6   :   14.0000
 alpha8   :   16.0000
 k1-k3    :   16.0000    1.3333   -4.0000

 Edisp /kcal,au:    -0.2208 -0.00035190

 E6    /kcal :    -0.0517
 E8    /kcal :    -0.1691
 % E8        : 76.57
 normal termination of dftd3

 RKS STATE 1.1 ENERGY+DISP     -399.86788672

 Final alpha occupancy:  10
 Final beta  occupancy:   9

 !RKS STATE 1.1 Energy               -399.867886722007
 Nuclear energy                        16.45755001
 One-electron energy                 -584.38755434
 Two-electron energy                  180.71422934
 Density functional                   -12.65175983     XC-M06-2X=-12.65175983
 Virial quotient                       -1.00122929
 !RKS STATE 1.1 Dipole moment           0.20489511    -0.37794288     0.00000000
 Dipole moment /Debye                   0.52075730    -0.96057205     0.00000000

 Orbital energies:

         1.1          2.1          3.1          4.1          5.1          6.1          7.1          8.1          9.1         10.1
    -89.909174    -8.268727    -6.187978    -6.186548    -6.182803    -0.825509    -0.520592    -0.443473    -0.321843    -0.341744

        11.1         12.1
      0.054361     0.107284

 HOMO     10.1    -0.341744 =      -9.2993eV
 LUMO     11.1     0.054361 =       1.4792eV
 LUMO-HOMO         0.396105 =      10.7786eV


 **********************************************************************************************************************************
 DATASETS  * FILE   NREC   LENGTH (MB)   RECORD NAMES
              1      19       30.59       500      610      700      900      950      970     1000      129      960     1100   
                                          VAR    BASINP    GEOM    SYMINP    ZMAT    AOBASIS   BASIS     P2S    ABASIS      S 
                                         1400     1410     1200     1210     1080     1600     1650     1700     1800   
                                           T        V       H0       H01     AOSYM     SMH    MOLCAS    OPER     GRID   

              2       5        2.91       700     1000      520     1800     2100   
                                         GEOM     BASIS   MCVARS    GRID      RKS  

 PROGRAMS   *        TOTAL        KS       INT
 CPU TIMES  *         6.77      6.38      0.22
 REAL TIME  *        47.93 SEC
 DISK USED  *        35.07 MB      
 **********************************************************************************************************************************


 PROGRAM * Intrinsic Basis Bonding Analysis (IBBA)          Author: G. Knizia

 Molecular orbitals read from record     2100.2  Type=RKS/CANONICAL (state 1.1)
 Fock matrix read from record            2100.2  Type=RKS/TOTAL (state 1.1)
 Orbital energies read from record       2100.2  Type=RKS/CANONICAL (state 1.1)
 Density matrix read from record         2100.2  Type=RKS/CHARGE (state 1.1)

 Number of core orbitals:           5 (   5 )
 Number of closed-shell orbitals:   4 (   4 )
 Number of active  orbitals:        1 (   1 )

 Basis set MINAO-AUTO-PP generated.      Number of basis functions:   12 

 Polarized AO type:                A = (O Ot + (1-O)(1-Ot)) P12
 Orthogonalization method:         Symmetric (Loewdin)
 Localization functional:          L = sum[A,i] <i|n_A|i>^4 -> max

 Localization group 1:   9 orbitals, occupancy  2.000
 Iterative localization: IB/PM,    5 iter; Final gradient 0.13E-08

 Bond order analysis:       [THRPRINT= 0.020]

   CEN ATOM   CEN ATOM     WIBERG.BO      RENORM.BO
     1   H  -   2   S       0.988290       1.000000

     2   S  -   1   H       0.988290       1.000000
     2   S  -   3   H       0.802075       1.000000
     2   S  -   4   H       0.235447       1.000000

     3   H  -   2   S       0.802075       1.000000
     3   H  -   4   H       0.194116       0.837001

     4   H  -   2   S       0.235447       1.000000
     4   H  -   3   H       0.194116       0.837001


 Valency analysis:

   CEN ATOM   TOT.VALENCE
     1   H       0.990332
     2   S       2.025813
     3   H       0.996889
     4   H       0.430907
 Localization group 2:   1 orbitals, occupancy  1.000
 Iterative localization: IB/PM,    1 iter; Final gradient 0.00E+00

 Bond order analysis:       [THRPRINT= 0.020]

   CEN ATOM   CEN ATOM     WIBERG.BO      RENORM.BO

     2   S  -   4   H       0.388527       0.500000


     4   H  -   2   S       0.388527       0.500000


 Valency analysis:

   CEN ATOM   TOT.VALENCE
     1   H       0.000872
     2   S       0.391709
     3   H       0.010973
     4   H       0.397180

 Total charge composition:

   CEN ATOM         s          p       ELECTRONS ->P.CHARGE
     1   H       0.90211                 0.90211    0.09789
     2   S       5.72061   10.45519     16.17579   -0.17579
     3   H       0.94974                 0.94974    0.05026
     4   H       0.97236                 0.97236    0.02764

 Total charge composition, AO contributions:

   CEN ATOM SHL      SPHERICAL COMPONENTS
     1   H  1s       0.90211

     2   S  1s       1.99991
     2   S  2s       1.99463
     2   S  3s       1.72607
     2   S  2p       1.99935    1.99953    2.00000
     2   S  3p       1.14819    1.30811    2.00000

     3   H  1s       0.94974

     4   H  1s       0.97236

 Active orbital charges:

   CEN ATOM         s          p       ELECTRONS ->SPIN.DEN
     1   H       0.00044                 0.00044    0.00044
     2   S       0.00423    0.26308      0.26731    0.26731
     3   H       0.00552                 0.00552    0.00552
     4   H       0.72674                 0.72674    0.72674

 Active orbital charges, AO contributions:

   CEN ATOM SHL      SPHERICAL COMPONENTS
     1   H  1s       0.00044

     2   S  1s       0.00000
     2   S  2s       0.00003
     2   S  3s       0.00420
     2   S  2p       0.00000    0.00000    0.00000
     2   S  3p       0.03255    0.23053    0.00000

     3   H  1s       0.00552

     4   H  1s       0.72674

 Summary of localized orbital composition:   [THRPRINT= 0.020]

   ORB  GRP  ORB.ENERGY      CENTERS/CHARGES
     1   1   -88.735815      S  2   2.000
     2   1    -8.912596      S  2   2.000
     3   1    -6.475546      S  2   2.000
     4   1    -6.182803      S  2   2.000
     5   1    -6.162759      S  2   2.000
     6   1    -0.788645      S  2   1.968   H  4   0.027
     7   1    -0.660344      S  2   1.099   H  1   0.901
     8   1    -0.606297      H  3   0.939   S  2   0.842   H  4   0.218
     9   1    -0.321843      S  2   2.000
    10   2    -0.221070      H  4   0.727   S  2   0.267

 Localized orbitals saved to record      2100.2  (orbital set 2)


 **********************************************************************************************************************************
 DATASETS  * FILE   NREC   LENGTH (MB)   RECORD NAMES
              1      19       30.59       500      610      700      900      950      970     1000      129      960     1100   
                                          VAR    BASINP    GEOM    SYMINP    ZMAT    AOBASIS   BASIS     P2S    ABASIS      S 
                                         1400     1410     1200     1210     1080     1600     1650     1700     1800   
                                           T        V       H0       H01     AOSYM     SMH    MOLCAS    OPER     GRID   

              2       5        2.93       700     1000      520     1800     2100   
                                         GEOM     BASIS   MCVARS    GRID      RKS  

 PROGRAMS   *        TOTAL      IBBA        KS       INT
 CPU TIMES  *         6.79      0.02      6.38      0.22
 REAL TIME  *        47.96 SEC
 DISK USED  *        35.07 MB      
 **********************************************************************************************************************************

 IBBA/TZVP energy=      0.000000000000

        DF-KS   
   -399.86788672
 **********************************************************************************************************************************
 Molpro calculation terminated
