
 Primary working directories    : /local/molpro.gLstVO8rMt
 Secondary working directories  : /local/molpro.gLstVO8rMt
 Wavefunction directory         : /local/
 Main file repository           : /local/molpro.gLstVO8rMt/

 id        : simonbennie

 Nodes     nprocs
 node33-007    1

 Using customized tuning parameters: mindgm=1; mindgv=20; mindgc=4; mindgr=1; noblas=0; minvec=7
 default implementation of scratch files=df  

 memory,500,m
 geomtyp=xyz
 nosym
 noorient
 geometry={
 H          1.26210       -0.22010        0.00000
 S          0.00000        0.22315        0.00000
 H         -0.50058       -1.11545        0.00000
 H         -0.76152       -2.23491        0.00000
 }
 basis={default,sto-3g}
 {uhf,direct;wf,19,1,1}
 
 basis={ default,6-31+G(d,p) }
 {uks,B3LYP5,direct;wf,19,1,1}
 {ibba,bonds=1}

 Variables initialized (920), CPU time= 0.01 sec
 Commands  initialized (754), CPU time= 0.01 sec, 615 directives.
 Default parameters read. Elapsed time= 0.08 sec

 Checking input...
 Passed
1


                                         ***  PROGRAM SYSTEM MOLPRO  ***
                                       Copyright, TTI GmbH Stuttgart, 2015
                                    Version 2018.0 linked Jul  6 2018 18:07:13


 **********************************************************************************************************************************
 LABEL *                                                                                 
  64 bit serial version                                                                  DATE: 10-Oct-18          TIME: 20:13:18  
 **********************************************************************************************************************************

 SHA1:             b58f8fddb9d75525be9261ebe3faf0e4279c479b
 **********************************************************************************************************************************
 SETTING GEOMTYP        =    XYZ

 Variable memory set to  500000000 words,  buffer space 

 ZSYMEL=NOSYM

 SETTING BASIS          =    STO-3G


 Recomputing integrals since basis changed


 Using spherical harmonics

 Library entry H      S STO-3G               selected for orbital group  1
 Library entry S      S STO-3G               selected for orbital group  2
 Library entry S      P STO-3G               selected for orbital group  2


 PROGRAM * SEWARD (Integral evaluation for generally contracted gaussian basis sets)     Author: Roland Lindh, 1990

 Geometry written to block  1 of record 700


 Point group  C1  



 ATOMIC COORDINATES

 NR  ATOM    CHARGE       X              Y              Z

   1  H       1.00    2.385023342   -0.415928720    0.000000000
   2  S      16.00    0.000000000    0.421692385    0.000000000
   3  H       1.00   -0.945959103   -2.107895006    0.000000000
   4  H       1.00   -1.439064238   -4.223367813    0.000000000

 Bond lengths in Bohr (Angstrom)

 1-2  2.527834143  2-3  2.700676025
     ( 1.337672222)     ( 1.429136206)

 Bond angles

  1-2-3   91.15238463

 NUCLEAR CHARGE:                   19
 NUMBER OF PRIMITIVE AOS:          36
 NUMBER OF SYMMETRY AOS:           36
 NUMBER OF CONTRACTIONS:           12   (  12A   )
 NUMBER OF CORE ORBITALS:           5   (   5A   )
 NUMBER OF VALENCE ORBITALS:        7   (   7A   )


 NUCLEAR REPULSION ENERGY   16.45755001

 EXTRA SYMMETRY OF AOS IN SYMMETRY 1:   1 1 1 1 1 1 2 1 1 2   1 1

 Eigenvalues of metric

         1 0.316E+00 0.419E+00 0.619E+00 0.743E+00 0.772E+00 0.849E+00 0.106E+01 0.118E+01


 Contracted 2-electron integrals neglected if value below      1.0D-11
 AO integral compression algorithm  1   Integral accuracy      1.0D-11

     0.262 MB (compressed) written to integral file ( 85.5%)


 NUMBER OF SORTED TWO-ELECTRON INTEGRALS:       3081.     BUFFER LENGTH:  32768
 NUMBER OF SEGMENTS:   1  SEGMENT LENGTH:       3081      RECORD LENGTH: 524288

 Memory used in sort:       0.56 MW

 SORT1 READ        5155. AND WROTE        1533. INTEGRALS IN      1 RECORDS. CPU TIME:     0.00 SEC, REAL TIME:     0.01 SEC
 SORT2 READ        1533. AND WROTE        3081. INTEGRALS IN      1 RECORDS. CPU TIME:     0.01 SEC, REAL TIME:     0.00 SEC

 FILE SIZES:   FILE 1:    30.3 MBYTE,  FILE 4:     4.2 MBYTE,   TOTAL:     34.5 MBYTE

 OPERATOR DM      FOR CENTER  0  COORDINATES:    0.000000    0.000000    0.000000


 **********************************************************************************************************************************
 DATASETS  * FILE   NREC   LENGTH (MB)   RECORD NAMES
              1      19       30.01       500      610      700      900      950      970     1000      129      960     1100   
                                          VAR    BASINP    GEOM    SYMINP    ZMAT    AOBASIS   BASIS     P2S    ABASIS      S 
                                         1400     1410     1200     1210     1080     1600     1650     1300     1700   
                                           T        V       H0       H01     AOSYM     SMH    MOLCAS    ERIS     OPER   

 PROGRAMS   *        TOTAL       INT
 CPU TIMES  *         0.42      0.27
 REAL TIME  *         0.69 SEC
 DISK USED  *        34.80 MB
 **********************************************************************************************************************************


 PROGRAM * UHF-SCF       Authors: W. Meyer, H.-J. Werner


 NUMBER OF ELECTRONS:      10+    9-    SPACE SYMMETRY=1    SPIN SYMMETRY: Doublet 
 CONVERGENCE THRESHOLDS:    1.00E-05 (Density)    1.00E-07 (Energy)
 INTEGRAL THRESHOLDS:       1.00E-11 (Initial)    1.00E-11 (Final)
 MAX. NUMBER OF ITERATIONS:       60
 INTERPOLATION TYPE:            DIIS
 INTERPOLATION STEPS:              2 (START)      1 (STEP)
 LEVEL SHIFTS:                 -0.20 (ALPHA)  -0.20 (BETA) 



 Orbital guess generated from atomic densities. Full valence occupancy:   10

 Molecular orbital dump at record        2200.2

 Initial alpha occupation  10
 Initial beta  occupation   9

 Direct Fock-matrix evaluation.        Author: H.-J. Werner (1996)

 Integral Threshold:                  0.1D-10

 ITERATION   DDIFF            GRAD            ENERGY        2-EL.EN.            DIPOLE MOMENTS         DIIS   CPU(IT)  CPU(TOT)
    1      0.000D+00      0.000D+00      -394.67265516    346.045909    0.44110   -1.57261    0.00000    0      0.7      1.4
    2      0.519D-01      0.232D-01      -394.74679057    342.405769    0.23427   -0.77824    0.00000    1      0.4      1.7
    3      0.263D-01      0.949D-02      -394.76158863    340.734696    0.15298   -0.37065    0.00000    2      0.4      2.1
    4      0.559D-02      0.314D-02      -394.76338110    340.605693    0.16825   -0.31542    0.00000    3      0.4      2.5
    5      0.244D-02      0.114D-02      -394.76369642    340.645976    0.18126   -0.31917    0.00000    4      0.4      2.9
    6      0.503D-03      0.255D-03      -394.76371036    340.656143    0.17778   -0.32664    0.00000    5      0.4      3.3
    7      0.177D-03      0.728D-04      -394.76371170    340.658556    0.17680   -0.32808    0.00000    6      0.4      3.7
    8      0.124D-03      0.324D-04      -394.76371215    340.657522    0.17686   -0.32753    0.00000    6      0.4      4.0
    9      0.546D-04      0.127D-04      -394.76371222    340.656835    0.17719   -0.32702   -0.00000    6      0.4      4.4
   10      0.167D-04      0.414D-05      -394.76371223    340.656727    0.17730   -0.32687    0.00000    6      0.4      4.8
   11      0.584D-05      0.185D-05      -394.76371223    340.656713    0.17731   -0.32685   -0.00000    6      0.4      5.2
   12      0.678D-06      0.300D-06      -394.76371223    340.656710    0.17731   -0.32685    0.00000    6      0.4      5.6

 Final alpha occupancy:  10
 Final beta  occupancy:   9

 !UHF STATE  1.1 Energy              -394.763712226565
 Nuclear energy                        16.45755001
 One-electron energy                 -581.54961734
 Two-electron energy                  170.32835510
 Virial quotient                       -1.01096110
 !UHF STATE  1.1 Dipole moment          0.17730506    -0.32684925     0.00000000
 Dipole moment /Debye                   0.45063499    -0.83071351     0.00000000

 Orbital energies for positive spin:

         1.1          2.1          3.1          4.1          5.1          6.1          7.1          8.1          9.1         10.1
    -90.733859    -8.639769    -6.279922    -6.269294    -6.264657    -0.901500    -0.583996    -0.436556    -0.325208    -0.280260

        11.1         12.1
      0.484892     0.607469

 Orbital energies for negative spin:

         1.1          2.1          3.1          4.1          5.1          6.1          7.1          8.1          9.1         10.1
    -90.729698    -8.633858    -6.266648    -6.262257    -6.256216    -0.866528    -0.505068    -0.391250    -0.266368     0.202022

        11.1         12.1
      0.502146     0.679970


 HOMO     -9.1    -0.266368 =      -7.2482eV
 LUMO    -10.1     0.202022 =       5.4973eV
 LUMO-HOMO         0.468390 =      12.7455eV

 EXPECTATION VALUE OF S**2:             0.78829156

 Occupation number threshold for pseudo-canonical orbitals: 1.9990 (occupied), 0.0010 (virtual)

 Number of pseudo-canonical occupied orbitals per symmetry:    8
 Number of active natural orbitals per symmetry:               3

 Natural orbitals saved to record    2200.2 (Orbital set 3)

 Orbital spaces for UNO-CAS (Min. occupation: 0.020  Max. occupation: 1.980):

 Closed:        9
 Active:        1


 **********************************************************************************************************************************
 DATASETS  * FILE   NREC   LENGTH (MB)   RECORD NAMES
              1      19       30.01       500      610      700      900      950      970     1000      129      960     1100   
                                          VAR    BASINP    GEOM    SYMINP    ZMAT    AOBASIS   BASIS     P2S    ABASIS      S 
                                         1400     1410     1200     1210     1080     1600     1650     1300     1700   
                                           T        V       H0       H01     AOSYM     SMH    MOLCAS    ERIS     OPER   

              2       4        2.81       700     1000      520     2200   
                                         GEOM     BASIS   MCVARS     UHF  

 PROGRAMS   *        TOTAL   UHF-SCF       INT
 CPU TIMES  *         6.02      5.61      0.27
 REAL TIME  *         7.12 SEC
 DISK USED  *        34.80 MB
 **********************************************************************************************************************************
 SETTING BASIS          =    6-31+G(D,P)


 Recomputing integrals since basis changed


 Using spherical harmonics

 Library entry H      S 6-31G                selected for orbital group  1
 Library entry H      P 6-31G**              selected for orbital group  1
 Library entry S      S 6-31G                selected for orbital group  2
 Library entry S      S 6-31++G              selected for orbital group  2
 Library entry S      P 6-31G                selected for orbital group  2
 Library entry S      P 6-31++G              selected for orbital group  2
 Library entry S      D 6-31G*               selected for orbital group  2


 PROGRAM * SEWARD (Integral evaluation for generally contracted gaussian basis sets)     Author: Roland Lindh, 1990

 Geometry written to block  1 of record 700


 Point group  C1  



 ATOMIC COORDINATES

 NR  ATOM    CHARGE       X              Y              Z

   1  H       1.00    2.385023342   -0.415928720    0.000000000
   2  S      16.00    0.000000000    0.421692385    0.000000000
   3  H       1.00   -0.945959103   -2.107895006    0.000000000
   4  H       1.00   -1.439064238   -4.223367813    0.000000000

 Bond lengths in Bohr (Angstrom)

 1-2  2.527834143  2-3  2.700676025
     ( 1.337672222)     ( 1.429136206)

 Bond angles

  1-2-3   91.15238463

 NUCLEAR CHARGE:                   19
 NUMBER OF PRIMITIVE AOS:          77
 NUMBER OF SYMMETRY AOS:           76
 NUMBER OF CONTRACTIONS:           37   (  37A   )
 NUMBER OF CORE ORBITALS:           5   (   5A   )
 NUMBER OF VALENCE ORBITALS:        7   (   7A   )


 NUCLEAR REPULSION ENERGY   16.45755001

 EXTRA SYMMETRY OF AOS IN SYMMETRY 1:   1 1 1 1 2 1 1 1 1 1   1 1 2 1 1 2 1 1 2 1   1 2 1 1 2 1 2 1 1 1   1 2 1 1 1 1 2

 Eigenvalues of metric

         1 0.187E-01 0.611E-01 0.785E-01 0.152E+00 0.156E+00 0.163E+00 0.217E+00 0.291E+00


 Contracted 2-electron integrals neglected if value below      1.0D-11
 AO integral compression algorithm  1   Integral accuracy      1.0D-11

     1.049 MB (compressed) written to integral file ( 31.6%)


 NUMBER OF SORTED TWO-ELECTRON INTEGRALS:     247456.     BUFFER LENGTH:  32768
 NUMBER OF SEGMENTS:   1  SEGMENT LENGTH:     247456      RECORD LENGTH: 524288

 Memory used in sort:       0.80 MW

 SORT1 READ      341872. AND WROTE      119306. INTEGRALS IN      1 RECORDS. CPU TIME:     0.01 SEC, REAL TIME:     0.01 SEC
 SORT2 READ      119306. AND WROTE      247456. INTEGRALS IN      4 RECORDS. CPU TIME:     0.02 SEC, REAL TIME:     0.03 SEC

 FILE SIZES:   FILE 1:    31.1 MBYTE,  FILE 4:     4.2 MBYTE,   TOTAL:     35.3 MBYTE

 OPERATOR DM      FOR CENTER  0  COORDINATES:    0.000000    0.000000    0.000000


 **********************************************************************************************************************************
 DATASETS  * FILE   NREC   LENGTH (MB)   RECORD NAMES
              1      19       30.65       500      610      700      900      950      970     1001      129      960     1100   
                                          VAR    BASINP    GEOM    SYMINP    ZMAT    AOBASIS   BASIS     P2S    ABASIS      S 
                                         1400     1410     1200     1210     1080     1600     1650     1300     1700   
                                           T        V       H0       H01     AOSYM     SMH    MOLCAS    ERIS     OPER   

              2       5        2.82       700     1000      520     2200     1001   
                                         GEOM     BASIS   MCVARS     UHF     BASIS   

 PROGRAMS   *        TOTAL       INT   UHF-SCF       INT
 CPU TIMES  *         6.30      0.28      5.61      0.27
 REAL TIME  *         7.45 SEC
 DISK USED  *        38.19 MB
 **********************************************************************************************************************************

 Density functional group B3LYP5=B88+DIRAC+LYP+VWN5
 Functional: B88(Automatically generated (new) B88)                            Gradient terms: 1
 Functional: DIRAC(Automatically generated (new) DIRAC)                        Gradient terms: 0
 Functional: LYP(Automatically generated (new) LYP)                            Gradient terms: 1
 Functional: VWN5(Automatically generated (new) VWN5)                          Gradient terms: 0
 Use libxcgrid:  F
 Use grid at  1800.2


 Exact exchange will be calculated, factor:  0.2000

 Functional: B88                       Factor:  0.7200
 Functional: DIRAC                     Factor:  0.0800
 Functional: LYP                       Factor:  0.8100
 Functional: VWN5                      Factor:  0.1900

 Generated new metagrid on record  1800.2 with target accuracy 1.0D-06 and 14472 points in CPU time    0.3
 Computed new grid on record 1800.1 in CPU time    0.3
   33441 words reserved for DFT integration

 PROGRAM * UKS-SCF (Unrestricted Kohn-Sham)     Authors: W. Meyer, H.-J. Werner, P.J. Knowles, 1993

 NUMBER OF ELECTRONS:      10+    9-    SPACE SYMMETRY=1    SPIN SYMMETRY: Doublet 
 CONVERGENCE THRESHOLDS:    1.00E-05 (Density)    1.00E-06 (Energy)
 MAX. NUMBER OF ITERATIONS:       60
 INTERPOLATION TYPE:            DIIS
 INTERPOLATION STEPS:              2 (START)      1 (STEP)
 LEVEL SHIFTS:                 -0.20 (ALPHA)  -0.20 (BETA) 



 Use fine grid record 1800.2 for energy threshold  1.0D-06
 Molecular orbitals read from record     2200.2  Type=UHF/ALPHA (state 1.1)

 Present basis size:      37
 Previous basis size:     12
 Previous occupation:     10
 Previous closed-shells:   9
 Previous core-orbitals:   5
 Present occupation:      10
 Present closed-shells:    9
 Present core-orbitals:    5
 Wavefunction symmetry:    1   Doublet 

 Orbital overlap <old|new>:  < 1.1| 1.1> = 0.999836   < 2.1| 2.1> = 0.999160   < 3.1| 3.1> = 0.998700   < 4.1| 4.1> = 0.998702
                             < 5.1| 5.1> = 0.998682   < 6.1| 6.1> = 0.999366   < 7.1| 7.1> = 0.999804   < 8.1| 8.1> = 0.999551
                             < 9.1| 9.1> = 0.999662   <10.1|10.1> = 0.999593

 Molecular orbitals read from record     2200.2  Type=UHF/BETA (state 1.1)

 Present basis size:      37
 Previous basis size:     12
 Previous occupation:     10
 Previous closed-shells:   9
 Previous core-orbitals:   5
 Present occupation:      10
 Present closed-shells:    9
 Present core-orbitals:    5
 Wavefunction symmetry:    1   Doublet 

 Orbital overlap <old|new>:  < 1.1| 1.1> = 0.999836   < 2.1| 2.1> = 0.999160   < 3.1| 3.1> = 0.998702   < 4.1| 4.1> = 0.998682
                             < 5.1| 5.1> = 0.998700   < 6.1| 6.1> = 0.999416   < 7.1| 7.1> = 0.999825   < 8.1| 8.1> = 0.999425
                             < 9.1| 9.1> = 0.999593   <10.1|10.1> = 0.999679


 Molecular orbital dump at record        2201.2

 Initial alpha occupation  10
 Initial beta  occupation   9

 ITERATION    DDIFF          GRAD             ENERGY        2-EL.EN.            DIPOLE MOMENTS         DIIS
    1      0.000D+00      0.000D+00      -399.59907016    385.936325    0.17518   -0.31727    0.00000    0
    2      0.358D-01      0.192D-01      -399.79544943    379.479205    0.11044   -0.14861   -0.00000    1
    3      0.110D-01      0.389D-02      -399.81582345    379.275339    0.20908   -0.32222    0.00000    2
    4      0.684D-02      0.145D-02      -399.82111481    378.587976    0.24710   -0.39477   -0.00000    3
    5      0.236D-02      0.424D-03      -399.82157020    378.763375    0.26017   -0.45123   -0.00000    4
    6      0.640D-03      0.153D-03      -399.82161832    378.644018    0.25922   -0.45216   -0.00000    5
    7      0.180D-03      0.336D-04      -399.82162101    378.658306    0.25840   -0.45516   -0.00000    6
    8      0.224D-04      0.738D-05      -399.82162112    378.657603    0.25844   -0.45549   -0.00000    6
    9      0.760D-05      0.244D-05      -399.82162114    378.657503    0.25836   -0.45534   -0.00000    6
   10      0.361D-05      0.818D-06      -399.82162114    378.657584    0.25837   -0.45528    0.00000    6

 Final alpha occupancy:  10
 Final beta  occupancy:   9

 !UKS STATE  1.1 Energy              -399.821621143330
 Nuclear energy                        16.45755001
 One-electron energy                 -584.14193491
 Two-electron energy                  189.32879192
 Density functional                   -21.46602817     B88=-25.98839489 DIRAC=-23.92077980 LYP= -0.71467542 VWN5= -1.37807563
 Virial quotient                       -1.00187858
 !UKS STATE  1.1 Dipole moment          0.25836763    -0.45528019     0.00000000
 Dipole moment /Debye                   0.65666199    -1.15713101     0.00000000

 Orbital energies for positive spin:

         1.1          2.1          3.1          4.1          5.1          6.1          7.1          8.1          9.1         10.1
    -88.876807    -7.953815    -5.919703    -5.915181    -5.906919    -0.754948    -0.485557    -0.397370    -0.285883    -0.268207

        11.1         12.1
      0.000109     0.033085

 Orbital energies for negative spin:

         1.1          2.1          3.1          4.1          5.1          6.1          7.1          8.1          9.1         10.1
    -88.874434    -7.951473    -5.914601    -5.911236    -5.905491    -0.739353    -0.457939    -0.379615    -0.262910    -0.145243

        11.1         12.1
      0.003652     0.039157


 HOMO     -9.1    -0.262910 =      -7.1541eV
 LUMO    -10.1    -0.145243 =      -3.9523eV
 LUMO-HOMO         0.117666 =       3.2019eV

 EXPECTATION VALUE OF S**2:             0.75739867

 Occupation number threshold for pseudo-canonical orbitals: 1.9990 (occupied), 0.0010 (virtual)

 Number of pseudo-canonical occupied orbitals per symmetry:    8
 Number of active natural orbitals per symmetry:               3

 Natural orbitals saved to record    2201.2 (Orbital set 3)

 Orbital spaces for UNO-CAS (Min. occupation: 0.020  Max. occupation: 1.980):

 Closed:        9
 Active:        1


 **********************************************************************************************************************************
 DATASETS  * FILE   NREC   LENGTH (MB)   RECORD NAMES
              1      20       31.11       500      610      700      900      950      970     1001      129      960     1100   
                                          VAR    BASINP    GEOM    SYMINP    ZMAT    AOBASIS   BASIS     P2S    ABASIS      S 
                                         1400     1410     1200     1210     1080     1600     1650     1300     1700     1800   
                                           T        V       H0       H01     AOSYM     SMH    MOLCAS    ERIS     OPER     GRID   

              2       7        5.37       700     1000      520     2200     1001     1800     2201   
                                         GEOM     BASIS   MCVARS     UHF     BASIS    GRID      UKS  

 PROGRAMS   *        TOTAL   UKS-SCF       INT   UHF-SCF       INT
 CPU TIMES  *         7.33      1.03      0.28      5.61      0.27
 REAL TIME  *         8.54 SEC
 DISK USED  *        38.19 MB
 **********************************************************************************************************************************


 PROGRAM * Intrinsic Basis Bonding Analysis (IBBA)          Author: G. Knizia

 Molecular orbitals read from record     2201.2  Type=UKS/ALPHA (state 1.1)
 Fock matrix read from record            2201.2  Type=UKS/TOTAL (state 1.1)
 Orbital energies read from record       2201.2  Type=UKS/ALPHA (state 1.1)
 Density matrix read from record         2201.2  Type=UKS/CHARGE (state 1.1)

 Number of core orbitals:           5 (   5 )
 Number of closed-shell orbitals:   4 (   4 )
 Number of active  orbitals:        1 (   1 )

 Basis set MINAO-AUTO-PP generated.      Number of basis functions:   12 

 Polarized AO type:                A = (O Ot + (1-O)(1-Ot)) P12
 Orthogonalization method:         Symmetric (Loewdin)
 Localization functional:          L = sum[A,i] <i|n_A|i>^4 -> max

 Localization group 1:   9 orbitals, occupancy  2.000
 Iterative localization: IB/PM,    7 iter; Final gradient 0.71E-09

 Bond order analysis:       [THRPRINT= 0.020]

   CEN ATOM   CEN ATOM     WIBERG.BO      RENORM.BO
     1   H  -   2   S       0.988464       0.999781

     2   S  -   1   H       0.988464       0.999781
     2   S  -   3   H       0.645070       0.510255
     2   S  -   4   H       0.180585       0.075501

     3   H  -   2   S       0.645070       0.510255
     3   H  -   4   H       0.342776       0.227234

     4   H  -   3   H       0.342776       0.227234
     4   H  -   2   S       0.180585       0.075501


 Valency analysis:

   CEN ATOM   TOT.VALENCE
     1   H       0.989036
     2   S       1.814119
     3   H       0.988418
     4   H       0.523361
 Localization group 2:   1 orbitals, occupancy  1.000
 Iterative localization: IB/PM,    1 iter; Final gradient 0.00E+00

 Bond order analysis:       [THRPRINT= 0.020]

   CEN ATOM   CEN ATOM     WIBERG.BO      RENORM.BO





 Valency analysis:

   CEN ATOM   TOT.VALENCE
     1   H       0.000000
     2   S      -0.000000
     3   H       0.000000
     4   H       0.000000

 Total charge composition:

   CEN ATOM         s          p       ELECTRONS ->P.CHARGE
     1   H       0.89529                 0.89529    0.10471
     2   S       5.73795    9.78399     15.52194    0.47806
     3   H       0.89238                 0.89238    0.10762
     4   H       1.69039                 1.69039   -0.69039

 Total charge composition, AO contributions:

   CEN ATOM SHL      SPHERICAL COMPONENTS
     1   H  1s       0.89529

     2   S  1s       1.99991
     2   S  2s       1.99480
     2   S  3s       1.74325
     2   S  2p       1.99951    1.99962    1.99999
     2   S  3p       1.18460    1.60026    1.00001

     3   H  1s       0.89238

     4   H  1s       1.69039

 Active orbital charges:

   CEN ATOM         s          p       ELECTRONS ->SPIN.DEN
     1   H       0.00000                 0.00000    0.00000
     2   S       0.00000    1.00000      1.00000    1.00000
     3   H       0.00000                 0.00000    0.00000
     4   H       0.00000                 0.00000    0.00000

 Active orbital charges, AO contributions:

   CEN ATOM SHL      SPHERICAL COMPONENTS
     1   H  1s       0.00000

     2   S  1s       0.00000
     2   S  2s       0.00000
     2   S  3s       0.00000
     2   S  2p       0.00000    0.00000    0.00001
     2   S  3p       0.00000    0.00000    0.99999

     3   H  1s       0.00000

     4   H  1s       0.00000

 Summary of localized orbital composition:   [THRPRINT= 0.020]

   ORB  GRP  ORB.ENERGY      CENTERS/CHARGES
     1   1   -87.714610      S  2   2.000
     2   1    -8.570364      S  2   2.000
     3   1    -6.135313      S  2   2.000
     4   1    -5.934144      S  2   2.000
     5   1    -5.906202      S  2   2.000
     6   1    -0.695923      S  2   2.000
     7   1    -0.581383      S  2   1.104   H  1   0.895
     8   1    -0.557515      S  2   1.361   H  3   0.629
     9   1    -0.284944      H  4   1.681   H  3   0.262   S  2   0.057
    10   2    -0.265545      S  2   1.000

 Localized orbitals saved to record      2201.2  (orbital set 4)


 **********************************************************************************************************************************
 DATASETS  * FILE   NREC   LENGTH (MB)   RECORD NAMES
              1      20       31.11       500      610      700      900      950      970     1001      129      960     1100   
                                          VAR    BASINP    GEOM    SYMINP    ZMAT    AOBASIS   BASIS     P2S    ABASIS      S 
                                         1400     1410     1200     1210     1080     1600     1650     1300     1700     1800   
                                           T        V       H0       H01     AOSYM     SMH    MOLCAS    ERIS     OPER     GRID   

              2       7        5.38       700     1000      520     2200     1001     1800     2201   
                                         GEOM     BASIS   MCVARS     UHF     BASIS    GRID      UKS  

 PROGRAMS   *        TOTAL      IBBA   UKS-SCF       INT   UHF-SCF       INT
 CPU TIMES  *         7.36      0.02      1.03      0.28      5.61      0.27
 REAL TIME  *         8.57 SEC
 DISK USED  *        38.19 MB
 **********************************************************************************************************************************

 IBBA/6-31+G(D,P) energy=      0.000000000000

         UKS-SCF         UHF-SCF
   -399.82162114   -394.76371223
 **********************************************************************************************************************************
 Molpro calculation terminated
