
 Primary working directories    : /local
 Secondary working directories  : /local
 Wavefunction directory         : /local/
 Main file repository           : /local/

 SHA1      : b4a5b34a9e711420743f49e6833241d17c61fb3c
 NAME      : 2099.9.b4a5b34
 ARCHNAME  : linux/x86_64_openmp
 FC        : /cm/shared/languages/GCC-6.1/bin/gfortran
 BLASLIB   : -lblas
 id        : simonbennie

 Nodes     nprocs
 node33-011    1

 Using customized tuning parameters: mindgm=1; mindgv=20; mindgc=4; mindgr=1; noblas=0; minvec=7
 default implementation of scratch files=df  

 memory,500,m
 geomtyp=xyz
 nosym
 noorient
 geometry={
 H          1.26210       -0.22010        0.00000
 S          0.00000        0.22315        0.00000
 H         -0.50058       -1.11545        0.00000
 H         -0.76152       -2.23491        0.00000
 }
 basis={ default,sto-3g }
 {ks,PBE,direct;disp;wf,19,1,1}
 {ibba,bonds=1}

 Variables initialized (895), CPU time= 0.01 sec
 Commands  initialized (725), CPU time= 0.01 sec, 591 directives.
 Default parameters read. Elapsed time= 0.11 sec

 Checking input...
 Passed
1


                                         ***  PROGRAM SYSTEM MOLPRO  ***
                                       Copyright, TTI GmbH Stuttgart, 2015
                                    Version 2099.9 linked May 26 2017 16:03:21


 **********************************************************************************************************************************
 LABEL *                                                                                 
  64 bit serial version                                                                  DATE: 16-Mar-18          TIME: 21:15:37  
 **********************************************************************************************************************************

 SHA1:             b4a5b34a9e711420743f49e6833241d17c61fb3c
 **********************************************************************************************************************************
 SETTING GEOMTYP        =    XYZ

 Variable memory set to  500000000 words,  buffer space 

 ZSYMEL=NOSYM

 SETTING BASIS          =    STO-3G


 Recomputing integrals since basis changed


 Using spherical harmonics

 Library entry H      S STO-3G               selected for orbital group  1
 Library entry S      S STO-3G               selected for orbital group  2
 Library entry S      P STO-3G               selected for orbital group  2


 PROGRAM * SEWARD (Integral evaluation for generally contracted gaussian basis sets)     Author: Roland Lindh, 1990

 Geometry written to block  1 of record 700


 Point group  C1  



 ATOMIC COORDINATES

 NR  ATOM    CHARGE       X              Y              Z

   1  H       1.00    2.385023342   -0.415928720    0.000000000
   2  S      16.00    0.000000000    0.421692385    0.000000000
   3  H       1.00   -0.945959103   -2.107895006    0.000000000
   4  H       1.00   -1.439064238   -4.223367813    0.000000000

 Bond lengths in Bohr (Angstrom)

 1-2  2.527834143  2-3  2.700676025
     ( 1.337672222)     ( 1.429136206)

 Bond angles

  1-2-3   91.15238463

 NUCLEAR CHARGE:                   19
 NUMBER OF PRIMITIVE AOS:          36
 NUMBER OF SYMMETRY AOS:           36
 NUMBER OF CONTRACTIONS:           12   (  12A   )
 NUMBER OF CORE ORBITALS:           5   (   5A   )
 NUMBER OF VALENCE ORBITALS:        7   (   7A   )


 NUCLEAR REPULSION ENERGY   16.45755001

 EXTRA SYMMETRY OF AOS IN SYMMETRY 1:   1 1 1 1 1 1 2 1 1 2   1 1

 Eigenvalues of metric

         1 0.316E+00 0.419E+00 0.619E+00 0.743E+00 0.772E+00 0.849E+00 0.106E+01 0.118E+01


 Contracted 2-electron integrals neglected if value below      1.0D-11
 AO integral compression algorithm  1   Integral accuracy      1.0D-11

     0.262 MB (compressed) written to integral file ( 85.5%)


 NUMBER OF SORTED TWO-ELECTRON INTEGRALS:       3081.     BUFFER LENGTH:  32768
 NUMBER OF SEGMENTS:   1  SEGMENT LENGTH:       3081      RECORD LENGTH: 524288

 Memory used in sort:       0.56 MW

 SORT1 READ        5155. AND WROTE        1533. INTEGRALS IN      1 RECORDS. CPU TIME:     0.00 SEC, REAL TIME:     0.01 SEC
 SORT2 READ        1533. AND WROTE        3081. INTEGRALS IN      1 RECORDS. CPU TIME:     0.01 SEC, REAL TIME:     0.00 SEC

 FILE SIZES:   FILE 1:    30.3 MBYTE,  FILE 4:     4.2 MBYTE,   TOTAL:     34.5 MBYTE

 OPERATOR DM      FOR CENTER  0  COORDINATES:    0.000000    0.000000    0.000000


 **********************************************************************************************************************************
 DATASETS  * FILE   NREC   LENGTH (MB)   RECORD NAMES
              1      19       30.01       500      610      700      900      950      970     1000      129      960     1100   
                                          VAR    BASINP    GEOM    SYMINP    ZMAT    AOBASIS   BASIS     P2S    ABASIS      S 
                                         1400     1410     1200     1210     1080     1600     1650     1300     1700   
                                           T        V       H0       H01     AOSYM     SMH    MOLCAS    ERIS     OPER   

 PROGRAMS   *        TOTAL       INT
 CPU TIMES  *         0.46      0.32
 REAL TIME  *         1.25 SEC
 DISK USED  *        34.80 MB      
 **********************************************************************************************************************************

 Density functional group PBE=PBEX+PBEC
 Functional: PBEX(Automatically generated (new) PBEX)                          Gradient terms: 1
 Functional: PBEC(Automatically generated (new) PBEC)                          Gradient terms: 1

 dispersion correction activated
 Density functional: PBE     

 Functional: PBEX                      Factor:  1.0000
 Functional: PBEC                      Factor:  1.0000

 Use grid at  1800.2

 Functional: PBEX                      Factor:  1.0000
 Functional: PBEC                      Factor:  1.0000

 Generated new metagrid on record  1800.2 with target accuracy 1.0D-06 and 14472 points in CPU time    0.3
 Computed new grid on record 1800.1 in CPU time    0.3
   13504 words reserved for DFT integration

 PROGRAM * RKS-SCF (Restricted open shell Kohn-Sham)     Authors: W. Meyer, H.-J. Werner, P.J. Knowles, 1993

 NUMBER OF ELECTRONS:      10+    9-    SPACE SYMMETRY=1    SPIN SYMMETRY: Doublet 
 CONVERGENCE THRESHOLDS:    1.00E-05 (Density)    1.00E-06 (Energy)
 MAX. NUMBER OF ITERATIONS:       60
 INTERPOLATION TYPE:            DIIS
 INTERPOLATION STEPS:              2 (START)      1 (STEP)
 LEVEL SHIFTS:                 -0.60 (CLOSED) -0.30 (OPEN) 



 Use fine grid record 1800.2 for energy threshold  1.0D-06
 Orbital guess generated from atomic densities. Full valence occupancy:   10

 Molecular orbital dump at record        2100.2

 Initial alpha occupancy:  10
 Initial beta  occupancy:   9
 Wave function symmetry:    1

 ITERATION    DDIFF          GRAD             ENERGY        2-EL.EN.            DIPOLE MOMENTS         DIIS   ORB.
    1      0.000D+00      0.000D+00      -395.16176804    398.397716    0.35906   -1.56764   -0.00000    0    start
    2      0.000D+00      0.299D-01      -395.22940608    392.305515    0.29438    0.00073   -0.00000    1    diag,B
    3      0.758D-01      0.510D-02      -395.23160803    393.186397    0.23014   -0.26438   -0.00000    2    diag,B
    4      0.107D-01      0.668D-03      -395.23166575    393.147487    0.21387   -0.25936   -0.00000    3    diag,B
    5      0.183D-02      0.192D-03      -395.23167732    393.158146    0.21100   -0.26340   -0.00000    4    diag,B
    6      0.747D-03      0.563D-04      -395.23167848    393.159083    0.21064   -0.26445   -0.00000    5    diag,B
    7      0.283D-03      0.134D-04      -395.23167856    393.160135    0.21046   -0.26510    0.00000    6    fixocc
    8      0.633D-04      0.577D-05      -395.23167857    393.160249    0.21037   -0.26530    0.00000    7    diag,B
    9      0.329D-04      0.157D-05      -395.23167858    393.160389    0.21035   -0.26538    0.00000    8    diag,B
   10      0.103D-04      0.196D-06      -395.23167858    393.160391    0.21035   -0.26539    0.00000    9    orth
   11      0.794D-06      0.250D-07      -395.23167858    393.160391    0.21035   -0.26538    0.00000    0    orth

 Dispersion correction
 - - - - - - - - - - - 
  _________________________________
                                   
 |         DFTD3 V1.3 Rev 1        |
 | S.Grimme, University Muenster   |
 | Fri Jul  2 12:48:21 CEST 2010   |
  _________________________________

 Please cite DFT-D3 work done with this code as:
 S. Grimme, J. Antony, S. Ehrlich and H. Krieg,
 J. Chem. Phys, 132 (2010), 154104.
 For DFT-D2 the reference is
 S. Grimme, J. Comput. Chem., 27 (2006), 1787-1799

 C6 coefficients used:
                    2  C6 for element                     1
 Z=  1 CN=   0.912     C6(AA)=    3.03
 Z=  1 CN=   0.000     C6(AA)=    7.59
                    3  C6 for element                    16
 Z= 16 CN=   0.000     C6(AA)=  134.01
 Z= 16 CN=   0.995     C6(AA)=  131.00
 Z= 16 CN=   1.990     C6(AA)=  125.81

 #           XYZ [au]               R0(AA) [Ang.]   CN       C6(AA)     C8(AA)   C10(AA) [au]
  1   2.38502  -0.41593   0.00000   h   1.091  0.995         3.1        37.4       553.6
  2   0.00000   0.42169   0.00000   s   1.655  1.985       125.9      6168.5    370198.5
  3  -0.94596  -2.10790   0.00000   h   1.091  0.998         3.1        37.4       553.4
  4  -1.43906  -4.22337   0.00000   h   1.091  0.023         7.4        89.0      1317.5

 molecular C6(AA) [au] =       303.95

           DFT-D V3
 DF pbe                                               
 parameters
 s6       :    1.0000
 s8       :    0.7220
 rs6      :    1.2170
 alpha6   :   14.0000
 alpha8   :   16.0000
 k1-k3    :   16.0000    1.3333   -4.0000

 Edisp /kcal,au:    -0.2208 -0.00035190

 E6    /kcal :    -0.0517
 E8    /kcal :    -0.1691
 % E8        : 76.57
 normal termination of dftd3

 RKS STATE 1.1 ENERGY+DISP     -395.23203047

 Final alpha occupancy:  10
 Final beta  occupancy:   9

 !RKS STATE 1.1 Energy               -395.232030474811
 Nuclear energy                        16.45755001
 One-electron energy                 -581.55984227
 Two-electron energy                  196.58019537
 Density functional                   -26.70958169     PBEX=-26.00095630 PBEC= -0.70862540
 Virial quotient                       -1.01268794
 !RKS STATE 1.1 Dipole moment           0.21034992    -0.26538483     0.00000000
 Dipole moment /Debye                   0.53462116    -0.67449677     0.00000000

 Orbital energies:

         1.1          2.1          3.1          4.1          5.1          6.1          7.1          8.1          9.1         10.1
    -86.876397    -7.308386    -5.330418    -5.325633    -5.303354    -0.589326    -0.342972    -0.233949    -0.078073    -0.140516

        11.1         12.1
      0.232423     0.340393

 HOMO     10.1    -0.140516 =      -3.8236eV
 LUMO     11.1     0.232423 =       6.3246eV
 LUMO-HOMO         0.372939 =      10.1482eV


 **********************************************************************************************************************************
 DATASETS  * FILE   NREC   LENGTH (MB)   RECORD NAMES
              1      20       30.47       500      610      700      900      950      970     1000      129      960     1100   
                                          VAR    BASINP    GEOM    SYMINP    ZMAT    AOBASIS   BASIS     P2S    ABASIS      S 
                                         1400     1410     1200     1210     1080     1600     1650     1300     1700     1800   
                                           T        V       H0       H01     AOSYM     SMH    MOLCAS    ERIS     OPER     GRID   

              2       5        2.80       700     1000      520     1800     2100   
                                         GEOM     BASIS   MCVARS    GRID      RKS  

 PROGRAMS   *        TOTAL        KS       INT
 CPU TIMES  *         1.32      0.86      0.32
 REAL TIME  *         2.21 SEC
 DISK USED  *        34.80 MB      
 **********************************************************************************************************************************


 PROGRAM * Intrinsic Basis Bonding Analysis (IBBA)          Author: G. Knizia

 Molecular orbitals read from record     2100.2  Type=RKS/CANONICAL (state 1.1)
 Fock matrix read from record            2100.2  Type=RKS/TOTAL (state 1.1)
 Orbital energies read from record       2100.2  Type=RKS/CANONICAL (state 1.1)
 Density matrix read from record         2100.2  Type=RKS/CHARGE (state 1.1)

 Number of core orbitals:           5 (   5 )
 Number of closed-shell orbitals:   4 (   4 )
 Number of active  orbitals:        1 (   1 )

 Basis set MINAO-AUTO-PP generated.      Number of basis functions:   12 

 Polarized AO type:                A = (O Ot + (1-O)(1-Ot)) P12
 Orthogonalization method:         Symmetric (Loewdin)
 Localization functional:          L = sum[A,i] <i|n_A|i>^4 -> max

 Localization group 1:   9 orbitals, occupancy  2.000
 Iterative localization: IB/PM,    5 iter; Final gradient 0.68E-09

 Bond order analysis:       [THRPRINT= 0.020]

   CEN ATOM   CEN ATOM     WIBERG.BO      RENORM.BO
     1   H  -   2   S       0.998901       1.000000

     2   S  -   1   H       0.998901       1.000000
     2   S  -   3   H       0.734955       1.000000
     2   S  -   4   H       0.306202       1.000000

     3   H  -   2   S       0.734955       1.000000
     3   H  -   4   H       0.264993       0.770129

     4   H  -   2   S       0.306202       1.000000
     4   H  -   3   H       0.264993       0.770129


 Valency analysis:

   CEN ATOM   TOT.VALENCE
     1   H       0.999527
     2   S       2.040059
     3   H       0.999980
     4   H       0.571788
 Localization group 2:   1 orbitals, occupancy  1.000
 Iterative localization: IB/PM,    1 iter; Final gradient 0.00E+00

 Bond order analysis:       [THRPRINT= 0.020]

   CEN ATOM   CEN ATOM     WIBERG.BO      RENORM.BO

     2   S  -   4   H       0.445512       0.500000


     4   H  -   2   S       0.445512       0.500000


 Valency analysis:

   CEN ATOM   TOT.VALENCE
     1   H       0.000001
     2   S       0.446584
     3   H       0.003178
     4   H       0.447619

 Total charge composition:

   CEN ATOM         s          p       ELECTRONS ->P.CHARGE
     1   H       0.97825                 0.97825    0.02175
     2   S       5.74520   10.27193     16.01714   -0.01714
     3   H       0.99716                 0.99716    0.00284
     4   H       1.00746                 1.00746   -0.00746

 Total charge composition, AO contributions:

   CEN ATOM SHL      SPHERICAL COMPONENTS
     1   H  1s       0.97825

     2   S  1s       1.99991
     2   S  2s       1.99415
     2   S  3s       1.75114
     2   S  2p       1.99997    1.99981    2.00000
     2   S  3p       1.08788    1.18427    2.00000

     3   H  1s       0.99716

     4   H  1s       1.00746

 Active orbital charges:

   CEN ATOM         s          p       ELECTRONS ->SPIN.DEN
     1   H       0.00000                 0.00000    0.00000
     2   S       0.00006    0.33651      0.33657    0.33657
     3   H       0.00159                 0.00159    0.00159
     4   H       0.66183                 0.66183    0.66183

 Active orbital charges, AO contributions:

   CEN ATOM SHL      SPHERICAL COMPONENTS
     1   H  1s       0.00000

     2   S  1s       0.00000
     2   S  2s       0.00001
     2   S  3s       0.00005
     2   S  2p       0.00001    0.00006    0.00000
     2   S  3p       0.03168    0.30477    0.00000

     3   H  1s       0.00159

     4   H  1s       0.66183

 Summary of localized orbital composition:   [THRPRINT= 0.020]

   ORB  GRP  ORB.ENERGY      CENTERS/CHARGES
     1   1   -85.883981      S  2   2.000
     2   1    -7.966758      S  2   2.000
     3   1    -5.466406      S  2   2.000
     4   1    -5.322422      S  2   2.000
     5   1    -5.303354      S  2   2.000
     6   1    -0.499154      S  2   1.938   H  4   0.050
     7   1    -0.456715      S  2   1.021   H  1   0.978
     8   1    -0.411644      H  3   0.984   S  2   0.721   H  4   0.295
     9   1    -0.078073      S  2   2.000
    10   2    -0.088377      H  4   0.662   S  2   0.337

 Localized orbitals saved to record      2100.2  (orbital set 2)


 **********************************************************************************************************************************
 DATASETS  * FILE   NREC   LENGTH (MB)   RECORD NAMES
              1      20       30.47       500      610      700      900      950      970     1000      129      960     1100   
                                          VAR    BASINP    GEOM    SYMINP    ZMAT    AOBASIS   BASIS     P2S    ABASIS      S 
                                         1400     1410     1200     1210     1080     1600     1650     1300     1700     1800   
                                           T        V       H0       H01     AOSYM     SMH    MOLCAS    ERIS     OPER     GRID   

              2       5        2.81       700     1000      520     1800     2100   
                                         GEOM     BASIS   MCVARS    GRID      RKS  

 PROGRAMS   *        TOTAL      IBBA        KS       INT
 CPU TIMES  *         1.34      0.01      0.86      0.32
 REAL TIME  *         2.24 SEC
 DISK USED  *        34.80 MB      
 **********************************************************************************************************************************

 IBBA/STO-3G energy=      0.000000000000

        KS-SCF  
   -395.23203047
 **********************************************************************************************************************************
 Molpro calculation terminated
