
 Primary working directories    : /local
 Secondary working directories  : /local
 Wavefunction directory         : /local/
 Main file repository           : /local/

 SHA1      : b4a5b34a9e711420743f49e6833241d17c61fb3c
 NAME      : 2099.9.b4a5b34
 ARCHNAME  : linux/x86_64_openmp
 FC        : /cm/shared/languages/GCC-6.1/bin/gfortran
 BLASLIB   : -lblas
 id        : simonbennie

 Nodes     nprocs
 node32-007    1

 Using customized tuning parameters: mindgm=1; mindgv=20; mindgc=4; mindgr=1; noblas=0; minvec=7
 default implementation of scratch files=df  

 memory,500,m
 geomtyp=xyz
 nosym
 noorient
 geometry={
 Cl         0.01882       -0.81730        0.00000
 H         -0.47049        0.56948        0.00000
 O          0.01882        1.66558        0.00000
 }
 basis={ default,svp }
 {uks,B-VWN,direct;wf,26,1,2}
 {ibba,bonds=1}

 Variables initialized (895), CPU time= 0.00 sec
 Commands  initialized (725), CPU time= 0.01 sec, 591 directives.
 Default parameters read. Elapsed time= 0.08 sec

 Checking input...
 Passed
1


                                         ***  PROGRAM SYSTEM MOLPRO  ***
                                       Copyright, TTI GmbH Stuttgart, 2015
                                    Version 2099.9 linked May 26 2017 16:03:21


 **********************************************************************************************************************************
 LABEL *                                                                                 
  64 bit serial version                                                                  DATE: 23-Jun-17          TIME: 05:16:07  
 **********************************************************************************************************************************

 SHA1:             b4a5b34a9e711420743f49e6833241d17c61fb3c
 **********************************************************************************************************************************
 SETTING GEOMTYP        =    XYZ

 Variable memory set to  500000000 words,  buffer space 

 ZSYMEL=NOSYM

 SETTING BASIS          =    SVP


 Recomputing integrals since basis changed


 Using spherical harmonics

 Library entry CL     S def2-SVP             selected for orbital group  1
 Library entry CL     P def2-SVP             selected for orbital group  1
 Library entry CL     D def2-SVP             selected for orbital group  1
 Library entry H      S def2-SVP             selected for orbital group  2
 Library entry H      P def2-SVP             selected for orbital group  2
 Library entry O      S def2-SVP             selected for orbital group  3
 Library entry O      P def2-SVP             selected for orbital group  3
 Library entry O      D def2-SVP             selected for orbital group  3


 PROGRAM * SEWARD (Integral evaluation for generally contracted gaussian basis sets)     Author: Roland Lindh, 1990

 Geometry written to block  1 of record 700


 Point group  C1  



 ATOMIC COORDINATES

 NR  ATOM    CHARGE       X              Y              Z

   1  CL     17.00    0.035564646   -1.544473162    0.000000000
   2  H       1.00   -0.889097244    1.076161233    0.000000000
   3  O       8.00    0.035564646    3.147490039    0.000000000

 Bond lengths in Bohr (Angstrom)

 1-2  2.778978993  2-3  2.268347996
     ( 1.470572353)     ( 1.200358066)

 Bond angles

  1-2-3  136.50871150

 NUCLEAR CHARGE:                   26
 NUMBER OF PRIMITIVE AOS:          69
 NUMBER OF SYMMETRY AOS:           67
 NUMBER OF CONTRACTIONS:           37   (  37A   )
 NUMBER OF CORE ORBITALS:           6   (   6A   )
 NUMBER OF VALENCE ORBITALS:        9   (   9A   )


 NUCLEAR REPULSION ENERGY   38.62988493

 EXTRA SYMMETRY OF AOS IN SYMMETRY 1:   1 1 1 1 1 1 2 1 1 2   1 1 2 1 1 2 1 2 1 1   1 1 2 1 1 1 1 1 2 1   1 2 1 1 2 1 2

 Eigenvalues of metric

         1 0.359E-01 0.900E-01 0.197E+00 0.238E+00 0.295E+00 0.316E+00 0.320E+00 0.373E+00


 Contracted 2-electron integrals neglected if value below      1.0D-11
 AO integral compression algorithm  1   Integral accuracy      1.0D-11

     0.786 MB (compressed) written to integral file ( 24.8%)


 NUMBER OF SORTED TWO-ELECTRON INTEGRALS:     247456.     BUFFER LENGTH:  32768
 NUMBER OF SEGMENTS:   1  SEGMENT LENGTH:     247456      RECORD LENGTH: 524288

 Memory used in sort:       0.80 MW

 SORT1 READ      339516. AND WROTE       87570. INTEGRALS IN      1 RECORDS. CPU TIME:     0.00 SEC, REAL TIME:     0.01 SEC
 SORT2 READ       87570. AND WROTE      247456. INTEGRALS IN      3 RECORDS. CPU TIME:     0.02 SEC, REAL TIME:     0.03 SEC

 FILE SIZES:   FILE 1:    30.8 MBYTE,  FILE 4:     4.2 MBYTE,   TOTAL:     35.0 MBYTE

 OPERATOR DM      FOR CENTER  0  COORDINATES:    0.000000    0.000000    0.000000


 **********************************************************************************************************************************
 DATASETS  * FILE   NREC   LENGTH (MB)   RECORD NAMES
              1      19       30.47       500      610      700      900      950      970     1000      129      960     1100   
                                          VAR    BASINP    GEOM    SYMINP    ZMAT    AOBASIS   BASIS     P2S    ABASIS      S 
                                         1400     1410     1200     1210     1080     1600     1650     1300     1700   
                                           T        V       H0       H01     AOSYM     SMH    MOLCAS    ERIS     OPER   

 PROGRAMS   *        TOTAL       INT
 CPU TIMES  *         0.51      0.36
 REAL TIME  *         0.85 SEC
 DISK USED  *        35.35 MB      
 **********************************************************************************************************************************

 Density functional group B-VWN=B88+VWN5
 Functional: B88(Automatically generated (new) B88)                            Gradient terms: 1
 Functional: VWN5(Automatically generated (new) VWN5)                          Gradient terms: 0
 Use grid at  1800.2

 Functional: B88                       Factor:  1.0000
 Functional: VWN5                      Factor:  1.0000

 Generated new metagrid on record  1800.2 with target accuracy 1.0D-06 and 16184 points in CPU time    0.2
 Computed new grid on record 1800.1 in CPU time    0.2
   33321 words reserved for DFT integration

 PROGRAM * UKS-SCF (Unrestricted Kohn-Sham)     Authors: W. Meyer, H.-J. Werner, P.J. Knowles, 1993

 NUMBER OF ELECTRONS:      14+   12-    SPACE SYMMETRY=1    SPIN SYMMETRY: Triplet 
 CONVERGENCE THRESHOLDS:    1.00E-05 (Density)    1.00E-06 (Energy)
 MAX. NUMBER OF ITERATIONS:       60
 INTERPOLATION TYPE:            DIIS
 INTERPOLATION STEPS:              2 (START)      1 (STEP)
 LEVEL SHIFTS:                 -0.20 (ALPHA)  -0.20 (BETA) 



 Use fine grid record 1800.2 for energy threshold  1.0D-06
 Orbital guess generated from atomic densities. Full valence occupancy:   13

 Molecular orbital dump at record        2200.2

 Initial alpha occupation  14
 Initial beta  occupation  12

 ITERATION    DDIFF          GRAD             ENERGY        2-EL.EN.            DIPOLE MOMENTS         DIIS
    1      0.000D+00      0.000D+00      -536.40353671    558.049188   -0.34477   -3.02401   -0.00000    0
    2      0.330D-01      0.169D-01      -536.36393971    558.582537   -0.16277    1.38327   -0.00000    1
    3      0.194D-01      0.209D-01      -536.56858471    557.632128   -0.25190   -0.28206   -0.00000    2
    4      0.418D-02      0.305D-02      -536.57594119    557.751648   -0.25993   -0.18880    0.00000    3
    5      0.339D-02      0.107D-02      -536.57894551    557.736415   -0.26226   -0.06339    0.00000    4
    6      0.293D-02      0.462D-03      -536.58026854    557.872608   -0.26332    0.04054   -0.00000    5
    7      0.104D-02      0.255D-03      -536.58055846    557.807209   -0.26205    0.04354    0.00000    6
    8      0.867D-03      0.160D-03      -536.58074977    557.842127   -0.26263    0.04947    0.00000    7
    9      0.837D-03      0.108D-03      -536.58087404    557.826207   -0.26165    0.04224   -0.00000    8
   10      0.648D-03      0.812D-04      -536.58093509    557.829728   -0.26173    0.04803    0.00000    9
   11      0.608D-03      0.421D-04      -536.58096056    557.834377   -0.26143    0.04856    0.00000    8
   12      0.167D-03      0.182D-04      -536.58096290    557.834762   -0.26122    0.05110    0.00000    9
   13      0.455D-04      0.971D-05      -536.58096339    557.833491   -0.26123    0.05005    0.00000    9
   14      0.480D-04      0.716D-05      -536.58096385    557.833454   -0.26115    0.05035    0.00000    9
   15      0.751D-04      0.496D-05      -536.58096424    557.832381   -0.26112    0.04976    0.00000    9
   16      0.256D-04      0.180D-05      -536.58096427    557.832170   -0.26108    0.04991    0.00000    9
   17      0.574D-05      0.663D-06      -536.58096427    557.832230   -0.26108    0.04995    0.00000    9
   18      0.104D-05      0.430D-06      -536.58096427    557.832162   -0.26108    0.04992    0.00000    9

 Final alpha occupancy:  14
 Final beta  occupancy:  12

 !UKS STATE 1.1 Energy               -536.580964273082
 Nuclear energy                        38.62988493
 One-electron energy                 -816.10968828
 Two-electron energy                  278.91608115
 Density functional                   -38.01724207     B88=-36.08268127 VWN5= -1.93456080
 Virial quotient                       -1.00392158
 !UKS STATE 1.1 Dipole moment          -0.26108119     0.04991891     0.00000000
 Dipole moment /Debye                  -0.66355872     0.12687290     0.00000000

 Orbital energies for positive spin:

         1.1          2.1          3.1          4.1          5.1          6.1          7.1          8.1          9.1         10.1
   -100.776458   -18.940750    -9.218323    -7.057437    -7.048119    -7.047066    -0.931521    -0.767357    -0.480412    -0.392003

        11.1         12.1         13.1         14.1         15.1         16.1
     -0.360240    -0.315475    -0.308777    -0.305700     0.066718     0.282404

 Orbital energies for negative spin:

         1.1          2.1          3.1          4.1          5.1          6.1          7.1          8.1          9.1         10.1
   -100.773284   -18.906284    -9.215356    -7.050883    -7.044690    -7.044600    -0.855021    -0.742365    -0.446810    -0.310230

        11.1         12.1         13.1         14.1         15.1         16.1
     -0.302189    -0.294841    -0.258694    -0.248177     0.080295     0.289725

 HOMO    -12.1    -0.294841 =      -8.0230eV
 LUMO    -13.1    -0.258694 =      -7.0394eV
 LUMO-HOMO         0.036147 =       0.9836eV

 EXPECTATION VALUE OF S**2:             2.00394184

 Occupation number threshold for canonical orbitals:  1.999000 (occupied),  0.001000 (virtual)

 Number of pseudo-canonical orbitals per symmetry:   11
 Number of active natural orbitals per symmetry:      4

 Natural orbitals saved to record    2200.2 (Orbital set 3)

 Orbital spaces for UNO-CAS (Min. occupation: 0.020  Max. occupation: 1.980):

 Closed:       12
 Active:        2


 **********************************************************************************************************************************
 DATASETS  * FILE   NREC   LENGTH (MB)   RECORD NAMES
              1      20       30.99       500      610      700      900      950      970     1000      129      960     1100   
                                          VAR    BASINP    GEOM    SYMINP    ZMAT    AOBASIS   BASIS     P2S    ABASIS      S 
                                         1400     1410     1200     1210     1080     1600     1650     1300     1700     1800   
                                           T        V       H0       H01     AOSYM     SMH    MOLCAS    ERIS     OPER     GRID   

              2       5        2.84       700     1000      520     1800     2200   
                                         GEOM     BASIS   MCVARS    GRID      UKS  

 PROGRAMS   *        TOTAL       UKS       INT
 CPU TIMES  *         2.90      2.39      0.36
 REAL TIME  *         3.33 SEC
 DISK USED  *        35.35 MB      
 **********************************************************************************************************************************


 PROGRAM * Intrinsic Basis Bonding Analysis (IBBA)          Author: G. Knizia

 Molecular orbitals read from record     2200.2  Type=UKS/ALPHA (state 1.1)
 Fock matrix read from record            2200.2  Type=UKS/TOTAL (state 1.1)
 Orbital energies read from record       2200.2  Type=UKS/ALPHA (state 1.1)
 Density matrix read from record         2200.2  Type=UKS/CHARGE (state 1.1)

 Number of core orbitals:           6 (   6 )
 Number of closed-shell orbitals:   6 (   6 )
 Number of active  orbitals:        2 (   2 )

 Basis set MINAO-AUTO-PP generated.      Number of basis functions:   15 

 Polarized AO type:                A = (O Ot + (1-O)(1-Ot)) P12
 Orthogonalization method:         Symmetric (Loewdin)
 Localization functional:          L = sum[A,i] <i|n_A|i>^4 -> max

 Localization group 1:  12 orbitals, occupancy  2.000
 Iterative localization: IB/PM,    7 iter; Final gradient 0.64E-09

 Bond order analysis:       [THRPRINT= 0.020]

   CEN ATOM   CEN ATOM     WIBERG.BO      RENORM.BO
     1  CL  -   3   O       0.612327       2.044871
     1  CL  -   2   H       0.485888       0.430495

     2   H  -   1  CL       0.485888       0.430495
     2   H  -   3   O       0.426184       0.363155

     3   O  -   1  CL       0.612327       2.044871
     3   O  -   2   H       0.426184       0.363155


 Valency analysis:

   CEN ATOM   TOT.VALENCE
     1  CL       1.098215
     2   H       0.912072
     3   O       1.038510
 Localization group 2:   2 orbitals, occupancy  1.000
 Iterative localization: IB/PM,    1 iter; Final gradient 0.87E-13

 Bond order analysis:       [THRPRINT= 0.020]

   CEN ATOM   CEN ATOM     WIBERG.BO      RENORM.BO
     1  CL  -   3   O       0.247505       1.000000


     3   O  -   1  CL       0.247505       1.000000


 Valency analysis:

   CEN ATOM   TOT.VALENCE
     1  CL       0.247851
     2   H       0.000390
     3   O       0.247549

 Total charge composition:

   CEN ATOM         s          p       ELECTRONS ->P.CHARGE
     1  CL       5.91506    9.84479     15.75985    1.24015
     2   H       0.70367                 0.70367    0.29633
     3   O       3.91359    5.62289      9.53648   -1.53648

 Total charge composition, AO contributions:

   CEN ATOM SHL      SPHERICAL COMPONENTS
     1  CL  1s       1.99997
     1  CL  2s       1.99846
     1  CL  3s       1.91663
     1  CL  2p       1.99997    1.99982    1.99999
     1  CL  3p       1.22949    1.59304    1.02249

     2   H  1s       0.70367

     3   O  1s       1.99936
     3   O  2s       1.91423
     3   O  2p       1.85731    1.78806    1.97753

 Active orbital charges:

   CEN ATOM         s          p       ELECTRONS ->SPIN.DEN
     1  CL       0.00033    1.86218      1.86250    1.86250
     2   H       0.00020                 0.00020    0.00020
     3   O       0.00051    0.13679      0.13730    0.13730

 Active orbital charges, AO contributions:

   CEN ATOM SHL      SPHERICAL COMPONENTS
     1  CL  1s       0.00000
     1  CL  2s       0.00000
     1  CL  3s       0.00032
     1  CL  2p       0.00001    0.00000    0.00001
     1  CL  3p       0.71131    0.17424    0.97661

     2   H  1s       0.00020

     3   O  1s       0.00000
     3   O  2s       0.00051
     3   O  2p       0.07041    0.04301    0.02337

 Summary of localized orbital composition:   [THRPRINT= 0.020]

   ORB  GRP  ORB.ENERGY      CENTERS/CHARGES
     1   1  -100.727891     CL  1   2.000
     2   1   -18.802967      O  3   2.000
     3   1    -8.977526     CL  1   2.000
     4   1    -7.046359     CL  1   2.000
     5   1    -7.040222     CL  1   2.000
     6   1    -7.034304     CL  1   2.000
     7   1    -0.884299     CL  1   2.000
     8   1    -0.757618      O  3   2.000
     9   1    -0.626188      O  3   1.647   H  2   0.316  CL  1   0.037
    10   1    -0.564550     CL  1   1.605   H  2   0.378
    11   1    -0.334523      O  3   1.781  CL  1   0.210
    12   1    -0.328888      O  3   1.954  CL  1   0.046
    13   2    -0.300179     CL  1   0.977   O  3   0.023
    14   2    -0.291260     CL  1   0.886   O  3   0.114

 Localized orbitals saved to record      2200.2  (orbital set 4)


 **********************************************************************************************************************************
 DATASETS  * FILE   NREC   LENGTH (MB)   RECORD NAMES
              1      20       30.99       500      610      700      900      950      970     1000      129      960     1100   
                                          VAR    BASINP    GEOM    SYMINP    ZMAT    AOBASIS   BASIS     P2S    ABASIS      S 
                                         1400     1410     1200     1210     1080     1600     1650     1300     1700     1800   
                                           T        V       H0       H01     AOSYM     SMH    MOLCAS    ERIS     OPER     GRID   

              2       5        2.86       700     1000      520     1800     2200   
                                         GEOM     BASIS   MCVARS    GRID      UKS  

 PROGRAMS   *        TOTAL      IBBA       UKS       INT
 CPU TIMES  *         2.92      0.01      2.39      0.36
 REAL TIME  *         3.38 SEC
 DISK USED  *        35.35 MB      
 **********************************************************************************************************************************
 Molecular orbitals read from record     2200.2  Type=UKS/LOCAL(IBO)  
 Occupation numbers read from record     2200.2  Type=UKS/LOCAL(IBO)  
 Orbital energies read from record       2200.2  Type=UKS/LOCAL(IBO)  
 Redundancy group numbers read from rec  2200.2  Type=UKS/BETA (state 1.1)

 IBBA/SVP energy=      0.000000000000

        UKS-SCF 
   -536.58096427
 **********************************************************************************************************************************
 Molpro calculation terminated
