
 Primary working directories    : /local/molpro.BSNwQznC7r
 Secondary working directories  : /local/molpro.BSNwQznC7r
 Wavefunction directory         : /local/
 Main file repository           : /local/molpro.BSNwQznC7r/

 id        : simonbennie

 Nodes     nprocs
 node32-022    1

 Using customized tuning parameters: mindgm=1; mindgv=20; mindgc=4; mindgr=1; noblas=0; minvec=7
 default implementation of scratch files=df  

 memory,500,m
 geomtyp=xyz
 nosym
 noorient
 geometry={
 Cl         0.01882       -0.81730        0.00000
 H         -0.47049        0.56948        0.00000
 O          0.01882        1.66558        0.00000
 }
 basis={default,sto-3g}
 {hf,direct;wf,26,1,2}
 
 basis={ default,6-31+G(d,p) }
 {ks,PBE,direct;disp;wf,26,1,2}
 {ibba,bonds=1}

 Variables initialized (920), CPU time= 0.00 sec
 Commands  initialized (754), CPU time= 0.01 sec, 615 directives.
 Default parameters read. Elapsed time= 0.08 sec

 Checking input...
 Passed
1


                                         ***  PROGRAM SYSTEM MOLPRO  ***
                                       Copyright, TTI GmbH Stuttgart, 2015
                                    Version 2018.0 linked Jul  6 2018 18:07:13


 **********************************************************************************************************************************
 LABEL *                                                                                 
  64 bit serial version                                                                  DATE: 10-Oct-18          TIME: 19:31:26  
 **********************************************************************************************************************************

 SHA1:             b58f8fddb9d75525be9261ebe3faf0e4279c479b
 **********************************************************************************************************************************
 SETTING GEOMTYP        =    XYZ

 Variable memory set to  500000000 words,  buffer space 

 ZSYMEL=NOSYM

 SETTING BASIS          =    STO-3G


 Recomputing integrals since basis changed


 Using spherical harmonics

 Library entry CL     S STO-3G               selected for orbital group  1
 Library entry CL     P STO-3G               selected for orbital group  1
 Library entry H      S STO-3G               selected for orbital group  2
 Library entry O      S STO-3G               selected for orbital group  3
 Library entry O      P STO-3G               selected for orbital group  3


 PROGRAM * SEWARD (Integral evaluation for generally contracted gaussian basis sets)     Author: Roland Lindh, 1990

 Geometry written to block  1 of record 700


 Point group  C1  



 ATOMIC COORDINATES

 NR  ATOM    CHARGE       X              Y              Z

   1  CL     17.00    0.035564646   -1.544473162    0.000000000
   2  H       1.00   -0.889097244    1.076161233    0.000000000
   3  O       8.00    0.035564646    3.147490039    0.000000000

 Bond lengths in Bohr (Angstrom)

 1-2  2.778978993  2-3  2.268347996
     ( 1.470572353)     ( 1.200358066)

 Bond angles

  1-2-3  136.50871150

 NUCLEAR CHARGE:                   26
 NUMBER OF PRIMITIVE AOS:          45
 NUMBER OF SYMMETRY AOS:           45
 NUMBER OF CONTRACTIONS:           15   (  15A   )
 NUMBER OF CORE ORBITALS:           6   (   6A   )
 NUMBER OF VALENCE ORBITALS:        9   (   9A   )


 NUCLEAR REPULSION ENERGY   38.62988493

 EXTRA SYMMETRY OF AOS IN SYMMETRY 1:   1 1 1 1 1 2 1 1 2 1   1 1 1 1 2

 Eigenvalues of metric

         1 0.354E+00 0.607E+00 0.735E+00 0.767E+00 0.768E+00 0.843E+00 0.961E+00 0.100E+01


 Contracted 2-electron integrals neglected if value below      1.0D-11
 AO integral compression algorithm  1   Integral accuracy      1.0D-11

     0.262 MB (compressed) written to integral file ( 51.9%)


 NUMBER OF SORTED TWO-ELECTRON INTEGRALS:       7260.     BUFFER LENGTH:  32768
 NUMBER OF SEGMENTS:   1  SEGMENT LENGTH:       7260      RECORD LENGTH: 524288

 Memory used in sort:       0.56 MW

 SORT1 READ       11341. AND WROTE        2460. INTEGRALS IN      1 RECORDS. CPU TIME:     0.00 SEC, REAL TIME:     0.00 SEC
 SORT2 READ        2460. AND WROTE        7260. INTEGRALS IN      1 RECORDS. CPU TIME:     0.00 SEC, REAL TIME:     0.01 SEC

 FILE SIZES:   FILE 1:    30.2 MBYTE,  FILE 4:     4.2 MBYTE,   TOTAL:     34.5 MBYTE

 OPERATOR DM      FOR CENTER  0  COORDINATES:    0.000000    0.000000    0.000000


 **********************************************************************************************************************************
 DATASETS  * FILE   NREC   LENGTH (MB)   RECORD NAMES
              1      19       30.00       500      610      700      900      950      970     1000      129      960     1100   
                                          VAR    BASINP    GEOM    SYMINP    ZMAT    AOBASIS   BASIS     P2S    ABASIS      S 
                                         1400     1410     1200     1210     1080     1600     1650     1300     1700   
                                           T        V       H0       H01     AOSYM     SMH    MOLCAS    ERIS     OPER   

 PROGRAMS   *        TOTAL       INT
 CPU TIMES  *         0.61      0.47
 REAL TIME  *         0.90 SEC
 DISK USED  *        34.77 MB
 **********************************************************************************************************************************


 PROGRAM * RHF-SCF (OPEN SHELL)       Authors: W. Meyer, H.-J. Werner


 NUMBER OF ELECTRONS:      14+   12-    SPACE SYMMETRY=1    SPIN SYMMETRY: Triplet 
 CONVERGENCE THRESHOLDS:    1.00E-05 (Density)    1.00E-07 (Energy)
 INTEGRAL THRESHOLDS:       1.00E-11 (Initial)    1.00E-11 (Final)
 MAX. NUMBER OF ITERATIONS:       60
 INTERPOLATION TYPE:            DIIS
 INTERPOLATION STEPS:              2 (START)      1 (STEP)
 LEVEL SHIFTS:                 -0.60 (CLOSED) -0.30 (OPEN) 



 Orbital guess generated from atomic densities. Full valence occupancy:   13

 Molecular orbital dump at record        2100.2

 Initial alpha occupancy:  14
 Initial beta  occupancy:  12
 Wave function symmetry:    1

 Direct Fock-matrix evaluation.        Author: H.-J. Werner (1996)

 Integral Threshold:                  0.1D-10

 ITERATION   DDIFF            GRAD            ENERGY        2-EL.EN.            DIPOLE MOMENTS         DIIS   CPU(IT)  CPU(TOT)
    1      0.000D+00      0.000D+00      -528.86780112    487.327351   -0.46617    2.20660   -0.00000    0      1.0      1.8     start
    2      0.000D+00      0.162D-01      -528.89007426    486.741045   -0.40631    1.91368   -0.00000    1      0.5      2.3     diag,B
    3      0.238D-01      0.866D-02      -528.90108576    486.213765   -0.33703    1.67998   -0.00000    2      0.5      2.8     diag,B
    4      0.237D-01      0.230D-02      -528.90263319    486.183744   -0.33076    1.68577   -0.00000    3      0.5      3.3     diag,B
    5      0.547D-02      0.115D-02      -528.90317226    486.200092   -0.33575    1.70749   -0.00000    4      0.5      3.8     diag,B
    6      0.441D-02      0.352D-03      -528.90320504    486.214686   -0.34101    1.71540   -0.00000    5      0.5      4.2     diag,B
    7      0.115D-02      0.186D-03      -528.90321761    486.202544   -0.34060    1.70950   -0.00000    6      0.5      4.7     fixocc
    8      0.683D-03      0.131D-03      -528.90322735    486.201393   -0.34089    1.70851   -0.00000    7      0.5      5.2     diag,B
    9      0.464D-03      0.116D-03      -528.90324888    486.185964   -0.34033    1.70025   -0.00000    8      0.5      5.7     diag,B
   10      0.114D-02      0.113D-03      -528.90329088    486.147196   -0.34035    1.67697   -0.00000    9      0.5      6.2     orth
   11      0.415D-02      0.493D-04      -528.90329171    486.142806   -0.34020    1.67488   -0.00000    9      0.5      6.7     diag,B
   12      0.290D-03      0.123D-04      -528.90329188    486.140586   -0.34032    1.67358   -0.00000    9      0.5      7.2     diag,B
   13      0.276D-03      0.217D-05      -528.90329188    486.140515   -0.34032    1.67351   -0.00000    9      0.5      7.6     diag,B
   14      0.910D-05      0.443D-06      -528.90329188    486.140619   -0.34032    1.67361   -0.00000    0      0.5      8.1     orth

 Final alpha occupancy:  14
 Final beta  occupancy:  12

 !RHF STATE  1.1 Energy              -528.903291884058
 Nuclear energy                        38.62988493
 One-electron energy                 -810.60348609
 Two-electron energy                  243.07030928
 Virial quotient                       -1.01583062
 !RHF STATE  1.1 Dipole moment         -0.34032076     1.67361269    -0.00000000
 Dipole moment /Debye                  -0.86495243     4.25362053    -0.00000000

 Orbital energies:

         1.1          2.1          3.1          4.1          5.1          6.1          7.1          8.1          9.1         10.1
   -103.566791   -20.540908   -10.263996    -7.707497    -7.702900    -7.702817    -1.332382    -0.949129    -0.668774    -0.401932

        11.1         12.1         13.1         14.1         15.1
     -0.346079    -0.344187    -0.728748    -0.679391     0.490570


 HOMO     14.1    -0.679391 =     -18.4872eV
 LUMO     15.1     0.490570 =      13.3491eV
 LUMO-HOMO         1.169961 =      31.8363eV


 **********************************************************************************************************************************
 DATASETS  * FILE   NREC   LENGTH (MB)   RECORD NAMES
              1      19       30.00       500      610      700      900      950      970     1000      129      960     1100   
                                          VAR    BASINP    GEOM    SYMINP    ZMAT    AOBASIS   BASIS     P2S    ABASIS      S 
                                         1400     1410     1200     1210     1080     1600     1650     1300     1700   
                                           T        V       H0       H01     AOSYM     SMH    MOLCAS    ERIS     OPER   

              2       4        2.78       700     1000      520     2100   
                                         GEOM     BASIS   MCVARS     RHF  

 PROGRAMS   *        TOTAL    HF-SCF       INT
 CPU TIMES  *         8.75      8.14      0.47
 REAL TIME  *        10.48 SEC
 DISK USED  *        34.77 MB
 **********************************************************************************************************************************
 SETTING BASIS          =    6-31+G(D,P)


 Recomputing integrals since basis changed


 Using spherical harmonics

 Library entry CL     S 6-31G                selected for orbital group  1
 Library entry CL     S 6-31++G              selected for orbital group  1
 Library entry CL     P 6-31G                selected for orbital group  1
 Library entry CL     P 6-31++G              selected for orbital group  1
 Library entry CL     D 6-31G*               selected for orbital group  1
 Library entry H      S 6-31G                selected for orbital group  2
 Library entry H      P 6-31G**              selected for orbital group  2
 Library entry O      S 6-31G                selected for orbital group  3
 Library entry O      S 6-31++G              selected for orbital group  3
 Library entry O      P 6-31G                selected for orbital group  3
 Library entry O      P 6-31++G              selected for orbital group  3
 Library entry O      D 6-31G*               selected for orbital group  3


 PROGRAM * SEWARD (Integral evaluation for generally contracted gaussian basis sets)     Author: Roland Lindh, 1990

 Geometry written to block  1 of record 700


 Point group  C1  



 ATOMIC COORDINATES

 NR  ATOM    CHARGE       X              Y              Z

   1  CL     17.00    0.035564646   -1.544473162    0.000000000
   2  H       1.00   -0.889097244    1.076161233    0.000000000
   3  O       8.00    0.035564646    3.147490039    0.000000000

 Bond lengths in Bohr (Angstrom)

 1-2  2.778978993  2-3  2.268347996
     ( 1.470572353)     ( 1.200358066)

 Bond angles

  1-2-3  136.50871150

 NUCLEAR CHARGE:                   26
 NUMBER OF PRIMITIVE AOS:          95
 NUMBER OF SYMMETRY AOS:           93
 NUMBER OF CONTRACTIONS:           45   (  45A   )
 NUMBER OF CORE ORBITALS:           6   (   6A   )
 NUMBER OF VALENCE ORBITALS:        9   (   9A   )


 NUCLEAR REPULSION ENERGY   38.62988493

 EXTRA SYMMETRY OF AOS IN SYMMETRY 1:   1 1 1 1 1 1 1 2 1 1   2 1 1 2 1 1 2 1 1 2   1 2 1 1 1 1 2 1 1 1   1 1 1 2 1 1 2 1 1 2
                                        1 1 2 1 2

 Eigenvalues of metric

         1 0.163E-01 0.316E-01 0.620E-01 0.119E+00 0.141E+00 0.147E+00 0.153E+00 0.161E+00


 Contracted 2-electron integrals neglected if value below      1.0D-11
 AO integral compression algorithm  1   Integral accuracy      1.0D-11

     1.573 MB (compressed) written to integral file ( 22.4%)


 NUMBER OF SORTED TWO-ELECTRON INTEGRALS:     536130.     BUFFER LENGTH:  32768
 NUMBER OF SEGMENTS:   1  SEGMENT LENGTH:     536130      RECORD LENGTH: 524288

 Memory used in sort:       1.09 MW

 SORT1 READ      766628. AND WROTE      187583. INTEGRALS IN      1 RECORDS. CPU TIME:     0.00 SEC, REAL TIME:     0.01 SEC
 SORT2 READ      187583. AND WROTE      536130. INTEGRALS IN      6 RECORDS. CPU TIME:     0.04 SEC, REAL TIME:     0.05 SEC

 FILE SIZES:   FILE 1:    31.6 MBYTE,  FILE 4:     4.2 MBYTE,   TOTAL:     35.9 MBYTE

 OPERATOR DM      FOR CENTER  0  COORDINATES:    0.000000    0.000000    0.000000


 **********************************************************************************************************************************
 DATASETS  * FILE   NREC   LENGTH (MB)   RECORD NAMES
              1      19       31.01       500      610      700      900      950      970     1001      129      960     1100   
                                          VAR    BASINP    GEOM    SYMINP    ZMAT    AOBASIS   BASIS     P2S    ABASIS      S 
                                         1400     1410     1200     1210     1080     1600     1650     1300     1700   
                                           T        V       H0       H01     AOSYM     SMH    MOLCAS    ERIS     OPER   

              2       5        2.80       700     1000      520     2100     1001   
                                         GEOM     BASIS   MCVARS     RHF     BASIS   

 PROGRAMS   *        TOTAL       INT    HF-SCF       INT
 CPU TIMES  *         9.19      0.44      8.14      0.47
 REAL TIME  *        10.98 SEC
 DISK USED  *        38.71 MB
 **********************************************************************************************************************************

 Density functional group PBE=PBEX+PBEC
 Functional: PBEX(Automatically generated (new) PBEX)                          Gradient terms: 1
 Functional: PBEC(Automatically generated (new) PBEC)                          Gradient terms: 1

 dispersion correction activated
 Use libxcgrid:  F
 Use grid at  1800.2

 Functional: PBEX                      Factor:  1.0000
 Functional: PBEC                      Factor:  1.0000

 Generated new metagrid on record  1800.2 with target accuracy 1.0D-06 and 16184 points in CPU time    0.2
 Computed new grid on record 1800.1 in CPU time    0.2
   39863 words reserved for DFT integration

 PROGRAM * RKS-SCF (Restricted open shell Kohn-Sham)     Authors: W. Meyer, H.-J. Werner, P.J. Knowles, 1993

 NUMBER OF ELECTRONS:      14+   12-    SPACE SYMMETRY=1    SPIN SYMMETRY: Triplet 
 CONVERGENCE THRESHOLDS:    1.00E-05 (Density)    1.00E-06 (Energy)
 MAX. NUMBER OF ITERATIONS:       60
 INTERPOLATION TYPE:            DIIS
 INTERPOLATION STEPS:              2 (START)      1 (STEP)
 LEVEL SHIFTS:                 -0.60 (CLOSED) -0.30 (OPEN) 



 Use fine grid record 1800.2 for energy threshold  1.0D-06
 Molecular orbitals read from record     2100.2  Type=RHF/CANONICAL (state 1.1)

 Present basis size:      45
 Previous basis size:     15
 Previous occupation:     14
 Previous closed-shells:  12
 Previous core-orbitals:   6
 Present occupation:      14
 Present closed-shells:   12
 Present core-orbitals:    6
 Wavefunction symmetry:    1   Triplet 

 Orbital overlap <old|new>:  < 1.1| 1.1> = 0.999828   < 2.1| 2.1> = 0.999845   < 3.1| 3.1> = 0.999034   < 4.1| 4.1> = 0.998818
                             < 5.1| 5.1> = 0.998810   < 6.1| 6.1> = 0.998809   < 7.1| 7.1> = 0.999500   < 8.1| 8.1> = 0.998452
                             < 9.1| 9.1> = 0.997246   <10.1|10.1> = 0.997649   <11.1|11.1> = 0.998013   <12.1|12.1> = 0.997981
                             <13.1|13.1> = 0.995864   <14.1|14.1> = 0.995994


 Molecular orbital dump at record        2101.2

 ITERATION    DDIFF          GRAD             ENERGY        2-EL.EN.            DIPOLE MOMENTS         DIIS   ORB.
    1      0.000D+00      0.000D+00      -535.29452048    567.011797   -0.32980    1.67041    0.00000    0    start
    2      0.000D+00      0.312D-01      -535.53679691    556.790389   -0.17620    0.91166   -0.00000    1    diag,B
    3      0.304D-01      0.556D-02      -535.56843042    557.419630   -0.26084    0.60223    0.00000    2    diag,B
    4      0.128D-01      0.265D-02      -535.57984565    556.644607   -0.27614    0.46307   -0.00000    3    diag,B
    5      0.615D-02      0.122D-02      -535.58385124    556.373481   -0.29263    0.15504    0.00000    4    diag,B
    6      0.352D-02      0.119D-02      -535.58548808    556.375392   -0.29796    0.15490    0.00000    5    diag,B
    7      0.211D-02      0.427D-03      -535.58628986    556.297946   -0.29986    0.07271    0.00000    6    diag,B
    8      0.217D-02      0.204D-03      -535.58644734    556.291316   -0.29872    0.05144    0.00000    7    orth
    9      0.961D-03      0.658D-04      -535.58647537    556.302251   -0.29883    0.04365   -0.00000    8    diag,B
   10      0.330D-03      0.299D-04      -535.58648463    556.302100   -0.29896    0.04184   -0.00000    9    diag,B
   11      0.126D-03      0.223D-04      -535.58649494    556.302787   -0.29948    0.04052   -0.00000    9    diag,B
   12      0.175D-03      0.161D-04      -535.58650462    556.304839   -0.30018    0.04052   -0.00000    9    diag,B
   13      0.268D-03      0.812D-05      -535.58650675    556.305038   -0.30038    0.04103   -0.00000    9    diag,B
   14      0.153D-03      0.343D-05      -535.58650689    556.305548   -0.30037    0.04119    0.00000    9    diag,B
   15      0.464D-04      0.972D-06      -535.58650690    556.305636   -0.30034    0.04124    0.00000    9    diag,B
   16      0.559D-05      0.387D-06      -535.58650690    556.305627   -0.30033    0.04120    0.00000    0    orth
  _________________________________
                                   
 |         DFTD3 V3.1 Rev 1        |
 | S.Grimme, University Bonn       |
 |         October  2015           |
  _________________________________

 Please cite DFT-D3 work done with this code as:
 S. Grimme, J. Antony, S. Ehrlich and H. Krieg,
 J. Chem. Phys. 132 (2010), 154104
 If used with BJ-damping cite also
 S. Grimme, S. Ehrlich and L. Goerigk,
 J. Comput. Chem. 32 (2011), 1456-1465
 For DFT-D2 the reference is
 S. Grimme, J. Comput. Chem., 27 (2006), 1787-1799
 For DFT-D3M or DFT-D3M(BJ) the reference is
 D.G.A. Smith, L.A. Burns, K. Patkowski, and 
 C.D. Sherrill, J. Phys. Chem. Lett. 7 (2016) 2197-2203

C6 coefficients used:
                    2  C6 for element                     1
Z=  1 CN= 0.912     C6(AA)=    3.03
Z=  1 CN= 0.000     C6(AA)=    7.59
                    3  C6 for element                     8
Z=  8 CN= 0.000     C6(AA)=   15.51
Z=  8 CN= 0.993     C6(AA)=   12.82
Z=  8 CN= 1.989     C6(AA)=   10.37
                    2  C6 for element                    17
Z= 17 CN= 0.000     C6(AA)=   92.35
Z= 17 CN= 0.997     C6(AA)=   90.40

#               XYZ [au]               R0(AA) [Ang.]  CN       C6(AA)     C8(AA)   C10(AA) [au] 
   1   0.03556  -1.54447   0.00000   cl    1.552    1.064        90.4      3772.6    192824.2
   2  -0.88910   1.07616   0.00000   h     1.091    1.660         3.0        36.6       541.9
   3   0.03556   3.14749   0.00000   o     1.241    0.819        13.0       262.1      6478.3

molecular C6(AA) [au] =       218.95

           DFT-D V3
 DF pbe                                               
 parameters
 s6       :    1.0000
 s8       :    0.7220
 rs6      :    1.2170
 rs18     :    1.0000
 alpha6   :   14.0000
 alpha8   :   16.0000
 k1-k3    :   16.0000    1.3333   -4.0000
 Cutoff   :   94.8683 a.u.
 CN-Cutoff:   40.0000 a.u.

 Edisp /kcal,au:    -0.0687 -0.00010949

 E6    /kcal :    -0.0054
 E8    /kcal :    -0.0633
 % E8        : 92.17

  PBE D3 dispersion correction         -0.000109492084
 normal termination of dftd3

 Final alpha occupancy:  14
 Final beta  occupancy:  12

 !RKS STATE  1.1 Energy              -535.586616388538
 Nuclear energy                        38.62988493
 One-electron energy                 -815.60782021
 Two-electron energy                  278.15281372
 Density functional                   -36.76138534     PBEX=-35.82298040 PBEC= -0.93840494
 Virial quotient                       -1.00220786
 !RKS STATE  1.1 Dipole moment         -0.30032995     0.04120020     0.00000000
 Dipole moment /Debye                  -0.76331260     0.10471361     0.00000000

 Orbital energies:

         1.1          2.1          3.1          4.1          5.1          6.1          7.1          8.1          9.1         10.1
   -100.697586   -18.900707    -9.210989    -7.033689    -7.027012    -7.026054    -0.917365    -0.768205    -0.470817    -0.337455

        11.1         12.1         13.1         14.1         15.1         16.1
     -0.327010    -0.311518    -0.376045    -0.333385     0.000326     0.051149


 HOMO     14.1    -0.333385 =      -9.0719eV
 LUMO     15.1     0.000326 =       0.0089eV
 LUMO-HOMO         0.333711 =       9.0807eV


 **********************************************************************************************************************************
 DATASETS  * FILE   NREC   LENGTH (MB)   RECORD NAMES
              1      20       31.53       500      610      700      900      950      970     1001      129      960     1100   
                                          VAR    BASINP    GEOM    SYMINP    ZMAT    AOBASIS   BASIS     P2S    ABASIS      S 
                                         1400     1410     1200     1210     1080     1600     1650     1300     1700     1800   
                                           T        V       H0       H01     AOSYM     SMH    MOLCAS    ERIS     OPER     GRID   

              2       7        5.35       700     1000      520     2100     1001     1800     2101   
                                         GEOM     BASIS   MCVARS     RHF     BASIS    GRID      RKS  

 PROGRAMS   *        TOTAL    KS-SCF       INT    HF-SCF       INT
 CPU TIMES  *        10.63      1.44      0.44      8.14      0.47
 REAL TIME  *        12.47 SEC
 DISK USED  *        38.71 MB
 **********************************************************************************************************************************


 PROGRAM * Intrinsic Basis Bonding Analysis (IBBA)          Author: G. Knizia

 Molecular orbitals read from record     2101.2  Type=RKS/CANONICAL (state 1.1)
 Fock matrix read from record            2101.2  Type=RKS/TOTAL (state 1.1)
 Orbital energies read from record       2101.2  Type=RKS/CANONICAL (state 1.1)
 Density matrix read from record         2101.2  Type=RKS/CHARGE (state 1.1)

 Number of core orbitals:           6 (   6 )
 Number of closed-shell orbitals:   6 (   6 )
 Number of active  orbitals:        2 (   2 )

 Basis set MINAO-AUTO-PP generated.      Number of basis functions:   15 

 Polarized AO type:                A = (O Ot + (1-O)(1-Ot)) P12
 Orthogonalization method:         Symmetric (Loewdin)
 Localization functional:          L = sum[A,i] <i|n_A|i>^4 -> max

 Localization group 1:  12 orbitals, occupancy  2.000
 Iterative localization: IB/PM,    7 iter; Final gradient 0.10E-08

 Bond order analysis:       [THRPRINT= 0.020]

   CEN ATOM   CEN ATOM     WIBERG.BO      RENORM.BO
     1  CL  -   3   O       1.398064       2.029976
     1  CL  -   2   H       0.442608       0.461506

     2   H  -   3   O       0.479436       0.571420
     2   H  -   1  CL       0.442608       0.461506

     3   O  -   1  CL       1.398064       2.029976
     3   O  -   2   H       0.479436       0.571420


 Valency analysis:

   CEN ATOM   TOT.VALENCE
     1  CL       1.840672
     2   H       0.922044
     3   O       1.877499
 Localization group 2:   2 orbitals, occupancy  1.000
 Iterative localization: IB/PM,    1 iter; Final gradient 0.29E-14

 Bond order analysis:       [THRPRINT= 0.020]

   CEN ATOM   CEN ATOM     WIBERG.BO      RENORM.BO
     1  CL  -   3   O       0.711584       1.000000


     3   O  -   1  CL       0.711584       1.000000


 Valency analysis:

   CEN ATOM   TOT.VALENCE
     1  CL       0.712448
     2   H       0.002395
     3   O       0.713114

 Total charge composition:

   CEN ATOM         s          p       ELECTRONS ->P.CHARGE
     1  CL       5.91707   11.20600     17.12307   -0.12307
     2   H       0.72199                 0.72199    0.27801
     3   O       3.91217    4.24277      8.15493   -0.15493

 Total charge composition, AO contributions:

   CEN ATOM SHL      SPHERICAL COMPONENTS
     1  CL  1s       1.99997
     1  CL  2s       1.99847
     1  CL  3s       1.91863
     1  CL  2p       1.99998    1.99983    2.00000
     1  CL  3p       1.88828    1.46385    1.85407

     2   H  1s       0.72199

     3   O  1s       1.99937
     3   O  2s       1.91280
     3   O  2p       1.73939    1.35745    1.14593

 Active orbital charges:

   CEN ATOM         s          p       ELECTRONS ->SPIN.DEN
     1  CL       0.00038    0.50755      0.50793    0.50793
     2   H       0.00120                 0.00120    0.00120
     3   O       0.00042    1.49045      1.49087    1.49087

 Active orbital charges, AO contributions:

   CEN ATOM SHL      SPHERICAL COMPONENTS
     1  CL  1s       0.00000
     1  CL  2s       0.00000
     1  CL  3s       0.00038
     1  CL  2p       0.00000    0.00000    0.00000
     1  CL  3p       0.06143    0.29871    0.14741

     2   H  1s       0.00120

     3   O  1s       0.00001
     3   O  2s       0.00041
     3   O  2p       0.18017    0.45769    0.85259

 Summary of localized orbital composition:   [THRPRINT= 0.020]

   ORB  GRP  ORB.ENERGY      CENTERS/CHARGES
     1   1  -100.658466     CL  1   2.000
     2   1   -18.781141      O  3   2.000
     3   1    -9.006249     CL  1   2.000
     4   1    -7.027017     CL  1   2.000
     5   1    -7.022091     CL  1   2.000
     6   1    -7.016421     CL  1   2.000
     7   1    -0.782429     CL  1   2.000
     8   1    -0.767629      O  3   2.000
     9   1    -0.596293      O  3   1.705   H  2   0.238  CL  1   0.057
    10   1    -0.536509     CL  1   1.802   H  2   0.121   O  3   0.077
    11   1    -0.507159     CL  1   1.049   O  3   0.589   H  2   0.362
    12   1    -0.327012     CL  1   1.707   O  3   0.293
    13   2    -0.321761      O  3   0.853  CL  1   0.147
    14   2    -0.295078      O  3   0.638  CL  1   0.361

 Localized orbitals saved to record      2101.2  (orbital set 2)


 **********************************************************************************************************************************
 DATASETS  * FILE   NREC   LENGTH (MB)   RECORD NAMES
              1      20       31.53       500      610      700      900      950      970     1001      129      960     1100   
                                          VAR    BASINP    GEOM    SYMINP    ZMAT    AOBASIS   BASIS     P2S    ABASIS      S 
                                         1400     1410     1200     1210     1080     1600     1650     1300     1700     1800   
                                           T        V       H0       H01     AOSYM     SMH    MOLCAS    ERIS     OPER     GRID   

              2       7        5.37       700     1000      520     2100     1001     1800     2101   
                                         GEOM     BASIS   MCVARS     RHF     BASIS    GRID      RKS  

 PROGRAMS   *        TOTAL      IBBA    KS-SCF       INT    HF-SCF       INT
 CPU TIMES  *        10.65      0.02      1.44      0.44      8.14      0.47
 REAL TIME  *        12.50 SEC
 DISK USED  *        38.71 MB
 **********************************************************************************************************************************

 IBBA/6-31+G(D,P) energy=      0.000000000000

          KS-SCF          HF-SCF
   -535.58661639   -528.90329188
 **********************************************************************************************************************************
 Molpro calculation terminated
