
 Primary working directories    : /local
 Secondary working directories  : /local
 Wavefunction directory         : /local/
 Main file repository           : /local/

 SHA1      : b4a5b34a9e711420743f49e6833241d17c61fb3c
 NAME      : 2099.9.b4a5b34
 ARCHNAME  : linux/x86_64_openmp
 FC        : /cm/shared/languages/GCC-6.1/bin/gfortran
 BLASLIB   : -lblas
 id        : simonbennie

 Nodes     nprocs
 node32-005    1

 Using customized tuning parameters: mindgm=1; mindgv=20; mindgc=4; mindgr=1; noblas=0; minvec=7
 default implementation of scratch files=df  

 memory,500,m
 geomtyp=xyz
 nosym
 noorient
 geometry={
 Cl         0.01882       -0.81730        0.00000
 H         -0.47049        0.56948        0.00000
 O          0.01882        1.66558        0.00000
 }
 basis={ default,qzvp }
 {ks,M06,direct;wf,26,1,2}
 {ibba,bonds=1}

 Variables initialized (895), CPU time= 0.00 sec
 Commands  initialized (725), CPU time= 0.02 sec, 591 directives.
 Default parameters read. Elapsed time= 0.08 sec

 Checking input...
 Passed
1


                                         ***  PROGRAM SYSTEM MOLPRO  ***
                                       Copyright, TTI GmbH Stuttgart, 2015
                                    Version 2099.9 linked May 26 2017 16:03:21


 **********************************************************************************************************************************
 LABEL *                                                                                 
  64 bit serial version                                                                  DATE: 23-Jun-17          TIME: 06:02:34  
 **********************************************************************************************************************************

 SHA1:             b4a5b34a9e711420743f49e6833241d17c61fb3c
 **********************************************************************************************************************************
 SETTING GEOMTYP        =    XYZ

 Variable memory set to  500000000 words,  buffer space 

 ZSYMEL=NOSYM

 SETTING BASIS          =    QZVP


 Recomputing integrals since basis changed


 Using spherical harmonics

 Library entry CL     S def2-QZVP            selected for orbital group  1
 Library entry CL     P def2-QZVP            selected for orbital group  1
 Library entry CL     D def2-QZVP            selected for orbital group  1
 Library entry CL     F def2-QZVP            selected for orbital group  1
 Library entry CL     G def2-QZVP            selected for orbital group  1
 Library entry H      S def2-QZVP            selected for orbital group  2
 Library entry H      P def2-QZVP            selected for orbital group  2
 Library entry H      D def2-QZVP            selected for orbital group  2
 Library entry H      F def2-QZVP            selected for orbital group  2
 Library entry O      S def2-QZVP            selected for orbital group  3
 Library entry O      P def2-QZVP            selected for orbital group  3
 Library entry O      D def2-QZVP            selected for orbital group  3
 Library entry O      F def2-QZVP            selected for orbital group  3
 Library entry O      G def2-QZVP            selected for orbital group  3


 PROGRAM * SEWARD (Integral evaluation for generally contracted gaussian basis sets)     Author: Roland Lindh, 1990

 Geometry written to block  1 of record 700


 Point group  C1  



 ATOMIC COORDINATES

 NR  ATOM    CHARGE       X              Y              Z

   1  CL     17.00    0.035564646   -1.544473162    0.000000000
   2  H       1.00   -0.889097244    1.076161233    0.000000000
   3  O       8.00    0.035564646    3.147490039    0.000000000

 Bond lengths in Bohr (Angstrom)

 1-2  2.778978993  2-3  2.268347996
     ( 1.470572353)     ( 1.200358066)

 Bond angles

  1-2-3  136.50871150

 NUCLEAR CHARGE:                   26
 NUMBER OF PRIMITIVE AOS:         251
 NUMBER OF SYMMETRY AOS:          215
 NUMBER OF CONTRACTIONS:          157   ( 157A   )
 NUMBER OF CORE ORBITALS:           6   (   6A   )
 NUMBER OF VALENCE ORBITALS:        9   (   9A   )


 NUCLEAR REPULSION ENERGY   38.62988493

 EXTRA SYMMETRY OF AOS IN SYMMETRY 1:   1 1 1 1 1 1 1 1 1 1   1 2 1 1 2 1 1 2 1 1   2 1 1 2 1 1 2 1 1 2   1 2 1 1 2 1 2 1 1 2
                                        1 2 1 1 2 1 2 1 1 2   1 2 1 2 1 1 2 1 2 1   2 1 1 2 1 2 1 1 2 2   1 1 1 1 1 1 2 1 1 2
                                        1 1 2 1 1 2 1 2 1 1   2 1 2 1 1 2 1 2 1 2   1 1 1 1 1 1 1 1 1 2   1 1 2 1 1 2 1 1 2 1
                                        1 2 1 2 1 1 2 1 2 1   1 2 1 2 1 1 2 1 2 1   2 1 1 2 1 2 1 2 1 1   2 1 2 1 1 2 2

 Eigenvalues of metric

         1 0.736E-03 0.109E-02 0.177E-02 0.433E-02 0.500E-02 0.775E-02 0.954E-02 0.136E-01


 Contracted 2-electron integrals neglected if value below      1.0D-11
 AO integral compression algorithm  1   Integral accuracy      1.0D-11

     145.752 MB (compressed) written to integral file ( 19.5%)


 NUMBER OF SORTED TWO-ELECTRON INTEGRALS:   76923406.     BUFFER LENGTH:  32768
 NUMBER OF SEGMENTS:   5  SEGMENT LENGTH:   15999503      RECORD LENGTH: 524288

 Memory used in sort:      16.56 MW

 SORT1 READ    93320247. AND WROTE    26824709. INTEGRALS IN     79 RECORDS. CPU TIME:     0.58 SEC, REAL TIME:     0.98 SEC
 SORT2 READ    26824709. AND WROTE    76923406. INTEGRALS IN    556 RECORDS. CPU TIME:     1.30 SEC, REAL TIME:     1.54 SEC

 FILE SIZES:   FILE 1:   176.7 MBYTE,  FILE 4:   331.4 MBYTE,   TOTAL:    508.1 MBYTE

 OPERATOR DM      FOR CENTER  0  COORDINATES:    0.000000    0.000000    0.000000


 **********************************************************************************************************************************
 DATASETS  * FILE   NREC   LENGTH (MB)   RECORD NAMES
              1      19      144.19       500      610      700      900      950      970     1000      129      960     1100   
                                          VAR    BASINP    GEOM    SYMINP    ZMAT    AOBASIS   BASIS     P2S    ABASIS      S 
                                         1400     1410     1200     1210     1080     1600     1650     1300     1700   
                                           T        V       H0       H01     AOSYM     SMH    MOLCAS    ERIS     OPER   

 PROGRAMS   *        TOTAL       INT
 CPU TIMES  *         6.71      6.57
 REAL TIME  *         8.61 SEC
 DISK USED  *       508.41 MB      
 **********************************************************************************************************************************

 Density functional group M06=XC-M06
 Functional: XC-M06(via MFM 1.6)                                               Gradient terms: 1
 Use grid at  1800.2


 Exact exchange will be calculated, factor:  0.2700

 Functional: XC-M06                    Factor:  1.0000

 Generated new metagrid on record  1800.2 with target accuracy 1.0D-06 and 17792 points in CPU time    0.2
 Computed new grid on record 1800.1 in CPU time    0.2
  128927 words reserved for DFT integration

 PROGRAM * RKS-SCF (Restricted open shell Kohn-Sham)     Authors: W. Meyer, H.-J. Werner, P.J. Knowles, 1993

 NUMBER OF ELECTRONS:      14+   12-    SPACE SYMMETRY=1    SPIN SYMMETRY: Triplet 
 CONVERGENCE THRESHOLDS:    1.00E-05 (Density)    1.00E-06 (Energy)
 MAX. NUMBER OF ITERATIONS:       60
 INTERPOLATION TYPE:            DIIS
 INTERPOLATION STEPS:              2 (START)      1 (STEP)
 LEVEL SHIFTS:                 -0.60 (CLOSED) -0.30 (OPEN) 



 Use fine grid record 1800.2 for energy threshold  1.0D-06
 Orbital guess generated from atomic densities. Full valence occupancy:   13

 Molecular orbital dump at record        2100.2

 Initial alpha occupancy:  14
 Initial beta  occupancy:  12
 Wave function symmetry:    1

 ITERATION    DDIFF          GRAD             ENERGY        2-EL.EN.            DIPOLE MOMENTS         DIIS   ORB.
    1      0.000D+00      0.000D+00      -535.77376178    536.939234   -0.34942   -2.07487    0.00000    0    start
    2      0.000D+00      0.479D-02      -535.76652853    538.826999   -0.22298    1.02871    0.00000    1    diag,B
    3      0.309D-02      0.678D-02      -535.84933394    537.895716   -0.24337   -0.02539   -0.00000    2    diag,B
    4      0.143D-02      0.135D-02      -535.85628199    537.802425   -0.24347    0.00622    0.00000    3    diag,B
    5      0.511D-03      0.598D-03      -535.85996511    537.821736   -0.24290    0.13201    0.00000    4    diag,B
    6      0.450D-03      0.382D-03      -535.86330784    537.857226   -0.24306    0.27563    0.00000    5    diag,B
    7      0.716D-03      0.150D-03      -535.86410523    537.894267   -0.24313    0.31694    0.00000    6    fixocc
    8      0.269D-03      0.101D-03      -535.86457844    537.876558   -0.24199    0.31272    0.00000    7    diag,B
    9      0.219D-03      0.860D-04      -535.86479141    537.905260   -0.24164    0.30337    0.00000    8    diag,B
   10      0.136D-03      0.591D-04      -535.86493294    537.885056   -0.24103    0.28015   -0.00000    9    orth
   11      0.101D-03      0.358D-04      -535.86503642    537.872749   -0.24019    0.24753   -0.00000    9    diag,B
   12      0.153D-03      0.139D-04      -535.86505134    537.866596   -0.23999    0.23467   -0.00000    9    diag,B
   13      0.577D-04      0.688D-05      -535.86505302    537.864589   -0.23985    0.23287    0.00000    9    diag,B
   14      0.155D-04      0.521D-05      -535.86505377    537.863297   -0.23976    0.23093    0.00000    9    diag,B
   15      0.860D-05      0.275D-05      -535.86505406    537.862972   -0.23972    0.23081   -0.00000    0    orth

 Final alpha occupancy:  14
 Final beta  occupancy:  12

 !RKS STATE 1.1 Energy               -535.865054055758
 Nuclear energy                        38.62988493
 One-electron energy                 -816.13981951
 Two-electron energy                  268.93148615
 Density functional                   -27.28660562     XC-M06=-27.28660562
 Virial quotient                       -1.00174060
 !RKS STATE 1.1 Dipole moment          -0.23972333     0.23081204    -0.00000000
 Dipole moment /Debye                  -0.60927602     0.58662726    -0.00000000

 Orbital energies:

         1.1          2.1          3.1          4.1          5.1          6.1          7.1          8.1          9.1         10.1
   -101.738893   -19.357782    -9.607019    -7.316735    -7.309115    -7.308557    -1.027959    -0.848408    -0.530703    -0.401510

        11.1         12.1         13.1         14.1         15.1         16.1
     -0.356251    -0.355797    -0.480003    -0.394477     0.035087     0.124257

 HOMO     14.1    -0.394477 =     -10.7343eV
 LUMO     15.1     0.035087 =       0.9548eV
 LUMO-HOMO         0.429563 =      11.6890eV


 **********************************************************************************************************************************
 DATASETS  * FILE   NREC   LENGTH (MB)   RECORD NAMES
              1      20      144.76       500      610      700      900      950      970     1000      129      960     1100   
                                          VAR    BASINP    GEOM    SYMINP    ZMAT    AOBASIS   BASIS     P2S    ABASIS      S 
                                         1400     1410     1200     1210     1080     1600     1650     1300     1700     1800   
                                           T        V       H0       H01     AOSYM     SMH    MOLCAS    ERIS     OPER     GRID   

              2       5        3.50       700     1000      520     1800     2100   
                                         GEOM     BASIS   MCVARS    GRID      RKS  

 PROGRAMS   *        TOTAL        KS       INT
 CPU TIMES  *        66.12     59.41      6.57
 REAL TIME  *        69.03 SEC
 DISK USED  *       508.41 MB      
 **********************************************************************************************************************************


 PROGRAM * Intrinsic Basis Bonding Analysis (IBBA)          Author: G. Knizia

 Molecular orbitals read from record     2100.2  Type=RKS/CANONICAL (state 1.1)
 Fock matrix read from record            2100.2  Type=RKS/TOTAL (state 1.1)
 Orbital energies read from record       2100.2  Type=RKS/CANONICAL (state 1.1)
 Density matrix read from record         2100.2  Type=RKS/CHARGE (state 1.1)

 Number of core orbitals:           6 (   6 )
 Number of closed-shell orbitals:   6 (   6 )
 Number of active  orbitals:        2 (   2 )

 Basis set MINAO-AUTO-PP generated.      Number of basis functions:   15 

 Polarized AO type:                A = (O Ot + (1-O)(1-Ot)) P12
 Orthogonalization method:         Symmetric (Loewdin)
 Localization functional:          L = sum[A,i] <i|n_A|i>^4 -> max

 Localization group 1:  12 orbitals, occupancy  2.000
 Iterative localization: IB/PM,    7 iter; Final gradient 0.63E-09

 Bond order analysis:       [THRPRINT= 0.020]

   CEN ATOM   CEN ATOM     WIBERG.BO      RENORM.BO
     1  CL  -   3   O       0.945517       2.020313
     1  CL  -   2   H       0.454274       0.553533

     2   H  -   3   O       0.456887       0.630649
     2   H  -   1  CL       0.454274       0.553533

     3   O  -   1  CL       0.945517       2.020313
     3   O  -   2   H       0.456887       0.630649


 Valency analysis:

   CEN ATOM   TOT.VALENCE
     1  CL       1.399792
     2   H       0.911162
     3   O       1.402404
 Localization group 2:   2 orbitals, occupancy  1.000
 Iterative localization: IB/PM,    1 iter; Final gradient 0.39E-13

 Bond order analysis:       [THRPRINT= 0.020]

   CEN ATOM   CEN ATOM     WIBERG.BO      RENORM.BO
     1  CL  -   3   O       0.532095       1.000000


     3   O  -   1  CL       0.532095       1.000000


 Valency analysis:

   CEN ATOM   TOT.VALENCE
     1  CL       0.533609
     2   H       0.003838
     3   O       0.534420

 Total charge composition:

   CEN ATOM         s          p       ELECTRONS ->P.CHARGE
     1  CL       5.91457   11.27220     17.18678   -0.18678
     2   H       0.70386                 0.70386    0.29614
     3   O       3.91243    4.19693      8.10936   -0.10936

 Total charge composition, AO contributions:

   CEN ATOM SHL      SPHERICAL COMPONENTS
     1  CL  1s       1.99997
     1  CL  2s       1.99837
     1  CL  3s       1.91623
     1  CL  2p       1.99997    1.99981    2.00000
     1  CL  3p       1.91819    1.38254    1.97168

     2   H  1s       0.70386

     3   O  1s       1.99935
     3   O  2s       1.91307
     3   O  2p       1.84202    1.32659    1.02832

 Active orbital charges:

   CEN ATOM         s          p       ELECTRONS ->SPIN.DEN
     1  CL       0.00074    0.42182      0.42256    0.42256
     2   H       0.00192                 0.00192    0.00192
     3   O       0.00111    1.57441      1.57552    1.57552

 Active orbital charges, AO contributions:

   CEN ATOM SHL      SPHERICAL COMPONENTS
     1  CL  1s       0.00000
     1  CL  2s       0.00000
     1  CL  3s       0.00074
     1  CL  2p       0.00000    0.00000    0.00000
     1  CL  3p       0.03324    0.35962    0.02897

     2   H  1s       0.00192

     3   O  1s       0.00001
     3   O  2s       0.00110
     3   O  2p       0.09347    0.50990    0.97103

 Summary of localized orbital composition:   [THRPRINT= 0.020]

   ORB  GRP  ORB.ENERGY      CENTERS/CHARGES
     1   1  -101.690045     CL  1   2.000
     2   1   -19.221362      O  3   2.000
     3   1    -9.341413     CL  1   2.000
     4   1    -7.308555     CL  1   2.000
     5   1    -7.305300     CL  1   2.000
     6   1    -7.292766     CL  1   2.000
     7   1    -0.883871     CL  1   2.000
     8   1    -0.845459      O  3   2.000
     9   1    -0.701828      O  3   1.781   H  2   0.156  CL  1   0.063
    10   1    -0.621965     CL  1   1.841   H  2   0.093   O  3   0.066
    11   1    -0.589977     CL  1   0.917   O  3   0.629   H  2   0.453
    12   1    -0.356268     CL  1   1.943   O  3   0.057
    13   2    -0.330878      O  3   0.971  CL  1   0.029
    14   2    -0.304187      O  3   0.604  CL  1   0.394

 Localized orbitals saved to record      2100.2  (orbital set 2)


 **********************************************************************************************************************************
 DATASETS  * FILE   NREC   LENGTH (MB)   RECORD NAMES
              1      20      144.76       500      610      700      900      950      970     1000      129      960     1100   
                                          VAR    BASINP    GEOM    SYMINP    ZMAT    AOBASIS   BASIS     P2S    ABASIS      S 
                                         1400     1410     1200     1210     1080     1600     1650     1300     1700     1800   
                                           T        V       H0       H01     AOSYM     SMH    MOLCAS    ERIS     OPER     GRID   

              2       5        3.70       700     1000      520     1800     2100   
                                         GEOM     BASIS   MCVARS    GRID      RKS  

 PROGRAMS   *        TOTAL      IBBA        KS       INT
 CPU TIMES  *        66.16      0.03     59.41      6.57
 REAL TIME  *        69.09 SEC
 DISK USED  *       508.41 MB      
 **********************************************************************************************************************************
 Molecular orbitals read from record     2100.2  Type=RKS/LOCAL(IBO)  
 Occupation numbers read from record     2100.2  Type=RKS/LOCAL(IBO)  
 Orbital energies read from record       2100.2  Type=RKS/LOCAL(IBO)  
 Redundancy group numbers read from rec  2100.2  Type=RKS/LOCAL(IBO)  

 IBBA/QZVP energy=      0.000000000000

        KS-SCF  
   -535.86505406
 **********************************************************************************************************************************
 Molpro calculation terminated
