
 Primary working directories    : /local
 Secondary working directories  : /local
 Wavefunction directory         : /local/
 Main file repository           : /local/

 SHA1      : b4a5b34a9e711420743f49e6833241d17c61fb3c
 NAME      : 2099.9.b4a5b34
 ARCHNAME  : linux/x86_64_openmp
 FC        : /cm/shared/languages/GCC-6.1/bin/gfortran
 BLASLIB   : -lblas
 id        : simonbennie

 Nodes     nprocs
 node32-041    1

 Using customized tuning parameters: mindgm=1; mindgv=20; mindgc=4; mindgr=1; noblas=0; minvec=7
 default implementation of scratch files=df  

 memory,500,m
 geomtyp=xyz
 nosym
 noorient
 geometry={
 Cl         0.01882       -0.81730        0.00000
 H         -0.47049        0.56948        0.00000
 O          0.01882        1.66558        0.00000
 }
 basis={ default,tzvp }
 {uhf,direct;wf,26,1,2}
 {uks,B3LYP3,direct;maxit,0;wf,26,1,2}
 {ibba,bonds=1}

 Variables initialized (895), CPU time= 0.00 sec
 Commands  initialized (725), CPU time= 0.02 sec, 591 directives.
 Default parameters read. Elapsed time= 0.07 sec

 Checking input...
 Passed
1


                                         ***  PROGRAM SYSTEM MOLPRO  ***
                                       Copyright, TTI GmbH Stuttgart, 2015
                                    Version 2099.9 linked May 26 2017 16:03:21


 **********************************************************************************************************************************
 LABEL *                                                                                 
  64 bit serial version                                                                  DATE: 17-Mar-18          TIME: 00:02:07  
 **********************************************************************************************************************************

 SHA1:             b4a5b34a9e711420743f49e6833241d17c61fb3c
 **********************************************************************************************************************************
 SETTING GEOMTYP        =    XYZ

 Variable memory set to  500000000 words,  buffer space 

 ZSYMEL=NOSYM

 SETTING BASIS          =    TZVP


 Recomputing integrals since basis changed


 Using spherical harmonics

 Library entry CL     S def2-TZVP            selected for orbital group  1
 Library entry CL     P def2-TZVP            selected for orbital group  1
 Library entry CL     D def2-TZVP            selected for orbital group  1
 Library entry CL     F def2-TZVP            selected for orbital group  1
 Library entry H      S def2-TZVP            selected for orbital group  2
 Library entry H      P def2-TZVP            selected for orbital group  2
 Library entry O      S def2-TZVP            selected for orbital group  3
 Library entry O      P def2-TZVP            selected for orbital group  3
 Library entry O      D def2-TZVP            selected for orbital group  3
 Library entry O      F def2-TZVP            selected for orbital group  3


 PROGRAM * SEWARD (Integral evaluation for generally contracted gaussian basis sets)     Author: Roland Lindh, 1990

 Geometry written to block  1 of record 700


 Point group  C1  



 ATOMIC COORDINATES

 NR  ATOM    CHARGE       X              Y              Z

   1  CL     17.00    0.035564646   -1.544473162    0.000000000
   2  H       1.00   -0.889097244    1.076161233    0.000000000
   3  O       8.00    0.035564646    3.147490039    0.000000000

 Bond lengths in Bohr (Angstrom)

 1-2  2.778978993  2-3  2.268347996
     ( 1.470572353)     ( 1.200358066)

 Bond angles

  1-2-3  136.50871150

 NUCLEAR CHARGE:                   26
 NUMBER OF PRIMITIVE AOS:         128
 NUMBER OF SYMMETRY AOS:          117
 NUMBER OF CONTRACTIONS:           74   (  74A   )
 NUMBER OF CORE ORBITALS:           6   (   6A   )
 NUMBER OF VALENCE ORBITALS:        9   (   9A   )


 NUCLEAR REPULSION ENERGY   38.62988493

 EXTRA SYMMETRY OF AOS IN SYMMETRY 1:   1 1 1 1 1 1 1 2 1 1   2 1 1 2 1 1 2 1 1 2   1 1 2 1 2 1 1 2 1 2   1 1 2 1 2 1 2 1 1 1
                                        1 1 2 1 1 1 1 1 1 1   2 1 1 2 1 1 2 1 1 2   1 2 1 1 2 1 2 1 1 2   1 2 1 2

 Eigenvalues of metric

         1 0.121E-01 0.207E-01 0.324E-01 0.432E-01 0.561E-01 0.561E-01 0.667E-01 0.725E-01


 Contracted 2-electron integrals neglected if value below      1.0D-11
 AO integral compression algorithm  1   Integral accuracy      1.0D-11

     7.078 MB (compressed) written to integral file ( 17.6%)


 NUMBER OF SORTED TWO-ELECTRON INTEGRALS:    3851700.     BUFFER LENGTH:  32768
 NUMBER OF SEGMENTS:   1  SEGMENT LENGTH:    3851700      RECORD LENGTH: 524288

 Memory used in sort:       4.41 MW

 SORT1 READ     5016375. AND WROTE     1102490. INTEGRALS IN      4 RECORDS. CPU TIME:     0.03 SEC, REAL TIME:     0.05 SEC
 SORT2 READ     1102490. AND WROTE     3851700. INTEGRALS IN     27 RECORDS. CPU TIME:     0.13 SEC, REAL TIME:     0.14 SEC

 FILE SIZES:   FILE 1:    37.3 MBYTE,  FILE 4:    16.8 MBYTE,   TOTAL:     54.1 MBYTE

 OPERATOR DM      FOR CENTER  0  COORDINATES:    0.000000    0.000000    0.000000


 **********************************************************************************************************************************
 DATASETS  * FILE   NREC   LENGTH (MB)   RECORD NAMES
              1      19       35.20       500      610      700      900      950      970     1000      129      960     1100   
                                          VAR    BASINP    GEOM    SYMINP    ZMAT    AOBASIS   BASIS     P2S    ABASIS      S 
                                         1400     1410     1200     1210     1080     1600     1650     1300     1700   
                                           T        V       H0       H01     AOSYM     SMH    MOLCAS    ERIS     OPER   

 PROGRAMS   *        TOTAL       INT
 CPU TIMES  *         0.78      0.64
 REAL TIME  *         1.09 SEC
 DISK USED  *        54.40 MB      
 **********************************************************************************************************************************


 PROGRAM * UHF-SCF       Authors: W. Meyer, H.-J. Werner


 NUMBER OF ELECTRONS:      14+   12-    SPACE SYMMETRY=1    SPIN SYMMETRY: Triplet 
 CONVERGENCE THRESHOLDS:    1.00E-05 (Density)    1.00E-07 (Energy)
 INTEGRAL THRESHOLDS:       1.00E-11 (Initial)    1.00E-11 (Final)
 MAX. NUMBER OF ITERATIONS:       60
 INTERPOLATION TYPE:            DIIS
 INTERPOLATION STEPS:              2 (START)      1 (STEP)
 LEVEL SHIFTS:                 -0.20 (ALPHA)  -0.20 (BETA) 



 Orbital guess generated from atomic densities. Full valence occupancy:   13

 Molecular orbital dump at record        2200.2

 Initial alpha occupation  14
 Initial beta  occupation  12

 Direct Fock-matrix evaluation.        Author: H.-J. Werner (1996)

 Integral Threshold:                  0.1D-10

 ITERATION   DDIFF            GRAD            ENERGY        2-EL.EN.            DIPOLE MOMENTS         DIIS   CPU(IT)  CPU(TOT)
    1      0.000D+00      0.000D+00      -534.76016728    482.571784   -0.40469   -0.51894   -0.00000    0      1.1      2.0
    2      0.230D-02      0.370D-02      -534.81146943    484.176670   -0.28925    0.00634   -0.00000    1      0.7      2.7
    3      0.189D-02      0.201D-02      -534.83780411    484.474498   -0.27153    0.26492   -0.00000    2      0.7      3.4
    4      0.173D-02      0.141D-02      -534.85318801    484.649160   -0.26610    0.48608   -0.00000    3      0.7      4.1
    5      0.133D-02      0.772D-03      -534.85906770    484.698910   -0.26558    0.60272   -0.00000    4      0.7      4.8
    6      0.641D-03      0.365D-03      -534.86038179    484.753015   -0.26279    0.66416    0.00000    5      0.7      5.5
    7      0.402D-03      0.168D-03      -534.86073842    484.755899   -0.25939    0.68528    0.00000    6      0.7      6.2
    8      0.168D-03      0.113D-03      -534.86086914    484.777762   -0.25802    0.70658   -0.00000    7      0.7      6.9
    9      0.255D-03      0.776D-04      -534.86098418    484.785625   -0.25587    0.72945    0.00000    8      0.7      7.6
   10      0.176D-03      0.426D-04      -534.86102036    484.794665   -0.25494    0.74991   -0.00000    9      0.7      8.4
   11      0.397D-04      0.147D-04      -534.86102332    484.798348   -0.25490    0.75668   -0.00000    9      0.7      9.1
   12      0.147D-04      0.703D-05      -534.86102387    484.799228   -0.25496    0.75861   -0.00000    9      0.7      9.8
   13      0.766D-05      0.546D-05      -534.86102422    484.799785   -0.25506    0.75958    0.00000    9      0.7     10.5
   14      0.866D-05      0.511D-05      -534.86102460    484.800468   -0.25516    0.76068    0.00000    9      0.7     11.2
   15      0.251D-04      0.495D-05      -534.86102562    484.802152   -0.25545    0.76371    0.00000    9      0.7     11.9
   16      0.564D-04      0.453D-05      -534.86102752    484.806162   -0.25610    0.77038    0.00000    9      0.7     12.7
   17      0.802D-04      0.360D-05      -534.86102927    484.811516   -0.25700    0.77975    0.00000    9      0.7     13.4
   18      0.590D-04      0.227D-05      -534.86102988    484.815480   -0.25767    0.78635    0.00000    9      0.7     14.1
   19      0.215D-04      0.109D-05      -534.86102996    484.816912   -0.25791    0.78865    0.00000    9      0.7     14.8
   20      0.531D-05      0.490D-06      -534.86102996    484.817276   -0.25797    0.78921    0.00000    9      0.7     15.5
   21      0.126D-05      0.163D-06      -534.86102996    484.817381   -0.25798    0.78938    0.00000    9      0.7     16.2

 Final alpha occupancy:  14
 Final beta  occupancy:  12

 !UHF STATE 1.1 Energy               -534.861029962571
 Nuclear energy                        38.62988493
 One-electron energy                 -815.89960552
 Two-electron energy                  242.40869063
 Virial quotient                       -0.99989682
 !UHF STATE 1.1 Dipole moment          -0.25797753     0.78937663     0.00000000
 Dipole moment /Debye                  -0.65567053     2.00626387     0.00000000

 Orbital energies for positive spin:

         1.1          2.1          3.1          4.1          5.1          6.1          7.1          8.1          9.1         10.1
   -104.831560   -20.775588   -10.558967    -8.032925    -8.023504    -8.023179    -1.506842    -1.099322    -0.819950    -0.778708

        11.1         12.1         13.1         14.1         15.1         16.1
     -0.701700    -0.522006    -0.465137    -0.464913     0.177948     0.344306

 Orbital energies for negative spin:

         1.1          2.1          3.1          4.1          5.1          6.1          7.1          8.1          9.1         10.1
   -104.826625   -20.699824   -10.554451    -8.020791    -8.020297    -8.013633    -1.217188    -1.045815    -0.668725    -0.499187

        11.1         12.1         13.1         14.1         15.1         16.1
     -0.457000    -0.454394    -0.009594     0.033762     0.190600     0.360952

 HOMO    -12.1    -0.454394 =     -12.3647eV
 LUMO    -13.1    -0.009594 =      -0.2611eV
 LUMO-HOMO         0.444800 =      12.1036eV

 EXPECTATION VALUE OF S**2:             2.03638828

 Occupation number threshold for canonical orbitals:  1.999000 (occupied),  0.001000 (virtual)

 Number of pseudo-canonical orbitals per symmetry:    9
 Number of active natural orbitals per symmetry:      8

 Natural orbitals saved to record    2200.2 (Orbital set 3)

 Orbital spaces for UNO-CAS (Min. occupation: 0.020  Max. occupation: 1.980):

 Closed:       12
 Active:        2


 **********************************************************************************************************************************
 DATASETS  * FILE   NREC   LENGTH (MB)   RECORD NAMES
              1      19       35.20       500      610      700      900      950      970     1000      129      960     1100   
                                          VAR    BASINP    GEOM    SYMINP    ZMAT    AOBASIS   BASIS     P2S    ABASIS      S 
                                         1400     1410     1200     1210     1080     1600     1650     1300     1700   
                                           T        V       H0       H01     AOSYM     SMH    MOLCAS    ERIS     OPER   

              2       4        3.01       700     1000      520     2200   
                                         GEOM     BASIS   MCVARS     UHF  

 PROGRAMS   *        TOTAL       UHF       INT
 CPU TIMES  *        17.04     16.26      0.64
 REAL TIME  *        18.34 SEC
 DISK USED  *        54.40 MB      
 **********************************************************************************************************************************

 Density functional group B3LYP3=B88+DIRAC+LYP+VWN3
 Functional: B88(Automatically generated (new) B88)                            Gradient terms: 1
 Functional: DIRAC(Automatically generated (new) DIRAC)                        Gradient terms: 0
 Functional: LYP(Automatically generated (new) LYP)                            Gradient terms: 1
 Functional: VWN3(Automatically generated (new) VWN3)                          Gradient terms: 0
 Use grid at  1800.2


 Exact exchange will be calculated, factor:  0.2000

 Functional: B88                       Factor:  0.7200
 Functional: DIRAC                     Factor:  0.0800
 Functional: LYP                       Factor:  0.8100
 Functional: VWN3                      Factor:  0.1900

 Generated new metagrid on record  1800.2 with target accuracy 1.0D-06 and 16808 points in CPU time    0.2
 Computed new grid on record 1800.1 in CPU time    0.2
   62818 words reserved for DFT integration

 PROGRAM * UKS-SCF (Unrestricted Kohn-Sham)     Authors: W. Meyer, H.-J. Werner, P.J. Knowles, 1993

 NUMBER OF ELECTRONS:      14+   12-    SPACE SYMMETRY=1    SPIN SYMMETRY: Triplet 
 CONVERGENCE THRESHOLDS:    1.00E-05 (Density)    1.00E-06 (Energy)
 MAX. NUMBER OF ITERATIONS:        0
 INTERPOLATION TYPE:            DIIS
 INTERPOLATION STEPS:              2 (START)      1 (STEP)
 LEVEL SHIFTS:                 -0.20 (ALPHA)  -0.20 (BETA) 



 Use fine grid record 1800.2 for energy threshold  1.0D-06
 Molecular orbitals read from record     2200.2  Type=UHF/ALPHA (state 1.1)
 Molecular orbitals read from record     2200.2  Type=UHF/BETA (state 1.1)

 Molecular orbital dump at record        2201.2

 Initial alpha occupation  14
 Initial beta  occupation  12

 ITERATION    DDIFF          GRAD             ENERGY        2-EL.EN.            DIPOLE MOMENTS         DIIS
    1      0.000D+00      0.000D+00      -535.89950131    542.547837   -0.25798    0.78938   -0.00000    0

 Final alpha occupancy:  14
 Final beta  occupancy:  12

 !UKS STATE 1.1 Energy               -535.899501311309
 Nuclear energy                        38.62988493
 One-electron energy                 -815.89960552
 Two-electron energy                  271.27391854
 Density functional                   -29.90369926     B88=-36.08667759 DIRAC=-33.11767312 LYP= -0.99698717 VWN3= -2.44377862
 Virial quotient                       -1.00183820
 !UKS STATE 1.1 Dipole moment          -0.25797753     0.78937663    -0.00000000
 Dipole moment /Debye                  -0.65567053     2.00626387    -0.00000000

 Orbital energies for positive spin:

         1.1          2.1          3.1          4.1          5.1          6.1          7.1          8.1          9.1         10.1
   -104.829091   -20.719976   -10.556697    -8.023315    -8.021918    -8.021899    -1.073268    -0.484477    -0.463065    -0.658797

        11.1         12.1         13.1         14.1         15.1         16.1
     -1.309456    -0.645760    -0.310090    -0.331658     0.491310     1.428629

 Orbital energies for negative spin:

         1.1          2.1          3.1          4.1          5.1          6.1          7.1          8.1          9.1         10.1
   -104.829091   -20.719976   -10.556697    -8.023315    -8.021918    -8.021899    -1.073268    -0.484477    -0.463065    -0.658797

        11.1         12.1         13.1         14.1         15.1         16.1
     -1.309456    -0.645760    -0.310090    -0.331658     0.491310     1.428629

 HOMO     14.1    -0.331658 =      -9.0249eV
 LUMO    -13.1    -0.310090 =      -8.4380eV
 LUMO-HOMO         0.021568 =       0.5869eV

 EXPECTATION VALUE OF S**2:             2.03638828

 Occupation number threshold for canonical orbitals:  1.999000 (occupied),  0.001000 (virtual)

 Number of pseudo-canonical orbitals per symmetry:    9
 Number of active natural orbitals per symmetry:      8

 Natural orbitals saved to record    2201.2 (Orbital set 3)

 Orbital spaces for UNO-CAS (Min. occupation: 0.020  Max. occupation: 1.980):

 Closed:       12
 Active:        2

 No convergence



 **********************************************************************************************************************************
 DATASETS  * FILE   NREC   LENGTH (MB)   RECORD NAMES
              1      20       35.74       500      610      700      900      950      970     1000      129      960     1100   
                                          VAR    BASINP    GEOM    SYMINP    ZMAT    AOBASIS   BASIS     P2S    ABASIS      S 
                                         1400     1410     1200     1210     1080     1600     1650     1300     1700     1800   
                                           T        V       H0       H01     AOSYM     SMH    MOLCAS    ERIS     OPER     GRID   

              2       6        5.73       700     1000      520     2200     1800     2201   
                                         GEOM     BASIS   MCVARS     UHF     GRID      UKS  

 PROGRAMS   *        TOTAL       UKS       UHF       INT
 CPU TIMES  *        17.63      0.59     16.26      0.64
 REAL TIME  *        18.95 SEC
 DISK USED  *        54.40 MB      
 **********************************************************************************************************************************


 PROGRAM * Intrinsic Basis Bonding Analysis (IBBA)          Author: G. Knizia

 Molecular orbitals read from record     2201.2  Type=UKS/ALPHA (state 1.1)
 Fock matrix read from record            2201.2  Type=UKS/TOTAL (state 1.1)
 Orbital energies read from record       2201.2  Type=UKS/ALPHA (state 1.1)
 Density matrix read from record         2201.2  Type=UKS/CHARGE (state 1.1)

 Number of core orbitals:           6 (   6 )
 Number of closed-shell orbitals:   6 (   6 )
 Number of active  orbitals:        2 (   2 )

 Basis set MINAO-AUTO-PP generated.      Number of basis functions:   15 

 Polarized AO type:                A = (O Ot + (1-O)(1-Ot)) P12
 Orthogonalization method:         Symmetric (Loewdin)
 Localization functional:          L = sum[A,i] <i|n_A|i>^4 -> max

 Localization group 1:  12 orbitals, occupancy  2.000
 Iterative localization: IB/PM,    6 iter; Final gradient 0.88E-08

 Bond order analysis:       [THRPRINT= 0.020]

   CEN ATOM   CEN ATOM     WIBERG.BO      RENORM.BO
     1  CL  -   2   H       0.554819       0.574903
     1  CL  -   3   O       0.120243       2.028612

     2   H  -   1  CL       0.554819       0.574903
     2   H  -   3   O       0.289999       0.267042

     3   O  -   2   H       0.289999       0.267042
     3   O  -   1  CL       0.120243       2.028612


 Valency analysis:

   CEN ATOM   TOT.VALENCE
     1  CL       0.675062
     2   H       0.844818
     3   O       0.410241
 Localization group 2:   2 orbitals, occupancy  1.000
 Iterative localization: IB/PM,    1 iter; Final gradient 0.75E-11

 Bond order analysis:       [THRPRINT= 0.020]

   CEN ATOM   CEN ATOM     WIBERG.BO      RENORM.BO




 Valency analysis:

   CEN ATOM   TOT.VALENCE
     1  CL       0.023090
     2   H       0.004299
     3   O       0.018853

 Total charge composition:

   CEN ATOM         s          p       ELECTRONS ->P.CHARGE
     1  CL       5.90005    9.70915     15.60920    1.39080
     2   H       0.60822                 0.60822    0.39178
     3   O       3.92921    5.85337      9.78258   -1.78258

 Total charge composition, AO contributions:

   CEN ATOM SHL      SPHERICAL COMPONENTS
     1  CL  1s       1.99997
     1  CL  2s       1.99803
     1  CL  3s       1.90205
     1  CL  2p       1.99995    1.99970    2.00000
     1  CL  3p       1.06097    1.64629    1.00223

     2   H  1s       0.60822

     3   O  1s       1.99928
     3   O  2s       1.92993
     3   O  2p       1.95073    1.90487    1.99777

 Active orbital charges:

   CEN ATOM         s          p       ELECTRONS ->SPIN.DEN
     1  CL       0.00018    1.98818      1.98836    1.98836
     2   H       0.00215                 0.00215    0.00215
     3   O       0.00007    0.00942      0.00948    0.00948

 Active orbital charges, AO contributions:

   CEN ATOM SHL      SPHERICAL COMPONENTS
     1  CL  1s       0.00000
     1  CL  2s       0.00000
     1  CL  3s       0.00018
     1  CL  2p       0.00000    0.00000    0.00000
     1  CL  3p       0.87859    0.11182    0.99777

     2   H  1s       0.00215

     3   O  1s       0.00000
     3   O  2s       0.00007
     3   O  2p       0.00609    0.00110    0.00223

 Summary of localized orbital composition:   [THRPRINT= 0.020]

   ORB  GRP  ORB.ENERGY      CENTERS/CHARGES
     1   1  -101.506500     CL  1   2.000
     2   1   -19.163811      O  3   2.000
     3   1    -9.282599     CL  1   2.000
     4   1    -7.219407     CL  1   2.000
     5   1    -7.217738     CL  1   2.000
     6   1    -7.209973     CL  1   2.000
     7   1    -0.853347      O  3   2.000
     8   1    -0.828184     CL  1   2.000
     9   1    -0.784016      O  3   1.784   H  2   0.197
    10   1    -0.630749     CL  1   1.584   H  2   0.409
    11   1    -0.421856      O  3   1.986
    12   1    -0.379096      O  3   1.996
    13   2    -0.324746     CL  1   0.998
    14   2    -0.321458     CL  1   0.991

 Localized orbitals saved to record      2201.2  (orbital set 4)


 **********************************************************************************************************************************
 DATASETS  * FILE   NREC   LENGTH (MB)   RECORD NAMES
              1      20       35.74       500      610      700      900      950      970     1000      129      960     1100   
                                          VAR    BASINP    GEOM    SYMINP    ZMAT    AOBASIS   BASIS     P2S    ABASIS      S 
                                         1400     1410     1200     1210     1080     1600     1650     1300     1700     1800   
                                           T        V       H0       H01     AOSYM     SMH    MOLCAS    ERIS     OPER     GRID   

              2       6        5.77       700     1000      520     2200     1800     2201   
                                         GEOM     BASIS   MCVARS     UHF     GRID      UKS  

 PROGRAMS   *        TOTAL      IBBA       UKS       UHF       INT
 CPU TIMES  *        17.66      0.03      0.59     16.26      0.64
 REAL TIME  *        18.98 SEC
 DISK USED  *        54.40 MB      
 **********************************************************************************************************************************

 IBBA/TZVP energy=      0.000000000000

        UKS-SCF         UHF-SCF 
   -535.89950131   -534.86102996
 **********************************************************************************************************************************
 Molpro calculation terminated
