
 Primary working directories    : /local
 Secondary working directories  : /local
 Wavefunction directory         : /local/
 Main file repository           : /local/

 SHA1      : b4a5b34a9e711420743f49e6833241d17c61fb3c
 NAME      : 2099.9.b4a5b34
 ARCHNAME  : linux/x86_64_openmp
 FC        : /cm/shared/languages/GCC-6.1/bin/gfortran
 BLASLIB   : -lblas
 id        : simonbennie

 Nodes     nprocs
 node35-048    1

 Using customized tuning parameters: mindgm=1; mindgv=20; mindgc=4; mindgr=1; noblas=0; minvec=7
 default implementation of scratch files=df  

 memory,500,m
 geomtyp=xyz
 nosym
 noorient
 geometry={
 Cl         0.01882       -0.81730        0.00000
 H         -0.47049        0.56948        0.00000
 O          0.01882        1.66558        0.00000
 }
 basis={ default,avdz }
 {uks,B-P,direct;wf,26,1,2}
 {ibba,bonds=1}

 Variables initialized (895), CPU time= 0.00 sec
 Commands  initialized (725), CPU time= 0.02 sec, 591 directives.
 Default parameters read. Elapsed time= 0.08 sec

 Checking input...
 Passed
1


                                         ***  PROGRAM SYSTEM MOLPRO  ***
                                       Copyright, TTI GmbH Stuttgart, 2015
                                    Version 2099.9 linked May 26 2017 16:03:21


 **********************************************************************************************************************************
 LABEL *                                                                                 
  64 bit serial version                                                                  DATE: 30-Jun-17          TIME: 09:57:19  
 **********************************************************************************************************************************

 SHA1:             b4a5b34a9e711420743f49e6833241d17c61fb3c
 **********************************************************************************************************************************
 SETTING GEOMTYP        =    XYZ

 Variable memory set to  500000000 words,  buffer space 

 ZSYMEL=NOSYM

 SETTING BASIS          =    AVDZ


 Recomputing integrals since basis changed


 Using spherical harmonics

 Library entry CL     S aug-cc-pVDZ          selected for orbital group  1
 Library entry CL     P aug-cc-pVDZ          selected for orbital group  1
 Library entry CL     D aug-cc-pVDZ          selected for orbital group  1
 Library entry H      S aug-cc-pVDZ          selected for orbital group  2
 Library entry H      P aug-cc-pVDZ          selected for orbital group  2
 Library entry O      S aug-cc-pVDZ          selected for orbital group  3
 Library entry O      P aug-cc-pVDZ          selected for orbital group  3
 Library entry O      D aug-cc-pVDZ          selected for orbital group  3


 PROGRAM * SEWARD (Integral evaluation for generally contracted gaussian basis sets)     Author: Roland Lindh, 1990

 Geometry written to block  1 of record 700


 Point group  C1  



 ATOMIC COORDINATES

 NR  ATOM    CHARGE       X              Y              Z

   1  CL     17.00    0.035564646   -1.544473162    0.000000000
   2  H       1.00   -0.889097244    1.076161233    0.000000000
   3  O       8.00    0.035564646    3.147490039    0.000000000

 Bond lengths in Bohr (Angstrom)

 1-2  2.778978993  2-3  2.268347996
     ( 1.470572353)     ( 1.200358066)

 Bond angles

  1-2-3  136.50871150

 NUCLEAR CHARGE:                   26
 NUMBER OF PRIMITIVE AOS:         100
 NUMBER OF SYMMETRY AOS:           96
 NUMBER OF CONTRACTIONS:           59   (  59A   )
 NUMBER OF CORE ORBITALS:           6   (   6A   )
 NUMBER OF VALENCE ORBITALS:        9   (   9A   )


 NUCLEAR REPULSION ENERGY   38.62988493

 EXTRA SYMMETRY OF AOS IN SYMMETRY 1:   1 1 1 1 1 1 1 2 1 1   2 1 1 2 1 1 2 1 1 2   1 2 1 1 2 1 2 1 1 1   1 1 2 1 1 2 1 1 1 1
                                        1 1 2 1 1 2 1 1 2 1   1 2 1 2 1 1 2 1 2

 Eigenvalues of metric

         1 0.218E-02 0.380E-02 0.100E-01 0.160E-01 0.345E-01 0.512E-01 0.546E-01 0.627E-01


 Contracted 2-electron integrals neglected if value below      1.0D-11
 AO integral compression algorithm  1   Integral accuracy      1.0D-11

     4.456 MB (compressed) written to integral file ( 23.6%)


 NUMBER OF SORTED TWO-ELECTRON INTEGRALS:    1567335.     BUFFER LENGTH:  32768
 NUMBER OF SEGMENTS:   1  SEGMENT LENGTH:    1567335      RECORD LENGTH: 524288

 Memory used in sort:       2.12 MW

 SORT1 READ     2228261. AND WROTE      593992. INTEGRALS IN      2 RECORDS. CPU TIME:     0.02 SEC, REAL TIME:     0.03 SEC
 SORT2 READ      593992. AND WROTE     1567335. INTEGRALS IN     17 RECORDS. CPU TIME:     0.07 SEC, REAL TIME:     0.08 SEC

 FILE SIZES:   FILE 1:    34.6 MBYTE,  FILE 4:     8.4 MBYTE,   TOTAL:     43.0 MBYTE

 OPERATOR DM      FOR CENTER  0  COORDINATES:    0.000000    0.000000    0.000000


 **********************************************************************************************************************************
 DATASETS  * FILE   NREC   LENGTH (MB)   RECORD NAMES
              1      19       33.10       500      610      700      900      950      970     1000      129      960     1100   
                                          VAR    BASINP    GEOM    SYMINP    ZMAT    AOBASIS   BASIS     P2S    ABASIS      S 
                                         1400     1410     1200     1210     1080     1600     1650     1300     1700   
                                           T        V       H0       H01     AOSYM     SMH    MOLCAS    ERIS     OPER   

 PROGRAMS   *        TOTAL       INT
 CPU TIMES  *         0.57      0.41
 REAL TIME  *         1.31 SEC
 DISK USED  *        43.31 MB      
 **********************************************************************************************************************************

 Density functional group B-P=B88+P86
 Functional: B88(Automatically generated (new) B88)                            Gradient terms: 1
 Functional: P86(Automatically generated (new) P86)                            Gradient terms: 1
 Use grid at  1800.2

 Functional: B88                       Factor:  1.0000
 Functional: P86                       Factor:  1.0000

 Generated new metagrid on record  1800.2 with target accuracy 1.0D-06 and 16184 points in CPU time    0.2
 Computed new grid on record 1800.1 in CPU time    0.2
   51138 words reserved for DFT integration

 PROGRAM * UKS-SCF (Unrestricted Kohn-Sham)     Authors: W. Meyer, H.-J. Werner, P.J. Knowles, 1993

 NUMBER OF ELECTRONS:      14+   12-    SPACE SYMMETRY=1    SPIN SYMMETRY: Triplet 
 CONVERGENCE THRESHOLDS:    1.00E-05 (Density)    1.00E-06 (Energy)
 MAX. NUMBER OF ITERATIONS:       60
 INTERPOLATION TYPE:            DIIS
 INTERPOLATION STEPS:              2 (START)      1 (STEP)
 LEVEL SHIFTS:                 -0.20 (ALPHA)  -0.20 (BETA) 



 Use fine grid record 1800.2 for energy threshold  1.0D-06
 Orbital guess generated from atomic densities. Full valence occupancy:   15

 Molecular orbital dump at record        2200.2

 Initial alpha occupation  14
 Initial beta  occupation  12

 ITERATION    DDIFF          GRAD             ENERGY        2-EL.EN.            DIPOLE MOMENTS         DIIS
    1      0.000D+00      0.000D+00      -535.89608093    555.811862   -0.30957   -1.83335   -0.00000    0
    2      0.197D-01      0.570D-02      -535.89365638    556.665230   -0.19515    0.48917    0.00000    1
    3      0.122D-01      0.682D-02      -535.94644377    556.356370   -0.23033   -0.32097    0.00000    2
    4      0.268D-02      0.112D-02      -535.95021029    556.274808   -0.23315   -0.21660    0.00000    3
    5      0.168D-02      0.402D-03      -535.95190025    556.378064   -0.23448   -0.09313    0.00000    4
    6      0.160D-02      0.215D-03      -535.95269206    556.391630   -0.23542    0.00372   -0.00000    5
    7      0.725D-03      0.125D-03      -535.95288491    556.438056   -0.23701    0.02365   -0.00000    6
    8      0.671D-03      0.739D-04      -535.95299357    556.416736   -0.23653    0.02307    0.00000    7
    9      0.330D-03      0.470D-04      -535.95303040    556.437425   -0.23765    0.02959    0.00000    8
   10      0.435D-03      0.294D-04      -535.95305899    556.437256   -0.23749    0.02867    0.00000    9
   11      0.215D-03      0.143D-04      -535.95306473    556.437347   -0.23775    0.02992    0.00000    8
   12      0.802D-04      0.763D-05      -535.95306552    556.439609   -0.23774    0.03073    0.00000    9
   13      0.226D-04      0.281D-05      -535.95306565    556.439181   -0.23770    0.03062    0.00000    9
   14      0.197D-04      0.191D-05      -535.95306575    556.439029   -0.23768    0.03053    0.00000    9
   15      0.253D-04      0.136D-05      -535.95306582    556.438685   -0.23758    0.03051    0.00000    9
   16      0.163D-04      0.729D-06      -535.95306584    556.438735   -0.23758    0.03043    0.00000    9
   17      0.493D-05      0.246D-06      -535.95306584    556.438612   -0.23756    0.03048    0.00000    9
   18      0.689D-06      0.161D-06      -535.95306584    556.438611   -0.23756    0.03047    0.00000    9

 Final alpha occupancy:  14
 Final beta  occupancy:  12

 !UKS STATE 1.1 Energy               -535.953065841751
 Nuclear energy                        38.62988493
 One-electron energy                 -815.71106689
 Two-electron energy                  278.21930566
 Density functional                   -37.09118955     B88=-36.01922432 P86= -1.07196522
 Virial quotient                       -1.00294425
 !UKS STATE 1.1 Dipole moment          -0.23755769     0.03047414     0.00000000
 Dipole moment /Debye                  -0.60377188     0.07745246     0.00000000

 Orbital energies for positive spin:

         1.1          2.1          3.1          4.1          5.1          6.1          7.1          8.1          9.1         10.1
   -100.776719   -18.937251    -9.224939    -7.048615    -7.040349    -7.038652    -0.962769    -0.781935    -0.491655    -0.405148

        11.1         12.1         13.1         14.1         15.1         16.1
     -0.373597    -0.326077    -0.321176    -0.317234    -0.011849     0.050353

 Orbital energies for negative spin:

         1.1          2.1          3.1          4.1          5.1          6.1          7.1          8.1          9.1         10.1
   -100.773455   -18.900889    -9.221606    -7.041753    -7.036307    -7.036074    -0.878168    -0.756684    -0.456550    -0.320373

        11.1         12.1         13.1         14.1         15.1         16.1
     -0.313855    -0.303572    -0.267568    -0.256742    -0.007668     0.056717

 HOMO    -12.1    -0.303572 =      -8.2606eV
 LUMO    -13.1    -0.267568 =      -7.2809eV
 LUMO-HOMO         0.036005 =       0.9797eV

 EXPECTATION VALUE OF S**2:             2.00593866

 Occupation number threshold for canonical orbitals:  1.999000 (occupied),  0.001000 (virtual)

 Number of pseudo-canonical orbitals per symmetry:   11
 Number of active natural orbitals per symmetry:      4

 Natural orbitals saved to record    2200.2 (Orbital set 3)

 Orbital spaces for UNO-CAS (Min. occupation: 0.020  Max. occupation: 1.980):

 Closed:       12
 Active:        2


 **********************************************************************************************************************************
 DATASETS  * FILE   NREC   LENGTH (MB)   RECORD NAMES
              1      20       33.62       500      610      700      900      950      970     1000      129      960     1100   
                                          VAR    BASINP    GEOM    SYMINP    ZMAT    AOBASIS   BASIS     P2S    ABASIS      S 
                                         1400     1410     1200     1210     1080     1600     1650     1300     1700     1800   
                                           T        V       H0       H01     AOSYM     SMH    MOLCAS    ERIS     OPER     GRID   

              2       5        2.93       700     1000      520     1800     2200   
                                         GEOM     BASIS   MCVARS    GRID      UKS  

 PROGRAMS   *        TOTAL       UKS       INT
 CPU TIMES  *         5.45      4.89      0.41
 REAL TIME  *         6.45 SEC
 DISK USED  *        43.31 MB      
 **********************************************************************************************************************************


 PROGRAM * Intrinsic Basis Bonding Analysis (IBBA)          Author: G. Knizia

 Molecular orbitals read from record     2200.2  Type=UKS/ALPHA (state 1.1)
 Fock matrix read from record            2200.2  Type=UKS/TOTAL (state 1.1)
 Orbital energies read from record       2200.2  Type=UKS/ALPHA (state 1.1)
 Density matrix read from record         2200.2  Type=UKS/CHARGE (state 1.1)

 Number of core orbitals:           6 (   6 )
 Number of closed-shell orbitals:   6 (   6 )
 Number of active  orbitals:        2 (   2 )

 Basis set MINAO-AUTO-PP generated.      Number of basis functions:   15 

 Polarized AO type:                A = (O Ot + (1-O)(1-Ot)) P12
 Orthogonalization method:         Symmetric (Loewdin)
 Localization functional:          L = sum[A,i] <i|n_A|i>^4 -> max

 Localization group 1:  12 orbitals, occupancy  2.000
 Iterative localization: IB/PM,    7 iter; Final gradient 0.45E-09

 Bond order analysis:       [THRPRINT= 0.020]

   CEN ATOM   CEN ATOM     WIBERG.BO      RENORM.BO
     1  CL  -   3   O       0.601346       2.042800
     1  CL  -   2   H       0.477695       0.425246

     2   H  -   1  CL       0.477695       0.425246
     2   H  -   3   O       0.424143       0.368316

     3   O  -   1  CL       0.601346       2.042800
     3   O  -   2   H       0.424143       0.368316


 Valency analysis:

   CEN ATOM   TOT.VALENCE
     1  CL       1.079041
     2   H       0.901838
     3   O       1.025490
 Localization group 2:   2 orbitals, occupancy  1.000
 Iterative localization: IB/PM,    1 iter; Final gradient 0.63E-13

 Bond order analysis:       [THRPRINT= 0.020]

   CEN ATOM   CEN ATOM     WIBERG.BO      RENORM.BO
     1  CL  -   3   O       0.242718       1.000000


     3   O  -   1  CL       0.242718       1.000000


 Valency analysis:

   CEN ATOM   TOT.VALENCE
     1  CL       0.243314
     2   H       0.000667
     3   O       0.242790

 Total charge composition:

   CEN ATOM         s          p       ELECTRONS ->P.CHARGE
     1  CL       5.91565    9.85301     15.76865    1.23135
     2   H       0.68703                 0.68703    0.31297
     3   O       3.91867    5.62566      9.54432   -1.54432

 Total charge composition, AO contributions:

   CEN ATOM SHL      SPHERICAL COMPONENTS
     1  CL  1s       1.99997
     1  CL  2s       1.99843
     1  CL  3s       1.91724
     1  CL  2p       1.99997    1.99982    1.99998
     1  CL  3p       1.19453    1.63328    1.02542

     2   H  1s       0.68703

     3   O  1s       1.99937
     3   O  2s       1.91930
     3   O  2p       1.84919    1.80187    1.97459

 Active orbital charges:

   CEN ATOM         s          p       ELECTRONS ->SPIN.DEN
     1  CL       0.00032    1.86571      1.86603    1.86603
     2   H       0.00033                 0.00033    0.00033
     3   O       0.00041    0.13322      0.13364    0.13364

 Active orbital charges, AO contributions:

   CEN ATOM SHL      SPHERICAL COMPONENTS
     1  CL  1s       0.00000
     1  CL  2s       0.00000
     1  CL  3s       0.00032
     1  CL  2p       0.00001    0.00000    0.00001
     1  CL  3p       0.74988    0.14194    0.97386

     2   H  1s       0.00033

     3   O  1s       0.00000
     3   O  2s       0.00041
     3   O  2p       0.07731    0.02979    0.02613

 Summary of localized orbital composition:   [THRPRINT= 0.020]

   ORB  GRP  ORB.ENERGY      CENTERS/CHARGES
     1   1  -100.730366     CL  1   2.000
     2   1   -18.792104      O  3   2.000
     3   1    -8.988256     CL  1   2.000
     4   1    -7.038327     CL  1   2.000
     5   1    -7.031358     CL  1   2.000
     6   1    -7.026502     CL  1   2.000
     7   1    -0.886987     CL  1   2.000
     8   1    -0.795160      O  3   2.000
     9   1    -0.634166      O  3   1.661   H  2   0.319  CL  1   0.020
    10   1    -0.577454     CL  1   1.616   H  2   0.367
    11   1    -0.343969      O  3   1.785  CL  1   0.215
    12   1    -0.340306      O  3   1.948  CL  1   0.052
    13   2    -0.311315     CL  1   0.974   O  3   0.026
    14   2    -0.302887     CL  1   0.892   O  3   0.108

 Localized orbitals saved to record      2200.2  (orbital set 4)


 **********************************************************************************************************************************
 DATASETS  * FILE   NREC   LENGTH (MB)   RECORD NAMES
              1      20       33.62       500      610      700      900      950      970     1000      129      960     1100   
                                          VAR    BASINP    GEOM    SYMINP    ZMAT    AOBASIS   BASIS     P2S    ABASIS      S 
                                         1400     1410     1200     1210     1080     1600     1650     1300     1700     1800   
                                           T        V       H0       H01     AOSYM     SMH    MOLCAS    ERIS     OPER     GRID   

              2       5        2.96       700     1000      520     1800     2200   
                                         GEOM     BASIS   MCVARS    GRID      UKS  

 PROGRAMS   *        TOTAL      IBBA       UKS       INT
 CPU TIMES  *         5.48      0.03      4.89      0.41
 REAL TIME  *         6.51 SEC
 DISK USED  *        43.31 MB      
 **********************************************************************************************************************************
 Molecular orbitals read from record     2200.2  Type=UKS/LOCAL(IBO)  
 Occupation numbers read from record     2200.2  Type=UKS/LOCAL(IBO)  
 Orbital energies read from record       2200.2  Type=UKS/LOCAL(IBO)  
 Redundancy group numbers read from rec  2200.2  Type=UKS/BETA (state 1.1)

 IBBA/aug-cc-pVDZ energy=      0.000000000000

        UKS-SCF 
   -535.95306584
 **********************************************************************************************************************************
 Molpro calculation terminated
