
 Primary working directories    : /local
 Secondary working directories  : /local
 Wavefunction directory         : /local/
 Main file repository           : /local/

 SHA1      : b4a5b34a9e711420743f49e6833241d17c61fb3c
 NAME      : 2099.9.b4a5b34
 ARCHNAME  : linux/x86_64_openmp
 FC        : /cm/shared/languages/GCC-6.1/bin/gfortran
 BLASLIB   : -lblas
 id        : simonbennie

 Nodes     nprocs
 node32-033    1

 Using customized tuning parameters: mindgm=1; mindgv=20; mindgc=4; mindgr=1; noblas=0; minvec=7
 default implementation of scratch files=df  

 memory,500,m
 geomtyp=xyz
 nosym
 noorient
 geometry={
 Cl         0.01882       -0.81730        0.00000
 H         -0.47049        0.56948        0.00000
 O          0.01882        1.66558        0.00000
 }
 basis={ default,tzvp }
 {df-ks,PBE0,direct;disp;wf,26,1,2}
 {ibba,bonds=1}

 Variables initialized (895), CPU time= 0.01 sec
 Commands  initialized (725), CPU time= 0.01 sec, 591 directives.
 Default parameters read. Elapsed time= 0.08 sec

 Checking input...
 Passed
1


                                         ***  PROGRAM SYSTEM MOLPRO  ***
                                       Copyright, TTI GmbH Stuttgart, 2015
                                    Version 2099.9 linked May 26 2017 16:03:21


 **********************************************************************************************************************************
 LABEL *                                                                                 
  64 bit serial version                                                                  DATE: 17-Mar-18          TIME: 00:10:53  
 **********************************************************************************************************************************

 SHA1:             b4a5b34a9e711420743f49e6833241d17c61fb3c
 **********************************************************************************************************************************
 SETTING GEOMTYP        =    XYZ

 Variable memory set to  500000000 words,  buffer space 

 ZSYMEL=NOSYM

 SETTING BASIS          =    TZVP


 Recomputing integrals since basis changed


 Using spherical harmonics

 Library entry CL     S def2-TZVP            selected for orbital group  1
 Library entry CL     P def2-TZVP            selected for orbital group  1
 Library entry CL     D def2-TZVP            selected for orbital group  1
 Library entry CL     F def2-TZVP            selected for orbital group  1
 Library entry H      S def2-TZVP            selected for orbital group  2
 Library entry H      P def2-TZVP            selected for orbital group  2
 Library entry O      S def2-TZVP            selected for orbital group  3
 Library entry O      P def2-TZVP            selected for orbital group  3
 Library entry O      D def2-TZVP            selected for orbital group  3
 Library entry O      F def2-TZVP            selected for orbital group  3


 PROGRAM * SEWARD (Integral evaluation for generally contracted gaussian basis sets)     Author: Roland Lindh, 1990

 Geometry written to block  1 of record 700


 Point group  C1  



 ATOMIC COORDINATES

 NR  ATOM    CHARGE       X              Y              Z

   1  CL     17.00    0.035564646   -1.544473162    0.000000000
   2  H       1.00   -0.889097244    1.076161233    0.000000000
   3  O       8.00    0.035564646    3.147490039    0.000000000

 Bond lengths in Bohr (Angstrom)

 1-2  2.778978993  2-3  2.268347996
     ( 1.470572353)     ( 1.200358066)

 Bond angles

  1-2-3  136.50871150

 NUCLEAR CHARGE:                   26
 NUMBER OF PRIMITIVE AOS:         128
 NUMBER OF SYMMETRY AOS:          117
 NUMBER OF CONTRACTIONS:           74   (  74A   )
 NUMBER OF CORE ORBITALS:           6   (   6A   )
 NUMBER OF VALENCE ORBITALS:        9   (   9A   )


 NUCLEAR REPULSION ENERGY   38.62988493

 EXTRA SYMMETRY OF AOS IN SYMMETRY 1:   1 1 1 1 1 1 1 2 1 1   2 1 1 2 1 1 2 1 1 2   1 1 2 1 2 1 1 2 1 2   1 1 2 1 2 1 2 1 1 1
                                        1 1 2 1 1 1 1 1 1 1   2 1 1 2 1 1 2 1 1 2   1 2 1 1 2 1 2 1 1 2   1 2 1 2

 Eigenvalues of metric

         1 0.121E-01 0.207E-01 0.324E-01 0.432E-01 0.561E-01 0.561E-01 0.667E-01 0.725E-01


 OPERATOR DM      FOR CENTER  0  COORDINATES:    0.000000    0.000000    0.000000


 **********************************************************************************************************************************
 DATASETS  * FILE   NREC   LENGTH (MB)   RECORD NAMES
              1      18       30.20       500      610      700      900      950      970     1000      129      960     1100   
                                          VAR    BASINP    GEOM    SYMINP    ZMAT    AOBASIS   BASIS     P2S    ABASIS      S 
                                         1400     1410     1200     1210     1080     1600     1650     1700   
                                           T        V       H0       H01     AOSYM     SMH    MOLCAS    OPER   

 PROGRAMS   *        TOTAL       INT
 CPU TIMES  *         0.32      0.17
 REAL TIME  *         0.58 SEC
 DISK USED  *        30.52 MB      
 **********************************************************************************************************************************

 Density functional group PBE0=PBEX+PBEC
 Functional: PBEX(Automatically generated (new) PBEX)                          Gradient terms: 1
 Functional: PBEC(Automatically generated (new) PBEC)                          Gradient terms: 1

 dispersion correction activated
 Density functional: PBE0    
 functional not in list, set to default 


 Exact exchange will be calculated, factor:  0.2500

 Functional: PBEX                      Factor:  0.7500
 Functional: PBEC                      Factor:  1.0000

 Use grid at  1800.2


 Exact exchange will be calculated, factor:  0.2500

 Functional: PBEX                      Factor:  0.7500
 Functional: PBEC                      Factor:  1.0000

 Generated new metagrid on record  1800.2 with target accuracy 1.0D-06 and 16808 points in CPU time    0.2
 Computed new grid on record 1800.1 in CPU time    0.2
   62818 words reserved for DFT integration

 PROGRAM * RKS-SCF (Restricted open shell Kohn-Sham)     Authors: W. Meyer, H.-J. Werner, P.J. Knowles, 1993

 NUMBER OF ELECTRONS:      14+   12-    SPACE SYMMETRY=1    SPIN SYMMETRY: Triplet 
 CONVERGENCE THRESHOLDS:    1.00E-05 (Density)    1.00E-06 (Energy)
 INTEGRAL THRESHOLDS:       1.00E-11 (Initial)    1.00E-11 (Final)
 MAX. NUMBER OF ITERATIONS:       60
 INTERPOLATION TYPE:            DIIS
 INTERPOLATION STEPS:              2 (START)      1 (STEP)
 LEVEL SHIFTS:                 -0.60 (CLOSED) -0.30 (OPEN) 



 Use fine grid record 1800.2 for energy threshold  1.0D-06

 Basis set DEF2-TZVPP/JKFIT generated.   Number of basis functions:   223 

 Orbital guess generated from atomic densities. Full valence occupancy:   13
 Using density fitting in orbital guess

 Coulomb and exchange fitting
 Thresholds for fitting:       THRAO_COUL= 1.0D-14    THRAO_EXCH= 1.0D-12    THRMO= 1.0D-11    THRPROD= 1.0D-11    THRASM= 1.0D-11
                               THR2HLF=    1.0D-11

 Molecular orbital dump at record        2100.2

 Initial alpha occupancy:  14
 Initial beta  occupancy:  12
 Wave function symmetry:    1

 ITERATION   DDIFF            GRAD            ENERGY        2-EL.EN.            DIPOLE MOMENTS         DIIS   CPU(IT)  CPU(TOT)  ORB.
    1      0.000D+00      0.000D+00      -535.61702295    538.120590   -0.35045   -1.53378   -0.00000    0      0.3      0.6     start
    2      0.000D+00      0.504D-02      -535.62218969    539.651384   -0.24831    0.69077   -0.00000    1      0.4      0.9     diag,B
    3      0.533D-02      0.711D-02      -535.66139352    539.088527   -0.26049    0.01499   -0.00000    2      0.3      1.3     diag,B
    4      0.271D-02      0.164D-02      -535.66692171    539.036999   -0.26049    0.08836   -0.00000    3      0.4      1.6     diag,B
    5      0.126D-02      0.813D-03      -535.67078251    539.056239   -0.25904    0.22951   -0.00000    4      0.3      2.0     diag,B
    6      0.133D-02      0.402D-03      -535.67282066    539.099886   -0.25757    0.32740    0.00000    5      0.4      2.3     diag,B
    7      0.119D-02      0.181D-03      -535.67345746    539.122957   -0.25637    0.34662   -0.00000    6      0.3      2.7     fixocc
    8      0.599D-03      0.998D-04      -535.67368264    539.119462   -0.25503    0.33245   -0.00000    7      0.4      3.0     diag,B
    9      0.325D-03      0.951D-04      -535.67379707    539.126118   -0.25445    0.31932   -0.00000    8      0.4      3.4     diag,B
   10      0.242D-03      0.529D-04      -535.67388657    539.104898   -0.25349    0.29145   -0.00000    9      0.3      3.7     orth
   11      0.274D-03      0.588D-04      -535.67390959    539.110303   -0.25333    0.28599   -0.00000    9      0.3      4.0     diag,B
   12      0.158D-03      0.254D-04      -535.67391862    539.103194   -0.25308    0.27717   -0.00000    9      0.3      4.4     diag,B
   13      0.925D-04      0.918D-05      -535.67392090    539.102104   -0.25295    0.27484   -0.00000    9      0.3      4.7     diag,B
   14      0.370D-04      0.683D-05      -535.67392223    539.100492   -0.25276    0.27283   -0.00000    9      0.4      5.1     diag,B
   15      0.283D-04      0.534D-05      -535.67392333    539.099468   -0.25250    0.27165   -0.00000    9      0.3      5.4     diag,B
   16      0.327D-04      0.325D-05      -535.67392381    539.099079   -0.25230    0.27137   -0.00000    9      0.3      5.8     diag,B
   17      0.245D-04      0.173D-05      -535.67392396    539.098528   -0.25216    0.27110   -0.00000    9      0.3      6.1     diag,B
   18      0.174D-04      0.739D-06      -535.67392397    539.098539   -0.25212    0.27115   -0.00000    9      0.4      6.5     diag,B
   19      0.532D-05      0.254D-06      -535.67392397    539.098496   -0.25212    0.27115   -0.00000    0      0.3      6.8     orth

 Dispersion correction
 - - - - - - - - - - - 
  _________________________________
                                   
 |         DFTD3 V1.3 Rev 1        |
 | S.Grimme, University Muenster   |
 | Fri Jul  2 12:48:21 CEST 2010   |
  _________________________________

 Please cite DFT-D3 work done with this code as:
 S. Grimme, J. Antony, S. Ehrlich and H. Krieg,
 J. Chem. Phys, 132 (2010), 154104.
 For DFT-D2 the reference is
 S. Grimme, J. Comput. Chem., 27 (2006), 1787-1799

 C6 coefficients used:
                    2  C6 for element                     1
 Z=  1 CN=   0.912     C6(AA)=    3.03
 Z=  1 CN=   0.000     C6(AA)=    7.59
                    3  C6 for element                     8
 Z=  8 CN=   0.000     C6(AA)=   15.51
 Z=  8 CN=   0.993     C6(AA)=   12.82
 Z=  8 CN=   1.989     C6(AA)=   10.37
                    2  C6 for element                    17
 Z= 17 CN=   0.000     C6(AA)=   92.35
 Z= 17 CN=   0.997     C6(AA)=   90.40

 #           XYZ [au]               R0(AA) [Ang.]   CN       C6(AA)     C8(AA)   C10(AA) [au]
  1   0.03556  -1.54447   0.00000   cl  1.552  1.064        90.4      3772.6    192824.1
  2  -0.88910   1.07616   0.00000   h   1.091  1.660         3.0        36.6       541.9
  3   0.03556   3.14749   0.00000   o   1.241  0.819        13.0       262.1      6478.3

 molecular C6(AA) [au] =       218.95

           DFT-D V3
 DF pbe                                               
 parameters
 s6       :    1.0000
 s8       :    0.7220
 rs6      :    1.2170
 alpha6   :   14.0000
 alpha8   :   16.0000
 k1-k3    :   16.0000    1.3333   -4.0000

 Edisp /kcal,au:    -0.0687 -0.00010949

 E6    /kcal :    -0.0054
 E8    /kcal :    -0.0633
 % E8        : 92.17
 normal termination of dftd3

 RKS STATE 1.1 ENERGY+DISP     -535.67403346

 Final alpha occupancy:  14
 Final beta  occupancy:  12

 !RKS STATE 1.1 Energy               -535.674033462463
 Nuclear energy                        38.62988493
 One-electron energy                 -816.01785548
 Two-electron energy                  269.54924791
 Density functional                   -27.83520133     PBEX=-35.86106098 PBEC= -0.93940559
 Virial quotient                       -1.00149927
 !RKS STATE 1.1 Dipole moment          -0.25212325     0.27115271    -0.00000000
 Dipole moment /Debye                  -0.64079141     0.68915631    -0.00000000

 Orbital energies:

         1.1          2.1          3.1          4.1          5.1          6.1          7.1          8.1          9.1         10.1
   -101.723099   -19.349996    -9.548604    -7.282063    -7.274873    -7.274350    -1.035441    -0.848163    -0.534449    -0.402869

        11.1         12.1         13.1         14.1         15.1         16.1
     -0.357578    -0.357105    -0.494336    -0.401327     0.066127     0.185017

 HOMO     14.1    -0.401327 =     -10.9207eV
 LUMO     15.1     0.066127 =       1.7994eV
 LUMO-HOMO         0.467453 =      12.7201eV


 **********************************************************************************************************************************
 DATASETS  * FILE   NREC   LENGTH (MB)   RECORD NAMES
              1      19       30.74       500      610      700      900      950      970     1000      129      960     1100   
                                          VAR    BASINP    GEOM    SYMINP    ZMAT    AOBASIS   BASIS     P2S    ABASIS      S 
                                         1400     1410     1200     1210     1080     1600     1650     1700     1800   
                                           T        V       H0       H01     AOSYM     SMH    MOLCAS    OPER     GRID   

              2       5        2.97       700     1000      520     1800     2100   
                                         GEOM     BASIS   MCVARS    GRID      RKS  

 PROGRAMS   *        TOTAL        KS       INT
 CPU TIMES  *         7.38      7.06      0.17
 REAL TIME  *         8.05 SEC
 DISK USED  *        36.83 MB      
 **********************************************************************************************************************************


 PROGRAM * Intrinsic Basis Bonding Analysis (IBBA)          Author: G. Knizia

 Molecular orbitals read from record     2100.2  Type=RKS/CANONICAL (state 1.1)
 Fock matrix read from record            2100.2  Type=RKS/TOTAL (state 1.1)
 Orbital energies read from record       2100.2  Type=RKS/CANONICAL (state 1.1)
 Density matrix read from record         2100.2  Type=RKS/CHARGE (state 1.1)

 Number of core orbitals:           6 (   6 )
 Number of closed-shell orbitals:   6 (   6 )
 Number of active  orbitals:        2 (   2 )

 Basis set MINAO-AUTO-PP generated.      Number of basis functions:   15 

 Polarized AO type:                A = (O Ot + (1-O)(1-Ot)) P12
 Orthogonalization method:         Symmetric (Loewdin)
 Localization functional:          L = sum[A,i] <i|n_A|i>^4 -> max

 Localization group 1:  12 orbitals, occupancy  2.000
 Iterative localization: IB/PM,    7 iter; Final gradient 0.76E-09

 Bond order analysis:       [THRPRINT= 0.020]

   CEN ATOM   CEN ATOM     WIBERG.BO      RENORM.BO
     1  CL  -   3   O       0.930727       2.020656
     1  CL  -   2   H       0.461075       0.556314

     2   H  -   1  CL       0.461075       0.556314
     2   H  -   3   O       0.456224       0.633086

     3   O  -   1  CL       0.930727       2.020656
     3   O  -   2   H       0.456224       0.633086


 Valency analysis:

   CEN ATOM   TOT.VALENCE
     1  CL       1.391802
     2   H       0.917299
     3   O       1.386951
 Localization group 2:   2 orbitals, occupancy  1.000
 Iterative localization: IB/PM,    1 iter; Final gradient 0.15E-14

 Bond order analysis:       [THRPRINT= 0.020]

   CEN ATOM   CEN ATOM     WIBERG.BO      RENORM.BO
     1  CL  -   3   O       0.525145       1.000000


     3   O  -   1  CL       0.525145       1.000000


 Valency analysis:

   CEN ATOM   TOT.VALENCE
     1  CL       0.526754
     2   H       0.004179
     3   O       0.527714

 Total charge composition:

   CEN ATOM         s          p       ELECTRONS ->P.CHARGE
     1  CL       5.91194   11.27429     17.18623   -0.18623
     2   H       0.71452                 0.71452    0.28548
     3   O       3.91298    4.18628      8.09925   -0.09925

 Total charge composition, AO contributions:

   CEN ATOM SHL      SPHERICAL COMPONENTS
     1  CL  1s       1.99997
     1  CL  2s       1.99838
     1  CL  3s       1.91359
     1  CL  2p       1.99997    1.99981    2.00000
     1  CL  3p       1.92067    1.38096    1.97288

     2   H  1s       0.71452

     3   O  1s       1.99935
     3   O  2s       1.91363
     3   O  2p       1.84268    1.31648    1.02712

 Active orbital charges:

   CEN ATOM         s          p       ELECTRONS ->SPIN.DEN
     1  CL       0.00073    0.41106      0.41179    0.41179
     2   H       0.00209                 0.00209    0.00209
     3   O       0.00095    1.58516      1.58612    1.58612

 Active orbital charges, AO contributions:

   CEN ATOM SHL      SPHERICAL COMPONENTS
     1  CL  1s       0.00000
     1  CL  2s       0.00000
     1  CL  3s       0.00073
     1  CL  2p       0.00000    0.00000    0.00000
     1  CL  3p       0.03014    0.35339    0.02753

     2   H  1s       0.00209

     3   O  1s       0.00001
     3   O  2s       0.00095
     3   O  2p       0.09137    0.52132    0.97247

 Summary of localized orbital composition:   [THRPRINT= 0.020]

   ORB  GRP  ORB.ENERGY      CENTERS/CHARGES
     1   1  -101.676555     CL  1   2.000
     2   1   -19.215220      O  3   2.000
     3   1    -9.296128     CL  1   2.000
     4   1    -7.274341     CL  1   2.000
     5   1    -7.271310     CL  1   2.000
     6   1    -7.258768     CL  1   2.000
     7   1    -0.863895     CL  1   2.000
     8   1    -0.847942      O  3   2.000
     9   1    -0.704182      O  3   1.781   H  2   0.155  CL  1   0.064
    10   1    -0.622377     CL  1   1.843   H  2   0.089   O  3   0.068
    11   1    -0.600291     CL  1   0.921   O  3   0.610   H  2   0.469
    12   1    -0.357589     CL  1   1.945   O  3   0.055
    13   2    -0.340974      O  3   0.972  CL  1   0.028
    14   2    -0.306354      O  3   0.614  CL  1   0.384

 Localized orbitals saved to record      2100.2  (orbital set 2)


 **********************************************************************************************************************************
 DATASETS  * FILE   NREC   LENGTH (MB)   RECORD NAMES
              1      19       30.74       500      610      700      900      950      970     1000      129      960     1100   
                                          VAR    BASINP    GEOM    SYMINP    ZMAT    AOBASIS   BASIS     P2S    ABASIS      S 
                                         1400     1410     1200     1210     1080     1600     1650     1700     1800   
                                           T        V       H0       H01     AOSYM     SMH    MOLCAS    OPER     GRID   

              2       5        3.01       700     1000      520     1800     2100   
                                         GEOM     BASIS   MCVARS    GRID      RKS  

 PROGRAMS   *        TOTAL      IBBA        KS       INT
 CPU TIMES  *         7.40      0.02      7.06      0.17
 REAL TIME  *         8.08 SEC
 DISK USED  *        36.83 MB      
 **********************************************************************************************************************************

 IBBA/TZVP energy=      0.000000000000

        DF-KS   
   -535.67403346
 **********************************************************************************************************************************
 Molpro calculation terminated
