
 Primary working directories    : /local
 Secondary working directories  : /local
 Wavefunction directory         : /local/
 Main file repository           : /local/

 SHA1      : b4a5b34a9e711420743f49e6833241d17c61fb3c
 NAME      : 2099.9.b4a5b34
 ARCHNAME  : linux/x86_64_openmp
 FC        : /cm/shared/languages/GCC-6.1/bin/gfortran
 BLASLIB   : -lblas
 id        : simonbennie

 Nodes     nprocs
 node32-011    1

 Using customized tuning parameters: mindgm=1; mindgv=20; mindgc=4; mindgr=1; noblas=0; minvec=7
 default implementation of scratch files=df  

 memory,500,m
 geomtyp=xyz
 nosym
 noorient
 geometry={
 Cl         0.01882       -0.81730        0.00000
 H         -0.47049        0.56948        0.00000
 O          0.01882        1.66558        0.00000
 }
 basis={ default,qzvp }
 {hf,direct;wf,26,1,2}
 {df-ks,M06-2X,direct;maxit,0;wf,26,1,2}
 {ibba,bonds=1}

 Variables initialized (895), CPU time= 0.01 sec
 Commands  initialized (725), CPU time= 0.01 sec, 591 directives.
 Default parameters read. Elapsed time= 0.09 sec

 Checking input...
 Passed
1


                                         ***  PROGRAM SYSTEM MOLPRO  ***
                                       Copyright, TTI GmbH Stuttgart, 2015
                                    Version 2099.9 linked May 26 2017 16:03:21


 **********************************************************************************************************************************
 LABEL *                                                                                 
  64 bit serial version                                                                  DATE: 17-Mar-18          TIME: 00:29:02  
 **********************************************************************************************************************************

 SHA1:             b4a5b34a9e711420743f49e6833241d17c61fb3c
 **********************************************************************************************************************************
 SETTING GEOMTYP        =    XYZ

 Variable memory set to  500000000 words,  buffer space 

 ZSYMEL=NOSYM

 SETTING BASIS          =    QZVP


 Recomputing integrals since basis changed


 Using spherical harmonics

 Library entry CL     S def2-QZVP            selected for orbital group  1
 Library entry CL     P def2-QZVP            selected for orbital group  1
 Library entry CL     D def2-QZVP            selected for orbital group  1
 Library entry CL     F def2-QZVP            selected for orbital group  1
 Library entry CL     G def2-QZVP            selected for orbital group  1
 Library entry H      S def2-QZVP            selected for orbital group  2
 Library entry H      P def2-QZVP            selected for orbital group  2
 Library entry H      D def2-QZVP            selected for orbital group  2
 Library entry H      F def2-QZVP            selected for orbital group  2
 Library entry O      S def2-QZVP            selected for orbital group  3
 Library entry O      P def2-QZVP            selected for orbital group  3
 Library entry O      D def2-QZVP            selected for orbital group  3
 Library entry O      F def2-QZVP            selected for orbital group  3
 Library entry O      G def2-QZVP            selected for orbital group  3


 PROGRAM * SEWARD (Integral evaluation for generally contracted gaussian basis sets)     Author: Roland Lindh, 1990

 Geometry written to block  1 of record 700


 Point group  C1  



 ATOMIC COORDINATES

 NR  ATOM    CHARGE       X              Y              Z

   1  CL     17.00    0.035564646   -1.544473162    0.000000000
   2  H       1.00   -0.889097244    1.076161233    0.000000000
   3  O       8.00    0.035564646    3.147490039    0.000000000

 Bond lengths in Bohr (Angstrom)

 1-2  2.778978993  2-3  2.268347996
     ( 1.470572353)     ( 1.200358066)

 Bond angles

  1-2-3  136.50871150

 NUCLEAR CHARGE:                   26
 NUMBER OF PRIMITIVE AOS:         251
 NUMBER OF SYMMETRY AOS:          215
 NUMBER OF CONTRACTIONS:          157   ( 157A   )
 NUMBER OF CORE ORBITALS:           6   (   6A   )
 NUMBER OF VALENCE ORBITALS:        9   (   9A   )


 NUCLEAR REPULSION ENERGY   38.62988493

 EXTRA SYMMETRY OF AOS IN SYMMETRY 1:   1 1 1 1 1 1 1 1 1 1   1 2 1 1 2 1 1 2 1 1   2 1 1 2 1 1 2 1 1 2   1 2 1 1 2 1 2 1 1 2
                                        1 2 1 1 2 1 2 1 1 2   1 2 1 2 1 1 2 1 2 1   2 1 1 2 1 2 1 1 2 2   1 1 1 1 1 1 2 1 1 2
                                        1 1 2 1 1 2 1 2 1 1   2 1 2 1 1 2 1 2 1 2   1 1 1 1 1 1 1 1 1 2   1 1 2 1 1 2 1 1 2 1
                                        1 2 1 2 1 1 2 1 2 1   1 2 1 2 1 1 2 1 2 1   2 1 1 2 1 2 1 2 1 1   2 1 2 1 1 2 2

 Eigenvalues of metric

         1 0.736E-03 0.109E-02 0.177E-02 0.433E-02 0.500E-02 0.775E-02 0.954E-02 0.136E-01


 Contracted 2-electron integrals neglected if value below      1.0D-11
 AO integral compression algorithm  1   Integral accuracy      1.0D-11

     145.752 MB (compressed) written to integral file ( 19.5%)


 NUMBER OF SORTED TWO-ELECTRON INTEGRALS:   76923406.     BUFFER LENGTH:  32768
 NUMBER OF SEGMENTS:   5  SEGMENT LENGTH:   15999503      RECORD LENGTH: 524288

 Memory used in sort:      16.56 MW

 SORT1 READ    93320247. AND WROTE    26824709. INTEGRALS IN     79 RECORDS. CPU TIME:     0.55 SEC, REAL TIME:     0.93 SEC
 SORT2 READ    26824709. AND WROTE    76923406. INTEGRALS IN    556 RECORDS. CPU TIME:     1.29 SEC, REAL TIME:     1.50 SEC

 FILE SIZES:   FILE 1:   176.7 MBYTE,  FILE 4:   331.4 MBYTE,   TOTAL:    508.1 MBYTE

 OPERATOR DM      FOR CENTER  0  COORDINATES:    0.000000    0.000000    0.000000


 **********************************************************************************************************************************
 DATASETS  * FILE   NREC   LENGTH (MB)   RECORD NAMES
              1      19      144.19       500      610      700      900      950      970     1000      129      960     1100   
                                          VAR    BASINP    GEOM    SYMINP    ZMAT    AOBASIS   BASIS     P2S    ABASIS      S 
                                         1400     1410     1200     1210     1080     1600     1650     1300     1700   
                                           T        V       H0       H01     AOSYM     SMH    MOLCAS    ERIS     OPER   

 PROGRAMS   *        TOTAL       INT
 CPU TIMES  *         6.33      6.18
 REAL TIME  *         8.44 SEC
 DISK USED  *       508.41 MB      
 **********************************************************************************************************************************


 PROGRAM * RHF-SCF (OPEN SHELL)       Authors: W. Meyer, H.-J. Werner


 NUMBER OF ELECTRONS:      14+   12-    SPACE SYMMETRY=1    SPIN SYMMETRY: Triplet 
 CONVERGENCE THRESHOLDS:    1.00E-05 (Density)    1.00E-07 (Energy)
 INTEGRAL THRESHOLDS:       1.00E-11 (Initial)    1.00E-11 (Final)
 MAX. NUMBER OF ITERATIONS:       60
 INTERPOLATION TYPE:            DIIS
 INTERPOLATION STEPS:              2 (START)      1 (STEP)
 LEVEL SHIFTS:                 -0.60 (CLOSED) -0.30 (OPEN) 



 Orbital guess generated from atomic densities. Full valence occupancy:   13

 Molecular orbital dump at record        2100.2

 Initial alpha occupancy:  14
 Initial beta  occupancy:  12
 Wave function symmetry:    1

 Direct Fock-matrix evaluation.        Author: H.-J. Werner (1996)

 Integral Threshold:                  0.1D-10

 ITERATION   DDIFF            GRAD            ENERGY        2-EL.EN.            DIPOLE MOMENTS         DIIS   CPU(IT)  CPU(TOT)
    1      0.000D+00      0.000D+00      -534.77747023    482.552246   -0.39573   -0.50841    0.00000    0      5.8      7.7     start
    2      0.000D+00      0.276D-02      -534.82019296    484.351317   -0.28331    0.16588   -0.00000    1      5.2     12.9     diag,B
    3      0.987D-03      0.162D-02      -534.83934639    484.525185   -0.26493    0.31851   -0.00000    2      5.3     18.2     diag,B
    4      0.627D-03      0.997D-03      -534.85396477    484.697185   -0.25315    0.52996   -0.00000    3      4.8     23.0     diag,B
    5      0.657D-03      0.669D-03      -534.86202856    484.792310   -0.24863    0.68338   -0.00000    4      4.9     27.9     diag,B
    6      0.716D-03      0.352D-03      -534.86406832    484.884133   -0.25055    0.80531   -0.00000    5      5.3     33.2     diag,B
    7      0.330D-03      0.295D-03      -534.86525931    484.892191   -0.24792    0.85931   -0.00000    6      5.0     38.2     fixocc
    8      0.298D-03      0.178D-03      -534.86605456    484.945357   -0.24885    0.93376    0.00000    7      5.0     43.2     diag,B
    9      0.216D-03      0.134D-03      -534.86658609    484.966058   -0.24906    0.99209    0.00000    8      5.0     48.3     diag,B
   10      0.235D-03      0.805D-04      -534.86677470    484.983417   -0.25061    1.01534    0.00000    9      5.4     53.6     orth
   11      0.888D-04      0.700D-04      -534.86694751    484.992446   -0.25210    1.03666    0.00000    9      4.9     58.5     diag,B
   12      0.788D-04      0.640D-04      -534.86725032    485.009566   -0.25545    1.06776   -0.00000    9      4.9     63.4     diag,B
   13      0.135D-03      0.557D-04      -534.86783069    485.058381   -0.26391    1.14186   -0.00000    9      5.2     68.6     diag,B
   14      0.333D-03      0.434D-04      -534.86802837    485.080650   -0.26717    1.17617   -0.00000    9      5.4     74.0     diag,B
   15      0.169D-03      0.327D-04      -534.86818963    485.114235   -0.27108    1.21927   -0.00000    9      5.3     79.3     diag,B
   16      0.228D-03      0.216D-04      -534.86821674    485.123266   -0.27173    1.23458   -0.00000    9      5.4     84.6     diag,B
   17      0.888D-04      0.115D-04      -534.86822372    485.130315   -0.27202    1.24121   -0.00000    9      5.2     89.8     diag,B
   18      0.450D-04      0.503D-05      -534.86822471    485.133960   -0.27234    1.24607   -0.00000    9      5.2     95.0     diag,B
   19      0.270D-04      0.453D-05      -534.86822485    485.133702   -0.27201    1.24426    0.00000    9      5.0     99.9     diag,B
   20      0.654D-05      0.232D-05      -534.86822490    485.134469   -0.27215    1.24534    0.00000    9      5.2    105.1     orth
   21      0.518D-05      0.744D-06      -534.86822472    485.133302   -0.27208    1.24400    0.00000    0      5.1    110.2     orth

 Final alpha occupancy:  14
 Final beta  occupancy:  12

 !RHF STATE 1.1 Energy               -534.868224722782
 Nuclear energy                        38.62988493
 One-electron energy                 -816.06476041
 Two-electron energy                  242.56665076
 Virial quotient                       -0.99982915
 !RHF STATE 1.1 Dipole moment          -0.27208498     1.24399778     0.00000000
 Dipole moment /Debye                  -0.69152574     3.16171989     0.00000000

 Orbital energies:

         1.1          2.1          3.1          4.1          5.1          6.1          7.1          8.1          9.1         10.1
   -104.804604   -20.773722   -10.530243    -7.997031    -7.995940    -7.995923    -1.383058    -1.059507    -0.745247    -0.517187

        11.1         12.1         13.1         14.1         15.1         16.1
     -0.446786    -0.444930    -0.799925    -0.742598     0.126235     0.255263

 HOMO     14.1    -0.742598 =     -20.2071eV
 LUMO     15.1     0.126235 =       3.4350eV
 LUMO-HOMO         0.868832 =      23.6421eV


 **********************************************************************************************************************************
 DATASETS  * FILE   NREC   LENGTH (MB)   RECORD NAMES
              1      19      144.19       500      610      700      900      950      970     1000      129      960     1100   
                                          VAR    BASINP    GEOM    SYMINP    ZMAT    AOBASIS   BASIS     P2S    ABASIS      S 
                                         1400     1410     1200     1210     1080     1600     1650     1300     1700   
                                           T        V       H0       H01     AOSYM     SMH    MOLCAS    ERIS     OPER   

              2       4        3.50       700     1000      520     2100   
                                         GEOM     BASIS   MCVARS     RHF  

 PROGRAMS   *        TOTAL        HF       INT
 CPU TIMES  *       116.55    110.22      6.18
 REAL TIME  *       120.82 SEC
 DISK USED  *       508.41 MB      
 **********************************************************************************************************************************

 Density functional group M06-2X=XC-M06-2X
 Functional: XC-M06-2X(via MFM 1.6)                                            Gradient terms: 1
 Use grid at  1800.2


 Exact exchange will be calculated, factor:  0.5400

 Functional: XC-M06-2X                 Factor:  1.0000

 Generated new metagrid on record  1800.2 with target accuracy 1.0D-06 and 17792 points in CPU time    0.2
 Computed new grid on record 1800.1 in CPU time    0.2
  128927 words reserved for DFT integration

 PROGRAM * RKS-SCF (Restricted open shell Kohn-Sham)     Authors: W. Meyer, H.-J. Werner, P.J. Knowles, 1993

 NUMBER OF ELECTRONS:      14+   12-    SPACE SYMMETRY=1    SPIN SYMMETRY: Triplet 
 CONVERGENCE THRESHOLDS:    1.00E-05 (Density)    1.00E-06 (Energy)
 INTEGRAL THRESHOLDS:       1.00E-11 (Initial)    1.00E-11 (Final)
 MAX. NUMBER OF ITERATIONS:        0
 INTERPOLATION TYPE:            DIIS
 INTERPOLATION STEPS:              2 (START)      1 (STEP)
 LEVEL SHIFTS:                 -0.60 (CLOSED) -0.30 (OPEN) 



 Use fine grid record 1800.2 for energy threshold  1.0D-06

 Basis set DEF2-QZVPP/JKFIT generated.   Number of basis functions:   223 

 Molecular orbitals read from record     2100.2  Type=RHF/CANONICAL (state 1.1)
 Coulomb and exchange fitting
 Thresholds for fitting:       THRAO_COUL= 1.0D-14    THRAO_EXCH= 1.0D-12    THRMO= 1.0D-11    THRPROD= 1.0D-11    THRASM= 1.0D-11
                               THR2HLF=    1.0D-11

 Molecular orbital dump at record        2101.2

 ITERATION   DDIFF            GRAD            ENERGY        2-EL.EN.            DIPOLE MOMENTS         DIIS   CPU(IT)  CPU(TOT)  ORB.
    1      0.000D+00      0.000D+00      -535.84118688    518.324899   -0.27208    1.24400    0.00000    0      2.9      3.0     start

 Final alpha occupancy:  14
 Final beta  occupancy:  12

 !RKS STATE 1.1 Energy               -535.841186875082
 Nuclear energy                        38.62988493
 One-electron energy                 -816.06476041
 Two-electron energy                  259.16244937
 Density functional                   -17.56876077     XC-M06-2X=-17.56876077
 Virial quotient                       -1.00164791
 !RKS STATE 1.1 Dipole moment          -0.27208498     1.24399778     0.00000000
 Dipole moment /Debye                  -0.69152574     3.16171989     0.00000000

 Orbital energies:

         1.1          2.1          3.1          4.1          5.1          6.1          7.1          8.1          9.1         10.1
   -104.804604   -20.773722   -10.530243    -7.997031    -7.995940    -7.995923    -1.383058    -1.059507    -0.745247    -0.517187

        11.1         12.1         13.1         14.1         15.1         16.1
     -0.446786    -0.444930    -0.799925    -0.742598     0.126235     0.255263

 HOMO     14.1    -0.742598 =     -20.2071eV
 LUMO     15.1     0.126235 =       3.4350eV
 LUMO-HOMO         0.868832 =      23.6421eV


 **********************************************************************************************************************************
 DATASETS  * FILE   NREC   LENGTH (MB)   RECORD NAMES
              1      20      144.76       500      610      700      900      950      970     1000      129      960     1100   
                                          VAR    BASINP    GEOM    SYMINP    ZMAT    AOBASIS   BASIS     P2S    ABASIS      S 
                                         1400     1410     1200     1210     1080     1600     1650     1300     1700     1800   
                                           T        V       H0       H01     AOSYM     SMH    MOLCAS    ERIS     OPER     GRID   

              2       6        7.08       700     1000      520     2100     1800     2101   
                                         GEOM     BASIS   MCVARS     RHF     GRID      RKS  

 PROGRAMS   *        TOTAL        KS        HF       INT
 CPU TIMES  *       119.79      3.24    110.22      6.18
 REAL TIME  *       124.09 SEC
 DISK USED  *       508.41 MB      
 **********************************************************************************************************************************


 PROGRAM * Intrinsic Basis Bonding Analysis (IBBA)          Author: G. Knizia

 Molecular orbitals read from record     2101.2  Type=RKS/CANONICAL (state 1.1)
 Fock matrix read from record            2101.2  Type=RKS/TOTAL (state 1.1)
 Orbital energies read from record       2101.2  Type=RKS/CANONICAL (state 1.1)
 Density matrix read from record         2101.2  Type=RKS/CHARGE (state 1.1)

 Number of core orbitals:           6 (   6 )
 Number of closed-shell orbitals:   6 (   6 )
 Number of active  orbitals:        2 (   2 )

 Basis set MINAO-AUTO-PP generated.      Number of basis functions:   15 

 Polarized AO type:                A = (O Ot + (1-O)(1-Ot)) P12
 Orthogonalization method:         Symmetric (Loewdin)
 Localization functional:          L = sum[A,i] <i|n_A|i>^4 -> max

 Localization group 1:  12 orbitals, occupancy  2.000
 Iterative localization: IB/PM,    6 iter; Final gradient 0.58E-08

 Bond order analysis:       [THRPRINT= 0.020]

   CEN ATOM   CEN ATOM     WIBERG.BO      RENORM.BO
     1  CL  -   2   H       0.604403       0.622374
     1  CL  -   3   O       0.359912       2.012440

     2   H  -   1  CL       0.604403       0.622374
     2   H  -   3   O       0.304108       0.729171

     3   O  -   1  CL       0.359912       2.012440
     3   O  -   2   H       0.304108       0.729171


 Valency analysis:

   CEN ATOM   TOT.VALENCE
     1  CL       0.964315
     2   H       0.908511
     3   O       0.664020
 Localization group 2:   2 orbitals, occupancy  1.000
 Iterative localization: IB/PM,    1 iter; Final gradient 0.52E-10

 Bond order analysis:       [THRPRINT= 0.020]

   CEN ATOM   CEN ATOM     WIBERG.BO      RENORM.BO
     1  CL  -   3   O       0.174687       1.000000


     3   O  -   1  CL       0.174687       1.000000


 Valency analysis:

   CEN ATOM   TOT.VALENCE
     1  CL       0.174842
     2   H       0.001735
     3   O       0.176267

 Total charge composition:

   CEN ATOM         s          p       ELECTRONS ->P.CHARGE
     1  CL       5.89724   11.52402     17.42126   -0.42126
     2   H       0.69840                 0.69840    0.30160
     3   O       3.92224    3.95810      7.88035    0.11965

 Total charge composition, AO contributions:

   CEN ATOM SHL      SPHERICAL COMPONENTS
     1  CL  1s       1.99997
     1  CL  2s       1.99812
     1  CL  3s       1.89915
     1  CL  2p       1.99996    1.99971    2.00000
     1  CL  3p       1.93934    1.59148    1.99353

     2   H  1s       0.69840

     3   O  1s       1.99929
     3   O  2s       1.92295
     3   O  2p       1.67346    1.27817    1.00647

 Active orbital charges:

   CEN ATOM         s          p       ELECTRONS ->SPIN.DEN
     1  CL       0.00205    0.09336      0.09540    0.09540
     2   H       0.00087                 0.00087    0.00087
     3   O       0.00046    1.90327      1.90373    1.90373

 Active orbital charges, AO contributions:

   CEN ATOM SHL      SPHERICAL COMPONENTS
     1  CL  1s       0.00000
     1  CL  2s       0.00000
     1  CL  3s       0.00204
     1  CL  2p       0.00000    0.00000    0.00000
     1  CL  3p       0.00117    0.08591    0.00628

     2   H  1s       0.00087

     3   O  1s       0.00000
     3   O  2s       0.00045
     3   O  2p       0.28586    0.62370    0.99372

 Summary of localized orbital composition:   [THRPRINT= 0.020]

   ORB  GRP  ORB.ENERGY      CENTERS/CHARGES
     1   1  -102.616733     CL  1   2.000
     2   1   -19.677728      O  3   2.000
     3   1    -9.633218     CL  1   2.000
     4   1    -7.506715     CL  1   2.000
     5   1    -7.506360     CL  1   2.000
     6   1    -7.493487     CL  1   2.000
     7   1    -0.988863      O  3   2.000
     8   1    -0.913417      O  3   1.803   H  2   0.164  CL  1   0.033
     9   1    -0.723170     CL  1   2.000
    10   1    -0.664317     CL  1   1.349   H  2   0.526   O  3   0.125
    11   1    -0.589856     CL  1   1.956   O  3   0.036
    12   1    -0.373294     CL  1   1.987
    13   2    -0.397399      O  3   0.994
    14   2    -0.374509      O  3   0.910  CL  1   0.089

 Localized orbitals saved to record      2101.2  (orbital set 2)


 **********************************************************************************************************************************
 DATASETS  * FILE   NREC   LENGTH (MB)   RECORD NAMES
              1      20      144.76       500      610      700      900      950      970     1000      129      960     1100   
                                          VAR    BASINP    GEOM    SYMINP    ZMAT    AOBASIS   BASIS     P2S    ABASIS      S 
                                         1400     1410     1200     1210     1080     1600     1650     1300     1700     1800   
                                           T        V       H0       H01     AOSYM     SMH    MOLCAS    ERIS     OPER     GRID   

              2       6        7.28       700     1000      520     2100     1800     2101   
                                         GEOM     BASIS   MCVARS     RHF     GRID      RKS  

 PROGRAMS   *        TOTAL      IBBA        KS        HF       INT
 CPU TIMES  *       119.82      0.03      3.24    110.22      6.18
 REAL TIME  *       124.13 SEC
 DISK USED  *       508.41 MB      
 **********************************************************************************************************************************

 IBBA/QZVP energy=      0.000000000000

        DF-KS           HF-SCF  
   -535.84118688   -534.86822472
 **********************************************************************************************************************************
 Molpro calculation terminated
