
 Primary working directories    : /local
 Secondary working directories  : /local
 Wavefunction directory         : /local/
 Main file repository           : /local/

 SHA1      : b4a5b34a9e711420743f49e6833241d17c61fb3c
 NAME      : 2099.9.b4a5b34
 ARCHNAME  : linux/x86_64_openmp
 FC        : /cm/shared/languages/GCC-6.1/bin/gfortran
 BLASLIB   : -lblas
 id        : simonbennie

 Nodes     nprocs
 node32-011    1

 Using customized tuning parameters: mindgm=1; mindgv=20; mindgc=4; mindgr=1; noblas=0; minvec=7
 default implementation of scratch files=df  

 memory,500,m
 geomtyp=xyz
 nosym
 noorient
 geometry={
 Cl         0.01882       -0.81730        0.00000
 H         -0.47049        0.56948        0.00000
 O          0.01882        1.66558        0.00000
 }
 basis={ default,avdz }
 {uhf,direct;wf,26,1,2}
 {uks,PBE0,direct;maxit,0;wf,26,1,2}
 {ibba,bonds=1}

 Variables initialized (895), CPU time= 0.00 sec
 Commands  initialized (725), CPU time= 0.01 sec, 591 directives.
 Default parameters read. Elapsed time= 0.08 sec

 Checking input...
 Passed
1


                                         ***  PROGRAM SYSTEM MOLPRO  ***
                                       Copyright, TTI GmbH Stuttgart, 2015
                                    Version 2099.9 linked May 26 2017 16:03:21


 **********************************************************************************************************************************
 LABEL *                                                                                 
  64 bit serial version                                                                  DATE: 17-Mar-18          TIME: 00:43:22  
 **********************************************************************************************************************************

 SHA1:             b4a5b34a9e711420743f49e6833241d17c61fb3c
 **********************************************************************************************************************************
 SETTING GEOMTYP        =    XYZ

 Variable memory set to  500000000 words,  buffer space 

 ZSYMEL=NOSYM

 SETTING BASIS          =    AVDZ


 Recomputing integrals since basis changed


 Using spherical harmonics

 Library entry CL     S aug-cc-pVDZ          selected for orbital group  1
 Library entry CL     P aug-cc-pVDZ          selected for orbital group  1
 Library entry CL     D aug-cc-pVDZ          selected for orbital group  1
 Library entry H      S aug-cc-pVDZ          selected for orbital group  2
 Library entry H      P aug-cc-pVDZ          selected for orbital group  2
 Library entry O      S aug-cc-pVDZ          selected for orbital group  3
 Library entry O      P aug-cc-pVDZ          selected for orbital group  3
 Library entry O      D aug-cc-pVDZ          selected for orbital group  3


 PROGRAM * SEWARD (Integral evaluation for generally contracted gaussian basis sets)     Author: Roland Lindh, 1990

 Geometry written to block  1 of record 700


 Point group  C1  



 ATOMIC COORDINATES

 NR  ATOM    CHARGE       X              Y              Z

   1  CL     17.00    0.035564646   -1.544473162    0.000000000
   2  H       1.00   -0.889097244    1.076161233    0.000000000
   3  O       8.00    0.035564646    3.147490039    0.000000000

 Bond lengths in Bohr (Angstrom)

 1-2  2.778978993  2-3  2.268347996
     ( 1.470572353)     ( 1.200358066)

 Bond angles

  1-2-3  136.50871150

 NUCLEAR CHARGE:                   26
 NUMBER OF PRIMITIVE AOS:         100
 NUMBER OF SYMMETRY AOS:           96
 NUMBER OF CONTRACTIONS:           59   (  59A   )
 NUMBER OF CORE ORBITALS:           6   (   6A   )
 NUMBER OF VALENCE ORBITALS:        9   (   9A   )


 NUCLEAR REPULSION ENERGY   38.62988493

 EXTRA SYMMETRY OF AOS IN SYMMETRY 1:   1 1 1 1 1 1 1 2 1 1   2 1 1 2 1 1 2 1 1 2   1 2 1 1 2 1 2 1 1 1   1 1 2 1 1 2 1 1 1 1
                                        1 1 2 1 1 2 1 1 2 1   1 2 1 2 1 1 2 1 2

 Eigenvalues of metric

         1 0.218E-02 0.380E-02 0.100E-01 0.160E-01 0.345E-01 0.512E-01 0.546E-01 0.627E-01


 Contracted 2-electron integrals neglected if value below      1.0D-11
 AO integral compression algorithm  1   Integral accuracy      1.0D-11

     4.456 MB (compressed) written to integral file ( 23.6%)


 NUMBER OF SORTED TWO-ELECTRON INTEGRALS:    1567335.     BUFFER LENGTH:  32768
 NUMBER OF SEGMENTS:   1  SEGMENT LENGTH:    1567335      RECORD LENGTH: 524288

 Memory used in sort:       2.12 MW

 SORT1 READ     2228261. AND WROTE      593992. INTEGRALS IN      2 RECORDS. CPU TIME:     0.02 SEC, REAL TIME:     0.02 SEC
 SORT2 READ      593992. AND WROTE     1567335. INTEGRALS IN     17 RECORDS. CPU TIME:     0.07 SEC, REAL TIME:     0.08 SEC

 FILE SIZES:   FILE 1:    34.6 MBYTE,  FILE 4:     8.4 MBYTE,   TOTAL:     43.0 MBYTE

 OPERATOR DM      FOR CENTER  0  COORDINATES:    0.000000    0.000000    0.000000


 **********************************************************************************************************************************
 DATASETS  * FILE   NREC   LENGTH (MB)   RECORD NAMES
              1      19       33.10       500      610      700      900      950      970     1000      129      960     1100   
                                          VAR    BASINP    GEOM    SYMINP    ZMAT    AOBASIS   BASIS     P2S    ABASIS      S 
                                         1400     1410     1200     1210     1080     1600     1650     1300     1700   
                                           T        V       H0       H01     AOSYM     SMH    MOLCAS    ERIS     OPER   

 PROGRAMS   *        TOTAL       INT
 CPU TIMES  *         0.55      0.40
 REAL TIME  *         0.82 SEC
 DISK USED  *        43.31 MB      
 **********************************************************************************************************************************


 PROGRAM * UHF-SCF       Authors: W. Meyer, H.-J. Werner


 NUMBER OF ELECTRONS:      14+   12-    SPACE SYMMETRY=1    SPIN SYMMETRY: Triplet 
 CONVERGENCE THRESHOLDS:    1.00E-05 (Density)    1.00E-07 (Energy)
 INTEGRAL THRESHOLDS:       1.00E-11 (Initial)    1.00E-11 (Final)
 MAX. NUMBER OF ITERATIONS:       60
 INTERPOLATION TYPE:            DIIS
 INTERPOLATION STEPS:              2 (START)      1 (STEP)
 LEVEL SHIFTS:                 -0.20 (ALPHA)  -0.20 (BETA) 



 Orbital guess generated from atomic densities. Full valence occupancy:   15

 Molecular orbital dump at record        2200.2

 Initial alpha occupation  14
 Initial beta  occupation  12

 Direct Fock-matrix evaluation.        Author: H.-J. Werner (1996)

 Integral Threshold:                  0.1D-10

 ITERATION   DDIFF            GRAD            ENERGY        2-EL.EN.            DIPOLE MOMENTS         DIIS   CPU(IT)  CPU(TOT)
    1      0.000D+00      0.000D+00      -534.75026102    482.542498   -0.39730   -0.25439    0.00000    0      1.0      1.9
    2      0.735D-02      0.418D-02      -534.79684127    484.019832   -0.27728    0.07029   -0.00000    1      0.6      2.5
    3      0.432D-02      0.243D-02      -534.82159558    484.363938   -0.24823    0.32474    0.00000    2      0.6      3.1
    4      0.360D-02      0.149D-02      -534.83437106    484.452327   -0.24500    0.51327    0.00000    3      0.6      3.7
    5      0.178D-02      0.678D-03      -534.83722084    484.501018   -0.24859    0.60502   -0.00000    4      0.7      4.4
    6      0.116D-02      0.318D-03      -534.83805379    484.522206   -0.24681    0.65472    0.00000    5      0.7      5.1
    7      0.436D-03      0.188D-03      -534.83827140    484.551428   -0.24584    0.68966    0.00000    6      0.6      5.7
    8      0.512D-03      0.125D-03      -534.83843087    484.562166   -0.24398    0.71544    0.00000    7      0.6      6.3
    9      0.597D-03      0.869D-04      -534.83854077    484.577513   -0.24239    0.74926   -0.00000    8      0.7      7.0
   10      0.208D-03      0.409D-04      -534.83855929    484.585884   -0.24235    0.76523   -0.00000    9      0.6      7.6
   11      0.962D-04      0.273D-04      -534.83856599    484.587857   -0.24268    0.77188    0.00000    9      0.6      8.3
   12      0.784D-04      0.249D-04      -534.83857210    484.590618   -0.24317    0.77617    0.00000    8      0.6      8.9
   13      0.213D-03      0.240D-04      -534.83858761    484.596704   -0.24433    0.78736   -0.00000    9      0.6      9.5
   14      0.702D-03      0.221D-04      -534.83862784    484.619711   -0.24816    0.82374   -0.00000    9      0.6     10.1
   15      0.537D-03      0.161D-04      -534.83864759    484.634886   -0.25085    0.85112   -0.00000    9      0.6     10.7
   16      0.425D-03      0.126D-04      -534.83865703    484.646810   -0.25291    0.87196   -0.00000    9      0.6     11.2
   17      0.376D-03      0.723D-05      -534.83866060    484.658701   -0.25465    0.89042   -0.00000    9      0.6     11.8
   18      0.770D-04      0.504D-05      -534.83866089    484.659036   -0.25494    0.89323    0.00000    9      0.6     12.4
   19      0.473D-04      0.241D-05      -534.83866094    484.661206   -0.25517    0.89565   -0.00000    9      0.6     13.0
   20      0.395D-05      0.661D-06      -534.83866094    484.661074   -0.25516    0.89539   -0.00000    9      0.6     13.7
   21      0.214D-05      0.374D-06      -534.83866094    484.661136   -0.25517    0.89543   -0.00000    9      0.6     14.3

 Final alpha occupancy:  14
 Final beta  occupancy:  12

 !UHF STATE 1.1 Energy               -534.838660939456
 Nuclear energy                        38.62988493
 One-electron energy                 -815.79911373
 Two-electron energy                  242.33056786
 Virial quotient                       -0.99995901
 !UHF STATE 1.1 Dipole moment          -0.25517134     0.89542858    -0.00000000
 Dipole moment /Debye                  -0.64853838     2.27580338    -0.00000000

 Orbital energies for positive spin:

         1.1          2.1          3.1          4.1          5.1          6.1          7.1          8.1          9.1         10.1
   -104.829245   -20.798113   -10.554877    -8.027933    -8.018729    -8.018503    -1.522120    -1.096318    -0.826483    -0.788025

        11.1         12.1         13.1         14.1         15.1         16.1
     -0.718243    -0.518104    -0.462052    -0.462002     0.042159     0.121953

 Orbital energies for negative spin:

         1.1          2.1          3.1          4.1          5.1          6.1          7.1          8.1          9.1         10.1
   -104.825288   -20.719811   -10.550803    -8.016611    -8.015778    -8.011742    -1.227882    -1.048425    -0.681675    -0.494286

        11.1         12.1         13.1         14.1         15.1         16.1
     -0.453518    -0.451406    -0.019622     0.008912     0.045235     0.134161

 HOMO    -12.1    -0.451406 =     -12.2834eV
 LUMO    -13.1    -0.019622 =      -0.5340eV
 LUMO-HOMO         0.431783 =      11.7494eV

 EXPECTATION VALUE OF S**2:             2.02949885

 Occupation number threshold for canonical orbitals:  1.999000 (occupied),  0.001000 (virtual)

 Number of pseudo-canonical orbitals per symmetry:    9
 Number of active natural orbitals per symmetry:      8

 Natural orbitals saved to record    2200.2 (Orbital set 3)

 Orbital spaces for UNO-CAS (Min. occupation: 0.020  Max. occupation: 1.980):

 Closed:       12
 Active:        2


 **********************************************************************************************************************************
 DATASETS  * FILE   NREC   LENGTH (MB)   RECORD NAMES
              1      19       33.10       500      610      700      900      950      970     1000      129      960     1100   
                                          VAR    BASINP    GEOM    SYMINP    ZMAT    AOBASIS   BASIS     P2S    ABASIS      S 
                                         1400     1410     1200     1210     1080     1600     1650     1300     1700   
                                           T        V       H0       H01     AOSYM     SMH    MOLCAS    ERIS     OPER   

              2       4        2.93       700     1000      520     2200   
                                         GEOM     BASIS   MCVARS     UHF  

 PROGRAMS   *        TOTAL       UHF       INT
 CPU TIMES  *        14.86     14.31      0.40
 REAL TIME  *        15.89 SEC
 DISK USED  *        43.31 MB      
 **********************************************************************************************************************************

 Density functional group PBE0=PBEX+PBEC
 Functional: PBEX(Automatically generated (new) PBEX)                          Gradient terms: 1
 Functional: PBEC(Automatically generated (new) PBEC)                          Gradient terms: 1
 Use grid at  1800.2


 Exact exchange will be calculated, factor:  0.2500

 Functional: PBEX                      Factor:  0.7500
 Functional: PBEC                      Factor:  1.0000

 Generated new metagrid on record  1800.2 with target accuracy 1.0D-06 and 16184 points in CPU time    0.2
 Computed new grid on record 1800.1 in CPU time    0.2
   51138 words reserved for DFT integration

 PROGRAM * UKS-SCF (Unrestricted Kohn-Sham)     Authors: W. Meyer, H.-J. Werner, P.J. Knowles, 1993

 NUMBER OF ELECTRONS:      14+   12-    SPACE SYMMETRY=1    SPIN SYMMETRY: Triplet 
 CONVERGENCE THRESHOLDS:    1.00E-05 (Density)    1.00E-06 (Energy)
 MAX. NUMBER OF ITERATIONS:        0
 INTERPOLATION TYPE:            DIIS
 INTERPOLATION STEPS:              2 (START)      1 (STEP)
 LEVEL SHIFTS:                 -0.20 (ALPHA)  -0.20 (BETA) 



 Use fine grid record 1800.2 for energy threshold  1.0D-06
 Molecular orbitals read from record     2200.2  Type=UHF/ALPHA (state 1.1)
 Molecular orbitals read from record     2200.2  Type=UHF/BETA (state 1.1)

 Molecular orbital dump at record        2201.2

 Initial alpha occupation  14
 Initial beta  occupation  12

 ITERATION    DDIFF          GRAD             ENERGY        2-EL.EN.            DIPOLE MOMENTS         DIIS
    1      0.000D+00      0.000D+00      -535.63612094    538.754712   -0.25517    0.89543   -0.00000    0

 Final alpha occupancy:  14
 Final beta  occupancy:  12

 !UKS STATE 1.1 Energy               -535.636120935382
 Nuclear energy                        38.62988493
 One-electron energy                 -815.79911373
 Two-electron energy                  269.37735594
 Density functional                   -27.84424807     PBEX=-35.87700985 PBEC= -0.93649068
 Virial quotient                       -1.00144998
 !UKS STATE 1.1 Dipole moment          -0.25517134     0.89542858    -0.00000000
 Dipole moment /Debye                  -0.64853838     2.27580338    -0.00000000

 Orbital energies for positive spin:

         1.1          2.1          3.1          4.1          5.1          6.1          7.1          8.1          9.1         10.1
   -104.827269   -20.743339   -10.552838    -8.020065    -8.017311    -8.017256    -1.071264    -0.484929    -0.460067    -0.664965

        11.1         12.1         13.1         14.1         15.1         16.1
     -1.313285    -0.650839    -0.342389    -0.320513     0.505950     1.296398

 Orbital energies for negative spin:

         1.1          2.1          3.1          4.1          5.1          6.1          7.1          8.1          9.1         10.1
   -104.827269   -20.743339   -10.552838    -8.020065    -8.017311    -8.017256    -1.071264    -0.484929    -0.460067    -0.664965

        11.1         12.1         13.1         14.1         15.1         16.1
     -1.313285    -0.650839    -0.342389    -0.320513     0.505950     1.296398

 HOMO     14.1    -0.320513 =      -8.7216eV
 LUMO    -13.1    -0.342389 =      -9.3169eV
 LUMO-HOMO        -0.021876 =      -0.5953eV

 EXPECTATION VALUE OF S**2:             2.02949885

 Occupation number threshold for canonical orbitals:  1.999000 (occupied),  0.001000 (virtual)

 Number of pseudo-canonical orbitals per symmetry:    9
 Number of active natural orbitals per symmetry:      8

 Natural orbitals saved to record    2201.2 (Orbital set 3)

 Orbital spaces for UNO-CAS (Min. occupation: 0.020  Max. occupation: 1.980):

 Closed:       12
 Active:        2

 No convergence



 **********************************************************************************************************************************
 DATASETS  * FILE   NREC   LENGTH (MB)   RECORD NAMES
              1      20       33.62       500      610      700      900      950      970     1000      129      960     1100   
                                          VAR    BASINP    GEOM    SYMINP    ZMAT    AOBASIS   BASIS     P2S    ABASIS      S 
                                         1400     1410     1200     1210     1080     1600     1650     1300     1700     1800   
                                           T        V       H0       H01     AOSYM     SMH    MOLCAS    ERIS     OPER     GRID   

              2       6        5.56       700     1000      520     2200     1800     2201   
                                         GEOM     BASIS   MCVARS     UHF     GRID      UKS  

 PROGRAMS   *        TOTAL       UKS       UHF       INT
 CPU TIMES  *        15.39      0.53     14.31      0.40
 REAL TIME  *        16.44 SEC
 DISK USED  *        43.31 MB      
 **********************************************************************************************************************************


 PROGRAM * Intrinsic Basis Bonding Analysis (IBBA)          Author: G. Knizia

 Molecular orbitals read from record     2201.2  Type=UKS/ALPHA (state 1.1)
 Fock matrix read from record            2201.2  Type=UKS/TOTAL (state 1.1)
 Orbital energies read from record       2201.2  Type=UKS/ALPHA (state 1.1)
 Density matrix read from record         2201.2  Type=UKS/CHARGE (state 1.1)

 Number of core orbitals:           6 (   6 )
 Number of closed-shell orbitals:   6 (   6 )
 Number of active  orbitals:        2 (   2 )

 Basis set MINAO-AUTO-PP generated.      Number of basis functions:   15 

 Polarized AO type:                A = (O Ot + (1-O)(1-Ot)) P12
 Orthogonalization method:         Symmetric (Loewdin)
 Localization functional:          L = sum[A,i] <i|n_A|i>^4 -> max

 Localization group 1:  12 orbitals, occupancy  2.000
 Iterative localization: IB/PM,    6 iter; Final gradient 0.90E-08

 Bond order analysis:       [THRPRINT= 0.020]

   CEN ATOM   CEN ATOM     WIBERG.BO      RENORM.BO
     1  CL  -   2   H       0.565070       0.589151
     1  CL  -   3   O       0.116843       2.028610

     2   H  -   1  CL       0.565070       0.589151
     2   H  -   3   O       0.285378       0.259404

     3   O  -   2   H       0.285378       0.259404
     3   O  -   1  CL       0.116843       2.028610


 Valency analysis:

   CEN ATOM   TOT.VALENCE
     1  CL       0.681913
     2   H       0.850449
     3   O       0.402222
 Localization group 2:   2 orbitals, occupancy  1.000
 Iterative localization: IB/PM,    1 iter; Final gradient 0.11E-10

 Bond order analysis:       [THRPRINT= 0.020]

   CEN ATOM   CEN ATOM     WIBERG.BO      RENORM.BO




 Valency analysis:

   CEN ATOM   TOT.VALENCE
     1  CL       0.020102
     2   H       0.003863
     3   O       0.016285

 Total charge composition:

   CEN ATOM         s          p       ELECTRONS ->P.CHARGE
     1  CL       5.89998    9.69906     15.59905    1.40095
     2   H       0.61522                 0.61522    0.38478
     3   O       3.93066    5.85508      9.78574   -1.78574

 Total charge composition, AO contributions:

   CEN ATOM SHL      SPHERICAL COMPONENTS
     1  CL  1s       1.99997
     1  CL  2s       1.99804
     1  CL  3s       1.90198
     1  CL  2p       1.99996    1.99970    2.00000
     1  CL  3p       1.06510    1.63219    1.00212

     2   H  1s       0.61522

     3   O  1s       1.99928
     3   O  2s       1.93137
     3   O  2p       1.95283    1.90437    1.99788

 Active orbital charges:

   CEN ATOM         s          p       ELECTRONS ->SPIN.DEN
     1  CL       0.00014    1.98974      1.98988    1.98988
     2   H       0.00194                 0.00194    0.00194
     3   O       0.00008    0.00810      0.00818    0.00818

 Active orbital charges, AO contributions:

   CEN ATOM SHL      SPHERICAL COMPONENTS
     1  CL  1s       0.00000
     1  CL  2s       0.00000
     1  CL  3s       0.00014
     1  CL  2p       0.00000    0.00000    0.00000
     1  CL  3p       0.87380    0.11806    0.99788

     2   H  1s       0.00194

     3   O  1s       0.00000
     3   O  2s       0.00008
     3   O  2p       0.00478    0.00120    0.00212

 Summary of localized orbital composition:   [THRPRINT= 0.020]

   ORB  GRP  ORB.ENERGY      CENTERS/CHARGES
     1   1  -101.679454     CL  1   2.000
     2   1   -19.250663      O  3   2.000
     3   1    -9.360097     CL  1   2.000
     4   1    -7.257761     CL  1   2.000
     5   1    -7.256325     CL  1   2.000
     6   1    -7.249185     CL  1   2.000
     7   1    -0.888721      O  3   2.000
     8   1    -0.834268     CL  1   2.000
     9   1    -0.807166      O  3   1.787   H  2   0.194
    10   1    -0.644150     CL  1   1.574   H  2   0.419
    11   1    -0.426740      O  3   1.988
    12   1    -0.384771      O  3   1.996
    13   2    -0.334641     CL  1   0.998
    14   2    -0.331047     CL  1   0.992

 Localized orbitals saved to record      2201.2  (orbital set 4)


 **********************************************************************************************************************************
 DATASETS  * FILE   NREC   LENGTH (MB)   RECORD NAMES
              1      20       33.62       500      610      700      900      950      970     1000      129      960     1100   
                                          VAR    BASINP    GEOM    SYMINP    ZMAT    AOBASIS   BASIS     P2S    ABASIS      S 
                                         1400     1410     1200     1210     1080     1600     1650     1300     1700     1800   
                                           T        V       H0       H01     AOSYM     SMH    MOLCAS    ERIS     OPER     GRID   

              2       6        5.60       700     1000      520     2200     1800     2201   
                                         GEOM     BASIS   MCVARS     UHF     GRID      UKS  

 PROGRAMS   *        TOTAL      IBBA       UKS       UHF       INT
 CPU TIMES  *        15.41      0.02      0.53     14.31      0.40
 REAL TIME  *        16.47 SEC
 DISK USED  *        43.31 MB      
 **********************************************************************************************************************************

 IBBA/aug-cc-pVDZ energy=      0.000000000000

        UKS-SCF         UHF-SCF 
   -535.63612094   -534.83866094
 **********************************************************************************************************************************
 Molpro calculation terminated
