
 Primary working directories    : /local
 Secondary working directories  : /local
 Wavefunction directory         : /local/
 Main file repository           : /local/

 SHA1      : b4a5b34a9e711420743f49e6833241d17c61fb3c
 NAME      : 2099.9.b4a5b34
 ARCHNAME  : linux/x86_64_openmp
 FC        : /cm/shared/languages/GCC-6.1/bin/gfortran
 BLASLIB   : -lblas
 id        : simonbennie

 Nodes     nprocs
 node32-030    1

 Using customized tuning parameters: mindgm=1; mindgv=20; mindgc=4; mindgr=1; noblas=0; minvec=7
 default implementation of scratch files=df  

 memory,500,m
 geomtyp=xyz
 nosym
 noorient
 geometry={
 Cl         0.01882       -0.81730        0.00000
 H         -0.47049        0.56948        0.00000
 O          0.01882        1.66558        0.00000
 }
 basis={ default,sto-3g }
 {uks,CS,direct;wf,26,1,2}
 {ibba,bonds=1}

 Variables initialized (895), CPU time= 0.00 sec
 Commands  initialized (725), CPU time= 0.01 sec, 591 directives.
 Default parameters read. Elapsed time= 0.08 sec

 Checking input...
 Passed
1


                                         ***  PROGRAM SYSTEM MOLPRO  ***
                                       Copyright, TTI GmbH Stuttgart, 2015
                                    Version 2099.9 linked May 26 2017 16:03:21


 **********************************************************************************************************************************
 LABEL *                                                                                 
  64 bit serial version                                                                  DATE: 23-Jun-17          TIME: 04:45:09  
 **********************************************************************************************************************************

 SHA1:             b4a5b34a9e711420743f49e6833241d17c61fb3c
 **********************************************************************************************************************************
 SETTING GEOMTYP        =    XYZ

 Variable memory set to  500000000 words,  buffer space 

 ZSYMEL=NOSYM

 SETTING BASIS          =    STO-3G


 Recomputing integrals since basis changed


 Using spherical harmonics

 Library entry CL     S STO-3G               selected for orbital group  1
 Library entry CL     P STO-3G               selected for orbital group  1
 Library entry H      S STO-3G               selected for orbital group  2
 Library entry O      S STO-3G               selected for orbital group  3
 Library entry O      P STO-3G               selected for orbital group  3


 PROGRAM * SEWARD (Integral evaluation for generally contracted gaussian basis sets)     Author: Roland Lindh, 1990

 Geometry written to block  1 of record 700


 Point group  C1  



 ATOMIC COORDINATES

 NR  ATOM    CHARGE       X              Y              Z

   1  CL     17.00    0.035564646   -1.544473162    0.000000000
   2  H       1.00   -0.889097244    1.076161233    0.000000000
   3  O       8.00    0.035564646    3.147490039    0.000000000

 Bond lengths in Bohr (Angstrom)

 1-2  2.778978993  2-3  2.268347996
     ( 1.470572353)     ( 1.200358066)

 Bond angles

  1-2-3  136.50871150

 NUCLEAR CHARGE:                   26
 NUMBER OF PRIMITIVE AOS:          45
 NUMBER OF SYMMETRY AOS:           45
 NUMBER OF CONTRACTIONS:           15   (  15A   )
 NUMBER OF CORE ORBITALS:           6   (   6A   )
 NUMBER OF VALENCE ORBITALS:        9   (   9A   )


 NUCLEAR REPULSION ENERGY   38.62988493

 EXTRA SYMMETRY OF AOS IN SYMMETRY 1:   1 1 1 1 1 2 1 1 2 1   1 1 1 1 2

 Eigenvalues of metric

         1 0.354E+00 0.607E+00 0.735E+00 0.767E+00 0.768E+00 0.843E+00 0.961E+00 0.100E+01


 Contracted 2-electron integrals neglected if value below      1.0D-11
 AO integral compression algorithm  1   Integral accuracy      1.0D-11

     0.262 MB (compressed) written to integral file ( 51.9%)


 NUMBER OF SORTED TWO-ELECTRON INTEGRALS:       7260.     BUFFER LENGTH:  32768
 NUMBER OF SEGMENTS:   1  SEGMENT LENGTH:       7260      RECORD LENGTH: 524288

 Memory used in sort:       0.56 MW

 SORT1 READ       11341. AND WROTE        2460. INTEGRALS IN      1 RECORDS. CPU TIME:     0.00 SEC, REAL TIME:     0.00 SEC
 SORT2 READ        2460. AND WROTE        7260. INTEGRALS IN      1 RECORDS. CPU TIME:     0.00 SEC, REAL TIME:     0.01 SEC

 FILE SIZES:   FILE 1:    30.2 MBYTE,  FILE 4:     4.2 MBYTE,   TOTAL:     34.5 MBYTE

 OPERATOR DM      FOR CENTER  0  COORDINATES:    0.000000    0.000000    0.000000


 **********************************************************************************************************************************
 DATASETS  * FILE   NREC   LENGTH (MB)   RECORD NAMES
              1      19       30.00       500      610      700      900      950      970     1000      129      960     1100   
                                          VAR    BASINP    GEOM    SYMINP    ZMAT    AOBASIS   BASIS     P2S    ABASIS      S 
                                         1400     1410     1200     1210     1080     1600     1650     1300     1700   
                                           T        V       H0       H01     AOSYM     SMH    MOLCAS    ERIS     OPER   

 PROGRAMS   *        TOTAL       INT
 CPU TIMES  *         0.39      0.25
 REAL TIME  *         0.69 SEC
 DISK USED  *        34.77 MB      
 **********************************************************************************************************************************

 Density functional group CS=CS1
 Functional: CS1(Colle-Salvetti (Gradient form))                               Gradient terms: 1
 Use grid at  1800.2

 Functional: CS1                       Factor:  1.0000

 Generated new metagrid on record  1800.2 with target accuracy 1.0D-06 and 16184 points in CPU time    0.2
 Computed new grid on record 1800.1 in CPU time    0.2
   15933 words reserved for DFT integration

 PROGRAM * UKS-SCF (Unrestricted Kohn-Sham)     Authors: W. Meyer, H.-J. Werner, P.J. Knowles, 1993

 NUMBER OF ELECTRONS:      14+   12-    SPACE SYMMETRY=1    SPIN SYMMETRY: Triplet 
 CONVERGENCE THRESHOLDS:    1.00E-05 (Density)    1.00E-06 (Energy)
 MAX. NUMBER OF ITERATIONS:       60
 INTERPOLATION TYPE:            DIIS
 INTERPOLATION STEPS:              2 (START)      1 (STEP)
 LEVEL SHIFTS:                 -0.20 (ALPHA)  -0.20 (BETA) 



 Use fine grid record 1800.2 for energy threshold  1.0D-06
 Orbital guess generated from atomic densities. Full valence occupancy:   13

 Molecular orbital dump at record        2200.2

 Initial alpha occupation  14
 Initial beta  occupation  12

 ITERATION    DDIFF          GRAD             ENERGY        2-EL.EN.            DIPOLE MOMENTS         DIIS
    1      0.000D+00      0.000D+00      -493.58508669    558.881081   -0.11671    3.33979   -0.00000    0
    2      0.133D+00      0.249D-01      -493.51494541    553.301784   -0.16721   -2.07695   -0.00000    1
    3      0.689D-01      0.493D-01      -493.74508927    556.277814   -0.13398    1.16767   -0.00000    2
    4      0.630D-02      0.288D-02      -493.74733722    556.013257   -0.12212    0.97768   -0.00000    3
    5      0.439D-02      0.143D-02      -493.74819919    555.969918   -0.12072    0.94486   -0.00000    4
    6      0.874D-02      0.960D-03      -493.74900332    555.951668   -0.12026    0.95832   -0.00000    5
    7      0.249D-02      0.599D-03      -493.74912943    555.932274   -0.12205    0.94999    0.00000    6
    8      0.347D-02      0.447D-03      -493.74922438    555.885196   -0.12430    0.92049    0.00000    7
    9      0.645D-03      0.632D-04      -493.74922843    555.884983   -0.12465    0.92262   -0.00000    6
   10      0.267D-03      0.212D-04      -493.74922896    555.884343   -0.12487    0.92265   -0.00000    7
   11      0.463D-04      0.491D-05      -493.74922898    555.884240   -0.12489    0.92264    0.00000    8
   12      0.209D-04      0.179D-05      -493.74922898    555.884329   -0.12488    0.92267    0.00000    7
   13      0.606D-06      0.101D-06      -493.74922898    555.884325   -0.12488    0.92266   -0.00000    5
   14      0.367D-06      0.724D-07      -493.74922898    555.884332   -0.12488    0.92267   -0.00000    5

 Final alpha occupancy:  14
 Final beta  occupancy:  12

 !UKS STATE 1.1 Energy               -493.749228983299
 Nuclear energy                        38.62988493
 One-electron energy                 -809.33255316
 Two-electron energy                  277.94216610
 Density functional                    -0.98872685     CS1=-0.98872685
 Virial quotient                       -0.95073668
 !UKS STATE 1.1 Dipole moment          -0.12488387     0.92267166    -0.00000000
 Dipole moment /Debye                  -0.31740235     2.34504385    -0.00000000

 Orbital energies for positive spin:

         1.1          2.1          3.1          4.1          5.1          6.1          7.1          8.1          9.1         10.1
    -92.890026   -15.705523    -6.630753    -4.611524    -4.592965    -4.591510    -0.174185    -0.014373     0.243757     0.405496

        11.1         12.1         13.1         14.1         15.1
      0.406886     0.466657     0.475005     0.492148     0.922199

 Orbital energies for negative spin:

         1.1          2.1          3.1          4.1          5.1          6.1          7.1          8.1          9.1         10.1
    -92.890245   -15.712313    -6.631427    -4.612365    -4.593673    -4.592045    -0.191548    -0.024558     0.234517     0.399424

        11.1         12.1         13.1         14.1         15.1
      0.399855     0.466079     0.434913     0.465441     0.914733

 HOMO     14.1     0.492148 =      13.3920eV
 LUMO    -13.1     0.434913 =      11.8346eV
 LUMO-HOMO        -0.057235 =      -1.5574eV

 EXPECTATION VALUE OF S**2:             2.00009273

 Occupation number threshold for canonical orbitals:  1.999000 (occupied),  0.001000 (virtual)

 Number of pseudo-canonical orbitals per symmetry:   12
 Number of active natural orbitals per symmetry:      2

 Natural orbitals saved to record    2200.2 (Orbital set 3)

 Orbital spaces for UNO-CAS (Min. occupation: 0.020  Max. occupation: 1.980):

 Closed:       12
 Active:        2


 **********************************************************************************************************************************
 DATASETS  * FILE   NREC   LENGTH (MB)   RECORD NAMES
              1      20       30.52       500      610      700      900      950      970     1000      129      960     1100   
                                          VAR    BASINP    GEOM    SYMINP    ZMAT    AOBASIS   BASIS     P2S    ABASIS      S 
                                         1400     1410     1200     1210     1080     1600     1650     1300     1700     1800   
                                           T        V       H0       H01     AOSYM     SMH    MOLCAS    ERIS     OPER     GRID   

              2       5        2.79       700     1000      520     1800     2200   
                                         GEOM     BASIS   MCVARS    GRID      UKS  

 PROGRAMS   *        TOTAL       UKS       INT
 CPU TIMES  *         1.41      1.02      0.25
 REAL TIME  *         1.75 SEC
 DISK USED  *        34.77 MB      
 **********************************************************************************************************************************


 PROGRAM * Intrinsic Basis Bonding Analysis (IBBA)          Author: G. Knizia

 Molecular orbitals read from record     2200.2  Type=UKS/ALPHA (state 1.1)
 Fock matrix read from record            2200.2  Type=UKS/TOTAL (state 1.1)
 Orbital energies read from record       2200.2  Type=UKS/ALPHA (state 1.1)
 Density matrix read from record         2200.2  Type=UKS/CHARGE (state 1.1)

 Number of core orbitals:           6 (   6 )
 Number of closed-shell orbitals:   6 (   6 )
 Number of active  orbitals:        2 (   2 )

 Basis set MINAO-AUTO-PP generated.      Number of basis functions:   15 

 Polarized AO type:                A = (O Ot + (1-O)(1-Ot)) P12
 Orthogonalization method:         Symmetric (Loewdin)
 Localization functional:          L = sum[A,i] <i|n_A|i>^4 -> max

 Localization group 1:  12 orbitals, occupancy  2.000
 Iterative localization: IB/PM,    6 iter; Final gradient 0.36E-08

 Bond order analysis:       [THRPRINT= 0.020]

   CEN ATOM   CEN ATOM     WIBERG.BO      RENORM.BO
     1  CL  -   3   O       0.735632       2.010219
     1  CL  -   2   H       0.569834       0.765360

     2   H  -   1  CL       0.569834       0.765360
     2   H  -   3   O       0.429346       0.815374

     3   O  -   1  CL       0.735632       2.010219
     3   O  -   2   H       0.429346       0.815374


 Valency analysis:

   CEN ATOM   TOT.VALENCE
     1  CL       1.305466
     2   H       0.999180
     3   O       1.164978
 Localization group 2:   2 orbitals, occupancy  1.000
 Iterative localization: IB/PM,    4 iter; Final gradient 0.11E-15

 Bond order analysis:       [THRPRINT= 0.020]

   CEN ATOM   CEN ATOM     WIBERG.BO      RENORM.BO
     1  CL  -   3   O       0.624409       1.000000


     3   O  -   1  CL       0.624409       1.000000


 Valency analysis:

   CEN ATOM   TOT.VALENCE
     1  CL       0.630493
     2   H       0.020868
     3   O       0.639192

 Total charge composition:

   CEN ATOM         s          p       ELECTRONS ->P.CHARGE
     1  CL       5.88715   11.16916     17.05631   -0.05631
     2   H       0.98191                 0.98191    0.01809
     3   O       3.88921    4.07257      7.96178    0.03822

 Total charge composition, AO contributions:

   CEN ATOM SHL      SPHERICAL COMPONENTS
     1  CL  1s       1.99996
     1  CL  2s       1.99904
     1  CL  3s       1.88814
     1  CL  2p       1.99937    1.99707    2.00000
     1  CL  3p       1.86160    1.31112    2.00000

     2   H  1s       0.98191

     3   O  1s       1.99978
     3   O  2s       1.88942
     3   O  2p       1.00031    1.07226    2.00000

 Active orbital charges:

   CEN ATOM         s          p       ELECTRONS ->SPIN.DEN
     1  CL       0.00254    0.52851      0.53105    0.53105
     2   H       0.01055                 0.01055    0.01055
     3   O       0.00853    1.44988      1.45840    1.45840

 Active orbital charges, AO contributions:

   CEN ATOM SHL      SPHERICAL COMPONENTS
     1  CL  1s       0.00000
     1  CL  2s       0.00001
     1  CL  3s       0.00253
     1  CL  2p       0.00044    0.00213    0.00000
     1  CL  3p       0.09052    0.43542    0.00000

     2   H  1s       0.01055

     3   O  1s       0.00000
     3   O  2s       0.00852
     3   O  2p       0.86399    0.58589    0.00000

 Summary of localized orbital composition:   [THRPRINT= 0.020]

   ORB  GRP  ORB.ENERGY      CENTERS/CHARGES
     1   1   -92.865620     CL  1   2.000
     2   1   -15.647046      O  3   2.000
     3   1    -6.477950     CL  1   2.000
     4   1    -4.608600     CL  1   2.000
     5   1    -4.593301     CL  1   2.000
     6   1    -4.591649     CL  1   2.000
     7   1    -0.108993     CL  1   1.946   O  3   0.042
     8   1    -0.101982      O  3   1.895  CL  1   0.064   H  2   0.041
     9   1     0.030653      H  2   0.909  CL  1   0.664   O  3   0.427
    10   1     0.376977     CL  1   1.851   O  3   0.139
    11   1     0.407572     CL  1   2.000
    12   1     0.446566      O  3   2.000
    13   2     0.471776      O  3   0.535  CL  1   0.459
    14   2     0.477231      O  3   0.923  CL  1   0.072

 Localized orbitals saved to record      2200.2  (orbital set 4)


 **********************************************************************************************************************************
 DATASETS  * FILE   NREC   LENGTH (MB)   RECORD NAMES
              1      20       30.52       500      610      700      900      950      970     1000      129      960     1100   
                                          VAR    BASINP    GEOM    SYMINP    ZMAT    AOBASIS   BASIS     P2S    ABASIS      S 
                                         1400     1410     1200     1210     1080     1600     1650     1300     1700     1800   
                                           T        V       H0       H01     AOSYM     SMH    MOLCAS    ERIS     OPER     GRID   

              2       5        2.80       700     1000      520     1800     2200   
                                         GEOM     BASIS   MCVARS    GRID      UKS  

 PROGRAMS   *        TOTAL      IBBA       UKS       INT
 CPU TIMES  *         1.43      0.02      1.02      0.25
 REAL TIME  *         1.80 SEC
 DISK USED  *        34.77 MB      
 **********************************************************************************************************************************
 Molecular orbitals read from record     2200.2  Type=UKS/LOCAL(IBO)  
 Occupation numbers read from record     2200.2  Type=UKS/LOCAL(IBO)  
 Orbital energies read from record       2200.2  Type=UKS/LOCAL(IBO)  
 Redundancy group numbers read from rec  2200.2  Type=UKS/BETA (state 1.1)

 IBBA/STO-3G energy=      0.000000000000

        UKS-SCF 
   -493.74922898
 **********************************************************************************************************************************
 Molpro calculation terminated
