
 Primary working directories    : /local
 Secondary working directories  : /local
 Wavefunction directory         : /local/
 Main file repository           : /local/

 SHA1      : b4a5b34a9e711420743f49e6833241d17c61fb3c
 NAME      : 2099.9.b4a5b34
 ARCHNAME  : linux/x86_64_openmp
 FC        : /cm/shared/languages/GCC-6.1/bin/gfortran
 BLASLIB   : -lblas
 id        : simonbennie

 Nodes     nprocs
 node32-030    1

 Using customized tuning parameters: mindgm=1; mindgv=20; mindgc=4; mindgr=1; noblas=0; minvec=7
 default implementation of scratch files=df  

 memory,500,m
 geomtyp=xyz
 nosym
 noorient
 geometry={
 C         -1.19958       -0.01113       -0.00003
 N          1.40071        0.12986        0.00002
 H         -1.42666       -0.51293        0.93306
 H         -1.41991       -0.59138       -0.88814
 H         -1.52024        1.02281       -0.04578
 H          0.18893        0.12690        0.00100
 H          1.57034       -0.88767       -0.00005
 }
 basis={ default,sto-3g }
 {ks,B3LYP5,direct;wf,18,1,2}
 {ibba,bonds=1}

 Variables initialized (895), CPU time= 0.00 sec
 Commands  initialized (725), CPU time= 0.02 sec, 591 directives.
 Default parameters read. Elapsed time= 0.08 sec

 Checking input...
 Passed
1


                                         ***  PROGRAM SYSTEM MOLPRO  ***
                                       Copyright, TTI GmbH Stuttgart, 2015
                                    Version 2099.9 linked May 26 2017 16:03:21


 **********************************************************************************************************************************
 LABEL *                                                                                 
  64 bit serial version                                                                  DATE: 23-Jun-17          TIME: 06:42:38  
 **********************************************************************************************************************************

 SHA1:             b4a5b34a9e711420743f49e6833241d17c61fb3c
 **********************************************************************************************************************************
 SETTING GEOMTYP        =    XYZ

 Variable memory set to  500000000 words,  buffer space 

 ZSYMEL=NOSYM

 SETTING BASIS          =    STO-3G


 Recomputing integrals since basis changed


 Using spherical harmonics

 Library entry C      S STO-3G               selected for orbital group  1
 Library entry C      P STO-3G               selected for orbital group  1
 Library entry N      S STO-3G               selected for orbital group  2
 Library entry N      P STO-3G               selected for orbital group  2
 Library entry H      S STO-3G               selected for orbital group  3


 PROGRAM * SEWARD (Integral evaluation for generally contracted gaussian basis sets)     Author: Roland Lindh, 1990

 Geometry written to block  1 of record 700


 Point group  C1  



 ATOMIC COORDINATES

 NR  ATOM    CHARGE       X              Y              Z

   1  C       6.00   -2.266877665   -0.021032652   -0.000056692
   2  N       7.00    2.646958280    0.245399835    0.000037795
   3  H       1.00   -2.695996673   -0.969297221    1.763227858
   4  H       1.00   -2.683241022   -1.117546236   -1.678341360
   5  H       1.00   -2.872837244    1.932830777   -0.086511662
   6  H       1.00    0.357025957    0.239806245    0.001889726
   7  H       1.00    2.967512522   -1.677453189   -0.000094486

 Bond lengths in Bohr (Angstrom)

 1-3  2.047564705  1-4  2.047520430  1-5  2.047496953  1-6  2.636837297  2-6  2.289939904
     ( 1.083524580)     ( 1.083501151)     ( 1.083488727)     ( 1.395354207)     ( 1.211784011)

 2-7  1.949389338
     ( 1.031572413)

 Bond angles

  1-6-2  174.46219800   3-1-4  114.53404293   3-1-5  114.59980605   3-1-6  104.69797988

  4-1-5  114.59807310   4-1-6  104.82888405   5-1-6  101.54476811   6-2-7   99.32464965

 NUCLEAR CHARGE:                   18
 NUMBER OF PRIMITIVE AOS:          45
 NUMBER OF SYMMETRY AOS:           45
 NUMBER OF CONTRACTIONS:           15   (  15A   )
 NUMBER OF CORE ORBITALS:           2   (   2A   )
 NUMBER OF VALENCE ORBITALS:       13   (  13A   )


 NUCLEAR REPULSION ENERGY   33.45955816


 Eigenvalues of metric

         1 0.234E+00 0.315E+00 0.356E+00 0.357E+00 0.387E+00 0.835E+00 0.914E+00 0.993E+00


 Contracted 2-electron integrals neglected if value below      1.0D-11
 AO integral compression algorithm  1   Integral accuracy      1.0D-11

     0.262 MB (compressed) written to integral file (100.0%)


 NUMBER OF SORTED TWO-ELECTRON INTEGRALS:       7260.     BUFFER LENGTH:  32768
 NUMBER OF SEGMENTS:   1  SEGMENT LENGTH:       7260      RECORD LENGTH: 524288

 Memory used in sort:       0.56 MW

 SORT1 READ        9024. AND WROTE        6928. INTEGRALS IN      1 RECORDS. CPU TIME:     0.00 SEC, REAL TIME:     0.00 SEC
 SORT2 READ        6928. AND WROTE        7260. INTEGRALS IN      1 RECORDS. CPU TIME:     0.00 SEC, REAL TIME:     0.01 SEC

 FILE SIZES:   FILE 1:    30.3 MBYTE,  FILE 4:     4.2 MBYTE,   TOTAL:     34.5 MBYTE

 OPERATOR DM      FOR CENTER  0  COORDINATES:    0.000000    0.000000    0.000000


 **********************************************************************************************************************************
 DATASETS  * FILE   NREC   LENGTH (MB)   RECORD NAMES
              1      19       30.09       500      610      700      900      950      970     1000      129      960     1100   
                                          VAR    BASINP    GEOM    SYMINP    ZMAT    AOBASIS   BASIS     P2S    ABASIS      S 
                                         1400     1410     1200     1210     1080     1600     1650     1300     1700   
                                           T        V       H0       H01     AOSYM     SMH    MOLCAS    ERIS     OPER   

 PROGRAMS   *        TOTAL       INT
 CPU TIMES  *         0.37      0.22
 REAL TIME  *         0.67 SEC
 DISK USED  *        34.91 MB      
 **********************************************************************************************************************************

 Density functional group B3LYP5=B88+DIRAC+LYP+VWN5
 Functional: B88(Automatically generated (new) B88)                            Gradient terms: 1
 Functional: DIRAC(Automatically generated (new) DIRAC)                        Gradient terms: 0
 Functional: LYP(Automatically generated (new) LYP)                            Gradient terms: 1
 Functional: VWN5(Automatically generated (new) VWN5)                          Gradient terms: 0
 Use grid at  1800.2


 Exact exchange will be calculated, factor:  0.2000

 Functional: B88                       Factor:  0.7200
 Functional: DIRAC                     Factor:  0.0800
 Functional: LYP                       Factor:  0.8100
 Functional: VWN5                      Factor:  0.1900

 Generated new metagrid on record  1800.2 with target accuracy 1.0D-06 and 23050 points in CPU time    0.5
 Computed new grid on record 1800.1 in CPU time    0.5
   15985 words reserved for DFT integration

 PROGRAM * RKS-SCF (Restricted open shell Kohn-Sham)     Authors: W. Meyer, H.-J. Werner, P.J. Knowles, 1993

 NUMBER OF ELECTRONS:      10+    8-    SPACE SYMMETRY=1    SPIN SYMMETRY: Triplet 
 CONVERGENCE THRESHOLDS:    1.00E-05 (Density)    1.00E-06 (Energy)
 MAX. NUMBER OF ITERATIONS:       60
 INTERPOLATION TYPE:            DIIS
 INTERPOLATION STEPS:              2 (START)      1 (STEP)
 LEVEL SHIFTS:                 -0.60 (CLOSED) -0.30 (OPEN) 



 Use fine grid record 1800.2 for energy threshold  1.0D-06
 Orbital guess generated from atomic densities. Full valence occupancy:    9

 Molecular orbital dump at record        2100.2

 Initial alpha occupancy:  10
 Initial beta  occupancy:   8
 Wave function symmetry:    1

 ITERATION    DDIFF          GRAD             ENERGY        2-EL.EN.            DIPOLE MOMENTS         DIIS   ORB.
    1      0.000D+00      0.000D+00       -94.37389499    156.481835    0.17564   -0.79096    0.00015    0    start
    2      0.000D+00      0.230D-01       -94.42319730    154.133058   -0.25253   -0.59006    0.00023    1    diag,B
    3      0.484D-01      0.520D-02       -94.42595050    154.089305   -0.07155   -0.50061    0.00016    2    diag,B
    4      0.109D-01      0.125D-02       -94.42619246    154.040866   -0.12890   -0.49362    0.00015    3    diag,B
    5      0.288D-02      0.382D-03       -94.42622125    154.042041   -0.13694   -0.48671    0.00014    4    diag,B
    6      0.127D-02      0.745D-04       -94.42622458    154.042130   -0.14070   -0.48676    0.00014    5    diag,B
    7      0.302D-03      0.319D-04       -94.42622556    154.042196   -0.14309   -0.48695    0.00014    6    fixocc
    8      0.194D-03      0.113D-04       -94.42622568    154.042230   -0.14416   -0.48695    0.00014    7    diag,B
    9      0.820D-04      0.266D-05       -94.42622568    154.042283   -0.14435   -0.48696    0.00014    8    diag,B
   10      0.146D-04      0.333D-06       -94.42622568    154.042281   -0.14436   -0.48696    0.00014    9    orth
   11      0.143D-05      0.108D-06       -94.42622568    154.042283   -0.14436   -0.48696    0.00014    0    orth

 Final alpha occupancy:  10
 Final beta  occupancy:   8

 !RKS STATE 1.1 Energy                -94.426225681449
 Nuclear energy                        33.45955816
 One-electron energy                 -193.50784715
 Two-electron energy                   77.02114154
 Density functional                   -11.39907823     B88=-13.57087295 DIRAC=-12.18057687 LYP= -0.54671624 VWN5= -1.10928106
 Virial quotient                       -1.00906346
 !RKS STATE 1.1 Dipole moment          -0.14436146    -0.48695826     0.00013931
 Dipole moment /Debye                  -0.36690620    -1.23764338     0.00035408

 Orbital energies:

         1.1          2.1          3.1          4.1          5.1          6.1          7.1          8.1          9.1         10.1
    -14.108747    -9.973419    -0.762895    -0.637107    -0.387879    -0.368092    -0.365523    -0.248630    -0.231544    -0.153262

        11.1         12.1
      0.383493     0.434864

 HOMO     10.1    -0.153262 =      -4.1705eV
 LUMO     11.1     0.383493 =      10.4354eV
 LUMO-HOMO         0.536755 =      14.6059eV


 **********************************************************************************************************************************
 DATASETS  * FILE   NREC   LENGTH (MB)   RECORD NAMES
              1      20       30.83       500      610      700      900      950      970     1000      129      960     1100   
                                          VAR    BASINP    GEOM    SYMINP    ZMAT    AOBASIS   BASIS     P2S    ABASIS      S 
                                         1400     1410     1200     1210     1080     1600     1650     1300     1700     1800   
                                           T        V       H0       H01     AOSYM     SMH    MOLCAS    ERIS     OPER     GRID   

              2       5        2.86       700     1000      520     1800     2100   
                                         GEOM     BASIS   MCVARS    GRID      RKS  

 PROGRAMS   *        TOTAL        KS       INT
 CPU TIMES  *         1.96      1.59      0.22
 REAL TIME  *         2.32 SEC
 DISK USED  *        34.91 MB      
 **********************************************************************************************************************************


 PROGRAM * Intrinsic Basis Bonding Analysis (IBBA)          Author: G. Knizia

 Molecular orbitals read from record     2100.2  Type=RKS/CANONICAL (state 1.1)
 Fock matrix read from record            2100.2  Type=RKS/TOTAL (state 1.1)
 Orbital energies read from record       2100.2  Type=RKS/CANONICAL (state 1.1)
 Density matrix read from record         2100.2  Type=RKS/CHARGE (state 1.1)

 Number of core orbitals:           2 (   2 )
 Number of closed-shell orbitals:   6 (   6 )
 Number of active  orbitals:        2 (   2 )

 Basis set MINAO-AUTO-PP generated.      Number of basis functions:   15 

 Polarized AO type:                A = (O Ot + (1-O)(1-Ot)) P12
 Orthogonalization method:         Symmetric (Loewdin)
 Localization functional:          L = sum[A,i] <i|n_A|i>^4 -> max

 Localization group 1:   8 orbitals, occupancy  2.000
 Iterative localization: IB/PM,    6 iter; Final gradient 0.69E-08

 Bond order analysis:       [THRPRINT= 0.020]

   CEN ATOM   CEN ATOM     WIBERG.BO      RENORM.BO
     1   C  -   4   H       0.975454       0.999871
     1   C  -   3   H       0.975279       0.999873
     1   C  -   5   H       0.972342       0.999876
     1   C  -   2   N       0.481008       2.003246
     1   C  -   6   H       0.390277       0.739199

     2   N  -   7   H       0.969384       0.999940
     2   N  -   6   H       0.579934       0.946066
     2   N  -   1   C       0.481008       2.003246

     3   H  -   1   C       0.975279       0.999873

     4   H  -   1   C       0.975454       0.999871

     5   H  -   1   C       0.972342       0.999876

     6   H  -   2   N       0.579934       0.946066
     6   H  -   1   C       0.390277       0.739199

     7   H  -   2   N       0.969384       0.999940


 Valency analysis:

   CEN ATOM   TOT.VALENCE
     1   C       3.794403
     2   N       2.047676
     3   H       0.983815
     4   H       0.983887
     5   H       0.982545
     6   H       0.974939
     7   H       0.969867
 Localization group 2:   2 orbitals, occupancy  1.000
 Iterative localization: IB/PM,    2 iter; Final gradient 0.80E-11

 Bond order analysis:       [THRPRINT= 0.020]

   CEN ATOM   CEN ATOM     WIBERG.BO      RENORM.BO
     1   C  -   2   N       0.494032       1.000000

     2   N  -   1   C       0.494032       1.000000







 Valency analysis:

   CEN ATOM   TOT.VALENCE
     1   C       0.499629
     2   N       0.500673
     3   H       0.002634
     4   H       0.002561
     5   H       0.002858
     6   H       0.004131
     7   H       0.000102

 Total charge composition:

   CEN ATOM         s          p       ELECTRONS ->P.CHARGE
     1   C       3.06816    3.39213      6.46029   -0.46029
     2   N       3.70683    3.54490      7.25173   -0.25173
     3   H       0.87410                 0.87410    0.12590
     4   H       0.87434                 0.87434    0.12566
     5   H       0.86931                 0.86931    0.13069
     6   H       0.84376                 0.84376    0.15624
     7   H       0.82646                 0.82646    0.17354

 Total charge composition, AO contributions:

   CEN ATOM SHL      SPHERICAL COMPONENTS
     1   C  1s       1.99264
     1   C  2s       1.07552
     1   C  2p       1.07549    1.16044    1.15619

     2   N  1s       1.99728
     2   N  2s       1.70955
     2   N  2p       1.18225    1.36277    0.99988

     3   H  1s       0.87410

     4   H  1s       0.87434

     5   H  1s       0.86931

     6   H  1s       0.84376

     7   H  1s       0.82646

 Active orbital charges:

   CEN ATOM         s          p       ELECTRONS ->SPIN.DEN
     1   C       0.03360    0.44737      0.48097    0.48097
     2   N       0.00005    1.51283      1.51288    1.51288
     3   H       0.00132                 0.00132    0.00132
     4   H       0.00128                 0.00128    0.00128
     5   H       0.00143                 0.00143    0.00143
     6   H       0.00207                 0.00207    0.00207
     7   H       0.00005                 0.00005    0.00005

 Active orbital charges, AO contributions:

   CEN ATOM SHL      SPHERICAL COMPONENTS
     1   C  1s       0.00002
     1   C  2s       0.03358
     1   C  2p       0.44569    0.00149    0.00018

     2   N  1s       0.00001
     2   N  2s       0.00004
     2   N  2p       0.49245    0.02090    0.99948

     3   H  1s       0.00132

     4   H  1s       0.00128

     5   H  1s       0.00143

     6   H  1s       0.00207

     7   H  1s       0.00005

 Summary of localized orbital composition:   [THRPRINT= 0.020]

   ORB  GRP  ORB.ENERGY      CENTERS/CHARGES
     1   1   -13.989360      N  2   2.000
     2   1    -9.866858      C  1   2.000
     3   1    -0.605466      N  2   1.173   H  7   0.826
     4   1    -0.495500      N  2   1.900   C  1   0.061   H  6   0.039
     5   1    -0.486871      C  1   1.121   H  4   0.872
     6   1    -0.486718      C  1   1.121   H  3   0.872
     7   1    -0.483739      C  1   1.124   H  5   0.867
     8   1    -0.437780      H  6   0.794   N  2   0.653   C  1   0.552
     9   2    -0.101908      N  2   0.999
    10   2    -0.074187      N  2   0.513   C  1   0.481

 Localized orbitals saved to record      2100.2  (orbital set 2)


 **********************************************************************************************************************************
 DATASETS  * FILE   NREC   LENGTH (MB)   RECORD NAMES
              1      20       30.83       500      610      700      900      950      970     1000      129      960     1100   
                                          VAR    BASINP    GEOM    SYMINP    ZMAT    AOBASIS   BASIS     P2S    ABASIS      S 
                                         1400     1410     1200     1210     1080     1600     1650     1300     1700     1800   
                                           T        V       H0       H01     AOSYM     SMH    MOLCAS    ERIS     OPER     GRID   

              2       5        2.86       700     1000      520     1800     2100   
                                         GEOM     BASIS   MCVARS    GRID      RKS  

 PROGRAMS   *        TOTAL      IBBA        KS       INT
 CPU TIMES  *         1.99      0.02      1.59      0.22
 REAL TIME  *         2.38 SEC
 DISK USED  *        34.91 MB      
 **********************************************************************************************************************************
 Molecular orbitals read from record     2100.2  Type=RKS/LOCAL(IBO)  
 Occupation numbers read from record     2100.2  Type=RKS/LOCAL(IBO)  
 Orbital energies read from record       2100.2  Type=RKS/LOCAL(IBO)  
 Redundancy group numbers read from rec  2100.2  Type=RKS/LOCAL(IBO)  

 IBBA/STO-3G energy=      0.000000000000

        KS-SCF  
    -94.42622568
 **********************************************************************************************************************************
 Molpro calculation terminated
