
 Primary working directories    : /local/molpro.0Vd26Fb2xF
 Secondary working directories  : /local/molpro.0Vd26Fb2xF
 Wavefunction directory         : /local/
 Main file repository           : /local/molpro.0Vd26Fb2xF/

 id        : simonbennie

 Nodes     nprocs
 node32-019    1

 Using customized tuning parameters: mindgm=1; mindgv=20; mindgc=4; mindgr=1; noblas=0; minvec=7
 default implementation of scratch files=df  

 memory,500,m
 geomtyp=xyz
 nosym
 noorient
 geometry={
 C         -1.19958       -0.01113       -0.00003
 N          1.40071        0.12986        0.00002
 H         -1.42666       -0.51293        0.93306
 H         -1.41991       -0.59138       -0.88814
 H         -1.52024        1.02281       -0.04578
 H          0.18893        0.12690        0.00100
 H          1.57034       -0.88767       -0.00005
 }
 basis={default,sto-3g}
 {uhf,direct;wf,18,1,2}
 
 basis={ default,6-31+G(d,p) }
 {uks,MM06-HF,direct;wf,18,1,2}
 {ibba,bonds=1}

 Variables initialized (920), CPU time= 0.01 sec
 Commands  initialized (754), CPU time= 0.00 sec, 615 directives.
 Default parameters read. Elapsed time= 0.08 sec

 Checking input...
 Passed
1


                                         ***  PROGRAM SYSTEM MOLPRO  ***
                                       Copyright, TTI GmbH Stuttgart, 2015
                                    Version 2018.0 linked Jul  6 2018 18:07:13


 **********************************************************************************************************************************
 LABEL *                                                                                 
  64 bit serial version                                                                  DATE: 10-Oct-18          TIME: 19:09:23  
 **********************************************************************************************************************************

 SHA1:             b58f8fddb9d75525be9261ebe3faf0e4279c479b
 **********************************************************************************************************************************
 SETTING GEOMTYP        =    XYZ

 Variable memory set to  500000000 words,  buffer space 

 ZSYMEL=NOSYM

 SETTING BASIS          =    STO-3G


 Recomputing integrals since basis changed


 Using spherical harmonics

 Library entry C      S STO-3G               selected for orbital group  1
 Library entry C      P STO-3G               selected for orbital group  1
 Library entry N      S STO-3G               selected for orbital group  2
 Library entry N      P STO-3G               selected for orbital group  2
 Library entry H      S STO-3G               selected for orbital group  3


 PROGRAM * SEWARD (Integral evaluation for generally contracted gaussian basis sets)     Author: Roland Lindh, 1990

 Geometry written to block  1 of record 700


 Point group  C1  



 ATOMIC COORDINATES

 NR  ATOM    CHARGE       X              Y              Z

   1  C       6.00   -2.266877665   -0.021032652   -0.000056692
   2  N       7.00    2.646958280    0.245399835    0.000037795
   3  H       1.00   -2.695996673   -0.969297221    1.763227858
   4  H       1.00   -2.683241022   -1.117546236   -1.678341360
   5  H       1.00   -2.872837244    1.932830777   -0.086511662
   6  H       1.00    0.357025957    0.239806245    0.001889726
   7  H       1.00    2.967512522   -1.677453189   -0.000094486

 Bond lengths in Bohr (Angstrom)

 1-3  2.047564705  1-4  2.047520430  1-5  2.047496953  1-6  2.636837297  2-6  2.289939904
     ( 1.083524580)     ( 1.083501151)     ( 1.083488727)     ( 1.395354207)     ( 1.211784011)

 2-7  1.949389338
     ( 1.031572413)

 Bond angles

  1-6-2  174.46219800   3-1-4  114.53404293   3-1-5  114.59980605   3-1-6  104.69797988

  4-1-5  114.59807310   4-1-6  104.82888405   5-1-6  101.54476811   6-2-7   99.32464965

 NUCLEAR CHARGE:                   18
 NUMBER OF PRIMITIVE AOS:          45
 NUMBER OF SYMMETRY AOS:           45
 NUMBER OF CONTRACTIONS:           15   (  15A   )
 NUMBER OF CORE ORBITALS:           2   (   2A   )
 NUMBER OF VALENCE ORBITALS:       13   (  13A   )


 NUCLEAR REPULSION ENERGY   33.45955816


 Eigenvalues of metric

         1 0.234E+00 0.315E+00 0.356E+00 0.357E+00 0.387E+00 0.835E+00 0.914E+00 0.993E+00


 Contracted 2-electron integrals neglected if value below      1.0D-11
 AO integral compression algorithm  1   Integral accuracy      1.0D-11

     0.262 MB (compressed) written to integral file (100.0%)


 NUMBER OF SORTED TWO-ELECTRON INTEGRALS:       7260.     BUFFER LENGTH:  32768
 NUMBER OF SEGMENTS:   1  SEGMENT LENGTH:       7260      RECORD LENGTH: 524288

 Memory used in sort:       0.56 MW

 SORT1 READ        9024. AND WROTE        6928. INTEGRALS IN      1 RECORDS. CPU TIME:     0.00 SEC, REAL TIME:     0.01 SEC
 SORT2 READ        6928. AND WROTE        7260. INTEGRALS IN      1 RECORDS. CPU TIME:     0.00 SEC, REAL TIME:     0.01 SEC

 FILE SIZES:   FILE 1:    30.3 MBYTE,  FILE 4:     4.2 MBYTE,   TOTAL:     34.5 MBYTE

 OPERATOR DM      FOR CENTER  0  COORDINATES:    0.000000    0.000000    0.000000


 **********************************************************************************************************************************
 DATASETS  * FILE   NREC   LENGTH (MB)   RECORD NAMES
              1      19       30.09       500      610      700      900      950      970     1000      129      960     1100   
                                          VAR    BASINP    GEOM    SYMINP    ZMAT    AOBASIS   BASIS     P2S    ABASIS      S 
                                         1400     1410     1200     1210     1080     1600     1650     1300     1700   
                                           T        V       H0       H01     AOSYM     SMH    MOLCAS    ERIS     OPER   

 PROGRAMS   *        TOTAL       INT
 CPU TIMES  *         0.45      0.32
 REAL TIME  *         0.76 SEC
 DISK USED  *        34.91 MB
 **********************************************************************************************************************************


 PROGRAM * UHF-SCF       Authors: W. Meyer, H.-J. Werner


 NUMBER OF ELECTRONS:      10+    8-    SPACE SYMMETRY=1    SPIN SYMMETRY: Triplet 
 CONVERGENCE THRESHOLDS:    1.00E-05 (Density)    1.00E-07 (Energy)
 INTEGRAL THRESHOLDS:       1.00E-11 (Initial)    1.00E-11 (Final)
 MAX. NUMBER OF ITERATIONS:       60
 INTERPOLATION TYPE:            DIIS
 INTERPOLATION STEPS:              2 (START)      1 (STEP)
 LEVEL SHIFTS:                 -0.20 (ALPHA)  -0.20 (BETA) 



 Orbital guess generated from atomic densities. Full valence occupancy:    9

 Molecular orbital dump at record        2200.2

 Initial alpha occupation  10
 Initial beta  occupation   8

 Direct Fock-matrix evaluation.        Author: H.-J. Werner (1996)

 Integral Threshold:                  0.1D-10

 ITERATION   DDIFF            GRAD            ENERGY        2-EL.EN.            DIPOLE MOMENTS         DIIS   CPU(IT)  CPU(TOT)
    1      0.000D+00      0.000D+00       -93.86102830    133.921789   -0.16791   -0.78307    0.00022    0      0.8      1.6
    2      0.263D-01      0.167D-01       -93.89759637    132.526198   -0.19238   -0.61738    0.00022    1      0.4      2.0
    3      0.103D-01      0.696D-02       -93.90639362    132.047251   -0.19479   -0.52773    0.00018    2      0.4      2.4
    4      0.424D-02      0.280D-02       -93.90908610    131.974548   -0.21019   -0.50558    0.00016    3      0.4      2.8
    5      0.170D-02      0.959D-03       -93.90945935    131.992871   -0.22268   -0.51515    0.00016    4      0.4      3.2
    6      0.102D-02      0.398D-03       -93.90953283    131.991586   -0.22865   -0.51911    0.00017    5      0.4      3.7
    7      0.673D-03      0.195D-03       -93.90955323    131.989508   -0.23649   -0.51909    0.00017    6      0.4      4.1
    8      0.295D-03      0.752D-04       -93.90955639    131.990239   -0.24215   -0.51893    0.00017    7      0.4      4.5
    9      0.201D-03      0.399D-04       -93.90955740    131.990970   -0.24608   -0.51885    0.00017    7      0.4      4.9
   10      0.108D-03      0.155D-04       -93.90955759    131.991177   -0.24791   -0.51885    0.00017    7      0.4      5.4
   11      0.244D-04      0.425D-05       -93.90955760    131.991183   -0.24815   -0.51884    0.00017    7      0.4      5.8
   12      0.264D-05      0.172D-05       -93.90955760    131.991166   -0.24812   -0.51885    0.00017    7      0.4      6.2
   13      0.144D-05      0.649D-06       -93.90955760    131.991167   -0.24813   -0.51885    0.00017    7      0.4      6.6

 Final alpha occupancy:  10
 Final beta  occupancy:   8

 !UHF STATE  1.1 Energy               -93.909557602569
 Nuclear energy                        33.45955816
 One-electron energy                 -193.36469921
 Two-electron energy                   65.99558345
 Virial quotient                       -1.00304251
 !UHF STATE  1.1 Dipole moment         -0.24813199    -0.51885054     0.00017263
 Dipole moment /Debye                  -0.63064731    -1.31870016     0.00043876

 Orbital energies for positive spin:

         1.1          2.1          3.1          4.1          5.1          6.1          7.1          8.1          9.1         10.1
    -15.347561   -11.028573    -1.127237    -0.916858    -0.595727    -0.540034    -0.538396    -0.478684    -0.463660    -0.330519

        11.1         12.1
      0.627313     0.665862

 Orbital energies for negative spin:

         1.1          2.1          3.1          4.1          5.1          6.1          7.1          8.1          9.1         10.1
    -15.306751   -11.007084    -0.936460    -0.841926    -0.528943    -0.526041    -0.510373    -0.348709     0.237368     0.331117

        11.1         12.1
      0.682671     0.706739


 HOMO     10.1    -0.330519 =      -8.9939eV
 LUMO     -9.1     0.237368 =       6.4591eV
 LUMO-HOMO         0.567887 =      15.4530eV

 EXPECTATION VALUE OF S**2:             2.06104730

 Occupation number threshold for pseudo-canonical orbitals: 1.9990 (occupied), 0.0010 (virtual)

 Number of pseudo-canonical occupied orbitals per symmetry:    6
 Number of active natural orbitals per symmetry:               6

 Natural orbitals saved to record    2200.2 (Orbital set 3)

 Orbital spaces for UNO-CAS (Min. occupation: 0.020  Max. occupation: 1.980):

 Closed:        7
 Active:        4


 **********************************************************************************************************************************
 DATASETS  * FILE   NREC   LENGTH (MB)   RECORD NAMES
              1      19       30.09       500      610      700      900      950      970     1000      129      960     1100   
                                          VAR    BASINP    GEOM    SYMINP    ZMAT    AOBASIS   BASIS     P2S    ABASIS      S 
                                         1400     1410     1200     1210     1080     1600     1650     1300     1700   
                                           T        V       H0       H01     AOSYM     SMH    MOLCAS    ERIS     OPER   

              2       4        2.86       700     1000      520     2200   
                                         GEOM     BASIS   MCVARS     UHF  

 PROGRAMS   *        TOTAL   UHF-SCF       INT
 CPU TIMES  *         7.12      6.67      0.32
 REAL TIME  *         8.36 SEC
 DISK USED  *        34.91 MB
 **********************************************************************************************************************************
 SETTING BASIS          =    6-31+G(D,P)


 Recomputing integrals since basis changed


 Using spherical harmonics

 Library entry C      S 6-31G                selected for orbital group  1
 Library entry C      S 6-31++G              selected for orbital group  1
 Library entry C      P 6-31G                selected for orbital group  1
 Library entry C      P 6-31++G              selected for orbital group  1
 Library entry C      D 6-31G*               selected for orbital group  1
 Library entry N      S 6-31G                selected for orbital group  2
 Library entry N      S 6-31++G              selected for orbital group  2
 Library entry N      P 6-31G                selected for orbital group  2
 Library entry N      P 6-31++G              selected for orbital group  2
 Library entry N      D 6-31G*               selected for orbital group  2
 Library entry H      S 6-31G                selected for orbital group  3
 Library entry H      P 6-31G**              selected for orbital group  3


 PROGRAM * SEWARD (Integral evaluation for generally contracted gaussian basis sets)     Author: Roland Lindh, 1990

 Geometry written to block  1 of record 700


 Point group  C1  



 ATOMIC COORDINATES

 NR  ATOM    CHARGE       X              Y              Z

   1  C       6.00   -2.266877665   -0.021032652   -0.000056692
   2  N       7.00    2.646958280    0.245399835    0.000037795
   3  H       1.00   -2.695996673   -0.969297221    1.763227858
   4  H       1.00   -2.683241022   -1.117546236   -1.678341360
   5  H       1.00   -2.872837244    1.932830777   -0.086511662
   6  H       1.00    0.357025957    0.239806245    0.001889726
   7  H       1.00    2.967512522   -1.677453189   -0.000094486

 Bond lengths in Bohr (Angstrom)

 1-3  2.047564705  1-4  2.047520430  1-5  2.047496953  1-6  2.636837297  2-6  2.289939904
     ( 1.083524580)     ( 1.083501151)     ( 1.083488727)     ( 1.395354207)     ( 1.211784011)

 2-7  1.949389338
     ( 1.031572413)

 Bond angles

  1-6-2  174.46219800   3-1-4  114.53404293   3-1-5  114.59980605   3-1-6  104.69797988

  4-1-5  114.59807310   4-1-6  104.82888405   5-1-6  101.54476811   6-2-7   99.32464965

 NUCLEAR CHARGE:                   18
 NUMBER OF PRIMITIVE AOS:          99
 NUMBER OF SYMMETRY AOS:           97
 NUMBER OF CONTRACTIONS:           61   (  61A   )
 NUMBER OF CORE ORBITALS:           2   (   2A   )
 NUMBER OF VALENCE ORBITALS:       13   (  13A   )


 NUCLEAR REPULSION ENERGY   33.45955816


 Eigenvalues of metric

         1 0.656E-02 0.105E-01 0.281E-01 0.389E-01 0.530E-01 0.531E-01 0.106E+00 0.122E+00


 Contracted 2-electron integrals neglected if value below      1.0D-11
 AO integral compression algorithm  1   Integral accuracy      1.0D-11

     8.126 MB (compressed) written to integral file ( 46.2%)


 NUMBER OF SORTED TWO-ELECTRON INTEGRALS:    1788886.     BUFFER LENGTH:  32768
 NUMBER OF SEGMENTS:   1  SEGMENT LENGTH:    1788886      RECORD LENGTH: 524288

 Memory used in sort:       2.35 MW

 SORT1 READ     2141389. AND WROTE     1670914. INTEGRALS IN      5 RECORDS. CPU TIME:     0.02 SEC, REAL TIME:     0.06 SEC
 SORT2 READ     1670914. AND WROTE     1788886. INTEGRALS IN     31 RECORDS. CPU TIME:     0.08 SEC, REAL TIME:     0.10 SEC

 FILE SIZES:   FILE 1:    38.3 MBYTE,  FILE 4:    21.0 MBYTE,   TOTAL:     59.3 MBYTE

 OPERATOR DM      FOR CENTER  0  COORDINATES:    0.000000    0.000000    0.000000


 **********************************************************************************************************************************
 DATASETS  * FILE   NREC   LENGTH (MB)   RECORD NAMES
              1      19       36.69       500      610      700      900      950      970     1001      129      960     1100   
                                          VAR    BASINP    GEOM    SYMINP    ZMAT    AOBASIS   BASIS     P2S    ABASIS      S 
                                         1400     1410     1200     1210     1080     1600     1650     1300     1700   
                                           T        V       H0       H01     AOSYM     SMH    MOLCAS    ERIS     OPER   

              2       5        2.87       700     1000      520     2200     1001   
                                         GEOM     BASIS   MCVARS     UHF     BASIS   

 PROGRAMS   *        TOTAL       INT   UHF-SCF       INT
 CPU TIMES  *         7.68      0.55      6.67      0.32
 REAL TIME  *         9.04 SEC
 DISK USED  *        62.25 MB
 **********************************************************************************************************************************

 Density functional group MM06-HF=M06HFX+M06HFC
 Functional: M06HFX(Automatically generated (new) M06HFX)                      Gradient terms: 2
 Functional: M06HFC(Automatically generated (new) M06HFC)                      Gradient terms: 2
 Use libxcgrid:  F
 Use grid at  1800.2


 Exact exchange will be calculated, factor:  1.0000

 Functional: M06HFX                    Factor:  1.0000
 Functional: M06HFC                    Factor:  1.0000

 Generated new metagrid on record  1800.2 with target accuracy 1.0D-06 and 23050 points in CPU time    0.5
 Computed new grid on record 1800.1 in CPU time    0.5
   98893 words reserved for DFT integration

 PROGRAM * UKS-SCF (Unrestricted Kohn-Sham)     Authors: W. Meyer, H.-J. Werner, P.J. Knowles, 1993

 NUMBER OF ELECTRONS:      10+    8-    SPACE SYMMETRY=1    SPIN SYMMETRY: Triplet 
 CONVERGENCE THRESHOLDS:    1.00E-05 (Density)    1.00E-06 (Energy)
 MAX. NUMBER OF ITERATIONS:       60
 INTERPOLATION TYPE:            DIIS
 INTERPOLATION STEPS:              2 (START)      1 (STEP)
 LEVEL SHIFTS:                 -0.20 (ALPHA)  -0.20 (BETA) 



 Use fine grid record 1800.2 for energy threshold  1.0D-06
 Molecular orbitals read from record     2200.2  Type=UHF/ALPHA (state 1.1)

 Present basis size:      61
 Previous basis size:     15
 Previous occupation:     10
 Previous closed-shells:   8
 Previous core-orbitals:   2
 Present occupation:      10
 Present closed-shells:    8
 Present core-orbitals:    2
 Wavefunction symmetry:    1   Triplet 

 Orbital overlap <old|new>:  < 1.1| 1.1> = 0.999840   < 2.1| 2.1> = 0.999833   < 3.1| 3.1> = 0.999764   < 4.1| 4.1> = 0.999898
                             < 5.1| 5.1> = 0.998920   < 6.1| 6.1> = 0.999546   < 7.1| 7.1> = 0.999549   < 8.1| 8.1> = 0.998397
                             < 9.1| 9.1> = 0.996939   <10.1|10.1> = 0.998264

 Molecular orbitals read from record     2200.2  Type=UHF/BETA (state 1.1)

 Present basis size:      61
 Previous basis size:     15
 Previous occupation:     10
 Previous closed-shells:   8
 Previous core-orbitals:   2
 Present occupation:      10
 Present closed-shells:    8
 Present core-orbitals:    2
 Wavefunction symmetry:    1   Triplet 

 Orbital overlap <old|new>:  < 1.1| 1.1> = 0.999840   < 2.1| 2.1> = 0.999833   < 3.1| 3.1> = 0.999841   < 4.1| 4.1> = 0.999873
                             < 5.1| 5.1> = 0.999532   < 6.1| 6.1> = 0.999612   < 7.1| 7.1> = 0.999365   < 8.1| 8.1> = 0.998722
                             < 9.1| 9.1> = 0.998148   <10.1|10.1> = 0.996911


 Molecular orbital dump at record        2201.2

 Initial alpha occupation  10
 Initial beta  occupation   8

 ITERATION    DDIFF          GRAD             ENERGY        2-EL.EN.            DIPOLE MOMENTS         DIIS
    1      0.000D+00      0.000D+00       -95.50377104    132.978963   -0.24574   -0.51199    0.00015    0
    2      0.102D-01      0.954D-02       -95.62579913    131.530461   -0.18065   -0.43914    0.00023    1
    3      0.433D-02      0.253D-02       -95.64634924    131.313407   -0.23944   -0.52499    0.00019    2
    4      0.285D-02      0.109D-02       -95.65251053    131.057796   -0.30064   -0.59577    0.00021    3
    5      0.133D-02      0.383D-03       -95.65346903    131.049328   -0.35371   -0.63417    0.00032    4
    6      0.440D-03      0.160D-03       -95.65359110    131.021553   -0.37081   -0.64335    0.00037    5
    7      0.143D-03      0.451D-04       -95.65360888    131.017566   -0.38099   -0.64515    0.00037    6
    8      0.663D-04      0.201D-04       -95.65361262    131.019410   -0.38538   -0.64541    0.00037    7
    9      0.420D-04      0.117D-04       -95.65361387    131.017961   -0.38828   -0.64542    0.00037    7
   10      0.350D-04      0.638D-05       -95.65361437    131.018204   -0.39069   -0.64563    0.00037    7
   11      0.139D-04      0.266D-05       -95.65361446    131.018043   -0.39166   -0.64578    0.00037    7
   12      0.581D-05      0.105D-05       -95.65361447    131.018067   -0.39202   -0.64588    0.00037    8
   13      0.984D-06      0.256D-06       -95.65361447    131.018064   -0.39206   -0.64589    0.00037    8

 Final alpha occupancy:  10
 Final beta  occupancy:   8

 !UKS STATE  1.1 Energy               -95.653614470949
 Nuclear energy                        33.45955816
 One-electron energy                 -194.06013915
 Two-electron energy                   65.50903180
 Density functional                    -0.56206528     M06HFX= 0.01748459 M06HFC=-0.57954986
 Virial quotient                       -1.00717233
 !UKS STATE  1.1 Dipole moment         -0.39206126    -0.64588711     0.00036635
 Dipole moment /Debye                  -0.99645506    -1.64157375     0.00093111

 Orbital energies for positive spin:

         1.1          2.1          3.1          4.1          5.1          6.1          7.1          8.1          9.1         10.1
    -15.309524   -10.973195    -1.067650    -0.897075    -0.639980    -0.576082    -0.575021    -0.534239    -0.486578    -0.370271

        11.1         12.1
      0.044146     0.069540

 Orbital energies for negative spin:

         1.1          2.1          3.1          4.1          5.1          6.1          7.1          8.1          9.1         10.1
    -15.300525   -10.972556    -0.993694    -0.879274    -0.579500    -0.565472    -0.560862    -0.448900    -0.021674    -0.015902

        11.1         12.1
      0.023235     0.059419


 HOMO     10.1    -0.370271 =     -10.0756eV
 LUMO     -9.1    -0.021674 =      -0.5898eV
 LUMO-HOMO         0.348597 =       9.4858eV

 EXPECTATION VALUE OF S**2:             2.02657634

 Occupation number threshold for pseudo-canonical orbitals: 1.9990 (occupied), 0.0010 (virtual)

 Number of pseudo-canonical occupied orbitals per symmetry:    6
 Number of active natural orbitals per symmetry:               6

 Natural orbitals saved to record    2201.2 (Orbital set 3)

 Orbital spaces for UNO-CAS (Min. occupation: 0.020  Max. occupation: 1.980):

 Closed:        8
 Active:        2


 **********************************************************************************************************************************
 DATASETS  * FILE   NREC   LENGTH (MB)   RECORD NAMES
              1      20       37.42       500      610      700      900      950      970     1001      129      960     1100   
                                          VAR    BASINP    GEOM    SYMINP    ZMAT    AOBASIS   BASIS     P2S    ABASIS      S 
                                         1400     1410     1200     1210     1080     1600     1650     1300     1700     1800   
                                           T        V       H0       H01     AOSYM     SMH    MOLCAS    ERIS     OPER     GRID   

              2       7        5.52       700     1000      520     2200     1001     1800     2201   
                                         GEOM     BASIS   MCVARS     UHF     BASIS    GRID      UKS  

 PROGRAMS   *        TOTAL   UKS-SCF       INT   UHF-SCF       INT
 CPU TIMES  *        12.71      5.03      0.55      6.67      0.32
 REAL TIME  *        14.33 SEC
 DISK USED  *        62.25 MB
 **********************************************************************************************************************************


 PROGRAM * Intrinsic Basis Bonding Analysis (IBBA)          Author: G. Knizia

 Molecular orbitals read from record     2201.2  Type=UKS/ALPHA (state 1.1)
 Fock matrix read from record            2201.2  Type=UKS/TOTAL (state 1.1)
 Orbital energies read from record       2201.2  Type=UKS/ALPHA (state 1.1)
 Density matrix read from record         2201.2  Type=UKS/CHARGE (state 1.1)

 Number of core orbitals:           2 (   2 )
 Number of closed-shell orbitals:   6 (   6 )
 Number of active  orbitals:        2 (   2 )

 Basis set MINAO-AUTO-PP generated.      Number of basis functions:   15 

 Polarized AO type:                A = (O Ot + (1-O)(1-Ot)) P12
 Orthogonalization method:         Symmetric (Loewdin)
 Localization functional:          L = sum[A,i] <i|n_A|i>^4 -> max

 Localization group 1:   8 orbitals, occupancy  2.000
 Iterative localization: IB/PM,    6 iter; Final gradient 0.51E-08

 Bond order analysis:       [THRPRINT= 0.020]

   CEN ATOM   CEN ATOM     WIBERG.BO      RENORM.BO
     1   C  -   5   H       0.947188       0.999852
     1   C  -   4   H       0.942947       0.999743
     1   C  -   3   H       0.941511       0.999758
     1   C  -   2   N       0.430215       2.003310
     1   C  -   6   H       0.206476       0.766376

     2   N  -   7   H       0.911652       0.999918
     2   N  -   6   H       0.672765       0.906998
     2   N  -   1   C       0.430215       2.003310

     3   H  -   1   C       0.941511       0.999758

     4   H  -   1   C       0.942947       0.999743

     5   H  -   1   C       0.947188       0.999852

     6   H  -   2   N       0.672765       0.906998
     6   H  -   1   C       0.206476       0.766376

     7   H  -   2   N       0.911652       0.999918


 Valency analysis:

   CEN ATOM   TOT.VALENCE
     1   C       3.470773
     2   N       2.062040
     3   H       0.965477
     4   H       0.966019
     5   H       0.964031
     6   H       0.890871
     7   H       0.914417
 Localization group 2:   2 orbitals, occupancy  1.000
 Iterative localization: IB/PM,    2 iter; Final gradient 0.39E-11

 Bond order analysis:       [THRPRINT= 0.020]

   CEN ATOM   CEN ATOM     WIBERG.BO      RENORM.BO
     1   C  -   2   N       0.412848       1.000000
     1   C  -   6   H       0.030376       0.500000

     2   N  -   1   C       0.412848       1.000000




     6   H  -   1   C       0.030376       0.500000



 Valency analysis:

   CEN ATOM   TOT.VALENCE
     1   C       0.470114
     2   N       0.451763
     3   H       0.017080
     4   H       0.016597
     5   H       0.013739
     6   H       0.046154
     7   H       0.005123

 Total charge composition:

   CEN ATOM         s          p       ELECTRONS ->P.CHARGE
     1   C       3.11395    3.37842      6.49237   -0.49237
     2   N       3.68111    3.95910      7.64022   -0.64022
     3   H       0.82281                 0.82281    0.17719
     4   H       0.82403                 0.82403    0.17597
     5   H       0.81726                 0.81726    0.18274
     6   H       0.69329                 0.69329    0.30671
     7   H       0.71002                 0.71002    0.28998

 Total charge composition, AO contributions:

   CEN ATOM SHL      SPHERICAL COMPONENTS
     1   C  1s       1.99132
     1   C  2s       1.12263
     1   C  2p       0.96746    1.21120    1.19976

     2   N  1s       1.99685
     2   N  2s       1.68427
     2   N  2p       1.43546    1.51132    1.01232

     3   H  1s       0.82281

     4   H  1s       0.82403

     5   H  1s       0.81726

     6   H  1s       0.69329

     7   H  1s       0.71002

 Active orbital charges:

   CEN ATOM         s          p       ELECTRONS ->SPIN.DEN
     1   C       0.02377    0.62423      0.64800    0.64800
     2   N       0.00801    1.29388      1.30189    1.30189
     3   H       0.00861                 0.00861    0.00861
     4   H       0.00837                 0.00837    0.00837
     5   H       0.00692                 0.00692    0.00692
     6   H       0.02364                 0.02364    0.02364
     7   H       0.00257                 0.00257    0.00257

 Active orbital charges, AO contributions:

   CEN ATOM SHL      SPHERICAL COMPONENTS
     1   C  1s       0.00006
     1   C  2s       0.02372
     1   C  2p       0.61677    0.00204    0.00542

     2   N  1s       0.00006
     2   N  2s       0.00795
     2   N  2p       0.30229    0.00261    0.98899

     3   H  1s       0.00861

     4   H  1s       0.00837

     5   H  1s       0.00692

     6   H  1s       0.02364

     7   H  1s       0.00257

 Summary of localized orbital composition:   [THRPRINT= 0.020]

   ORB  GRP  ORB.ENERGY      CENTERS/CHARGES
     1   1   -15.163519      N  2   2.000
     2   1   -10.854122      C  1   2.000
     3   1    -0.883657      N  2   1.290   H  7   0.707
     4   1    -0.713244      C  1   1.164   H  3   0.810   (other: 0.026)
     5   1    -0.713073      C  1   1.163   H  4   0.811   (other: 0.025)
     6   1    -0.713059      N  2   1.945   C  1   0.037
     7   1    -0.712542      C  1   1.177   H  5   0.806
     8   1    -0.655965      N  2   1.077   H  6   0.610   C  1   0.302
     9   2    -0.218121      N  2   0.989
    10   2    -0.183205      C  1   0.643   N  2   0.313   H  6   0.024   (other: 0.021)

 Localized orbitals saved to record      2201.2  (orbital set 4)


 **********************************************************************************************************************************
 DATASETS  * FILE   NREC   LENGTH (MB)   RECORD NAMES
              1      20       37.42       500      610      700      900      950      970     1001      129      960     1100   
                                          VAR    BASINP    GEOM    SYMINP    ZMAT    AOBASIS   BASIS     P2S    ABASIS      S 
                                         1400     1410     1200     1210     1080     1600     1650     1300     1700     1800   
                                           T        V       H0       H01     AOSYM     SMH    MOLCAS    ERIS     OPER     GRID   

              2       7        5.56       700     1000      520     2200     1001     1800     2201   
                                         GEOM     BASIS   MCVARS     UHF     BASIS    GRID      UKS  

 PROGRAMS   *        TOTAL      IBBA   UKS-SCF       INT   UHF-SCF       INT
 CPU TIMES  *        12.73      0.02      5.03      0.55      6.67      0.32
 REAL TIME  *        14.36 SEC
 DISK USED  *        62.25 MB
 **********************************************************************************************************************************

 IBBA/6-31+G(D,P) energy=      0.000000000000

         UKS-SCF         UHF-SCF
    -95.65361447    -93.90955760
 **********************************************************************************************************************************
 Molpro calculation terminated
