
 Primary working directories    : /local
 Secondary working directories  : /local
 Wavefunction directory         : /local/
 Main file repository           : /local/

 SHA1      : b4a5b34a9e711420743f49e6833241d17c61fb3c
 NAME      : 2099.9.b4a5b34
 ARCHNAME  : linux/x86_64_openmp
 FC        : /cm/shared/languages/GCC-6.1/bin/gfortran
 BLASLIB   : -lblas
 id        : simonbennie

 Nodes     nprocs
 node32-026    1

 Using customized tuning parameters: mindgm=1; mindgv=20; mindgc=4; mindgr=1; noblas=0; minvec=7
 default implementation of scratch files=df  

 memory,500,m
 geomtyp=xyz
 nosym
 noorient
 geometry={
 C         -1.19958       -0.01113       -0.00003
 N          1.40071        0.12986        0.00002
 H         -1.42666       -0.51293        0.93306
 H         -1.41991       -0.59138       -0.88814
 H         -1.52024        1.02281       -0.04578
 H          0.18893        0.12690        0.00100
 H          1.57034       -0.88767       -0.00005
 }
 basis={ default,SV(P) }
 {uhf,direct;wf,18,1,2}
 {uks,M06-L,direct;maxit,0;wf,18,1,2}
 {ibba,bonds=1}

 Variables initialized (895), CPU time= 0.01 sec
 Commands  initialized (725), CPU time= 0.01 sec, 591 directives.
 Default parameters read. Elapsed time= 0.16 sec

 Checking input...
 Passed
1


                                         ***  PROGRAM SYSTEM MOLPRO  ***
                                       Copyright, TTI GmbH Stuttgart, 2015
                                    Version 2099.9 linked May 26 2017 16:03:21


 **********************************************************************************************************************************
 LABEL *                                                                                 
  64 bit serial version                                                                  DATE: 17-Mar-18          TIME: 01:38:17  
 **********************************************************************************************************************************

 SHA1:             b4a5b34a9e711420743f49e6833241d17c61fb3c
 **********************************************************************************************************************************
 SETTING GEOMTYP        =    XYZ

 Variable memory set to  500000000 words,  buffer space 

 ZSYMEL=NOSYM

 SETTING BASIS          =    SV(P)


 Recomputing integrals since basis changed


 Using spherical harmonics

 Library entry C      S def2-SV(P)           selected for orbital group  1
 Library entry C      P def2-SV(P)           selected for orbital group  1
 Library entry C      D def2-SV(P)           selected for orbital group  1
 Library entry N      S def2-SV(P)           selected for orbital group  2
 Library entry N      P def2-SV(P)           selected for orbital group  2
 Library entry N      D def2-SV(P)           selected for orbital group  2
 Library entry H      S def2-SV(P)           selected for orbital group  3


 PROGRAM * SEWARD (Integral evaluation for generally contracted gaussian basis sets)     Author: Roland Lindh, 1990

 Geometry written to block  1 of record 700


 Point group  C1  



 ATOMIC COORDINATES

 NR  ATOM    CHARGE       X              Y              Z

   1  C       6.00   -2.266877665   -0.021032652   -0.000056692
   2  N       7.00    2.646958280    0.245399835    0.000037795
   3  H       1.00   -2.695996673   -0.969297221    1.763227858
   4  H       1.00   -2.683241022   -1.117546236   -1.678341360
   5  H       1.00   -2.872837244    1.932830777   -0.086511662
   6  H       1.00    0.357025957    0.239806245    0.001889726
   7  H       1.00    2.967512522   -1.677453189   -0.000094486

 Bond lengths in Bohr (Angstrom)

 1-3  2.047564705  1-4  2.047520430  1-5  2.047496953  1-6  2.636837297  2-6  2.289939904
     ( 1.083524580)     ( 1.083501151)     ( 1.083488727)     ( 1.395354207)     ( 1.211784011)

 2-7  1.949389338
     ( 1.031572413)

 Bond angles

  1-6-2  174.46219800   3-1-4  114.53404293   3-1-5  114.59980605   3-1-6  104.69797988

  4-1-5  114.59807310   4-1-6  104.82888405   5-1-6  101.54476811   6-2-7   99.32464965

 NUCLEAR CHARGE:                   18
 NUMBER OF PRIMITIVE AOS:          70
 NUMBER OF SYMMETRY AOS:           68
 NUMBER OF CONTRACTIONS:           38   (  38A   )
 NUMBER OF CORE ORBITALS:           2   (   2A   )
 NUMBER OF VALENCE ORBITALS:       13   (  13A   )


 NUCLEAR REPULSION ENERGY   33.45955816


 Eigenvalues of metric

         1 0.714E-02 0.236E-01 0.650E-01 0.658E-01 0.662E-01 0.186E+00 0.211E+00 0.234E+00


 Contracted 2-electron integrals neglected if value below      1.0D-11
 AO integral compression algorithm  1   Integral accuracy      1.0D-11

     1.573 MB (compressed) written to integral file ( 47.8%)


 NUMBER OF SORTED TWO-ELECTRON INTEGRALS:     274911.     BUFFER LENGTH:  32768
 NUMBER OF SEGMENTS:   1  SEGMENT LENGTH:     274911      RECORD LENGTH: 524288

 Memory used in sort:       0.83 MW

 SORT1 READ      345687. AND WROTE      255453. INTEGRALS IN      1 RECORDS. CPU TIME:     0.01 SEC, REAL TIME:     0.01 SEC
 SORT2 READ      255453. AND WROTE      274911. INTEGRALS IN      6 RECORDS. CPU TIME:     0.02 SEC, REAL TIME:     0.03 SEC

 FILE SIZES:   FILE 1:    31.7 MBYTE,  FILE 4:     4.2 MBYTE,   TOTAL:     35.9 MBYTE

 OPERATOR DM      FOR CENTER  0  COORDINATES:    0.000000    0.000000    0.000000


 **********************************************************************************************************************************
 DATASETS  * FILE   NREC   LENGTH (MB)   RECORD NAMES
              1      19       31.15       500      610      700      900      950      970     1000      129      960     1100   
                                          VAR    BASINP    GEOM    SYMINP    ZMAT    AOBASIS   BASIS     P2S    ABASIS      S 
                                         1400     1410     1200     1210     1080     1600     1650     1300     1700   
                                           T        V       H0       H01     AOSYM     SMH    MOLCAS    ERIS     OPER   

 PROGRAMS   *        TOTAL       INT
 CPU TIMES  *         0.43      0.28
 REAL TIME  *         0.85 SEC
 DISK USED  *        36.28 MB      
 **********************************************************************************************************************************


 PROGRAM * UHF-SCF       Authors: W. Meyer, H.-J. Werner


 NUMBER OF ELECTRONS:      10+    8-    SPACE SYMMETRY=1    SPIN SYMMETRY: Triplet 
 CONVERGENCE THRESHOLDS:    1.00E-05 (Density)    1.00E-07 (Energy)
 INTEGRAL THRESHOLDS:       1.00E-11 (Initial)    1.00E-11 (Final)
 MAX. NUMBER OF ITERATIONS:       60
 INTERPOLATION TYPE:            DIIS
 INTERPOLATION STEPS:              2 (START)      1 (STEP)
 LEVEL SHIFTS:                 -0.20 (ALPHA)  -0.20 (BETA) 



 Orbital guess generated from atomic densities. Full valence occupancy:    9

 Molecular orbital dump at record        2200.2

 Initial alpha occupation  10
 Initial beta  occupation   8

 Direct Fock-matrix evaluation.        Author: H.-J. Werner (1996)

 Integral Threshold:                  0.1D-10

 ITERATION   DDIFF            GRAD            ENERGY        2-EL.EN.            DIPOLE MOMENTS         DIIS   CPU(IT)  CPU(TOT)
    1      0.000D+00      0.000D+00       -94.95206425    130.796204   -0.21295   -0.76658    0.00043    0      0.9      1.8
    2      0.623D-02      0.610D-02       -94.98564637    130.818176   -0.33487   -0.67595    0.00026    1      0.5      2.3
    3      0.382D-02      0.295D-02       -94.99551416    130.900208   -0.36953   -0.63435    0.00016    2      0.5      2.8
    4      0.229D-02      0.135D-02       -94.99846428    130.951890   -0.40240   -0.62433    0.00012    3      0.5      3.3
    5      0.106D-02      0.569D-03       -94.99909439    130.939330   -0.41759   -0.62565    0.00012    4      0.5      3.8
    6      0.527D-03      0.251D-03       -94.99925390    130.928883   -0.42735   -0.62655    0.00013    5      0.5      4.2
    7      0.338D-03      0.129D-03       -94.99930618    130.924883   -0.43629   -0.62727    0.00015    6      0.5      4.7
    8      0.224D-03      0.633D-04       -94.99932197    130.927204   -0.44552   -0.62831    0.00016    7      0.5      5.3
    9      0.878D-04      0.279D-04       -94.99932479    130.926691   -0.45115   -0.62868    0.00016    8      0.5      5.8
   10      0.622D-04      0.154D-04       -94.99932577    130.927450   -0.45527   -0.62878    0.00016    8      0.6      6.4
   11      0.402D-04      0.695D-05       -94.99932601    130.927286   -0.45756   -0.62875    0.00017    8      0.6      7.0
   12      0.154D-04      0.241D-05       -94.99932603    130.927378   -0.45820   -0.62873    0.00017    8      0.5      7.5
   13      0.203D-05      0.843D-06       -94.99932604    130.927397   -0.45818   -0.62874    0.00017    8      0.5      8.1
   14      0.120D-05      0.396D-06       -94.99932604    130.927387   -0.45819   -0.62875    0.00017    9      0.7      8.8

 Final alpha occupancy:  10
 Final beta  occupancy:   8

 !UHF STATE 1.1 Energy                -94.999326035964
 Nuclear energy                        33.45955816
 One-electron energy                 -193.92257793
 Two-electron energy                   65.46369374
 Virial quotient                       -1.00171527
 !UHF STATE 1.1 Dipole moment          -0.45818876    -0.62874573     0.00016767
 Dipole moment /Debye                  -1.16452338    -1.59800757     0.00042615

 Orbital energies for positive spin:

         1.1          2.1          3.1          4.1          5.1          6.1          7.1          8.1          9.1         10.1
    -15.601997   -11.242031    -1.155956    -0.954137    -0.651859    -0.584903    -0.583405    -0.540112    -0.522943    -0.390594

        11.1         12.1
      0.173596     0.222378

 Orbital energies for negative spin:

         1.1          2.1          3.1          4.1          5.1          6.1          7.1          8.1          9.1         10.1
    -15.548435   -11.220546    -0.977849    -0.882714    -0.577369    -0.571440    -0.560843    -0.428049     0.102967     0.153480

        11.1         12.1
      0.184458     0.242468

 HOMO     10.1    -0.390594 =     -10.6286eV
 LUMO     -9.1     0.102967 =       2.8019eV
 LUMO-HOMO         0.493561 =      13.4305eV

 EXPECTATION VALUE OF S**2:             2.05736269

 Occupation number threshold for canonical orbitals:  1.999000 (occupied),  0.001000 (virtual)

 Number of pseudo-canonical orbitals per symmetry:    5
 Number of active natural orbitals per symmetry:      8

 Natural orbitals saved to record    2200.2 (Orbital set 3)

 Orbital spaces for UNO-CAS (Min. occupation: 0.020  Max. occupation: 1.980):

 Closed:        7
 Active:        4


 **********************************************************************************************************************************
 DATASETS  * FILE   NREC   LENGTH (MB)   RECORD NAMES
              1      19       31.15       500      610      700      900      950      970     1000      129      960     1100   
                                          VAR    BASINP    GEOM    SYMINP    ZMAT    AOBASIS   BASIS     P2S    ABASIS      S 
                                         1400     1410     1200     1210     1080     1600     1650     1300     1700   
                                           T        V       H0       H01     AOSYM     SMH    MOLCAS    ERIS     OPER   

              2       4        2.91       700     1000      520     2200   
                                         GEOM     BASIS   MCVARS     UHF  

 PROGRAMS   *        TOTAL       UHF       INT
 CPU TIMES  *         9.22      8.79      0.28
 REAL TIME  *        10.42 SEC
 DISK USED  *        36.28 MB      
 **********************************************************************************************************************************

 Density functional group M06-L=XC-M06-L
 Functional: XC-M06-L(via MFM 1.6)                                             Gradient terms: 1
 Use grid at  1800.2

 Functional: XC-M06-L                  Factor:  1.0000

 Generated new metagrid on record  1800.2 with target accuracy 1.0D-06 and 23050 points in CPU time    0.5
 Computed new grid on record 1800.1 in CPU time    0.6
   34198 words reserved for DFT integration

 PROGRAM * UKS-SCF (Unrestricted Kohn-Sham)     Authors: W. Meyer, H.-J. Werner, P.J. Knowles, 1993

 NUMBER OF ELECTRONS:      10+    8-    SPACE SYMMETRY=1    SPIN SYMMETRY: Triplet 
 CONVERGENCE THRESHOLDS:    1.00E-05 (Density)    1.00E-06 (Energy)
 MAX. NUMBER OF ITERATIONS:        0
 INTERPOLATION TYPE:            DIIS
 INTERPOLATION STEPS:              2 (START)      1 (STEP)
 LEVEL SHIFTS:                 -0.20 (ALPHA)  -0.20 (BETA) 



 Use fine grid record 1800.2 for energy threshold  1.0D-06
 Molecular orbitals read from record     2200.2  Type=UHF/ALPHA (state 1.1)
 Molecular orbitals read from record     2200.2  Type=UHF/BETA (state 1.1)

 Molecular orbital dump at record        2201.2

 Initial alpha occupation  10
 Initial beta  occupation   8

 ITERATION    DDIFF          GRAD             ENERGY        2-EL.EN.            DIPOLE MOMENTS         DIIS
    1      0.000D+00      0.000D+00       -95.58281286    157.874490   -0.45819   -0.62875    0.00017    0

 Final alpha occupancy:  10
 Final beta  occupancy:   8

 !UKS STATE 1.1 Energy                -95.582812861751
 Nuclear energy                        33.45955816
 One-electron energy                 -193.92257793
 Two-electron energy                   78.93724481
 Density functional                   -14.05703790     XC-M06-L=-14.05703790
 Virial quotient                       -1.00786782
 !UKS STATE 1.1 Dipole moment          -0.45818876    -0.62874573     0.00016767
 Dipole moment /Debye                  -1.16452338    -1.59800757     0.00042615

 Orbital energies for positive spin:

         1.1          2.1          3.1          4.1          5.1          6.1          7.1          8.1          9.1         10.1
    -15.569606   -11.225373    -0.584764    -0.577314    -0.574803    -0.889074    -0.997892    -0.597374    -0.135807    -0.162330

        11.1         12.1
      0.659275     0.729880

 Orbital energies for negative spin:

         1.1          2.1          3.1          4.1          5.1          6.1          7.1          8.1          9.1         10.1
    -15.569606   -11.225373    -0.584764    -0.577314    -0.574803    -0.889074    -0.997892    -0.597374    -0.135807    -0.162330

        11.1         12.1
      0.659275     0.729880

 HOMO     10.1    -0.162330 =      -4.4172eV
 LUMO     -9.1    -0.135807 =      -3.6955eV
 LUMO-HOMO         0.026523 =       0.7217eV

 EXPECTATION VALUE OF S**2:             2.05736269

 Occupation number threshold for canonical orbitals:  1.999000 (occupied),  0.001000 (virtual)

 Number of pseudo-canonical orbitals per symmetry:    5
 Number of active natural orbitals per symmetry:      8

 Natural orbitals saved to record    2201.2 (Orbital set 3)

 Orbital spaces for UNO-CAS (Min. occupation: 0.020  Max. occupation: 1.980):

 Closed:        7
 Active:        4

 No convergence



 **********************************************************************************************************************************
 DATASETS  * FILE   NREC   LENGTH (MB)   RECORD NAMES
              1      20       31.89       500      610      700      900      950      970     1000      129      960     1100   
                                          VAR    BASINP    GEOM    SYMINP    ZMAT    AOBASIS   BASIS     P2S    ABASIS      S 
                                         1400     1410     1200     1210     1080     1600     1650     1300     1700     1800   
                                           T        V       H0       H01     AOSYM     SMH    MOLCAS    ERIS     OPER     GRID   

              2       6        5.47       700     1000      520     2200     1800     2201   
                                         GEOM     BASIS   MCVARS     UHF     GRID      UKS  

 PROGRAMS   *        TOTAL       UKS       UHF       INT
 CPU TIMES  *        10.32      1.09      8.79      0.28
 REAL TIME  *        11.57 SEC
 DISK USED  *        37.44 MB      
 **********************************************************************************************************************************


 PROGRAM * Intrinsic Basis Bonding Analysis (IBBA)          Author: G. Knizia

 Molecular orbitals read from record     2201.2  Type=UKS/ALPHA (state 1.1)
 Fock matrix read from record            2201.2  Type=UKS/TOTAL (state 1.1)
 Orbital energies read from record       2201.2  Type=UKS/ALPHA (state 1.1)
 Density matrix read from record         2201.2  Type=UKS/CHARGE (state 1.1)

 Number of core orbitals:           2 (   2 )
 Number of closed-shell orbitals:   6 (   6 )
 Number of active  orbitals:        2 (   2 )

 Basis set MINAO-AUTO-PP generated.      Number of basis functions:   15 

 Polarized AO type:                A = (O Ot + (1-O)(1-Ot)) P12
 Orthogonalization method:         Symmetric (Loewdin)
 Localization functional:          L = sum[A,i] <i|n_A|i>^4 -> max

 Localization group 1:   8 orbitals, occupancy  2.000
 Iterative localization: IB/PM,    6 iter; Final gradient 0.33E-08

 Bond order analysis:       [THRPRINT= 0.020]

   CEN ATOM   CEN ATOM     WIBERG.BO      RENORM.BO
     1   C  -   5   H       0.949684       0.999881
     1   C  -   4   H       0.936273       0.999814
     1   C  -   3   H       0.933885       0.999826
     1   C  -   2   N       0.516099       2.003111
     1   C  -   6   H       0.232816       0.757917

     2   N  -   7   H       0.909464       0.999967
     2   N  -   6   H       0.623117       0.898659
     2   N  -   1   C       0.516099       2.003111
     2   N  -   3   H       0.029000       0.522533
     2   N  -   4   H       0.027233       0.473581

     3   H  -   1   C       0.933885       0.999826
     3   H  -   2   N       0.029000       0.522533

     4   H  -   1   C       0.936273       0.999814
     4   H  -   2   N       0.027233       0.473581

     5   H  -   1   C       0.949684       0.999881

     6   H  -   2   N       0.623117       0.898659
     6   H  -   1   C       0.232816       0.757917

     7   H  -   2   N       0.909464       0.999967


 Valency analysis:

   CEN ATOM   TOT.VALENCE
     1   C       3.571549
     2   N       2.117782
     3   H       0.966592
     4   H       0.967143
     5   H       0.966844
     6   H       0.865717
     7   H       0.912434
 Localization group 2:   2 orbitals, occupancy  1.000
 Iterative localization: IB/PM,    2 iter; Final gradient 0.12E-11

 Bond order analysis:       [THRPRINT= 0.020]

   CEN ATOM   CEN ATOM     WIBERG.BO      RENORM.BO
     1   C  -   2   N       0.445271       1.000000

     2   N  -   1   C       0.445271       1.000000







 Valency analysis:

   CEN ATOM   TOT.VALENCE
     1   C       0.492213
     2   N       0.490060
     3   H       0.022599
     4   H       0.021519
     5   H       0.014387
     6   H       0.030609
     7   H       0.004542

 Total charge composition:

   CEN ATOM         s          p       ELECTRONS ->P.CHARGE
     1   C       3.13985    3.37509      6.51493   -0.51493
     2   N       3.70921    3.93697      7.64618   -0.64618
     3   H       0.82865                 0.82865    0.17135
     4   H       0.82961                 0.82961    0.17039
     5   H       0.82516                 0.82516    0.17484
     6   H       0.64910                 0.64910    0.35090
     7   H       0.70636                 0.70636    0.29364

 Total charge composition, AO contributions:

   CEN ATOM SHL      SPHERICAL COMPONENTS
     1   C  1s       1.99092
     1   C  2s       1.14893
     1   C  2p       1.01183    1.19041    1.17284

     2   N  1s       1.99677
     2   N  2s       1.71244
     2   N  2p       1.41904    1.49555    1.02237

     3   H  1s       0.82865

     4   H  1s       0.82961

     5   H  1s       0.82516

     6   H  1s       0.64910

     7   H  1s       0.70636

 Active orbital charges:

   CEN ATOM         s          p       ELECTRONS ->SPIN.DEN
     1   C       0.02151    0.61018      0.63169    0.63169
     2   N       0.00410    1.31683      1.32093    1.32093
     3   H       0.01143                 0.01143    0.01143
     4   H       0.01088                 0.01088    0.01088
     5   H       0.00725                 0.00725    0.00725
     6   H       0.01555                 0.01555    0.01555
     7   H       0.00228                 0.00228    0.00228

 Active orbital charges, AO contributions:

   CEN ATOM SHL      SPHERICAL COMPONENTS
     1   C  1s       0.00007
     1   C  2s       0.02145
     1   C  2p       0.59740    0.00195    0.01083

     2   N  1s       0.00004
     2   N  2s       0.00405
     2   N  2p       0.33363    0.00378    0.97943

     3   H  1s       0.01143

     4   H  1s       0.01088

     5   H  1s       0.00725

     6   H  1s       0.01555

     7   H  1s       0.00228

 Summary of localized orbital composition:   [THRPRINT= 0.020]

   ORB  GRP  ORB.ENERGY      CENTERS/CHARGES
     1   1   -14.068710      N  2   2.000
     2   1    -9.969977      C  1   2.000
     3   1    -0.653043      N  2   1.295   H  7   0.701
     4   1    -0.515941      C  1   1.152   H  4   0.813   N  2   0.021
     5   1    -0.515721      C  1   1.151   H  3   0.811   N  2   0.023
     6   1    -0.514752      C  1   1.170   H  5   0.811
     7   1    -0.506636      N  2   1.936   C  1   0.039   H  6   0.025
     8   1    -0.459116      N  2   1.048   H  6   0.561   C  1   0.371   (other: 0.020)
     9   2    -0.195100      N  2   0.979   (other: 0.021)
    10   2    -0.166903      C  1   0.621   N  2   0.342   (other: 0.038)

 Localized orbitals saved to record      2201.2  (orbital set 4)


 **********************************************************************************************************************************
 DATASETS  * FILE   NREC   LENGTH (MB)   RECORD NAMES
              1      20       31.89       500      610      700      900      950      970     1000      129      960     1100   
                                          VAR    BASINP    GEOM    SYMINP    ZMAT    AOBASIS   BASIS     P2S    ABASIS      S 
                                         1400     1410     1200     1210     1080     1600     1650     1300     1700     1800   
                                           T        V       H0       H01     AOSYM     SMH    MOLCAS    ERIS     OPER     GRID   

              2       6        5.48       700     1000      520     2200     1800     2201   
                                         GEOM     BASIS   MCVARS     UHF     GRID      UKS  

 PROGRAMS   *        TOTAL      IBBA       UKS       UHF       INT
 CPU TIMES  *        10.34      0.02      1.09      8.79      0.28
 REAL TIME  *        11.61 SEC
 DISK USED  *        37.44 MB      
 **********************************************************************************************************************************

 IBBA/SV(P) energy=      0.000000000000

        UKS-SCF         UHF-SCF 
    -95.58281286    -94.99932604
 **********************************************************************************************************************************
 Molpro calculation terminated
