
 Primary working directories    : /local
 Secondary working directories  : /local
 Wavefunction directory         : /local/
 Main file repository           : /local/

 SHA1      : b4a5b34a9e711420743f49e6833241d17c61fb3c
 NAME      : 2099.9.b4a5b34
 ARCHNAME  : linux/x86_64_openmp
 FC        : /cm/shared/languages/GCC-6.1/bin/gfortran
 BLASLIB   : -lblas
 id        : simonbennie

 Nodes     nprocs
 node32-022    1

 Using customized tuning parameters: mindgm=1; mindgv=20; mindgc=4; mindgr=1; noblas=0; minvec=7
 default implementation of scratch files=df  

 memory,500,m
 geomtyp=xyz
 nosym
 noorient
 geometry={
 C         -1.19958       -0.01113       -0.00003
 N          1.40071        0.12986        0.00002
 H         -1.42666       -0.51293        0.93306
 H         -1.41991       -0.59138       -0.88814
 H         -1.52024        1.02281       -0.04578
 H          0.18893        0.12690        0.00100
 H          1.57034       -0.88767       -0.00005
 }
 basis={ default,avdz }
 {df-ks,B3LYP3,direct;disp;wf,18,1,2}
 {ibba,bonds=1}

 Variables initialized (895), CPU time= 0.00 sec
 Commands  initialized (725), CPU time= 0.01 sec, 591 directives.
 Default parameters read. Elapsed time= 0.08 sec

 Checking input...
 Passed
1


                                         ***  PROGRAM SYSTEM MOLPRO  ***
                                       Copyright, TTI GmbH Stuttgart, 2015
                                    Version 2099.9 linked May 26 2017 16:03:21


 **********************************************************************************************************************************
 LABEL *                                                                                 
  64 bit serial version                                                                  DATE: 17-Mar-18          TIME: 02:32:50  
 **********************************************************************************************************************************

 SHA1:             b4a5b34a9e711420743f49e6833241d17c61fb3c
 **********************************************************************************************************************************
 SETTING GEOMTYP        =    XYZ

 Variable memory set to  500000000 words,  buffer space 

 ZSYMEL=NOSYM

 SETTING BASIS          =    AVDZ


 Recomputing integrals since basis changed


 Using spherical harmonics

 Library entry C      S aug-cc-pVDZ          selected for orbital group  1
 Library entry C      P aug-cc-pVDZ          selected for orbital group  1
 Library entry C      D aug-cc-pVDZ          selected for orbital group  1
 Library entry N      S aug-cc-pVDZ          selected for orbital group  2
 Library entry N      P aug-cc-pVDZ          selected for orbital group  2
 Library entry N      D aug-cc-pVDZ          selected for orbital group  2
 Library entry H      S aug-cc-pVDZ          selected for orbital group  3
 Library entry H      P aug-cc-pVDZ          selected for orbital group  3


 PROGRAM * SEWARD (Integral evaluation for generally contracted gaussian basis sets)     Author: Roland Lindh, 1990

 Geometry written to block  1 of record 700


 Point group  C1  



 ATOMIC COORDINATES

 NR  ATOM    CHARGE       X              Y              Z

   1  C       6.00   -2.266877665   -0.021032652   -0.000056692
   2  N       7.00    2.646958280    0.245399835    0.000037795
   3  H       1.00   -2.695996673   -0.969297221    1.763227858
   4  H       1.00   -2.683241022   -1.117546236   -1.678341360
   5  H       1.00   -2.872837244    1.932830777   -0.086511662
   6  H       1.00    0.357025957    0.239806245    0.001889726
   7  H       1.00    2.967512522   -1.677453189   -0.000094486

 Bond lengths in Bohr (Angstrom)

 1-3  2.047564705  1-4  2.047520430  1-5  2.047496953  1-6  2.636837297  2-6  2.289939904
     ( 1.083524580)     ( 1.083501151)     ( 1.083488727)     ( 1.395354207)     ( 1.211784011)

 2-7  1.949389338
     ( 1.031572413)

 Bond angles

  1-6-2  174.46219800   3-1-4  114.53404293   3-1-5  114.59980605   3-1-6  104.69797988

  4-1-5  114.59807310   4-1-6  104.82888405   5-1-6  101.54476811   6-2-7   99.32464965

 NUCLEAR CHARGE:                   18
 NUMBER OF PRIMITIVE AOS:         129
 NUMBER OF SYMMETRY AOS:          125
 NUMBER OF CONTRACTIONS:           91   (  91A   )
 NUMBER OF CORE ORBITALS:           2   (   2A   )
 NUMBER OF VALENCE ORBITALS:       13   (  13A   )


 NUCLEAR REPULSION ENERGY   33.45955816

 Eigenvalues of metric

         1 0.318E-03 0.615E-03 0.760E-03 0.793E-03 0.144E-02 0.204E-02 0.288E-02 0.570E-02


 OPERATOR DM      FOR CENTER  0  COORDINATES:    0.000000    0.000000    0.000000


 **********************************************************************************************************************************
 DATASETS  * FILE   NREC   LENGTH (MB)   RECORD NAMES
              1      18       30.37       500      610      700      900      950      970     1000      129      960     1100   
                                          VAR    BASINP    GEOM    SYMINP    ZMAT    AOBASIS   BASIS     P2S    ABASIS      S 
                                         1400     1410     1200     1210     1080     1600     1650     1700   
                                           T        V       H0       H01     AOSYM     SMH    MOLCAS    OPER   

 PROGRAMS   *        TOTAL       INT
 CPU TIMES  *         0.32      0.18
 REAL TIME  *         0.59 SEC
 DISK USED  *        30.76 MB      
 **********************************************************************************************************************************

 Density functional group B3LYP3=B88+DIRAC+LYP+VWN3
 Functional: B88(Automatically generated (new) B88)                            Gradient terms: 1
 Functional: DIRAC(Automatically generated (new) DIRAC)                        Gradient terms: 0
 Functional: LYP(Automatically generated (new) LYP)                            Gradient terms: 1
 Functional: VWN3(Automatically generated (new) VWN3)                          Gradient terms: 0

 dispersion correction activated
 Density functional: B3LYP3  
 functional not in list, set to default 


 Exact exchange will be calculated, factor:  0.2000

 Functional: B88                       Factor:  0.7200
 Functional: DIRAC                     Factor:  0.0800
 Functional: LYP                       Factor:  0.8100
 Functional: VWN3                      Factor:  0.1900

 Use grid at  1800.2


 Exact exchange will be calculated, factor:  0.2000

 Functional: B88                       Factor:  0.7200
 Functional: DIRAC                     Factor:  0.0800
 Functional: LYP                       Factor:  0.8100
 Functional: VWN3                      Factor:  0.1900

 Generated new metagrid on record  1800.2 with target accuracy 1.0D-06 and 23050 points in CPU time    0.5
 Computed new grid on record 1800.1 in CPU time    0.6
   76285 words reserved for DFT integration

 PROGRAM * RKS-SCF (Restricted open shell Kohn-Sham)     Authors: W. Meyer, H.-J. Werner, P.J. Knowles, 1993

 NUMBER OF ELECTRONS:      10+    8-    SPACE SYMMETRY=1    SPIN SYMMETRY: Triplet 
 CONVERGENCE THRESHOLDS:    1.00E-05 (Density)    1.00E-06 (Energy)
 INTEGRAL THRESHOLDS:       1.00E-11 (Initial)    1.00E-11 (Final)
 MAX. NUMBER OF ITERATIONS:       60
 INTERPOLATION TYPE:            DIIS
 INTERPOLATION STEPS:              2 (START)      1 (STEP)
 LEVEL SHIFTS:                 -0.60 (CLOSED) -0.30 (OPEN) 



 Use fine grid record 1800.2 for energy threshold  1.0D-06

 Basis set CC-PVDZ/JKFIT generated.      Number of basis functions:   255 

 Orbital guess generated from atomic densities. Full valence occupancy:   15
 Using density fitting in orbital guess

 Coulomb and exchange fitting
 Thresholds for fitting:       THRAO_COUL= 1.0D-14    THRAO_EXCH= 1.0D-12    THRMO= 1.0D-11    THRPROD= 1.0D-11    THRASM= 1.0D-11
                               THR2HLF=    1.0D-11

 Molecular orbital dump at record        2100.2

 Initial alpha occupancy:  10
 Initial beta  occupancy:   8
 Wave function symmetry:    1

 ITERATION   DDIFF            GRAD            ENERGY        2-EL.EN.            DIPOLE MOMENTS         DIIS   CPU(IT)  CPU(TOT)  ORB.
    1      0.000D+00      0.000D+00       -95.66266592    156.034491   -0.02036   -0.72017    0.00020    0      0.7      1.2     start
    2      0.000D+00      0.770D-02       -95.71463329    152.419931   -0.57645   -0.56060    0.00024    1      0.7      2.0     diag,B
    3      0.168D-01      0.298D-02       -95.72227857    152.801984   -0.37311   -0.52699    0.00015    2      0.7      2.7     diag,B
    4      0.646D-02      0.591D-03       -95.72280024    152.901316   -0.42329   -0.53145    0.00017    3      0.7      3.4     diag,B
    5      0.144D-02      0.298D-03       -95.72301320    152.824762   -0.41786   -0.51947    0.00016    4      0.7      4.1     diag,B
    6      0.956D-03      0.849D-04       -95.72305076    152.816073   -0.42590   -0.51832    0.00016    5      0.7      4.9     diag,B
    7      0.319D-03      0.324D-04       -95.72305819    152.812483   -0.43104   -0.51855    0.00016    6      0.7      5.6     fixocc
    8      0.214D-03      0.140D-04       -95.72306005    152.812241   -0.43471   -0.51898    0.00016    7      0.7      6.3     diag,B
    9      0.105D-03      0.557D-05       -95.72306040    152.812073   -0.43659   -0.51925    0.00016    8      0.7      7.0     diag,B
   10      0.306D-04      0.215D-05       -95.72306045    152.812076   -0.43736   -0.51938    0.00016    9      0.7      7.8     orth
   11      0.142D-04      0.620D-06       -95.72306045    152.812110   -0.43751   -0.51941    0.00016    9      0.7      8.5     diag,B
   12      0.565D-05      0.187D-06       -95.72306045    152.812107   -0.43753   -0.51941    0.00016    0      0.7      9.2     orth

 Dispersion correction
 - - - - - - - - - - - 
  _________________________________
                                   
 |         DFTD3 V1.3 Rev 1        |
 | S.Grimme, University Muenster   |
 | Fri Jul  2 12:48:21 CEST 2010   |
  _________________________________

 Please cite DFT-D3 work done with this code as:
 S. Grimme, J. Antony, S. Ehrlich and H. Krieg,
 J. Chem. Phys, 132 (2010), 154104.
 For DFT-D2 the reference is
 S. Grimme, J. Comput. Chem., 27 (2006), 1787-1799

 C6 coefficients used:
                    2  C6 for element                     1
 Z=  1 CN=   0.912     C6(AA)=    3.03
 Z=  1 CN=   0.000     C6(AA)=    7.59
                    5  C6 for element                     6
 Z=  6 CN=   0.000     C6(AA)=   49.11
 Z=  6 CN=   0.987     C6(AA)=   43.25
 Z=  6 CN=   1.998     C6(AA)=   29.36
 Z=  6 CN=   2.999     C6(AA)=   25.78
 Z=  6 CN=   3.984     C6(AA)=   18.21
                    4  C6 for element                     7
 Z=  7 CN=   0.000     C6(AA)=   25.27
 Z=  7 CN=   0.994     C6(AA)=   22.12
 Z=  7 CN=   2.014     C6(AA)=   19.68
 Z=  7 CN=   2.990     C6(AA)=   15.58

 #           XYZ [au]               R0(AA) [Ang.]   CN       C6(AA)     C8(AA)   C10(AA) [au]
  1  -2.26688  -0.02103  -0.00006   c   1.455  3.588        20.4       590.8     20930.3
  2   2.64696   0.24540   0.00004   n   1.311  1.907        19.7       435.1     11757.2
  3  -2.69600  -0.96930   1.76323   h   1.091  0.994         3.1        37.4       553.7
  4  -2.68324  -1.11755  -1.67834   h   1.091  0.994         3.1        37.4       553.7
  5  -2.87284   1.93283  -0.08651   h   1.091  0.994         3.1        37.4       553.7
  6   0.35703   0.23981   0.00189   h   1.091  1.484         3.0        36.6       542.1
  7   2.96751  -1.67745  -0.00009   h   1.091  0.996         3.1        37.4       553.6

 molecular C6(AA) [au] =       313.59

           DFT-D V3
 DF pbe                                               
 parameters
 s6       :    1.0000
 s8       :    0.7220
 rs6      :    1.2170
 alpha6   :   14.0000
 alpha8   :   16.0000
 k1-k3    :   16.0000    1.3333   -4.0000

 Edisp /kcal,au:    -0.5520 -0.00087971

 E6    /kcal :    -0.2144
 E8    /kcal :    -0.3376
 % E8        : 61.16
 normal termination of dftd3

 RKS STATE 1.1 ENERGY+DISP      -95.72394016

 Final alpha occupancy:  10
 Final beta  occupancy:   8

 !RKS STATE 1.1 Energy                -95.723940161930
 Nuclear energy                        33.45955816
 One-electron energy                 -194.20775137
 Two-electron energy                   76.40605362
 Density functional                   -11.38092087     B88=-13.46705490 DIRAC=-12.08004336 LYP= -0.54812952 VWN3= -1.44343661
 Virial quotient                       -1.00704079
 !RKS STATE 1.1 Dipole moment          -0.43752718    -0.51941497     0.00016226
 Dipole moment /Debye                  -1.11201033    -1.32013471     0.00041240

 Orbital energies:

         1.1          2.1          3.1          4.1          5.1          6.1          7.1          8.1          9.1         10.1
    -14.366192   -10.196586    -0.814109    -0.693551    -0.449180    -0.421667    -0.420315    -0.343193    -0.321900    -0.238632

        11.1         12.1
     -0.014668     0.013281

 HOMO     10.1    -0.238632 =      -6.4935eV
 LUMO     11.1    -0.014668 =      -0.3991eV
 LUMO-HOMO         0.223964 =       6.0944eV


 **********************************************************************************************************************************
 DATASETS  * FILE   NREC   LENGTH (MB)   RECORD NAMES
              1      19       31.11       500      610      700      900      950      970     1000      129      960     1100   
                                          VAR    BASINP    GEOM    SYMINP    ZMAT    AOBASIS   BASIS     P2S    ABASIS      S 
                                         1400     1410     1200     1210     1080     1600     1650     1700     1800   
                                           T        V       H0       H01     AOSYM     SMH    MOLCAS    OPER     GRID   

              2       5        3.13       700     1000      520     1800     2100   
                                         GEOM     BASIS   MCVARS    GRID      RKS  

 PROGRAMS   *        TOTAL        KS       INT
 CPU TIMES  *        10.09      9.77      0.18
 REAL TIME  *        10.75 SEC
 DISK USED  *        37.87 MB      
 **********************************************************************************************************************************


 PROGRAM * Intrinsic Basis Bonding Analysis (IBBA)          Author: G. Knizia

 Molecular orbitals read from record     2100.2  Type=RKS/CANONICAL (state 1.1)
 Fock matrix read from record            2100.2  Type=RKS/TOTAL (state 1.1)
 Orbital energies read from record       2100.2  Type=RKS/CANONICAL (state 1.1)
 Density matrix read from record         2100.2  Type=RKS/CHARGE (state 1.1)

 Number of core orbitals:           2 (   2 )
 Number of closed-shell orbitals:   6 (   6 )
 Number of active  orbitals:        2 (   2 )

 Basis set MINAO-AUTO-PP generated.      Number of basis functions:   15 

 Polarized AO type:                A = (O Ot + (1-O)(1-Ot)) P12
 Orthogonalization method:         Symmetric (Loewdin)
 Localization functional:          L = sum[A,i] <i|n_A|i>^4 -> max

 Localization group 1:   8 orbitals, occupancy  2.000
 Iterative localization: IB/PM,    6 iter; Final gradient 0.72E-08

 Bond order analysis:       [THRPRINT= 0.020]

   CEN ATOM   CEN ATOM     WIBERG.BO      RENORM.BO
     1   C  -   4   H       0.965234       0.999675
     1   C  -   3   H       0.964920       0.999699
     1   C  -   5   H       0.961659       0.999740
     1   C  -   2   N       0.455577       2.002841
     1   C  -   6   H       0.324063       0.775486

     2   N  -   7   H       0.935893       0.999975
     2   N  -   6   H       0.628361       0.941137
     2   N  -   1   C       0.455577       2.002841

     3   H  -   1   C       0.964920       0.999699

     4   H  -   1   C       0.965234       0.999675

     5   H  -   1   C       0.961659       0.999740

     6   H  -   2   N       0.628361       0.941137
     6   H  -   1   C       0.324063       0.775486

     7   H  -   2   N       0.935893       0.999975


 Valency analysis:

   CEN ATOM   TOT.VALENCE
     1   C       3.672382
     2   N       2.042499
     3   H       0.974319
     4   H       0.974460
     5   H       0.972253
     6   H       0.956837
     7   H       0.937005
 Localization group 2:   2 orbitals, occupancy  1.000
 Iterative localization: IB/PM,    2 iter; Final gradient 0.13E-10

 Bond order analysis:       [THRPRINT= 0.020]

   CEN ATOM   CEN ATOM     WIBERG.BO      RENORM.BO
     1   C  -   2   N       0.473399       1.000000

     2   N  -   1   C       0.473399       1.000000







 Valency analysis:

   CEN ATOM   TOT.VALENCE
     1   C       0.495605
     2   N       0.492514
     3   H       0.007106
     4   H       0.006905
     5   H       0.008222
     6   H       0.014925
     7   H       0.004777

 Total charge composition:

   CEN ATOM         s          p       ELECTRONS ->P.CHARGE
     1   C       3.12245    3.39276      6.51522   -0.51522
     2   N       3.69500    3.71409      7.40909   -0.40909
     3   H       0.84331                 0.84331    0.15669
     4   H       0.84365                 0.84365    0.15635
     5   H       0.83755                 0.83755    0.16245
     6   H       0.79976                 0.79976    0.20024
     7   H       0.75141                 0.75141    0.24859

 Total charge composition, AO contributions:

   CEN ATOM SHL      SPHERICAL COMPONENTS
     1   C  1s       1.99199
     1   C  2s       1.13046
     1   C  2p       1.03305    1.18163    1.17809

     2   N  1s       1.99717
     2   N  2s       1.69783
     2   N  2p       1.25617    1.45703    1.00090

     3   H  1s       0.84331

     4   H  1s       0.84365

     5   H  1s       0.83755

     6   H  1s       0.79976

     7   H  1s       0.75141

 Active orbital charges:

   CEN ATOM         s          p       ELECTRONS ->SPIN.DEN
     1   C       0.03310    0.51541      0.54850    0.54850
     2   N       0.00478    1.42565      1.43042    1.43042
     3   H       0.00357                 0.00357    0.00357
     4   H       0.00346                 0.00346    0.00346
     5   H       0.00413                 0.00413    0.00413
     6   H       0.00752                 0.00752    0.00752
     7   H       0.00239                 0.00239    0.00239

 Active orbital charges, AO contributions:

   CEN ATOM SHL      SPHERICAL COMPONENTS
     1   C  1s       0.00004
     1   C  2s       0.03306
     1   C  2p       0.51341    0.00185    0.00014

     2   N  1s       0.00004
     2   N  2s       0.00474
     2   N  2p       0.41741    0.00920    0.99903

     3   H  1s       0.00357

     4   H  1s       0.00346

     5   H  1s       0.00413

     6   H  1s       0.00752

     7   H  1s       0.00239

 Summary of localized orbital composition:   [THRPRINT= 0.020]

   ORB  GRP  ORB.ENERGY      CENTERS/CHARGES
     1   1   -14.239033      N  2   2.000
     2   1   -10.085389      C  1   2.000
     3   1    -0.672070      N  2   1.250   H  7   0.749
     4   1    -0.565510      N  2   1.927   C  1   0.047   H  6   0.026
     5   1    -0.544637      C  1   1.154   H  3   0.838
     6   1    -0.544626      C  1   1.153   H  4   0.838
     7   1    -0.544433      C  1   1.158   H  5   0.832
     8   1    -0.509094      N  2   0.792   H  6   0.749   C  1   0.454
     9   2    -0.214897      N  2   0.999
    10   2    -0.172075      C  1   0.548   N  2   0.431   (other: 0.020)

 Localized orbitals saved to record      2100.2  (orbital set 2)


 **********************************************************************************************************************************
 DATASETS  * FILE   NREC   LENGTH (MB)   RECORD NAMES
              1      19       31.11       500      610      700      900      950      970     1000      129      960     1100   
                                          VAR    BASINP    GEOM    SYMINP    ZMAT    AOBASIS   BASIS     P2S    ABASIS      S 
                                         1400     1410     1200     1210     1080     1600     1650     1700     1800   
                                           T        V       H0       H01     AOSYM     SMH    MOLCAS    OPER     GRID   

              2       5        3.20       700     1000      520     1800     2100   
                                         GEOM     BASIS   MCVARS    GRID      RKS  

 PROGRAMS   *        TOTAL      IBBA        KS       INT
 CPU TIMES  *        10.12      0.02      9.77      0.18
 REAL TIME  *        10.79 SEC
 DISK USED  *        37.87 MB      
 **********************************************************************************************************************************

 IBBA/aug-cc-pVDZ energy=      0.000000000000

        DF-KS   
    -95.72394016
 **********************************************************************************************************************************
 Molpro calculation terminated
