
 Primary working directories    : /local
 Secondary working directories  : /local
 Wavefunction directory         : /local/
 Main file repository           : /local/

 SHA1      : b4a5b34a9e711420743f49e6833241d17c61fb3c
 NAME      : 2099.9.b4a5b34
 ARCHNAME  : linux/x86_64_openmp
 FC        : /cm/shared/languages/GCC-6.1/bin/gfortran
 BLASLIB   : -lblas
 id        : simonbennie

 Nodes     nprocs
 node32-028    1

 Using customized tuning parameters: mindgm=1; mindgv=20; mindgc=4; mindgr=1; noblas=0; minvec=7
 default implementation of scratch files=df  

 memory,500,m
 geomtyp=xyz
 nosym
 noorient
 geometry={
 C         -1.19958       -0.01113       -0.00003
 N          1.40071        0.12986        0.00002
 H         -1.42666       -0.51293        0.93306
 H         -1.41991       -0.59138       -0.88814
 H         -1.52024        1.02281       -0.04578
 H          0.18893        0.12690        0.00100
 H          1.57034       -0.88767       -0.00005
 }
 basis={ default,qzvp }
 {ks,MM06-L,direct;wf,18,1,2}
 {ibba,bonds=1}

 Variables initialized (895), CPU time= 0.00 sec
 Commands  initialized (725), CPU time= 0.01 sec, 591 directives.
 Default parameters read. Elapsed time= 0.07 sec

 Checking input...
 Passed
1


                                         ***  PROGRAM SYSTEM MOLPRO  ***
                                       Copyright, TTI GmbH Stuttgart, 2015
                                    Version 2099.9 linked May 26 2017 16:03:21


 **********************************************************************************************************************************
 LABEL *                                                                                 
  64 bit serial version                                                                  DATE: 23-Jun-17          TIME: 07:57:31  
 **********************************************************************************************************************************

 SHA1:             b4a5b34a9e711420743f49e6833241d17c61fb3c
 **********************************************************************************************************************************
 SETTING GEOMTYP        =    XYZ

 Variable memory set to  500000000 words,  buffer space 

 ZSYMEL=NOSYM

 SETTING BASIS          =    QZVP


 Recomputing integrals since basis changed


 Using spherical harmonics

 Library entry C      S def2-QZVP            selected for orbital group  1
 Library entry C      P def2-QZVP            selected for orbital group  1
 Library entry C      D def2-QZVP            selected for orbital group  1
 Library entry C      F def2-QZVP            selected for orbital group  1
 Library entry C      G def2-QZVP            selected for orbital group  1
 Library entry N      S def2-QZVP            selected for orbital group  2
 Library entry N      P def2-QZVP            selected for orbital group  2
 Library entry N      D def2-QZVP            selected for orbital group  2
 Library entry N      F def2-QZVP            selected for orbital group  2
 Library entry N      G def2-QZVP            selected for orbital group  2
 Library entry H      S def2-QZVP            selected for orbital group  3
 Library entry H      P def2-QZVP            selected for orbital group  3
 Library entry H      D def2-QZVP            selected for orbital group  3
 Library entry H      F def2-QZVP            selected for orbital group  3


 PROGRAM * SEWARD (Integral evaluation for generally contracted gaussian basis sets)     Author: Roland Lindh, 1990

 Geometry written to block  1 of record 700


 Point group  C1  



 ATOMIC COORDINATES

 NR  ATOM    CHARGE       X              Y              Z

   1  C       6.00   -2.266877665   -0.021032652   -0.000056692
   2  N       7.00    2.646958280    0.245399835    0.000037795
   3  H       1.00   -2.695996673   -0.969297221    1.763227858
   4  H       1.00   -2.683241022   -1.117546236   -1.678341360
   5  H       1.00   -2.872837244    1.932830777   -0.086511662
   6  H       1.00    0.357025957    0.239806245    0.001889726
   7  H       1.00    2.967512522   -1.677453189   -0.000094486

 Bond lengths in Bohr (Angstrom)

 1-3  2.047564705  1-4  2.047520430  1-5  2.047496953  1-6  2.636837297  2-6  2.289939904
     ( 1.083524580)     ( 1.083501151)     ( 1.083488727)     ( 1.395354207)     ( 1.211784011)

 2-7  1.949389338
     ( 1.031572413)

 Bond angles

  1-6-2  174.46219800   3-1-4  114.53404293   3-1-5  114.59980605   3-1-6  104.69797988

  4-1-5  114.59807310   4-1-6  104.82888405   5-1-6  101.54476811   6-2-7   99.32464965

 NUCLEAR CHARGE:                   18
 NUMBER OF PRIMITIVE AOS:         374
 NUMBER OF SYMMETRY AOS:          319
 NUMBER OF CONTRACTIONS:          264   ( 264A   )
 NUMBER OF CORE ORBITALS:           2   (   2A   )
 NUMBER OF VALENCE ORBITALS:       13   (  13A   )


 NUCLEAR REPULSION ENERGY   33.45955816


 Eigenvalues of metric

         1 0.134E-03 0.148E-03 0.151E-03 0.233E-03 0.309E-03 0.427E-03 0.790E-03 0.816E-03


 Contracted 2-electron integrals neglected if value below      1.0D-11
 AO integral compression algorithm  1   Integral accuracy      1.0D-11

     1973.420 MB (compressed) written to integral file ( 36.5%)


 NUMBER OF SORTED TWO-ELECTRON INTEGRALS:  611817690.     BUFFER LENGTH:  32768
 NUMBER OF SEGMENTS:  39  SEGMENT LENGTH:   15999762      RECORD LENGTH: 262144

 Memory used in sort:      16.29 MW

 SORT1 READ   676508249. AND WROTE   494799509. INTEGRALS IN   2851 RECORDS. CPU TIME:     7.37 SEC, REAL TIME:    14.22 SEC
 SORT2 READ   494799509. AND WROTE   611817690. INTEGRALS IN   7528 RECORDS. CPU TIME:    13.86 SEC, REAL TIME:    16.63 SEC

 FILE SIZES:   FILE 1:  2006.1 MBYTE,  FILE 4:  5979.0 MBYTE,   TOTAL:   7985.1 MBYTE

 OPERATOR DM      FOR CENTER  0  COORDINATES:    0.000000    0.000000    0.000000


 **********************************************************************************************************************************
 DATASETS  * FILE   NREC   LENGTH (MB)   RECORD NAMES
              1      19     1773.96       500      610      700      900      950      970     1000      129      960     1100   
                                          VAR    BASINP    GEOM    SYMINP    ZMAT    AOBASIS   BASIS     P2S    ABASIS      S 
                                         1400     1410     1200     1210     1080     1600     1650     1300     1700   
                                           T        V       H0       H01     AOSYM     SMH    MOLCAS    ERIS     OPER   

 PROGRAMS   *        TOTAL       INT
 CPU TIMES  *        49.11     48.96
 REAL TIME  *       104.14 SEC
 DISK USED  *         7.99 GB      
 **********************************************************************************************************************************

 Density functional group MM06-L=M06LX+M06LC
 Functional: M06LX(Automatically generated (new) M06LX)                        Gradient terms: 2
 Functional: M06LC(Automatically generated (new) M06LC)                        Gradient terms: 2
 Use grid at  1800.2

 Functional: M06LX                     Factor:  1.0000
 Functional: M06LC                     Factor:  1.0000

 Generated new metagrid on record  1800.2 with target accuracy 1.0D-06 and 25142 points in CPU time    0.5
 Computed new grid on record 1800.1 in CPU time    0.5
  414834 words reserved for DFT integration

 PROGRAM * RKS-SCF (Restricted open shell Kohn-Sham)     Authors: W. Meyer, H.-J. Werner, P.J. Knowles, 1993

 NUMBER OF ELECTRONS:      10+    8-    SPACE SYMMETRY=1    SPIN SYMMETRY: Triplet 
 CONVERGENCE THRESHOLDS:    1.00E-05 (Density)    1.00E-06 (Energy)
 MAX. NUMBER OF ITERATIONS:       60
 INTERPOLATION TYPE:            DIIS
 INTERPOLATION STEPS:              2 (START)      1 (STEP)
 LEVEL SHIFTS:                 -0.60 (CLOSED) -0.30 (OPEN) 



 Use fine grid record 1800.2 for energy threshold  1.0D-06
 Orbital guess generated from atomic densities. Full valence occupancy:    9

 Molecular orbital dump at record        2100.2

 Initial alpha occupancy:  10
 Initial beta  occupancy:   8
 Wave function symmetry:    1

 ITERATION    DDIFF          GRAD             ENERGY        2-EL.EN.            DIPOLE MOMENTS         DIIS   ORB.
    1      0.000D+00      0.000D+00       -95.66052859    162.412908    0.00423   -0.68348    0.00018    0    start
    2      0.000D+00      0.524D-02       -95.72320967    157.942939   -0.57102   -0.52161    0.00053    1    diag,B
    3      0.339D-02      0.228D-02       -95.73370596    158.554415   -0.33440   -0.50062    0.00028    2    diag,B
    4      0.871D-03      0.431D-03       -95.73428788    158.672460   -0.39656   -0.51158    0.00030    3    diag,B
    5      0.326D-03      0.206D-03       -95.73447818    158.580932   -0.38082   -0.50213    0.00029    4    diag,B
    6      0.173D-03      0.726D-04       -95.73452350    158.567132   -0.39084   -0.50168    0.00030    5    diag,B
    7      0.810D-04      0.315D-04       -95.73453232    158.558877   -0.39321   -0.50109    0.00030    6    fixocc
    8      0.384D-04      0.109D-04       -95.73453443    158.556605   -0.39666   -0.50117    0.00029    7    diag,B
    9      0.213D-04      0.475D-05       -95.73453492    158.556447   -0.39877   -0.50129    0.00029    8    diag,B
   10      0.926D-05      0.182D-05       -95.73453496    158.556333   -0.39916   -0.50132    0.00029    0    orth

 Final alpha occupancy:  10
 Final beta  occupancy:   8

 !RKS STATE 1.1 Energy                -95.734534964395
 Nuclear energy                        33.45955816
 One-electron energy                 -194.38848203
 Two-electron energy                   79.27816639
 Density functional                   -14.08377748     M06LX=-13.49799101 M06LC= -0.58578647
 Virial quotient                       -1.00423835
 !RKS STATE 1.1 Dipole moment          -0.39916208    -0.50131596     0.00029351
 Dipole moment /Debye                  -1.01450236    -1.27413462     0.00074598

 Orbital energies:

         1.1          2.1          3.1          4.1          5.1          6.1          7.1          8.1          9.1         10.1
    -14.196866   -10.055592    -0.771292    -0.652527    -0.409790    -0.382654    -0.381367    -0.304644    -0.276423    -0.199887

        11.1         12.1
      0.028904     0.063560

 HOMO     10.1    -0.199887 =      -5.4392eV
 LUMO     11.1     0.028904 =       0.7865eV
 LUMO-HOMO         0.228791 =       6.2257eV


 **********************************************************************************************************************************
 DATASETS  * FILE   NREC   LENGTH (MB)   RECORD NAMES
              1      20     1774.76       500      610      700      900      950      970     1000      129      960     1100   
                                          VAR    BASINP    GEOM    SYMINP    ZMAT    AOBASIS   BASIS     P2S    ABASIS      S 
                                         1400     1410     1200     1210     1080     1600     1650     1300     1700     1800   
                                           T        V       H0       H01     AOSYM     SMH    MOLCAS    ERIS     OPER     GRID   

              2       5        4.86       700     1000      520     1800     2100   
                                         GEOM     BASIS   MCVARS    GRID      RKS  

 PROGRAMS   *        TOTAL        KS       INT
 CPU TIMES  *       260.54    211.43     48.96
 REAL TIME  *       327.63 SEC
 DISK USED  *         7.99 GB      
 **********************************************************************************************************************************


 PROGRAM * Intrinsic Basis Bonding Analysis (IBBA)          Author: G. Knizia

 Molecular orbitals read from record     2100.2  Type=RKS/CANONICAL (state 1.1)
 Fock matrix read from record            2100.2  Type=RKS/TOTAL (state 1.1)
 Orbital energies read from record       2100.2  Type=RKS/CANONICAL (state 1.1)
 Density matrix read from record         2100.2  Type=RKS/CHARGE (state 1.1)

 Number of core orbitals:           2 (   2 )
 Number of closed-shell orbitals:   6 (   6 )
 Number of active  orbitals:        2 (   2 )

 Basis set MINAO-AUTO-PP generated.      Number of basis functions:   15 

 Polarized AO type:                A = (O Ot + (1-O)(1-Ot)) P12
 Orthogonalization method:         Symmetric (Loewdin)
 Localization functional:          L = sum[A,i] <i|n_A|i>^4 -> max

 Localization group 1:   8 orbitals, occupancy  2.000
 Iterative localization: IB/PM,    6 iter; Final gradient 0.60E-08

 Bond order analysis:       [THRPRINT= 0.020]

   CEN ATOM   CEN ATOM     WIBERG.BO      RENORM.BO
     1   C  -   4   H       0.965268       0.999700
     1   C  -   3   H       0.964945       0.999727
     1   C  -   5   H       0.961648       0.999708
     1   C  -   2   N       0.461714       2.002778
     1   C  -   6   H       0.327044       0.770336

     2   N  -   7   H       0.936335       0.999984
     2   N  -   6   H       0.624913       0.941245
     2   N  -   1   C       0.461714       2.002778

     3   H  -   1   C       0.964945       0.999727

     4   H  -   1   C       0.965268       0.999700

     5   H  -   1   C       0.961648       0.999708

     6   H  -   2   N       0.624913       0.941245
     6   H  -   1   C       0.327044       0.770336

     7   H  -   2   N       0.936335       0.999984


 Valency analysis:

   CEN ATOM   TOT.VALENCE
     1   C       3.681268
     2   N       2.046103
     3   H       0.973919
     4   H       0.974067
     5   H       0.971927
     6   H       0.955872
     7   H       0.937154
 Localization group 2:   2 orbitals, occupancy  1.000
 Iterative localization: IB/PM,    2 iter; Final gradient 0.19E-10

 Bond order analysis:       [THRPRINT= 0.020]

   CEN ATOM   CEN ATOM     WIBERG.BO      RENORM.BO
     1   C  -   2   N       0.476071       1.000000

     2   N  -   1   C       0.476071       1.000000







 Valency analysis:

   CEN ATOM   TOT.VALENCE
     1   C       0.496159
     2   N       0.493906
     3   H       0.007000
     4   H       0.006791
     5   H       0.008142
     6   H       0.013453
     7   H       0.003039

 Total charge composition:

   CEN ATOM         s          p       ELECTRONS ->P.CHARGE
     1   C       3.13685    3.38822      6.52507   -0.52507
     2   N       3.70303    3.70344      7.40647   -0.40647
     3   H       0.84202                 0.84202    0.15798
     4   H       0.84237                 0.84237    0.15763
     5   H       0.83654                 0.83654    0.16346
     6   H       0.79670                 0.79670    0.20330
     7   H       0.75083                 0.75083    0.24917

 Total charge composition, AO contributions:

   CEN ATOM SHL      SPHERICAL COMPONENTS
     1   C  1s       1.99173
     1   C  2s       1.14512
     1   C  2p       1.03857    1.17631    1.17334

     2   N  1s       1.99709
     2   N  2s       1.70594
     2   N  2p       1.25491    1.44770    1.00083

     3   H  1s       0.84202

     4   H  1s       0.84237

     5   H  1s       0.83654

     6   H  1s       0.79670

     7   H  1s       0.75083

 Active orbital charges:

   CEN ATOM         s          p       ELECTRONS ->SPIN.DEN
     1   C       0.03264    0.51277      0.54541    0.54541
     2   N       0.00366    1.43164      1.43529    1.43529
     3   H       0.00351                 0.00351    0.00351
     4   H       0.00341                 0.00341    0.00341
     5   H       0.00409                 0.00409    0.00409
     6   H       0.00677                 0.00677    0.00677
     7   H       0.00152                 0.00152    0.00152

 Active orbital charges, AO contributions:

   CEN ATOM SHL      SPHERICAL COMPONENTS
     1   C  1s       0.00005
     1   C  2s       0.03259
     1   C  2p       0.51085    0.00179    0.00013

     2   N  1s       0.00003
     2   N  2s       0.00362
     2   N  2p       0.42261    0.01004    0.99899

     3   H  1s       0.00351

     4   H  1s       0.00341

     5   H  1s       0.00409

     6   H  1s       0.00677

     7   H  1s       0.00152

 Summary of localized orbital composition:   [THRPRINT= 0.020]

   ORB  GRP  ORB.ENERGY      CENTERS/CHARGES
     1   1   -14.069596      N  2   2.000
     2   1    -9.943553      C  1   2.000
     3   1    -0.622148      N  2   1.250   H  7   0.749
     4   1    -0.534125      N  2   1.924   C  1   0.048   H  6   0.027
     5   1    -0.505386      C  1   1.155   H  4   0.837
     6   1    -0.505365      C  1   1.155   H  3   0.837
     7   1    -0.505340      C  1   1.159   H  5   0.830
     8   1    -0.469243      N  2   0.788   H  6   0.745   C  1   0.462
     9   2    -0.197245      N  2   0.999
    10   2    -0.160581      C  1   0.545   N  2   0.436

 Localized orbitals saved to record      2100.2  (orbital set 2)


 **********************************************************************************************************************************
 DATASETS  * FILE   NREC   LENGTH (MB)   RECORD NAMES
              1      20     1774.76       500      610      700      900      950      970     1000      129      960     1100   
                                          VAR    BASINP    GEOM    SYMINP    ZMAT    AOBASIS   BASIS     P2S    ABASIS      S 
                                         1400     1410     1200     1210     1080     1600     1650     1300     1700     1800   
                                           T        V       H0       H01     AOSYM     SMH    MOLCAS    ERIS     OPER     GRID   

              2       5        5.42       700     1000      520     1800     2100   
                                         GEOM     BASIS   MCVARS    GRID      RKS  

 PROGRAMS   *        TOTAL      IBBA        KS       INT
 CPU TIMES  *       260.60      0.06    211.43     48.96
 REAL TIME  *       327.78 SEC
 DISK USED  *         7.99 GB      
 **********************************************************************************************************************************
 Molecular orbitals read from record     2100.2  Type=RKS/LOCAL(IBO)  
 Occupation numbers read from record     2100.2  Type=RKS/LOCAL(IBO)  
 Orbital energies read from record       2100.2  Type=RKS/LOCAL(IBO)  
 Redundancy group numbers read from rec  2100.2  Type=RKS/LOCAL(IBO)  

 IBBA/QZVP energy=      0.000000000000

        KS-SCF  
    -95.73453496
 **********************************************************************************************************************************
 Molpro calculation terminated
