
 Primary working directories    : /local
 Secondary working directories  : /local
 Wavefunction directory         : /local/
 Main file repository           : /local/

 SHA1      : b4a5b34a9e711420743f49e6833241d17c61fb3c
 NAME      : 2099.9.b4a5b34
 ARCHNAME  : linux/x86_64_openmp
 FC        : /cm/shared/languages/GCC-6.1/bin/gfortran
 BLASLIB   : -lblas
 id        : simonbennie

 Nodes     nprocs
 node32-030    1

 Using customized tuning parameters: mindgm=1; mindgv=20; mindgc=4; mindgr=1; noblas=0; minvec=7
 default implementation of scratch files=df  

 memory,500,m
 geomtyp=xyz
 nosym
 noorient
 geometry={
 C         -1.19958       -0.01113       -0.00003
 N          1.40071        0.12986        0.00002
 H         -1.42666       -0.51293        0.93306
 H         -1.41991       -0.59138       -0.88814
 H         -1.52024        1.02281       -0.04578
 H          0.18893        0.12690        0.00100
 H          1.57034       -0.88767       -0.00005
 }
 basis={ default,SV(P) }
 {uks,M05-2X,direct;wf,18,1,2}
 {ibba,bonds=1}

 Variables initialized (895), CPU time= 0.01 sec
 Commands  initialized (725), CPU time= 0.01 sec, 591 directives.
 Default parameters read. Elapsed time= 0.08 sec

 Checking input...
 Passed
1


                                         ***  PROGRAM SYSTEM MOLPRO  ***
                                       Copyright, TTI GmbH Stuttgart, 2015
                                    Version 2099.9 linked May 26 2017 16:03:21


 **********************************************************************************************************************************
 LABEL *                                                                                 
  64 bit serial version                                                                  DATE: 23-Jun-17          TIME: 07:12:00  
 **********************************************************************************************************************************

 SHA1:             b4a5b34a9e711420743f49e6833241d17c61fb3c
 **********************************************************************************************************************************
 SETTING GEOMTYP        =    XYZ

 Variable memory set to  500000000 words,  buffer space 

 ZSYMEL=NOSYM

 SETTING BASIS          =    SV(P)


 Recomputing integrals since basis changed


 Using spherical harmonics

 Library entry C      S def2-SV(P)           selected for orbital group  1
 Library entry C      P def2-SV(P)           selected for orbital group  1
 Library entry C      D def2-SV(P)           selected for orbital group  1
 Library entry N      S def2-SV(P)           selected for orbital group  2
 Library entry N      P def2-SV(P)           selected for orbital group  2
 Library entry N      D def2-SV(P)           selected for orbital group  2
 Library entry H      S def2-SV(P)           selected for orbital group  3


 PROGRAM * SEWARD (Integral evaluation for generally contracted gaussian basis sets)     Author: Roland Lindh, 1990

 Geometry written to block  1 of record 700


 Point group  C1  



 ATOMIC COORDINATES

 NR  ATOM    CHARGE       X              Y              Z

   1  C       6.00   -2.266877665   -0.021032652   -0.000056692
   2  N       7.00    2.646958280    0.245399835    0.000037795
   3  H       1.00   -2.695996673   -0.969297221    1.763227858
   4  H       1.00   -2.683241022   -1.117546236   -1.678341360
   5  H       1.00   -2.872837244    1.932830777   -0.086511662
   6  H       1.00    0.357025957    0.239806245    0.001889726
   7  H       1.00    2.967512522   -1.677453189   -0.000094486

 Bond lengths in Bohr (Angstrom)

 1-3  2.047564705  1-4  2.047520430  1-5  2.047496953  1-6  2.636837297  2-6  2.289939904
     ( 1.083524580)     ( 1.083501151)     ( 1.083488727)     ( 1.395354207)     ( 1.211784011)

 2-7  1.949389338
     ( 1.031572413)

 Bond angles

  1-6-2  174.46219800   3-1-4  114.53404293   3-1-5  114.59980605   3-1-6  104.69797988

  4-1-5  114.59807310   4-1-6  104.82888405   5-1-6  101.54476811   6-2-7   99.32464965

 NUCLEAR CHARGE:                   18
 NUMBER OF PRIMITIVE AOS:          70
 NUMBER OF SYMMETRY AOS:           68
 NUMBER OF CONTRACTIONS:           38   (  38A   )
 NUMBER OF CORE ORBITALS:           2   (   2A   )
 NUMBER OF VALENCE ORBITALS:       13   (  13A   )


 NUCLEAR REPULSION ENERGY   33.45955816


 Eigenvalues of metric

         1 0.714E-02 0.236E-01 0.650E-01 0.658E-01 0.662E-01 0.186E+00 0.211E+00 0.234E+00


 Contracted 2-electron integrals neglected if value below      1.0D-11
 AO integral compression algorithm  1   Integral accuracy      1.0D-11

     1.573 MB (compressed) written to integral file ( 47.8%)


 NUMBER OF SORTED TWO-ELECTRON INTEGRALS:     274911.     BUFFER LENGTH:  32768
 NUMBER OF SEGMENTS:   1  SEGMENT LENGTH:     274911      RECORD LENGTH: 524288

 Memory used in sort:       0.83 MW

 SORT1 READ      345687. AND WROTE      255453. INTEGRALS IN      1 RECORDS. CPU TIME:     0.01 SEC, REAL TIME:     0.01 SEC
 SORT2 READ      255453. AND WROTE      274911. INTEGRALS IN      6 RECORDS. CPU TIME:     0.02 SEC, REAL TIME:     0.03 SEC

 FILE SIZES:   FILE 1:    31.7 MBYTE,  FILE 4:     4.2 MBYTE,   TOTAL:     35.9 MBYTE

 OPERATOR DM      FOR CENTER  0  COORDINATES:    0.000000    0.000000    0.000000


 **********************************************************************************************************************************
 DATASETS  * FILE   NREC   LENGTH (MB)   RECORD NAMES
              1      19       31.15       500      610      700      900      950      970     1000      129      960     1100   
                                          VAR    BASINP    GEOM    SYMINP    ZMAT    AOBASIS   BASIS     P2S    ABASIS      S 
                                         1400     1410     1200     1210     1080     1600     1650     1300     1700   
                                           T        V       H0       H01     AOSYM     SMH    MOLCAS    ERIS     OPER   

 PROGRAMS   *        TOTAL       INT
 CPU TIMES  *         0.54      0.40
 REAL TIME  *         0.87 SEC
 DISK USED  *        36.28 MB      
 **********************************************************************************************************************************

 Density functional group M05-2X=XC-M05-2X
 Functional: XC-M05-2X(via MFM 1.6)                                            Gradient terms: 1
 Use grid at  1800.2


 Exact exchange will be calculated, factor:  0.5600

 Functional: XC-M05-2X                 Factor:  1.0000

 Generated new metagrid on record  1800.2 with target accuracy 1.0D-06 and 23050 points in CPU time    0.5
 Computed new grid on record 1800.1 in CPU time    0.5
   34198 words reserved for DFT integration

 PROGRAM * UKS-SCF (Unrestricted Kohn-Sham)     Authors: W. Meyer, H.-J. Werner, P.J. Knowles, 1993

 NUMBER OF ELECTRONS:      10+    8-    SPACE SYMMETRY=1    SPIN SYMMETRY: Triplet 
 CONVERGENCE THRESHOLDS:    1.00E-05 (Density)    1.00E-06 (Energy)
 MAX. NUMBER OF ITERATIONS:       60
 INTERPOLATION TYPE:            DIIS
 INTERPOLATION STEPS:              2 (START)      1 (STEP)
 LEVEL SHIFTS:                 -0.20 (ALPHA)  -0.20 (BETA) 



 Use fine grid record 1800.2 for energy threshold  1.0D-06
 Orbital guess generated from atomic densities. Full valence occupancy:    9

 Molecular orbital dump at record        2200.2

 Initial alpha occupation  10
 Initial beta  occupation   8

 ITERATION    DDIFF          GRAD             ENERGY        2-EL.EN.            DIPOLE MOMENTS         DIIS
    1      0.000D+00      0.000D+00       -95.59807458    144.854666   -0.08841   -0.78862    0.00036    0
    2      0.117D-01      0.702D-02       -95.63669723    142.843927   -0.32258   -0.65791    0.00023    1
    3      0.340D-02      0.204D-02       -95.64177439    143.168118   -0.32980   -0.63331    0.00018    2
    4      0.170D-02      0.914D-03       -95.64435678    143.206322   -0.38713   -0.62186    0.00012    3
    5      0.819D-03      0.396D-03       -95.64509038    143.191651   -0.41232   -0.61710    0.00009    4
    6      0.381D-03      0.171D-03       -95.64528210    143.200783   -0.43539   -0.61872    0.00009    5
    7      0.300D-03      0.951D-04       -95.64529685    143.194867   -0.45061   -0.61928    0.00009    6
    8      0.319D-03      0.545D-04       -95.64528367    143.197652   -0.46711   -0.62029    0.00009    7
    9      0.894D-04      0.162D-04       -95.64528204    143.197080   -0.47226   -0.62052    0.00010    7
   10      0.210D-04      0.438D-05       -95.64528281    143.197273   -0.47365   -0.62050    0.00010    8
   11      0.405D-05      0.150D-05       -95.64528225    143.197286   -0.47383   -0.62046    0.00010    8
   12      0.225D-05      0.594D-06       -95.64528158    143.197290   -0.47392   -0.62044    0.00010    8

 Final alpha occupancy:  10
 Final beta  occupancy:   8

 !UKS STATE 1.1 Energy                -95.645281579043
 Nuclear energy                        33.45955816
 One-electron energy                 -194.13257589
 Two-electron energy                   71.59864480
 Density functional                    -6.57090865     XC-M05-2X=-6.57090865
 Virial quotient                       -1.00872340
 !UKS STATE 1.1 Dipole moment          -0.47391911    -0.62044046     0.00009756
 Dipole moment /Debye                  -1.20450333    -1.57689906     0.00024795

 Orbital energies for positive spin:

         1.1          2.1          3.1          4.1          5.1          6.1          7.1          8.1          9.1         10.1
    -14.820134   -10.582928    -0.940231    -0.793846    -0.542232    -0.496631    -0.495047    -0.429094    -0.390365    -0.296547

        11.1         12.1
      0.112612     0.155113

 Orbital energies for negative spin:

         1.1          2.1          3.1          4.1          5.1          6.1          7.1          8.1          9.1         10.1
    -14.792197   -10.573371    -0.863612    -0.761877    -0.499234    -0.487819    -0.482907    -0.367924    -0.034387    -0.030916

        11.1         12.1
      0.113391     0.162597

 HOMO     10.1    -0.296547 =      -8.0695eV
 LUMO     -9.1    -0.034387 =      -0.9357eV
 LUMO-HOMO         0.262160 =       7.1337eV

 EXPECTATION VALUE OF S**2:             2.01660505

 Occupation number threshold for canonical orbitals:  1.999000 (occupied),  0.001000 (virtual)

 Number of pseudo-canonical orbitals per symmetry:    6
 Number of active natural orbitals per symmetry:      6

 Natural orbitals saved to record    2200.2 (Orbital set 3)

 Orbital spaces for UNO-CAS (Min. occupation: 0.020  Max. occupation: 1.980):

 Closed:        8
 Active:        2


 **********************************************************************************************************************************
 DATASETS  * FILE   NREC   LENGTH (MB)   RECORD NAMES
              1      20       31.89       500      610      700      900      950      970     1000      129      960     1100   
                                          VAR    BASINP    GEOM    SYMINP    ZMAT    AOBASIS   BASIS     P2S    ABASIS      S 
                                         1400     1410     1200     1210     1080     1600     1650     1300     1700     1800   
                                           T        V       H0       H01     AOSYM     SMH    MOLCAS    ERIS     OPER     GRID   

              2       5        2.92       700     1000      520     1800     2200   
                                         GEOM     BASIS   MCVARS    GRID      UKS  

 PROGRAMS   *        TOTAL       UKS       INT
 CPU TIMES  *         5.89      5.35      0.40
 REAL TIME  *         6.53 SEC
 DISK USED  *        36.28 MB      
 **********************************************************************************************************************************


 PROGRAM * Intrinsic Basis Bonding Analysis (IBBA)          Author: G. Knizia

 Molecular orbitals read from record     2200.2  Type=UKS/ALPHA (state 1.1)
 Fock matrix read from record            2200.2  Type=UKS/TOTAL (state 1.1)
 Orbital energies read from record       2200.2  Type=UKS/ALPHA (state 1.1)
 Density matrix read from record         2200.2  Type=UKS/CHARGE (state 1.1)

 Number of core orbitals:           2 (   2 )
 Number of closed-shell orbitals:   6 (   6 )
 Number of active  orbitals:        2 (   2 )

 Basis set MINAO-AUTO-PP generated.      Number of basis functions:   15 

 Polarized AO type:                A = (O Ot + (1-O)(1-Ot)) P12
 Orthogonalization method:         Symmetric (Loewdin)
 Localization functional:          L = sum[A,i] <i|n_A|i>^4 -> max

 Localization group 1:   8 orbitals, occupancy  2.000
 Iterative localization: IB/PM,    6 iter; Final gradient 0.80E-08

 Bond order analysis:       [THRPRINT= 0.020]

   CEN ATOM   CEN ATOM     WIBERG.BO      RENORM.BO
     1   C  -   4   H       0.953327       0.999784
     1   C  -   5   H       0.953258       0.999842
     1   C  -   3   H       0.952445       0.999797
     1   C  -   2   N       0.497825       2.003586
     1   C  -   6   H       0.275895       0.739586

     2   N  -   7   H       0.926761       0.999950
     2   N  -   6   H       0.636289       0.915642
     2   N  -   1   C       0.497825       2.003586

     3   H  -   1   C       0.952445       0.999797

     4   H  -   1   C       0.953327       0.999784

     5   H  -   1   C       0.953258       0.999842

     6   H  -   2   N       0.636289       0.915642
     6   H  -   1   C       0.275895       0.739586

     7   H  -   2   N       0.926761       0.999950


 Valency analysis:

   CEN ATOM   TOT.VALENCE
     1   C       3.634336
     2   N       2.099812
     3   H       0.970545
     4   H       0.970826
     5   H       0.968610
     6   H       0.920240
     7   H       0.928546
 Localization group 2:   2 orbitals, occupancy  1.000
 Iterative localization: IB/PM,    2 iter; Final gradient 0.71E-11

 Bond order analysis:       [THRPRINT= 0.020]

   CEN ATOM   CEN ATOM     WIBERG.BO      RENORM.BO
     1   C  -   2   N       0.461757       1.000000

     2   N  -   1   C       0.461757       1.000000







 Valency analysis:

   CEN ATOM   TOT.VALENCE
     1   C       0.492095
     2   N       0.488588
     3   H       0.011610
     4   H       0.011194
     5   H       0.009933
     6   H       0.021461
     7   H       0.003929

 Total charge composition:

   CEN ATOM         s          p       ELECTRONS ->P.CHARGE
     1   C       3.11318    3.42167      6.53486   -0.53486
     2   N       3.69082    3.81437      7.50519   -0.50519
     3   H       0.83421                 0.83421    0.16579
     4   H       0.83482                 0.83482    0.16518
     5   H       0.82782                 0.82782    0.17218
     6   H       0.72843                 0.72843    0.27157
     7   H       0.73466                 0.73466    0.26534

 Total charge composition, AO contributions:

   CEN ATOM SHL      SPHERICAL COMPONENTS
     1   C  1s       1.99152
     1   C  2s       1.12166
     1   C  2p       1.03463    1.19753    1.18952

     2   N  1s       1.99697
     2   N  2s       1.69385
     2   N  2p       1.33317    1.47480    1.00640

     3   H  1s       0.83421

     4   H  1s       0.83482

     5   H  1s       0.82782

     6   H  1s       0.72843

     7   H  1s       0.73466

 Active orbital charges:

   CEN ATOM         s          p       ELECTRONS ->SPIN.DEN
     1   C       0.02409    0.55915      0.58324    0.58324
     2   N       0.00288    1.38461      1.38749    1.38749
     3   H       0.00584                 0.00584    0.00584
     4   H       0.00563                 0.00563    0.00563
     5   H       0.00499                 0.00499    0.00499
     6   H       0.01085                 0.01085    0.01085
     7   H       0.00197                 0.00197    0.00197

 Active orbital charges, AO contributions:

   CEN ATOM SHL      SPHERICAL COMPONENTS
     1   C  1s       0.00005
     1   C  2s       0.02405
     1   C  2p       0.55475    0.00183    0.00256

     2   N  1s       0.00004
     2   N  2s       0.00284
     2   N  2p       0.38227    0.00807    0.99427

     3   H  1s       0.00584

     4   H  1s       0.00563

     5   H  1s       0.00499

     6   H  1s       0.01085

     7   H  1s       0.00197

 Summary of localized orbital composition:   [THRPRINT= 0.020]

   ORB  GRP  ORB.ENERGY      CENTERS/CHARGES
     1   1   -14.678348      N  2   2.000
     2   1   -10.462571      C  1   2.000
     3   1    -0.762273      N  2   1.266   H  7   0.732
     4   1    -0.623339      C  1   1.157   H  4   0.825
     5   1    -0.623225      C  1   1.157   H  3   0.825
     6   1    -0.621708      C  1   1.166   H  5   0.819
     7   1    -0.618132      N  2   1.920   C  1   0.049   H  6   0.030
     8   1    -0.563451      N  2   0.913   H  6   0.654   C  1   0.422
     9   2    -0.198294      N  2   0.994
    10   2    -0.162354      C  1   0.581   N  2   0.393   (other: 0.026)

 Localized orbitals saved to record      2200.2  (orbital set 4)


 **********************************************************************************************************************************
 DATASETS  * FILE   NREC   LENGTH (MB)   RECORD NAMES
              1      20       31.89       500      610      700      900      950      970     1000      129      960     1100   
                                          VAR    BASINP    GEOM    SYMINP    ZMAT    AOBASIS   BASIS     P2S    ABASIS      S 
                                         1400     1410     1200     1210     1080     1600     1650     1300     1700     1800   
                                           T        V       H0       H01     AOSYM     SMH    MOLCAS    ERIS     OPER     GRID   

              2       5        2.93       700     1000      520     1800     2200   
                                         GEOM     BASIS   MCVARS    GRID      UKS  

 PROGRAMS   *        TOTAL      IBBA       UKS       INT
 CPU TIMES  *         5.91      0.02      5.35      0.40
 REAL TIME  *         6.59 SEC
 DISK USED  *        36.28 MB      
 **********************************************************************************************************************************
 Molecular orbitals read from record     2200.2  Type=UKS/LOCAL(IBO)  
 Occupation numbers read from record     2200.2  Type=UKS/LOCAL(IBO)  
 Orbital energies read from record       2200.2  Type=UKS/LOCAL(IBO)  
 Redundancy group numbers read from rec  2200.2  Type=UKS/BETA (state 1.1)

 IBBA/SV(P) energy=      0.000000000000

        UKS-SCF 
    -95.64528158
 **********************************************************************************************************************************
 Molpro calculation terminated
