
 Primary working directories    : /local
 Secondary working directories  : /local
 Wavefunction directory         : /local/
 Main file repository           : /local/

 SHA1      : b4a5b34a9e711420743f49e6833241d17c61fb3c
 NAME      : 2099.9.b4a5b34
 ARCHNAME  : linux/x86_64_openmp
 FC        : /cm/shared/languages/GCC-6.1/bin/gfortran
 BLASLIB   : -lblas
 id        : simonbennie

 Nodes     nprocs
 node35-048    1

 Using customized tuning parameters: mindgm=1; mindgv=20; mindgc=4; mindgr=1; noblas=0; minvec=7
 default implementation of scratch files=df  

 memory,500,m
 geomtyp=xyz
 nosym
 noorient
 geometry={
 C         -1.19958       -0.01113       -0.00003
 N          1.40071        0.12986        0.00002
 H         -1.42666       -0.51293        0.93306
 H         -1.41991       -0.59138       -0.88814
 H         -1.52024        1.02281       -0.04578
 H          0.18893        0.12690        0.00100
 H          1.57034       -0.88767       -0.00005
 }
 basis={ default,SV(P) }
 {uks,SLATER,direct;wf,18,1,2}
 {ibba,bonds=1}

 Variables initialized (895), CPU time= 0.00 sec
 Commands  initialized (725), CPU time= 0.02 sec, 591 directives.
 Default parameters read. Elapsed time= 0.16 sec

 Checking input...
 Passed
1


                                         ***  PROGRAM SYSTEM MOLPRO  ***
                                       Copyright, TTI GmbH Stuttgart, 2015
                                    Version 2099.9 linked May 26 2017 16:03:21


 **********************************************************************************************************************************
 LABEL *                                                                                 
  64 bit serial version                                                                  DATE: 30-Jun-17          TIME: 10:18:39  
 **********************************************************************************************************************************

 SHA1:             b4a5b34a9e711420743f49e6833241d17c61fb3c
 **********************************************************************************************************************************
 SETTING GEOMTYP        =    XYZ

 Variable memory set to  500000000 words,  buffer space 

 ZSYMEL=NOSYM

 SETTING BASIS          =    SV(P)


 Recomputing integrals since basis changed


 Using spherical harmonics

 Library entry C      S def2-SV(P)           selected for orbital group  1
 Library entry C      P def2-SV(P)           selected for orbital group  1
 Library entry C      D def2-SV(P)           selected for orbital group  1
 Library entry N      S def2-SV(P)           selected for orbital group  2
 Library entry N      P def2-SV(P)           selected for orbital group  2
 Library entry N      D def2-SV(P)           selected for orbital group  2
 Library entry H      S def2-SV(P)           selected for orbital group  3


 PROGRAM * SEWARD (Integral evaluation for generally contracted gaussian basis sets)     Author: Roland Lindh, 1990

 Geometry written to block  1 of record 700


 Point group  C1  



 ATOMIC COORDINATES

 NR  ATOM    CHARGE       X              Y              Z

   1  C       6.00   -2.266877665   -0.021032652   -0.000056692
   2  N       7.00    2.646958280    0.245399835    0.000037795
   3  H       1.00   -2.695996673   -0.969297221    1.763227858
   4  H       1.00   -2.683241022   -1.117546236   -1.678341360
   5  H       1.00   -2.872837244    1.932830777   -0.086511662
   6  H       1.00    0.357025957    0.239806245    0.001889726
   7  H       1.00    2.967512522   -1.677453189   -0.000094486

 Bond lengths in Bohr (Angstrom)

 1-3  2.047564705  1-4  2.047520430  1-5  2.047496953  1-6  2.636837297  2-6  2.289939904
     ( 1.083524580)     ( 1.083501151)     ( 1.083488727)     ( 1.395354207)     ( 1.211784011)

 2-7  1.949389338
     ( 1.031572413)

 Bond angles

  1-6-2  174.46219800   3-1-4  114.53404293   3-1-5  114.59980605   3-1-6  104.69797988

  4-1-5  114.59807310   4-1-6  104.82888405   5-1-6  101.54476811   6-2-7   99.32464965

 NUCLEAR CHARGE:                   18
 NUMBER OF PRIMITIVE AOS:          70
 NUMBER OF SYMMETRY AOS:           68
 NUMBER OF CONTRACTIONS:           38   (  38A   )
 NUMBER OF CORE ORBITALS:           2   (   2A   )
 NUMBER OF VALENCE ORBITALS:       13   (  13A   )


 NUCLEAR REPULSION ENERGY   33.45955816


 Eigenvalues of metric

         1 0.714E-02 0.236E-01 0.650E-01 0.658E-01 0.662E-01 0.186E+00 0.211E+00 0.234E+00


 Contracted 2-electron integrals neglected if value below      1.0D-11
 AO integral compression algorithm  1   Integral accuracy      1.0D-11

     1.573 MB (compressed) written to integral file ( 47.8%)


 NUMBER OF SORTED TWO-ELECTRON INTEGRALS:     274911.     BUFFER LENGTH:  32768
 NUMBER OF SEGMENTS:   1  SEGMENT LENGTH:     274911      RECORD LENGTH: 524288

 Memory used in sort:       0.83 MW

 SORT1 READ      345687. AND WROTE      255453. INTEGRALS IN      1 RECORDS. CPU TIME:     0.00 SEC, REAL TIME:     0.01 SEC
 SORT2 READ      255453. AND WROTE      274911. INTEGRALS IN      6 RECORDS. CPU TIME:     0.03 SEC, REAL TIME:     0.02 SEC

 FILE SIZES:   FILE 1:    31.7 MBYTE,  FILE 4:     4.2 MBYTE,   TOTAL:     35.9 MBYTE

 OPERATOR DM      FOR CENTER  0  COORDINATES:    0.000000    0.000000    0.000000


 **********************************************************************************************************************************
 DATASETS  * FILE   NREC   LENGTH (MB)   RECORD NAMES
              1      19       31.15       500      610      700      900      950      970     1000      129      960     1100   
                                          VAR    BASINP    GEOM    SYMINP    ZMAT    AOBASIS   BASIS     P2S    ABASIS      S 
                                         1400     1410     1200     1210     1080     1600     1650     1300     1700   
                                           T        V       H0       H01     AOSYM     SMH    MOLCAS    ERIS     OPER   

 PROGRAMS   *        TOTAL       INT
 CPU TIMES  *         0.42      0.27
 REAL TIME  *         0.90 SEC
 DISK USED  *        36.28 MB      
 **********************************************************************************************************************************

 Density functional group SLATER=DIRAC
 Functional: DIRAC(Automatically generated (new) DIRAC)                        Gradient terms: 0
 Use grid at  1800.2

 Functional: DIRAC                     Factor:  1.0000

 Generated new metagrid on record  1800.2 with target accuracy 1.0D-06 and 23050 points in CPU time    0.5
 Computed new grid on record 1800.1 in CPU time    0.6
   19720 words reserved for DFT integration

 PROGRAM * UKS-SCF (Unrestricted Kohn-Sham)     Authors: W. Meyer, H.-J. Werner, P.J. Knowles, 1993

 NUMBER OF ELECTRONS:      10+    8-    SPACE SYMMETRY=1    SPIN SYMMETRY: Triplet 
 CONVERGENCE THRESHOLDS:    1.00E-05 (Density)    1.00E-06 (Energy)
 MAX. NUMBER OF ITERATIONS:       60
 INTERPOLATION TYPE:            DIIS
 INTERPOLATION STEPS:              2 (START)      1 (STEP)
 LEVEL SHIFTS:                 -0.20 (ALPHA)  -0.20 (BETA) 



 Use fine grid record 1800.2 for energy threshold  1.0D-06
 Orbital guess generated from atomic densities. Full valence occupancy:    9

 Molecular orbital dump at record        2200.2

 Initial alpha occupation  10
 Initial beta  occupation   8

 ITERATION    DDIFF          GRAD             ENERGY        2-EL.EN.            DIPOLE MOMENTS         DIIS
    1      0.000D+00      0.000D+00       -93.54286790    161.895737    0.12494   -0.79131    0.00018    0
    2      0.245D-01      0.110D-01       -93.61878671    156.249693   -0.34349   -0.60235    0.00030    1
    3      0.874D-02      0.576D-02       -93.63992999    157.591350   -0.20589   -0.58175    0.00019    2
    4      0.161D-02      0.886D-03       -93.64057058    157.699651   -0.23898   -0.57944    0.00020    3
    5      0.139D-02      0.447D-03       -93.64084124    157.614055   -0.23814   -0.55903    0.00020    4
    6      0.522D-03      0.130D-03       -93.64088985    157.622012   -0.24336   -0.55374    0.00020    5
    7      0.125D-03      0.407D-04       -93.64089438    157.617032   -0.24571   -0.55305    0.00020    6
    8      0.301D-04      0.127D-04       -93.64089481    157.617385   -0.24647   -0.55308    0.00020    7
    9      0.126D-04      0.283D-05       -93.64089484    157.617332   -0.24673   -0.55312    0.00020    6
   10      0.383D-05      0.100D-05       -93.64089484    157.617145   -0.24686   -0.55316    0.00020    7
   11      0.208D-05      0.620D-06       -93.64089485    157.617290   -0.24689   -0.55316    0.00020    7

 Final alpha occupancy:  10
 Final beta  occupancy:   8

 !UKS STATE 1.1 Energy                -93.640894845494
 Nuclear energy                        33.45955816
 One-electron energy                 -193.88077289
 Two-electron energy                   78.80864481
 Density functional                   -12.02832492     DIRAC=-12.02832492
 Virial quotient                       -0.99265925
 !UKS STATE 1.1 Dipole moment          -0.24688755    -0.55316308     0.00020275
 Dipole moment /Debye                  -0.62748446    -1.40590822     0.00051531

 Orbital energies for positive spin:

         1.1          2.1          3.1          4.1          5.1          6.1          7.1          8.1          9.1         10.1
    -13.830063    -9.708737    -0.712426    -0.567671    -0.371600    -0.321666    -0.320223    -0.265224    -0.229482    -0.151549

        11.1         12.1
      0.068500     0.107374

 Orbital energies for negative spin:

         1.1          2.1          3.1          4.1          5.1          6.1          7.1          8.1          9.1         10.1
    -13.792660    -9.697044    -0.636250    -0.541974    -0.331125    -0.309792    -0.307610    -0.206198    -0.095394    -0.076798

        11.1         12.1
      0.079804     0.119540

 HOMO     10.1    -0.151549 =      -4.1239eV
 LUMO     -9.1    -0.095394 =      -2.5958eV
 LUMO-HOMO         0.056156 =       1.5281eV

 EXPECTATION VALUE OF S**2:             2.00941691

 Occupation number threshold for canonical orbitals:  1.999000 (occupied),  0.001000 (virtual)

 Number of pseudo-canonical orbitals per symmetry:    6
 Number of active natural orbitals per symmetry:      6

 Natural orbitals saved to record    2200.2 (Orbital set 3)

 Orbital spaces for UNO-CAS (Min. occupation: 0.020  Max. occupation: 1.980):

 Closed:        8
 Active:        2


 **********************************************************************************************************************************
 DATASETS  * FILE   NREC   LENGTH (MB)   RECORD NAMES
              1      20       31.89       500      610      700      900      950      970     1000      129      960     1100   
                                          VAR    BASINP    GEOM    SYMINP    ZMAT    AOBASIS   BASIS     P2S    ABASIS      S 
                                         1400     1410     1200     1210     1080     1600     1650     1300     1700     1800   
                                           T        V       H0       H01     AOSYM     SMH    MOLCAS    ERIS     OPER     GRID   

              2       5        2.92       700     1000      520     1800     2200   
                                         GEOM     BASIS   MCVARS    GRID      UKS  

 PROGRAMS   *        TOTAL       UKS       INT
 CPU TIMES  *         2.06      1.64      0.27
 REAL TIME  *         2.64 SEC
 DISK USED  *        36.28 MB      
 **********************************************************************************************************************************


 PROGRAM * Intrinsic Basis Bonding Analysis (IBBA)          Author: G. Knizia

 Molecular orbitals read from record     2200.2  Type=UKS/ALPHA (state 1.1)
 Fock matrix read from record            2200.2  Type=UKS/TOTAL (state 1.1)
 Orbital energies read from record       2200.2  Type=UKS/ALPHA (state 1.1)
 Density matrix read from record         2200.2  Type=UKS/CHARGE (state 1.1)

 Number of core orbitals:           2 (   2 )
 Number of closed-shell orbitals:   6 (   6 )
 Number of active  orbitals:        2 (   2 )

 Basis set MINAO-AUTO-PP generated.      Number of basis functions:   15 

 Polarized AO type:                A = (O Ot + (1-O)(1-Ot)) P12
 Orthogonalization method:         Symmetric (Loewdin)
 Localization functional:          L = sum[A,i] <i|n_A|i>^4 -> max

 Localization group 1:   8 orbitals, occupancy  2.000
 Iterative localization: IB/PM,    6 iter; Final gradient 0.10E-07

 Bond order analysis:       [THRPRINT= 0.020]

   CEN ATOM   CEN ATOM     WIBERG.BO      RENORM.BO
     1   C  -   5   H       0.951787       0.999779
     1   C  -   4   H       0.950559       0.999762
     1   C  -   3   H       0.949497       0.999775
     1   C  -   2   N       0.486387       2.003955
     1   C  -   6   H       0.269798       0.734779

     2   N  -   7   H       0.918682       0.999903
     2   N  -   6   H       0.654234       0.913632
     2   N  -   1   C       0.486387       2.003955

     3   H  -   1   C       0.949497       0.999775

     4   H  -   1   C       0.950559       0.999762

     5   H  -   1   C       0.951787       0.999779

     6   H  -   2   N       0.654234       0.913632
     6   H  -   1   C       0.269798       0.734779

     7   H  -   2   N       0.918682       0.999903


 Valency analysis:

   CEN ATOM   TOT.VALENCE
     1   C       3.608959
     2   N       2.100312
     3   H       0.969473
     4   H       0.969768
     5   H       0.967853
     6   H       0.933410
     7   H       0.919873
 Localization group 2:   2 orbitals, occupancy  1.000
 Iterative localization: IB/PM,    2 iter; Final gradient 0.25E-10

 Bond order analysis:       [THRPRINT= 0.020]

   CEN ATOM   CEN ATOM     WIBERG.BO      RENORM.BO
     1   C  -   2   N       0.459897       1.000000

     2   N  -   1   C       0.459897       1.000000







 Valency analysis:

   CEN ATOM   TOT.VALENCE
     1   C       0.494179
     2   N       0.491165
     3   H       0.012344
     4   H       0.011815
     5   H       0.009917
     6   H       0.028032
     7   H       0.004608

 Total charge composition:

   CEN ATOM         s          p       ELECTRONS ->P.CHARGE
     1   C       3.10296    3.41115      6.51411   -0.51411
     2   N       3.69636    3.82487      7.52124   -0.52124
     3   H       0.83149                 0.83149    0.16851
     4   H       0.83207                 0.83207    0.16793
     5   H       0.82569                 0.82569    0.17431
     6   H       0.75617                 0.75617    0.24383
     7   H       0.71924                 0.71924    0.28076

 Total charge composition, AO contributions:

   CEN ATOM SHL      SPHERICAL COMPONENTS
     1   C  1s       1.99293
     1   C  2s       1.11003
     1   C  2p       1.01550    1.20202    1.19363

     2   N  1s       1.99742
     2   N  2s       1.69894
     2   N  2p       1.33445    1.48207    1.00835

     3   H  1s       0.83149

     4   H  1s       0.83207

     5   H  1s       0.82569

     6   H  1s       0.75617

     7   H  1s       0.71924

 Active orbital charges:

   CEN ATOM         s          p       ELECTRONS ->SPIN.DEN
     1   C       0.02447    0.55907      0.58355    0.58355
     2   N       0.00352    1.37927      1.38279    1.38279
     3   H       0.00621                 0.00621    0.00621
     4   H       0.00594                 0.00594    0.00594
     5   H       0.00498                 0.00498    0.00498
     6   H       0.01422                 0.01422    0.01422
     7   H       0.00231                 0.00231    0.00231

 Active orbital charges, AO contributions:

   CEN ATOM SHL      SPHERICAL COMPONENTS
     1   C  1s       0.00003
     1   C  2s       0.02444
     1   C  2p       0.55381    0.00175    0.00351

     2   N  1s       0.00004
     2   N  2s       0.00348
     2   N  2p       0.37723    0.00968    0.99235

     3   H  1s       0.00621

     4   H  1s       0.00594

     5   H  1s       0.00498

     6   H  1s       0.01422

     7   H  1s       0.00231

 Summary of localized orbital composition:   [THRPRINT= 0.020]

   ORB  GRP  ORB.ENERGY      CENTERS/CHARGES
     1   1   -13.698609      N  2   2.000
     2   1    -9.598536      C  1   2.000
     3   1    -0.560041      N  2   1.282   H  7   0.717
     4   1    -0.427420      C  1   1.157   H  4   0.823
     5   1    -0.427391      C  1   1.157   H  3   0.822   (other: 0.021)
     6   1    -0.425723      C  1   1.167   H  5   0.817
     7   1    -0.410722      N  2   1.920   C  1   0.052   H  6   0.028
     8   1    -0.405984      N  2   0.914   H  6   0.681   C  1   0.397
     9   2    -0.160994      N  2   0.992
    10   2    -0.114602      C  1   0.580   N  2   0.390   (other: 0.030)

 Localized orbitals saved to record      2200.2  (orbital set 4)


 **********************************************************************************************************************************
 DATASETS  * FILE   NREC   LENGTH (MB)   RECORD NAMES
              1      20       31.89       500      610      700      900      950      970     1000      129      960     1100   
                                          VAR    BASINP    GEOM    SYMINP    ZMAT    AOBASIS   BASIS     P2S    ABASIS      S 
                                         1400     1410     1200     1210     1080     1600     1650     1300     1700     1800   
                                           T        V       H0       H01     AOSYM     SMH    MOLCAS    ERIS     OPER     GRID   

              2       5        2.93       700     1000      520     1800     2200   
                                         GEOM     BASIS   MCVARS    GRID      UKS  

 PROGRAMS   *        TOTAL      IBBA       UKS       INT
 CPU TIMES  *         2.09      0.03      1.64      0.27
 REAL TIME  *         2.71 SEC
 DISK USED  *        36.28 MB      
 **********************************************************************************************************************************
 Molecular orbitals read from record     2200.2  Type=UKS/LOCAL(IBO)  
 Occupation numbers read from record     2200.2  Type=UKS/LOCAL(IBO)  
 Orbital energies read from record       2200.2  Type=UKS/LOCAL(IBO)  
 Redundancy group numbers read from rec  2200.2  Type=UKS/BETA (state 1.1)

 IBBA/SV(P) energy=      0.000000000000

        UKS-SCF 
    -93.64089485
 **********************************************************************************************************************************
 Molpro calculation terminated
