
 Primary working directories    : /local
 Secondary working directories  : /local
 Wavefunction directory         : /local/
 Main file repository           : /local/

 SHA1      : b4a5b34a9e711420743f49e6833241d17c61fb3c
 NAME      : 2099.9.b4a5b34
 ARCHNAME  : linux/x86_64_openmp
 FC        : /cm/shared/languages/GCC-6.1/bin/gfortran
 BLASLIB   : -lblas
 id        : simonbennie

 Nodes     nprocs
 node32-008    1

 Using customized tuning parameters: mindgm=1; mindgv=20; mindgc=4; mindgr=1; noblas=0; minvec=7
 default implementation of scratch files=df  

 memory,500,m
 geomtyp=xyz
 nosym
 noorient
 geometry={
 C         -1.19958       -0.01113       -0.00003
 N          1.40071        0.12986        0.00002
 H         -1.42666       -0.51293        0.93306
 H         -1.41991       -0.59138       -0.88814
 H         -1.52024        1.02281       -0.04578
 H          0.18893        0.12690        0.00100
 H          1.57034       -0.88767       -0.00005
 }
 basis={ default,avtz }
 {ks,B97R,direct;wf,18,1,2}
 {ibba,bonds=1}

 Variables initialized (895), CPU time= 0.01 sec
 Commands  initialized (725), CPU time= 0.01 sec, 591 directives.
 Default parameters read. Elapsed time= 0.08 sec

 Checking input...
 Passed
1


                                         ***  PROGRAM SYSTEM MOLPRO  ***
                                       Copyright, TTI GmbH Stuttgart, 2015
                                    Version 2099.9 linked May 26 2017 16:03:21


 **********************************************************************************************************************************
 LABEL *                                                                                 
  64 bit serial version                                                                  DATE: 23-Jun-17          TIME: 08:26:54  
 **********************************************************************************************************************************

 SHA1:             b4a5b34a9e711420743f49e6833241d17c61fb3c
 **********************************************************************************************************************************
 SETTING GEOMTYP        =    XYZ

 Variable memory set to  500000000 words,  buffer space 

 ZSYMEL=NOSYM

 SETTING BASIS          =    AVTZ


 Recomputing integrals since basis changed


 Using spherical harmonics

 Library entry C      S aug-cc-pVTZ          selected for orbital group  1
 Library entry C      P aug-cc-pVTZ          selected for orbital group  1
 Library entry C      D aug-cc-pVTZ          selected for orbital group  1
 Library entry C      F aug-cc-pVTZ          selected for orbital group  1
 Library entry N      S aug-cc-pVTZ          selected for orbital group  2
 Library entry N      P aug-cc-pVTZ          selected for orbital group  2
 Library entry N      D aug-cc-pVTZ          selected for orbital group  2
 Library entry N      F aug-cc-pVTZ          selected for orbital group  2
 Library entry H      S aug-cc-pVTZ          selected for orbital group  3
 Library entry H      P aug-cc-pVTZ          selected for orbital group  3
 Library entry H      D aug-cc-pVTZ          selected for orbital group  3


 PROGRAM * SEWARD (Integral evaluation for generally contracted gaussian basis sets)     Author: Roland Lindh, 1990

 Geometry written to block  1 of record 700


 Point group  C1  



 ATOMIC COORDINATES

 NR  ATOM    CHARGE       X              Y              Z

   1  C       6.00   -2.266877665   -0.021032652   -0.000056692
   2  N       7.00    2.646958280    0.245399835    0.000037795
   3  H       1.00   -2.695996673   -0.969297221    1.763227858
   4  H       1.00   -2.683241022   -1.117546236   -1.678341360
   5  H       1.00   -2.872837244    1.932830777   -0.086511662
   6  H       1.00    0.357025957    0.239806245    0.001889726
   7  H       1.00    2.967512522   -1.677453189   -0.000094486

 Bond lengths in Bohr (Angstrom)

 1-3  2.047564705  1-4  2.047520430  1-5  2.047496953  1-6  2.636837297  2-6  2.289939904
     ( 1.083524580)     ( 1.083501151)     ( 1.083488727)     ( 1.395354207)     ( 1.211784011)

 2-7  1.949389338
     ( 1.031572413)

 Bond angles

  1-6-2  174.46219800   3-1-4  114.53404293   3-1-5  114.59980605   3-1-6  104.69797988

  4-1-5  114.59807310   4-1-6  104.82888405   5-1-6  101.54476811   6-2-7   99.32464965

 NUCLEAR CHARGE:                   18
 NUMBER OF PRIMITIVE AOS:         269
 NUMBER OF SYMMETRY AOS:          241
 NUMBER OF CONTRACTIONS:          207   ( 207A   )
 NUMBER OF CORE ORBITALS:           2   (   2A   )
 NUMBER OF VALENCE ORBITALS:       13   (  13A   )


 NUCLEAR REPULSION ENERGY   33.45955816


 Eigenvalues of metric

         1 0.661E-04 0.806E-04 0.972E-04 0.995E-04 0.251E-03 0.347E-03 0.504E-03 0.584E-03


 Contracted 2-electron integrals neglected if value below      1.0D-11
 AO integral compression algorithm  1   Integral accuracy      1.0D-11

     1035.207 MB (compressed) written to integral file ( 48.6%)


 NUMBER OF SORTED TWO-ELECTRON INTEGRALS:  231738156.     BUFFER LENGTH:  32768
 NUMBER OF SEGMENTS:  15  SEGMENT LENGTH:   15999503      RECORD LENGTH: 524288

 Memory used in sort:      16.56 MW

 SORT1 READ   266437413. AND WROTE   226271326. INTEGRALS IN    656 RECORDS. CPU TIME:     3.05 SEC, REAL TIME:     7.25 SEC
 SORT2 READ   226271326. AND WROTE   231738156. INTEGRALS IN   3949 RECORDS. CPU TIME:     5.00 SEC, REAL TIME:    38.04 SEC

 FILE SIZES:   FILE 1:  1066.9 MBYTE,  FILE 4:  2751.5 MBYTE,   TOTAL:   3818.4 MBYTE

 OPERATOR DM      FOR CENTER  0  COORDINATES:    0.000000    0.000000    0.000000


 **********************************************************************************************************************************
 DATASETS  * FILE   NREC   LENGTH (MB)   RECORD NAMES
              1      19      950.39       500      610      700      900      950      970     1000      129      960     1100   
                                          VAR    BASINP    GEOM    SYMINP    ZMAT    AOBASIS   BASIS     P2S    ABASIS      S 
                                         1400     1410     1200     1210     1080     1600     1650     1300     1700   
                                           T        V       H0       H01     AOSYM     SMH    MOLCAS    ERIS     OPER   

 PROGRAMS   *        TOTAL       INT
 CPU TIMES  *        16.90     16.77
 REAL TIME  *        66.72 SEC
 DISK USED  *         3.82 GB      
 **********************************************************************************************************************************

 Density functional group B97R=B97RDF
 Functional: B97RDF(Automatically generated (new) B97RDF)                      Gradient terms: 1
 Use grid at  1800.2


 Exact exchange will be calculated, factor:  0.2100

 Functional: B97RDF                    Factor:  1.0000

 Generated new metagrid on record  1800.2 with target accuracy 1.0D-06 and 23882 points in CPU time    0.5
 Computed new grid on record 1800.1 in CPU time    0.5
  168618 words reserved for DFT integration

 PROGRAM * RKS-SCF (Restricted open shell Kohn-Sham)     Authors: W. Meyer, H.-J. Werner, P.J. Knowles, 1993

 NUMBER OF ELECTRONS:      10+    8-    SPACE SYMMETRY=1    SPIN SYMMETRY: Triplet 
 CONVERGENCE THRESHOLDS:    1.00E-05 (Density)    1.00E-06 (Energy)
 MAX. NUMBER OF ITERATIONS:       60
 INTERPOLATION TYPE:            DIIS
 INTERPOLATION STEPS:              2 (START)      1 (STEP)
 LEVEL SHIFTS:                 -0.60 (CLOSED) -0.30 (OPEN) 



 Use fine grid record 1800.2 for energy threshold  1.0D-06
 Orbital guess generated from atomic densities. Full valence occupancy:   15

 Molecular orbital dump at record        2100.2

 Initial alpha occupancy:  10
 Initial beta  occupancy:   8
 Wave function symmetry:    1

 ITERATION    DDIFF          GRAD             ENERGY        2-EL.EN.            DIPOLE MOMENTS         DIIS   ORB.
    1      0.000D+00      0.000D+00       -95.65117647    155.823186   -0.01232   -0.70380    0.00024    0    start
    2      0.000D+00      0.496D-02       -95.70061972    152.323138   -0.55826   -0.55448    0.00027    1    diag,B
    3      0.639D-02      0.201D-02       -95.70789642    152.696155   -0.36477   -0.52288    0.00019    2    diag,B
    4      0.196D-02      0.386D-03       -95.70837905    152.794241   -0.41109   -0.52673    0.00020    3    diag,B
    5      0.535D-03      0.196D-03       -95.70856687    152.725913   -0.40473   -0.51655    0.00020    4    diag,B
    6      0.352D-03      0.643D-04       -95.70861431    152.712299   -0.41222   -0.51430    0.00020    5    diag,B
    7      0.175D-03      0.232D-04       -95.70862300    152.708254   -0.41717   -0.51433    0.00020    6    fixocc
    8      0.672D-04      0.936D-05       -95.70862501    152.707958   -0.42087   -0.51477    0.00020    7    diag,B
    9      0.637D-04      0.378D-05       -95.70862538    152.707751   -0.42275   -0.51504    0.00020    8    diag,B
   10      0.220D-04      0.153D-05       -95.70862544    152.707804   -0.42360   -0.51519    0.00020    9    orth
   11      0.815D-05      0.482D-06       -95.70862544    152.707801   -0.42369   -0.51520    0.00020    0    orth

 Final alpha occupancy:  10
 Final beta  occupancy:   8

 !RKS STATE 1.1 Energy                -95.708625444721
 Nuclear energy                        33.45955816
 One-electron energy                 -194.30736156
 Two-electron energy                   76.35390029
 Density functional                   -11.21472234     B97RDF=-11.21472234
 Virial quotient                       -1.00590312
 !RKS STATE 1.1 Dipole moment          -0.42368981    -0.51520270     0.00019801
 Dipole moment /Debye                  -1.07684156    -1.30942887     0.00050327

 Orbital energies:

         1.1          2.1          3.1          4.1          5.1          6.1          7.1          8.1          9.1         10.1
    -14.363682   -10.192919    -0.815507    -0.694001    -0.447780    -0.420043    -0.418677    -0.342282    -0.319141    -0.235646

        11.1         12.1
     -0.007586     0.016904

 HOMO     10.1    -0.235646 =      -6.4123eV
 LUMO     11.1    -0.007586 =      -0.2064eV
 LUMO-HOMO         0.228060 =       6.2058eV


 **********************************************************************************************************************************
 DATASETS  * FILE   NREC   LENGTH (MB)   RECORD NAMES
              1      20      951.15       500      610      700      900      950      970     1000      129      960     1100   
                                          VAR    BASINP    GEOM    SYMINP    ZMAT    AOBASIS   BASIS     P2S    ABASIS      S 
                                         1400     1410     1200     1210     1080     1600     1650     1300     1700     1800   
                                           T        V       H0       H01     AOSYM     SMH    MOLCAS    ERIS     OPER     GRID   

              2       5        4.09       700     1000      520     1800     2100   
                                         GEOM     BASIS   MCVARS    GRID      RKS  

 PROGRAMS   *        TOTAL        KS       INT
 CPU TIMES  *        92.28     75.38     16.77
 REAL TIME  *       176.14 SEC
 DISK USED  *         3.82 GB      
 **********************************************************************************************************************************


 PROGRAM * Intrinsic Basis Bonding Analysis (IBBA)          Author: G. Knizia

 Molecular orbitals read from record     2100.2  Type=RKS/CANONICAL (state 1.1)
 Fock matrix read from record            2100.2  Type=RKS/TOTAL (state 1.1)
 Orbital energies read from record       2100.2  Type=RKS/CANONICAL (state 1.1)
 Density matrix read from record         2100.2  Type=RKS/CHARGE (state 1.1)

 Number of core orbitals:           2 (   2 )
 Number of closed-shell orbitals:   6 (   6 )
 Number of active  orbitals:        2 (   2 )

 Basis set MINAO-AUTO-PP generated.      Number of basis functions:   15 

 Polarized AO type:                A = (O Ot + (1-O)(1-Ot)) P12
 Orthogonalization method:         Symmetric (Loewdin)
 Localization functional:          L = sum[A,i] <i|n_A|i>^4 -> max

 Localization group 1:   8 orbitals, occupancy  2.000
 Iterative localization: IB/PM,    6 iter; Final gradient 0.70E-08

 Bond order analysis:       [THRPRINT= 0.020]

   CEN ATOM   CEN ATOM     WIBERG.BO      RENORM.BO
     1   C  -   4   H       0.964708       0.999684
     1   C  -   3   H       0.964388       0.999708
     1   C  -   5   H       0.961195       0.999743
     1   C  -   2   N       0.456375       2.002782
     1   C  -   6   H       0.329416       0.777757

     2   N  -   7   H       0.935177       0.999978
     2   N  -   6   H       0.623963       0.941723
     2   N  -   1   C       0.456375       2.002782

     3   H  -   1   C       0.964388       0.999708

     4   H  -   1   C       0.964708       0.999684

     5   H  -   1   C       0.961195       0.999743

     6   H  -   2   N       0.623963       0.941723
     6   H  -   1   C       0.329416       0.777757

     7   H  -   2   N       0.935177       0.999978


 Valency analysis:

   CEN ATOM   TOT.VALENCE
     1   C       3.676982
     2   N       2.037931
     3   H       0.973620
     4   H       0.973764
     5   H       0.971601
     6   H       0.957642
     7   H       0.936264
 Localization group 2:   2 orbitals, occupancy  1.000
 Iterative localization: IB/PM,    2 iter; Final gradient 0.13E-10

 Bond order analysis:       [THRPRINT= 0.020]

   CEN ATOM   CEN ATOM     WIBERG.BO      RENORM.BO
     1   C  -   2   N       0.475377       1.000000

     2   N  -   1   C       0.475377       1.000000







 Valency analysis:

   CEN ATOM   TOT.VALENCE
     1   C       0.496514
     2   N       0.494039
     3   H       0.006873
     4   H       0.006670
     5   H       0.007967
     6   H       0.014485
     7   H       0.004368

 Total charge composition:

   CEN ATOM         s          p       ELECTRONS ->P.CHARGE
     1   C       3.12523    3.39818      6.52341   -0.52341
     2   N       3.69583    3.71166      7.40750   -0.40750
     3   H       0.84103                 0.84103    0.15897
     4   H       0.84137                 0.84137    0.15863
     5   H       0.83548                 0.83548    0.16452
     6   H       0.80148                 0.80148    0.19852
     7   H       0.74973                 0.74973    0.25027

 Total charge composition, AO contributions:

   CEN ATOM SHL      SPHERICAL COMPONENTS
     1   C  1s       1.99187
     1   C  2s       1.13335
     1   C  2p       1.03529    1.18303    1.17986

     2   N  1s       1.99714
     2   N  2s       1.69869
     2   N  2p       1.25274    1.45800    1.00092

     3   H  1s       0.84103

     4   H  1s       0.84137

     5   H  1s       0.83548

     6   H  1s       0.80148

     7   H  1s       0.74973

 Active orbital charges:

   CEN ATOM         s          p       ELECTRONS ->SPIN.DEN
     1   C       0.03284    0.51087      0.54372    0.54372
     2   N       0.00470    1.43130      1.43600    1.43600
     3   H       0.00345                 0.00345    0.00345
     4   H       0.00335                 0.00335    0.00335
     5   H       0.00400                 0.00400    0.00400
     6   H       0.00730                 0.00730    0.00730
     7   H       0.00219                 0.00219    0.00219

 Active orbital charges, AO contributions:

   CEN ATOM SHL      SPHERICAL COMPONENTS
     1   C  1s       0.00004
     1   C  2s       0.03280
     1   C  2p       0.50889    0.00183    0.00016

     2   N  1s       0.00003
     2   N  2s       0.00467
     2   N  2p       0.42306    0.00923    0.99901

     3   H  1s       0.00345

     4   H  1s       0.00335

     5   H  1s       0.00400

     6   H  1s       0.00730

     7   H  1s       0.00219

 Summary of localized orbital composition:   [THRPRINT= 0.020]

   ORB  GRP  ORB.ENERGY      CENTERS/CHARGES
     1   1   -14.235327      N  2   2.000
     2   1   -10.081160      C  1   2.000
     3   1    -0.671483      N  2   1.251   H  7   0.747
     4   1    -0.568114      N  2   1.927   C  1   0.047   H  6   0.026
     5   1    -0.543733      C  1   1.156   H  3   0.836
     6   1    -0.543719      C  1   1.156   H  4   0.836
     7   1    -0.543577      C  1   1.160   H  5   0.830
     8   1    -0.507781      N  2   0.783   H  6   0.751   C  1   0.461
     9   2    -0.211307      N  2   0.999
    10   2    -0.167641      C  1   0.544   N  2   0.437

 Localized orbitals saved to record      2100.2  (orbital set 2)


 **********************************************************************************************************************************
 DATASETS  * FILE   NREC   LENGTH (MB)   RECORD NAMES
              1      20      951.15       500      610      700      900      950      970     1000      129      960     1100   
                                          VAR    BASINP    GEOM    SYMINP    ZMAT    AOBASIS   BASIS     P2S    ABASIS      S 
                                         1400     1410     1200     1210     1080     1600     1650     1300     1700     1800   
                                           T        V       H0       H01     AOSYM     SMH    MOLCAS    ERIS     OPER     GRID   

              2       5        4.44       700     1000      520     1800     2100   
                                         GEOM     BASIS   MCVARS    GRID      RKS  

 PROGRAMS   *        TOTAL      IBBA        KS       INT
 CPU TIMES  *        92.33      0.05     75.38     16.77
 REAL TIME  *       176.24 SEC
 DISK USED  *         3.82 GB      
 **********************************************************************************************************************************
 Molecular orbitals read from record     2100.2  Type=RKS/LOCAL(IBO)  
 Occupation numbers read from record     2100.2  Type=RKS/LOCAL(IBO)  
 Orbital energies read from record       2100.2  Type=RKS/LOCAL(IBO)  
 Redundancy group numbers read from rec  2100.2  Type=RKS/LOCAL(IBO)  

 IBBA/aug-cc-pVTZ energy=      0.000000000000

        KS-SCF  
    -95.70862544
 **********************************************************************************************************************************
 Molpro calculation terminated
