
 Primary working directories    : /local/molpro.XtTNQOwUsE
 Secondary working directories  : /local/molpro.XtTNQOwUsE
 Wavefunction directory         : /local/
 Main file repository           : /local/molpro.XtTNQOwUsE/

 id        : simonbennie

 Nodes     nprocs
 node32-012    1

 Using customized tuning parameters: mindgm=1; mindgv=20; mindgc=4; mindgr=1; noblas=0; minvec=7
 default implementation of scratch files=df  

 memory,500,m
 geomtyp=xyz
 nosym
 noorient
 geometry={
 C         -1.19958       -0.01113       -0.00003
 N          1.40071        0.12986        0.00002
 H         -1.42666       -0.51293        0.93306
 H         -1.41991       -0.59138       -0.88814
 H         -1.52024        1.02281       -0.04578
 H          0.18893        0.12690        0.00100
 H          1.57034       -0.88767       -0.00005
 }
 basis={default,sto-3g}
 {hf,direct;wf,18,1,2}
 
 basis={ default,6-31+G(d,p) }
 {ks,MM06,direct;wf,18,1,2}
 {ibba,bonds=1}

 Variables initialized (920), CPU time= 0.01 sec
 Commands  initialized (754), CPU time= 0.01 sec, 615 directives.
 Default parameters read. Elapsed time= 0.09 sec

 Checking input...
 Passed
1


                                         ***  PROGRAM SYSTEM MOLPRO  ***
                                       Copyright, TTI GmbH Stuttgart, 2015
                                    Version 2018.0 linked Jul  6 2018 18:07:13


 **********************************************************************************************************************************
 LABEL *                                                                                 
  64 bit serial version                                                                  DATE: 10-Oct-18          TIME: 19:17:38  
 **********************************************************************************************************************************

 SHA1:             b58f8fddb9d75525be9261ebe3faf0e4279c479b
 **********************************************************************************************************************************
 SETTING GEOMTYP        =    XYZ

 Variable memory set to  500000000 words,  buffer space 

 ZSYMEL=NOSYM

 SETTING BASIS          =    STO-3G


 Recomputing integrals since basis changed


 Using spherical harmonics

 Library entry C      S STO-3G               selected for orbital group  1
 Library entry C      P STO-3G               selected for orbital group  1
 Library entry N      S STO-3G               selected for orbital group  2
 Library entry N      P STO-3G               selected for orbital group  2
 Library entry H      S STO-3G               selected for orbital group  3


 PROGRAM * SEWARD (Integral evaluation for generally contracted gaussian basis sets)     Author: Roland Lindh, 1990

 Geometry written to block  1 of record 700


 Point group  C1  



 ATOMIC COORDINATES

 NR  ATOM    CHARGE       X              Y              Z

   1  C       6.00   -2.266877665   -0.021032652   -0.000056692
   2  N       7.00    2.646958280    0.245399835    0.000037795
   3  H       1.00   -2.695996673   -0.969297221    1.763227858
   4  H       1.00   -2.683241022   -1.117546236   -1.678341360
   5  H       1.00   -2.872837244    1.932830777   -0.086511662
   6  H       1.00    0.357025957    0.239806245    0.001889726
   7  H       1.00    2.967512522   -1.677453189   -0.000094486

 Bond lengths in Bohr (Angstrom)

 1-3  2.047564705  1-4  2.047520430  1-5  2.047496953  1-6  2.636837297  2-6  2.289939904
     ( 1.083524580)     ( 1.083501151)     ( 1.083488727)     ( 1.395354207)     ( 1.211784011)

 2-7  1.949389338
     ( 1.031572413)

 Bond angles

  1-6-2  174.46219800   3-1-4  114.53404293   3-1-5  114.59980605   3-1-6  104.69797988

  4-1-5  114.59807310   4-1-6  104.82888405   5-1-6  101.54476811   6-2-7   99.32464965

 NUCLEAR CHARGE:                   18
 NUMBER OF PRIMITIVE AOS:          45
 NUMBER OF SYMMETRY AOS:           45
 NUMBER OF CONTRACTIONS:           15   (  15A   )
 NUMBER OF CORE ORBITALS:           2   (   2A   )
 NUMBER OF VALENCE ORBITALS:       13   (  13A   )


 NUCLEAR REPULSION ENERGY   33.45955816


 Eigenvalues of metric

         1 0.234E+00 0.315E+00 0.356E+00 0.357E+00 0.387E+00 0.835E+00 0.914E+00 0.993E+00


 Contracted 2-electron integrals neglected if value below      1.0D-11
 AO integral compression algorithm  1   Integral accuracy      1.0D-11

     0.262 MB (compressed) written to integral file (100.0%)


 NUMBER OF SORTED TWO-ELECTRON INTEGRALS:       7260.     BUFFER LENGTH:  32768
 NUMBER OF SEGMENTS:   1  SEGMENT LENGTH:       7260      RECORD LENGTH: 524288

 Memory used in sort:       0.56 MW

 SORT1 READ        9024. AND WROTE        6928. INTEGRALS IN      1 RECORDS. CPU TIME:     0.00 SEC, REAL TIME:     0.01 SEC
 SORT2 READ        6928. AND WROTE        7260. INTEGRALS IN      1 RECORDS. CPU TIME:     0.00 SEC, REAL TIME:     0.00 SEC

 FILE SIZES:   FILE 1:    30.3 MBYTE,  FILE 4:     4.2 MBYTE,   TOTAL:     34.5 MBYTE

 OPERATOR DM      FOR CENTER  0  COORDINATES:    0.000000    0.000000    0.000000


 **********************************************************************************************************************************
 DATASETS  * FILE   NREC   LENGTH (MB)   RECORD NAMES
              1      19       30.09       500      610      700      900      950      970     1000      129      960     1100   
                                          VAR    BASINP    GEOM    SYMINP    ZMAT    AOBASIS   BASIS     P2S    ABASIS      S 
                                         1400     1410     1200     1210     1080     1600     1650     1300     1700   
                                           T        V       H0       H01     AOSYM     SMH    MOLCAS    ERIS     OPER   

 PROGRAMS   *        TOTAL       INT
 CPU TIMES  *         0.42      0.28
 REAL TIME  *         0.69 SEC
 DISK USED  *        34.91 MB
 **********************************************************************************************************************************


 PROGRAM * RHF-SCF (OPEN SHELL)       Authors: W. Meyer, H.-J. Werner


 NUMBER OF ELECTRONS:      10+    8-    SPACE SYMMETRY=1    SPIN SYMMETRY: Triplet 
 CONVERGENCE THRESHOLDS:    1.00E-05 (Density)    1.00E-07 (Energy)
 INTEGRAL THRESHOLDS:       1.00E-11 (Initial)    1.00E-11 (Final)
 MAX. NUMBER OF ITERATIONS:       60
 INTERPOLATION TYPE:            DIIS
 INTERPOLATION STEPS:              2 (START)      1 (STEP)
 LEVEL SHIFTS:                 -0.60 (CLOSED) -0.30 (OPEN) 



 Orbital guess generated from atomic densities. Full valence occupancy:    9

 Molecular orbital dump at record        2100.2

 Initial alpha occupancy:  10
 Initial beta  occupancy:   8
 Wave function symmetry:    1

 Direct Fock-matrix evaluation.        Author: H.-J. Werner (1996)

 Integral Threshold:                  0.1D-10

 ITERATION   DDIFF            GRAD            ENERGY        2-EL.EN.            DIPOLE MOMENTS         DIIS   CPU(IT)  CPU(TOT)
    1      0.000D+00      0.000D+00       -93.86102830    133.921789   -0.16791   -0.78307    0.00022    0      0.8      1.5     start
    2      0.000D+00      0.164D-01       -93.88673110    132.621959   -0.22253   -0.62845    0.00022    1      0.4      1.9     diag,B
    3      0.250D-01      0.506D-02       -93.89008177    132.137643   -0.21101   -0.53548    0.00020    2      0.4      2.3     diag,B
    4      0.104D-01      0.117D-02       -93.89040739    132.078733   -0.22352   -0.51520    0.00018    3      0.4      2.7     diag,B
    5      0.274D-02      0.437D-03       -93.89050118    132.079077   -0.23902   -0.51174    0.00017    4      0.4      3.1     diag,B
    6      0.139D-02      0.167D-03       -93.89052288    132.078496   -0.24525   -0.51262    0.00017    5      0.4      3.5     diag,B
    7      0.675D-03      0.584D-04       -93.89052552    132.077591   -0.24704   -0.51312    0.00017    6      0.4      3.9     fixocc
    8      0.283D-03      0.216D-04       -93.89052589    132.077572   -0.24793   -0.51326    0.00017    7      0.4      4.3     diag,B
    9      0.102D-03      0.145D-04       -93.89052611    132.077776   -0.24896   -0.51326    0.00017    8      0.4      4.7     diag,B
   10      0.709D-04      0.114D-04       -93.89052644    132.078241   -0.25182   -0.51326    0.00017    9      0.4      5.1     orth
   11      0.181D-03      0.420D-05       -93.89052648    132.078459   -0.25317   -0.51324    0.00017    9      0.4      5.5     diag,B
   12      0.819D-04      0.273D-06       -93.89052648    132.078455   -0.25317   -0.51324    0.00017    9      0.4      5.9     diag,B
   13      0.377D-06      0.131D-06       -93.89052648    132.078454   -0.25317   -0.51324    0.00017    0      0.4      6.3     orth

 Final alpha occupancy:  10
 Final beta  occupancy:   8

 !RHF STATE  1.1 Energy               -93.890526476375
 Nuclear energy                        33.45955816
 One-electron energy                 -193.38931182
 Two-electron energy                   66.03922718
 Virial quotient                       -1.00322798
 !RHF STATE  1.1 Dipole moment         -0.25317193    -0.51323937     0.00016786
 Dipole moment /Debye                  -0.64345671    -1.30443891     0.00042664

 Orbital energies:

         1.1          2.1          3.1          4.1          5.1          6.1          7.1          8.1          9.1         10.1
    -15.326650   -11.019489    -1.024369    -0.879880    -0.546017    -0.532872    -0.528514    -0.414739    -0.458145    -0.307651

        11.1         12.1
      0.628664     0.659268


 HOMO     10.1    -0.307651 =      -8.3716eV
 LUMO     11.1     0.628664 =      17.1068eV
 LUMO-HOMO         0.936315 =      25.4784eV


 **********************************************************************************************************************************
 DATASETS  * FILE   NREC   LENGTH (MB)   RECORD NAMES
              1      19       30.09       500      610      700      900      950      970     1000      129      960     1100   
                                          VAR    BASINP    GEOM    SYMINP    ZMAT    AOBASIS   BASIS     P2S    ABASIS      S 
                                         1400     1410     1200     1210     1080     1600     1650     1300     1700   
                                           T        V       H0       H01     AOSYM     SMH    MOLCAS    ERIS     OPER   

              2       4        2.85       700     1000      520     2100   
                                         GEOM     BASIS   MCVARS     RHF  

 PROGRAMS   *        TOTAL    HF-SCF       INT
 CPU TIMES  *         6.75      6.34      0.28
 REAL TIME  *         8.01 SEC
 DISK USED  *        34.91 MB
 **********************************************************************************************************************************
 SETTING BASIS          =    6-31+G(D,P)


 Recomputing integrals since basis changed


 Using spherical harmonics

 Library entry C      S 6-31G                selected for orbital group  1
 Library entry C      S 6-31++G              selected for orbital group  1
 Library entry C      P 6-31G                selected for orbital group  1
 Library entry C      P 6-31++G              selected for orbital group  1
 Library entry C      D 6-31G*               selected for orbital group  1
 Library entry N      S 6-31G                selected for orbital group  2
 Library entry N      S 6-31++G              selected for orbital group  2
 Library entry N      P 6-31G                selected for orbital group  2
 Library entry N      P 6-31++G              selected for orbital group  2
 Library entry N      D 6-31G*               selected for orbital group  2
 Library entry H      S 6-31G                selected for orbital group  3
 Library entry H      P 6-31G**              selected for orbital group  3


 PROGRAM * SEWARD (Integral evaluation for generally contracted gaussian basis sets)     Author: Roland Lindh, 1990

 Geometry written to block  1 of record 700


 Point group  C1  



 ATOMIC COORDINATES

 NR  ATOM    CHARGE       X              Y              Z

   1  C       6.00   -2.266877665   -0.021032652   -0.000056692
   2  N       7.00    2.646958280    0.245399835    0.000037795
   3  H       1.00   -2.695996673   -0.969297221    1.763227858
   4  H       1.00   -2.683241022   -1.117546236   -1.678341360
   5  H       1.00   -2.872837244    1.932830777   -0.086511662
   6  H       1.00    0.357025957    0.239806245    0.001889726
   7  H       1.00    2.967512522   -1.677453189   -0.000094486

 Bond lengths in Bohr (Angstrom)

 1-3  2.047564705  1-4  2.047520430  1-5  2.047496953  1-6  2.636837297  2-6  2.289939904
     ( 1.083524580)     ( 1.083501151)     ( 1.083488727)     ( 1.395354207)     ( 1.211784011)

 2-7  1.949389338
     ( 1.031572413)

 Bond angles

  1-6-2  174.46219800   3-1-4  114.53404293   3-1-5  114.59980605   3-1-6  104.69797988

  4-1-5  114.59807310   4-1-6  104.82888405   5-1-6  101.54476811   6-2-7   99.32464965

 NUCLEAR CHARGE:                   18
 NUMBER OF PRIMITIVE AOS:          99
 NUMBER OF SYMMETRY AOS:           97
 NUMBER OF CONTRACTIONS:           61   (  61A   )
 NUMBER OF CORE ORBITALS:           2   (   2A   )
 NUMBER OF VALENCE ORBITALS:       13   (  13A   )


 NUCLEAR REPULSION ENERGY   33.45955816


 Eigenvalues of metric

         1 0.656E-02 0.105E-01 0.281E-01 0.389E-01 0.530E-01 0.531E-01 0.106E+00 0.122E+00


 Contracted 2-electron integrals neglected if value below      1.0D-11
 AO integral compression algorithm  1   Integral accuracy      1.0D-11

     8.126 MB (compressed) written to integral file ( 46.2%)


 NUMBER OF SORTED TWO-ELECTRON INTEGRALS:    1788886.     BUFFER LENGTH:  32768
 NUMBER OF SEGMENTS:   1  SEGMENT LENGTH:    1788886      RECORD LENGTH: 524288

 Memory used in sort:       2.35 MW

 SORT1 READ     2141389. AND WROTE     1670914. INTEGRALS IN      5 RECORDS. CPU TIME:     0.03 SEC, REAL TIME:     0.05 SEC
 SORT2 READ     1670914. AND WROTE     1788886. INTEGRALS IN     31 RECORDS. CPU TIME:     0.08 SEC, REAL TIME:     0.09 SEC

 FILE SIZES:   FILE 1:    38.3 MBYTE,  FILE 4:    21.0 MBYTE,   TOTAL:     59.3 MBYTE

 OPERATOR DM      FOR CENTER  0  COORDINATES:    0.000000    0.000000    0.000000


 **********************************************************************************************************************************
 DATASETS  * FILE   NREC   LENGTH (MB)   RECORD NAMES
              1      19       36.69       500      610      700      900      950      970     1001      129      960     1100   
                                          VAR    BASINP    GEOM    SYMINP    ZMAT    AOBASIS   BASIS     P2S    ABASIS      S 
                                         1400     1410     1200     1210     1080     1600     1650     1300     1700   
                                           T        V       H0       H01     AOSYM     SMH    MOLCAS    ERIS     OPER   

              2       5        2.87       700     1000      520     2100     1001   
                                         GEOM     BASIS   MCVARS     RHF     BASIS   

 PROGRAMS   *        TOTAL       INT    HF-SCF       INT
 CPU TIMES  *         7.24      0.49      6.34      0.28
 REAL TIME  *         8.62 SEC
 DISK USED  *        62.25 MB
 **********************************************************************************************************************************

 Density functional group MM06=M06X+M06C
 Functional: M06X(Automatically generated (new) M06X)                          Gradient terms: 2
 Functional: M06C(Automatically generated (new) M06C)                          Gradient terms: 2
 Use libxcgrid:  F
 Use grid at  1800.2


 Exact exchange will be calculated, factor:  0.2700

 Functional: M06X                      Factor:  0.7300
 Functional: M06C                      Factor:  1.0000

 Generated new metagrid on record  1800.2 with target accuracy 1.0D-06 and 23050 points in CPU time    0.5
 Computed new grid on record 1800.1 in CPU time    0.5
   98893 words reserved for DFT integration

 PROGRAM * RKS-SCF (Restricted open shell Kohn-Sham)     Authors: W. Meyer, H.-J. Werner, P.J. Knowles, 1993

 NUMBER OF ELECTRONS:      10+    8-    SPACE SYMMETRY=1    SPIN SYMMETRY: Triplet 
 CONVERGENCE THRESHOLDS:    1.00E-05 (Density)    1.00E-06 (Energy)
 MAX. NUMBER OF ITERATIONS:       60
 INTERPOLATION TYPE:            DIIS
 INTERPOLATION STEPS:              2 (START)      1 (STEP)
 LEVEL SHIFTS:                 -0.60 (CLOSED) -0.30 (OPEN) 



 Use fine grid record 1800.2 for energy threshold  1.0D-06
 Molecular orbitals read from record     2100.2  Type=RHF/CANONICAL (state 1.1)

 Present basis size:      61
 Previous basis size:     15
 Previous occupation:     10
 Previous closed-shells:   8
 Previous core-orbitals:   2
 Present occupation:      10
 Present closed-shells:    8
 Present core-orbitals:    2
 Wavefunction symmetry:    1   Triplet 

 Orbital overlap <old|new>:  < 1.1| 1.1> = 0.999840   < 2.1| 2.1> = 0.999833   < 3.1| 3.1> = 0.999799   < 4.1| 4.1> = 0.999884
                             < 5.1| 5.1> = 0.999259   < 6.1| 6.1> = 0.999593   < 7.1| 7.1> = 0.999522   < 8.1| 8.1> = 0.998576
                             < 9.1| 9.1> = 0.996911   <10.1|10.1> = 0.998074


 Molecular orbital dump at record        2101.2

 ITERATION    DDIFF          GRAD             ENERGY        2-EL.EN.            DIPOLE MOMENTS         DIIS   ORB.
    1      0.000D+00      0.000D+00       -92.83672848    152.962532   -0.25058   -0.50638    0.00015    0    start
    2      0.000D+00      0.200D-01       -93.00097099    148.874220   -0.10425   -0.38266   -0.00023    1    diag,B
    3      0.138D-01      0.483D-02       -93.02015560    149.444149   -0.38181   -0.53623   -0.00013    2    diag,B
    4      0.559D-02      0.200D-02       -93.02518134    148.908476   -0.32241   -0.54980   -0.00015    3    diag,B
    5      0.247D-02      0.984D-03       -93.02677356    148.836091   -0.39857   -0.58799   -0.00011    4    diag,B
    6      0.187D-02      0.383D-03       -93.02709581    148.813868   -0.41535   -0.60515   -0.00010    5    diag,B
    7      0.108D-02      0.126D-03       -93.02713522    148.794567   -0.42525   -0.60966   -0.00010    6    diag,B
    8      0.372D-03      0.478D-04       -93.02714253    148.796292   -0.42994   -0.61123   -0.00011    7    orth
    9      0.159D-03      0.173D-04       -93.02714374    148.796608   -0.43260   -0.61192   -0.00011    8    diag,B
   10      0.662D-04      0.652D-05       -93.02714395    148.796658   -0.43392   -0.61223   -0.00011    9    diag,B
   11      0.271D-04      0.227D-05       -93.02714398    148.796562   -0.43436   -0.61237   -0.00011    9    diag,B
   12      0.845D-05      0.802D-06       -93.02714398    148.796596   -0.43443   -0.61239   -0.00010    0    orth

 Final alpha occupancy:  10
 Final beta  occupancy:   8

 !RKS STATE  1.1 Energy               -93.027143981622
 Nuclear energy                        33.45955816
 One-electron energy                 -193.23975872
 Two-electron energy                   74.39829779
 Density functional                    -7.64524121     M06X=-9.58795396 M06C=-0.64603482
 Virial quotient                       -0.98938634
 !RKS STATE  1.1 Dipole moment         -0.43442950    -0.61239200    -0.00010496
 Dipole moment /Debye                  -1.10413733    -1.55644325    -0.00026677

 Orbital energies:

         1.1          2.1          3.1          4.1          5.1          6.1          7.1          8.1          9.1         10.1
    -14.064237    -9.919514    -0.765314    -0.638273    -0.403172    -0.371092    -0.369535    -0.295579    -0.261493    -0.182670

        11.1         12.1
      0.018736     0.042809


 HOMO     10.1    -0.182670 =      -4.9707eV
 LUMO     11.1     0.018736 =       0.5098eV
 LUMO-HOMO         0.201406 =       5.4805eV


 **********************************************************************************************************************************
 DATASETS  * FILE   NREC   LENGTH (MB)   RECORD NAMES
              1      20       37.42       500      610      700      900      950      970     1001      129      960     1100   
                                          VAR    BASINP    GEOM    SYMINP    ZMAT    AOBASIS   BASIS     P2S    ABASIS      S 
                                         1400     1410     1200     1210     1080     1600     1650     1300     1700     1800   
                                           T        V       H0       H01     AOSYM     SMH    MOLCAS    ERIS     OPER     GRID   

              2       7        5.47       700     1000      520     2100     1001     1800     2101   
                                         GEOM     BASIS   MCVARS     RHF     BASIS    GRID      RKS  

 PROGRAMS   *        TOTAL    KS-SCF       INT    HF-SCF       INT
 CPU TIMES  *        11.69      4.44      0.49      6.34      0.28
 REAL TIME  *        13.38 SEC
 DISK USED  *        62.25 MB
 **********************************************************************************************************************************


 PROGRAM * Intrinsic Basis Bonding Analysis (IBBA)          Author: G. Knizia

 Molecular orbitals read from record     2101.2  Type=RKS/CANONICAL (state 1.1)
 Fock matrix read from record            2101.2  Type=RKS/TOTAL (state 1.1)
 Orbital energies read from record       2101.2  Type=RKS/CANONICAL (state 1.1)
 Density matrix read from record         2101.2  Type=RKS/CHARGE (state 1.1)

 Number of core orbitals:           2 (   2 )
 Number of closed-shell orbitals:   6 (   6 )
 Number of active  orbitals:        2 (   2 )

 Basis set MINAO-AUTO-PP generated.      Number of basis functions:   15 

 Polarized AO type:                A = (O Ot + (1-O)(1-Ot)) P12
 Orthogonalization method:         Symmetric (Loewdin)
 Localization functional:          L = sum[A,i] <i|n_A|i>^4 -> max

 Localization group 1:   8 orbitals, occupancy  2.000
 Iterative localization: IB/PM,    7 iter; Final gradient 0.17E-09

 Bond order analysis:       [THRPRINT= 0.020]

   CEN ATOM   CEN ATOM     WIBERG.BO      RENORM.BO
     1   C  -   4   H       0.967380       0.999645
     1   C  -   3   H       0.966992       0.999672
     1   C  -   5   H       0.963661       0.999678
     1   C  -   2   N       0.463016       2.003243
     1   C  -   6   H       0.331761       0.764844

     2   N  -   7   H       0.943745       0.999955
     2   N  -   6   H       0.624506       0.937631
     2   N  -   1   C       0.463016       2.003243

     3   H  -   1   C       0.966992       0.999672

     4   H  -   1   C       0.967380       0.999645

     5   H  -   1   C       0.963661       0.999678

     6   H  -   2   N       0.624506       0.937631
     6   H  -   1   C       0.331761       0.764844

     7   H  -   2   N       0.943745       0.999955


 Valency analysis:

   CEN ATOM   TOT.VALENCE
     1   C       3.693664
     2   N       2.054849
     3   H       0.977732
     4   H       0.977880
     5   H       0.975398
     6   H       0.961849
     7   H       0.944887
 Localization group 2:   2 orbitals, occupancy  1.000
 Iterative localization: IB/PM,    2 iter; Final gradient 0.20E-10

 Bond order analysis:       [THRPRINT= 0.020]

   CEN ATOM   CEN ATOM     WIBERG.BO      RENORM.BO
     1   C  -   2   N       0.475579       1.000000

     2   N  -   1   C       0.475579       1.000000







 Valency analysis:

   CEN ATOM   TOT.VALENCE
     1   C       0.496739
     2   N       0.495114
     3   H       0.007274
     4   H       0.007015
     5   H       0.007619
     6   H       0.012951
     7   H       0.006412

 Total charge composition:

   CEN ATOM         s          p       ELECTRONS ->P.CHARGE
     1   C       3.09535    3.39351      6.48885   -0.48885
     2   N       3.68424    3.69106      7.37531   -0.37531
     3   H       0.85442                 0.85442    0.14558
     4   H       0.85479                 0.85479    0.14521
     5   H       0.84698                 0.84698    0.15302
     6   H       0.81120                 0.81120    0.18880
     7   H       0.76845                 0.76845    0.23155

 Total charge composition, AO contributions:

   CEN ATOM SHL      SPHERICAL COMPONENTS
     1   C  1s       1.99319
     1   C  2s       1.10216
     1   C  2p       1.04248    1.17803    1.17300

     2   N  1s       1.99752
     2   N  2s       1.68672
     2   N  2p       1.24434    1.44537    1.00135

     3   H  1s       0.85442

     4   H  1s       0.85479

     5   H  1s       0.84698

     6   H  1s       0.81120

     7   H  1s       0.76845

 Active orbital charges:

   CEN ATOM         s          p       ELECTRONS ->SPIN.DEN
     1   C       0.03239    0.51151      0.54390    0.54390
     2   N       0.00508    1.43029      1.43537    1.43537
     3   H       0.00365                 0.00365    0.00365
     4   H       0.00352                 0.00352    0.00352
     5   H       0.00382                 0.00382    0.00382
     6   H       0.00652                 0.00652    0.00652
     7   H       0.00322                 0.00322    0.00322

 Active orbital charges, AO contributions:

   CEN ATOM SHL      SPHERICAL COMPONENTS
     1   C  1s       0.00003
     1   C  2s       0.03236
     1   C  2p       0.50953    0.00171    0.00027

     2   N  1s       0.00003
     2   N  2s       0.00504
     2   N  2p       0.42150    0.01033    0.99846

     3   H  1s       0.00365

     4   H  1s       0.00352

     5   H  1s       0.00382

     6   H  1s       0.00652

     7   H  1s       0.00322

 Summary of localized orbital composition:   [THRPRINT= 0.020]

   ORB  GRP  ORB.ENERGY      CENTERS/CHARGES
     1   1   -13.948186      N  2   2.000
     2   1    -9.814496      C  1   2.000
     3   1    -0.621210      N  2   1.233   H  7   0.765
     4   1    -0.505568      N  2   1.921   C  1   0.050   H  6   0.028
     5   1    -0.490020      C  1   1.141   H  4   0.850
     6   1    -0.489813      C  1   1.141   H  3   0.849
     7   1    -0.488767      C  1   1.148   H  5   0.841
     8   1    -0.468649      N  2   0.773   H  6   0.760   C  1   0.464
     9   2    -0.163206      N  2   0.998
    10   2    -0.119377      C  1   0.544   N  2   0.437

 Localized orbitals saved to record      2101.2  (orbital set 2)


 **********************************************************************************************************************************
 DATASETS  * FILE   NREC   LENGTH (MB)   RECORD NAMES
              1      20       37.42       500      610      700      900      950      970     1001      129      960     1100   
                                          VAR    BASINP    GEOM    SYMINP    ZMAT    AOBASIS   BASIS     P2S    ABASIS      S 
                                         1400     1410     1200     1210     1080     1600     1650     1300     1700     1800   
                                           T        V       H0       H01     AOSYM     SMH    MOLCAS    ERIS     OPER     GRID   

              2       7        5.51       700     1000      520     2100     1001     1800     2101   
                                         GEOM     BASIS   MCVARS     RHF     BASIS    GRID      RKS  

 PROGRAMS   *        TOTAL      IBBA    KS-SCF       INT    HF-SCF       INT
 CPU TIMES  *        11.71      0.02      4.44      0.49      6.34      0.28
 REAL TIME  *        13.41 SEC
 DISK USED  *        62.25 MB
 **********************************************************************************************************************************

 IBBA/6-31+G(D,P) energy=      0.000000000000

          KS-SCF          HF-SCF
    -93.02714398    -93.89052648
 **********************************************************************************************************************************
 Molpro calculation terminated
