
 Primary working directories    : /local
 Secondary working directories  : /local
 Wavefunction directory         : /local/
 Main file repository           : /local/

 SHA1      : b4a5b34a9e711420743f49e6833241d17c61fb3c
 NAME      : 2099.9.b4a5b34
 ARCHNAME  : linux/x86_64_openmp
 FC        : /cm/shared/languages/GCC-6.1/bin/gfortran
 BLASLIB   : -lblas
 id        : simonbennie

 Nodes     nprocs
 node33-033    1

 Using customized tuning parameters: mindgm=1; mindgv=20; mindgc=4; mindgr=1; noblas=0; minvec=7
 default implementation of scratch files=df  

 memory,500,m
 geomtyp=xyz
 nosym
 noorient
 geometry={
 C         -1.19958       -0.01113       -0.00003
 N          1.40071        0.12986        0.00002
 H         -1.42666       -0.51293        0.93306
 H         -1.41991       -0.59138       -0.88814
 H         -1.52024        1.02281       -0.04578
 H          0.18893        0.12690        0.00100
 H          1.57034       -0.88767       -0.00005
 }
 basis={ default,avdz }
 {uhf,direct;wf,18,1,2}
 {uks,B-LYP,direct;maxit,0;wf,18,1,2}
 {ibba,bonds=1}

 Variables initialized (895), CPU time= 0.00 sec
 Commands  initialized (725), CPU time= 0.02 sec, 591 directives.
 Default parameters read. Elapsed time= 0.08 sec

 Checking input...
 Passed
1


                                         ***  PROGRAM SYSTEM MOLPRO  ***
                                       Copyright, TTI GmbH Stuttgart, 2015
                                    Version 2099.9 linked May 26 2017 16:03:21


 **********************************************************************************************************************************
 LABEL *                                                                                 
  64 bit serial version                                                                  DATE: 17-Mar-18          TIME: 02:30:06  
 **********************************************************************************************************************************

 SHA1:             b4a5b34a9e711420743f49e6833241d17c61fb3c
 **********************************************************************************************************************************
 SETTING GEOMTYP        =    XYZ

 Variable memory set to  500000000 words,  buffer space 

 ZSYMEL=NOSYM

 SETTING BASIS          =    AVDZ


 Recomputing integrals since basis changed


 Using spherical harmonics

 Library entry C      S aug-cc-pVDZ          selected for orbital group  1
 Library entry C      P aug-cc-pVDZ          selected for orbital group  1
 Library entry C      D aug-cc-pVDZ          selected for orbital group  1
 Library entry N      S aug-cc-pVDZ          selected for orbital group  2
 Library entry N      P aug-cc-pVDZ          selected for orbital group  2
 Library entry N      D aug-cc-pVDZ          selected for orbital group  2
 Library entry H      S aug-cc-pVDZ          selected for orbital group  3
 Library entry H      P aug-cc-pVDZ          selected for orbital group  3


 PROGRAM * SEWARD (Integral evaluation for generally contracted gaussian basis sets)     Author: Roland Lindh, 1990

 Geometry written to block  1 of record 700


 Point group  C1  



 ATOMIC COORDINATES

 NR  ATOM    CHARGE       X              Y              Z

   1  C       6.00   -2.266877665   -0.021032652   -0.000056692
   2  N       7.00    2.646958280    0.245399835    0.000037795
   3  H       1.00   -2.695996673   -0.969297221    1.763227858
   4  H       1.00   -2.683241022   -1.117546236   -1.678341360
   5  H       1.00   -2.872837244    1.932830777   -0.086511662
   6  H       1.00    0.357025957    0.239806245    0.001889726
   7  H       1.00    2.967512522   -1.677453189   -0.000094486

 Bond lengths in Bohr (Angstrom)

 1-3  2.047564705  1-4  2.047520430  1-5  2.047496953  1-6  2.636837297  2-6  2.289939904
     ( 1.083524580)     ( 1.083501151)     ( 1.083488727)     ( 1.395354207)     ( 1.211784011)

 2-7  1.949389338
     ( 1.031572413)

 Bond angles

  1-6-2  174.46219800   3-1-4  114.53404293   3-1-5  114.59980605   3-1-6  104.69797988

  4-1-5  114.59807310   4-1-6  104.82888405   5-1-6  101.54476811   6-2-7   99.32464965

 NUCLEAR CHARGE:                   18
 NUMBER OF PRIMITIVE AOS:         129
 NUMBER OF SYMMETRY AOS:          125
 NUMBER OF CONTRACTIONS:           91   (  91A   )
 NUMBER OF CORE ORBITALS:           2   (   2A   )
 NUMBER OF VALENCE ORBITALS:       13   (  13A   )


 NUCLEAR REPULSION ENERGY   33.45955816

 Eigenvalues of metric

         1 0.318E-03 0.615E-03 0.760E-03 0.793E-03 0.144E-02 0.204E-02 0.288E-02 0.570E-02


 Contracted 2-electron integrals neglected if value below      1.0D-11
 AO integral compression algorithm  1   Integral accuracy      1.0D-11

     44.564 MB (compressed) written to integral file ( 52.3%)


 NUMBER OF SORTED TWO-ELECTRON INTEGRALS:    8763391.     BUFFER LENGTH:  32768
 NUMBER OF SEGMENTS:   1  SEGMENT LENGTH:    8763391      RECORD LENGTH: 524288

 Memory used in sort:       9.32 MW

 SORT1 READ    10598304. AND WROTE     8678938. INTEGRALS IN     25 RECORDS. CPU TIME:     0.11 SEC, REAL TIME:     0.25 SEC
 SORT2 READ     8678938. AND WROTE     8763391. INTEGRALS IN    170 RECORDS. CPU TIME:     0.31 SEC, REAL TIME:     0.38 SEC

 FILE SIZES:   FILE 1:    74.9 MBYTE,  FILE 4:   104.9 MBYTE,   TOTAL:    179.8 MBYTE

 OPERATOR DM      FOR CENTER  0  COORDINATES:    0.000000    0.000000    0.000000


 **********************************************************************************************************************************
 DATASETS  * FILE   NREC   LENGTH (MB)   RECORD NAMES
              1      19       68.00       500      610      700      900      950      970     1000      129      960     1100   
                                          VAR    BASINP    GEOM    SYMINP    ZMAT    AOBASIS   BASIS     P2S    ABASIS      S 
                                         1400     1410     1200     1210     1080     1600     1650     1300     1700   
                                           T        V       H0       H01     AOSYM     SMH    MOLCAS    ERIS     OPER   

 PROGRAMS   *        TOTAL       INT
 CPU TIMES  *         1.29      1.15
 REAL TIME  *         1.85 SEC
 DISK USED  *       180.21 MB      
 **********************************************************************************************************************************


 PROGRAM * UHF-SCF       Authors: W. Meyer, H.-J. Werner


 NUMBER OF ELECTRONS:      10+    8-    SPACE SYMMETRY=1    SPIN SYMMETRY: Triplet 
 CONVERGENCE THRESHOLDS:    1.00E-05 (Density)    1.00E-07 (Energy)
 INTEGRAL THRESHOLDS:       1.00E-11 (Initial)    1.00E-11 (Final)
 MAX. NUMBER OF ITERATIONS:       60
 INTERPOLATION TYPE:            DIIS
 INTERPOLATION STEPS:              2 (START)      1 (STEP)
 LEVEL SHIFTS:                 -0.20 (ALPHA)  -0.20 (BETA) 



 Orbital guess generated from atomic densities. Full valence occupancy:   15

 Molecular orbital dump at record        2200.2

 Initial alpha occupation  10
 Initial beta  occupation   8

 Direct Fock-matrix evaluation.        Author: H.-J. Werner (1996)

 Integral Threshold:                  0.1D-10

 ITERATION   DDIFF            GRAD            ENERGY        2-EL.EN.            DIPOLE MOMENTS         DIIS   CPU(IT)  CPU(TOT)
    1      0.000D+00      0.000D+00       -95.06121363    130.544356   -0.17698   -0.70146    0.00037    0      1.4      2.5
    2      0.615D-02      0.249D-02       -95.09515589    130.827472   -0.34581   -0.60458    0.00017    1      1.0      3.5
    3      0.282D-02      0.121D-02       -95.10493206    130.922785   -0.38844   -0.56318    0.00009    2      1.0      4.5
    4      0.159D-02      0.593D-03       -95.10853573    130.996044   -0.43342   -0.55720    0.00007    3      1.0      5.5
    5      0.860D-03      0.257D-03       -95.10931325    130.993078   -0.45624   -0.56299    0.00007    4      1.0      6.4
    6      0.419D-03      0.113D-03       -95.10949912    130.989647   -0.47128   -0.56591    0.00008    5      1.0      7.4
    7      0.204D-03      0.579D-04       -95.10955983    130.985988   -0.48351   -0.56723    0.00009    6      1.0      8.4
    8      0.123D-03      0.293D-04       -95.10957970    130.988234   -0.49443   -0.56828    0.00009    7      1.0      9.3
    9      0.687D-04      0.133D-04       -95.10958385    130.987138   -0.50094   -0.56865    0.00010    8      1.0     10.3
   10      0.402D-04      0.703D-05       -95.10958505    130.987723   -0.50517   -0.56882    0.00010    8      1.0     11.3
   11      0.248D-04      0.342D-05       -95.10958538    130.987577   -0.50790   -0.56886    0.00010    8      1.0     12.2
   12      0.804D-05      0.107D-05       -95.10958541    130.987620   -0.50865   -0.56887    0.00010    8      1.0     13.2
   13      0.189D-05      0.385D-06       -95.10958541    130.987650   -0.50868   -0.56887    0.00010    8      1.0     14.2
   14      0.112D-05      0.207D-06       -95.10958541    130.987643   -0.50872   -0.56887    0.00010    9      1.0     15.1

 Final alpha occupancy:  10
 Final beta  occupancy:   8

 !UHF STATE 1.1 Energy                -95.109585411263
 Nuclear energy                        33.45955816
 One-electron energy                 -194.06296497
 Two-electron energy                   65.49382140
 Virial quotient                       -1.00115609
 !UHF STATE 1.1 Dipole moment          -0.50871814    -0.56887181     0.00010265
 Dipole moment /Debye                  -1.29294784    -1.44583320     0.00026090

 Orbital energies for positive spin:

         1.1          2.1          3.1          4.1          5.1          6.1          7.1          8.1          9.1         10.1
    -15.615414   -11.251097    -1.169433    -0.967720    -0.647907    -0.582719    -0.581695    -0.541086    -0.518141    -0.392104

        11.1         12.1
      0.032959     0.053144

 Orbital energies for negative spin:

         1.1          2.1          3.1          4.1          5.1          6.1          7.1          8.1          9.1         10.1
    -15.564600   -11.231211    -0.988775    -0.893758    -0.574185    -0.568424    -0.555622    -0.431426     0.033925     0.045515

        11.1         12.1
      0.054588     0.060779

 HOMO     10.1    -0.392104 =     -10.6697eV
 LUMO     11.1     0.032959 =       0.8969eV
 LUMO-HOMO         0.425064 =      11.5666eV

 EXPECTATION VALUE OF S**2:             2.05672964

 Occupation number threshold for canonical orbitals:  1.999000 (occupied),  0.001000 (virtual)

 Number of pseudo-canonical orbitals per symmetry:    4
 Number of active natural orbitals per symmetry:     10

 Natural orbitals saved to record    2200.2 (Orbital set 3)

 Orbital spaces for UNO-CAS (Min. occupation: 0.020  Max. occupation: 1.980):

 Closed:        7
 Active:        4


 **********************************************************************************************************************************
 DATASETS  * FILE   NREC   LENGTH (MB)   RECORD NAMES
              1      19       68.00       500      610      700      900      950      970     1000      129      960     1100   
                                          VAR    BASINP    GEOM    SYMINP    ZMAT    AOBASIS   BASIS     P2S    ABASIS      S 
                                         1400     1410     1200     1210     1080     1600     1650     1300     1700   
                                           T        V       H0       H01     AOSYM     SMH    MOLCAS    ERIS     OPER   

              2       4        3.19       700     1000      520     2200   
                                         GEOM     BASIS   MCVARS     UHF  

 PROGRAMS   *        TOTAL       UHF       INT
 CPU TIMES  *        16.45     15.16      1.15
 REAL TIME  *        24.41 SEC
 DISK USED  *       180.21 MB      
 **********************************************************************************************************************************

 Density functional group B-LYP=B88+LYP
 Functional: B88(Automatically generated (new) B88)                            Gradient terms: 1
 Functional: LYP(Automatically generated (new) LYP)                            Gradient terms: 1
 Use grid at  1800.2

 Functional: B88                       Factor:  1.0000
 Functional: LYP                       Factor:  1.0000

 Generated new metagrid on record  1800.2 with target accuracy 1.0D-06 and 23050 points in CPU time    0.5
 Computed new grid on record 1800.1 in CPU time    0.5
   76285 words reserved for DFT integration

 PROGRAM * UKS-SCF (Unrestricted Kohn-Sham)     Authors: W. Meyer, H.-J. Werner, P.J. Knowles, 1993

 NUMBER OF ELECTRONS:      10+    8-    SPACE SYMMETRY=1    SPIN SYMMETRY: Triplet 
 CONVERGENCE THRESHOLDS:    1.00E-05 (Density)    1.00E-06 (Energy)
 MAX. NUMBER OF ITERATIONS:        0
 INTERPOLATION TYPE:            DIIS
 INTERPOLATION STEPS:              2 (START)      1 (STEP)
 LEVEL SHIFTS:                 -0.20 (ALPHA)  -0.20 (BETA) 



 Use fine grid record 1800.2 for energy threshold  1.0D-06
 Molecular orbitals read from record     2200.2  Type=UHF/ALPHA (state 1.1)
 Molecular orbitals read from record     2200.2  Type=UHF/BETA (state 1.1)

 Molecular orbital dump at record        2201.2

 Initial alpha occupation  10
 Initial beta  occupation   8

 ITERATION    DDIFF          GRAD             ENERGY        2-EL.EN.            DIPOLE MOMENTS         DIIS
    1      0.000D+00      0.000D+00       -95.65165255    157.966726   -0.50872   -0.56887    0.00010    0

 Final alpha occupancy:  10
 Final beta  occupancy:   8

 !UKS STATE 1.1 Energy                -95.651652552435
 Nuclear energy                        33.45955816
 One-electron energy                 -194.06296497
 Two-electron energy                   78.98336318
 Density functional                   -14.03160893     B88=-13.48862627 LYP= -0.54298266
 Virial quotient                       -1.00686207
 !UKS STATE 1.1 Dipole moment          -0.50871814    -0.56887181     0.00010265
 Dipole moment /Debye                  -1.29294784    -1.44583320     0.00026090

 Orbital energies for positive spin:

         1.1          2.1          3.1          4.1          5.1          6.1          7.1          8.1          9.1         10.1
    -15.583769   -11.236189    -0.575077    -0.574655    -0.925108    -0.547594    -1.026037    -0.590584    -0.163990    -0.139390

        11.1         12.1
      0.649280     0.745912

 Orbital energies for negative spin:

         1.1          2.1          3.1          4.1          5.1          6.1          7.1          8.1          9.1         10.1
    -15.583769   -11.236189    -0.575077    -0.574655    -0.925108    -0.547594    -1.026037    -0.590584    -0.163990    -0.139390

        11.1         12.1
      0.649280     0.745912

 HOMO     10.1    -0.139390 =      -3.7930eV
 LUMO     -9.1    -0.163990 =      -4.4624eV
 LUMO-HOMO        -0.024600 =      -0.6694eV

 EXPECTATION VALUE OF S**2:             2.05672964

 Occupation number threshold for canonical orbitals:  1.999000 (occupied),  0.001000 (virtual)

 Number of pseudo-canonical orbitals per symmetry:    4
 Number of active natural orbitals per symmetry:     10

 Natural orbitals saved to record    2201.2 (Orbital set 3)

 Orbital spaces for UNO-CAS (Min. occupation: 0.020  Max. occupation: 1.980):

 Closed:        7
 Active:        4

 No convergence



 **********************************************************************************************************************************
 DATASETS  * FILE   NREC   LENGTH (MB)   RECORD NAMES
              1      20       68.73       500      610      700      900      950      970     1000      129      960     1100   
                                          VAR    BASINP    GEOM    SYMINP    ZMAT    AOBASIS   BASIS     P2S    ABASIS      S 
                                         1400     1410     1200     1210     1080     1600     1650     1300     1700     1800   
                                           T        V       H0       H01     AOSYM     SMH    MOLCAS    ERIS     OPER     GRID   

              2       6        6.02       700     1000      520     2200     1800     2201   
                                         GEOM     BASIS   MCVARS     UHF     GRID      UKS  

 PROGRAMS   *        TOTAL       UKS       UHF       INT
 CPU TIMES  *        17.62      1.16     15.16      1.15
 REAL TIME  *        25.60 SEC
 DISK USED  *       180.21 MB      
 **********************************************************************************************************************************


 PROGRAM * Intrinsic Basis Bonding Analysis (IBBA)          Author: G. Knizia

 Molecular orbitals read from record     2201.2  Type=UKS/ALPHA (state 1.1)
 Fock matrix read from record            2201.2  Type=UKS/TOTAL (state 1.1)
 Orbital energies read from record       2201.2  Type=UKS/ALPHA (state 1.1)
 Density matrix read from record         2201.2  Type=UKS/CHARGE (state 1.1)

 Number of core orbitals:           2 (   2 )
 Number of closed-shell orbitals:   6 (   6 )
 Number of active  orbitals:        2 (   2 )

 Basis set MINAO-AUTO-PP generated.      Number of basis functions:   15 

 Polarized AO type:                A = (O Ot + (1-O)(1-Ot)) P12
 Orthogonalization method:         Symmetric (Loewdin)
 Localization functional:          L = sum[A,i] <i|n_A|i>^4 -> max

 Localization group 1:   8 orbitals, occupancy  2.000
 Iterative localization: IB/PM,    6 iter; Final gradient 0.30E-08

 Bond order analysis:       [THRPRINT= 0.020]

   CEN ATOM   CEN ATOM     WIBERG.BO      RENORM.BO
     1   C  -   5   H       0.944739       0.999838
     1   C  -   4   H       0.929986       0.999755
     1   C  -   3   H       0.927456       0.999772
     1   C  -   2   N       0.533867       2.003107
     1   C  -   6   H       0.238344       0.759514

     2   N  -   7   H       0.901335       0.999968
     2   N  -   6   H       0.612400       0.898068
     2   N  -   1   C       0.533867       2.003107
     2   N  -   3   H       0.030411       0.525510
     2   N  -   4   H       0.028535       0.477615

     3   H  -   1   C       0.927456       0.999772
     3   H  -   2   N       0.030411       0.525510

     4   H  -   1   C       0.929986       0.999755
     4   H  -   2   N       0.028535       0.477615

     5   H  -   1   C       0.944739       0.999838

     6   H  -   2   N       0.612400       0.898068
     6   H  -   1   C       0.238344       0.759514

     7   H  -   2   N       0.901335       0.999968


 Valency analysis:

   CEN ATOM   TOT.VALENCE
     1   C       3.576479
     2   N       2.119943
     3   H       0.960883
     4   H       0.961480
     5   H       0.961888
     6   H       0.859627
     7   H       0.903594
 Localization group 2:   2 orbitals, occupancy  1.000
 Iterative localization: IB/PM,    2 iter; Final gradient 0.22E-11

 Bond order analysis:       [THRPRINT= 0.020]

   CEN ATOM   CEN ATOM     WIBERG.BO      RENORM.BO
     1   C  -   2   N       0.449762       1.000000

     2   N  -   1   C       0.449762       1.000000







 Valency analysis:

   CEN ATOM   TOT.VALENCE
     1   C       0.497652
     2   N       0.497719
     3   H       0.024463
     4   H       0.023252
     5   H       0.016808
     6   H       0.029311
     7   H       0.004083

 Total charge composition:

   CEN ATOM         s          p       ELECTRONS ->P.CHARGE
     1   C       3.16989    3.39305      6.56294   -0.56294
     2   N       3.72146    3.94048      7.66194   -0.66194
     3   H       0.81460                 0.81460    0.18540
     4   H       0.81550                 0.81550    0.18450
     5   H       0.81325                 0.81325    0.18675
     6   H       0.64021                 0.64021    0.35979
     7   H       0.69155                 0.69155    0.30845

 Total charge composition, AO contributions:

   CEN ATOM SHL      SPHERICAL COMPONENTS
     1   C  1s       1.99094
     1   C  2s       1.17894
     1   C  2p       1.01786    1.19590    1.17929

     2   N  1s       1.99679
     2   N  2s       1.72466
     2   N  2p       1.41414    1.50191    1.02444

     3   H  1s       0.81460

     4   H  1s       0.81550

     5   H  1s       0.81325

     6   H  1s       0.64021

     7   H  1s       0.69155

 Active orbital charges:

   CEN ATOM         s          p       ELECTRONS ->SPIN.DEN
     1   C       0.02152    0.60335      0.62487    0.62487
     2   N       0.00348    1.32210      1.32558    1.32558
     3   H       0.01238                 0.01238    0.01238
     4   H       0.01176                 0.01176    0.01176
     5   H       0.00848                 0.00848    0.00848
     6   H       0.01488                 0.01488    0.01488
     7   H       0.00205                 0.00205    0.00205

 Active orbital charges, AO contributions:

   CEN ATOM SHL      SPHERICAL COMPONENTS
     1   C  1s       0.00008
     1   C  2s       0.02144
     1   C  2p       0.58971    0.00188    0.01176

     2   N  1s       0.00004
     2   N  2s       0.00343
     2   N  2p       0.33963    0.00493    0.97754

     3   H  1s       0.01238

     4   H  1s       0.01176

     5   H  1s       0.00848

     6   H  1s       0.01488

     7   H  1s       0.00205

 Summary of localized orbital composition:   [THRPRINT= 0.020]

   ORB  GRP  ORB.ENERGY      CENTERS/CHARGES
     1   1   -13.917044      N  2   2.000
     2   1    -9.839661      C  1   2.000
     3   1    -0.617474      N  2   1.310   H  7   0.687
     4   1    -0.499872      N  2   1.934   C  1   0.039   H  6   0.026
     5   1    -0.495921      C  1   1.183   H  5   0.798
     6   1    -0.495169      C  1   1.166   H  4   0.798   N  2   0.023
     7   1    -0.495118      C  1   1.165   H  3   0.796   N  2   0.025
     8   1    -0.429914      N  2   1.042   H  6   0.551   C  1   0.386   (other: 0.021)
     9   2    -0.203102      N  2   0.978   (other: 0.022)
    10   2    -0.164576      C  1   0.613   N  2   0.348   (other: 0.039)

 Localized orbitals saved to record      2201.2  (orbital set 4)


 **********************************************************************************************************************************
 DATASETS  * FILE   NREC   LENGTH (MB)   RECORD NAMES
              1      20       68.73       500      610      700      900      950      970     1000      129      960     1100   
                                          VAR    BASINP    GEOM    SYMINP    ZMAT    AOBASIS   BASIS     P2S    ABASIS      S 
                                         1400     1410     1200     1210     1080     1600     1650     1300     1700     1800   
                                           T        V       H0       H01     AOSYM     SMH    MOLCAS    ERIS     OPER     GRID   

              2       6        6.09       700     1000      520     2200     1800     2201   
                                         GEOM     BASIS   MCVARS     UHF     GRID      UKS  

 PROGRAMS   *        TOTAL      IBBA       UKS       UHF       INT
 CPU TIMES  *        17.65      0.02      1.16     15.16      1.15
 REAL TIME  *        25.63 SEC
 DISK USED  *       180.21 MB      
 **********************************************************************************************************************************

 IBBA/aug-cc-pVDZ energy=      0.000000000000

        UKS-SCF         UHF-SCF 
    -95.65165255    -95.10958541
 **********************************************************************************************************************************
 Molpro calculation terminated
