
 Primary working directories    : /local
 Secondary working directories  : /local
 Wavefunction directory         : /local/
 Main file repository           : /local/

 SHA1      : b4a5b34a9e711420743f49e6833241d17c61fb3c
 NAME      : 2099.9.b4a5b34
 ARCHNAME  : linux/x86_64_openmp
 FC        : /cm/shared/languages/GCC-6.1/bin/gfortran
 BLASLIB   : -lblas
 id        : simonbennie

 Nodes     nprocs
 node32-008    1

 Using customized tuning parameters: mindgm=1; mindgv=20; mindgc=4; mindgr=1; noblas=0; minvec=7
 default implementation of scratch files=df  

 memory,500,m
 geomtyp=xyz
 nosym
 noorient
 geometry={
 C         -1.39498       -0.44966        0.00070
 C         -0.43575        0.71406        0.00203
 N          1.92757       -0.37835        0.00304
 H         -1.20009       -1.12095       -0.83569
 H         -1.32210       -1.02788        0.92177
 H         -2.42871       -0.10535       -0.08933
 H         -0.41769        1.30848       -0.90720
 H         -0.44113        1.32909        0.89747
 H          0.82850        0.18059       -0.02856
 H          2.47259        0.49807        0.00391
 }
 basis={ default,tzvp }
 {df-ks,BH-LYP,direct;disp;wf,26,1,2}
 {ibba,bonds=1}

 Variables initialized (895), CPU time= 0.00 sec
 Commands  initialized (725), CPU time= 0.01 sec, 591 directives.
 Default parameters read. Elapsed time= 0.08 sec

 Checking input...
 Passed
1


                                         ***  PROGRAM SYSTEM MOLPRO  ***
                                       Copyright, TTI GmbH Stuttgart, 2015
                                    Version 2099.9 linked May 26 2017 16:03:21


 **********************************************************************************************************************************
 LABEL *                                                                                 
  64 bit serial version                                                                  DATE: 17-Mar-18          TIME: 04:03:32  
 **********************************************************************************************************************************

 SHA1:             b4a5b34a9e711420743f49e6833241d17c61fb3c
 **********************************************************************************************************************************
 SETTING GEOMTYP        =    XYZ

 Variable memory set to  500000000 words,  buffer space 

 ZSYMEL=NOSYM

 SETTING BASIS          =    TZVP


 Recomputing integrals since basis changed


 Using spherical harmonics

 Library entry C      S def2-TZVP            selected for orbital group  1
 Library entry C      P def2-TZVP            selected for orbital group  1
 Library entry C      D def2-TZVP            selected for orbital group  1
 Library entry C      F def2-TZVP            selected for orbital group  1
 Library entry N      S def2-TZVP            selected for orbital group  2
 Library entry N      P def2-TZVP            selected for orbital group  2
 Library entry N      D def2-TZVP            selected for orbital group  2
 Library entry N      F def2-TZVP            selected for orbital group  2
 Library entry H      S def2-TZVP            selected for orbital group  3
 Library entry H      P def2-TZVP            selected for orbital group  3


 PROGRAM * SEWARD (Integral evaluation for generally contracted gaussian basis sets)     Author: Roland Lindh, 1990

 Geometry written to block  1 of record 700


 Point group  C1  



 ATOMIC COORDINATES

 NR  ATOM    CHARGE       X              Y              Z

   1  C       6.00   -2.636130149   -0.849734249    0.001322808
   2  C       6.00   -0.823448159    1.349377837    0.003836144
   3  N       7.00    3.642579386   -0.714977879    0.005744767
   4  H       1.00   -2.267841425   -2.118288499   -1.579225225
   5  H       1.00   -2.498406909   -1.942411689    1.741892850
   6  H       1.00   -4.589596736   -0.199082647   -0.168809235
   7  H       1.00   -0.789319705    2.472668839   -1.714359540
   8  H       1.00   -0.833614885    2.511616095    1.695972505
   9  H       1.00    1.565638094    0.341265641   -0.053970578
  10  H       1.00    4.672517918    0.941215891    0.007388829

 Bond lengths in Bohr (Angstrom)

 1-2  2.849897591  1-4  2.059854013  1-5  2.059731960  1-6  2.065992286  2-7  2.053081547
     ( 1.508100859)     ( 1.090027802)     ( 1.089963214)     ( 1.093276036)     ( 1.086443967)

  2- 8  2.052858153   2- 9  2.593716434   3- 9  2.330858517   3-10  1.950321483
       ( 1.086325752)       ( 1.372535628)       ( 1.233437209)       ( 1.032065683)

 Bond angles

  1-2-7  115.59591255   1-2-8  115.75024036   1-2-9  106.61454224   2-1-4  111.23354516

  2-1-5  111.47404485   2-1-6  111.00586724   2-9-3  175.08456843   4-1-5  108.04446468

  4-1-6  107.44676361   5-1-6  107.45054195   7-2-8  112.34332724   7-2-9  100.29346675

  8- 2- 9  104.06268725   9- 3-10   94.91995329

 NUCLEAR CHARGE:                   26
 NUMBER OF PRIMITIVE AOS:         209
 NUMBER OF SYMMETRY AOS:          194
 NUMBER OF CONTRACTIONS:          135   ( 135A   )
 NUMBER OF CORE ORBITALS:           3   (   3A   )
 NUMBER OF VALENCE ORBITALS:       19   (  19A   )


 NUCLEAR REPULSION ENERGY   71.85732166


 Eigenvalues of metric

         1 0.377E-03 0.709E-03 0.113E-02 0.241E-02 0.553E-02 0.564E-02 0.681E-02 0.717E-02


 OPERATOR DM      FOR CENTER  0  COORDINATES:    0.000000    0.000000    0.000000


 **********************************************************************************************************************************
 DATASETS  * FILE   NREC   LENGTH (MB)   RECORD NAMES
              1      18       30.80       500      610      700      900      950      970     1000      129      960     1100   
                                          VAR    BASINP    GEOM    SYMINP    ZMAT    AOBASIS   BASIS     P2S    ABASIS      S 
                                         1400     1410     1200     1210     1080     1600     1650     1700   
                                           T        V       H0       H01     AOSYM     SMH    MOLCAS    OPER   

 PROGRAMS   *        TOTAL       INT
 CPU TIMES  *         0.33      0.19
 REAL TIME  *         0.60 SEC
 DISK USED  *        31.26 MB      
 **********************************************************************************************************************************

 Density functional group BH-LYP=B88+LYP
 Functional: B88(Automatically generated (new) B88)                            Gradient terms: 1
 Functional: LYP(Automatically generated (new) LYP)                            Gradient terms: 1

 dispersion correction activated
 Density functional: BH-LYP  
 functional not in list, set to default 


 Exact exchange will be calculated, factor:  0.5000

 Functional: B88                       Factor:  0.5000
 Functional: LYP                       Factor:  1.0000

 Use grid at  1800.2


 Exact exchange will be calculated, factor:  0.5000

 Functional: B88                       Factor:  0.5000
 Functional: LYP                       Factor:  1.0000

 Generated new metagrid on record  1800.2 with target accuracy 1.0D-06 and 37146 points in CPU time    0.8
 Computed new grid on record 1800.1 in CPU time    0.8
  111389 words reserved for DFT integration

 PROGRAM * RKS-SCF (Restricted open shell Kohn-Sham)     Authors: W. Meyer, H.-J. Werner, P.J. Knowles, 1993

 NUMBER OF ELECTRONS:      14+   12-    SPACE SYMMETRY=1    SPIN SYMMETRY: Triplet 
 CONVERGENCE THRESHOLDS:    1.00E-05 (Density)    1.00E-06 (Energy)
 INTEGRAL THRESHOLDS:       1.00E-11 (Initial)    1.00E-11 (Final)
 MAX. NUMBER OF ITERATIONS:       60
 INTERPOLATION TYPE:            DIIS
 INTERPOLATION STEPS:              2 (START)      1 (STEP)
 LEVEL SHIFTS:                 -0.60 (CLOSED) -0.30 (OPEN) 



 Use fine grid record 1800.2 for energy threshold  1.0D-06

 Basis set DEF2-TZVPP/JKFIT generated.   Number of basis functions:   353 

 Orbital guess generated from atomic densities. Full valence occupancy:   13
 Using density fitting in orbital guess

 Coulomb and exchange fitting
 Thresholds for fitting:       THRAO_COUL= 1.0D-14    THRAO_EXCH= 1.0D-12    THRMO= 1.0D-11    THRPROD= 1.0D-11    THRASM= 1.0D-11
                               THR2HLF=    1.0D-11

 Molecular orbital dump at record        2100.2

 Initial alpha occupancy:  14
 Initial beta  occupancy:  12
 Wave function symmetry:    1

 ITERATION   DDIFF            GRAD            ENERGY        2-EL.EN.            DIPOLE MOMENTS         DIIS   CPU(IT)  CPU(TOT)  ORB.
    1      0.000D+00      0.000D+00      -134.92113005    257.216955   -0.13241    0.80376   -0.02282    0      1.7      3.0     start
    2      0.000D+00      0.529D-02      -134.97401898    252.817563   -0.42041    0.74255   -0.01097    1      1.7      4.7     diag,B
    3      0.259D-02      0.154D-02      -134.97815046    253.299199   -0.34693    0.68637   -0.01133    2      1.7      6.5     diag,B
    4      0.700D-03      0.459D-03      -134.97916074    253.285328   -0.36352    0.69264   -0.01085    3      1.7      8.2     diag,B
    5      0.423D-03      0.222D-03      -134.97941514    253.232604   -0.35638    0.68263   -0.01061    4      1.7      9.9     diag,B
    6      0.272D-03      0.686D-04      -134.97945753    253.227322   -0.35917    0.68496   -0.01060    5      1.7     11.7     diag,B
    7      0.172D-03      0.253D-04      -134.97946546    253.224463   -0.36143    0.68620   -0.01064    6      1.8     13.4     fixocc
    8      0.959D-04      0.916D-05      -134.97946714    253.223317   -0.36369    0.68709   -0.01068    7      1.7     15.2     diag,B
    9      0.322D-04      0.442D-05      -134.97946766    253.222955   -0.36553    0.68779   -0.01073    8      1.7     16.9     diag,B
   10      0.141D-04      0.215D-05      -134.97946779    253.222831   -0.36672    0.68826   -0.01076    9      1.8     18.7     orth
   11      0.882D-05      0.912D-06      -134.97946780    253.222829   -0.36695    0.68835   -0.01078    0      1.7     20.4     orth

 Dispersion correction
 - - - - - - - - - - - 
  _________________________________
                                   
 |         DFTD3 V1.3 Rev 1        |
 | S.Grimme, University Muenster   |
 | Fri Jul  2 12:48:21 CEST 2010   |
  _________________________________

 Please cite DFT-D3 work done with this code as:
 S. Grimme, J. Antony, S. Ehrlich and H. Krieg,
 J. Chem. Phys, 132 (2010), 154104.
 For DFT-D2 the reference is
 S. Grimme, J. Comput. Chem., 27 (2006), 1787-1799

 C6 coefficients used:
                    2  C6 for element                     1
 Z=  1 CN=   0.912     C6(AA)=    3.03
 Z=  1 CN=   0.000     C6(AA)=    7.59
                    5  C6 for element                     6
 Z=  6 CN=   0.000     C6(AA)=   49.11
 Z=  6 CN=   0.987     C6(AA)=   43.25
 Z=  6 CN=   1.998     C6(AA)=   29.36
 Z=  6 CN=   2.999     C6(AA)=   25.78
 Z=  6 CN=   3.984     C6(AA)=   18.21
                    4  C6 for element                     7
 Z=  7 CN=   0.000     C6(AA)=   25.27
 Z=  7 CN=   0.994     C6(AA)=   22.12
 Z=  7 CN=   2.014     C6(AA)=   19.68
 Z=  7 CN=   2.990     C6(AA)=   15.58

 #           XYZ [au]               R0(AA) [Ang.]   CN       C6(AA)     C8(AA)   C10(AA) [au]
  1  -2.63613  -0.84973   0.00132   c   1.455  3.983        18.3       530.5     18794.6
  2  -0.82345   1.34938   0.00384   c   1.455  3.665        19.6       566.8     20080.9
  3   3.64258  -0.71498   0.00574   n   1.311  1.874        19.8       435.8     11777.6
  4  -2.26784  -2.11829  -1.57923   h   1.091  0.998         3.1        37.4       553.4
  5  -2.49841  -1.94241   1.74189   h   1.091  0.998         3.1        37.4       553.4
  6  -4.58960  -0.19908  -0.16881   h   1.091  0.997         3.1        37.4       553.4
  7  -0.78932   2.47267  -1.71436   h   1.091  0.997         3.1        37.4       553.4
  8  -0.83361   2.51162   1.69597   h   1.091  0.997         3.1        37.4       553.4
  9   1.56564   0.34127  -0.05397   h   1.091  1.516         3.0        36.6       542.1
 10   4.67252   0.94122   0.00739   h   1.091  0.996         3.1        37.4       553.6

 molecular C6(AA) [au] =       645.13

           DFT-D V3
 DF pbe                                               
 parameters
 s6       :    1.0000
 s8       :    0.7220
 rs6      :    1.2170
 alpha6   :   14.0000
 alpha8   :   16.0000
 k1-k3    :   16.0000    1.3333   -4.0000

 Edisp /kcal,au:    -1.2982 -0.00206875

 E6    /kcal :    -0.5175
 E8    /kcal :    -0.7807
 % E8        : 60.14
 normal termination of dftd3

 RKS STATE 1.1 ENERGY+DISP     -134.98153656

 Final alpha occupancy:  14
 Final beta  occupancy:  12

 !RKS STATE 1.1 Energy               -134.981536559717
 Nuclear energy                        71.85732166
 One-electron energy                 -322.93908413
 Two-electron energy                  126.61141454
 Density functional                   -10.50911988     B88=-19.40417148 LYP= -0.80703414
 Virial quotient                       -1.00465505
 !RKS STATE 1.1 Dipole moment          -0.36695394     0.68834820    -0.01077735
 Dipole moment /Debye                  -0.93264280     1.74949203    -0.02739149

 Orbital energies:

         1.1          2.1          3.1          4.1          5.1          6.1          7.1          8.1          9.1         10.1
    -14.817947   -10.593543   -10.578308    -0.914050    -0.863016    -0.709755    -0.525440    -0.518017    -0.459935    -0.451449

        11.1         12.1         13.1         14.1         15.1         16.1
     -0.424391    -0.398011    -0.387670    -0.279546     0.066041     0.091125

 HOMO     14.1    -0.279546 =      -7.6068eV
 LUMO     15.1     0.066041 =       1.7971eV
 LUMO-HOMO         0.345587 =       9.4039eV


 **********************************************************************************************************************************
 DATASETS  * FILE   NREC   LENGTH (MB)   RECORD NAMES
              1      19       31.99       500      610      700      900      950      970     1000      129      960     1100   
                                          VAR    BASINP    GEOM    SYMINP    ZMAT    AOBASIS   BASIS     P2S    ABASIS      S 
                                         1400     1410     1200     1210     1080     1600     1650     1700     1800   
                                           T        V       H0       H01     AOSYM     SMH    MOLCAS    OPER     GRID   

              2       5        3.51       700     1000      520     1800     2100   
                                         GEOM     BASIS   MCVARS    GRID      RKS  

 PROGRAMS   *        TOTAL        KS       INT
 CPU TIMES  *        21.59     21.26      0.19
 REAL TIME  *        22.02 SEC
 DISK USED  *        44.54 MB      
 **********************************************************************************************************************************


 PROGRAM * Intrinsic Basis Bonding Analysis (IBBA)          Author: G. Knizia

 Molecular orbitals read from record     2100.2  Type=RKS/CANONICAL (state 1.1)
 Fock matrix read from record            2100.2  Type=RKS/TOTAL (state 1.1)
 Orbital energies read from record       2100.2  Type=RKS/CANONICAL (state 1.1)
 Density matrix read from record         2100.2  Type=RKS/CHARGE (state 1.1)

 Number of core orbitals:           3 (   3 )
 Number of closed-shell orbitals:   9 (   9 )
 Number of active  orbitals:        2 (   2 )

 Basis set MINAO-AUTO-PP generated.      Number of basis functions:   22 

 Polarized AO type:                A = (O Ot + (1-O)(1-Ot)) P12
 Orthogonalization method:         Symmetric (Loewdin)
 Localization functional:          L = sum[A,i] <i|n_A|i>^4 -> max

 Localization group 1:  12 orbitals, occupancy  2.000
 Iterative localization: IB/PM,    7 iter; Final gradient 0.15E-08

 Bond order analysis:       [THRPRINT= 0.020]

   CEN ATOM   CEN ATOM     WIBERG.BO      RENORM.BO
     1   C  -   2   C       1.070643       1.109834
     1   C  -   5   H       0.959392       0.987169
     1   C  -   4   H       0.956851       0.987662
     1   C  -   6   H       0.933756       0.992229

     2   C  -   1   C       1.070643       1.109834
     2   C  -   8   H       0.955786       0.983305
     2   C  -   7   H       0.953059       0.982944
     2   C  -   3   N       0.381821       1.845395
     2   C  -   9   H       0.331308       0.771355

     3   N  -  10   H       0.936666       0.999937
     3   N  -   9   H       0.622402       0.935593
     3   N  -   2   C       0.381821       1.845395

     4   H  -   1   C       0.956851       0.987662

     5   H  -   1   C       0.959392       0.987169

     6   H  -   1   C       0.933756       0.992229

     7   H  -   2   C       0.953059       0.982944

     8   H  -   2   C       0.955786       0.983305

     9   H  -   3   N       0.622402       0.935593
     9   H  -   2   C       0.331308       0.771355

    10   H  -   3   N       0.936666       0.999937


 Valency analysis:

   CEN ATOM   TOT.VALENCE
     1   C       3.936213
     2   C       3.713722
     3   N       1.993282
     4   H       0.977511
     5   H       0.978372
     6   H       0.973032
     7   H       0.978285
     8   H       0.978356
     9   H       0.962383
    10   H       0.939527
 Localization group 2:   2 orbitals, occupancy  1.000
 Iterative localization: IB/PM,    3 iter; Final gradient 0.80E-16

 Bond order analysis:       [THRPRINT= 0.020]

   CEN ATOM   CEN ATOM     WIBERG.BO      RENORM.BO

     2   C  -   3   N       0.444562       1.000000
     2   C  -   6   H       0.021370       0.500000

     3   N  -   2   C       0.444562       1.000000



     6   H  -   2   C       0.021370       0.500000






 Valency analysis:

   CEN ATOM   TOT.VALENCE
     1   C       0.012767
     2   C       0.499561
     3   N       0.491652
     4   H       0.008642
     5   H       0.004861
     6   H       0.040568
     7   H       0.008668
     8   H       0.007907
     9   H       0.018633
    10   H       0.004485

 Total charge composition:

   CEN ATOM         s          p       ELECTRONS ->P.CHARGE
     1   C       3.02820    3.37441      6.40261   -0.40261
     2   C       3.07799    3.24238      6.32037   -0.32037
     3   N       3.70393    3.72122      7.42515   -0.42515
     4   H       0.85438                 0.85438    0.14562
     5   H       0.85537                 0.85537    0.14463
     6   H       0.85649                 0.85649    0.14351
     7   H       0.85699                 0.85699    0.14301
     8   H       0.85685                 0.85685    0.14315
     9   H       0.81545                 0.81545    0.18455
    10   H       0.75633                 0.75633    0.24367

 Total charge composition, AO contributions:

   CEN ATOM SHL      SPHERICAL COMPONENTS
     1   C  1s       1.99050
     1   C  2s       1.03769
     1   C  2p       1.10643    1.09689    1.17110

     2   C  1s       1.99180
     2   C  2s       1.08619
     2   C  2p       1.00303    1.07378    1.16557

     3   N  1s       1.99718
     3   N  2s       1.70675
     3   N  2p       1.21145    1.50947    1.00030

     4   H  1s       0.85438

     5   H  1s       0.85537

     6   H  1s       0.85649

     7   H  1s       0.85699

     8   H  1s       0.85685

     9   H  1s       0.81545

    10   H  1s       0.75633

 Active orbital charges:

   CEN ATOM         s          p       ELECTRONS ->SPIN.DEN
     1   C       0.00023    0.00619      0.00642    0.00642
     2   C       0.03583    0.48006      0.51589    0.51589
     3   N       0.00785    1.42237      1.43022    1.43022
     4   H       0.00434                 0.00434    0.00434
     5   H       0.00244                 0.00244    0.00244
     6   H       0.02071                 0.02071    0.02071
     7   H       0.00435                 0.00435    0.00435
     8   H       0.00397                 0.00397    0.00397
     9   H       0.00941                 0.00941    0.00941
    10   H       0.00225                 0.00225    0.00225

 Active orbital charges, AO contributions:

   CEN ATOM SHL      SPHERICAL COMPONENTS
     1   C  1s       0.00000
     1   C  2s       0.00023
     1   C  2p       0.00600    0.00015    0.00004

     2   C  1s       0.00005
     2   C  2s       0.03579
     2   C  2p       0.39046    0.08942    0.00017

     3   N  1s       0.00004
     3   N  2s       0.00781
     3   N  2p       0.32169    0.10163    0.99906

     4   H  1s       0.00434

     5   H  1s       0.00244

     6   H  1s       0.02071

     7   H  1s       0.00435

     8   H  1s       0.00397

     9   H  1s       0.00941

    10   H  1s       0.00225

 Summary of localized orbital composition:   [THRPRINT= 0.020]

   ORB  GRP  ORB.ENERGY      CENTERS/CHARGES
     1   1   -14.676700      N  3   2.000
     2   1   -10.483031      C  2   2.000
     3   1   -10.455521      C  1   2.000
     4   1    -0.752315      N  3   1.243   H 10   0.754
     5   1    -0.684806      C  2   1.012   C  1   0.981
     6   1    -0.646458      N  3   1.953   C  2   0.030
     7   1    -0.617140      C  2   1.137   H  7   0.846
     8   1    -0.616354      C  2   1.139   H  8   0.847
     9   1    -0.589940      C  1   1.128   H  6   0.829   C  2   0.036
    10   1    -0.580638      C  1   1.140   H  5   0.848
    11   1    -0.580481      C  1   1.141   H  4   0.845
    12   1    -0.570486      N  3   0.782   H  9   0.775   C  2   0.434
    13   2    -0.197622      N  3   0.999
    14   2    -0.156754      C  2   0.516   N  3   0.431   H  6   0.021   (other: 0.033)

 Localized orbitals saved to record      2100.2  (orbital set 2)


 **********************************************************************************************************************************
 DATASETS  * FILE   NREC   LENGTH (MB)   RECORD NAMES
              1      19       31.99       500      610      700      900      950      970     1000      129      960     1100   
                                          VAR    BASINP    GEOM    SYMINP    ZMAT    AOBASIS   BASIS     P2S    ABASIS      S 
                                         1400     1410     1200     1210     1080     1600     1650     1700     1800   
                                           T        V       H0       H01     AOSYM     SMH    MOLCAS    OPER     GRID   

              2       5        3.66       700     1000      520     1800     2100   
                                         GEOM     BASIS   MCVARS    GRID      RKS  

 PROGRAMS   *        TOTAL      IBBA        KS       INT
 CPU TIMES  *        21.62      0.03     21.26      0.19
 REAL TIME  *        22.06 SEC
 DISK USED  *        44.54 MB      
 **********************************************************************************************************************************

 IBBA/TZVP energy=      0.000000000000

        DF-KS   
   -134.98153656
 **********************************************************************************************************************************
 Molpro calculation terminated
