
 Primary working directories    : /local/molpro.1vEehLpydJ
 Secondary working directories  : /local/molpro.1vEehLpydJ
 Wavefunction directory         : /local/
 Main file repository           : /local/molpro.1vEehLpydJ/

 id        : simonbennie

 Nodes     nprocs
 node32-036    1

 Using customized tuning parameters: mindgm=1; mindgv=20; mindgc=4; mindgr=1; noblas=0; minvec=7
 default implementation of scratch files=df  

 memory,500,m
 geomtyp=xyz
 nosym
 noorient
 geometry={
 C         -1.39498       -0.44966        0.00070
 C         -0.43575        0.71406        0.00203
 N          1.92757       -0.37835        0.00304
 H         -1.20009       -1.12095       -0.83569
 H         -1.32210       -1.02788        0.92177
 H         -2.42871       -0.10535       -0.08933
 H         -0.41769        1.30848       -0.90720
 H         -0.44113        1.32909        0.89747
 H          0.82850        0.18059       -0.02856
 H          2.47259        0.49807        0.00391
 }
 basis={default,sto-3g}
 {uhf,direct;wf,26,1,2}
 
 basis={ default,6-31+G(d,p) }
 {uks,LYP88,direct;wf,26,1,2}
 {ibba,bonds=1}

 Variables initialized (920), CPU time= 0.00 sec
 Commands  initialized (754), CPU time= 0.01 sec, 615 directives.
 Default parameters read. Elapsed time= 0.14 sec

 Checking input...
 Passed
1


                                         ***  PROGRAM SYSTEM MOLPRO  ***
                                       Copyright, TTI GmbH Stuttgart, 2015
                                    Version 2018.0 linked Jul  6 2018 18:07:13


 **********************************************************************************************************************************
 LABEL *                                                                                 
  64 bit serial version                                                                  DATE: 10-Oct-18          TIME: 18:51:26  
 **********************************************************************************************************************************

 SHA1:             b58f8fddb9d75525be9261ebe3faf0e4279c479b
 **********************************************************************************************************************************
 SETTING GEOMTYP        =    XYZ

 Variable memory set to  500000000 words,  buffer space 

 ZSYMEL=NOSYM

 SETTING BASIS          =    STO-3G


 Recomputing integrals since basis changed


 Using spherical harmonics

 Library entry C      S STO-3G               selected for orbital group  1
 Library entry C      P STO-3G               selected for orbital group  1
 Library entry N      S STO-3G               selected for orbital group  2
 Library entry N      P STO-3G               selected for orbital group  2
 Library entry H      S STO-3G               selected for orbital group  3


 PROGRAM * SEWARD (Integral evaluation for generally contracted gaussian basis sets)     Author: Roland Lindh, 1990

 Geometry written to block  1 of record 700


 Point group  C1  



 ATOMIC COORDINATES

 NR  ATOM    CHARGE       X              Y              Z

   1  C       6.00   -2.636130149   -0.849734249    0.001322808
   2  C       6.00   -0.823448159    1.349377837    0.003836144
   3  N       7.00    3.642579386   -0.714977879    0.005744767
   4  H       1.00   -2.267841425   -2.118288499   -1.579225225
   5  H       1.00   -2.498406909   -1.942411689    1.741892850
   6  H       1.00   -4.589596736   -0.199082647   -0.168809235
   7  H       1.00   -0.789319705    2.472668839   -1.714359540
   8  H       1.00   -0.833614885    2.511616095    1.695972505
   9  H       1.00    1.565638094    0.341265641   -0.053970578
  10  H       1.00    4.672517918    0.941215891    0.007388829

 Bond lengths in Bohr (Angstrom)

 1-2  2.849897591  1-4  2.059854013  1-5  2.059731960  1-6  2.065992286  2-7  2.053081547
     ( 1.508100859)     ( 1.090027802)     ( 1.089963214)     ( 1.093276036)     ( 1.086443967)

  2- 8  2.052858153   2- 9  2.593716434   3- 9  2.330858517   3-10  1.950321483
       ( 1.086325752)       ( 1.372535628)       ( 1.233437209)       ( 1.032065683)

 Bond angles

  1-2-7  115.59591255   1-2-8  115.75024036   1-2-9  106.61454224   2-1-4  111.23354516

  2-1-5  111.47404485   2-1-6  111.00586724   2-9-3  175.08456843   4-1-5  108.04446468

  4-1-6  107.44676361   5-1-6  107.45054195   7-2-8  112.34332724   7-2-9  100.29346675

  8- 2- 9  104.06268725   9- 3-10   94.91995329

 NUCLEAR CHARGE:                   26
 NUMBER OF PRIMITIVE AOS:          66
 NUMBER OF SYMMETRY AOS:           66
 NUMBER OF CONTRACTIONS:           22   (  22A   )
 NUMBER OF CORE ORBITALS:           3   (   3A   )
 NUMBER OF VALENCE ORBITALS:       19   (  19A   )


 NUCLEAR REPULSION ENERGY   71.85732166


 Eigenvalues of metric

         1 0.211E+00 0.255E+00 0.317E+00 0.339E+00 0.365E+00 0.388E+00 0.391E+00 0.401E+00


 Contracted 2-electron integrals neglected if value below      1.0D-11
 AO integral compression algorithm  1   Integral accuracy      1.0D-11

     0.262 MB (compressed) written to integral file (100.0%)


 NUMBER OF SORTED TWO-ELECTRON INTEGRALS:      32131.     BUFFER LENGTH:  32768
 NUMBER OF SEGMENTS:   1  SEGMENT LENGTH:      32131      RECORD LENGTH: 524288

 Memory used in sort:       0.59 MW

 SORT1 READ       37963. AND WROTE       31121. INTEGRALS IN      1 RECORDS. CPU TIME:     0.00 SEC, REAL TIME:     0.01 SEC
 SORT2 READ       31121. AND WROTE       32131. INTEGRALS IN      1 RECORDS. CPU TIME:     0.00 SEC, REAL TIME:     0.01 SEC

 FILE SIZES:   FILE 1:    30.4 MBYTE,  FILE 4:     4.2 MBYTE,   TOTAL:     34.6 MBYTE

 OPERATOR DM      FOR CENTER  0  COORDINATES:    0.000000    0.000000    0.000000


 **********************************************************************************************************************************
 DATASETS  * FILE   NREC   LENGTH (MB)   RECORD NAMES
              1      19       30.26       500      610      700      900      950      970     1000      129      960     1100   
                                          VAR    BASINP    GEOM    SYMINP    ZMAT    AOBASIS   BASIS     P2S    ABASIS      S 
                                         1400     1410     1200     1210     1080     1600     1650     1300     1700   
                                           T        V       H0       H01     AOSYM     SMH    MOLCAS    ERIS     OPER   

 PROGRAMS   *        TOTAL       INT
 CPU TIMES  *         0.49      0.35
 REAL TIME  *         0.81 SEC
 DISK USED  *        35.03 MB
 **********************************************************************************************************************************


 PROGRAM * UHF-SCF       Authors: W. Meyer, H.-J. Werner


 NUMBER OF ELECTRONS:      14+   12-    SPACE SYMMETRY=1    SPIN SYMMETRY: Triplet 
 CONVERGENCE THRESHOLDS:    1.00E-05 (Density)    1.00E-07 (Energy)
 INTEGRAL THRESHOLDS:       1.00E-11 (Initial)    1.00E-11 (Final)
 MAX. NUMBER OF ITERATIONS:       60
 INTERPOLATION TYPE:            DIIS
 INTERPOLATION STEPS:              2 (START)      1 (STEP)
 LEVEL SHIFTS:                 -0.20 (ALPHA)  -0.20 (BETA) 



 Orbital guess generated from atomic densities. Full valence occupancy:   13

 Molecular orbital dump at record        2200.2

 Initial alpha occupation  14
 Initial beta  occupation  12

 Direct Fock-matrix evaluation.        Author: H.-J. Werner (1996)

 Integral Threshold:                  0.1D-10

 ITERATION   DDIFF            GRAD            ENERGY        2-EL.EN.            DIPOLE MOMENTS         DIIS   CPU(IT)  CPU(TOT)
    1      0.000D+00      0.000D+00      -132.40820112    238.311596    0.18551    0.71770   -0.01907    0      1.0      1.9
    2      0.269D-01      0.148D-01      -132.47738384    235.250742    0.07129    0.61376   -0.01118    1      0.6      2.5
    3      0.802D-02      0.526D-02      -132.48823489    234.475801    0.03486    0.54531   -0.00928    2      0.5      3.0
    4      0.392D-02      0.235D-02      -132.49189140    234.347575    0.00350    0.53006   -0.00891    3      0.6      3.6
    5      0.147D-02      0.805D-03      -132.49244613    234.363169   -0.01142    0.54426   -0.00880    4      0.6      4.1
    6      0.938D-03      0.348D-03      -132.49256213    234.360892   -0.01767    0.55075   -0.00883    5      0.6      4.8
    7      0.675D-03      0.180D-03      -132.49259882    234.354735   -0.02657    0.55381   -0.00899    6      0.6      5.3
    8      0.314D-03      0.737D-04      -132.49260519    234.353301   -0.03433    0.55661   -0.00907    7      0.6      6.0
    9      0.140D-03      0.330D-04      -132.49260642    234.353199   -0.03835    0.55775   -0.00911    7      0.6      6.6
   10      0.860D-04      0.151D-04      -132.49260675    234.352983   -0.04067    0.55835   -0.00914    8      0.6      7.1
   11      0.260D-04      0.457D-05      -132.49260677    234.352896   -0.04114    0.55846   -0.00915    7      0.6      7.7
   12      0.454D-05      0.163D-05      -132.49260677    234.352892   -0.04114    0.55848   -0.00916    8      0.6      8.2
   13      0.100D-05      0.605D-06      -132.49260677    234.352887   -0.04112    0.55849   -0.00916    7      0.5      8.8

 Final alpha occupancy:  14
 Final beta  occupancy:  12

 !UHF STATE  1.1 Energy              -132.492606774453
 Nuclear energy                        71.85732166
 One-electron energy                 -321.52637217
 Two-electron energy                  117.17644373
 Virial quotient                       -1.00486561
 !UHF STATE  1.1 Dipole moment         -0.04112480     0.55848778    -0.00916314
 Dipole moment /Debye                  -0.10452197     1.41944137    -0.02328884

 Orbital energies for positive spin:

         1.1          2.1          3.1          4.1          5.1          6.1          7.1          8.1          9.1         10.1
    -15.344662   -11.038222   -11.033337    -1.125893    -0.989045    -0.812516    -0.603898    -0.582897    -0.520985    -0.494315

        11.1         12.1         13.1         14.1         15.1         16.1
     -0.474815    -0.469103    -0.460087    -0.310181     0.629095     0.640664

 Orbital energies for negative spin:

         1.1          2.1          3.1          4.1          5.1          6.1          7.1          8.1          9.1         10.1
    -15.303220   -11.040306   -11.012888    -0.971741    -0.916100    -0.775728    -0.574703    -0.545627    -0.481056    -0.478771

        11.1         12.1         13.1         14.1         15.1         16.1
     -0.462772    -0.350607     0.241510     0.334120     0.649841     0.669492


 HOMO     14.1    -0.310181 =      -8.4404eV
 LUMO    -13.1     0.241510 =       6.5718eV
 LUMO-HOMO         0.551690 =      15.0123eV

 EXPECTATION VALUE OF S**2:             2.06150585

 Occupation number threshold for pseudo-canonical orbitals: 1.9990 (occupied), 0.0010 (virtual)

 Number of pseudo-canonical occupied orbitals per symmetry:   10
 Number of active natural orbitals per symmetry:               6

 Natural orbitals saved to record    2200.2 (Orbital set 3)

 Orbital spaces for UNO-CAS (Min. occupation: 0.020  Max. occupation: 1.980):

 Closed:       11
 Active:        4


 **********************************************************************************************************************************
 DATASETS  * FILE   NREC   LENGTH (MB)   RECORD NAMES
              1      19       30.26       500      610      700      900      950      970     1000      129      960     1100   
                                          VAR    BASINP    GEOM    SYMINP    ZMAT    AOBASIS   BASIS     P2S    ABASIS      S 
                                         1400     1410     1200     1210     1080     1600     1650     1300     1700   
                                           T        V       H0       H01     AOSYM     SMH    MOLCAS    ERIS     OPER   

              2       4        2.92       700     1000      520     2200   
                                         GEOM     BASIS   MCVARS     UHF  

 PROGRAMS   *        TOTAL   UHF-SCF       INT
 CPU TIMES  *         9.25      8.76      0.35
 REAL TIME  *        12.26 SEC
 DISK USED  *        35.03 MB
 **********************************************************************************************************************************
 SETTING BASIS          =    6-31+G(D,P)


 Recomputing integrals since basis changed


 Using spherical harmonics

 Library entry C      S 6-31G                selected for orbital group  1
 Library entry C      S 6-31++G              selected for orbital group  1
 Library entry C      P 6-31G                selected for orbital group  1
 Library entry C      P 6-31++G              selected for orbital group  1
 Library entry C      D 6-31G*               selected for orbital group  1
 Library entry N      S 6-31G                selected for orbital group  2
 Library entry N      S 6-31++G              selected for orbital group  2
 Library entry N      P 6-31G                selected for orbital group  2
 Library entry N      P 6-31++G              selected for orbital group  2
 Library entry N      D 6-31G*               selected for orbital group  2
 Library entry H      S 6-31G                selected for orbital group  3
 Library entry H      P 6-31G**              selected for orbital group  3


 PROGRAM * SEWARD (Integral evaluation for generally contracted gaussian basis sets)     Author: Roland Lindh, 1990

 Geometry written to block  1 of record 700


 Point group  C1  



 ATOMIC COORDINATES

 NR  ATOM    CHARGE       X              Y              Z

   1  C       6.00   -2.636130149   -0.849734249    0.001322808
   2  C       6.00   -0.823448159    1.349377837    0.003836144
   3  N       7.00    3.642579386   -0.714977879    0.005744767
   4  H       1.00   -2.267841425   -2.118288499   -1.579225225
   5  H       1.00   -2.498406909   -1.942411689    1.741892850
   6  H       1.00   -4.589596736   -0.199082647   -0.168809235
   7  H       1.00   -0.789319705    2.472668839   -1.714359540
   8  H       1.00   -0.833614885    2.511616095    1.695972505
   9  H       1.00    1.565638094    0.341265641   -0.053970578
  10  H       1.00    4.672517918    0.941215891    0.007388829

 Bond lengths in Bohr (Angstrom)

 1-2  2.849897591  1-4  2.059854013  1-5  2.059731960  1-6  2.065992286  2-7  2.053081547
     ( 1.508100859)     ( 1.090027802)     ( 1.089963214)     ( 1.093276036)     ( 1.086443967)

  2- 8  2.052858153   2- 9  2.593716434   3- 9  2.330858517   3-10  1.950321483
       ( 1.086325752)       ( 1.372535628)       ( 1.233437209)       ( 1.032065683)

 Bond angles

  1-2-7  115.59591255   1-2-8  115.75024036   1-2-9  106.61454224   2-1-4  111.23354516

  2-1-5  111.47404485   2-1-6  111.00586724   2-9-3  175.08456843   4-1-5  108.04446468

  4-1-6  107.44676361   5-1-6  107.45054195   7-2-8  112.34332724   7-2-9  100.29346675

  8- 2- 9  104.06268725   9- 3-10   94.91995329

 NUCLEAR CHARGE:                   26
 NUMBER OF PRIMITIVE AOS:         145
 NUMBER OF SYMMETRY AOS:          142
 NUMBER OF CONTRACTIONS:           89   (  89A   )
 NUMBER OF CORE ORBITALS:           3   (   3A   )
 NUMBER OF VALENCE ORBITALS:       19   (  19A   )


 NUCLEAR REPULSION ENERGY   71.85732166


 Eigenvalues of metric

         1 0.270E-03 0.512E-02 0.833E-02 0.901E-02 0.229E-01 0.284E-01 0.320E-01 0.423E-01


 Contracted 2-electron integrals neglected if value below      1.0D-11
 AO integral compression algorithm  1   Integral accuracy      1.0D-11

     32.506 MB (compressed) written to integral file ( 45.0%)


 NUMBER OF SORTED TWO-ELECTRON INTEGRALS:    8022015.     BUFFER LENGTH:  32768
 NUMBER OF SEGMENTS:   1  SEGMENT LENGTH:    8022015      RECORD LENGTH: 524288

 Memory used in sort:       8.58 MW

 SORT1 READ     8969859. AND WROTE     7164224. INTEGRALS IN     21 RECORDS. CPU TIME:     0.11 SEC, REAL TIME:     0.22 SEC
 SORT2 READ     7164224. AND WROTE     8022015. INTEGRALS IN    124 RECORDS. CPU TIME:     0.24 SEC, REAL TIME:     0.30 SEC

 FILE SIZES:   FILE 1:    62.9 MBYTE,  FILE 4:    88.1 MBYTE,   TOTAL:    151.0 MBYTE

 OPERATOR DM      FOR CENTER  0  COORDINATES:    0.000000    0.000000    0.000000


 **********************************************************************************************************************************
 DATASETS  * FILE   NREC   LENGTH (MB)   RECORD NAMES
              1      19       57.98       500      610      700      900      950      970     1001      129      960     1100   
                                          VAR    BASINP    GEOM    SYMINP    ZMAT    AOBASIS   BASIS     P2S    ABASIS      S 
                                         1400     1410     1200     1210     1080     1600     1650     1300     1700   
                                           T        V       H0       H01     AOSYM     SMH    MOLCAS    ERIS     OPER   

              2       5        2.94       700     1000      520     2200     1001   
                                         GEOM     BASIS   MCVARS     UHF     BASIS   

 PROGRAMS   *        TOTAL       INT   UHF-SCF       INT
 CPU TIMES  *        10.58      1.31      8.76      0.35
 REAL TIME  *        13.87 SEC
 DISK USED  *       154.03 MB
 **********************************************************************************************************************************

 Density functional group LYP88=LYP
 Functional: LYP(Automatically generated (new) LYP)                            Gradient terms: 1
 Use libxcgrid:  F
 Use grid at  1800.2

 Functional: LYP                       Factor:  1.0000

 Generated new metagrid on record  1800.2 with target accuracy 1.0D-06 and 36486 points in CPU time    0.8
 Computed new grid on record 1800.1 in CPU time    0.9
   74781 words reserved for DFT integration

 PROGRAM * UKS-SCF (Unrestricted Kohn-Sham)     Authors: W. Meyer, H.-J. Werner, P.J. Knowles, 1993

 NUMBER OF ELECTRONS:      14+   12-    SPACE SYMMETRY=1    SPIN SYMMETRY: Triplet 
 CONVERGENCE THRESHOLDS:    1.00E-05 (Density)    1.00E-06 (Energy)
 MAX. NUMBER OF ITERATIONS:       60
 INTERPOLATION TYPE:            DIIS
 INTERPOLATION STEPS:              2 (START)      1 (STEP)
 LEVEL SHIFTS:                 -0.20 (ALPHA)  -0.20 (BETA) 



 Use fine grid record 1800.2 for energy threshold  1.0D-06
 Molecular orbitals read from record     2200.2  Type=UHF/ALPHA (state 1.1)

 Present basis size:      89
 Previous basis size:     22
 Previous occupation:     14
 Previous closed-shells:  12
 Previous core-orbitals:   3
 Present occupation:      14
 Present closed-shells:   12
 Present core-orbitals:    3
 Wavefunction symmetry:    1   Triplet 

 Orbital overlap <old|new>:  < 1.1| 1.1> = 0.999840   < 2.1| 2.1> = 0.999833   < 3.1| 3.1> = 0.999833   < 4.1| 4.1> = 0.999777
                             < 5.1| 5.1> = 0.999906   < 6.1| 6.1> = 0.999865   < 7.1| 7.1> = 0.999095   < 8.1| 8.1> = 0.999561
                             < 9.1| 9.1> = 0.999276   <10.1|10.1> = 0.999085   <11.1|11.1> = 0.998544   <12.1|12.1> = 0.998961
                             <13.1|13.1> = 0.997557   <14.1|14.1> = 0.998421

 Molecular orbitals read from record     2200.2  Type=UHF/BETA (state 1.1)

 Present basis size:      89
 Previous basis size:     22
 Previous occupation:     14
 Previous closed-shells:  12
 Previous core-orbitals:   3
 Present occupation:      14
 Present closed-shells:   12
 Present core-orbitals:    3
 Wavefunction symmetry:    1   Triplet 

 Orbital overlap <old|new>:  < 1.1| 1.1> = 0.999840   < 2.1| 2.1> = 0.999833   < 3.1| 3.1> = 0.999833   < 4.1| 4.1> = 0.999911
                             < 5.1| 5.1> = 0.999827   < 6.1| 6.1> = 0.999859   < 7.1| 7.1> = 0.999589   < 8.1| 8.1> = 0.999500
                             < 9.1| 9.1> = 0.999237   <10.1|10.1> = 0.999324   <11.1|11.1> = 0.999618   <12.1|12.1> = 0.998812
                             <13.1|13.1> = 0.998164   <14.1|14.1> = 0.996916


 Molecular orbital dump at record        2201.2

 Initial alpha occupation  14
 Initial beta  occupation  12

 ITERATION    DDIFF          GRAD             ENERGY        2-EL.EN.            DIPOLE MOMENTS         DIIS
    1      0.000D+00      0.000D+00      -115.14907849    274.750865   -0.04192    0.54969   -0.00857    0
    2      0.348D-01      0.181D-01      -115.94662753    249.785944   -0.03220    0.19620   -0.00407    1
    3      0.132D-01      0.733D-02      -116.11763147    259.009817   -0.29498    0.76348   -0.01680    2
    4      0.134D-01      0.263D-02      -116.15292110    255.047650   -0.30259    0.66069   -0.01486    3
    5      0.822D-02      0.896D-03      -116.15925933    254.406772   -0.49145    0.71649   -0.01581    4
    6      0.354D-02      0.695D-03      -116.16166987    254.902291   -0.41630    0.65600   -0.01583    5
    7      0.751D-02      0.176D-03      -116.16269223    254.765250   -0.45000    0.61360   -0.01594    6
    8      0.556D-02      0.107D-03      -116.16300910    254.736997   -0.45321    0.58715   -0.01567    7
    9      0.756D-02      0.850D-04      -116.16327690    254.717513   -0.47361    0.56417   -0.01552    8
   10      0.538D-02      0.484D-04      -116.16339372    254.709217   -0.48594    0.55659   -0.01522    9
   11      0.478D-02      0.333D-04      -116.16346587    254.705981   -0.50105    0.55587   -0.01478    9
   12      0.230D-02      0.180D-04      -116.16348601    254.699522   -0.50377    0.55394   -0.01442    9
   13      0.748D-03      0.637D-05      -116.16348864    254.702056   -0.50510    0.55460   -0.01426    9
   14      0.363D-03      0.380D-05      -116.16348930    254.699439   -0.50321    0.55425   -0.01420    9
   15      0.370D-03      0.258D-05      -116.16348953    254.700754   -0.50257    0.55414   -0.01417    9
   16      0.561D-03      0.219D-05      -116.16348977    254.700128   -0.50141    0.55401   -0.01413    9
   17      0.783D-03      0.160D-05      -116.16348998    254.699159   -0.49967    0.55387   -0.01411    9
   18      0.620D-03      0.113D-05      -116.16349006    254.699740   -0.49844    0.55370   -0.01409    9
   19      0.476D-03      0.755D-06      -116.16349010    254.699481   -0.49778    0.55358   -0.01407    9
   20      0.435D-03      0.512D-06      -116.16349012    254.699281   -0.49699    0.55346   -0.01406    9
   21      0.207D-03      0.266D-06      -116.16349012    254.699252   -0.49670    0.55337   -0.01406    9
   22      0.104D-03      0.137D-06      -116.16349012    254.699180   -0.49656    0.55330   -0.01406    9
   23      0.223D-04      0.748D-07      -116.16349012    254.699188   -0.49654    0.55328   -0.01406    9
   24      0.140D-04      0.352D-07      -116.16349012    254.699154   -0.49651    0.55326   -0.01406    9
   25      0.288D-05      0.236D-07      -116.16349012    254.699170   -0.49651    0.55326   -0.01406    9
   26      0.214D-05      0.165D-07      -116.16349012    254.699160   -0.49651    0.55327   -0.01406    9

 Final alpha occupancy:  14
 Final beta  occupancy:  12

 !UKS STATE  1.1 Energy              -116.163490121797
 Nuclear energy                        71.85732166
 One-electron energy                 -314.59150401
 Two-electron energy                  127.34957999
 Density functional                    -0.77888777     LYP=-0.77888777
 Virial quotient                       -0.91309046
 !UKS STATE  1.1 Dipole moment         -0.49650721     0.55326735    -0.01406363
 Dipole moment /Debye                  -1.26191278     1.40617324    -0.03574383

 Orbital energies for positive spin:

         1.1          2.1          3.1          4.1          5.1          6.1          7.1          8.1          9.1         10.1
    -12.127982    -8.234657    -8.220479    -0.463243    -0.414189    -0.284104    -0.181266    -0.176290    -0.117956    -0.102150

        11.1         12.1         13.1         14.1         15.1         16.1
     -0.068650    -0.055530    -0.009826     0.059976     0.077034     0.082166

 Orbital energies for negative spin:

         1.1          2.1          3.1          4.1          5.1          6.1          7.1          8.1          9.1         10.1
    -12.130738    -8.235636    -8.220580    -0.473890    -0.418813    -0.287555    -0.186981    -0.178900    -0.121111    -0.105798

        11.1         12.1         13.1         14.1         15.1         16.1
     -0.071082    -0.064367    -0.034207     0.046561     0.069990     0.077467


 HOMO     14.1     0.059976 =       1.6320eV
 LUMO    -13.1    -0.034207 =      -0.9308eV
 LUMO-HOMO        -0.094183 =      -2.5629eV

 EXPECTATION VALUE OF S**2:             2.00036064

 Occupation number threshold for pseudo-canonical orbitals: 1.9990 (occupied), 0.0010 (virtual)

 Number of pseudo-canonical occupied orbitals per symmetry:   12
 Number of active natural orbitals per symmetry:               2

 Natural orbitals saved to record    2201.2 (Orbital set 3)

 Orbital spaces for UNO-CAS (Min. occupation: 0.020  Max. occupation: 1.980):

 Closed:       12
 Active:        2


 **********************************************************************************************************************************
 DATASETS  * FILE   NREC   LENGTH (MB)   RECORD NAMES
              1      20       59.15       500      610      700      900      950      970     1001      129      960     1100   
                                          VAR    BASINP    GEOM    SYMINP    ZMAT    AOBASIS   BASIS     P2S    ABASIS      S 
                                         1400     1410     1200     1210     1080     1600     1650     1300     1700     1800   
                                           T        V       H0       H01     AOSYM     SMH    MOLCAS    ERIS     OPER     GRID   

              2       7        5.76       700     1000      520     2200     1001     1800     2201   
                                         GEOM     BASIS   MCVARS     UHF     BASIS    GRID      UKS  

 PROGRAMS   *        TOTAL   UKS-SCF       INT   UHF-SCF       INT
 CPU TIMES  *        19.10      8.51      1.31      8.76      0.35
 REAL TIME  *        23.68 SEC
 DISK USED  *       154.03 MB
 **********************************************************************************************************************************


 PROGRAM * Intrinsic Basis Bonding Analysis (IBBA)          Author: G. Knizia

 Molecular orbitals read from record     2201.2  Type=UKS/ALPHA (state 1.1)
 Fock matrix read from record            2201.2  Type=UKS/TOTAL (state 1.1)
 Orbital energies read from record       2201.2  Type=UKS/ALPHA (state 1.1)
 Density matrix read from record         2201.2  Type=UKS/CHARGE (state 1.1)

 Number of core orbitals:           3 (   3 )
 Number of closed-shell orbitals:   9 (   9 )
 Number of active  orbitals:        2 (   2 )

 Basis set MINAO-AUTO-PP generated.      Number of basis functions:   22 

 Polarized AO type:                A = (O Ot + (1-O)(1-Ot)) P12
 Orthogonalization method:         Symmetric (Loewdin)
 Localization functional:          L = sum[A,i] <i|n_A|i>^4 -> max

 Localization group 1:  12 orbitals, occupancy  2.000
 Iterative localization: IB/PM,    7 iter; Final gradient 0.76E-08

 Bond order analysis:       [THRPRINT= 0.020]

   CEN ATOM   CEN ATOM     WIBERG.BO      RENORM.BO
     1   C  -   2   C       1.150790       1.213308
     1   C  -   5   H       0.944491       0.975524
     1   C  -   4   H       0.936439       0.974904
     1   C  -   6   H       0.874518       0.986165
     1   C  -   3   N       0.047207       0.112851

     2   C  -   1   C       1.150790       1.213308
     2   C  -   8   H       0.937010       0.971695
     2   C  -   7   H       0.932369       0.970829
     2   C  -   3   N       0.419199       1.493266
     2   C  -   9   H       0.344199       0.635930
     2   C  -   6   H       0.038428       0.071238

     3   N  -  10   H       0.969446       0.996713
     3   N  -   9   H       0.611964       0.866970
     3   N  -   2   C       0.419199       1.493266
     3   N  -   1   C       0.047207       0.112851
     3   N  -   6   H       0.044596       0.065063
     3   N  -   7   H       0.028582       0.462540
     3   N  -   8   H       0.025964       0.470883

     4   H  -   1   C       0.936439       0.974904

     5   H  -   1   C       0.944491       0.975524
     5   H  -   7   H       0.020129       0.024277

     6   H  -   1   C       0.874518       0.986165
     6   H  -   3   N       0.044596       0.065063
     6   H  -   2   C       0.038428       0.071238

     7   H  -   2   C       0.932369       0.970829
     7   H  -   3   N       0.028582       0.462540
     7   H  -   5   H       0.020129       0.024277

     8   H  -   2   C       0.937010       0.971695
     8   H  -   3   N       0.025964       0.470883

     9   H  -   3   N       0.611964       0.866970
     9   H  -   2   C       0.344199       0.635930

    10   H  -   3   N       0.969446       0.996713


 Valency analysis:

   CEN ATOM   TOT.VALENCE
     1   C       3.960483
     2   C       3.834682
     3   N       2.174904
     4   H       0.990835
     5   H       0.991971
     6   H       0.979558
     7   H       0.992033
     8   H       0.992084
     9   H       0.975180
    10   H       0.976159
 Localization group 2:   2 orbitals, occupancy  1.000
 Iterative localization: IB/PM,    3 iter; Final gradient 0.43E-14

 Bond order analysis:       [THRPRINT= 0.020]

   CEN ATOM   CEN ATOM     WIBERG.BO      RENORM.BO
     1   C  -   2   C       0.021222       1.000000

     2   C  -   3   N       0.407646       1.000000
     2   C  -   6   H       0.038801       0.500000
     2   C  -   1   C       0.021222       1.000000

     3   N  -   2   C       0.407646       1.000000
     3   N  -   6   H       0.035117       0.500000



     6   H  -   2   C       0.038801       0.500000
     6   H  -   3   N       0.035117       0.500000






 Valency analysis:

   CEN ATOM   TOT.VALENCE
     1   C       0.044766
     2   C       0.516422
     3   N       0.540124
     4   H       0.029474
     5   H       0.018234
     6   H       0.080206
     7   H       0.025208
     8   H       0.024701
     9   H       0.014106
    10   H       0.026281

 Total charge composition:

   CEN ATOM         s          p       ELECTRONS ->P.CHARGE
     1   C       2.90512    3.30232      6.20744   -0.20744
     2   C       2.97606    3.24394      6.21999   -0.21999
     3   N       3.65662    3.62274      7.27936   -0.27936
     4   H       0.91923                 0.91923    0.08077
     5   H       0.91959                 0.91959    0.08041
     6   H       0.89888                 0.89888    0.10112
     7   H       0.92351                 0.92351    0.07649
     8   H       0.92353                 0.92353    0.07647
     9   H       0.84956                 0.84956    0.15044
    10   H       0.85891                 0.85891    0.14109

 Total charge composition, AO contributions:

   CEN ATOM SHL      SPHERICAL COMPONENTS
     1   C  1s       1.99743
     1   C  2s       0.90769
     1   C  2p       1.08757    1.08019    1.13455

     2   C  1s       1.99785
     2   C  2s       0.97820
     2   C  2p       1.05850    1.06224    1.12319

     3   N  1s       1.99904
     3   N  2s       1.65758
     3   N  2p       1.14882    1.46496    1.00896

     4   H  1s       0.91923

     5   H  1s       0.91959

     6   H  1s       0.89888

     7   H  1s       0.92351

     8   H  1s       0.92353

     9   H  1s       0.84956

    10   H  1s       0.85891

 Active orbital charges:

   CEN ATOM         s          p       ELECTRONS ->SPIN.DEN
     1   C       0.00005    0.02286      0.02291    0.02291
     2   C       0.03613    0.43703      0.47316    0.47316
     3   N       0.00937    1.38285      1.39222    1.39222
     4   H       0.01496                 0.01496    0.01496
     5   H       0.00920                 0.00920    0.00920
     6   H       0.04185                 0.04185    0.04185
     7   H       0.01277                 0.01277    0.01277
     8   H       0.01251                 0.01251    0.01251
     9   H       0.00710                 0.00710    0.00710
    10   H       0.01332                 0.01332    0.01332

 Active orbital charges, AO contributions:

   CEN ATOM SHL      SPHERICAL COMPONENTS
     1   C  1s       0.00001
     1   C  2s       0.00004
     1   C  2p       0.02156    0.00125    0.00004

     2   C  1s       0.00001
     2   C  2s       0.03612
     2   C  2p       0.35138    0.07588    0.00976

     3   N  1s       0.00003
     3   N  2s       0.00934
     3   N  2p       0.26801    0.14243    0.97241

     4   H  1s       0.01496

     5   H  1s       0.00920

     6   H  1s       0.04185

     7   H  1s       0.01277

     8   H  1s       0.01251

     9   H  1s       0.00710

    10   H  1s       0.01332

 Summary of localized orbital composition:   [THRPRINT= 0.020]

   ORB  GRP  ORB.ENERGY      CENTERS/CHARGES
     1   1   -12.060883      N  3   2.000
     2   1    -8.157100      C  2   2.000
     3   1    -8.134897      C  1   2.000
     4   1    -0.328621      N  3   1.150   H 10   0.844
     5   1    -0.299595      C  2   1.001   C  1   0.988
     6   1    -0.244377      H  9   0.794   N  3   0.736   C  2   0.459
     7   1    -0.222435      C  2   1.053   H  7   0.902   N  3   0.025
     8   1    -0.221465      C  2   1.057   H  8   0.902   N  3   0.023
     9   1    -0.208703      C  1   1.045   H  6   0.843   C  2   0.083   N  3   0.025
    10   1    -0.199207      N  3   1.911   C  2   0.054   H  9   0.029
    11   1    -0.197281      C  1   1.068   H  4   0.893   C  2   0.021
    12   1    -0.196157      C  1   1.069   H  5   0.900   (other: 0.031)
    13   2    -0.022065      N  3   0.973   (other: 0.027)
    14   2     0.053274      C  2   0.464   N  3   0.420   H  6   0.042   C  1   0.023   (other: 0.052)

 Localized orbitals saved to record      2201.2  (orbital set 4)


 **********************************************************************************************************************************
 DATASETS  * FILE   NREC   LENGTH (MB)   RECORD NAMES
              1      20       59.15       500      610      700      900      950      970     1001      129      960     1100   
                                          VAR    BASINP    GEOM    SYMINP    ZMAT    AOBASIS   BASIS     P2S    ABASIS      S 
                                         1400     1410     1200     1210     1080     1600     1650     1300     1700     1800   
                                           T        V       H0       H01     AOSYM     SMH    MOLCAS    ERIS     OPER     GRID   

              2       7        5.83       700     1000      520     2200     1001     1800     2201   
                                         GEOM     BASIS   MCVARS     UHF     BASIS    GRID      UKS  

 PROGRAMS   *        TOTAL      IBBA   UKS-SCF       INT   UHF-SCF       INT
 CPU TIMES  *        19.13      0.04      8.51      1.31      8.76      0.35
 REAL TIME  *        23.72 SEC
 DISK USED  *       154.03 MB
 **********************************************************************************************************************************

 IBBA/6-31+G(D,P) energy=      0.000000000000

         UKS-SCF         UHF-SCF
   -116.16349012   -132.49260677
 **********************************************************************************************************************************
 Molpro calculation terminated
