
 Primary working directories    : /local
 Secondary working directories  : /local
 Wavefunction directory         : /local/
 Main file repository           : /local/

 SHA1      : b4a5b34a9e711420743f49e6833241d17c61fb3c
 NAME      : 2099.9.b4a5b34
 ARCHNAME  : linux/x86_64_openmp
 FC        : /cm/shared/languages/GCC-6.1/bin/gfortran
 BLASLIB   : -lblas
 id        : simonbennie

 Nodes     nprocs
 node33-001    1

 Using customized tuning parameters: mindgm=1; mindgv=20; mindgc=4; mindgr=1; noblas=0; minvec=7
 default implementation of scratch files=df  

 memory,500,m
 geomtyp=xyz
 nosym
 noorient
 geometry={
 C         -1.39498       -0.44966        0.00070
 C         -0.43575        0.71406        0.00203
 N          1.92757       -0.37835        0.00304
 H         -1.20009       -1.12095       -0.83569
 H         -1.32210       -1.02788        0.92177
 H         -2.42871       -0.10535       -0.08933
 H         -0.41769        1.30848       -0.90720
 H         -0.44113        1.32909        0.89747
 H          0.82850        0.18059       -0.02856
 H          2.47259        0.49807        0.00391
 }
 basis={ default,avtz }
 {uks,PBE,direct;wf,26,1,2}
 {ibba,bonds=1}

 Variables initialized (895), CPU time= 0.01 sec
 Commands  initialized (725), CPU time= 0.01 sec, 591 directives.
 Default parameters read. Elapsed time= 0.08 sec

 Checking input...
 Passed
1


                                         ***  PROGRAM SYSTEM MOLPRO  ***
                                       Copyright, TTI GmbH Stuttgart, 2015
                                    Version 2099.9 linked May 26 2017 16:03:21


 **********************************************************************************************************************************
 LABEL *                                                                                 
  64 bit serial version                                                                  DATE: 23-Jun-17          TIME: 19:10:02  
 **********************************************************************************************************************************

 SHA1:             b4a5b34a9e711420743f49e6833241d17c61fb3c
 **********************************************************************************************************************************
 SETTING GEOMTYP        =    XYZ

 Variable memory set to  500000000 words,  buffer space 

 ZSYMEL=NOSYM

 SETTING BASIS          =    AVTZ


 Recomputing integrals since basis changed


 Using spherical harmonics

 Library entry C      S aug-cc-pVTZ          selected for orbital group  1
 Library entry C      P aug-cc-pVTZ          selected for orbital group  1
 Library entry C      D aug-cc-pVTZ          selected for orbital group  1
 Library entry C      F aug-cc-pVTZ          selected for orbital group  1
 Library entry N      S aug-cc-pVTZ          selected for orbital group  2
 Library entry N      P aug-cc-pVTZ          selected for orbital group  2
 Library entry N      D aug-cc-pVTZ          selected for orbital group  2
 Library entry N      F aug-cc-pVTZ          selected for orbital group  2
 Library entry H      S aug-cc-pVTZ          selected for orbital group  3
 Library entry H      P aug-cc-pVTZ          selected for orbital group  3
 Library entry H      D aug-cc-pVTZ          selected for orbital group  3


 PROGRAM * SEWARD (Integral evaluation for generally contracted gaussian basis sets)     Author: Roland Lindh, 1990

 Geometry written to block  1 of record 700


 Point group  C1  



 ATOMIC COORDINATES

 NR  ATOM    CHARGE       X              Y              Z

   1  C       6.00   -2.636130149   -0.849734249    0.001322808
   2  C       6.00   -0.823448159    1.349377837    0.003836144
   3  N       7.00    3.642579386   -0.714977879    0.005744767
   4  H       1.00   -2.267841425   -2.118288499   -1.579225225
   5  H       1.00   -2.498406909   -1.942411689    1.741892850
   6  H       1.00   -4.589596736   -0.199082647   -0.168809235
   7  H       1.00   -0.789319705    2.472668839   -1.714359540
   8  H       1.00   -0.833614885    2.511616095    1.695972505
   9  H       1.00    1.565638094    0.341265641   -0.053970578
  10  H       1.00    4.672517918    0.941215891    0.007388829

 Bond lengths in Bohr (Angstrom)

 1-2  2.849897591  1-4  2.059854013  1-5  2.059731960  1-6  2.065992286  2-7  2.053081547
     ( 1.508100859)     ( 1.090027802)     ( 1.089963214)     ( 1.093276036)     ( 1.086443967)

  2- 8  2.052858153   2- 9  2.593716434   3- 9  2.330858517   3-10  1.950321483
       ( 1.086325752)       ( 1.372535628)       ( 1.233437209)       ( 1.032065683)

 Bond angles

  1-2-7  115.59591255   1-2-8  115.75024036   1-2-9  106.61454224   2-1-4  111.23354516

  2-1-5  111.47404485   2-1-6  111.00586724   2-9-3  175.08456843   4-1-5  108.04446468

  4-1-6  107.44676361   5-1-6  107.45054195   7-2-8  112.34332724   7-2-9  100.29346675

  8- 2- 9  104.06268725   9- 3-10   94.91995329

 NUCLEAR CHARGE:                   26
 NUMBER OF PRIMITIVE AOS:         390
 NUMBER OF SYMMETRY AOS:          349
 NUMBER OF CONTRACTIONS:          299   ( 299A   )
 NUMBER OF CORE ORBITALS:           3   (   3A   )
 NUMBER OF VALENCE ORBITALS:       19   (  19A   )


 NUCLEAR REPULSION ENERGY   71.85732166


 Eigenvalues of metric

         1 0.195E-04 0.380E-04 0.403E-04 0.420E-04 0.660E-04 0.768E-04 0.895E-04 0.111E-03


 Contracted 2-electron integrals neglected if value below      1.0D-12
 AO integral compression algorithm  1   Integral accuracy      1.0D-12

     4746.379 MB (compressed) written to integral file ( 53.4%)


 NUMBER OF SORTED TWO-ELECTRON INTEGRALS: 1005783675.     BUFFER LENGTH:  32768
 NUMBER OF SEGMENTS:  63  SEGMENT LENGTH:   15999984      RECORD LENGTH: 131072

 Memory used in sort:      16.16 MW

 SORT1 READ  1111475307. AND WROTE   971697437. INTEGRALS IN  11153 RECORDS. CPU TIME:    13.97 SEC, REAL TIME:   237.74 SEC
 SORT2 READ   971697437. AND WROTE  1005783675. INTEGRALS IN  18106 RECORDS. CPU TIME:    23.88 SEC, REAL TIME:    92.11 SEC

 FILE SIZES:   FILE 1:  4779.8 MBYTE,  FILE 4: 11694.8 MBYTE,   TOTAL:  16474.6 MBYTE

 OPERATOR DM      FOR CENTER  0  COORDINATES:    0.000000    0.000000    0.000000


 **********************************************************************************************************************************
 DATASETS  * FILE   NREC   LENGTH (MB)   RECORD NAMES
              1      19     4402.85       500      610      700      900      950      970     1000      129      960     1100   
                                          VAR    BASINP    GEOM    SYMINP    ZMAT    AOBASIS   BASIS     P2S    ABASIS      S 
                                         1400     1410     1200     1210     1080     1600     1650     1300     1700   
                                           T        V       H0       H01     AOSYM     SMH    MOLCAS    ERIS     OPER   

 PROGRAMS   *        TOTAL       INT
 CPU TIMES  *        75.59     75.44
 REAL TIME  *       396.95 SEC
 DISK USED  *        16.48 GB      
 **********************************************************************************************************************************

 Density functional group PBE=PBEX+PBEC
 Functional: PBEX(Automatically generated (new) PBEX)                          Gradient terms: 1
 Functional: PBEC(Automatically generated (new) PBEC)                          Gradient terms: 1
 Use grid at  1800.2

 Functional: PBEX                      Factor:  1.0000
 Functional: PBEC                      Factor:  1.0000

 Generated new metagrid on record  1800.2 with target accuracy 1.0D-06 and 37874 points in CPU time    0.8
 Computed new grid on record 1800.1 in CPU time    0.9
  241946 words reserved for DFT integration

 PROGRAM * UKS-SCF (Unrestricted Kohn-Sham)     Authors: W. Meyer, H.-J. Werner, P.J. Knowles, 1993

 NUMBER OF ELECTRONS:      14+   12-    SPACE SYMMETRY=1    SPIN SYMMETRY: Triplet 
 CONVERGENCE THRESHOLDS:    1.00E-05 (Density)    1.00E-06 (Energy)
 MAX. NUMBER OF ITERATIONS:       60
 INTERPOLATION TYPE:            DIIS
 INTERPOLATION STEPS:              2 (START)      1 (STEP)
 LEVEL SHIFTS:                 -0.20 (ALPHA)  -0.20 (BETA) 



 Use fine grid record 1800.2 for energy threshold  1.0D-06
 Orbital guess generated from atomic densities. Full valence occupancy:   22

 Molecular orbital dump at record        2200.2

 Initial alpha occupation  14
 Initial beta  occupation  12

 ITERATION    DDIFF          GRAD             ENERGY        2-EL.EN.            DIPOLE MOMENTS         DIIS
    1      0.000D+00      0.000D+00      -134.72505293    281.124241    0.12476    0.68697   -0.02036    0
    2      0.846D-02      0.186D-02      -134.85452274    269.569727   -0.38150    0.60723   -0.00430    1
    3      0.298D-02      0.990D-03      -134.88929541    272.606740   -0.28556    0.57872   -0.00952    2
    4      0.547D-03      0.112D-03      -134.89010686    272.622413   -0.32452    0.59612   -0.00954    3
    5      0.231D-03      0.575D-04      -134.89037204    272.511759   -0.33458    0.58418   -0.00934    4
    6      0.194D-03      0.237D-04      -134.89047271    272.502728   -0.35654    0.59312   -0.00952    5
    7      0.993D-04      0.945D-05      -134.89048748    272.490733   -0.36147    0.59231   -0.00954    6
    8      0.281D-04      0.420D-05      -134.89048972    272.488389   -0.36452    0.59441   -0.00959    7
    9      0.128D-04      0.225D-05      -134.89049039    272.489571   -0.36633    0.59500   -0.00965    8
   10      0.580D-05      0.715D-06      -134.89049047    272.488838   -0.36668    0.59506   -0.00966    7
   11      0.263D-05      0.167D-06      -134.89049048    272.488865   -0.36688    0.59519   -0.00968    8

 Final alpha occupancy:  14
 Final beta  occupancy:  12

 !UKS STATE 1.1 Energy               -134.890490478019
 Nuclear energy                        71.85732166
 One-electron energy                 -322.92694912
 Two-electron energy                  136.24443240
 Density functional                   -20.06529542     PBEX=-19.26320411 PBEC= -0.80209130
 Virial quotient                       -1.00609242
 !UKS STATE 1.1 Dipole moment          -0.36688179     0.59518515    -0.00967653
 Dipole moment /Debye                  -0.93245941     1.51271067    -0.02459368

 Orbital energies for positive spin:

         1.1          2.1          3.1          4.1          5.1          6.1          7.1          8.1          9.1         10.1
    -14.024058    -9.900419    -9.883937    -0.763965    -0.693917    -0.562634    -0.417158    -0.407551    -0.359147    -0.346758

        11.1         12.1         13.1         14.1         15.1         16.1
     -0.318356    -0.309139    -0.266469    -0.185067    -0.022741    -0.005577

 Orbital energies for negative spin:

         1.1          2.1          3.1          4.1          5.1          6.1          7.1          8.1          9.1         10.1
    -13.996993    -9.891682    -9.884100    -0.707208    -0.676378    -0.550030    -0.403710    -0.394911    -0.346977    -0.339009

        11.1         12.1         13.1         14.1         15.1         16.1
     -0.315107    -0.273516    -0.150274    -0.123294    -0.017472    -0.001725

 HOMO     14.1    -0.185067 =      -5.0359eV
 LUMO    -13.1    -0.150274 =      -4.0892eV
 LUMO-HOMO         0.034792 =       0.9467eV

 EXPECTATION VALUE OF S**2:             2.00732249

 Occupation number threshold for canonical orbitals:  1.999000 (occupied),  0.001000 (virtual)

 Number of pseudo-canonical orbitals per symmetry:   10
 Number of active natural orbitals per symmetry:      6

 Natural orbitals saved to record    2200.2 (Orbital set 3)

 Orbital spaces for UNO-CAS (Min. occupation: 0.020  Max. occupation: 1.980):

 Closed:       12
 Active:        2


 **********************************************************************************************************************************
 DATASETS  * FILE   NREC   LENGTH (MB)   RECORD NAMES
              1      20     4404.06       500      610      700      900      950      970     1000      129      960     1100   
                                          VAR    BASINP    GEOM    SYMINP    ZMAT    AOBASIS   BASIS     P2S    ABASIS      S 
                                         1400     1410     1200     1210     1080     1600     1650     1300     1700     1800   
                                           T        V       H0       H01     AOSYM     SMH    MOLCAS    ERIS     OPER     GRID   

              2       5        6.55       700     1000      520     1800     2200   
                                         GEOM     BASIS   MCVARS    GRID      UKS  

 PROGRAMS   *        TOTAL       UKS       INT
 CPU TIMES  *       230.64    155.06     75.44
 REAL TIME  *       560.32 SEC
 DISK USED  *        16.48 GB      
 **********************************************************************************************************************************


 PROGRAM * Intrinsic Basis Bonding Analysis (IBBA)          Author: G. Knizia

 Molecular orbitals read from record     2200.2  Type=UKS/ALPHA (state 1.1)
 Fock matrix read from record            2200.2  Type=UKS/TOTAL (state 1.1)
 Orbital energies read from record       2200.2  Type=UKS/ALPHA (state 1.1)
 Density matrix read from record         2200.2  Type=UKS/CHARGE (state 1.1)

 Number of core orbitals:           3 (   3 )
 Number of closed-shell orbitals:   9 (   9 )
 Number of active  orbitals:        2 (   2 )

 Basis set MINAO-AUTO-PP generated.      Number of basis functions:   22 

 Polarized AO type:                A = (O Ot + (1-O)(1-Ot)) P12
 Orthogonalization method:         Symmetric (Loewdin)
 Localization functional:          L = sum[A,i] <i|n_A|i>^4 -> max

 Localization group 1:  12 orbitals, occupancy  2.000
 Iterative localization: IB/PM,    8 iter; Final gradient 0.19E-08

 Bond order analysis:       [THRPRINT= 0.020]

   CEN ATOM   CEN ATOM     WIBERG.BO      RENORM.BO
     1   C  -   2   C       1.133290       1.207976
     1   C  -   5   H       0.946527       0.985415
     1   C  -   4   H       0.939563       0.986050
     1   C  -   6   H       0.872745       0.992336
     1   C  -   3   N       0.039664       0.119420

     2   C  -   1   C       1.133290       1.207976
     2   C  -   8   H       0.934286       0.980880
     2   C  -   7   H       0.929893       0.980366
     2   C  -   3   N       0.394562       1.504733
     2   C  -   9   H       0.296057       0.673115
     2   C  -   6   H       0.038372       0.088673

     3   N  -  10   H       0.918581       0.999768
     3   N  -   9   H       0.624767       0.879334
     3   N  -   2   C       0.394562       1.504733
     3   N  -   1   C       0.039664       0.119420
     3   N  -   6   H       0.037661       0.050275
     3   N  -   7   H       0.020100       0.473231

     4   H  -   1   C       0.939563       0.986050

     5   H  -   1   C       0.946527       0.985415

     6   H  -   1   C       0.872745       0.992336
     6   H  -   2   C       0.038372       0.088673
     6   H  -   3   N       0.037661       0.050275

     7   H  -   2   C       0.929893       0.980366
     7   H  -   3   N       0.020100       0.473231

     8   H  -   2   C       0.934286       0.980880

     9   H  -   3   N       0.624767       0.879334
     9   H  -   2   C       0.296057       0.673115

    10   H  -   3   N       0.918581       0.999768


 Valency analysis:

   CEN ATOM   TOT.VALENCE
     1   C       3.935973
     2   C       3.738460
     3   N       2.067074
     4   H       0.971680
     5   H       0.973456
     6   H       0.957077
     7   H       0.968117
     8   H       0.968497
     9   H       0.931091
    10   H       0.920790
 Localization group 2:   2 orbitals, occupancy  1.000
 Iterative localization: IB/PM,    3 iter; Final gradient 0.37E-15

 Bond order analysis:       [THRPRINT= 0.020]

   CEN ATOM   CEN ATOM     WIBERG.BO      RENORM.BO
     1   C  -   2   C       0.020336       1.000000

     2   C  -   3   N       0.399874       1.000000
     2   C  -   6   H       0.042439       0.500000
     2   C  -   1   C       0.020336       1.000000

     3   N  -   2   C       0.399874       1.000000
     3   N  -   6   H       0.032150       0.500000



     6   H  -   2   C       0.042439       0.500000
     6   H  -   3   N       0.032150       0.500000






 Valency analysis:

   CEN ATOM   TOT.VALENCE
     1   C       0.039424
     2   C       0.505619
     3   N       0.491325
     4   H       0.018893
     5   H       0.011339
     6   H       0.079751
     7   H       0.017233
     8   H       0.015925
     9   H       0.026796
    10   H       0.004222

 Total charge composition:

   CEN ATOM         s          p       ELECTRONS ->P.CHARGE
     1   C       3.03002    3.37257      6.40259   -0.40259
     2   C       3.10391    3.30028      6.40419   -0.40419
     3   N       3.73223    3.81011      7.54234   -0.54234
     4   H       0.84125                 0.84125    0.15875
     5   H       0.84278                 0.84278    0.15722
     6   H       0.83443                 0.83443    0.16557
     7   H       0.83013                 0.83013    0.16987
     8   H       0.83054                 0.83054    0.16946
     9   H       0.75108                 0.75108    0.24892
    10   H       0.72067                 0.72067    0.27933

 Total charge composition, AO contributions:

   CEN ATOM SHL      SPHERICAL COMPONENTS
     1   C  1s       1.99114
     1   C  2s       1.03888
     1   C  2p       1.09419    1.09683    1.18154

     2   C  1s       1.99232
     2   C  2s       1.11160
     2   C  2p       1.03079    1.08743    1.18206

     3   N  1s       1.99731
     3   N  2s       1.73492
     3   N  2p       1.28516    1.51628    1.00868

     4   H  1s       0.84125

     5   H  1s       0.84278

     6   H  1s       0.83443

     7   H  1s       0.83013

     8   H  1s       0.83054

     9   H  1s       0.75108

    10   H  1s       0.72067

 Active orbital charges:

   CEN ATOM         s          p       ELECTRONS ->SPIN.DEN
     1   C       0.00020    0.01991      0.02011    0.02011
     2   C       0.02477    0.48815      0.51292    0.51292
     3   N       0.00326    1.37445      1.37771    1.37771
     4   H       0.00954                 0.00954    0.00954
     5   H       0.00570                 0.00570    0.00570
     6   H       0.04161                 0.04161    0.04161
     7   H       0.00869                 0.00869    0.00869
     8   H       0.00803                 0.00803    0.00803
     9   H       0.01358                 0.01358    0.01358
    10   H       0.00212                 0.00212    0.00212

 Active orbital charges, AO contributions:

   CEN ATOM SHL      SPHERICAL COMPONENTS
     1   C  1s       0.00000
     1   C  2s       0.00020
     1   C  2p       0.01929    0.00044    0.00018

     2   C  1s       0.00005
     2   C  2s       0.02472
     2   C  2p       0.39087    0.09418    0.00310

     3   N  1s       0.00004
     3   N  2s       0.00322
     3   N  2p       0.28042    0.10299    0.99104

     4   H  1s       0.00954

     5   H  1s       0.00570

     6   H  1s       0.04161

     7   H  1s       0.00869

     8   H  1s       0.00803

     9   H  1s       0.01358

    10   H  1s       0.00212

 Summary of localized orbital composition:   [THRPRINT= 0.020]

   ORB  GRP  ORB.ENERGY      CENTERS/CHARGES
     1   1   -13.889238      N  3   2.000
     2   1    -9.790143      C  2   2.000
     3   1    -9.769491      C  1   2.000
     4   1    -0.600810      N  3   1.279   H 10   0.718
     5   1    -0.546069      C  2   1.022   C  1   0.968
     6   1    -0.496865      N  3   1.940   C  2   0.036   H  9   0.021
     7   1    -0.487672      C  2   1.156   H  7   0.812   (other: 0.032)
     8   1    -0.486141      C  2   1.159   H  8   0.814   (other: 0.027)
     9   1    -0.467708      C  1   1.111   H  6   0.782   C  2   0.089
    10   1    -0.452566      C  1   1.146   H  4   0.825   (other: 0.029)
    11   1    -0.452484      C  1   1.148   H  5   0.831   (other: 0.021)
    12   1    -0.439186      N  3   0.900   H  9   0.682   C  2   0.397   (other: 0.020)
    13   2    -0.205245      N  3   0.991
    14   2    -0.153998      C  2   0.510   N  3   0.386   H  6   0.042   (other: 0.062)

 Localized orbitals saved to record      2200.2  (orbital set 4)


 **********************************************************************************************************************************
 DATASETS  * FILE   NREC   LENGTH (MB)   RECORD NAMES
              1      20     4404.06       500      610      700      900      950      970     1000      129      960     1100   
                                          VAR    BASINP    GEOM    SYMINP    ZMAT    AOBASIS   BASIS     P2S    ABASIS      S 
                                         1400     1410     1200     1210     1080     1600     1650     1300     1700     1800   
                                           T        V       H0       H01     AOSYM     SMH    MOLCAS    ERIS     OPER     GRID   

              2       5        7.27       700     1000      520     1800     2200   
                                         GEOM     BASIS   MCVARS    GRID      UKS  

 PROGRAMS   *        TOTAL      IBBA       UKS       INT
 CPU TIMES  *       230.74      0.09    155.06     75.44
 REAL TIME  *       560.53 SEC
 DISK USED  *        16.48 GB      
 **********************************************************************************************************************************
 Molecular orbitals read from record     2200.2  Type=UKS/LOCAL(IBO)  
 Occupation numbers read from record     2200.2  Type=UKS/LOCAL(IBO)  
 Orbital energies read from record       2200.2  Type=UKS/LOCAL(IBO)  
 Redundancy group numbers read from rec  2200.2  Type=UKS/BETA (state 1.1)

 IBBA/aug-cc-pVTZ energy=      0.000000000000

        UKS-SCF 
   -134.89049048
 **********************************************************************************************************************************
 Molpro calculation terminated
