
 Primary working directories    : /local
 Secondary working directories  : /local
 Wavefunction directory         : /local/
 Main file repository           : /local/

 SHA1      : b4a5b34a9e711420743f49e6833241d17c61fb3c
 NAME      : 2099.9.b4a5b34
 ARCHNAME  : linux/x86_64_openmp
 FC        : /cm/shared/languages/GCC-6.1/bin/gfortran
 BLASLIB   : -lblas
 id        : simonbennie

 Nodes     nprocs
 node47-007    1

 Using customized tuning parameters: mindgm=1; mindgv=20; mindgc=4; mindgr=1; noblas=0; minvec=7
 default implementation of scratch files=df  

 memory,500,m
 geomtyp=xyz
 nosym
 noorient
 geometry={
 C         -1.39498       -0.44966        0.00070
 C         -0.43575        0.71406        0.00203
 N          1.92757       -0.37835        0.00304
 H         -1.20009       -1.12095       -0.83569
 H         -1.32210       -1.02788        0.92177
 H         -2.42871       -0.10535       -0.08933
 H         -0.41769        1.30848       -0.90720
 H         -0.44113        1.32909        0.89747
 H          0.82850        0.18059       -0.02856
 H          2.47259        0.49807        0.00391
 }
 basis={ default,avtz }
 {ks,VS99,direct;wf,26,1,2}
 {ibba,bonds=1}

 Variables initialized (895), CPU time= 0.00 sec
 Commands  initialized (725), CPU time= 0.02 sec, 591 directives.
 Default parameters read. Elapsed time= 0.09 sec

 Checking input...
 Passed
1


                                         ***  PROGRAM SYSTEM MOLPRO  ***
                                       Copyright, TTI GmbH Stuttgart, 2015
                                    Version 2099.9 linked May 26 2017 16:03:21


 **********************************************************************************************************************************
 LABEL *                                                                                 
  64 bit serial version                                                                  DATE: 23-Jun-17          TIME: 19:21:59  
 **********************************************************************************************************************************

 SHA1:             b4a5b34a9e711420743f49e6833241d17c61fb3c
 **********************************************************************************************************************************
 SETTING GEOMTYP        =    XYZ

 Variable memory set to  500000000 words,  buffer space 

 ZSYMEL=NOSYM

 SETTING BASIS          =    AVTZ


 Recomputing integrals since basis changed


 Using spherical harmonics

 Library entry C      S aug-cc-pVTZ          selected for orbital group  1
 Library entry C      P aug-cc-pVTZ          selected for orbital group  1
 Library entry C      D aug-cc-pVTZ          selected for orbital group  1
 Library entry C      F aug-cc-pVTZ          selected for orbital group  1
 Library entry N      S aug-cc-pVTZ          selected for orbital group  2
 Library entry N      P aug-cc-pVTZ          selected for orbital group  2
 Library entry N      D aug-cc-pVTZ          selected for orbital group  2
 Library entry N      F aug-cc-pVTZ          selected for orbital group  2
 Library entry H      S aug-cc-pVTZ          selected for orbital group  3
 Library entry H      P aug-cc-pVTZ          selected for orbital group  3
 Library entry H      D aug-cc-pVTZ          selected for orbital group  3


 PROGRAM * SEWARD (Integral evaluation for generally contracted gaussian basis sets)     Author: Roland Lindh, 1990

 Geometry written to block  1 of record 700


 Point group  C1  



 ATOMIC COORDINATES

 NR  ATOM    CHARGE       X              Y              Z

   1  C       6.00   -2.636130149   -0.849734249    0.001322808
   2  C       6.00   -0.823448159    1.349377837    0.003836144
   3  N       7.00    3.642579386   -0.714977879    0.005744767
   4  H       1.00   -2.267841425   -2.118288499   -1.579225225
   5  H       1.00   -2.498406909   -1.942411689    1.741892850
   6  H       1.00   -4.589596736   -0.199082647   -0.168809235
   7  H       1.00   -0.789319705    2.472668839   -1.714359540
   8  H       1.00   -0.833614885    2.511616095    1.695972505
   9  H       1.00    1.565638094    0.341265641   -0.053970578
  10  H       1.00    4.672517918    0.941215891    0.007388829

 Bond lengths in Bohr (Angstrom)

 1-2  2.849897591  1-4  2.059854013  1-5  2.059731960  1-6  2.065992286  2-7  2.053081547
     ( 1.508100859)     ( 1.090027802)     ( 1.089963214)     ( 1.093276036)     ( 1.086443967)

  2- 8  2.052858153   2- 9  2.593716434   3- 9  2.330858517   3-10  1.950321483
       ( 1.086325752)       ( 1.372535628)       ( 1.233437209)       ( 1.032065683)

 Bond angles

  1-2-7  115.59591255   1-2-8  115.75024036   1-2-9  106.61454224   2-1-4  111.23354516

  2-1-5  111.47404485   2-1-6  111.00586724   2-9-3  175.08456843   4-1-5  108.04446468

  4-1-6  107.44676361   5-1-6  107.45054195   7-2-8  112.34332724   7-2-9  100.29346675

  8- 2- 9  104.06268725   9- 3-10   94.91995329

 NUCLEAR CHARGE:                   26
 NUMBER OF PRIMITIVE AOS:         390
 NUMBER OF SYMMETRY AOS:          349
 NUMBER OF CONTRACTIONS:          299   ( 299A   )
 NUMBER OF CORE ORBITALS:           3   (   3A   )
 NUMBER OF VALENCE ORBITALS:       19   (  19A   )


 NUCLEAR REPULSION ENERGY   71.85732166


 Eigenvalues of metric

         1 0.195E-04 0.380E-04 0.403E-04 0.420E-04 0.660E-04 0.768E-04 0.895E-04 0.111E-03


 Contracted 2-electron integrals neglected if value below      1.0D-12
 AO integral compression algorithm  1   Integral accuracy      1.0D-12

     4746.379 MB (compressed) written to integral file ( 53.4%)


 NUMBER OF SORTED TWO-ELECTRON INTEGRALS: 1005783675.     BUFFER LENGTH:  32768
 NUMBER OF SEGMENTS:  63  SEGMENT LENGTH:   15999984      RECORD LENGTH: 131072

 Memory used in sort:      16.16 MW

 SORT1 READ  1111475307. AND WROTE   971697437. INTEGRALS IN  11153 RECORDS. CPU TIME:    14.68 SEC, REAL TIME:    43.10 SEC
 SORT2 READ   971697437. AND WROTE  1005783675. INTEGRALS IN  18106 RECORDS. CPU TIME:    23.98 SEC, REAL TIME:    99.82 SEC

 FILE SIZES:   FILE 1:  4779.8 MBYTE,  FILE 4: 11694.8 MBYTE,   TOTAL:  16474.6 MBYTE

 OPERATOR DM      FOR CENTER  0  COORDINATES:    0.000000    0.000000    0.000000


 **********************************************************************************************************************************
 DATASETS  * FILE   NREC   LENGTH (MB)   RECORD NAMES
              1      19     4402.85       500      610      700      900      950      970     1000      129      960     1100   
                                          VAR    BASINP    GEOM    SYMINP    ZMAT    AOBASIS   BASIS     P2S    ABASIS      S 
                                         1400     1410     1200     1210     1080     1600     1650     1300     1700   
                                           T        V       H0       H01     AOSYM     SMH    MOLCAS    ERIS     OPER   

 PROGRAMS   *        TOTAL       INT
 CPU TIMES  *        77.22     77.08
 REAL TIME  *       235.03 SEC
 DISK USED  *        16.48 GB      
 **********************************************************************************************************************************

 Density functional group VS99=VSXC
 Functional: VSXC(Automatically generated (new) VSXC)                          Gradient terms: 2
 Use grid at  1800.2

 Functional: VSXC                      Factor:  1.0000

 Generated new metagrid on record  1800.2 with target accuracy 1.0D-06 and 37874 points in CPU time    0.8
 Computed new grid on record 1800.1 in CPU time    0.9
  469784 words reserved for DFT integration

 PROGRAM * RKS-SCF (Restricted open shell Kohn-Sham)     Authors: W. Meyer, H.-J. Werner, P.J. Knowles, 1993

 NUMBER OF ELECTRONS:      14+   12-    SPACE SYMMETRY=1    SPIN SYMMETRY: Triplet 
 CONVERGENCE THRESHOLDS:    1.00E-05 (Density)    1.00E-06 (Energy)
 MAX. NUMBER OF ITERATIONS:       60
 INTERPOLATION TYPE:            DIIS
 INTERPOLATION STEPS:              2 (START)      1 (STEP)
 LEVEL SHIFTS:                 -0.60 (CLOSED) -0.30 (OPEN) 



 Use fine grid record 1800.2 for energy threshold  1.0D-06
 Orbital guess generated from atomic densities. Full valence occupancy:   22

 Molecular orbital dump at record        2100.2

 Initial alpha occupancy:  14
 Initial beta  occupancy:  12
 Wave function symmetry:    1

 ITERATION    DDIFF          GRAD             ENERGY        2-EL.EN.            DIPOLE MOMENTS         DIIS   ORB.
    1      0.000D+00      0.000D+00      -134.42501906    278.787897    0.07975    0.64795   -0.01729    0    start
    2      0.000D+00      0.465D-02      -134.51338986    271.029626   -0.53491    0.69816   -0.00606    1    diag,B
    3      0.874D-02      0.185D-02      -134.52586209    272.278601   -0.30340    0.57007   -0.00897    2    diag,B
    4      0.270D-02      0.371D-03      -134.52667308    272.323734   -0.35980    0.61136   -0.00908    3    diag,B
    5      0.960D-03      0.191D-03      -134.52696895    272.209139   -0.33772    0.58729   -0.00881    4    diag,B
    6      0.572D-03      0.688D-04      -134.52704551    272.176046   -0.33798    0.58595   -0.00880    5    diag,B
    7      0.326D-03      0.221D-04      -134.52705444    272.165269   -0.33705    0.58556   -0.00875    6    fixocc
    8      0.237D-03      0.671D-05      -134.52705521    272.164708   -0.33726    0.58574   -0.00877    7    diag,B
    9      0.992D-04      0.245D-05      -134.52705532    272.163761   -0.33736    0.58585   -0.00877    8    diag,B
   10      0.295D-04      0.904D-06      -134.52705533    272.163748   -0.33744    0.58588   -0.00877    9    orth
   11      0.123D-04      0.307D-06      -134.52705533    272.163736   -0.33746    0.58590   -0.00877    9    diag,B
   12      0.695D-05      0.102D-06      -134.52705533    272.163734   -0.33747    0.58591   -0.00877    0    orth

 Final alpha occupancy:  14
 Final beta  occupancy:  12

 !RKS STATE 1.1 Energy               -134.527055334341
 Nuclear energy                        71.85732166
 One-electron energy                 -322.75129975
 Two-electron energy                  136.08186700
 Density functional                   -19.71494425     VSXC=-19.71494425
 Virial quotient                       -1.00413729
 !RKS STATE 1.1 Dipole moment          -0.33747099     0.58590549    -0.00877013
 Dipole moment /Debye                  -0.85770952     1.48912567    -0.02228998

 Orbital energies:

         1.1          2.1          3.1          4.1          5.1          6.1          7.1          8.1          9.1         10.1
    -14.093891    -9.966217    -9.952979    -0.753295    -0.706455    -0.566994    -0.404144    -0.400558    -0.347296    -0.336774

        11.1         12.1         13.1         14.1         15.1         16.1
     -0.308839    -0.286506    -0.253027    -0.173092    -0.008575     0.007462

 HOMO     14.1    -0.173092 =      -4.7101eV
 LUMO     15.1    -0.008575 =      -0.2333eV
 LUMO-HOMO         0.164517 =       4.4767eV


 **********************************************************************************************************************************
 DATASETS  * FILE   NREC   LENGTH (MB)   RECORD NAMES
              1      20     4404.06       500      610      700      900      950      970     1000      129      960     1100   
                                          VAR    BASINP    GEOM    SYMINP    ZMAT    AOBASIS   BASIS     P2S    ABASIS      S 
                                         1400     1410     1200     1210     1080     1600     1650     1300     1700     1800   
                                           T        V       H0       H01     AOSYM     SMH    MOLCAS    ERIS     OPER     GRID   

              2       5        5.46       700     1000      520     1800     2100   
                                         GEOM     BASIS   MCVARS    GRID      RKS  

 PROGRAMS   *        TOTAL        KS       INT
 CPU TIMES  *       666.82    589.60     77.08
 REAL TIME  *       833.87 SEC
 DISK USED  *        16.48 GB      
 **********************************************************************************************************************************


 PROGRAM * Intrinsic Basis Bonding Analysis (IBBA)          Author: G. Knizia

 Molecular orbitals read from record     2100.2  Type=RKS/CANONICAL (state 1.1)
 Fock matrix read from record            2100.2  Type=RKS/TOTAL (state 1.1)
 Orbital energies read from record       2100.2  Type=RKS/CANONICAL (state 1.1)
 Density matrix read from record         2100.2  Type=RKS/CHARGE (state 1.1)

 Number of core orbitals:           3 (   3 )
 Number of closed-shell orbitals:   9 (   9 )
 Number of active  orbitals:        2 (   2 )

 Basis set MINAO-AUTO-PP generated.      Number of basis functions:   22 

 Polarized AO type:                A = (O Ot + (1-O)(1-Ot)) P12
 Orthogonalization method:         Symmetric (Loewdin)
 Localization functional:          L = sum[A,i] <i|n_A|i>^4 -> max

 Localization group 1:  12 orbitals, occupancy  2.000
 Iterative localization: IB/PM,    7 iter; Final gradient 0.94E-08

 Bond order analysis:       [THRPRINT= 0.020]

   CEN ATOM   CEN ATOM     WIBERG.BO      RENORM.BO
     1   C  -   2   C       1.096435       1.135778
     1   C  -   5   H       0.952108       0.984027
     1   C  -   4   H       0.948376       0.984564
     1   C  -   6   H       0.911722       0.990538
     1   C  -   3   N       0.021233       0.025235

     2   C  -   1   C       1.096435       1.135778
     2   C  -   8   H       0.949010       0.979877
     2   C  -   7   H       0.945546       0.979431
     2   C  -   3   N       0.401782       1.775460
     2   C  -   9   H       0.348537       0.724341

     3   N  -  10   H       0.935600       0.999854
     3   N  -   9   H       0.602917       0.915540
     3   N  -   2   C       0.401782       1.775460
     3   N  -   6   H       0.026627       0.040767
     3   N  -   1   C       0.021233       0.025235

     4   H  -   1   C       0.948376       0.984564

     5   H  -   1   C       0.952108       0.984027

     6   H  -   1   C       0.911722       0.990538
     6   H  -   3   N       0.026627       0.040767

     7   H  -   2   C       0.945546       0.979431

     8   H  -   2   C       0.949010       0.979877

     9   H  -   3   N       0.602917       0.915540
     9   H  -   2   C       0.348537       0.724341

    10   H  -   3   N       0.935600       0.999854


 Valency analysis:

   CEN ATOM   TOT.VALENCE
     1   C       3.932773
     2   C       3.767672
     3   N       2.019128
     4   H       0.973970
     5   H       0.975075
     6   H       0.965559
     7   H       0.976191
     8   H       0.976367
     9   H       0.960738
    10   H       0.937896
 Localization group 2:   2 orbitals, occupancy  1.000
 Iterative localization: IB/PM,    3 iter; Final gradient 0.50E-15

 Bond order analysis:       [THRPRINT= 0.020]

   CEN ATOM   CEN ATOM     WIBERG.BO      RENORM.BO

     2   C  -   3   N       0.434169       1.000000
     2   C  -   6   H       0.027770       0.500000

     3   N  -   2   C       0.434169       1.000000
     3   N  -   6   H       0.025965       0.500000



     6   H  -   2   C       0.027770       0.500000
     6   H  -   3   N       0.025965       0.500000






 Valency analysis:

   CEN ATOM   TOT.VALENCE
     1   C       0.018839
     2   C       0.499791
     3   N       0.497915
     4   H       0.012227
     5   H       0.006994
     6   H       0.056001
     7   H       0.010908
     8   H       0.009955
     9   H       0.017280
    10   H       0.004238

 Total charge composition:

   CEN ATOM         s          p       ELECTRONS ->P.CHARGE
     1   C       3.04858    3.38394      6.43251   -0.43251
     2   C       3.09562    3.25495      6.35056   -0.35056
     3   N       3.71817    3.69912      7.41729   -0.41729
     4   H       0.84481                 0.84481    0.15519
     5   H       0.84563                 0.84563    0.15437
     6   H       0.84325                 0.84325    0.15675
     7   H       0.85118                 0.85118    0.14882
     8   H       0.85127                 0.85127    0.14873
     9   H       0.81057                 0.81057    0.18943
    10   H       0.75292                 0.75292    0.24708

 Total charge composition, AO contributions:

   CEN ATOM SHL      SPHERICAL COMPONENTS
     1   C  1s       1.99080
     1   C  2s       1.05777
     1   C  2p       1.10760    1.10106    1.17528

     2   C  1s       1.99213
     2   C  2s       1.10349
     2   C  2p       1.02117    1.07081    1.16296

     3   N  1s       1.99734
     3   N  2s       1.72083
     3   N  2p       1.21560    1.48244    1.00108

     4   H  1s       0.84481

     5   H  1s       0.84563

     6   H  1s       0.84325

     7   H  1s       0.85118

     8   H  1s       0.85127

     9   H  1s       0.81057

    10   H  1s       0.75292

 Active orbital charges:

   CEN ATOM         s          p       ELECTRONS ->SPIN.DEN
     1   C       0.00020    0.00931      0.00951    0.00951
     2   C       0.03008    0.45174      0.48182    0.48182
     3   N       0.00356    1.44529      1.44885    1.44885
     4   H       0.00615                 0.00615    0.00615
     5   H       0.00351                 0.00351    0.00351
     6   H       0.02883                 0.02883    0.02883
     7   H       0.00548                 0.00548    0.00548
     8   H       0.00500                 0.00500    0.00500
     9   H       0.00872                 0.00872    0.00872
    10   H       0.00212                 0.00212    0.00212

 Active orbital charges, AO contributions:

   CEN ATOM SHL      SPHERICAL COMPONENTS
     1   C  1s       0.00000
     1   C  2s       0.00020
     1   C  2p       0.00924    0.00001    0.00005

     2   C  1s       0.00005
     2   C  2s       0.03003
     2   C  2p       0.36517    0.08618    0.00039

     3   N  1s       0.00003
     3   N  2s       0.00353
     3   N  2p       0.32611    0.12093    0.99825

     4   H  1s       0.00615

     5   H  1s       0.00351

     6   H  1s       0.02883

     7   H  1s       0.00548

     8   H  1s       0.00500

     9   H  1s       0.00872

    10   H  1s       0.00212

 Summary of localized orbital composition:   [THRPRINT= 0.020]

   ORB  GRP  ORB.ENERGY      CENTERS/CHARGES
     1   1   -13.974368      N  3   2.000
     2   1    -9.859725      C  2   2.000
     3   1    -9.834757      C  1   2.000
     4   1    -0.604954      N  3   1.246   H 10   0.750
     5   1    -0.549818      C  2   1.005   C  1   0.988
     6   1    -0.506626      N  3   1.937   C  2   0.038   H  9   0.022
     7   1    -0.485741      C  2   1.141   H  7   0.838   (other: 0.021)
     8   1    -0.484826      C  2   1.144   H  8   0.839
     9   1    -0.465577      C  1   1.132   H  6   0.807   C  2   0.050
    10   1    -0.454566      C  1   1.148   H  4   0.833
    11   1    -0.454458      C  1   1.148   H  5   0.836
    12   1    -0.448532      H  9   0.761   N  3   0.758   C  2   0.469
    13   2    -0.188577      N  3   0.999
    14   2    -0.139397      C  2   0.482   N  3   0.450   H  6   0.029   (other: 0.039)

 Localized orbitals saved to record      2100.2  (orbital set 2)


 **********************************************************************************************************************************
 DATASETS  * FILE   NREC   LENGTH (MB)   RECORD NAMES
              1      20     4404.06       500      610      700      900      950      970     1000      129      960     1100   
                                          VAR    BASINP    GEOM    SYMINP    ZMAT    AOBASIS   BASIS     P2S    ABASIS      S 
                                         1400     1410     1200     1210     1080     1600     1650     1300     1700     1800   
                                           T        V       H0       H01     AOSYM     SMH    MOLCAS    ERIS     OPER     GRID   

              2       5        6.19       700     1000      520     1800     2100   
                                         GEOM     BASIS   MCVARS    GRID      RKS  

 PROGRAMS   *        TOTAL      IBBA        KS       INT
 CPU TIMES  *       666.92      0.10    589.60     77.08
 REAL TIME  *       834.05 SEC
 DISK USED  *        16.48 GB      
 **********************************************************************************************************************************
 Molecular orbitals read from record     2100.2  Type=RKS/LOCAL(IBO)  
 Occupation numbers read from record     2100.2  Type=RKS/LOCAL(IBO)  
 Orbital energies read from record       2100.2  Type=RKS/LOCAL(IBO)  
 Redundancy group numbers read from rec  2100.2  Type=RKS/LOCAL(IBO)  

 IBBA/aug-cc-pVTZ energy=      0.000000000000

        KS-SCF  
   -134.52705533
 **********************************************************************************************************************************
 Molpro calculation terminated
