
 Primary working directories    : /local
 Secondary working directories  : /local
 Wavefunction directory         : /local/
 Main file repository           : /local/

 SHA1      : b4a5b34a9e711420743f49e6833241d17c61fb3c
 NAME      : 2099.9.b4a5b34
 ARCHNAME  : linux/x86_64_openmp
 FC        : /cm/shared/languages/GCC-6.1/bin/gfortran
 BLASLIB   : -lblas
 id        : simonbennie

 Nodes     nprocs
 node35-031    1

 Using customized tuning parameters: mindgm=1; mindgv=20; mindgc=4; mindgr=1; noblas=0; minvec=7
 default implementation of scratch files=df  

 memory,500,m
 geomtyp=xyz
 nosym
 noorient
 geometry={
 C         -1.39498       -0.44966        0.00070
 C         -0.43575        0.71406        0.00203
 N          1.92757       -0.37835        0.00304
 H         -1.20009       -1.12095       -0.83569
 H         -1.32210       -1.02788        0.92177
 H         -2.42871       -0.10535       -0.08933
 H         -0.41769        1.30848       -0.90720
 H         -0.44113        1.32909        0.89747
 H          0.82850        0.18059       -0.02856
 H          2.47259        0.49807        0.00391
 }
 basis={ default,qzvp }
 {uks,B3LYP3,direct;wf,26,1,2}
 {ibba,bonds=1}

 Variables initialized (895), CPU time= 0.01 sec
 Commands  initialized (725), CPU time= 0.01 sec, 591 directives.
 Default parameters read. Elapsed time= 0.07 sec

 Checking input...
 Passed
1


                                         ***  PROGRAM SYSTEM MOLPRO  ***
                                       Copyright, TTI GmbH Stuttgart, 2015
                                    Version 2099.9 linked May 26 2017 16:03:21


 **********************************************************************************************************************************
 LABEL *                                                                                 
  64 bit serial version                                                                  DATE: 23-Jun-17          TIME: 16:37:58  
 **********************************************************************************************************************************

 SHA1:             b4a5b34a9e711420743f49e6833241d17c61fb3c
 **********************************************************************************************************************************
 SETTING GEOMTYP        =    XYZ

 Variable memory set to  500000000 words,  buffer space 

 ZSYMEL=NOSYM

 SETTING BASIS          =    QZVP


 Recomputing integrals since basis changed


 Using spherical harmonics

 Library entry C      S def2-QZVP            selected for orbital group  1
 Library entry C      P def2-QZVP            selected for orbital group  1
 Library entry C      D def2-QZVP            selected for orbital group  1
 Library entry C      F def2-QZVP            selected for orbital group  1
 Library entry C      G def2-QZVP            selected for orbital group  1
 Library entry N      S def2-QZVP            selected for orbital group  2
 Library entry N      P def2-QZVP            selected for orbital group  2
 Library entry N      D def2-QZVP            selected for orbital group  2
 Library entry N      F def2-QZVP            selected for orbital group  2
 Library entry N      G def2-QZVP            selected for orbital group  2
 Library entry H      S def2-QZVP            selected for orbital group  3
 Library entry H      P def2-QZVP            selected for orbital group  3
 Library entry H      D def2-QZVP            selected for orbital group  3
 Library entry H      F def2-QZVP            selected for orbital group  3


 PROGRAM * SEWARD (Integral evaluation for generally contracted gaussian basis sets)     Author: Roland Lindh, 1990

 Geometry written to block  1 of record 700


 Point group  C1  



 ATOMIC COORDINATES

 NR  ATOM    CHARGE       X              Y              Z

   1  C       6.00   -2.636130149   -0.849734249    0.001322808
   2  C       6.00   -0.823448159    1.349377837    0.003836144
   3  N       7.00    3.642579386   -0.714977879    0.005744767
   4  H       1.00   -2.267841425   -2.118288499   -1.579225225
   5  H       1.00   -2.498406909   -1.942411689    1.741892850
   6  H       1.00   -4.589596736   -0.199082647   -0.168809235
   7  H       1.00   -0.789319705    2.472668839   -1.714359540
   8  H       1.00   -0.833614885    2.511616095    1.695972505
   9  H       1.00    1.565638094    0.341265641   -0.053970578
  10  H       1.00    4.672517918    0.941215891    0.007388829

 Bond lengths in Bohr (Angstrom)

 1-2  2.849897591  1-4  2.059854013  1-5  2.059731960  1-6  2.065992286  2-7  2.053081547
     ( 1.508100859)     ( 1.090027802)     ( 1.089963214)     ( 1.093276036)     ( 1.086443967)

  2- 8  2.052858153   2- 9  2.593716434   3- 9  2.330858517   3-10  1.950321483
       ( 1.086325752)       ( 1.372535628)       ( 1.233437209)       ( 1.032065683)

 Bond angles

  1-2-7  115.59591255   1-2-8  115.75024036   1-2-9  106.61454224   2-1-4  111.23354516

  2-1-5  111.47404485   2-1-6  111.00586724   2-9-3  175.08456843   4-1-5  108.04446468

  4-1-6  107.44676361   5-1-6  107.45054195   7-2-8  112.34332724   7-2-9  100.29346675

  8- 2- 9  104.06268725   9- 3-10   94.91995329

 NUCLEAR CHARGE:                   26
 NUMBER OF PRIMITIVE AOS:         542
 NUMBER OF SYMMETRY AOS:          462
 NUMBER OF CONTRACTIONS:          381   ( 381A   )
 NUMBER OF CORE ORBITALS:           3   (   3A   )
 NUMBER OF VALENCE ORBITALS:       19   (  19A   )


 NUCLEAR REPULSION ENERGY   71.85732166


 Eigenvalues of metric

         1 0.948E-04 0.104E-03 0.111E-03 0.120E-03 0.132E-03 0.136E-03 0.169E-03 0.253E-03


 Contracted 2-electron integrals neglected if value below      1.0D-11
 AO integral compression algorithm  1   Integral accuracy      1.0D-11

     7307.002 MB (compressed) written to integral file ( 32.7%)


 NUMBER OF SORTED TWO-ELECTRON INTEGRALS: 2647845606.     BUFFER LENGTH:  32768
 NUMBER OF SEGMENTS:  83  SEGMENT LENGTH:   31999951      RECORD LENGTH: 262144

 Memory used in sort:      32.29 MW

 SORT1 READ  2792593529. AND WROTE  1906051396. INTEGRALS IN  10955 RECORDS. CPU TIME:    32.91 SEC, REAL TIME:  1030.73 SEC
 SORT2 READ  1906051396. AND WROTE  2647845606. INTEGRALS IN  27874 RECORDS. CPU TIME:    57.96 SEC, REAL TIME:   924.02 SEC

 FILE SIZES:   FILE 1:  7342.5 MBYTE,  FILE 4: 22974.3 MBYTE,   TOTAL:  30316.8 MBYTE

 OPERATOR DM      FOR CENTER  0  COORDINATES:    0.000000    0.000000    0.000000


 **********************************************************************************************************************************
 DATASETS  * FILE   NREC   LENGTH (MB)   RECORD NAMES
              1      19     6614.13       500      610      700      900      950      970     1000      129      960     1100   
                                          VAR    BASINP    GEOM    SYMINP    ZMAT    AOBASIS   BASIS     P2S    ABASIS      S 
                                         1400     1410     1200     1210     1080     1600     1650     1300     1700   
                                           T        V       H0       H01     AOSYM     SMH    MOLCAS    ERIS     OPER   

 PROGRAMS   *        TOTAL       INT
 CPU TIMES  *       207.81    207.67
 REAL TIME  *      2239.64 SEC
 DISK USED  *        30.32 GB      
 **********************************************************************************************************************************

 Density functional group B3LYP3=B88+DIRAC+LYP+VWN3
 Functional: B88(Automatically generated (new) B88)                            Gradient terms: 1
 Functional: DIRAC(Automatically generated (new) DIRAC)                        Gradient terms: 0
 Functional: LYP(Automatically generated (new) LYP)                            Gradient terms: 1
 Functional: VWN3(Automatically generated (new) VWN3)                          Gradient terms: 0
 Use grid at  1800.2


 Exact exchange will be calculated, factor:  0.2000

 Functional: B88                       Factor:  0.7200
 Functional: DIRAC                     Factor:  0.0800
 Functional: LYP                       Factor:  0.8100
 Functional: VWN3                      Factor:  0.1900

 Generated new metagrid on record  1800.2 with target accuracy 1.0D-06 and 39742 points in CPU time    0.8
 Computed new grid on record 1800.1 in CPU time    0.9
  306758 words reserved for DFT integration

 PROGRAM * UKS-SCF (Unrestricted Kohn-Sham)     Authors: W. Meyer, H.-J. Werner, P.J. Knowles, 1993

 NUMBER OF ELECTRONS:      14+   12-    SPACE SYMMETRY=1    SPIN SYMMETRY: Triplet 
 CONVERGENCE THRESHOLDS:    1.00E-05 (Density)    1.00E-06 (Energy)
 MAX. NUMBER OF ITERATIONS:       60
 INTERPOLATION TYPE:            DIIS
 INTERPOLATION STEPS:              2 (START)      1 (STEP)
 LEVEL SHIFTS:                 -0.20 (ALPHA)  -0.20 (BETA) 



 Use fine grid record 1800.2 for energy threshold  1.0D-06
 Orbital guess generated from atomic densities. Full valence occupancy:   13

 Molecular orbital dump at record        2200.2

 Initial alpha occupation  14
 Initial beta  occupation  12

 ITERATION    DDIFF          GRAD             ENERGY        2-EL.EN.            DIPOLE MOMENTS         DIIS
    1      0.000D+00      0.000D+00      -134.98086033    271.754339   -0.01545    0.75569   -0.02152    0
    2      0.121D-02      0.122D-02      -135.08025769    263.029422   -0.35803    0.63696   -0.00697    1
    3      0.316D-03      0.540D-03      -135.09623413    264.988811   -0.30671    0.62048   -0.01015    2
    4      0.149D-03      0.832D-04      -135.09720217    264.979713   -0.33148    0.62746   -0.01006    3
    5      0.110D-03      0.447D-04      -135.09748256    264.905974   -0.33627    0.62049   -0.00986    4
    6      0.999D-04      0.189D-04      -135.09757639    264.905547   -0.34551    0.62776   -0.00988    5
    7      0.343D-04      0.752D-05      -135.09759133    264.897554   -0.34774    0.62780   -0.00994    6
    8      0.734D-05      0.335D-05      -135.09759383    264.896460   -0.34949    0.62954   -0.00996    7
    9      0.545D-05      0.160D-05      -135.09759470    264.897485   -0.35099    0.63026   -0.01001    8

 Final alpha occupancy:  14
 Final beta  occupancy:  12

 !UKS STATE 1.1 Energy               -135.097594700615
 Nuclear energy                        71.85732166
 One-electron energy                 -322.98711991
 Two-electron energy                  132.44874233
 Density functional                   -16.41653878     B88=-19.40515900 DIRAC=-17.42500530 LYP= -0.80592890 VWN3= -2.09484984
 Virial quotient                       -1.00514809
 !UKS STATE 1.1 Dipole moment          -0.35098959     0.63025739    -0.01001227
 Dipole moment /Debye                  -0.89206812     1.60184959    -0.02544698

 Orbital energies for positive spin:

         1.1          2.1          3.1          4.1          5.1          6.1          7.1          8.1          9.1         10.1
    -14.355524   -10.189849   -10.172744    -0.845143    -0.766951    -0.627450    -0.470162    -0.458391    -0.407531    -0.393382

        11.1         12.1         13.1         14.1         15.1         16.1
     -0.365467    -0.360502    -0.317413    -0.226880     0.015007     0.034792

 Orbital energies for negative spin:

         1.1          2.1          3.1          4.1          5.1          6.1          7.1          8.1          9.1         10.1
    -14.325632   -10.179910   -10.173013    -0.776339    -0.744380    -0.611476    -0.454122    -0.440387    -0.390878    -0.384680

        11.1         12.1         13.1         14.1         15.1         16.1
     -0.361954    -0.313452    -0.109529    -0.092223     0.018394     0.037195

 HOMO     14.1    -0.226880 =      -6.1737eV
 LUMO    -13.1    -0.109529 =      -2.9804eV
 LUMO-HOMO         0.117350 =       3.1933eV

 EXPECTATION VALUE OF S**2:             2.01172076

 Occupation number threshold for canonical orbitals:  1.999000 (occupied),  0.001000 (virtual)

 Number of pseudo-canonical orbitals per symmetry:   10
 Number of active natural orbitals per symmetry:      6

 Natural orbitals saved to record    2200.2 (Orbital set 3)

 Orbital spaces for UNO-CAS (Min. occupation: 0.020  Max. occupation: 1.980):

 Closed:       12
 Active:        2


 **********************************************************************************************************************************
 DATASETS  * FILE   NREC   LENGTH (MB)   RECORD NAMES
              1      20     6615.40       500      610      700      900      950      970     1000      129      960     1100   
                                          VAR    BASINP    GEOM    SYMINP    ZMAT    AOBASIS   BASIS     P2S    ABASIS      S 
                                         1400     1410     1200     1210     1080     1600     1650     1300     1700     1800   
                                           T        V       H0       H01     AOSYM     SMH    MOLCAS    ERIS     OPER     GRID   

              2       5        8.80       700     1000      520     1800     2200   
                                         GEOM     BASIS   MCVARS    GRID      UKS  

 PROGRAMS   *        TOTAL       UKS       INT
 CPU TIMES  *       742.10    534.29    207.67
 REAL TIME  *      2916.95 SEC
 DISK USED  *        30.32 GB      
 **********************************************************************************************************************************


 PROGRAM * Intrinsic Basis Bonding Analysis (IBBA)          Author: G. Knizia

 Molecular orbitals read from record     2200.2  Type=UKS/ALPHA (state 1.1)
 Fock matrix read from record            2200.2  Type=UKS/TOTAL (state 1.1)
 Orbital energies read from record       2200.2  Type=UKS/ALPHA (state 1.1)
 Density matrix read from record         2200.2  Type=UKS/CHARGE (state 1.1)

 Number of core orbitals:           3 (   3 )
 Number of closed-shell orbitals:   9 (   9 )
 Number of active  orbitals:        2 (   2 )

 Basis set MINAO-AUTO-PP generated.      Number of basis functions:   22 

 Polarized AO type:                A = (O Ot + (1-O)(1-Ot)) P12
 Orthogonalization method:         Symmetric (Loewdin)
 Localization functional:          L = sum[A,i] <i|n_A|i>^4 -> max

 Localization group 1:  12 orbitals, occupancy  2.000
 Iterative localization: IB/PM,    8 iter; Final gradient 0.98E-09

 Bond order analysis:       [THRPRINT= 0.020]

   CEN ATOM   CEN ATOM     WIBERG.BO      RENORM.BO
     1   C  -   2   C       1.132884       1.217972
     1   C  -   5   H       0.950046       0.986698
     1   C  -   4   H       0.942988       0.987277
     1   C  -   6   H       0.871044       0.992994
     1   C  -   3   N       0.041674       0.135313

     2   C  -   1   C       1.132884       1.217972
     2   C  -   8   H       0.935240       0.982486
     2   C  -   7   H       0.930637       0.982015
     2   C  -   3   N       0.392281       1.474050
     2   C  -   9   H       0.283563       0.671752
     2   C  -   6   H       0.041995       0.098784

     3   N  -  10   H       0.917188       0.999810
     3   N  -   9   H       0.624798       0.873575
     3   N  -   2   C       0.392281       1.474050
     3   N  -   1   C       0.041674       0.135313
     3   N  -   6   H       0.038436       0.049100
     3   N  -   7   H       0.021629       0.467938

     4   H  -   1   C       0.942988       0.987277

     5   H  -   1   C       0.950046       0.986698

     6   H  -   1   C       0.871044       0.992994
     6   H  -   2   C       0.041995       0.098784
     6   H  -   3   N       0.038436       0.049100

     7   H  -   2   C       0.930637       0.982015
     7   H  -   3   N       0.021629       0.467938

     8   H  -   2   C       0.935240       0.982486

     9   H  -   3   N       0.624798       0.873575
     9   H  -   2   C       0.283563       0.671752

    10   H  -   3   N       0.917188       0.999810


 Valency analysis:

   CEN ATOM   TOT.VALENCE
     1   C       3.943051
     2   C       3.729373
     3   N       2.069561
     4   H       0.974280
     5   H       0.975987
     6   H       0.959355
     7   H       0.969272
     8   H       0.969749
     9   H       0.918769
    10   H       0.919702
 Localization group 2:   2 orbitals, occupancy  1.000
 Iterative localization: IB/PM,    3 iter; Final gradient 0.20E-15

 Bond order analysis:       [THRPRINT= 0.020]

   CEN ATOM   CEN ATOM     WIBERG.BO      RENORM.BO
     1   C  -   2   C       0.022863       1.000000

     2   C  -   3   N       0.393064       1.000000
     2   C  -   6   H       0.043920       0.500000
     2   C  -   1   C       0.022863       1.000000

     3   N  -   2   C       0.393064       1.000000
     3   N  -   6   H       0.031534       0.500000



     6   H  -   2   C       0.043920       0.500000
     6   H  -   3   N       0.031534       0.500000






 Valency analysis:

   CEN ATOM   TOT.VALENCE
     1   C       0.043741
     2   C       0.506241
     3   N       0.487274
     4   H       0.018557
     5   H       0.011225
     6   H       0.081105
     7   H       0.019107
     8   H       0.017553
     9   H       0.030246
    10   H       0.004114

 Total charge composition:

   CEN ATOM         s          p       ELECTRONS ->P.CHARGE
     1   C       3.02478    3.34811      6.37289   -0.37289
     2   C       3.10501    3.28985      6.39486   -0.39486
     3   N       3.72945    3.84406      7.57352   -0.57352
     4   H       0.84899                 0.84899    0.15101
     5   H       0.85068                 0.85068    0.14932
     6   H       0.84074                 0.84074    0.15926
     7   H       0.83435                 0.83435    0.16565
     8   H       0.83493                 0.83493    0.16507
     9   H       0.73035                 0.73035    0.26965
    10   H       0.71869                 0.71869    0.28131

 Total charge composition, AO contributions:

   CEN ATOM SHL      SPHERICAL COMPONENTS
     1   C  1s       1.99094
     1   C  2s       1.03384
     1   C  2p       1.08438    1.09043    1.17330

     2   C  1s       1.99212
     2   C  2s       1.11288
     2   C  2p       1.02769    1.08577    1.17639

     3   N  1s       1.99725
     3   N  2s       1.73221
     3   N  2p       1.30341    1.53035    1.01031

     4   H  1s       0.84899

     5   H  1s       0.85068

     6   H  1s       0.84074

     7   H  1s       0.83435

     8   H  1s       0.83493

     9   H  1s       0.73035

    10   H  1s       0.71869

 Active orbital charges:

   CEN ATOM         s          p       ELECTRONS ->SPIN.DEN
     1   C       0.00022    0.02214      0.02236    0.02236
     2   C       0.02414    0.49793      0.52207    0.52207
     3   N       0.00378    1.35852      1.36230    1.36230
     4   H       0.00937                 0.00937    0.00937
     5   H       0.00564                 0.00564    0.00564
     6   H       0.04235                 0.04235    0.04235
     7   H       0.00965                 0.00965    0.00965
     8   H       0.00885                 0.00885    0.00885
     9   H       0.01536                 0.01536    0.01536
    10   H       0.00206                 0.00206    0.00206

 Active orbital charges, AO contributions:

   CEN ATOM SHL      SPHERICAL COMPONENTS
     1   C  1s       0.00000
     1   C  2s       0.00021
     1   C  2p       0.02137    0.00045    0.00032

     2   C  1s       0.00006
     2   C  2s       0.02408
     2   C  2p       0.39903    0.09524    0.00366

     3   N  1s       0.00004
     3   N  2s       0.00374
     3   N  2p       0.27334    0.09550    0.98968

     4   H  1s       0.00937

     5   H  1s       0.00564

     6   H  1s       0.04235

     7   H  1s       0.00965

     8   H  1s       0.00885

     9   H  1s       0.01536

    10   H  1s       0.00206

 Summary of localized orbital composition:   [THRPRINT= 0.020]

   ORB  GRP  ORB.ENERGY      CENTERS/CHARGES
     1   1   -14.213126      N  3   2.000
     2   1   -10.075744      C  2   2.000
     3   1   -10.055459      C  1   2.000
     4   1    -0.665599      N  3   1.281   H 10   0.716
     5   1    -0.602938      C  2   1.026   C  1   0.963
     6   1    -0.556089      N  3   1.944   C  2   0.034   (other: 0.022)
     7   1    -0.544805      C  2   1.152   H  7   0.815   (other: 0.034)
     8   1    -0.543147      C  2   1.154   H  8   0.817   (other: 0.029)
     9   1    -0.521703      C  1   1.100   H  6   0.787   C  2   0.095
    10   1    -0.506024      C  1   1.140   H  5   0.839   (other: 0.021)
    11   1    -0.505964      C  1   1.138   H  4   0.833   (other: 0.028)
    12   1    -0.485121      N  3   0.941   H  9   0.656   C  2   0.380   (other: 0.024)
    13   2    -0.207088      N  3   0.990
    14   2    -0.159295      C  2   0.519   N  3   0.372   H  6   0.042   C  1   0.022   (other: 0.045)

 Localized orbitals saved to record      2200.2  (orbital set 4)


 **********************************************************************************************************************************
 DATASETS  * FILE   NREC   LENGTH (MB)   RECORD NAMES
              1      20     6615.40       500      610      700      900      950      970     1000      129      960     1100   
                                          VAR    BASINP    GEOM    SYMINP    ZMAT    AOBASIS   BASIS     P2S    ABASIS      S 
                                         1400     1410     1200     1210     1080     1600     1650     1300     1700     1800   
                                           T        V       H0       H01     AOSYM     SMH    MOLCAS    ERIS     OPER     GRID   

              2       5        9.97       700     1000      520     1800     2200   
                                         GEOM     BASIS   MCVARS    GRID      UKS  

 PROGRAMS   *        TOTAL      IBBA       UKS       INT
 CPU TIMES  *       742.25      0.15    534.29    207.67
 REAL TIME  *      2919.01 SEC
 DISK USED  *        30.32 GB      
 **********************************************************************************************************************************
 Molecular orbitals read from record     2200.2  Type=UKS/LOCAL(IBO)  
 Occupation numbers read from record     2200.2  Type=UKS/LOCAL(IBO)  
 Orbital energies read from record       2200.2  Type=UKS/LOCAL(IBO)  
 Redundancy group numbers read from rec  2200.2  Type=UKS/BETA (state 1.1)

 IBBA/QZVP energy=      0.000000000000

        UKS-SCF 
   -135.09759470
 **********************************************************************************************************************************
 Molpro calculation terminated
