
 Primary working directories    : /local
 Secondary working directories  : /local
 Wavefunction directory         : /local/
 Main file repository           : /local/

 SHA1      : b4a5b34a9e711420743f49e6833241d17c61fb3c
 NAME      : 2099.9.b4a5b34
 ARCHNAME  : linux/x86_64_openmp
 FC        : /cm/shared/languages/GCC-6.1/bin/gfortran
 BLASLIB   : -lblas
 id        : simonbennie

 Nodes     nprocs
 node35-023    1

 Using customized tuning parameters: mindgm=1; mindgv=20; mindgc=4; mindgr=1; noblas=0; minvec=7
 default implementation of scratch files=df  

 memory,500,m
 geomtyp=xyz
 nosym
 noorient
 geometry={
 C         -1.39498       -0.44966        0.00070
 C         -0.43575        0.71406        0.00203
 N          1.92757       -0.37835        0.00304
 H         -1.20009       -1.12095       -0.83569
 H         -1.32210       -1.02788        0.92177
 H         -2.42871       -0.10535       -0.08933
 H         -0.41769        1.30848       -0.90720
 H         -0.44113        1.32909        0.89747
 H          0.82850        0.18059       -0.02856
 H          2.47259        0.49807        0.00391
 }
 basis={ default,tzvp }
 {uks,PBE,direct;wf,26,1,2}
 {ibba,bonds=1}

 Variables initialized (895), CPU time= 0.01 sec
 Commands  initialized (725), CPU time= 0.01 sec, 591 directives.
 Default parameters read. Elapsed time= 0.09 sec

 Checking input...
 Passed
1


                                         ***  PROGRAM SYSTEM MOLPRO  ***
                                       Copyright, TTI GmbH Stuttgart, 2015
                                    Version 2099.9 linked May 26 2017 16:03:21


 **********************************************************************************************************************************
 LABEL *                                                                                 
  64 bit serial version                                                                  DATE: 23-Jun-17          TIME: 16:13:22  
 **********************************************************************************************************************************

 SHA1:             b4a5b34a9e711420743f49e6833241d17c61fb3c
 **********************************************************************************************************************************
 SETTING GEOMTYP        =    XYZ

 Variable memory set to  500000000 words,  buffer space 

 ZSYMEL=NOSYM

 SETTING BASIS          =    TZVP


 Recomputing integrals since basis changed


 Using spherical harmonics

 Library entry C      S def2-TZVP            selected for orbital group  1
 Library entry C      P def2-TZVP            selected for orbital group  1
 Library entry C      D def2-TZVP            selected for orbital group  1
 Library entry C      F def2-TZVP            selected for orbital group  1
 Library entry N      S def2-TZVP            selected for orbital group  2
 Library entry N      P def2-TZVP            selected for orbital group  2
 Library entry N      D def2-TZVP            selected for orbital group  2
 Library entry N      F def2-TZVP            selected for orbital group  2
 Library entry H      S def2-TZVP            selected for orbital group  3
 Library entry H      P def2-TZVP            selected for orbital group  3


 PROGRAM * SEWARD (Integral evaluation for generally contracted gaussian basis sets)     Author: Roland Lindh, 1990

 Geometry written to block  1 of record 700


 Point group  C1  



 ATOMIC COORDINATES

 NR  ATOM    CHARGE       X              Y              Z

   1  C       6.00   -2.636130149   -0.849734249    0.001322808
   2  C       6.00   -0.823448159    1.349377837    0.003836144
   3  N       7.00    3.642579386   -0.714977879    0.005744767
   4  H       1.00   -2.267841425   -2.118288499   -1.579225225
   5  H       1.00   -2.498406909   -1.942411689    1.741892850
   6  H       1.00   -4.589596736   -0.199082647   -0.168809235
   7  H       1.00   -0.789319705    2.472668839   -1.714359540
   8  H       1.00   -0.833614885    2.511616095    1.695972505
   9  H       1.00    1.565638094    0.341265641   -0.053970578
  10  H       1.00    4.672517918    0.941215891    0.007388829

 Bond lengths in Bohr (Angstrom)

 1-2  2.849897591  1-4  2.059854013  1-5  2.059731960  1-6  2.065992286  2-7  2.053081547
     ( 1.508100859)     ( 1.090027802)     ( 1.089963214)     ( 1.093276036)     ( 1.086443967)

  2- 8  2.052858153   2- 9  2.593716434   3- 9  2.330858517   3-10  1.950321483
       ( 1.086325752)       ( 1.372535628)       ( 1.233437209)       ( 1.032065683)

 Bond angles

  1-2-7  115.59591255   1-2-8  115.75024036   1-2-9  106.61454224   2-1-4  111.23354516

  2-1-5  111.47404485   2-1-6  111.00586724   2-9-3  175.08456843   4-1-5  108.04446468

  4-1-6  107.44676361   5-1-6  107.45054195   7-2-8  112.34332724   7-2-9  100.29346675

  8- 2- 9  104.06268725   9- 3-10   94.91995329

 NUCLEAR CHARGE:                   26
 NUMBER OF PRIMITIVE AOS:         209
 NUMBER OF SYMMETRY AOS:          194
 NUMBER OF CONTRACTIONS:          135   ( 135A   )
 NUMBER OF CORE ORBITALS:           3   (   3A   )
 NUMBER OF VALENCE ORBITALS:       19   (  19A   )


 NUCLEAR REPULSION ENERGY   71.85732166


 Eigenvalues of metric

         1 0.377E-03 0.709E-03 0.113E-02 0.241E-02 0.553E-02 0.564E-02 0.681E-02 0.717E-02


 Contracted 2-electron integrals neglected if value below      1.0D-11
 AO integral compression algorithm  1   Integral accuracy      1.0D-11

     152.306 MB (compressed) written to integral file ( 40.4%)


 NUMBER OF SORTED TWO-ELECTRON INTEGRALS:   42140790.     BUFFER LENGTH:  32768
 NUMBER OF SEGMENTS:   3  SEGMENT LENGTH:   15998004      RECORD LENGTH: 524288

 Memory used in sort:      16.56 MW

 SORT1 READ    47083089. AND WROTE    36175429. INTEGRALS IN    104 RECORDS. CPU TIME:     0.53 SEC, REAL TIME:     2.71 SEC
 SORT2 READ    36175429. AND WROTE    42140790. INTEGRALS IN    581 RECORDS. CPU TIME:     1.02 SEC, REAL TIME:     6.57 SEC

 FILE SIZES:   FILE 1:   183.1 MBYTE,  FILE 4:   436.2 MBYTE,   TOTAL:    619.4 MBYTE

 OPERATOR DM      FOR CENTER  0  COORDINATES:    0.000000    0.000000    0.000000


 **********************************************************************************************************************************
 DATASETS  * FILE   NREC   LENGTH (MB)   RECORD NAMES
              1      19      163.55       500      610      700      900      950      970     1000      129      960     1100   
                                          VAR    BASINP    GEOM    SYMINP    ZMAT    AOBASIS   BASIS     P2S    ABASIS      S 
                                         1400     1410     1200     1210     1080     1600     1650     1300     1700   
                                           T        V       H0       H01     AOSYM     SMH    MOLCAS    ERIS     OPER   

 PROGRAMS   *        TOTAL       INT
 CPU TIMES  *         4.81      4.68
 REAL TIME  *        18.79 SEC
 DISK USED  *       619.81 MB      
 **********************************************************************************************************************************

 Density functional group PBE=PBEX+PBEC
 Functional: PBEX(Automatically generated (new) PBEX)                          Gradient terms: 1
 Functional: PBEC(Automatically generated (new) PBEC)                          Gradient terms: 1
 Use grid at  1800.2

 Functional: PBEX                      Factor:  1.0000
 Functional: PBEC                      Factor:  1.0000

 Generated new metagrid on record  1800.2 with target accuracy 1.0D-06 and 37146 points in CPU time    0.8
 Computed new grid on record 1800.1 in CPU time    0.9
  111389 words reserved for DFT integration

 PROGRAM * UKS-SCF (Unrestricted Kohn-Sham)     Authors: W. Meyer, H.-J. Werner, P.J. Knowles, 1993

 NUMBER OF ELECTRONS:      14+   12-    SPACE SYMMETRY=1    SPIN SYMMETRY: Triplet 
 CONVERGENCE THRESHOLDS:    1.00E-05 (Density)    1.00E-06 (Energy)
 MAX. NUMBER OF ITERATIONS:       60
 INTERPOLATION TYPE:            DIIS
 INTERPOLATION STEPS:              2 (START)      1 (STEP)
 LEVEL SHIFTS:                 -0.20 (ALPHA)  -0.20 (BETA) 



 Use fine grid record 1800.2 for energy threshold  1.0D-06
 Orbital guess generated from atomic densities. Full valence occupancy:   13

 Molecular orbital dump at record        2200.2

 Initial alpha occupation  14
 Initial beta  occupation  12

 ITERATION    DDIFF          GRAD             ENERGY        2-EL.EN.            DIPOLE MOMENTS         DIIS
    1      0.000D+00      0.000D+00      -134.72239288    281.293856    0.13225    0.72066   -0.02167    0
    2      0.574D-02      0.413D-02      -134.85304799    269.648754   -0.35142    0.63238   -0.00587    1
    3      0.177D-02      0.218D-02      -134.88790774    272.718824   -0.25791    0.60681   -0.01096    2
    4      0.525D-03      0.244D-03      -134.88866177    272.735888   -0.29457    0.62186   -0.01101    3
    5      0.332D-03      0.123D-03      -134.88888050    272.641940   -0.30073    0.60891   -0.01085    4
    6      0.294D-03      0.495D-04      -134.88896005    272.638031   -0.32000    0.61513   -0.01098    5
    7      0.957D-04      0.201D-04      -134.88897208    272.631061   -0.32401    0.61387   -0.01102    6
    8      0.312D-04      0.102D-04      -134.88897427    272.627908   -0.32648    0.61556   -0.01104    7
    9      0.214D-04      0.450D-05      -134.88897494    272.629124   -0.32837    0.61635   -0.01110    8
   10      0.721D-05      0.147D-05      -134.88897501    272.628689   -0.32863    0.61643   -0.01111    7
   11      0.210D-05      0.333D-06      -134.88897501    272.628459   -0.32881    0.61655   -0.01113    8

 Final alpha occupancy:  14
 Final beta  occupancy:  12

 !UKS STATE 1.1 Energy               -134.888975012360
 Nuclear energy                        71.85732166
 One-electron energy                 -322.97793494
 Two-electron energy                  136.31422972
 Density functional                   -20.08259145     PBEX=-19.27979778 PBEC= -0.80279367
 Virial quotient                       -1.00419528
 !UKS STATE 1.1 Dipole moment          -0.32881042     0.61654761    -0.01112512
 Dipole moment /Debye                  -0.83569800     1.56700508    -0.02827539

 Orbital energies for positive spin:

         1.1          2.1          3.1          4.1          5.1          6.1          7.1          8.1          9.1         10.1
    -14.016522    -9.895379    -9.879340    -0.762049    -0.692254    -0.561234    -0.415755    -0.406420    -0.357829    -0.345501

        11.1         12.1         13.1         14.1         15.1         16.1
     -0.317307    -0.306685    -0.263906    -0.183171     0.016274     0.039782

 Orbital energies for negative spin:

         1.1          2.1          3.1          4.1          5.1          6.1          7.1          8.1          9.1         10.1
    -13.989329    -9.886618    -9.879506    -0.705254    -0.674556    -0.548693    -0.402612    -0.393637    -0.345701    -0.337739

        11.1         12.1         13.1         14.1         15.1         16.1
     -0.314118    -0.270360    -0.145592    -0.120633     0.022151     0.045330

 HOMO     14.1    -0.183171 =      -4.9843eV
 LUMO    -13.1    -0.145592 =      -3.9618eV
 LUMO-HOMO         0.037580 =       1.0226eV

 EXPECTATION VALUE OF S**2:             2.00714125

 Occupation number threshold for canonical orbitals:  1.999000 (occupied),  0.001000 (virtual)

 Number of pseudo-canonical orbitals per symmetry:   10
 Number of active natural orbitals per symmetry:      6

 Natural orbitals saved to record    2200.2 (Orbital set 3)

 Orbital spaces for UNO-CAS (Min. occupation: 0.020  Max. occupation: 1.980):

 Closed:       12
 Active:        2


 **********************************************************************************************************************************
 DATASETS  * FILE   NREC   LENGTH (MB)   RECORD NAMES
              1      20      164.74       500      610      700      900      950      970     1000      129      960     1100   
                                          VAR    BASINP    GEOM    SYMINP    ZMAT    AOBASIS   BASIS     P2S    ABASIS      S 
                                         1400     1410     1200     1210     1080     1600     1650     1300     1700     1800   
                                           T        V       H0       H01     AOSYM     SMH    MOLCAS    ERIS     OPER     GRID   

              2       5        3.67       700     1000      520     1800     2200   
                                         GEOM     BASIS   MCVARS    GRID      UKS  

 PROGRAMS   *        TOTAL       UKS       INT
 CPU TIMES  *        25.63     20.82      4.68
 REAL TIME  *        41.36 SEC
 DISK USED  *       619.81 MB      
 **********************************************************************************************************************************


 PROGRAM * Intrinsic Basis Bonding Analysis (IBBA)          Author: G. Knizia

 Molecular orbitals read from record     2200.2  Type=UKS/ALPHA (state 1.1)
 Fock matrix read from record            2200.2  Type=UKS/TOTAL (state 1.1)
 Orbital energies read from record       2200.2  Type=UKS/ALPHA (state 1.1)
 Density matrix read from record         2200.2  Type=UKS/CHARGE (state 1.1)

 Number of core orbitals:           3 (   3 )
 Number of closed-shell orbitals:   9 (   9 )
 Number of active  orbitals:        2 (   2 )

 Basis set MINAO-AUTO-PP generated.      Number of basis functions:   22 

 Polarized AO type:                A = (O Ot + (1-O)(1-Ot)) P12
 Orthogonalization method:         Symmetric (Loewdin)
 Localization functional:          L = sum[A,i] <i|n_A|i>^4 -> max

 Localization group 1:  12 orbitals, occupancy  2.000
 Iterative localization: IB/PM,    8 iter; Final gradient 0.19E-08

 Bond order analysis:       [THRPRINT= 0.020]

   CEN ATOM   CEN ATOM     WIBERG.BO      RENORM.BO
     1   C  -   2   C       1.132139       1.205631
     1   C  -   5   H       0.946850       0.985464
     1   C  -   4   H       0.939939       0.986094
     1   C  -   6   H       0.873835       0.992326
     1   C  -   3   N       0.039190       0.114861

     2   C  -   1   C       1.132139       1.205631
     2   C  -   8   H       0.935051       0.980914
     2   C  -   7   H       0.930696       0.980397
     2   C  -   3   N       0.395565       1.514067
     2   C  -   9   H       0.297261       0.673177
     2   C  -   6   H       0.037923       0.087220

     3   N  -  10   H       0.920454       0.999772
     3   N  -   9   H       0.624347       0.879995
     3   N  -   2   C       0.395565       1.514067
     3   N  -   1   C       0.039190       0.114861
     3   N  -   6   H       0.037485       0.050143

     4   H  -   1   C       0.939939       0.986094

     5   H  -   1   C       0.946850       0.985464

     6   H  -   1   C       0.873835       0.992326
     6   H  -   2   C       0.037923       0.087220
     6   H  -   3   N       0.037485       0.050143

     7   H  -   2   C       0.930696       0.980397

     8   H  -   2   C       0.935051       0.980914

     9   H  -   3   N       0.624347       0.879995
     9   H  -   2   C       0.297261       0.673177

    10   H  -   3   N       0.920454       0.999772


 Valency analysis:

   CEN ATOM   TOT.VALENCE
     1   C       3.936121
     2   C       3.740524
     3   N       2.068007
     4   H       0.971880
     5   H       0.973643
     6   H       0.957564
     7   H       0.968597
     8   H       0.968949
     9   H       0.931868
    10   H       0.922623
 Localization group 2:   2 orbitals, occupancy  1.000
 Iterative localization: IB/PM,    3 iter; Final gradient 0.38E-15

 Bond order analysis:       [THRPRINT= 0.020]

   CEN ATOM   CEN ATOM     WIBERG.BO      RENORM.BO

     2   C  -   3   N       0.401241       1.000000
     2   C  -   6   H       0.042041       0.500000

     3   N  -   2   C       0.401241       1.000000
     3   N  -   6   H       0.032086       0.500000



     6   H  -   2   C       0.042041       0.500000
     6   H  -   3   N       0.032086       0.500000






 Valency analysis:

   CEN ATOM   TOT.VALENCE
     1   C       0.038600
     2   C       0.505256
     3   N       0.491455
     4   H       0.018739
     5   H       0.011221
     6   H       0.079148
     7   H       0.016810
     8   H       0.015536
     9   H       0.026053
    10   H       0.003994

 Total charge composition:

   CEN ATOM         s          p       ELECTRONS ->P.CHARGE
     1   C       3.02894    3.37247      6.40140   -0.40140
     2   C       3.10234    3.30058      6.40292   -0.40292
     3   N       3.73246    3.80398      7.53644   -0.53644
     4   H       0.84177                 0.84177    0.15823
     5   H       0.84329                 0.84329    0.15671
     6   H       0.83528                 0.83528    0.16472
     7   H       0.83127                 0.83127    0.16873
     8   H       0.83162                 0.83162    0.16838
     9   H       0.75218                 0.75218    0.24782
    10   H       0.72383                 0.72383    0.27617

 Total charge composition, AO contributions:

   CEN ATOM SHL      SPHERICAL COMPONENTS
     1   C  1s       1.99116
     1   C  2s       1.03778
     1   C  2p       1.09421    1.09691    1.18135

     2   C  1s       1.99233
     2   C  2s       1.11002
     2   C  2p       1.03195    1.08732    1.18131

     3   N  1s       1.99732
     3   N  2s       1.73514
     3   N  2p       1.28269    1.51302    1.00826

     4   H  1s       0.84177

     5   H  1s       0.84329

     6   H  1s       0.83528

     7   H  1s       0.83127

     8   H  1s       0.83162

     9   H  1s       0.75218

    10   H  1s       0.72383

 Active orbital charges:

   CEN ATOM         s          p       ELECTRONS ->SPIN.DEN
     1   C       0.00019    0.01949      0.01968    0.01968
     2   C       0.02476    0.48721      0.51197    0.51197
     3   N       0.00304    1.37742      1.38046    1.38046
     4   H       0.00946                 0.00946    0.00946
     5   H       0.00564                 0.00564    0.00564
     6   H       0.04128                 0.04128    0.04128
     7   H       0.00848                 0.00848    0.00848
     8   H       0.00783                 0.00783    0.00783
     9   H       0.01320                 0.01320    0.01320
    10   H       0.00200                 0.00200    0.00200

 Active orbital charges, AO contributions:

   CEN ATOM SHL      SPHERICAL COMPONENTS
     1   C  1s       0.00000
     1   C  2s       0.00019
     1   C  2p       0.01891    0.00043    0.00015

     2   C  1s       0.00005
     2   C  2s       0.02471
     2   C  2p       0.39034    0.09396    0.00290

     3   N  1s       0.00004
     3   N  2s       0.00300
     3   N  2p       0.28143    0.10450    0.99150

     4   H  1s       0.00946

     5   H  1s       0.00564

     6   H  1s       0.04128

     7   H  1s       0.00848

     8   H  1s       0.00783

     9   H  1s       0.01320

    10   H  1s       0.00200

 Summary of localized orbital composition:   [THRPRINT= 0.020]

   ORB  GRP  ORB.ENERGY      CENTERS/CHARGES
     1   1   -13.882176      N  3   2.000
     2   1    -9.785301      C  2   2.000
     3   1    -9.765059      C  1   2.000
     4   1    -0.598874      N  3   1.276   H 10   0.721
     5   1    -0.544585      C  2   1.021   C  1   0.968
     6   1    -0.493632      N  3   1.939   C  2   0.037   H  9   0.021
     7   1    -0.486334      C  2   1.155   H  7   0.813   (other: 0.031)
     8   1    -0.484803      C  2   1.158   H  8   0.815   (other: 0.027)
     9   1    -0.466375      C  1   1.111   H  6   0.783   C  2   0.088
    10   1    -0.451375      C  1   1.146   H  4   0.826   (other: 0.028)
    11   1    -0.451302      C  1   1.147   H  5   0.832   (other: 0.021)
    12   1    -0.437515      N  3   0.896   H  9   0.684   C  2   0.400
    13   2    -0.201995      N  3   0.992
    14   2    -0.151838      C  2   0.509   N  3   0.389   H  6   0.041   (other: 0.061)

 Localized orbitals saved to record      2200.2  (orbital set 4)


 **********************************************************************************************************************************
 DATASETS  * FILE   NREC   LENGTH (MB)   RECORD NAMES
              1      20      164.74       500      610      700      900      950      970     1000      129      960     1100   
                                          VAR    BASINP    GEOM    SYMINP    ZMAT    AOBASIS   BASIS     P2S    ABASIS      S 
                                         1400     1410     1200     1210     1080     1600     1650     1300     1700     1800   
                                           T        V       H0       H01     AOSYM     SMH    MOLCAS    ERIS     OPER     GRID   

              2       5        3.82       700     1000      520     1800     2200   
                                         GEOM     BASIS   MCVARS    GRID      UKS  

 PROGRAMS   *        TOTAL      IBBA       UKS       INT
 CPU TIMES  *        25.67      0.04     20.82      4.68
 REAL TIME  *        41.46 SEC
 DISK USED  *       619.81 MB      
 **********************************************************************************************************************************
 Molecular orbitals read from record     2200.2  Type=UKS/LOCAL(IBO)  
 Occupation numbers read from record     2200.2  Type=UKS/LOCAL(IBO)  
 Orbital energies read from record       2200.2  Type=UKS/LOCAL(IBO)  
 Redundancy group numbers read from rec  2200.2  Type=UKS/BETA (state 1.1)

 IBBA/TZVP energy=      0.000000000000

        UKS-SCF 
   -134.88897501
 **********************************************************************************************************************************
 Molpro calculation terminated
