
 Primary working directories    : /local
 Secondary working directories  : /local
 Wavefunction directory         : /local/
 Main file repository           : /local/

 SHA1      : b4a5b34a9e711420743f49e6833241d17c61fb3c
 NAME      : 2099.9.b4a5b34
 ARCHNAME  : linux/x86_64_openmp
 FC        : /cm/shared/languages/GCC-6.1/bin/gfortran
 BLASLIB   : -lblas
 id        : simonbennie

 Nodes     nprocs
 node32-014    1

 Using customized tuning parameters: mindgm=1; mindgv=20; mindgc=4; mindgr=1; noblas=0; minvec=7
 default implementation of scratch files=df  

 memory,500,m
 geomtyp=xyz
 nosym
 noorient
 geometry={
 C         -1.39498       -0.44966        0.00070
 C         -0.43575        0.71406        0.00203
 N          1.92757       -0.37835        0.00304
 H         -1.20009       -1.12095       -0.83569
 H         -1.32210       -1.02788        0.92177
 H         -2.42871       -0.10535       -0.08933
 H         -0.41769        1.30848       -0.90720
 H         -0.44113        1.32909        0.89747
 H          0.82850        0.18059       -0.02856
 H          2.47259        0.49807        0.00391
 }
 basis={ default,sto-3g }
 {hf,direct;wf,26,1,2}
 {ks,B3LYP3,direct;maxit,0;wf,26,1,2}
 {ibba,bonds=1}

 Variables initialized (895), CPU time= 0.00 sec
 Commands  initialized (725), CPU time= 0.01 sec, 591 directives.
 Default parameters read. Elapsed time= 0.09 sec

 Checking input...
 Passed
1


                                         ***  PROGRAM SYSTEM MOLPRO  ***
                                       Copyright, TTI GmbH Stuttgart, 2015
                                    Version 2099.9 linked May 26 2017 16:03:21


 **********************************************************************************************************************************
 LABEL *                                                                                 
  64 bit serial version                                                                  DATE: 17-Mar-18          TIME: 03:05:22  
 **********************************************************************************************************************************

 SHA1:             b4a5b34a9e711420743f49e6833241d17c61fb3c
 **********************************************************************************************************************************
 SETTING GEOMTYP        =    XYZ

 Variable memory set to  500000000 words,  buffer space 

 ZSYMEL=NOSYM

 SETTING BASIS          =    STO-3G


 Recomputing integrals since basis changed


 Using spherical harmonics

 Library entry C      S STO-3G               selected for orbital group  1
 Library entry C      P STO-3G               selected for orbital group  1
 Library entry N      S STO-3G               selected for orbital group  2
 Library entry N      P STO-3G               selected for orbital group  2
 Library entry H      S STO-3G               selected for orbital group  3


 PROGRAM * SEWARD (Integral evaluation for generally contracted gaussian basis sets)     Author: Roland Lindh, 1990

 Geometry written to block  1 of record 700


 Point group  C1  



 ATOMIC COORDINATES

 NR  ATOM    CHARGE       X              Y              Z

   1  C       6.00   -2.636130149   -0.849734249    0.001322808
   2  C       6.00   -0.823448159    1.349377837    0.003836144
   3  N       7.00    3.642579386   -0.714977879    0.005744767
   4  H       1.00   -2.267841425   -2.118288499   -1.579225225
   5  H       1.00   -2.498406909   -1.942411689    1.741892850
   6  H       1.00   -4.589596736   -0.199082647   -0.168809235
   7  H       1.00   -0.789319705    2.472668839   -1.714359540
   8  H       1.00   -0.833614885    2.511616095    1.695972505
   9  H       1.00    1.565638094    0.341265641   -0.053970578
  10  H       1.00    4.672517918    0.941215891    0.007388829

 Bond lengths in Bohr (Angstrom)

 1-2  2.849897591  1-4  2.059854013  1-5  2.059731960  1-6  2.065992286  2-7  2.053081547
     ( 1.508100859)     ( 1.090027802)     ( 1.089963214)     ( 1.093276036)     ( 1.086443967)

  2- 8  2.052858153   2- 9  2.593716434   3- 9  2.330858517   3-10  1.950321483
       ( 1.086325752)       ( 1.372535628)       ( 1.233437209)       ( 1.032065683)

 Bond angles

  1-2-7  115.59591255   1-2-8  115.75024036   1-2-9  106.61454224   2-1-4  111.23354516

  2-1-5  111.47404485   2-1-6  111.00586724   2-9-3  175.08456843   4-1-5  108.04446468

  4-1-6  107.44676361   5-1-6  107.45054195   7-2-8  112.34332724   7-2-9  100.29346675

  8- 2- 9  104.06268725   9- 3-10   94.91995329

 NUCLEAR CHARGE:                   26
 NUMBER OF PRIMITIVE AOS:          66
 NUMBER OF SYMMETRY AOS:           66
 NUMBER OF CONTRACTIONS:           22   (  22A   )
 NUMBER OF CORE ORBITALS:           3   (   3A   )
 NUMBER OF VALENCE ORBITALS:       19   (  19A   )


 NUCLEAR REPULSION ENERGY   71.85732166


 Eigenvalues of metric

         1 0.211E+00 0.255E+00 0.317E+00 0.339E+00 0.365E+00 0.388E+00 0.391E+00 0.401E+00


 Contracted 2-electron integrals neglected if value below      1.0D-11
 AO integral compression algorithm  1   Integral accuracy      1.0D-11

     0.262 MB (compressed) written to integral file (100.0%)


 NUMBER OF SORTED TWO-ELECTRON INTEGRALS:      32131.     BUFFER LENGTH:  32768
 NUMBER OF SEGMENTS:   1  SEGMENT LENGTH:      32131      RECORD LENGTH: 524288

 Memory used in sort:       0.59 MW

 SORT1 READ       37963. AND WROTE       31121. INTEGRALS IN      1 RECORDS. CPU TIME:     0.00 SEC, REAL TIME:     0.00 SEC
 SORT2 READ       31121. AND WROTE       32131. INTEGRALS IN      1 RECORDS. CPU TIME:     0.01 SEC, REAL TIME:     0.00 SEC

 FILE SIZES:   FILE 1:    30.4 MBYTE,  FILE 4:     4.2 MBYTE,   TOTAL:     34.6 MBYTE

 OPERATOR DM      FOR CENTER  0  COORDINATES:    0.000000    0.000000    0.000000


 **********************************************************************************************************************************
 DATASETS  * FILE   NREC   LENGTH (MB)   RECORD NAMES
              1      19       30.26       500      610      700      900      950      970     1000      129      960     1100   
                                          VAR    BASINP    GEOM    SYMINP    ZMAT    AOBASIS   BASIS     P2S    ABASIS      S 
                                         1400     1410     1200     1210     1080     1600     1650     1300     1700   
                                           T        V       H0       H01     AOSYM     SMH    MOLCAS    ERIS     OPER   

 PROGRAMS   *        TOTAL       INT
 CPU TIMES  *         0.39      0.23
 REAL TIME  *         0.69 SEC
 DISK USED  *        35.03 MB      
 **********************************************************************************************************************************


 PROGRAM * RHF-SCF (OPEN SHELL)       Authors: W. Meyer, H.-J. Werner


 NUMBER OF ELECTRONS:      14+   12-    SPACE SYMMETRY=1    SPIN SYMMETRY: Triplet 
 CONVERGENCE THRESHOLDS:    1.00E-05 (Density)    1.00E-07 (Energy)
 INTEGRAL THRESHOLDS:       1.00E-11 (Initial)    1.00E-11 (Final)
 MAX. NUMBER OF ITERATIONS:       60
 INTERPOLATION TYPE:            DIIS
 INTERPOLATION STEPS:              2 (START)      1 (STEP)
 LEVEL SHIFTS:                 -0.60 (CLOSED) -0.30 (OPEN) 



 Orbital guess generated from atomic densities. Full valence occupancy:   13

 Molecular orbital dump at record        2100.2

 Initial alpha occupancy:  14
 Initial beta  occupancy:  12
 Wave function symmetry:    1

 Direct Fock-matrix evaluation.        Author: H.-J. Werner (1996)

 Integral Threshold:                  0.1D-10

 ITERATION   DDIFF            GRAD            ENERGY        2-EL.EN.            DIPOLE MOMENTS         DIIS   CPU(IT)  CPU(TOT)
    1      0.000D+00      0.000D+00      -132.40820112    238.311596    0.18551    0.71770   -0.01907    0      1.0      1.9     start
    2      0.000D+00      0.171D-01      -132.46691668    235.399553    0.02197    0.65312   -0.01126    1      0.5      2.5     diag,B
    3      0.258D-01      0.463D-02      -132.47288084    234.563573    0.00747    0.56283   -0.00941    2      0.6      3.0     diag,B
    4      0.860D-02      0.120D-02      -132.47361193    234.448039   -0.00881    0.54334   -0.00923    3      0.6      3.6     diag,B
    5      0.271D-02      0.441D-03      -132.47379772    234.442308   -0.02186    0.54395   -0.00917    4      0.5      4.1     diag,B
    6      0.133D-02      0.185D-03      -132.47384985    234.441570   -0.02379    0.54506   -0.00906    5      0.5      4.6     diag,B
    7      0.708D-03      0.850D-04      -132.47386302    234.439492   -0.01985    0.54414   -0.00897    6      0.5      5.1     fixocc
    8      0.439D-03      0.368D-04      -132.47386520    234.439128   -0.01637    0.54333   -0.00893    7      0.5      5.6     diag,B
    9      0.150D-03      0.259D-04      -132.47386719    234.439620   -0.01171    0.54212   -0.00888    8      0.5      6.1     diag,B
   10      0.185D-03      0.168D-04      -132.47386861    234.440280   -0.00510    0.54003   -0.00878    9      0.5      6.6     orth
   11      0.296D-03      0.398D-05      -132.47386865    234.440450   -0.00427    0.53966   -0.00877    9      0.5      7.1     diag,B
   12      0.436D-04      0.127D-05      -132.47386865    234.440473   -0.00420    0.53958   -0.00877    9      0.5      7.6     diag,B
   13      0.724D-05      0.247D-06      -132.47386865    234.440470   -0.00421    0.53959   -0.00878    0      0.5      8.1     orth

 Final alpha occupancy:  14
 Final beta  occupancy:  12

 !RHF STATE 1.1 Energy               -132.473868647668
 Nuclear energy                        71.85732166
 One-electron energy                 -321.55142506
 Two-electron energy                  117.22023475
 Virial quotient                       -1.00499700
 !RHF STATE 1.1 Dipole moment          -0.00421205     0.53958504    -0.00877610
 Dipole moment /Debye                  -0.01070527     1.37139854    -0.02230515

 Orbital energies:

         1.1          2.1          3.1          4.1          5.1          6.1          7.1          8.1          9.1         10.1
    -15.326965   -11.038285   -11.022800    -1.026780    -0.967163    -0.793972    -0.577536    -0.563585    -0.496709    -0.485250

        11.1         12.1         13.1         14.1         15.1         16.1
     -0.463816    -0.411779    -0.459842    -0.301832     0.627852     0.632701

 HOMO     14.1    -0.301832 =      -8.2133eV
 LUMO     15.1     0.627852 =      17.0847eV
 LUMO-HOMO         0.929684 =      25.2980eV


 **********************************************************************************************************************************
 DATASETS  * FILE   NREC   LENGTH (MB)   RECORD NAMES
              1      19       30.26       500      610      700      900      950      970     1000      129      960     1100   
                                          VAR    BASINP    GEOM    SYMINP    ZMAT    AOBASIS   BASIS     P2S    ABASIS      S 
                                         1400     1410     1200     1210     1080     1600     1650     1300     1700   
                                           T        V       H0       H01     AOSYM     SMH    MOLCAS    ERIS     OPER   

              2       4        2.91       700     1000      520     2100   
                                         GEOM     BASIS   MCVARS     RHF  

 PROGRAMS   *        TOTAL        HF       INT
 CPU TIMES  *         8.49      8.10      0.23
 REAL TIME  *        10.39 SEC
 DISK USED  *        35.03 MB      
 **********************************************************************************************************************************

 Density functional group B3LYP3=B88+DIRAC+LYP+VWN3
 Functional: B88(Automatically generated (new) B88)                            Gradient terms: 1
 Functional: DIRAC(Automatically generated (new) DIRAC)                        Gradient terms: 0
 Functional: LYP(Automatically generated (new) LYP)                            Gradient terms: 1
 Functional: VWN3(Automatically generated (new) VWN3)                          Gradient terms: 0
 Use grid at  1800.2


 Exact exchange will be calculated, factor:  0.2000

 Functional: B88                       Factor:  0.7200
 Functional: DIRAC                     Factor:  0.0800
 Functional: LYP                       Factor:  0.8100
 Functional: VWN3                      Factor:  0.1900

 Generated new metagrid on record  1800.2 with target accuracy 1.0D-06 and 36486 points in CPU time    0.8
 Computed new grid on record 1800.1 in CPU time    0.9
   21722 words reserved for DFT integration

 PROGRAM * RKS-SCF (Restricted open shell Kohn-Sham)     Authors: W. Meyer, H.-J. Werner, P.J. Knowles, 1993

 NUMBER OF ELECTRONS:      14+   12-    SPACE SYMMETRY=1    SPIN SYMMETRY: Triplet 
 CONVERGENCE THRESHOLDS:    1.00E-05 (Density)    1.00E-06 (Energy)
 MAX. NUMBER OF ITERATIONS:        0
 INTERPOLATION TYPE:            DIIS
 INTERPOLATION STEPS:              2 (START)      1 (STEP)
 LEVEL SHIFTS:                 -0.60 (CLOSED) -0.30 (OPEN) 



 Use fine grid record 1800.2 for energy threshold  1.0D-06
 Molecular orbitals read from record     2100.2  Type=RHF/CANONICAL (state 1.1)

 Molecular orbital dump at record        2101.2

 ITERATION    DDIFF          GRAD             ENERGY        2-EL.EN.            DIPOLE MOMENTS         DIIS   ORB.
    1      0.000D+00      0.000D+00      -133.33747456    265.648698   -0.00421    0.53959   -0.00878    0    start

 Final alpha occupancy:  14
 Final beta  occupancy:  12

 !RKS STATE 1.1 Energy               -133.337474559256
 Nuclear energy                        71.85732166
 One-electron energy                 -321.55142506
 Two-electron energy                  132.82434887
 Density functional                   -16.46772003     B88=-19.46982015 DIRAC=-17.49154543 LYP= -0.80248876 VWN3= -2.10584204
 Virial quotient                       -1.01154864
 !RKS STATE 1.1 Dipole moment          -0.00421205     0.53958504    -0.00877610
 Dipole moment /Debye                  -0.01070527     1.37139854    -0.02230515

 Orbital energies:

         1.1          2.1          3.1          4.1          5.1          6.1          7.1          8.1          9.1         10.1
    -15.326965   -11.038285   -11.022800    -1.026780    -0.967163    -0.793972    -0.577536    -0.563585    -0.496709    -0.485250

        11.1         12.1         13.1         14.1         15.1         16.1
     -0.463816    -0.411779    -0.459842    -0.301832     0.627852     0.632701

 HOMO     14.1    -0.301832 =      -8.2133eV
 LUMO     15.1     0.627852 =      17.0847eV
 LUMO-HOMO         0.929684 =      25.2980eV


 **********************************************************************************************************************************
 DATASETS  * FILE   NREC   LENGTH (MB)   RECORD NAMES
              1      20       31.43       500      610      700      900      950      970     1000      129      960     1100   
                                          VAR    BASINP    GEOM    SYMINP    ZMAT    AOBASIS   BASIS     P2S    ABASIS      S 
                                         1400     1410     1200     1210     1080     1600     1650     1300     1700     1800   
                                           T        V       H0       H01     AOSYM     SMH    MOLCAS    ERIS     OPER     GRID   

              2       6        5.43       700     1000      520     2100     1800     2101   
                                         GEOM     BASIS   MCVARS     RHF     GRID      RKS  

 PROGRAMS   *        TOTAL        KS        HF       INT
 CPU TIMES  *         9.62      1.12      8.10      0.23
 REAL TIME  *        11.54 SEC
 DISK USED  *        36.90 MB      
 **********************************************************************************************************************************


 PROGRAM * Intrinsic Basis Bonding Analysis (IBBA)          Author: G. Knizia

 Molecular orbitals read from record     2101.2  Type=RKS/CANONICAL (state 1.1)
 Fock matrix read from record            2101.2  Type=RKS/TOTAL (state 1.1)
 Orbital energies read from record       2101.2  Type=RKS/CANONICAL (state 1.1)
 Density matrix read from record         2101.2  Type=RKS/CHARGE (state 1.1)

 Number of core orbitals:           3 (   3 )
 Number of closed-shell orbitals:   9 (   9 )
 Number of active  orbitals:        2 (   2 )

 Basis set MINAO-AUTO-PP generated.      Number of basis functions:   22 

 Polarized AO type:                A = (O Ot + (1-O)(1-Ot)) P12
 Orthogonalization method:         Symmetric (Loewdin)
 Localization functional:          L = sum[A,i] <i|n_A|i>^4 -> max

 Localization group 1:  12 orbitals, occupancy  2.000
 Iterative localization: IB/PM,    7 iter; Final gradient 0.42E-09

 Bond order analysis:       [THRPRINT= 0.020]

   CEN ATOM   CEN ATOM     WIBERG.BO      RENORM.BO
     1   C  -   2   C       1.041937       1.056411
     1   C  -   5   H       0.967736       0.989723
     1   C  -   4   H       0.966677       0.990080
     1   C  -   6   H       0.956467       0.990717

     2   C  -   1   C       1.041937       1.056411
     2   C  -   8   H       0.969352       0.987279
     2   C  -   7   H       0.967834       0.987099
     2   C  -   9   H       0.462815       0.815440
     2   C  -   3   N       0.393266       1.875813

     3   N  -  10   H       0.971180       0.999956
     3   N  -   9   H       0.508146       0.951383
     3   N  -   2   C       0.393266       1.875813

     4   H  -   1   C       0.966677       0.990080

     5   H  -   1   C       0.967736       0.989723

     6   H  -   1   C       0.956467       0.990717

     7   H  -   2   C       0.967834       0.987099

     8   H  -   2   C       0.969352       0.987279

     9   H  -   3   N       0.508146       0.951383
     9   H  -   2   C       0.462815       0.815440

    10   H  -   3   N       0.971180       0.999956


 Valency analysis:

   CEN ATOM   TOT.VALENCE
     1   C       3.941903
     2   C       3.845216
     3   N       1.903920
     4   H       0.984267
     5   H       0.984578
     6   H       0.982848
     7   H       0.987260
     8   H       0.987176
     9   H       0.981474
    10   H       0.974110
 Localization group 2:   2 orbitals, occupancy  1.000
 Iterative localization: IB/PM,    3 iter; Final gradient 0.54E-18

 Bond order analysis:       [THRPRINT= 0.020]

   CEN ATOM   CEN ATOM     WIBERG.BO      RENORM.BO

     2   C  -   3   N       0.470419       1.000000

     3   N  -   2   C       0.470419       1.000000









 Valency analysis:

   CEN ATOM   TOT.VALENCE
     1   C       0.005055
     2   C       0.489409
     3   N       0.495224
     4   H       0.004419
     5   H       0.002456
     6   H       0.023469
     7   H       0.002484
     8   H       0.002448
     9   H       0.003088
    10   H       0.001049

 Total charge composition:

   CEN ATOM         s          p       ELECTRONS ->P.CHARGE
     1   C       2.98234    3.37871      6.36105   -0.36105
     2   C       3.02930    3.26020      6.28950   -0.28950
     3   N       3.70758    3.52571      7.23329   -0.23329
     4   H       0.87678                 0.87678    0.12322
     5   H       0.87705                 0.87705    0.12295
     6   H       0.88091                 0.88091    0.11909
     7   H       0.88837                 0.88837    0.11163
     8   H       0.88798                 0.88798    0.11202
     9   H       0.86544                 0.86544    0.13456
    10   H       0.83962                 0.83962    0.16038

 Total charge composition, AO contributions:

   CEN ATOM SHL      SPHERICAL COMPONENTS
     1   C  1s       1.99051
     1   C  2s       0.99183
     1   C  2p       1.11451    1.10255    1.16165

     2   C  1s       1.99182
     2   C  2s       1.03748
     2   C  2p       1.04092    1.07550    1.14379

     3   N  1s       1.99716
     3   N  2s       1.71042
     3   N  2p       1.12694    1.39889    0.99989

     4   H  1s       0.87678

     5   H  1s       0.87705

     6   H  1s       0.88091

     7   H  1s       0.88837

     8   H  1s       0.88798

     9   H  1s       0.86544

    10   H  1s       0.83962

 Active orbital charges:

   CEN ATOM         s          p       ELECTRONS ->SPIN.DEN
     1   C       0.00020    0.00233      0.00253    0.00253
     2   C       0.03780    0.38902      0.42682    0.42682
     3   N       0.00419    1.54660      1.55079    1.55079
     4   H       0.00221                 0.00221    0.00221
     5   H       0.00123                 0.00123    0.00123
     6   H       0.01188                 0.01188    0.01188
     7   H       0.00124                 0.00124    0.00124
     8   H       0.00123                 0.00123    0.00123
     9   H       0.00155                 0.00155    0.00155
    10   H       0.00052                 0.00052    0.00052

 Active orbital charges, AO contributions:

   CEN ATOM SHL      SPHERICAL COMPONENTS
     1   C  1s       0.00000
     1   C  2s       0.00020
     1   C  2p       0.00226    0.00007    0.00000

     2   C  1s       0.00003
     2   C  2s       0.03777
     2   C  2p       0.31669    0.07218    0.00015

     3   N  1s       0.00001
     3   N  2s       0.00417
     3   N  2p       0.40703    0.14004    0.99954

     4   H  1s       0.00221

     5   H  1s       0.00123

     6   H  1s       0.01188

     7   H  1s       0.00124

     8   H  1s       0.00123

     9   H  1s       0.00155

    10   H  1s       0.00052

 Summary of localized orbital composition:   [THRPRINT= 0.020]

   ORB  GRP  ORB.ENERGY      CENTERS/CHARGES
     1   1   -13.958134      N  3   2.000
     2   1    -9.900620      C  1   2.000
     3   1    -9.896845      C  2   2.000
     4   1    -0.625315      N  3   1.157   H 10   0.839
     5   1    -0.557086      C  1   0.997   C  2   0.995
     6   1    -0.506109      N  3   1.946   C  2   0.032   H  9   0.021
     7   1    -0.495022      C  2   1.107   H  8   0.882
     8   1    -0.494490      C  2   1.105   H  7   0.883
     9   1    -0.476486      C  1   1.116   H  6   0.862   (other: 0.022)
    10   1    -0.472605      C  1   1.120   H  5   0.871
    11   1    -0.472391      C  1   1.120   H  4   0.870
    12   1    -0.452314      H  9   0.836   C  2   0.595   N  3   0.564
    13   2    -0.103207      N  3   1.000
    14   2    -0.078971      N  3   0.551   C  2   0.427   (other: 0.022)

 Localized orbitals saved to record      2101.2  (orbital set 2)


 **********************************************************************************************************************************
 DATASETS  * FILE   NREC   LENGTH (MB)   RECORD NAMES
              1      20       31.43       500      610      700      900      950      970     1000      129      960     1100   
                                          VAR    BASINP    GEOM    SYMINP    ZMAT    AOBASIS   BASIS     P2S    ABASIS      S 
                                         1400     1410     1200     1210     1080     1600     1650     1300     1700     1800   
                                           T        V       H0       H01     AOSYM     SMH    MOLCAS    ERIS     OPER     GRID   

              2       6        5.43       700     1000      520     2100     1800     2101   
                                         GEOM     BASIS   MCVARS     RHF     GRID      RKS  

 PROGRAMS   *        TOTAL      IBBA        KS        HF       INT
 CPU TIMES  *         9.64      0.03      1.12      8.10      0.23
 REAL TIME  *        11.57 SEC
 DISK USED  *        36.91 MB      
 **********************************************************************************************************************************

 IBBA/STO-3G energy=      0.000000000000

        KS-SCF          HF-SCF  
   -133.33747456   -132.47386865
 **********************************************************************************************************************************
 Molpro calculation terminated
