
 Primary working directories    : /local
 Secondary working directories  : /local
 Wavefunction directory         : /local/
 Main file repository           : /local/

 SHA1      : b4a5b34a9e711420743f49e6833241d17c61fb3c
 NAME      : 2099.9.b4a5b34
 ARCHNAME  : linux/x86_64_openmp
 FC        : /cm/shared/languages/GCC-6.1/bin/gfortran
 BLASLIB   : -lblas
 id        : simonbennie

 Nodes     nprocs
 node32-033    1

 Using customized tuning parameters: mindgm=1; mindgv=20; mindgc=4; mindgr=1; noblas=0; minvec=7
 default implementation of scratch files=df  

 memory,500,m
 geomtyp=xyz
 nosym
 noorient
 geometry={
 C         -1.48570       -0.44816       -0.00002
 C         -0.50504        0.70174        0.00003
 N          1.86516       -0.34017       -0.00006
 H         -1.35419       -1.07651       -0.88050
 H         -1.35416       -1.07661        0.88038
 H         -2.51702       -0.08617        0.00003
 H         -0.52222        1.31612       -0.89722
 H         -0.52221        1.31603        0.89734
 H          0.66505        0.14796       -0.00003
 H          2.24664        0.15972       -0.80481
 H          2.24644        0.15913        0.80515
 }
 basis={ default,tzvp }
 {ks,LYP88,direct;wf,27,1,1}
 {ibba,bonds=1}

 Variables initialized (895), CPU time= 0.00 sec
 Commands  initialized (725), CPU time= 0.02 sec, 591 directives.
 Default parameters read. Elapsed time= 0.08 sec

 Checking input...
 Passed
1


                                         ***  PROGRAM SYSTEM MOLPRO  ***
                                       Copyright, TTI GmbH Stuttgart, 2015
                                    Version 2099.9 linked May 26 2017 16:03:21


 **********************************************************************************************************************************
 LABEL *                                                                                 
  64 bit serial version                                                                  DATE: 23-Jun-17          TIME: 20:30:51  
 **********************************************************************************************************************************

 SHA1:             b4a5b34a9e711420743f49e6833241d17c61fb3c
 **********************************************************************************************************************************
 SETTING GEOMTYP        =    XYZ

 Variable memory set to  500000000 words,  buffer space 

 ZSYMEL=NOSYM

 SETTING BASIS          =    TZVP


 Recomputing integrals since basis changed


 Using spherical harmonics

 Library entry C      S def2-TZVP            selected for orbital group  1
 Library entry C      P def2-TZVP            selected for orbital group  1
 Library entry C      D def2-TZVP            selected for orbital group  1
 Library entry C      F def2-TZVP            selected for orbital group  1
 Library entry N      S def2-TZVP            selected for orbital group  2
 Library entry N      P def2-TZVP            selected for orbital group  2
 Library entry N      D def2-TZVP            selected for orbital group  2
 Library entry N      F def2-TZVP            selected for orbital group  2
 Library entry H      S def2-TZVP            selected for orbital group  3
 Library entry H      P def2-TZVP            selected for orbital group  3


 PROGRAM * SEWARD (Integral evaluation for generally contracted gaussian basis sets)     Author: Roland Lindh, 1990

 Geometry written to block  1 of record 700


 Point group  C1  



 ATOMIC COORDINATES

 NR  ATOM    CHARGE       X              Y              Z

   1  C       6.00   -2.807566103   -0.846899660   -0.000037795
   2  C       6.00   -0.954387282    1.326096411    0.000056692
   3  N       7.00    3.524641578   -0.642828136   -0.000113384
   4  H       1.00   -2.559048221   -2.034309070   -1.663903853
   5  H       1.00   -2.558991529   -2.034498043    1.663677086
   6  H       1.00   -4.756478450   -0.162837700    0.000056692
   7  H       1.00   -0.986852777    2.487106347   -1.695500073
   8  H       1.00   -0.986833880    2.486936272    1.695726841
   9  H       1.00    1.256762359    0.279603877   -0.000056692
  10  H       1.00    4.245534300    0.301827057   -1.520870482
  11  H       1.00    4.245156355    0.300712118    1.521512989

 Bond lengths in Bohr (Angstrom)

 1-2  2.855903303  1-4  2.059163059  1-5  2.059156730  1-6  2.065478179  2-7  2.055215518
     ( 1.511278945)     ( 1.089662165)     ( 1.089658815)     ( 1.093003982)     ( 1.087573216)

  2- 8  2.055212694   2- 9  2.446288898   3- 9  2.448296750   3-10  1.929964223   3-11  1.929962842
       ( 1.087571721)       ( 1.294520336)       ( 1.295582846)       ( 1.021293085)       ( 1.021292354)

 Bond angles

  1-2-7  114.80615971   1-2-8  114.80604416   1-2-9  105.13102415   2-1-4  111.12910227

  2-1-5  111.12907805   2-1-6  111.11736483   2-9-3  176.80617971   4-1-5  107.80095467

  4-1-6  107.75173778   5-1-6  107.75073818   7-2-8  111.18308228   7-2-9  104.82699379

  8- 2- 9  104.82895673   9- 3-10   99.30006598   9- 3-11   99.30005848  10- 3-11  104.03470925

 NUCLEAR CHARGE:                   27
 NUMBER OF PRIMITIVE AOS:         217
 NUMBER OF SYMMETRY AOS:          202
 NUMBER OF CONTRACTIONS:          141   ( 141A   )
 NUMBER OF CORE ORBITALS:           3   (   3A   )
 NUMBER OF VALENCE ORBITALS:       20   (  20A   )


 NUCLEAR REPULSION ENERGY   78.78492127


 Eigenvalues of metric

         1 0.327E-03 0.680E-03 0.109E-02 0.220E-02 0.546E-02 0.569E-02 0.607E-02 0.685E-02


 Contracted 2-electron integrals neglected if value below      1.0D-11
 AO integral compression algorithm  1   Integral accuracy      1.0D-11

     171.966 MB (compressed) written to integral file ( 38.7%)


 NUMBER OF SORTED TWO-ELECTRON INTEGRALS:   50115066.     BUFFER LENGTH:  32768
 NUMBER OF SEGMENTS:   4  SEGMENT LENGTH:   15999503      RECORD LENGTH: 524288

 Memory used in sort:      16.56 MW

 SORT1 READ    55461285. AND WROTE    41956951. INTEGRALS IN    122 RECORDS. CPU TIME:     0.59 SEC, REAL TIME:     1.20 SEC
 SORT2 READ    41956951. AND WROTE    50115066. INTEGRALS IN    656 RECORDS. CPU TIME:     1.26 SEC, REAL TIME:     1.62 SEC

 FILE SIZES:   FILE 1:   202.9 MBYTE,  FILE 4:   511.7 MBYTE,   TOTAL:    714.6 MBYTE

 OPERATOR DM      FOR CENTER  0  COORDINATES:    0.000000    0.000000    0.000000


 **********************************************************************************************************************************
 DATASETS  * FILE   NREC   LENGTH (MB)   RECORD NAMES
              1      19      180.99       500      610      700      900      950      970     1000      129      960     1100   
                                          VAR    BASINP    GEOM    SYMINP    ZMAT    AOBASIS   BASIS     P2S    ABASIS      S 
                                         1400     1410     1200     1210     1080     1600     1650     1300     1700   
                                           T        V       H0       H01     AOSYM     SMH    MOLCAS    ERIS     OPER   

 PROGRAMS   *        TOTAL       INT
 CPU TIMES  *         5.20      5.06
 REAL TIME  *        11.35 SEC
 DISK USED  *       715.06 MB      
 **********************************************************************************************************************************

 Density functional group LYP88=LYP
 Functional: LYP(Automatically generated (new) LYP)                            Gradient terms: 1
 Use grid at  1800.2

 Functional: LYP                       Factor:  1.0000

 Generated new metagrid on record  1800.2 with target accuracy 1.0D-06 and 40248 points in CPU time    0.9
 Computed new grid on record 1800.1 in CPU time    1.0
  116173 words reserved for DFT integration

 PROGRAM * RKS-SCF (Restricted open shell Kohn-Sham)     Authors: W. Meyer, H.-J. Werner, P.J. Knowles, 1993

 NUMBER OF ELECTRONS:      14+   13-    SPACE SYMMETRY=1    SPIN SYMMETRY: Doublet 
 CONVERGENCE THRESHOLDS:    1.00E-05 (Density)    1.00E-06 (Energy)
 MAX. NUMBER OF ITERATIONS:       60
 INTERPOLATION TYPE:            DIIS
 INTERPOLATION STEPS:              2 (START)      1 (STEP)
 LEVEL SHIFTS:                 -0.60 (CLOSED) -0.30 (OPEN) 



 Use fine grid record 1800.2 for energy threshold  1.0D-06
 Orbital guess generated from atomic densities. Full valence occupancy:   14

 Molecular orbital dump at record        2100.2

 Initial alpha occupancy:  14
 Initial beta  occupancy:  13
 Wave function symmetry:    1

 ITERATION    DDIFF          GRAD             ENERGY        2-EL.EN.            DIPOLE MOMENTS         DIIS   ORB.
    1      0.000D+00      0.000D+00      -115.82822438    250.259040    2.56368   -0.52795   -0.00025    0    start
    2      0.000D+00      0.206D-01      -115.68840400    286.014345   -1.84493    1.49921    0.00051    1    diag,B
    3      0.387D+00      0.265D-01      -116.61321017    272.147745   -0.16385    0.52809    0.00022    2    diag,B
    4      0.340D-01      0.326D-02      -116.63582516    268.923207   -0.28626    0.56650    0.00018    3    diag,B
    5      0.109D-01      0.126D-02      -116.64053626    269.130265   -0.19432    0.49028    0.00016    4    diag,B
    6      0.830D-02      0.414D-03      -116.64225521    269.129542   -0.25438    0.48742    0.00016    5    diag,B
    7      0.959D-02      0.196D-03      -116.64323040    269.200806   -0.28602    0.47481    0.00016    6    fixocc
    8      0.891D-02      0.111D-03      -116.64376281    269.243968   -0.29742    0.46398    0.00016    7    diag,B
    9      0.757D-02      0.730D-04      -116.64407837    269.251423   -0.29507    0.45368    0.00016    8    diag,B
   10      0.675D-02      0.478D-04      -116.64423423    269.255493   -0.28242    0.44825    0.00016    9    orth
   11      0.484D-02      0.279D-04      -116.64429442    269.263039   -0.26945    0.44501    0.00017    9    diag,B
   12      0.287D-02      0.155D-04      -116.64431534    269.269989   -0.25793    0.44278    0.00017    9    diag,B
   13      0.190D-02      0.782D-05      -116.64431914    269.273904   -0.25226    0.44177    0.00017    9    diag,B
   14      0.768D-03      0.377D-05      -116.64431969    269.274363   -0.24984    0.44119    0.00017    9    diag,B
   15      0.284D-03      0.166D-05      -116.64431974    269.274514   -0.24953    0.44119    0.00017    9    diag,B
   16      0.714D-04      0.112D-05      -116.64431976    269.274627   -0.24922    0.44108    0.00017    9    diag,B
   17      0.570D-04      0.590D-06      -116.64431977    269.274508   -0.24899    0.44103    0.00017    9    diag,B
   18      0.526D-04      0.308D-06      -116.64431977    269.274641   -0.24896    0.44103    0.00017    9    diag,B
   19      0.182D-04      0.161D-06      -116.64431977    269.274558   -0.24892    0.44103    0.00017    9    diag,B
   20      0.925D-05      0.877D-07      -116.64431978    269.274580   -0.24891    0.44103    0.00017    0    orth

 Final alpha occupancy:  14
 Final beta  occupancy:  13

 !RKS STATE 1.1 Energy               -116.644319775044
 Nuclear energy                        78.78492127
 One-electron energy                 -329.24362014
 Two-electron energy                  134.63729017
 Density functional                    -0.82291107     LYP=-0.82291107
 Virial quotient                       -0.96800667
 !RKS STATE 1.1 Dipole moment          -0.24890775     0.44102870     0.00016792
 Dipole moment /Debye                  -0.63261895     1.12090972     0.00042678

 Orbital energies:

         1.1          2.1          3.1          4.1          5.1          6.1          7.1          8.1          9.1         10.1
    -12.186805    -8.331785    -8.325682    -0.448253    -0.395525    -0.261537    -0.154595    -0.149869    -0.121148    -0.087406

        11.1         12.1         13.1         14.1         15.1         16.1
     -0.067721    -0.037671     0.009990     0.096354     0.129179     0.166116

 HOMO     14.1     0.096354 =       2.6219eV
 LUMO     15.1     0.129179 =       3.5151eV
 LUMO-HOMO         0.032824 =       0.8932eV


 **********************************************************************************************************************************
 DATASETS  * FILE   NREC   LENGTH (MB)   RECORD NAMES
              1      20      182.27       500      610      700      900      950      970     1000      129      960     1100   
                                          VAR    BASINP    GEOM    SYMINP    ZMAT    AOBASIS   BASIS     P2S    ABASIS      S 
                                         1400     1410     1200     1210     1080     1600     1650     1300     1700     1800   
                                           T        V       H0       H01     AOSYM     SMH    MOLCAS    ERIS     OPER     GRID   

              2       5        3.51       700     1000      520     1800     2100   
                                         GEOM     BASIS   MCVARS    GRID      RKS  

 PROGRAMS   *        TOTAL        KS       INT
 CPU TIMES  *        40.52     35.32      5.06
 REAL TIME  *        47.41 SEC
 DISK USED  *       715.06 MB      
 **********************************************************************************************************************************


 PROGRAM * Intrinsic Basis Bonding Analysis (IBBA)          Author: G. Knizia

 Molecular orbitals read from record     2100.2  Type=RKS/CANONICAL (state 1.1)
 Fock matrix read from record            2100.2  Type=RKS/TOTAL (state 1.1)
 Orbital energies read from record       2100.2  Type=RKS/CANONICAL (state 1.1)
 Density matrix read from record         2100.2  Type=RKS/CHARGE (state 1.1)

 Number of core orbitals:           3 (   3 )
 Number of closed-shell orbitals:  10 (  10 )
 Number of active  orbitals:        1 (   1 )

 Basis set MINAO-AUTO-PP generated.      Number of basis functions:   23 

 Polarized AO type:                A = (O Ot + (1-O)(1-Ot)) P12
 Orthogonalization method:         Symmetric (Loewdin)
 Localization functional:          L = sum[A,i] <i|n_A|i>^4 -> max

 Localization group 1:  13 orbitals, occupancy  2.000
 Iterative localization: IB/PM,    8 iter; Final gradient 0.58E-09

 Bond order analysis:       [THRPRINT= 0.020]

   CEN ATOM   CEN ATOM     WIBERG.BO      RENORM.BO
     1   C  -   2   C       1.127206       1.169877
     1   C  -   5   H       0.944760       0.969886
     1   C  -   4   H       0.944760       0.969881
     1   C  -   6   H       0.883817       0.981992
     1   C  -   3   N       0.056193       0.063522

     2   C  -   1   C       1.127206       1.169877
     2   C  -   8   H       0.951013       0.970268
     2   C  -   7   H       0.951011       0.970269
     2   C  -   3   N       0.408498       0.704233
     2   C  -   9   H       0.399609       0.683933
     2   C  -   6   H       0.031152       0.051860

     3   N  -  11   H       0.975667       0.997461
     3   N  -  10   H       0.975666       0.997460
     3   N  -   9   H       0.551438       0.845638
     3   N  -   2   C       0.408498       0.704233
     3   N  -   1   C       0.056193       0.063522
     3   N  -   6   H       0.047499       0.075585

     4   H  -   1   C       0.944760       0.969881
     4   H  -   8   H       0.022174       0.026100

     5   H  -   1   C       0.944760       0.969886
     5   H  -   7   H       0.022174       0.026099

     6   H  -   1   C       0.883817       0.981992
     6   H  -   3   N       0.047499       0.075585
     6   H  -   2   C       0.031152       0.051860

     7   H  -   2   C       0.951011       0.970269
     7   H  -   5   H       0.022174       0.026099

     8   H  -   2   C       0.951013       0.970268
     8   H  -   4   H       0.022174       0.026100

     9   H  -   3   N       0.551438       0.845638
     9   H  -   2   C       0.399609       0.683933

    10   H  -   3   N       0.975666       0.997460

    11   H  -   3   N       0.975667       0.997461


 Valency analysis:

   CEN ATOM   TOT.VALENCE
     1   C       3.965243
     2   C       3.877980
     3   N       3.062269
     4   H       0.993009
     5   H       0.993009
     6   H       0.982466
     7   H       0.994689
     8   H       0.994689
     9   H       0.972622
    10   H       0.980401
    11   H       0.980401
 Localization group 2:   1 orbitals, occupancy  1.000
 Iterative localization: IB/PM,    1 iter; Final gradient 0.00E+00

 Bond order analysis:       [THRPRINT= 0.020]

   CEN ATOM   CEN ATOM     WIBERG.BO      RENORM.BO

     2   C  -   3   N       0.382258       0.500000
     2   C  -   6   H       0.035104       0.500000

     3   N  -   2   C       0.382258       0.500000
     3   N  -   6   H       0.043027       0.500000



     6   H  -   3   N       0.043027       0.500000
     6   H  -   2   C       0.035104       0.500000







 Valency analysis:

   CEN ATOM   TOT.VALENCE
     1   C       0.032211
     2   C       0.477902
     3   N       0.499489
     4   H       0.017875
     5   H       0.017879
     6   H       0.084944
     7   H       0.010439
     8   H       0.010436
     9   H       0.013216
    10   H       0.024781
    11   H       0.024783

 Total charge composition:

   CEN ATOM         s          p       ELECTRONS ->P.CHARGE
     1   C       2.91687    3.28248      6.19935   -0.19935
     2   C       2.96883    3.22860      6.19743   -0.19743
     3   N       3.47060    3.91873      7.38934   -0.38934
     4   H       0.92541                 0.92541    0.07459
     5   H       0.92541                 0.92541    0.07459
     6   H       0.91203                 0.91203    0.08797
     7   H       0.93237                 0.93237    0.06763
     8   H       0.93237                 0.93237    0.06763
     9   H       0.84119                 0.84119    0.15881
    10   H       0.87255                 0.87255    0.12745
    11   H       0.87255                 0.87255    0.12745

 Total charge composition, AO contributions:

   CEN ATOM SHL      SPHERICAL COMPONENTS
     1   C  1s       1.99705
     1   C  2s       0.91982
     1   C  2p       1.07559    1.08029    1.12660

     2   C  1s       1.99748
     2   C  2s       0.97136
     2   C  2p       1.05399    1.05586    1.11875

     3   N  1s       1.99834
     3   N  2s       1.47227
     3   N  2p       1.12511    1.63407    1.15955

     4   H  1s       0.92541

     5   H  1s       0.92541

     6   H  1s       0.91203

     7   H  1s       0.93237

     8   H  1s       0.93237

     9   H  1s       0.84119

    10   H  1s       0.87255

    11   H  1s       0.87255

 Active orbital charges:

   CEN ATOM         s          p       ELECTRONS ->SPIN.DEN
     1   C       0.00012    0.01625      0.01637    0.01637
     2   C       0.03284    0.36204      0.39489    0.39489
     3   N       0.02250    0.46151      0.48401    0.48401
     4   H       0.00902                 0.00902    0.00902
     5   H       0.00902                 0.00902    0.00902
     6   H       0.04445                 0.04445    0.04445
     7   H       0.00525                 0.00525    0.00525
     8   H       0.00525                 0.00525    0.00525
     9   H       0.00665                 0.00665    0.00665
    10   H       0.01255                 0.01255    0.01255
    11   H       0.01255                 0.01255    0.01255

 Active orbital charges, AO contributions:

   CEN ATOM SHL      SPHERICAL COMPONENTS
     1   C  1s       0.00001
     1   C  2s       0.00011
     1   C  2p       0.01617    0.00008    0.00000

     2   C  1s       0.00001
     2   C  2s       0.03283
     2   C  2p       0.30073    0.06131    0.00000

     3   N  1s       0.00008
     3   N  2s       0.02242
     3   N  2p       0.27398    0.18754    0.00000

     4   H  1s       0.00902

     5   H  1s       0.00902

     6   H  1s       0.04445

     7   H  1s       0.00525

     8   H  1s       0.00525

     9   H  1s       0.00665

    10   H  1s       0.01255

    11   H  1s       0.01255

 Summary of localized orbital composition:   [THRPRINT= 0.020]

   ORB  GRP  ORB.ENERGY      CENTERS/CHARGES
     1   1   -12.106346      N  3   2.000
     2   1    -8.253598      C  2   2.000
     3   1    -8.240253      C  1   2.000
     4   1    -0.267606      N  3   1.137   H 11   0.859
     5   1    -0.267605      N  3   1.137   H 10   0.859
     6   1    -0.266616      C  2   0.994   C  1   0.990
     7   1    -0.195807      H  9   0.784   N  3   0.656   C  2   0.551
     8   1    -0.186305      C  2   1.055   H  7   0.919   (other: 0.027)
     9   1    -0.186305      C  2   1.055   H  8   0.919   (other: 0.027)
    10   1    -0.181007      C  1   1.043   H  6   0.856   C  2   0.064   N  3   0.032
    11   1    -0.170980      C  1   1.066   H  5   0.905   (other: 0.030)
    12   1    -0.170977      C  1   1.066   H  4   0.904   (other: 0.030)
    13   1    -0.064597      N  3   1.907   C  2   0.051   H  9   0.032
    14   2     0.091655      N  3   0.484   C  2   0.395   H  6   0.044   (other: 0.077)

 Localized orbitals saved to record      2100.2  (orbital set 2)


 **********************************************************************************************************************************
 DATASETS  * FILE   NREC   LENGTH (MB)   RECORD NAMES
              1      20      182.27       500      610      700      900      950      970     1000      129      960     1100   
                                          VAR    BASINP    GEOM    SYMINP    ZMAT    AOBASIS   BASIS     P2S    ABASIS      S 
                                         1400     1410     1200     1210     1080     1600     1650     1300     1700     1800   
                                           T        V       H0       H01     AOSYM     SMH    MOLCAS    ERIS     OPER     GRID   

              2       5        3.67       700     1000      520     1800     2100   
                                         GEOM     BASIS   MCVARS    GRID      RKS  

 PROGRAMS   *        TOTAL      IBBA        KS       INT
 CPU TIMES  *        40.56      0.02     35.32      5.06
 REAL TIME  *        47.53 SEC
 DISK USED  *       715.06 MB      
 **********************************************************************************************************************************
 Molecular orbitals read from record     2100.2  Type=RKS/LOCAL(IBO)  
 Occupation numbers read from record     2100.2  Type=RKS/LOCAL(IBO)  
 Orbital energies read from record       2100.2  Type=RKS/LOCAL(IBO)  
 Redundancy group numbers read from rec  2100.2  Type=RKS/LOCAL(IBO)  

 IBBA/TZVP energy=      0.000000000000

        KS-SCF  
   -116.64431978
 **********************************************************************************************************************************
 Molpro calculation terminated
