
 Primary working directories    : /local
 Secondary working directories  : /local
 Wavefunction directory         : /local/
 Main file repository           : /local/

 SHA1      : b4a5b34a9e711420743f49e6833241d17c61fb3c
 NAME      : 2099.9.b4a5b34
 ARCHNAME  : linux/x86_64_openmp
 FC        : /cm/shared/languages/GCC-6.1/bin/gfortran
 BLASLIB   : -lblas
 id        : simonbennie

 Nodes     nprocs
 node32-022    1

 Using customized tuning parameters: mindgm=1; mindgv=20; mindgc=4; mindgr=1; noblas=0; minvec=7
 default implementation of scratch files=df  

 memory,500,m
 geomtyp=xyz
 nosym
 noorient
 geometry={
 C         -1.48570       -0.44816       -0.00002
 C         -0.50504        0.70174        0.00003
 N          1.86516       -0.34017       -0.00006
 H         -1.35419       -1.07651       -0.88050
 H         -1.35416       -1.07661        0.88038
 H         -2.51702       -0.08617        0.00003
 H         -0.52222        1.31612       -0.89722
 H         -0.52221        1.31603        0.89734
 H          0.66505        0.14796       -0.00003
 H          2.24664        0.15972       -0.80481
 H          2.24644        0.15913        0.80515
 }
 basis={ default,qzvp }
 {uhf,direct;wf,27,1,1}
 {uks,BH-LYP,direct;maxit,0;wf,27,1,1}
 {ibba,bonds=1}

 Variables initialized (895), CPU time= 0.00 sec
 Commands  initialized (725), CPU time= 0.02 sec, 591 directives.
 Default parameters read. Elapsed time= 0.09 sec

 Checking input...
 Passed
1


                                         ***  PROGRAM SYSTEM MOLPRO  ***
                                       Copyright, TTI GmbH Stuttgart, 2015
                                    Version 2099.9 linked May 26 2017 16:03:21


 **********************************************************************************************************************************
 LABEL *                                                                                 
  64 bit serial version                                                                  DATE: 17-Mar-18          TIME: 05:54:27  
 **********************************************************************************************************************************

 SHA1:             b4a5b34a9e711420743f49e6833241d17c61fb3c
 **********************************************************************************************************************************
 SETTING GEOMTYP        =    XYZ

 Variable memory set to  500000000 words,  buffer space 

 ZSYMEL=NOSYM

 SETTING BASIS          =    QZVP


 Recomputing integrals since basis changed


 Using spherical harmonics

 Library entry C      S def2-QZVP            selected for orbital group  1
 Library entry C      P def2-QZVP            selected for orbital group  1
 Library entry C      D def2-QZVP            selected for orbital group  1
 Library entry C      F def2-QZVP            selected for orbital group  1
 Library entry C      G def2-QZVP            selected for orbital group  1
 Library entry N      S def2-QZVP            selected for orbital group  2
 Library entry N      P def2-QZVP            selected for orbital group  2
 Library entry N      D def2-QZVP            selected for orbital group  2
 Library entry N      F def2-QZVP            selected for orbital group  2
 Library entry N      G def2-QZVP            selected for orbital group  2
 Library entry H      S def2-QZVP            selected for orbital group  3
 Library entry H      P def2-QZVP            selected for orbital group  3
 Library entry H      D def2-QZVP            selected for orbital group  3
 Library entry H      F def2-QZVP            selected for orbital group  3


 PROGRAM * SEWARD (Integral evaluation for generally contracted gaussian basis sets)     Author: Roland Lindh, 1990

 Geometry written to block  1 of record 700


 Point group  C1  



 ATOMIC COORDINATES

 NR  ATOM    CHARGE       X              Y              Z

   1  C       6.00   -2.807566103   -0.846899660   -0.000037795
   2  C       6.00   -0.954387282    1.326096411    0.000056692
   3  N       7.00    3.524641578   -0.642828136   -0.000113384
   4  H       1.00   -2.559048221   -2.034309070   -1.663903853
   5  H       1.00   -2.558991529   -2.034498043    1.663677086
   6  H       1.00   -4.756478450   -0.162837700    0.000056692
   7  H       1.00   -0.986852777    2.487106347   -1.695500073
   8  H       1.00   -0.986833880    2.486936272    1.695726841
   9  H       1.00    1.256762359    0.279603877   -0.000056692
  10  H       1.00    4.245534300    0.301827057   -1.520870482
  11  H       1.00    4.245156355    0.300712118    1.521512989

 Bond lengths in Bohr (Angstrom)

 1-2  2.855903303  1-4  2.059163059  1-5  2.059156730  1-6  2.065478179  2-7  2.055215518
     ( 1.511278945)     ( 1.089662165)     ( 1.089658815)     ( 1.093003982)     ( 1.087573216)

  2- 8  2.055212694   2- 9  2.446288898   3- 9  2.448296750   3-10  1.929964223   3-11  1.929962842
       ( 1.087571721)       ( 1.294520336)       ( 1.295582846)       ( 1.021293085)       ( 1.021292354)

 Bond angles

  1-2-7  114.80615971   1-2-8  114.80604416   1-2-9  105.13102415   2-1-4  111.12910227

  2-1-5  111.12907805   2-1-6  111.11736483   2-9-3  176.80617971   4-1-5  107.80095467

  4-1-6  107.75173778   5-1-6  107.75073818   7-2-8  111.18308228   7-2-9  104.82699379

  8- 2- 9  104.82895673   9- 3-10   99.30006598   9- 3-11   99.30005848  10- 3-11  104.03470925

 NUCLEAR CHARGE:                   27
 NUMBER OF PRIMITIVE AOS:         580
 NUMBER OF SYMMETRY AOS:          495
 NUMBER OF CONTRACTIONS:          411   ( 411A   )
 NUMBER OF CORE ORBITALS:           3   (   3A   )
 NUMBER OF VALENCE ORBITALS:       20   (  20A   )


 NUCLEAR REPULSION ENERGY   78.78492127


 Eigenvalues of metric

         1 0.859E-04 0.104E-03 0.108E-03 0.116E-03 0.124E-03 0.133E-03 0.135E-03 0.157E-03


 Contracted 2-electron integrals neglected if value below      1.0D-11
 AO integral compression algorithm  1   Integral accuracy      1.0D-11

     9129.165 MB (compressed) written to integral file ( 30.6%)


 NUMBER OF SORTED TWO-ELECTRON INTEGRALS: 3584208111.     BUFFER LENGTH:  32768
 NUMBER OF SEGMENTS: 113  SEGMENT LENGTH:   31999951      RECORD LENGTH: 262144

 Memory used in sort:      32.29 MW

 SORT1 READ  3727269798. AND WROTE  2433140552. INTEGRALS IN  13982 RECORDS. CPU TIME:    46.57 SEC, REAL TIME:   200.13 SEC
 SORT2 READ  2433140552. AND WROTE  3584208111. INTEGRALS IN  34825 RECORDS. CPU TIME:    77.40 SEC, REAL TIME:   165.95 SEC

 FILE SIZES:   FILE 1:  9165.5 MBYTE,  FILE 4: 29322.4 MBYTE,   TOTAL:  38487.9 MBYTE

 OPERATOR DM      FOR CENTER  0  COORDINATES:    0.000000    0.000000    0.000000


 **********************************************************************************************************************************
 DATASETS  * FILE   NREC   LENGTH (MB)   RECORD NAMES
              1      19     8244.65       500      610      700      900      950      970     1000      129      960     1100   
                                          VAR    BASINP    GEOM    SYMINP    ZMAT    AOBASIS   BASIS     P2S    ABASIS      S 
                                         1400     1410     1200     1210     1080     1600     1650     1300     1700   
                                           T        V       H0       H01     AOSYM     SMH    MOLCAS    ERIS     OPER   

 PROGRAMS   *        TOTAL       INT
 CPU TIMES  *       267.04    266.88
 REAL TIME  *       528.67 SEC
 DISK USED  *        38.49 GB      
 **********************************************************************************************************************************


 PROGRAM * UHF-SCF       Authors: W. Meyer, H.-J. Werner


 NUMBER OF ELECTRONS:      14+   13-    SPACE SYMMETRY=1    SPIN SYMMETRY: Doublet 
 CONVERGENCE THRESHOLDS:    1.00E-05 (Density)    1.00E-07 (Energy)
 INTEGRAL THRESHOLDS:       1.00E-11 (Initial)    1.00E-11 (Final)
 MAX. NUMBER OF ITERATIONS:       60
 INTERPOLATION TYPE:            DIIS
 INTERPOLATION STEPS:              2 (START)      1 (STEP)
 LEVEL SHIFTS:                 -0.20 (ALPHA)  -0.20 (BETA) 



 Orbital guess generated from atomic densities. Full valence occupancy:   14

 Molecular orbital dump at record        2200.2

 Initial alpha occupation  14
 Initial beta  occupation  13

 Direct Fock-matrix evaluation.        Author: H.-J. Werner (1996)

 Integral Threshold:                  0.1D-10

 ITERATION   DDIFF            GRAD            ENERGY        2-EL.EN.            DIPOLE MOMENTS         DIIS   CPU(IT)  CPU(TOT)
    1      0.000D+00      0.000D+00      -134.74452566    249.056223   -0.34442    0.96198    0.00036    0    165.6    174.2
    2      0.435D-03      0.723D-03      -134.79221890    247.060599   -0.26002    0.68845    0.00025    1    169.9    344.1
    3      0.191D-03      0.282D-03      -134.80316086    247.318117   -0.21882    0.68164    0.00025    2    167.3    511.4
    4      0.182D-03      0.160D-03      -134.80802929    247.281112   -0.16328    0.66475    0.00024    3    161.2    672.6
    5      0.131D-03      0.660D-04      -134.80911567    247.281007   -0.12189    0.66496    0.00024    4    161.0    833.6
    6      0.958D-04      0.319D-04      -134.80943375    247.281129   -0.08132    0.65748    0.00024    5    158.4    992.0
    7      0.491D-04      0.151D-04      -134.80952317    247.280707   -0.05383    0.65135    0.00024    6    151.9   1144.0
    8      0.236D-04      0.835D-05      -134.80955109    247.285960   -0.03506    0.64599    0.00024    7    149.0   1293.0
    9      0.103D-04      0.350D-05      -134.80955749    247.286403   -0.02596    0.64362    0.00024    8    146.2   1439.2
   10      0.580D-05      0.176D-05      -134.80955895    247.287461   -0.02277    0.64273    0.00024    8    143.7   1582.9
   11      0.316D-05      0.116D-05      -134.80955961    247.287264   -0.02092    0.64202    0.00024    8    143.4   1726.3
   12      0.259D-05      0.739D-06      -134.80955994    247.287921   -0.01927    0.64136    0.00024    9    139.9   1866.3
   13      0.122D-05      0.362D-06      -134.80956001    247.288073   -0.01842    0.64098    0.00024    9    135.2   2001.5
   14      0.722D-06      0.165D-06      -134.80956003    247.288195   -0.01805    0.64082    0.00024    9    127.8   2129.3

 Final alpha occupancy:  14
 Final beta  occupancy:  13

 !UHF STATE 1.1 Energy               -134.809560025427
 Nuclear energy                        78.78492127
 One-electron energy                 -337.23857903
 Two-electron energy                  123.64409774
 Virial quotient                       -1.00065780
 !UHF STATE 1.1 Dipole moment          -0.01804519     0.64081963     0.00024351
 Dipole moment /Debye                  -0.04586329     1.62869435     0.00061889

 Orbital energies for positive spin:

         1.1          2.1          3.1          4.1          5.1          6.1          7.1          8.1          9.1         10.1
    -15.568071   -11.230874   -11.212800    -1.159388    -1.029231    -0.848386    -0.643176    -0.634690    -0.608228    -0.551148

        11.1         12.1         13.1         14.1         15.1         16.1
     -0.524888    -0.497730    -0.474526    -0.369417     0.097313     0.123972

 Orbital energies for negative spin:

         1.1          2.1          3.1          4.1          5.1          6.1          7.1          8.1          9.1         10.1
    -15.543548   -11.214541   -11.213819    -1.078246    -1.002576    -0.818241    -0.619238    -0.600719    -0.581523    -0.517954

        11.1         12.1         13.1         14.1         15.1         16.1
     -0.503694    -0.493992    -0.409734     0.083952     0.102838     0.126120

 HOMO     14.1    -0.369417 =     -10.0523eV
 LUMO    -14.1     0.083952 =       2.2845eV
 LUMO-HOMO         0.453369 =      12.3368eV

 EXPECTATION VALUE OF S**2:             0.79493960

 Occupation number threshold for canonical orbitals:  1.999000 (occupied),  0.001000 (virtual)

 Number of pseudo-canonical orbitals per symmetry:   11
 Number of active natural orbitals per symmetry:      5

 Natural orbitals saved to record    2200.2 (Orbital set 3)

 Orbital spaces for UNO-CAS (Min. occupation: 0.020  Max. occupation: 1.980):

 Closed:       13
 Active:        1


 **********************************************************************************************************************************
 DATASETS  * FILE   NREC   LENGTH (MB)   RECORD NAMES
              1      19     8244.65       500      610      700      900      950      970     1000      129      960     1100   
                                          VAR    BASINP    GEOM    SYMINP    ZMAT    AOBASIS   BASIS     P2S    ABASIS      S 
                                         1400     1410     1200     1210     1080     1600     1650     1300     1700   
                                           T        V       H0       H01     AOSYM     SMH    MOLCAS    ERIS     OPER   

              2       4        9.77       700     1000      520     2200   
                                         GEOM     BASIS   MCVARS     UHF  

 PROGRAMS   *        TOTAL       UHF       INT
 CPU TIMES  *      2397.56   2130.52    266.88
 REAL TIME  *      2692.82 SEC
 DISK USED  *        38.49 GB      
 **********************************************************************************************************************************

 Density functional group BH-LYP=B88+LYP
 Functional: B88(Automatically generated (new) B88)                            Gradient terms: 1
 Functional: LYP(Automatically generated (new) LYP)                            Gradient terms: 1
 Use grid at  1800.2


 Exact exchange will be calculated, factor:  0.5000

 Functional: B88                       Factor:  0.5000
 Functional: LYP                       Factor:  1.0000

 Generated new metagrid on record  1800.2 with target accuracy 1.0D-06 and 43020 points in CPU time    1.0
 Computed new grid on record 1800.1 in CPU time    1.1
  330556 words reserved for DFT integration

 PROGRAM * UKS-SCF (Unrestricted Kohn-Sham)     Authors: W. Meyer, H.-J. Werner, P.J. Knowles, 1993

 NUMBER OF ELECTRONS:      14+   13-    SPACE SYMMETRY=1    SPIN SYMMETRY: Doublet 
 CONVERGENCE THRESHOLDS:    1.00E-05 (Density)    1.00E-06 (Energy)
 MAX. NUMBER OF ITERATIONS:        0
 INTERPOLATION TYPE:            DIIS
 INTERPOLATION STEPS:              2 (START)      1 (STEP)
 LEVEL SHIFTS:                 -0.20 (ALPHA)  -0.20 (BETA) 



 Use fine grid record 1800.2 for energy threshold  1.0D-06
 Molecular orbitals read from record     2200.2  Type=UHF/ALPHA (state 1.1)
 Molecular orbitals read from record     2200.2  Type=UHF/BETA (state 1.1)

 Molecular orbital dump at record        2201.2

 Initial alpha occupation  14
 Initial beta  occupation  13

 ITERATION    DDIFF          GRAD             ENERGY        2-EL.EN.            DIPOLE MOMENTS         DIIS
    1      0.000D+00      0.000D+00      -135.64874232    267.075726   -0.01805    0.64082    0.00024    0

 Final alpha occupancy:  14
 Final beta  occupancy:  13

 !UKS STATE 1.1 Energy               -135.648742318031
 Nuclear energy                        78.78492127
 One-electron energy                 -337.23857903
 Two-electron energy                  133.53786295
 Density functional                   -10.73294750     B88=-19.78117024 LYP= -0.84236238
 Virial quotient                       -1.00688684
 !UKS STATE 1.1 Dipole moment          -0.01804519     0.64081963     0.00024351
 Dipole moment /Debye                  -0.04586329     1.62869435     0.00061889

 Orbital energies for positive spin:

         1.1          2.1          3.1          4.1          5.1          6.1          7.1          8.1          9.1         10.1
    -15.548593   -11.222436   -11.213394    -1.017714    -0.834526    -0.626496    -0.604413    -0.563041    -0.538857    -0.519747

        11.1         12.1         13.1         14.1         15.1         16.1
     -0.495794    -1.036419    -0.544745    -0.129458     0.657065     1.003978

 Orbital energies for negative spin:

         1.1          2.1          3.1          4.1          5.1          6.1          7.1          8.1          9.1         10.1
    -15.548593   -11.222436   -11.213394    -1.017714    -0.834526    -0.626496    -0.604413    -0.563041    -0.538857    -0.519747

        11.1         12.1         13.1         14.1         15.1         16.1
     -0.495794    -1.036419    -0.544745    -0.129458     0.657065     1.003978

 HOMO     14.1    -0.129458 =      -3.5227eV
 LUMO    -14.1    -0.129458 =      -3.5227eV
 LUMO-HOMO         0.000000 =       0.0000eV

 EXPECTATION VALUE OF S**2:             0.79493960

 Occupation number threshold for canonical orbitals:  1.999000 (occupied),  0.001000 (virtual)

 Number of pseudo-canonical orbitals per symmetry:   11
 Number of active natural orbitals per symmetry:      5

 Natural orbitals saved to record    2201.2 (Orbital set 3)

 Orbital spaces for UNO-CAS (Min. occupation: 0.020  Max. occupation: 1.980):

 Closed:       13
 Active:        1

 No convergence



 **********************************************************************************************************************************
 DATASETS  * FILE   NREC   LENGTH (MB)   RECORD NAMES
              1      20     8246.02       500      610      700      900      950      970     1000      129      960     1100   
                                          VAR    BASINP    GEOM    SYMINP    ZMAT    AOBASIS   BASIS     P2S    ABASIS      S 
                                         1400     1410     1200     1210     1080     1600     1650     1300     1700     1800   
                                           T        V       H0       H01     AOSYM     SMH    MOLCAS    ERIS     OPER     GRID   

              2       6       19.06       700     1000      520     2200     1800     2201   
                                         GEOM     BASIS   MCVARS     UHF     GRID      UKS  

 PROGRAMS   *        TOTAL       UKS       UHF       INT
 CPU TIMES  *      2475.77     78.21   2130.52    266.88
 REAL TIME  *      2773.79 SEC
 DISK USED  *        38.49 GB      
 **********************************************************************************************************************************


 PROGRAM * Intrinsic Basis Bonding Analysis (IBBA)          Author: G. Knizia

 Molecular orbitals read from record     2201.2  Type=UKS/ALPHA (state 1.1)
 Fock matrix read from record            2201.2  Type=UKS/TOTAL (state 1.1)
 Orbital energies read from record       2201.2  Type=UKS/ALPHA (state 1.1)
 Density matrix read from record         2201.2  Type=UKS/CHARGE (state 1.1)

 Number of core orbitals:           3 (   3 )
 Number of closed-shell orbitals:  10 (  10 )
 Number of active  orbitals:        1 (   1 )

 Basis set MINAO-AUTO-PP generated.      Number of basis functions:   23 

 Polarized AO type:                A = (O Ot + (1-O)(1-Ot)) P12
 Orthogonalization method:         Symmetric (Loewdin)
 Localization functional:          L = sum[A,i] <i|n_A|i>^4 -> max

 Localization group 1:  13 orbitals, occupancy  2.000
 Iterative localization: IB/PM,    8 iter; Final gradient 0.77E-09

 Bond order analysis:       [THRPRINT= 0.020]

   CEN ATOM   CEN ATOM     WIBERG.BO      RENORM.BO
     1   C  -   2   C       1.142733       1.266136
     1   C  -   4   H       0.954401       0.988511
     1   C  -   5   H       0.954397       0.988511
     1   C  -   6   H       0.834292       0.993938
     1   C  -   3   N       0.063339       0.057272

     2   C  -   1   C       1.142733       1.266136
     2   C  -   8   H       0.939948       0.985495
     2   C  -   7   H       0.939944       0.985495
     2   C  -   3   N       0.348736       0.563203
     2   C  -   9   H       0.287960       0.712318
     2   C  -   6   H       0.061614       0.142830

     3   N  -  10   H       0.917191       0.999912
     3   N  -  11   H       0.917191       0.999912
     3   N  -   9   H       0.558219       0.791661
     3   N  -   2   C       0.348736       0.563203
     3   N  -   1   C       0.063339       0.057272
     3   N  -   6   H       0.053930       0.062305

     4   H  -   1   C       0.954401       0.988511

     5   H  -   1   C       0.954397       0.988511

     6   H  -   1   C       0.834292       0.993938
     6   H  -   2   C       0.061614       0.142830
     6   H  -   3   N       0.053930       0.062305

     7   H  -   2   C       0.939944       0.985495

     8   H  -   2   C       0.939948       0.985495

     9   H  -   3   N       0.558219       0.791661
     9   H  -   2   C       0.287960       0.712318

    10   H  -   3   N       0.917191       0.999912

    11   H  -   3   N       0.917191       0.999912


 Valency analysis:

   CEN ATOM   TOT.VALENCE
     1   C       3.960205
     2   C       3.738922
     3   N       2.900803
     4   H       0.981440
     5   H       0.981440
     6   H       0.958036
     7   H       0.971841
     8   H       0.971842
     9   H       0.863921
    10   H       0.920468
    11   H       0.920468
 Localization group 2:   1 orbitals, occupancy  1.000
 Iterative localization: IB/PM,    1 iter; Final gradient 0.00E+00

 Bond order analysis:       [THRPRINT= 0.020]

   CEN ATOM   CEN ATOM     WIBERG.BO      RENORM.BO
     1   C  -   2   C       0.039809       0.500000
     1   C  -   3   N       0.028860       0.500000

     2   C  -   3   N       0.343605       0.500000
     2   C  -   6   H       0.052264       0.500000
     2   C  -   1   C       0.039809       0.500000
     2   C  -   9   H       0.027956       0.500000

     3   N  -   2   C       0.343605       0.500000
     3   N  -   6   H       0.037889       0.500000
     3   N  -   1   C       0.028860       0.500000
     3   N  -   9   H       0.020267       0.500000



     6   H  -   2   C       0.052264       0.500000
     6   H  -   3   N       0.037889       0.500000



     9   H  -   2   C       0.027956       0.500000
     9   H  -   3   N       0.020267       0.500000




 Valency analysis:

   CEN ATOM   TOT.VALENCE
     1   C       0.078433
     2   C       0.499652
     3   N       0.456733
     4   H       0.013628
     5   H       0.013632
     6   H       0.101598
     7   H       0.019617
     8   H       0.019614
     9   H       0.055779
    10   H       0.003451
    11   H       0.003451

 Total charge composition:

   CEN ATOM         s          p       ELECTRONS ->P.CHARGE
     1   C       3.01799    3.26239      6.28038   -0.28038
     2   C       3.11283    3.26791      6.38074   -0.38074
     3   N       3.55106    4.41427      7.96533   -0.96533
     4   H       0.87063                 0.87063    0.12937
     5   H       0.87063                 0.87063    0.12937
     6   H       0.84883                 0.84883    0.15117
     7   H       0.84210                 0.84210    0.15790
     8   H       0.84210                 0.84210    0.15790
     9   H       0.65982                 0.65982    0.34018
    10   H       0.71971                 0.71971    0.28029
    11   H       0.71972                 0.71972    0.28028

 Total charge composition, AO contributions:

   CEN ATOM SHL      SPHERICAL COMPONENTS
     1   C  1s       1.98991
     1   C  2s       1.02808
     1   C  2p       1.04155    1.07188    1.14896

     2   C  1s       1.99091
     2   C  2s       1.12192
     2   C  2p       1.00957    1.08675    1.17159

     3   N  1s       1.99511
     3   N  2s       1.55595
     3   N  2p       1.38434    1.74525    1.28468

     4   H  1s       0.87063

     5   H  1s       0.87063

     6   H  1s       0.84883

     7   H  1s       0.84210

     8   H  1s       0.84210

     9   H  1s       0.65982

    10   H  1s       0.71971

    11   H  1s       0.71972

 Active orbital charges:

   CEN ATOM         s          p       ELECTRONS ->SPIN.DEN
     1   C       0.00038    0.04051      0.04089    0.04089
     2   C       0.01901    0.46780      0.48681    0.48681
     3   N       0.01140    0.34151      0.35292    0.35292
     4   H       0.00686                 0.00686    0.00686
     5   H       0.00686                 0.00686    0.00686
     6   H       0.05368                 0.05368    0.05368
     7   H       0.00991                 0.00991    0.00991
     8   H       0.00991                 0.00991    0.00991
     9   H       0.02871                 0.02871    0.02871
    10   H       0.00173                 0.00173    0.00173
    11   H       0.00173                 0.00173    0.00173

 Active orbital charges, AO contributions:

   CEN ATOM SHL      SPHERICAL COMPONENTS
     1   C  1s       0.00000
     1   C  2s       0.00038
     1   C  2p       0.03978    0.00073    0.00000

     2   C  1s       0.00007
     2   C  2s       0.01893
     2   C  2p       0.38106    0.08674    0.00000

     3   N  1s       0.00007
     3   N  2s       0.01133
     3   N  2p       0.27634    0.06517    0.00000

     4   H  1s       0.00686

     5   H  1s       0.00686

     6   H  1s       0.05368

     7   H  1s       0.00991

     8   H  1s       0.00991

     9   H  1s       0.02871

    10   H  1s       0.00173

    11   H  1s       0.00173

 Summary of localized orbital composition:   [THRPRINT= 0.020]

   ORB  GRP  ORB.ENERGY      CENTERS/CHARGES
     1   1   -14.664872      N  3   2.000
     2   1   -10.486979      C  2   2.000
     3   1   -10.473465      C  1   2.000
     4   1    -0.743870      N  3   1.280   H 11   0.716
     5   1    -0.743869      N  3   1.280   H 10   0.716
     6   1    -0.686128      C  2   1.042   C  1   0.934   H  9   0.021
     7   1    -0.619983      C  2   1.152   H  7   0.820   H  9   0.022
     8   1    -0.619983      C  2   1.152   H  8   0.820   H  9   0.022
     9   1    -0.597830      C  1   1.052   H  6   0.777   C  2   0.143   (other: 0.028)
    10   1    -0.576580      C  1   1.117   H  5   0.858   (other: 0.025)
    11   1    -0.576577      C  1   1.117   H  4   0.858   (other: 0.025)
    12   1    -0.504252      N  3   1.063   H  9   0.536   C  2   0.350   (other: 0.050)
    13   1    -0.483281      N  3   1.966   (other: 0.034)
    14   2    -0.173694      C  2   0.487   N  3   0.353   H  6   0.054   C  1   0.041   H  9   0.029   (other: 0.037)

 Localized orbitals saved to record      2201.2  (orbital set 4)


 **********************************************************************************************************************************
 DATASETS  * FILE   NREC   LENGTH (MB)   RECORD NAMES
              1      20     8246.02       500      610      700      900      950      970     1000      129      960     1100   
                                          VAR    BASINP    GEOM    SYMINP    ZMAT    AOBASIS   BASIS     P2S    ABASIS      S 
                                         1400     1410     1200     1210     1080     1600     1650     1300     1700     1800   
                                           T        V       H0       H01     AOSYM     SMH    MOLCAS    ERIS     OPER     GRID   

              2       6       20.42       700     1000      520     2200     1800     2201   
                                         GEOM     BASIS   MCVARS     UHF     GRID      UKS  

 PROGRAMS   *        TOTAL      IBBA       UKS       UHF       INT
 CPU TIMES  *      2475.97      0.19     78.21   2130.52    266.88
 REAL TIME  *      2774.01 SEC
 DISK USED  *        38.49 GB      
 **********************************************************************************************************************************

 IBBA/QZVP energy=      0.000000000000

        UKS-SCF         UHF-SCF 
   -135.64874232   -134.80956003
 **********************************************************************************************************************************
 Molpro calculation terminated
