
 Primary working directories    : /local
 Secondary working directories  : /local
 Wavefunction directory         : /local/
 Main file repository           : /local/

 SHA1      : b4a5b34a9e711420743f49e6833241d17c61fb3c
 NAME      : 2099.9.b4a5b34
 ARCHNAME  : linux/x86_64_openmp
 FC        : /cm/shared/languages/GCC-6.1/bin/gfortran
 BLASLIB   : -lblas
 id        : simonbennie

 Nodes     nprocs
 node32-003    1

 Using customized tuning parameters: mindgm=1; mindgv=20; mindgc=4; mindgr=1; noblas=0; minvec=7
 default implementation of scratch files=df  

 memory,500,m
 geomtyp=xyz
 nosym
 noorient
 geometry={
 C         -1.26075       -0.00001        0.01229
 N          1.31326       -0.00001       -0.13678
 H         -1.58399        0.90854       -0.48474
 H         -1.46367       -0.00457        1.07730
 H         -1.58475       -0.90388       -0.49270
 H          0.04311       -0.00006       -0.15169
 H          1.48046        0.80558        0.46775
 H          1.48056       -0.80552        0.46781
 }
 basis={ default,SV(P) }
 {uhf,direct;wf,19,1,1}
 {uks,M06-HF,direct;maxit,0;wf,19,1,1}
 {ibba,bonds=1}

 Variables initialized (895), CPU time= 0.01 sec
 Commands  initialized (725), CPU time= 0.01 sec, 591 directives.
 Default parameters read. Elapsed time= 0.08 sec

 Checking input...
 Passed
1


                                         ***  PROGRAM SYSTEM MOLPRO  ***
                                       Copyright, TTI GmbH Stuttgart, 2015
                                    Version 2099.9 linked May 26 2017 16:03:21


 **********************************************************************************************************************************
 LABEL *                                                                                 
  64 bit serial version                                                                  DATE: 17-Mar-18          TIME: 07:11:51  
 **********************************************************************************************************************************

 SHA1:             b4a5b34a9e711420743f49e6833241d17c61fb3c
 **********************************************************************************************************************************
 SETTING GEOMTYP        =    XYZ

 Variable memory set to  500000000 words,  buffer space 

 ZSYMEL=NOSYM

 SETTING BASIS          =    SV(P)


 Recomputing integrals since basis changed


 Using spherical harmonics

 Library entry C      S def2-SV(P)           selected for orbital group  1
 Library entry C      P def2-SV(P)           selected for orbital group  1
 Library entry C      D def2-SV(P)           selected for orbital group  1
 Library entry N      S def2-SV(P)           selected for orbital group  2
 Library entry N      P def2-SV(P)           selected for orbital group  2
 Library entry N      D def2-SV(P)           selected for orbital group  2
 Library entry H      S def2-SV(P)           selected for orbital group  3


 PROGRAM * SEWARD (Integral evaluation for generally contracted gaussian basis sets)     Author: Roland Lindh, 1990

 Geometry written to block  1 of record 700


 Point group  C1  



 ATOMIC COORDINATES

 NR  ATOM    CHARGE       X              Y              Z

   1  C       6.00   -2.382472212   -0.000018897    0.023224734
   2  N       7.00    2.481701730   -0.000018897   -0.258476739
   3  H       1.00   -2.993307284    1.716891773   -0.916025842
   4  H       1.00   -2.765935437   -0.008636048    2.035801954
   5  H       1.00   -2.994743476   -1.708085649   -0.931068062
   6  H       1.00    0.081466093   -0.000113384   -0.286652556
   7  H       1.00    2.797663938    1.522325571    0.883919395
   8  H       1.00    2.797852911   -1.522212188    0.884032778

 Bond lengths in Bohr (Angstrom)

 1-3  2.050144722  1-4  2.048800958  1-5  2.050132403  1-6  2.483347723  2-6  2.400401008
     ( 1.084889866)     ( 1.084178777)     ( 1.084883347)     ( 1.314131022)     ( 1.270237511)

 2-7  1.929360963  2-8  1.929339778
     ( 1.020973853)     ( 1.020962643)

 Bond angles

  1-6-2  172.15927634   3-1-4  113.44044653   3-1-5  113.29668306   3-1-6  103.79702058

  4-1-5  113.44370848   4-1-6  107.95545954   5-1-6  103.78034715   6-2-7   99.83056598

  6-2-8   99.83279831   7-2-8  104.18542184

 NUCLEAR CHARGE:                   19
 NUMBER OF PRIMITIVE AOS:          74
 NUMBER OF SYMMETRY AOS:           72
 NUMBER OF CONTRACTIONS:           40   (  40A   )
 NUMBER OF CORE ORBITALS:           2   (   2A   )
 NUMBER OF VALENCE ORBITALS:       14   (  14A   )


 NUCLEAR REPULSION ENERGY   39.42840512


 Eigenvalues of metric

         1 0.646E-02 0.230E-01 0.474E-01 0.661E-01 0.665E-01 0.111E+00 0.190E+00 0.196E+00


 Contracted 2-electron integrals neglected if value below      1.0D-11
 AO integral compression algorithm  1   Integral accuracy      1.0D-11

     1.573 MB (compressed) written to integral file ( 54.8%)


 NUMBER OF SORTED TWO-ELECTRON INTEGRALS:     336610.     BUFFER LENGTH:  32768
 NUMBER OF SEGMENTS:   1  SEGMENT LENGTH:     336610      RECORD LENGTH: 524288

 Memory used in sort:       0.89 MW

 SORT1 READ      416247. AND WROTE      288478. INTEGRALS IN      1 RECORDS. CPU TIME:     0.01 SEC, REAL TIME:     0.01 SEC
 SORT2 READ      288478. AND WROTE      336610. INTEGRALS IN      6 RECORDS. CPU TIME:     0.02 SEC, REAL TIME:     0.05 SEC

 FILE SIZES:   FILE 1:    31.7 MBYTE,  FILE 4:     4.2 MBYTE,   TOTAL:     35.9 MBYTE

 OPERATOR DM      FOR CENTER  0  COORDINATES:    0.000000    0.000000    0.000000


 **********************************************************************************************************************************
 DATASETS  * FILE   NREC   LENGTH (MB)   RECORD NAMES
              1      19       31.41       500      610      700      900      950      970     1000      129      960     1100   
                                          VAR    BASINP    GEOM    SYMINP    ZMAT    AOBASIS   BASIS     P2S    ABASIS      S 
                                         1400     1410     1200     1210     1080     1600     1650     1300     1700   
                                           T        V       H0       H01     AOSYM     SMH    MOLCAS    ERIS     OPER   

 PROGRAMS   *        TOTAL       INT
 CPU TIMES  *         0.45      0.32
 REAL TIME  *         3.43 SEC
 DISK USED  *        36.32 MB      
 **********************************************************************************************************************************


 PROGRAM * UHF-SCF       Authors: W. Meyer, H.-J. Werner


 NUMBER OF ELECTRONS:      10+    9-    SPACE SYMMETRY=1    SPIN SYMMETRY: Doublet 
 CONVERGENCE THRESHOLDS:    1.00E-05 (Density)    1.00E-07 (Energy)
 INTEGRAL THRESHOLDS:       1.00E-11 (Initial)    1.00E-11 (Final)
 MAX. NUMBER OF ITERATIONS:       60
 INTERPOLATION TYPE:            DIIS
 INTERPOLATION STEPS:              2 (START)      1 (STEP)
 LEVEL SHIFTS:                 -0.20 (ALPHA)  -0.20 (BETA) 



 Orbital guess generated from atomic densities. Full valence occupancy:   10

 Molecular orbital dump at record        2200.2

 Initial alpha occupation  10
 Initial beta  occupation   9

 Direct Fock-matrix evaluation.        Author: H.-J. Werner (1996)

 Integral Threshold:                  0.1D-10

 ITERATION   DDIFF            GRAD            ENERGY        2-EL.EN.            DIPOLE MOMENTS         DIIS   CPU(IT)  CPU(TOT)
    1      0.000D+00      0.000D+00       -95.56280058    143.997185   -0.31953    0.00007    0.97870    0      0.9      2.0
    2      0.731D-02      0.657D-02       -95.59798563    142.783886   -0.24935    0.00005    0.78738    1      0.5      2.4
    3      0.314D-02      0.250D-02       -95.60594706    142.958747   -0.24143    0.00004    0.75288    2      0.5      2.9
    4      0.243D-02      0.130D-02       -95.60872772    142.943908   -0.21581    0.00003    0.73090    3      0.5      3.4
    5      0.112D-02      0.472D-03       -95.60926059    142.943452   -0.19861    0.00003    0.73139    4      0.5      3.9
    6      0.691D-03      0.238D-03       -95.60943657    142.929493   -0.17819    0.00003    0.73297    5      0.6      4.5
    7      0.227D-03      0.970D-04       -95.60946748    142.925479   -0.16891    0.00003    0.73409    6      0.5      5.0
    8      0.149D-03      0.487D-04       -95.60947660    142.926475   -0.16323    0.00003    0.73481    7      0.5      5.5
    9      0.505D-04      0.148D-04       -95.60947744    142.925905   -0.16280    0.00003    0.73505    8      0.5      6.0
   10      0.180D-04      0.650D-05       -95.60947757    142.925981   -0.16341    0.00003    0.73510    8      0.5      6.6
   11      0.102D-04      0.403D-05       -95.60947762    142.925825   -0.16403    0.00003    0.73512    8      0.5      7.1
   12      0.789D-05      0.237D-05       -95.60947765    142.925915   -0.16449    0.00003    0.73515    8      0.7      7.8
   13      0.523D-05      0.125D-05       -95.60947766    142.925854   -0.16473    0.00003    0.73517    8      0.5      8.3

 Final alpha occupancy:  10
 Final beta  occupancy:   9

 !UHF STATE 1.1 Energy                -95.609477655955
 Nuclear energy                        39.42840512
 One-electron energy                 -206.50080989
 Two-electron energy                   71.46292712
 Virial quotient                       -1.00204299
 !UHF STATE 1.1 Dipole moment          -0.16473481     0.00003008     0.73517136
 Dipole moment /Debye                  -0.41868669     0.00007645     1.86849683

 Orbital energies for positive spin:

         1.1          2.1          3.1          4.1          5.1          6.1          7.1          8.1          9.1         10.1
    -15.565850   -11.229079    -1.151094    -0.945434    -0.639857    -0.635935    -0.570961    -0.568313    -0.474276    -0.381640

        11.1         12.1
      0.169230     0.220598

 Orbital energies for negative spin:

         1.1          2.1          3.1          4.1          5.1          6.1          7.1          8.1          9.1         10.1
    -15.539850   -11.210153    -1.071192    -0.892522    -0.623500    -0.564266    -0.557980    -0.540731    -0.412255     0.100649

        11.1         12.1
      0.177018     0.235602

 HOMO     10.1    -0.381640 =     -10.3850eV
 LUMO    -10.1     0.100649 =       2.7388eV
 LUMO-HOMO         0.482289 =      13.1238eV

 EXPECTATION VALUE OF S**2:             0.79345160

 Occupation number threshold for canonical orbitals:  1.999000 (occupied),  0.001000 (virtual)

 Number of pseudo-canonical orbitals per symmetry:    7
 Number of active natural orbitals per symmetry:      5

 Natural orbitals saved to record    2200.2 (Orbital set 3)

 Orbital spaces for UNO-CAS (Min. occupation: 0.020  Max. occupation: 1.980):

 Closed:        9
 Active:        1


 **********************************************************************************************************************************
 DATASETS  * FILE   NREC   LENGTH (MB)   RECORD NAMES
              1      19       31.41       500      610      700      900      950      970     1000      129      960     1100   
                                          VAR    BASINP    GEOM    SYMINP    ZMAT    AOBASIS   BASIS     P2S    ABASIS      S 
                                         1400     1410     1200     1210     1080     1600     1650     1300     1700   
                                           T        V       H0       H01     AOSYM     SMH    MOLCAS    ERIS     OPER   

              2       4        2.94       700     1000      520     2200   
                                         GEOM     BASIS   MCVARS     UHF  

 PROGRAMS   *        TOTAL       UHF       INT
 CPU TIMES  *         8.74      8.29      0.32
 REAL TIME  *        36.08 SEC
 DISK USED  *        36.32 MB      
 **********************************************************************************************************************************

 Density functional group M06-HF=XC-M06-HF
 Functional: XC-M06-HF(via MFM 1.6)                                            Gradient terms: 1
 Use grid at  1800.2


 Exact exchange will be calculated, factor:  1.0000

 Functional: XC-M06-HF                 Factor:  1.0000

 Generated new metagrid on record  1800.2 with target accuracy 1.0D-06 and 27332 points in CPU time    0.7
 Computed new grid on record 1800.1 in CPU time    0.8
   35822 words reserved for DFT integration

 PROGRAM * UKS-SCF (Unrestricted Kohn-Sham)     Authors: W. Meyer, H.-J. Werner, P.J. Knowles, 1993

 NUMBER OF ELECTRONS:      10+    9-    SPACE SYMMETRY=1    SPIN SYMMETRY: Doublet 
 CONVERGENCE THRESHOLDS:    1.00E-05 (Density)    1.00E-06 (Energy)
 MAX. NUMBER OF ITERATIONS:        0
 INTERPOLATION TYPE:            DIIS
 INTERPOLATION STEPS:              2 (START)      1 (STEP)
 LEVEL SHIFTS:                 -0.20 (ALPHA)  -0.20 (BETA) 



 Use fine grid record 1800.2 for energy threshold  1.0D-06
 Molecular orbitals read from record     2200.2  Type=UHF/ALPHA (state 1.1)
 Molecular orbitals read from record     2200.2  Type=UHF/BETA (state 1.1)

 Molecular orbital dump at record        2201.2

 Initial alpha occupation  10
 Initial beta  occupation   9

 ITERATION    DDIFF          GRAD             ENERGY        2-EL.EN.            DIPOLE MOMENTS         DIIS
    1      0.000D+00      0.000D+00       -96.20201089    142.925854   -0.16473    0.00003    0.73517    0

 Final alpha occupancy:  10
 Final beta  occupancy:   9

 !UKS STATE 1.1 Energy                -96.202010888563
 Nuclear energy                        39.42840512
 One-electron energy                 -206.50080989
 Two-electron energy                   71.46292712
 Density functional                    -0.59253323     XC-M06-HF=-0.59253323
 Virial quotient                       -1.00825308
 !UKS STATE 1.1 Dipole moment          -0.16473481     0.00003008     0.73517136
 Dipole moment /Debye                  -0.41868669     0.00007645     1.86849683

 Orbital energies for positive spin:

         1.1          2.1          3.1          4.1          5.1          6.1          7.1          8.1          9.1         10.1
    -15.544510   -11.219410    -0.919734    -0.631329    -0.566662    -0.562914    -0.489915    -1.083170    -0.558780    -0.133157

        11.1         12.1
      0.671727     1.048985

 Orbital energies for negative spin:

         1.1          2.1          3.1          4.1          5.1          6.1          7.1          8.1          9.1         10.1
    -15.544510   -11.219410    -0.919734    -0.631329    -0.566662    -0.562914    -0.489915    -1.083170    -0.558780    -0.133157

        11.1         12.1
      0.671727     1.048985

 HOMO     10.1    -0.133157 =      -3.6234eV
 LUMO    -10.1    -0.133157 =      -3.6234eV
 LUMO-HOMO         0.000000 =       0.0000eV

 EXPECTATION VALUE OF S**2:             0.79345160

 Occupation number threshold for canonical orbitals:  1.999000 (occupied),  0.001000 (virtual)

 Number of pseudo-canonical orbitals per symmetry:    7
 Number of active natural orbitals per symmetry:      5

 Natural orbitals saved to record    2201.2 (Orbital set 3)

 Orbital spaces for UNO-CAS (Min. occupation: 0.020  Max. occupation: 1.980):

 Closed:        9
 Active:        1

 No convergence



 **********************************************************************************************************************************
 DATASETS  * FILE   NREC   LENGTH (MB)   RECORD NAMES
              1      20       32.28       500      610      700      900      950      970     1000      129      960     1100   
                                          VAR    BASINP    GEOM    SYMINP    ZMAT    AOBASIS   BASIS     P2S    ABASIS      S 
                                         1400     1410     1200     1210     1080     1600     1650     1300     1700     1800   
                                           T        V       H0       H01     AOSYM     SMH    MOLCAS    ERIS     OPER     GRID   

              2       6        5.50       700     1000      520     2200     1800     2201   
                                         GEOM     BASIS   MCVARS     UHF     GRID      UKS  

 PROGRAMS   *        TOTAL       UKS       UHF       INT
 CPU TIMES  *        10.16      1.42      8.29      0.32
 REAL TIME  *        41.76 SEC
 DISK USED  *        37.86 MB      
 **********************************************************************************************************************************


 PROGRAM * Intrinsic Basis Bonding Analysis (IBBA)          Author: G. Knizia

 Molecular orbitals read from record     2201.2  Type=UKS/ALPHA (state 1.1)
 Fock matrix read from record            2201.2  Type=UKS/TOTAL (state 1.1)
 Orbital energies read from record       2201.2  Type=UKS/ALPHA (state 1.1)
 Density matrix read from record         2201.2  Type=UKS/CHARGE (state 1.1)

 Number of core orbitals:           2 (   2 )
 Number of closed-shell orbitals:   7 (   7 )
 Number of active  orbitals:        1 (   1 )

 Basis set MINAO-AUTO-PP generated.      Number of basis functions:   16 

 Polarized AO type:                A = (O Ot + (1-O)(1-Ot)) P12
 Orthogonalization method:         Symmetric (Loewdin)
 Localization functional:          L = sum[A,i] <i|n_A|i>^4 -> max

 Localization group 1:   9 orbitals, occupancy  2.000
 Iterative localization: IB/PM,    6 iter; Final gradient 0.17E-08

 Bond order analysis:       [THRPRINT= 0.020]

   CEN ATOM   CEN ATOM     WIBERG.BO      RENORM.BO
     1   C  -   4   H       0.959725       0.999520
     1   C  -   3   H       0.951190       0.999854
     1   C  -   5   H       0.951139       0.999853
     1   C  -   2   N       0.469174       1.002869
     1   C  -   6   H       0.293040       0.836053

     2   N  -   7   H       0.927148       0.999962
     2   N  -   8   H       0.927146       0.999961
     2   N  -   6   H       0.574541       0.873253
     2   N  -   1   C       0.469174       1.002869

     3   H  -   1   C       0.951190       0.999854

     4   H  -   1   C       0.959725       0.999520

     5   H  -   1   C       0.951139       0.999853

     6   H  -   2   N       0.574541       0.873253
     6   H  -   1   C       0.293040       0.836053

     7   H  -   2   N       0.927148       0.999962

     8   H  -   2   N       0.927146       0.999961


 Valency analysis:

   CEN ATOM   TOT.VALENCE
     1   C       3.632198
     2   N       2.939884
     3   H       0.971018
     4   H       0.974967
     5   H       0.970992
     6   H       0.879526
     7   H       0.931456
     8   H       0.931454
 Localization group 2:   1 orbitals, occupancy  1.000
 Iterative localization: IB/PM,    1 iter; Final gradient 0.00E+00

 Bond order analysis:       [THRPRINT= 0.020]

   CEN ATOM   CEN ATOM     WIBERG.BO      RENORM.BO
     1   C  -   2   N       0.442006       0.500000
     1   C  -   6   H       0.021104       0.500000

     2   N  -   1   C       0.442006       0.500000




     6   H  -   1   C       0.021104       0.500000




 Valency analysis:

   CEN ATOM   TOT.VALENCE
     1   C       0.493810
     2   N       0.479090
     3   H       0.016223
     4   H       0.012633
     5   H       0.016244
     6   H       0.037260
     7   H       0.004890
     8   H       0.004891

 Total charge composition:

   CEN ATOM         s          p       ELECTRONS ->P.CHARGE
     1   C       3.12235    3.35450      6.47685   -0.47685
     2   N       3.52445    4.32157      7.84602   -0.84602
     3   H       0.83794                 0.83794    0.16206
     4   H       0.84814                 0.84814    0.15186
     5   H       0.83787                 0.83787    0.16213
     6   H       0.67190                 0.67190    0.32810
     7   H       0.74064                 0.74064    0.25936
     8   H       0.74064                 0.74064    0.25936

 Total charge composition, AO contributions:

   CEN ATOM SHL      SPHERICAL COMPONENTS
     1   C  1s       1.99073
     1   C  2s       1.13162
     1   C  2p       0.99798    1.18223    1.17429

     2   N  1s       1.99501
     2   N  2s       1.52945
     2   N  2p       1.38010    1.26213    1.67934

     3   H  1s       0.83794

     4   H  1s       0.84814

     5   H  1s       0.83787

     6   H  1s       0.67190

     7   H  1s       0.74064

     8   H  1s       0.74064

 Active orbital charges:

   CEN ATOM         s          p       ELECTRONS ->SPIN.DEN
     1   C       0.02320    0.53243      0.55563    0.55563
     2   N       0.01241    0.38534      0.39775    0.39775
     3   H       0.00818                 0.00818    0.00818
     4   H       0.00636                 0.00636    0.00636
     5   H       0.00819                 0.00819    0.00819
     6   H       0.01899                 0.01899    0.01899
     7   H       0.00245                 0.00245    0.00245
     8   H       0.00245                 0.00245    0.00245

 Active orbital charges, AO contributions:

   CEN ATOM SHL      SPHERICAL COMPONENTS
     1   C  1s       0.00007
     1   C  2s       0.02313
     1   C  2p       0.52984    0.00000    0.00259

     2   N  1s       0.00007
     2   N  2s       0.01234
     2   N  2p       0.38409    0.00000    0.00124

     3   H  1s       0.00818

     4   H  1s       0.00636

     5   H  1s       0.00819

     6   H  1s       0.01899

     7   H  1s       0.00245

     8   H  1s       0.00245

 Summary of localized orbital composition:   [THRPRINT= 0.020]

   ORB  GRP  ORB.ENERGY      CENTERS/CHARGES
     1   1   -15.118086      N  2   2.000
     2   1   -10.869801      C  1   2.000
     3   1    -0.839714      N  2   1.260   H  8   0.735
     4   1    -0.839700      N  2   1.260   H  7   0.735
     5   1    -0.708853      C  1   1.149   H  4   0.836
     6   1    -0.708461      C  1   1.156   H  5   0.823   (other: 0.022)
     7   1    -0.708447      C  1   1.156   H  3   0.823   (other: 0.022)
     8   1    -0.606211      N  2   0.963   H  6   0.577   C  1   0.436   (other: 0.024)
     9   1    -0.556813      N  2   1.960   C  1   0.023
    10   2    -0.186148      C  1   0.556   N  2   0.398   (other: 0.047)

 Localized orbitals saved to record      2201.2  (orbital set 4)


 **********************************************************************************************************************************
 DATASETS  * FILE   NREC   LENGTH (MB)   RECORD NAMES
              1      20       32.28       500      610      700      900      950      970     1000      129      960     1100   
                                          VAR    BASINP    GEOM    SYMINP    ZMAT    AOBASIS   BASIS     P2S    ABASIS      S 
                                         1400     1410     1200     1210     1080     1600     1650     1300     1700     1800   
                                           T        V       H0       H01     AOSYM     SMH    MOLCAS    ERIS     OPER     GRID   

              2       6        5.52       700     1000      520     2200     1800     2201   
                                         GEOM     BASIS   MCVARS     UHF     GRID      UKS  

 PROGRAMS   *        TOTAL      IBBA       UKS       UHF       INT
 CPU TIMES  *        10.18      0.02      1.42      8.29      0.32
 REAL TIME  *        43.79 SEC
 DISK USED  *        37.86 MB      
 **********************************************************************************************************************************

 IBBA/SV(P) energy=      0.000000000000

        UKS-SCF         UHF-SCF 
    -96.20201089    -95.60947766
 **********************************************************************************************************************************
 Molpro calculation terminated
