
 Primary working directories    : /local/molpro.BCwuF9ng1c
 Secondary working directories  : /local/molpro.BCwuF9ng1c
 Wavefunction directory         : /local/
 Main file repository           : /local/molpro.BCwuF9ng1c/

 id        : simonbennie

 Nodes     nprocs
 node34-015    1

 Using customized tuning parameters: mindgm=1; mindgv=20; mindgc=4; mindgr=1; noblas=0; minvec=7
 default implementation of scratch files=df  

 memory,500,m
 geomtyp=xyz
 nosym
 noorient
 geometry={
 C         -1.26075       -0.00001        0.01229
 N          1.31326       -0.00001       -0.13678
 H         -1.58399        0.90854       -0.48474
 H         -1.46367       -0.00457        1.07730
 H         -1.58475       -0.90388       -0.49270
 H          0.04311       -0.00006       -0.15169
 H          1.48046        0.80558        0.46775
 H          1.48056       -0.80552        0.46781
 }
 basis={default,sto-3g}
 {uhf,direct;wf,19,1,1}
 
 basis={ default,6-31+G(d,p) }
 {uhf,direct;wf,19,1,1}
 {uks,LDA,direct;maxit,0;wf,19,1,1}
 {ibba,bonds=1}

 Variables initialized (920), CPU time= 0.01 sec
 Commands  initialized (754), CPU time= 0.01 sec, 615 directives.
 Default parameters read. Elapsed time= 0.08 sec

 Checking input...
 Passed
1


                                         ***  PROGRAM SYSTEM MOLPRO  ***
                                       Copyright, TTI GmbH Stuttgart, 2015
                                    Version 2018.0 linked Jul  6 2018 18:07:13


 **********************************************************************************************************************************
 LABEL *                                                                                 
  64 bit serial version                                                                  DATE: 10-Oct-18          TIME: 17:12:10  
 **********************************************************************************************************************************

 SHA1:             b58f8fddb9d75525be9261ebe3faf0e4279c479b
 **********************************************************************************************************************************
 SETTING GEOMTYP        =    XYZ

 Variable memory set to  500000000 words,  buffer space 

 ZSYMEL=NOSYM

 SETTING BASIS          =    STO-3G


 Recomputing integrals since basis changed


 Using spherical harmonics

 Library entry C      S STO-3G               selected for orbital group  1
 Library entry C      P STO-3G               selected for orbital group  1
 Library entry N      S STO-3G               selected for orbital group  2
 Library entry N      P STO-3G               selected for orbital group  2
 Library entry H      S STO-3G               selected for orbital group  3


 PROGRAM * SEWARD (Integral evaluation for generally contracted gaussian basis sets)     Author: Roland Lindh, 1990

 Geometry written to block  1 of record 700


 Point group  C1  



 ATOMIC COORDINATES

 NR  ATOM    CHARGE       X              Y              Z

   1  C       6.00   -2.382472212   -0.000018897    0.023224734
   2  N       7.00    2.481701730   -0.000018897   -0.258476739
   3  H       1.00   -2.993307284    1.716891773   -0.916025842
   4  H       1.00   -2.765935437   -0.008636048    2.035801954
   5  H       1.00   -2.994743476   -1.708085649   -0.931068062
   6  H       1.00    0.081466093   -0.000113384   -0.286652556
   7  H       1.00    2.797663938    1.522325571    0.883919395
   8  H       1.00    2.797852911   -1.522212188    0.884032778

 Bond lengths in Bohr (Angstrom)

 1-3  2.050144722  1-4  2.048800958  1-5  2.050132403  1-6  2.483347723  2-6  2.400401008
     ( 1.084889866)     ( 1.084178777)     ( 1.084883347)     ( 1.314131022)     ( 1.270237511)

 2-7  1.929360963  2-8  1.929339778
     ( 1.020973853)     ( 1.020962643)

 Bond angles

  1-6-2  172.15927634   3-1-4  113.44044653   3-1-5  113.29668306   3-1-6  103.79702058

  4-1-5  113.44370848   4-1-6  107.95545954   5-1-6  103.78034715   6-2-7   99.83056598

  6-2-8   99.83279831   7-2-8  104.18542184

 NUCLEAR CHARGE:                   19
 NUMBER OF PRIMITIVE AOS:          48
 NUMBER OF SYMMETRY AOS:           48
 NUMBER OF CONTRACTIONS:           16   (  16A   )
 NUMBER OF CORE ORBITALS:           2   (   2A   )
 NUMBER OF VALENCE ORBITALS:       14   (  14A   )


 NUCLEAR REPULSION ENERGY   39.42840512


 Eigenvalues of metric

         1 0.229E+00 0.286E+00 0.358E+00 0.360E+00 0.376E+00 0.391E+00 0.856E+00 0.924E+00


 Contracted 2-electron integrals neglected if value below      1.0D-11
 AO integral compression algorithm  1   Integral accuracy      1.0D-11

     0.262 MB (compressed) written to integral file (100.0%)


 NUMBER OF SORTED TWO-ELECTRON INTEGRALS:       9316.     BUFFER LENGTH:  32768
 NUMBER OF SEGMENTS:   1  SEGMENT LENGTH:       9316      RECORD LENGTH: 524288

 Memory used in sort:       0.57 MW

 SORT1 READ       11328. AND WROTE        8469. INTEGRALS IN      1 RECORDS. CPU TIME:     0.00 SEC, REAL TIME:     0.01 SEC
 SORT2 READ        8469. AND WROTE        9316. INTEGRALS IN      1 RECORDS. CPU TIME:     0.01 SEC, REAL TIME:     0.00 SEC

 FILE SIZES:   FILE 1:    30.3 MBYTE,  FILE 4:     4.2 MBYTE,   TOTAL:     34.6 MBYTE

 OPERATOR DM      FOR CENTER  0  COORDINATES:    0.000000    0.000000    0.000000


 **********************************************************************************************************************************
 DATASETS  * FILE   NREC   LENGTH (MB)   RECORD NAMES
              1      19       30.12       500      610      700      900      950      970     1000      129      960     1100   
                                          VAR    BASINP    GEOM    SYMINP    ZMAT    AOBASIS   BASIS     P2S    ABASIS      S 
                                         1400     1410     1200     1210     1080     1600     1650     1300     1700   
                                           T        V       H0       H01     AOSYM     SMH    MOLCAS    ERIS     OPER   

 PROGRAMS   *        TOTAL       INT
 CPU TIMES  *         0.46      0.32
 REAL TIME  *         0.73 SEC
 DISK USED  *        34.94 MB
 **********************************************************************************************************************************


 PROGRAM * UHF-SCF       Authors: W. Meyer, H.-J. Werner


 NUMBER OF ELECTRONS:      10+    9-    SPACE SYMMETRY=1    SPIN SYMMETRY: Doublet 
 CONVERGENCE THRESHOLDS:    1.00E-05 (Density)    1.00E-07 (Energy)
 INTEGRAL THRESHOLDS:       1.00E-11 (Initial)    1.00E-11 (Final)
 MAX. NUMBER OF ITERATIONS:       60
 INTERPOLATION TYPE:            DIIS
 INTERPOLATION STEPS:              2 (START)      1 (STEP)
 LEVEL SHIFTS:                 -0.20 (ALPHA)  -0.20 (BETA) 



 Orbital guess generated from atomic densities. Full valence occupancy:   10

 Molecular orbital dump at record        2200.2

 Initial alpha occupation  10
 Initial beta  occupation   9

 Direct Fock-matrix evaluation.        Author: H.-J. Werner (1996)

 Integral Threshold:                  0.1D-10

 ITERATION   DDIFF            GRAD            ENERGY        2-EL.EN.            DIPOLE MOMENTS         DIIS   CPU(IT)  CPU(TOT)
    1      0.000D+00      0.000D+00       -94.44190493    146.820362   -0.25758    0.00006    1.02244    0      1.0      1.8
    2      0.326D-01      0.189D-01       -94.49706711    144.539647   -0.09549    0.00003    0.75102    1      0.5      2.2
    3      0.102D-01      0.626D-02       -94.50505650    143.911062   -0.04634    0.00002    0.67304    2      0.5      2.7
    4      0.423D-02      0.243D-02       -94.50753579    143.857129   -0.01689    0.00002    0.66531    3      0.5      3.2
    5      0.155D-02      0.921D-03       -94.50786883    143.859251    0.00054    0.00002    0.66956    4      0.5      3.7
    6      0.973D-03      0.390D-03       -94.50794187    143.855585    0.01018    0.00002    0.67298    5      0.5      4.2
    7      0.495D-03      0.170D-03       -94.50795819    143.854041    0.01063    0.00002    0.67369    6      0.5      4.7
    8      0.168D-03      0.676D-04       -94.50796038    143.853698    0.00816    0.00002    0.67361    6      0.5      5.1
    9      0.190D-03      0.469D-04       -94.50796195    143.853735    0.00438    0.00002    0.67365    7      0.5      5.6
   10      0.204D-03      0.277D-04       -94.50796280    143.853721    0.00072    0.00002    0.67367    7      0.5      6.1
   11      0.886D-04      0.112D-04       -94.50796294    143.853625   -0.00050    0.00002    0.67371    7      0.5      6.6
   12      0.282D-04      0.428D-05       -94.50796295    143.853632   -0.00086    0.00002    0.67372    8      0.5      7.0
   13      0.726D-05      0.175D-05       -94.50796296    143.853647   -0.00099    0.00002    0.67372    8      0.5      7.5
   14      0.167D-05      0.459D-06       -94.50796296    143.853647   -0.00103    0.00002    0.67372    8      0.5      8.0

 Final alpha occupancy:  10
 Final beta  occupancy:   9

 !UHF STATE  1.1 Energy               -94.507962955463
 Nuclear energy                        39.42840512
 One-electron energy                 -205.86319145
 Two-electron energy                   71.92682337
 Virial quotient                       -1.00417449
 !UHF STATE  1.1 Dipole moment         -0.00103451     0.00002186     0.67371933
 Dipole moment /Debye                  -0.00262930     0.00005557     1.71231157

 Orbital energies for positive spin:

         1.1          2.1          3.1          4.1          5.1          6.1          7.1          8.1          9.1         10.1
    -15.338207   -11.017987    -1.127143    -0.907883    -0.590435    -0.586193    -0.527809    -0.524592    -0.413723    -0.322622

        11.1         12.1
      0.624763     0.689966

 Orbital energies for negative spin:

         1.1          2.1          3.1          4.1          5.1          6.1          7.1          8.1          9.1         10.1
    -15.318224   -10.999972    -1.038835    -0.854949    -0.573951    -0.519775    -0.513368    -0.496414    -0.337463     0.230122

        11.1         12.1
      0.657310     0.709503


 HOMO     10.1    -0.322622 =      -8.7790eV
 LUMO    -10.1     0.230122 =       6.2619eV
 LUMO-HOMO         0.552744 =      15.0409eV

 EXPECTATION VALUE OF S**2:             0.79360905

 Occupation number threshold for pseudo-canonical orbitals: 1.9990 (occupied), 0.0010 (virtual)

 Number of pseudo-canonical occupied orbitals per symmetry:    7
 Number of active natural orbitals per symmetry:               5

 Natural orbitals saved to record    2200.2 (Orbital set 3)

 Orbital spaces for UNO-CAS (Min. occupation: 0.020  Max. occupation: 1.980):

 Closed:        9
 Active:        1


 **********************************************************************************************************************************
 DATASETS  * FILE   NREC   LENGTH (MB)   RECORD NAMES
              1      19       30.12       500      610      700      900      950      970     1000      129      960     1100   
                                          VAR    BASINP    GEOM    SYMINP    ZMAT    AOBASIS   BASIS     P2S    ABASIS      S 
                                         1400     1410     1200     1210     1080     1600     1650     1300     1700   
                                           T        V       H0       H01     AOSYM     SMH    MOLCAS    ERIS     OPER   

              2       4        2.88       700     1000      520     2200   
                                         GEOM     BASIS   MCVARS     UHF  

 PROGRAMS   *        TOTAL   UHF-SCF       INT
 CPU TIMES  *         8.45      7.99      0.32
 REAL TIME  *         9.71 SEC
 DISK USED  *        34.94 MB
 **********************************************************************************************************************************
 SETTING BASIS          =    6-31+G(D,P)


 Recomputing integrals since basis changed


 Using spherical harmonics

 Library entry C      S 6-31G                selected for orbital group  1
 Library entry C      S 6-31++G              selected for orbital group  1
 Library entry C      P 6-31G                selected for orbital group  1
 Library entry C      P 6-31++G              selected for orbital group  1
 Library entry C      D 6-31G*               selected for orbital group  1
 Library entry N      S 6-31G                selected for orbital group  2
 Library entry N      S 6-31++G              selected for orbital group  2
 Library entry N      P 6-31G                selected for orbital group  2
 Library entry N      P 6-31++G              selected for orbital group  2
 Library entry N      D 6-31G*               selected for orbital group  2
 Library entry H      S 6-31G                selected for orbital group  3
 Library entry H      P 6-31G**              selected for orbital group  3


 PROGRAM * SEWARD (Integral evaluation for generally contracted gaussian basis sets)     Author: Roland Lindh, 1990

 Geometry written to block  1 of record 700


 Point group  C1  



 ATOMIC COORDINATES

 NR  ATOM    CHARGE       X              Y              Z

   1  C       6.00   -2.382472212   -0.000018897    0.023224734
   2  N       7.00    2.481701730   -0.000018897   -0.258476739
   3  H       1.00   -2.993307284    1.716891773   -0.916025842
   4  H       1.00   -2.765935437   -0.008636048    2.035801954
   5  H       1.00   -2.994743476   -1.708085649   -0.931068062
   6  H       1.00    0.081466093   -0.000113384   -0.286652556
   7  H       1.00    2.797663938    1.522325571    0.883919395
   8  H       1.00    2.797852911   -1.522212188    0.884032778

 Bond lengths in Bohr (Angstrom)

 1-3  2.050144722  1-4  2.048800958  1-5  2.050132403  1-6  2.483347723  2-6  2.400401008
     ( 1.084889866)     ( 1.084178777)     ( 1.084883347)     ( 1.314131022)     ( 1.270237511)

 2-7  1.929360963  2-8  1.929339778
     ( 1.020973853)     ( 1.020962643)

 Bond angles

  1-6-2  172.15927634   3-1-4  113.44044653   3-1-5  113.29668306   3-1-6  103.79702058

  4-1-5  113.44370848   4-1-6  107.95545954   5-1-6  103.78034715   6-2-7   99.83056598

  6-2-8   99.83279831   7-2-8  104.18542184

 NUCLEAR CHARGE:                   19
 NUMBER OF PRIMITIVE AOS:         106
 NUMBER OF SYMMETRY AOS:          104
 NUMBER OF CONTRACTIONS:           66   (  66A   )
 NUMBER OF CORE ORBITALS:           2   (   2A   )
 NUMBER OF VALENCE ORBITALS:       14   (  14A   )


 NUCLEAR REPULSION ENERGY   39.42840512


 Eigenvalues of metric

         1 0.534E-02 0.747E-02 0.261E-01 0.276E-01 0.535E-01 0.536E-01 0.577E-01 0.105E+00


 Contracted 2-electron integrals neglected if value below      1.0D-11
 AO integral compression algorithm  1   Integral accuracy      1.0D-11

     10.486 MB (compressed) written to integral file ( 46.1%)


 NUMBER OF SORTED TWO-ELECTRON INTEGRALS:    2445366.     BUFFER LENGTH:  32768
 NUMBER OF SEGMENTS:   1  SEGMENT LENGTH:    2445366      RECORD LENGTH: 524288

 Memory used in sort:       3.00 MW

 SORT1 READ     2862067. AND WROTE     2191973. INTEGRALS IN      7 RECORDS. CPU TIME:     0.03 SEC, REAL TIME:     0.07 SEC
 SORT2 READ     2191973. AND WROTE     2445366. INTEGRALS IN     40 RECORDS. CPU TIME:     0.10 SEC, REAL TIME:     0.13 SEC

 FILE SIZES:   FILE 1:    40.7 MBYTE,  FILE 4:    29.4 MBYTE,   TOTAL:     70.1 MBYTE

 OPERATOR DM      FOR CENTER  0  COORDINATES:    0.000000    0.000000    0.000000


 **********************************************************************************************************************************
 DATASETS  * FILE   NREC   LENGTH (MB)   RECORD NAMES
              1      19       38.95       500      610      700      900      950      970     1001      129      960     1100   
                                          VAR    BASINP    GEOM    SYMINP    ZMAT    AOBASIS   BASIS     P2S    ABASIS      S 
                                         1400     1410     1200     1210     1080     1600     1650     1300     1700   
                                           T        V       H0       H01     AOSYM     SMH    MOLCAS    ERIS     OPER   

              2       5        2.90       700     1000      520     2200     1001   
                                         GEOM     BASIS   MCVARS     UHF     BASIS   

 PROGRAMS   *        TOTAL       INT   UHF-SCF       INT
 CPU TIMES  *         9.14      0.69      7.99      0.32
 REAL TIME  *        10.55 SEC
 DISK USED  *        73.06 MB
 **********************************************************************************************************************************


 PROGRAM * UHF-SCF       Authors: W. Meyer, H.-J. Werner


 NUMBER OF ELECTRONS:      10+    9-    SPACE SYMMETRY=1    SPIN SYMMETRY: Doublet 
 CONVERGENCE THRESHOLDS:    1.00E-05 (Density)    1.00E-07 (Energy)
 INTEGRAL THRESHOLDS:       1.00E-11 (Initial)    1.00E-11 (Final)
 MAX. NUMBER OF ITERATIONS:       60
 INTERPOLATION TYPE:            DIIS
 INTERPOLATION STEPS:              2 (START)      1 (STEP)
 LEVEL SHIFTS:                 -0.20 (ALPHA)  -0.20 (BETA) 



 Molecular orbitals read from record     2200.2  Type=UHF/ALPHA (state 1.1)

 Present basis size:      66
 Previous basis size:     16
 Previous occupation:     10
 Previous closed-shells:   9
 Previous core-orbitals:   2
 Present occupation:      10
 Present closed-shells:    9
 Present core-orbitals:    2
 Wavefunction symmetry:    1   Doublet 

 Orbital overlap <old|new>:  < 1.1| 1.1> = 0.999840   < 2.1| 2.1> = 0.999833   < 3.1| 3.1> = 0.999814   < 4.1| 4.1> = 0.999903
                             < 5.1| 5.1> = 0.999138   < 6.1| 6.1> = 0.998907   < 7.1| 7.1> = 0.999563   < 8.1| 8.1> = 0.999571
                             < 9.1| 9.1> = 0.997909   <10.1|10.1> = 0.998302

 Molecular orbitals read from record     2200.2  Type=UHF/BETA (state 1.1)

 Present basis size:      66
 Previous basis size:     16
 Previous occupation:     10
 Previous closed-shells:   9
 Previous core-orbitals:   2
 Present occupation:      10
 Present closed-shells:    9
 Present core-orbitals:    2
 Wavefunction symmetry:    1   Doublet 

 Orbital overlap <old|new>:  < 1.1| 1.1> = 0.999840   < 2.1| 2.1> = 0.999833   < 3.1| 3.1> = 0.999840   < 4.1| 4.1> = 0.999901
                             < 5.1| 5.1> = 0.999227   < 6.1| 6.1> = 0.999552   < 7.1| 7.1> = 0.999603   < 8.1| 8.1> = 0.999301
                             < 9.1| 9.1> = 0.998343   <10.1|10.1> = 0.997986


 Molecular orbital dump at record        2201.2

 Initial alpha occupation  10
 Initial beta  occupation   9

 Direct Fock-matrix evaluation.        Author: H.-J. Werner (1996)

 Integral Threshold:                  0.1D-10

 ITERATION   DDIFF            GRAD            ENERGY        2-EL.EN.            DIPOLE MOMENTS         DIIS   CPU(IT)  CPU(TOT)
    1      0.000D+00      0.000D+00       -95.55358465    144.762875   -0.00116    0.00002    0.66259    0      1.2      1.2
    2      0.940D-02      0.951D-02       -95.69255030    143.331682    0.00989    0.00002    0.55822    1      0.7      1.9
    3      0.414D-02      0.253D-02       -95.71323285    143.145388   -0.03244    0.00003    0.62606    2      0.7      2.7
    4      0.261D-02      0.854D-03       -95.71825509    142.956502   -0.08053    0.00003    0.68555    3      0.7      3.4
    5      0.130D-02      0.334D-03       -95.71914771    142.957488   -0.13205    0.00003    0.72139    4      0.7      4.1
    6      0.364D-03      0.130D-03       -95.71927120    142.935015   -0.15728    0.00003    0.72886    5      0.7      4.8
    7      0.243D-03      0.848D-04       -95.71934217    142.937699   -0.18667    0.00003    0.73255    6      0.7      5.6
    8      0.226D-03      0.537D-04       -95.71938339    142.937928   -0.21193    0.00002    0.73390    7      0.8      6.3
    9      0.176D-03      0.316D-04       -95.71940002    142.936513   -0.22922    0.00002    0.73467    7      0.7      7.1
   10      0.846D-04      0.151D-04       -95.71940365    142.937153   -0.23594    0.00003    0.73541    8      0.7      7.8
   11      0.346D-04      0.791D-05       -95.71940441    142.936586   -0.23786    0.00003    0.73592    8      0.7      8.5
   12      0.106D-04      0.279D-05       -95.71940451    142.936795   -0.23836    0.00003    0.73612    9      0.7      9.2
   13      0.263D-05      0.879D-06       -95.71940452    142.936720   -0.23837    0.00003    0.73614    9      0.7     10.0
   14      0.125D-05      0.364D-06       -95.71940452    142.936712   -0.23838    0.00003    0.73614    9      0.7     10.7

 Final alpha occupancy:  10
 Final beta  occupancy:   9

 !UHF STATE  1.1 Energy               -95.719404519581
 Nuclear energy                        39.42840512
 One-electron energy                 -206.61616578
 Two-electron energy                   71.46835614
 Virial quotient                       -1.00109104
 !UHF STATE  1.1 Dipole moment         -0.23837664     0.00002507     0.73614339
 Dipole moment /Debye                  -0.60585331     0.00006371     1.87096733

 Orbital energies for positive spin:

         1.1          2.1          3.1          4.1          5.1          6.1          7.1          8.1          9.1         10.1
    -15.582896   -11.233986    -1.167275    -0.959711    -0.639274    -0.635153    -0.570394    -0.567820    -0.476608    -0.384697

        11.1         12.1
      0.088922     0.114094

 Orbital energies for negative spin:

         1.1          2.1          3.1          4.1          5.1          6.1          7.1          8.1          9.1         10.1
    -15.558493   -11.216573    -1.087217    -0.904542    -0.622823    -0.563309    -0.557272    -0.537334    -0.414076     0.064612

        11.1         12.1
      0.091920     0.120926


 HOMO     10.1    -0.384697 =     -10.4681eV
 LUMO    -10.1     0.064612 =       1.7582eV
 LUMO-HOMO         0.449309 =      12.2263eV

 EXPECTATION VALUE OF S**2:             0.79332878

 Occupation number threshold for pseudo-canonical orbitals: 1.9990 (occupied), 0.0010 (virtual)

 Number of pseudo-canonical occupied orbitals per symmetry:    7
 Number of active natural orbitals per symmetry:               5

 Natural orbitals saved to record    2201.2 (Orbital set 3)

 Orbital spaces for UNO-CAS (Min. occupation: 0.020  Max. occupation: 1.980):

 Closed:        9
 Active:        1


 **********************************************************************************************************************************
 DATASETS  * FILE   NREC   LENGTH (MB)   RECORD NAMES
              1      19       38.95       500      610      700      900      950      970     1001      129      960     1100   
                                          VAR    BASINP    GEOM    SYMINP    ZMAT    AOBASIS   BASIS     P2S    ABASIS      S 
                                         1400     1410     1200     1210     1080     1600     1650     1300     1700   
                                           T        V       H0       H01     AOSYM     SMH    MOLCAS    ERIS     OPER   

              2       6        5.57       700     1000      520     2200     1001     2201   
                                         GEOM     BASIS   MCVARS     UHF     BASIS     UHF  

 PROGRAMS   *        TOTAL   UHF-SCF       INT   UHF-SCF       INT
 CPU TIMES  *        19.87     10.73      0.69      7.99      0.32
 REAL TIME  *        21.46 SEC
 DISK USED  *        73.06 MB
 **********************************************************************************************************************************

 Density functional group LDA=DIRAC+VWN5
 Functional: DIRAC(Automatically generated (new) DIRAC)                        Gradient terms: 0
 Functional: VWN5(Automatically generated (new) VWN5)                          Gradient terms: 0
 Use libxcgrid:  F
 Use grid at  1800.2

 Functional: DIRAC                     Factor:  1.0000
 Functional: VWN5                      Factor:  1.0000

 Generated new metagrid on record  1800.2 with target accuracy 1.0D-06 and 27332 points in CPU time    0.7
 Computed new grid on record 1800.1 in CPU time    0.7
   31252 words reserved for DFT integration

 PROGRAM * UKS-SCF (Unrestricted Kohn-Sham)     Authors: W. Meyer, H.-J. Werner, P.J. Knowles, 1993

 NUMBER OF ELECTRONS:      10+    9-    SPACE SYMMETRY=1    SPIN SYMMETRY: Doublet 
 CONVERGENCE THRESHOLDS:    1.00E-05 (Density)    1.00E-06 (Energy)
 MAX. NUMBER OF ITERATIONS:        0
 INTERPOLATION TYPE:            DIIS
 INTERPOLATION STEPS:              2 (START)      1 (STEP)
 LEVEL SHIFTS:                 -0.20 (ALPHA)  -0.20 (BETA) 



 Use fine grid record 1800.2 for energy threshold  1.0D-06
 Molecular orbitals read from record     2201.2  Type=UHF/ALPHA (state 1.1)
 Molecular orbitals read from record     2201.2  Type=UHF/BETA (state 1.1)

 Molecular orbital dump at record        2202.2

 Initial alpha occupation  10
 Initial beta  occupation   9

 ITERATION    DDIFF          GRAD             ENERGY        2-EL.EN.            DIPOLE MOMENTS         DIIS
    1      0.000D+00      0.000D+00       -95.47923873    170.626188   -0.23838    0.00003    0.73614    0

 Final alpha occupancy:  10
 Final beta  occupancy:   9

 !UKS STATE  1.1 Energy               -95.479238732728
 Nuclear energy                        39.42840512
 One-electron energy                 -206.61616578
 Two-electron energy                   85.31309405
 Density functional                   -13.60457212     DIRAC=-12.44327483 VWN5= -1.16129729
 Virial quotient                       -0.99857924
 !UKS STATE  1.1 Dipole moment         -0.23837664     0.00002507     0.73614339
 Dipole moment /Debye                  -0.60585331     0.00006371     1.87096733

 Orbital energies for positive spin:

         1.1          2.1          3.1          4.1          5.1          6.1          7.1          8.1          9.1         10.1
    -15.563653   -11.225016    -0.938873    -0.630742    -0.566752    -0.562336    -0.528401    -1.057403    -0.555133    -0.138018

        11.1         12.1
      0.650757     1.021686

 Orbital energies for negative spin:

         1.1          2.1          3.1          4.1          5.1          6.1          7.1          8.1          9.1         10.1
    -15.563653   -11.225016    -0.938873    -0.630742    -0.566752    -0.562336    -0.528401    -1.057403    -0.555133    -0.138018

        11.1         12.1
      0.650757     1.021686


 HOMO     10.1    -0.138018 =      -3.7557eV
 LUMO    -10.1    -0.138018 =      -3.7557eV
 LUMO-HOMO         0.000000 =       0.0000eV

 EXPECTATION VALUE OF S**2:             0.79332878

 Occupation number threshold for pseudo-canonical orbitals: 1.9990 (occupied), 0.0010 (virtual)

 Number of pseudo-canonical occupied orbitals per symmetry:    7
 Number of active natural orbitals per symmetry:               5

 Natural orbitals saved to record    2202.2 (Orbital set 3)

 Orbital spaces for UNO-CAS (Min. occupation: 0.020  Max. occupation: 1.980):

 Closed:        9
 Active:        1

 No convergence



 **********************************************************************************************************************************
 DATASETS  * FILE   NREC   LENGTH (MB)   RECORD NAMES
              1      20       39.83       500      610      700      900      950      970     1001      129      960     1100   
                                          VAR    BASINP    GEOM    SYMINP    ZMAT    AOBASIS   BASIS     P2S    ABASIS      S 
                                         1400     1410     1200     1210     1080     1600     1650     1300     1700     1800   
                                           T        V       H0       H01     AOSYM     SMH    MOLCAS    ERIS     OPER     GRID   

              2       8        8.24       700     1000      520     2200     1001     2201     1800     2202   
                                         GEOM     BASIS   MCVARS     UHF     BASIS     UHF     GRID      UKS  

 PROGRAMS   *        TOTAL   UKS-SCF   UHF-SCF       INT   UHF-SCF       INT
 CPU TIMES  *        20.77      0.90     10.73      0.69      7.99      0.32
 REAL TIME  *        22.40 SEC
 DISK USED  *        73.06 MB
 **********************************************************************************************************************************


 PROGRAM * Intrinsic Basis Bonding Analysis (IBBA)          Author: G. Knizia

 Molecular orbitals read from record     2202.2  Type=UKS/ALPHA (state 1.1)
 Fock matrix read from record            2202.2  Type=UKS/TOTAL (state 1.1)
 Orbital energies read from record       2202.2  Type=UKS/ALPHA (state 1.1)
 Density matrix read from record         2202.2  Type=UKS/CHARGE (state 1.1)

 Number of core orbitals:           2 (   2 )
 Number of closed-shell orbitals:   7 (   7 )
 Number of active  orbitals:        1 (   1 )

 Basis set MINAO-AUTO-PP generated.      Number of basis functions:   16 

 Polarized AO type:                A = (O Ot + (1-O)(1-Ot)) P12
 Orthogonalization method:         Symmetric (Loewdin)
 Localization functional:          L = sum[A,i] <i|n_A|i>^4 -> max

 Localization group 1:   9 orbitals, occupancy  2.000
 Iterative localization: IB/PM,    6 iter; Final gradient 0.19E-08

 Bond order analysis:       [THRPRINT= 0.020]

   CEN ATOM   CEN ATOM     WIBERG.BO      RENORM.BO
     1   C  -   4   H       0.954911       0.999417
     1   C  -   3   H       0.945503       0.999815
     1   C  -   5   H       0.945446       0.999814
     1   C  -   2   N       0.489490       1.003055
     1   C  -   6   H       0.294456       0.821641

     2   N  -   7   H       0.917161       0.999960
     2   N  -   8   H       0.917159       0.999960
     2   N  -   6   H       0.565535       0.871803
     2   N  -   1   C       0.489490       1.003055

     3   H  -   1   C       0.945503       0.999815

     4   H  -   1   C       0.954911       0.999417

     5   H  -   1   C       0.945446       0.999814

     6   H  -   2   N       0.565535       0.871803
     6   H  -   1   C       0.294456       0.821641

     7   H  -   2   N       0.917161       0.999960

     8   H  -   2   N       0.917159       0.999960


 Valency analysis:

   CEN ATOM   TOT.VALENCE
     1   C       3.635925
     2   N       2.931785
     3   H       0.965189
     4   H       0.969474
     5   H       0.965160
     6   H       0.871097
     7   H       0.920559
     8   H       0.920557
 Localization group 2:   1 orbitals, occupancy  1.000
 Iterative localization: IB/PM,    1 iter; Final gradient 0.00E+00

 Bond order analysis:       [THRPRINT= 0.020]

   CEN ATOM   CEN ATOM     WIBERG.BO      RENORM.BO
     1   C  -   2   N       0.442555       0.500000
     1   C  -   6   H       0.020813       0.500000

     2   N  -   1   C       0.442555       0.500000




     6   H  -   1   C       0.020813       0.500000




 Valency analysis:

   CEN ATOM   TOT.VALENCE
     1   C       0.495607
     2   N       0.481808
     3   H       0.018199
     4   H       0.013236
     5   H       0.018229
     6   H       0.037335
     7   H       0.004420
     8   H       0.004422

 Total charge composition:

   CEN ATOM         s          p       ELECTRONS ->P.CHARGE
     1   C       3.15178    3.38424      6.53602   -0.53602
     2   N       3.54533    4.34082      7.88616   -0.88616
     3   H       0.82261                 0.82261    0.17739
     4   H       0.83195                 0.83195    0.16805
     5   H       0.82255                 0.82255    0.17745
     6   H       0.66000                 0.66000    0.34000
     7   H       0.72036                 0.72036    0.27964
     8   H       0.72036                 0.72036    0.27964

 Total charge composition, AO contributions:

   CEN ATOM SHL      SPHERICAL COMPONENTS
     1   C  1s       1.99076
     1   C  2s       1.16101
     1   C  2p       1.00610    1.19230    1.18585

     2   N  1s       1.99503
     2   N  2s       1.55030
     2   N  2p       1.37728    1.28371    1.67983

     3   H  1s       0.82261

     4   H  1s       0.83195

     5   H  1s       0.82255

     6   H  1s       0.66000

     7   H  1s       0.72036

     8   H  1s       0.72036

 Active orbital charges:

   CEN ATOM         s          p       ELECTRONS ->SPIN.DEN
     1   C       0.02277    0.52409      0.54687    0.54687
     2   N       0.01001    0.39462      0.40463    0.40463
     3   H       0.00918                 0.00918    0.00918
     4   H       0.00666                 0.00666    0.00666
     5   H       0.00920                 0.00920    0.00920
     6   H       0.01903                 0.01903    0.01903
     7   H       0.00222                 0.00222    0.00222
     8   H       0.00222                 0.00222    0.00222

 Active orbital charges, AO contributions:

   CEN ATOM SHL      SPHERICAL COMPONENTS
     1   C  1s       0.00007
     1   C  2s       0.02270
     1   C  2p       0.52165    0.00000    0.00245

     2   N  1s       0.00007
     2   N  2s       0.00994
     2   N  2p       0.39105    0.00000    0.00357

     3   H  1s       0.00918

     4   H  1s       0.00666

     5   H  1s       0.00920

     6   H  1s       0.01903

     7   H  1s       0.00222

     8   H  1s       0.00222

 Summary of localized orbital composition:   [THRPRINT= 0.020]

   ORB  GRP  ORB.ENERGY      CENTERS/CHARGES
     1   1   -13.719941      N  2   2.000
     2   1    -9.676330      C  1   2.000
     3   1    -0.601552      N  2   1.280   H  8   0.716
     4   1    -0.601540      N  2   1.280   H  7   0.716
     5   1    -0.490655      C  1   1.172   H  5   0.806   H  6   0.020
     6   1    -0.490651      C  1   1.172   H  3   0.806   H  6   0.020
     7   1    -0.490123      C  1   1.166   H  4   0.819
     8   1    -0.422446      N  2   0.963   H  6   0.560   C  1   0.451   (other: 0.025)
     9   1    -0.349084      N  2   1.953   C  1   0.026   (other: 0.021)
    10   2    -0.177844      C  1   0.547   N  2   0.405   (other: 0.049)

 Localized orbitals saved to record      2202.2  (orbital set 4)


 **********************************************************************************************************************************
 DATASETS  * FILE   NREC   LENGTH (MB)   RECORD NAMES
              1      20       39.83       500      610      700      900      950      970     1001      129      960     1100   
                                          VAR    BASINP    GEOM    SYMINP    ZMAT    AOBASIS   BASIS     P2S    ABASIS      S 
                                         1400     1410     1200     1210     1080     1600     1650     1300     1700     1800   
                                           T        V       H0       H01     AOSYM     SMH    MOLCAS    ERIS     OPER     GRID   

              2       8        8.29       700     1000      520     2200     1001     2201     1800     2202   
                                         GEOM     BASIS   MCVARS     UHF     BASIS     UHF     GRID      UKS  

 PROGRAMS   *        TOTAL      IBBA   UKS-SCF   UHF-SCF       INT   UHF-SCF       INT
 CPU TIMES  *        20.80      0.03      0.90     10.73      0.69      7.99      0.32
 REAL TIME  *        22.45 SEC
 DISK USED  *        73.06 MB
 **********************************************************************************************************************************

 IBBA/6-31+G(D,P) energy=      0.000000000000

         UKS-SCF         UHF-SCF         UHF-SCF
    -95.47923873    -95.71940452    -94.50796296
 **********************************************************************************************************************************
 Molpro calculation terminated
