
 Primary working directories    : /local
 Secondary working directories  : /local
 Wavefunction directory         : /local/
 Main file repository           : /local/

 SHA1      : b4a5b34a9e711420743f49e6833241d17c61fb3c
 NAME      : 2099.9.b4a5b34
 ARCHNAME  : linux/x86_64_openmp
 FC        : /cm/shared/languages/GCC-6.1/bin/gfortran
 BLASLIB   : -lblas
 id        : simonbennie

 Nodes     nprocs
 node32-007    1

 Using customized tuning parameters: mindgm=1; mindgv=20; mindgc=4; mindgr=1; noblas=0; minvec=7
 default implementation of scratch files=df  

 memory,500,m
 geomtyp=xyz
 nosym
 noorient
 geometry={
 C         -1.26075       -0.00001        0.01229
 N          1.31326       -0.00001       -0.13678
 H         -1.58399        0.90854       -0.48474
 H         -1.46367       -0.00457        1.07730
 H         -1.58475       -0.90388       -0.49270
 H          0.04311       -0.00006       -0.15169
 H          1.48046        0.80558        0.46775
 H          1.48056       -0.80552        0.46781
 }
 basis={ default,SV(P) }
 {uks,B97,direct;wf,19,1,1}
 {ibba,bonds=1}

 Variables initialized (895), CPU time= 0.00 sec
 Commands  initialized (725), CPU time= 0.01 sec, 591 directives.
 Default parameters read. Elapsed time= 0.08 sec

 Checking input...
 Passed
1


                                         ***  PROGRAM SYSTEM MOLPRO  ***
                                       Copyright, TTI GmbH Stuttgart, 2015
                                    Version 2099.9 linked May 26 2017 16:03:21


 **********************************************************************************************************************************
 LABEL *                                                                                 
  64 bit serial version                                                                  DATE: 23-Jun-17          TIME: 21:53:04  
 **********************************************************************************************************************************

 SHA1:             b4a5b34a9e711420743f49e6833241d17c61fb3c
 **********************************************************************************************************************************
 SETTING GEOMTYP        =    XYZ

 Variable memory set to  500000000 words,  buffer space 

 ZSYMEL=NOSYM

 SETTING BASIS          =    SV(P)


 Recomputing integrals since basis changed


 Using spherical harmonics

 Library entry C      S def2-SV(P)           selected for orbital group  1
 Library entry C      P def2-SV(P)           selected for orbital group  1
 Library entry C      D def2-SV(P)           selected for orbital group  1
 Library entry N      S def2-SV(P)           selected for orbital group  2
 Library entry N      P def2-SV(P)           selected for orbital group  2
 Library entry N      D def2-SV(P)           selected for orbital group  2
 Library entry H      S def2-SV(P)           selected for orbital group  3


 PROGRAM * SEWARD (Integral evaluation for generally contracted gaussian basis sets)     Author: Roland Lindh, 1990

 Geometry written to block  1 of record 700


 Point group  C1  



 ATOMIC COORDINATES

 NR  ATOM    CHARGE       X              Y              Z

   1  C       6.00   -2.382472212   -0.000018897    0.023224734
   2  N       7.00    2.481701730   -0.000018897   -0.258476739
   3  H       1.00   -2.993307284    1.716891773   -0.916025842
   4  H       1.00   -2.765935437   -0.008636048    2.035801954
   5  H       1.00   -2.994743476   -1.708085649   -0.931068062
   6  H       1.00    0.081466093   -0.000113384   -0.286652556
   7  H       1.00    2.797663938    1.522325571    0.883919395
   8  H       1.00    2.797852911   -1.522212188    0.884032778

 Bond lengths in Bohr (Angstrom)

 1-3  2.050144722  1-4  2.048800958  1-5  2.050132403  1-6  2.483347723  2-6  2.400401008
     ( 1.084889866)     ( 1.084178777)     ( 1.084883347)     ( 1.314131022)     ( 1.270237511)

 2-7  1.929360963  2-8  1.929339778
     ( 1.020973853)     ( 1.020962643)

 Bond angles

  1-6-2  172.15927634   3-1-4  113.44044653   3-1-5  113.29668306   3-1-6  103.79702058

  4-1-5  113.44370848   4-1-6  107.95545954   5-1-6  103.78034715   6-2-7   99.83056598

  6-2-8   99.83279831   7-2-8  104.18542184

 NUCLEAR CHARGE:                   19
 NUMBER OF PRIMITIVE AOS:          74
 NUMBER OF SYMMETRY AOS:           72
 NUMBER OF CONTRACTIONS:           40   (  40A   )
 NUMBER OF CORE ORBITALS:           2   (   2A   )
 NUMBER OF VALENCE ORBITALS:       14   (  14A   )


 NUCLEAR REPULSION ENERGY   39.42840512


 Eigenvalues of metric

         1 0.646E-02 0.230E-01 0.474E-01 0.661E-01 0.665E-01 0.111E+00 0.190E+00 0.196E+00


 Contracted 2-electron integrals neglected if value below      1.0D-11
 AO integral compression algorithm  1   Integral accuracy      1.0D-11

     1.573 MB (compressed) written to integral file ( 54.8%)


 NUMBER OF SORTED TWO-ELECTRON INTEGRALS:     336610.     BUFFER LENGTH:  32768
 NUMBER OF SEGMENTS:   1  SEGMENT LENGTH:     336610      RECORD LENGTH: 524288

 Memory used in sort:       0.89 MW

 SORT1 READ      416247. AND WROTE      288478. INTEGRALS IN      1 RECORDS. CPU TIME:     0.00 SEC, REAL TIME:     0.01 SEC
 SORT2 READ      288478. AND WROTE      336610. INTEGRALS IN      6 RECORDS. CPU TIME:     0.03 SEC, REAL TIME:     0.03 SEC

 FILE SIZES:   FILE 1:    31.7 MBYTE,  FILE 4:     4.2 MBYTE,   TOTAL:     35.9 MBYTE

 OPERATOR DM      FOR CENTER  0  COORDINATES:    0.000000    0.000000    0.000000


 **********************************************************************************************************************************
 DATASETS  * FILE   NREC   LENGTH (MB)   RECORD NAMES
              1      19       31.41       500      610      700      900      950      970     1000      129      960     1100   
                                          VAR    BASINP    GEOM    SYMINP    ZMAT    AOBASIS   BASIS     P2S    ABASIS      S 
                                         1400     1410     1200     1210     1080     1600     1650     1300     1700   
                                           T        V       H0       H01     AOSYM     SMH    MOLCAS    ERIS     OPER   

 PROGRAMS   *        TOTAL       INT
 CPU TIMES  *         0.43      0.29
 REAL TIME  *         0.75 SEC
 DISK USED  *        36.32 MB      
 **********************************************************************************************************************************

 Density functional group B97=B97DF
 Functional: B97DF(Automatically generated (new) B97DF)                        Gradient terms: 1
 Use grid at  1800.2


 Exact exchange will be calculated, factor:  0.1943

 Functional: B97DF                     Factor:  1.0000

 Generated new metagrid on record  1800.2 with target accuracy 1.0D-06 and 27332 points in CPU time    0.7
 Computed new grid on record 1800.1 in CPU time    0.8
   35822 words reserved for DFT integration

 PROGRAM * UKS-SCF (Unrestricted Kohn-Sham)     Authors: W. Meyer, H.-J. Werner, P.J. Knowles, 1993

 NUMBER OF ELECTRONS:      10+    9-    SPACE SYMMETRY=1    SPIN SYMMETRY: Doublet 
 CONVERGENCE THRESHOLDS:    1.00E-05 (Density)    1.00E-06 (Energy)
 MAX. NUMBER OF ITERATIONS:       60
 INTERPOLATION TYPE:            DIIS
 INTERPOLATION STEPS:              2 (START)      1 (STEP)
 LEVEL SHIFTS:                 -0.20 (ALPHA)  -0.20 (BETA) 



 Use fine grid record 1800.2 for energy threshold  1.0D-06
 Orbital guess generated from atomic densities. Full valence occupancy:   10

 Molecular orbital dump at record        2200.2

 Initial alpha occupation  10
 Initial beta  occupation   9

 ITERATION    DDIFF          GRAD             ENERGY        2-EL.EN.            DIPOLE MOMENTS         DIIS
    1      0.000D+00      0.000D+00       -96.16105160    170.664094   -0.16831    0.00009    0.99975    0
    2      0.210D-01      0.993D-02       -96.23170882    164.245894   -0.13932    0.00004    0.67325    1
    3      0.618D-02      0.411D-02       -96.24143456    165.834854   -0.18537    0.00004    0.71846    2
    4      0.160D-02      0.601D-03       -96.24196684    165.760744   -0.17047    0.00003    0.69625    3
    5      0.114D-02      0.341D-03       -96.24217199    165.752344   -0.17472    0.00003    0.68515    4
    6      0.517D-03      0.112D-03       -96.24220374    165.740202   -0.17217    0.00003    0.68031    5
    7      0.147D-03      0.325D-04       -96.24220708    165.737804   -0.17301    0.00003    0.67988    6
    8      0.322D-04      0.104D-04       -96.24220753    165.737849   -0.17348    0.00003    0.67994    6
    9      0.199D-04      0.508D-05       -96.24220766    165.737825   -0.17403    0.00003    0.68008    6
   10      0.147D-04      0.254D-05       -96.24220770    165.737673   -0.17453    0.00003    0.68018    7
   11      0.590D-05      0.105D-05       -96.24220770    165.737929   -0.17476    0.00003    0.68023    7
   12      0.184D-05      0.484D-06       -96.24220770    165.737766   -0.17484    0.00003    0.68023    8

 Final alpha occupancy:  10
 Final beta  occupancy:   9

 !UKS STATE 1.1 Energy                -96.242207703574
 Nuclear energy                        39.42840512
 One-electron energy                 -206.76338890
 Two-electron energy                   82.86888302
 Density functional                   -11.77610694     B97DF=-11.77610694
 Virial quotient                       -1.00769321
 !UKS STATE 1.1 Dipole moment          -0.17484082     0.00002936     0.68023200
 Dipole moment /Debye                  -0.44437192     0.00007462     1.72886406

 Orbital energies for positive spin:

         1.1          2.1          3.1          4.1          5.1          6.1          7.1          8.1          9.1         10.1
    -14.300387   -10.163235    -0.846176    -0.689256    -0.464188    -0.446708    -0.409375    -0.407470    -0.291794    -0.223167

        11.1         12.1
      0.059098     0.105252

 Orbital energies for negative spin:

         1.1          2.1          3.1          4.1          5.1          6.1          7.1          8.1          9.1         10.1
    -14.289465   -10.155723    -0.813797    -0.667042    -0.454000    -0.411936    -0.399989    -0.399367    -0.264400    -0.093000

        11.1         12.1
      0.064302     0.111025

 HOMO     10.1    -0.223167 =      -6.0727eV
 LUMO    -10.1    -0.093000 =      -2.5307eV
 LUMO-HOMO         0.130167 =       3.5420eV

 EXPECTATION VALUE OF S**2:             0.75685451

 Occupation number threshold for canonical orbitals:  1.999000 (occupied),  0.001000 (virtual)

 Number of pseudo-canonical orbitals per symmetry:    8
 Number of active natural orbitals per symmetry:      3

 Natural orbitals saved to record    2200.2 (Orbital set 3)

 Orbital spaces for UNO-CAS (Min. occupation: 0.020  Max. occupation: 1.980):

 Closed:        9
 Active:        1


 **********************************************************************************************************************************
 DATASETS  * FILE   NREC   LENGTH (MB)   RECORD NAMES
              1      20       32.28       500      610      700      900      950      970     1000      129      960     1100   
                                          VAR    BASINP    GEOM    SYMINP    ZMAT    AOBASIS   BASIS     P2S    ABASIS      S 
                                         1400     1410     1200     1210     1080     1600     1650     1300     1700     1800   
                                           T        V       H0       H01     AOSYM     SMH    MOLCAS    ERIS     OPER     GRID   

              2       5        2.94       700     1000      520     1800     2200   
                                         GEOM     BASIS   MCVARS    GRID      UKS  

 PROGRAMS   *        TOTAL       UKS       INT
 CPU TIMES  *         4.06      3.62      0.29
 REAL TIME  *         4.48 SEC
 DISK USED  *        36.32 MB      
 **********************************************************************************************************************************


 PROGRAM * Intrinsic Basis Bonding Analysis (IBBA)          Author: G. Knizia

 Molecular orbitals read from record     2200.2  Type=UKS/ALPHA (state 1.1)
 Fock matrix read from record            2200.2  Type=UKS/TOTAL (state 1.1)
 Orbital energies read from record       2200.2  Type=UKS/ALPHA (state 1.1)
 Density matrix read from record         2200.2  Type=UKS/CHARGE (state 1.1)

 Number of core orbitals:           2 (   2 )
 Number of closed-shell orbitals:   7 (   7 )
 Number of active  orbitals:        1 (   1 )

 Basis set MINAO-AUTO-PP generated.      Number of basis functions:   16 

 Polarized AO type:                A = (O Ot + (1-O)(1-Ot)) P12
 Orthogonalization method:         Symmetric (Loewdin)
 Localization functional:          L = sum[A,i] <i|n_A|i>^4 -> max

 Localization group 1:   9 orbitals, occupancy  2.000
 Iterative localization: IB/PM,    6 iter; Final gradient 0.32E-08

 Bond order analysis:       [THRPRINT= 0.020]

   CEN ATOM   CEN ATOM     WIBERG.BO      RENORM.BO
     1   C  -   4   H       0.964605       0.999380
     1   C  -   3   H       0.956914       0.999796
     1   C  -   5   H       0.956866       0.999795
     1   C  -   2   N       0.493074       1.003762
     1   C  -   6   H       0.365267       0.787112

     2   N  -   7   H       0.937384       0.999957
     2   N  -   8   H       0.937382       0.999957
     2   N  -   6   H       0.566501       0.899932
     2   N  -   1   C       0.493074       1.003762

     3   H  -   1   C       0.956914       0.999796

     4   H  -   1   C       0.964605       0.999380

     5   H  -   1   C       0.956866       0.999795

     6   H  -   2   N       0.566501       0.899932
     6   H  -   1   C       0.365267       0.787112

     7   H  -   2   N       0.937384       0.999957

     8   H  -   2   N       0.937382       0.999957


 Valency analysis:

   CEN ATOM   TOT.VALENCE
     1   C       3.740145
     2   N       2.967820
     3   H       0.972800
     4   H       0.976250
     5   H       0.972777
     6   H       0.939721
     7   H       0.939411
     8   H       0.939409
 Localization group 2:   1 orbitals, occupancy  1.000
 Iterative localization: IB/PM,    1 iter; Final gradient 0.00E+00

 Bond order analysis:       [THRPRINT= 0.020]

   CEN ATOM   CEN ATOM     WIBERG.BO      RENORM.BO
     1   C  -   2   N       0.471492       0.500000

     2   N  -   1   C       0.471492       0.500000








 Valency analysis:

   CEN ATOM   TOT.VALENCE
     1   C       0.499719
     2   N       0.499418
     3   H       0.011012
     4   H       0.007553
     5   H       0.011034
     6   H       0.019771
     7   H       0.004044
     8   H       0.004044

 Total charge composition:

   CEN ATOM         s          p       ELECTRONS ->P.CHARGE
     1   C       3.11132    3.40147      6.51279   -0.51279
     2   N       3.53042    4.14972      7.68014   -0.68014
     3   H       0.84061                 0.84061    0.15939
     4   H       0.84968                 0.84968    0.15032
     5   H       0.84055                 0.84055    0.15945
     6   H       0.76447                 0.76447    0.23553
     7   H       0.75588                 0.75588    0.24412
     8   H       0.75587                 0.75587    0.24413

 Total charge composition, AO contributions:

   CEN ATOM SHL      SPHERICAL COMPONENTS
     1   C  1s       1.99159
     1   C  2s       1.11973
     1   C  2p       1.04200    1.18300    1.17647

     2   N  1s       1.99545
     2   N  2s       1.53497
     2   N  2p       1.25591    1.24721    1.64660

     3   H  1s       0.84061

     4   H  1s       0.84968

     5   H  1s       0.84055

     6   H  1s       0.76447

     7   H  1s       0.75588

     8   H  1s       0.75587

 Active orbital charges:

   CEN ATOM         s          p       ELECTRONS ->SPIN.DEN
     1   C       0.02677    0.46137      0.48815    0.48815
     2   N       0.00673    0.47621      0.48294    0.48294
     3   H       0.00554                 0.00554    0.00554
     4   H       0.00379                 0.00379    0.00379
     5   H       0.00555                 0.00555    0.00555
     6   H       0.00999                 0.00999    0.00999
     7   H       0.00203                 0.00203    0.00203
     8   H       0.00203                 0.00203    0.00203

 Active orbital charges, AO contributions:

   CEN ATOM SHL      SPHERICAL COMPONENTS
     1   C  1s       0.00005
     1   C  2s       0.02672
     1   C  2p       0.45915    0.00000    0.00222

     2   N  1s       0.00005
     2   N  2s       0.00668
     2   N  2p       0.46116    0.00000    0.01505

     3   H  1s       0.00554

     4   H  1s       0.00379

     5   H  1s       0.00555

     6   H  1s       0.00999

     7   H  1s       0.00203

     8   H  1s       0.00203

 Summary of localized orbital composition:   [THRPRINT= 0.020]

   ORB  GRP  ORB.ENERGY      CENTERS/CHARGES
     1   1   -14.164313      N  2   2.000
     2   1   -10.046822      C  1   2.000
     3   1    -0.641258      N  2   1.244   H  8   0.753
     4   1    -0.641246      N  2   1.244   H  7   0.753
     5   1    -0.527910      C  1   1.147   H  4   0.843
     6   1    -0.527132      C  1   1.152   H  3   0.832
     7   1    -0.527132      C  1   1.152   H  5   0.832
     8   1    -0.471878      N  2   0.767   H  6   0.693   C  1   0.531
     9   1    -0.385252      N  2   1.929   C  1   0.041   H  6   0.029
    10   2    -0.157458      C  1   0.488   N  2   0.483   (other: 0.029)

 Localized orbitals saved to record      2200.2  (orbital set 4)


 **********************************************************************************************************************************
 DATASETS  * FILE   NREC   LENGTH (MB)   RECORD NAMES
              1      20       32.28       500      610      700      900      950      970     1000      129      960     1100   
                                          VAR    BASINP    GEOM    SYMINP    ZMAT    AOBASIS   BASIS     P2S    ABASIS      S 
                                         1400     1410     1200     1210     1080     1600     1650     1300     1700     1800   
                                           T        V       H0       H01     AOSYM     SMH    MOLCAS    ERIS     OPER     GRID   

              2       5        2.96       700     1000      520     1800     2200   
                                         GEOM     BASIS   MCVARS    GRID      UKS  

 PROGRAMS   *        TOTAL      IBBA       UKS       INT
 CPU TIMES  *         4.09      0.03      3.62      0.29
 REAL TIME  *         4.55 SEC
 DISK USED  *        36.32 MB      
 **********************************************************************************************************************************
 Molecular orbitals read from record     2200.2  Type=UKS/LOCAL(IBO)  
 Occupation numbers read from record     2200.2  Type=UKS/LOCAL(IBO)  
 Orbital energies read from record       2200.2  Type=UKS/LOCAL(IBO)  
 Redundancy group numbers read from rec  2200.2  Type=UKS/BETA (state 1.1)

 IBBA/SV(P) energy=      0.000000000000

        UKS-SCF 
    -96.24220770
 **********************************************************************************************************************************
 Molpro calculation terminated
