
 Primary working directories    : /local
 Secondary working directories  : /local
 Wavefunction directory         : /local/
 Main file repository           : /local/

 SHA1      : b4a5b34a9e711420743f49e6833241d17c61fb3c
 NAME      : 2099.9.b4a5b34
 ARCHNAME  : linux/x86_64_openmp
 FC        : /cm/shared/languages/GCC-6.1/bin/gfortran
 BLASLIB   : -lblas
 id        : simonbennie

 Nodes     nprocs
 node33-012    1

 Using customized tuning parameters: mindgm=1; mindgv=20; mindgc=4; mindgr=1; noblas=0; minvec=7
 default implementation of scratch files=df  

 memory,500,m
 geomtyp=xyz
 nosym
 noorient
 geometry={
 C         -1.26075       -0.00001        0.01229
 N          1.31326       -0.00001       -0.13678
 H         -1.58399        0.90854       -0.48474
 H         -1.46367       -0.00457        1.07730
 H         -1.58475       -0.90388       -0.49270
 H          0.04311       -0.00006       -0.15169
 H          1.48046        0.80558        0.46775
 H          1.48056       -0.80552        0.46781
 }
 basis={ default,avtz }
 {uks,VS99,direct;wf,19,1,1}
 {ibba,bonds=1}

 Variables initialized (895), CPU time= 0.01 sec
 Commands  initialized (725), CPU time= 0.01 sec, 591 directives.
 Default parameters read. Elapsed time= 0.08 sec

 Checking input...
 Passed
1


                                         ***  PROGRAM SYSTEM MOLPRO  ***
                                       Copyright, TTI GmbH Stuttgart, 2015
                                    Version 2099.9 linked May 26 2017 16:03:21


 **********************************************************************************************************************************
 LABEL *                                                                                 
  64 bit serial version                                                                  DATE: 23-Jun-17          TIME: 23:27:29  
 **********************************************************************************************************************************

 SHA1:             b4a5b34a9e711420743f49e6833241d17c61fb3c
 **********************************************************************************************************************************
 SETTING GEOMTYP        =    XYZ

 Variable memory set to  500000000 words,  buffer space 

 ZSYMEL=NOSYM

 SETTING BASIS          =    AVTZ


 Recomputing integrals since basis changed


 Using spherical harmonics

 Library entry C      S aug-cc-pVTZ          selected for orbital group  1
 Library entry C      P aug-cc-pVTZ          selected for orbital group  1
 Library entry C      D aug-cc-pVTZ          selected for orbital group  1
 Library entry C      F aug-cc-pVTZ          selected for orbital group  1
 Library entry N      S aug-cc-pVTZ          selected for orbital group  2
 Library entry N      P aug-cc-pVTZ          selected for orbital group  2
 Library entry N      D aug-cc-pVTZ          selected for orbital group  2
 Library entry N      F aug-cc-pVTZ          selected for orbital group  2
 Library entry H      S aug-cc-pVTZ          selected for orbital group  3
 Library entry H      P aug-cc-pVTZ          selected for orbital group  3
 Library entry H      D aug-cc-pVTZ          selected for orbital group  3


 PROGRAM * SEWARD (Integral evaluation for generally contracted gaussian basis sets)     Author: Roland Lindh, 1990

 Geometry written to block  1 of record 700


 Point group  C1  



 ATOMIC COORDINATES

 NR  ATOM    CHARGE       X              Y              Z

   1  C       6.00   -2.382472212   -0.000018897    0.023224734
   2  N       7.00    2.481701730   -0.000018897   -0.258476739
   3  H       1.00   -2.993307284    1.716891773   -0.916025842
   4  H       1.00   -2.765935437   -0.008636048    2.035801954
   5  H       1.00   -2.994743476   -1.708085649   -0.931068062
   6  H       1.00    0.081466093   -0.000113384   -0.286652556
   7  H       1.00    2.797663938    1.522325571    0.883919395
   8  H       1.00    2.797852911   -1.522212188    0.884032778

 Bond lengths in Bohr (Angstrom)

 1-3  2.050144722  1-4  2.048800958  1-5  2.050132403  1-6  2.483347723  2-6  2.400401008
     ( 1.084889866)     ( 1.084178777)     ( 1.084883347)     ( 1.314131022)     ( 1.270237511)

 2-7  1.929360963  2-8  1.929339778
     ( 1.020973853)     ( 1.020962643)

 Bond angles

  1-6-2  172.15927634   3-1-4  113.44044653   3-1-5  113.29668306   3-1-6  103.79702058

  4-1-5  113.44370848   4-1-6  107.95545954   5-1-6  103.78034715   6-2-7   99.83056598

  6-2-8   99.83279831   7-2-8  104.18542184

 NUCLEAR CHARGE:                   19
 NUMBER OF PRIMITIVE AOS:         296
 NUMBER OF SYMMETRY AOS:          266
 NUMBER OF CONTRACTIONS:          230   ( 230A   )
 NUMBER OF CORE ORBITALS:           2   (   2A   )
 NUMBER OF VALENCE ORBITALS:       14   (  14A   )


 NUCLEAR REPULSION ENERGY   39.42840512


 Eigenvalues of metric

         1 0.520E-04 0.648E-04 0.862E-04 0.876E-04 0.163E-03 0.253E-03 0.269E-03 0.401E-03


 Contracted 2-electron integrals neglected if value below      1.0D-11
 AO integral compression algorithm  1   Integral accuracy      1.0D-11

     1558.708 MB (compressed) written to integral file ( 48.7%)


 NUMBER OF SORTED TWO-ELECTRON INTEGRALS:  352862895.     BUFFER LENGTH:  32768
 NUMBER OF SEGMENTS:  23  SEGMENT LENGTH:   15999762      RECORD LENGTH: 524288

 Memory used in sort:      16.56 MW

 SORT1 READ   399806319. AND WROTE   340354764. INTEGRALS IN    984 RECORDS. CPU TIME:     5.16 SEC, REAL TIME:    16.87 SEC
 SORT2 READ   340354764. AND WROTE   352862895. INTEGRALS IN   5946 RECORDS. CPU TIME:     8.36 SEC, REAL TIME:    33.98 SEC

 FILE SIZES:   FILE 1:  1590.7 MBYTE,  FILE 4:  4127.2 MBYTE,   TOTAL:   5718.0 MBYTE

 OPERATOR DM      FOR CENTER  0  COORDINATES:    0.000000    0.000000    0.000000


 **********************************************************************************************************************************
 DATASETS  * FILE   NREC   LENGTH (MB)   RECORD NAMES
              1      19     1438.48       500      610      700      900      950      970     1000      129      960     1100   
                                          VAR    BASINP    GEOM    SYMINP    ZMAT    AOBASIS   BASIS     P2S    ABASIS      S 
                                         1400     1410     1200     1210     1080     1600     1650     1300     1700   
                                           T        V       H0       H01     AOSYM     SMH    MOLCAS    ERIS     OPER   

 PROGRAMS   *        TOTAL       INT
 CPU TIMES  *        27.76     27.61
 REAL TIME  *       134.30 SEC
 DISK USED  *         5.72 GB      
 **********************************************************************************************************************************

 Density functional group VS99=VSXC
 Functional: VSXC(Automatically generated (new) VSXC)                          Gradient terms: 2
 Use grid at  1800.2

 Functional: VSXC                      Factor:  1.0000

 Generated new metagrid on record  1800.2 with target accuracy 1.0D-06 and 28324 points in CPU time    0.7
 Computed new grid on record 1800.1 in CPU time    0.8
  362156 words reserved for DFT integration

 PROGRAM * UKS-SCF (Unrestricted Kohn-Sham)     Authors: W. Meyer, H.-J. Werner, P.J. Knowles, 1993

 NUMBER OF ELECTRONS:      10+    9-    SPACE SYMMETRY=1    SPIN SYMMETRY: Doublet 
 CONVERGENCE THRESHOLDS:    1.00E-05 (Density)    1.00E-06 (Energy)
 MAX. NUMBER OF ITERATIONS:       60
 INTERPOLATION TYPE:            DIIS
 INTERPOLATION STEPS:              2 (START)      1 (STEP)
 LEVEL SHIFTS:                 -0.20 (ALPHA)  -0.20 (BETA) 



 Use fine grid record 1800.2 for energy threshold  1.0D-06
 Orbital guess generated from atomic densities. Full valence occupancy:   16

 Molecular orbital dump at record        2200.2

 Initial alpha occupation  10
 Initial beta  occupation   9

 ITERATION    DDIFF          GRAD             ENERGY        2-EL.EN.            DIPOLE MOMENTS         DIIS
    1      0.000D+00      0.000D+00       -95.95131925    176.212078   -0.07766    0.00007    0.84961    0
    2      0.894D-02      0.174D-02       -96.02224790    169.381469   -0.15302    0.00002    0.49018    1
    3      0.287D-02      0.829D-03       -96.03294955    171.035852   -0.20588    0.00003    0.57447    2
    4      0.936D-03      0.123D-03       -96.03359195    170.936669   -0.20110    0.00003    0.55603    3
    5      0.418D-03      0.688D-04       -96.03384671    170.930338   -0.22236    0.00002    0.55492    4
    6      0.399D-03      0.287D-04       -96.03395029    170.892092   -0.23508    0.00002    0.55023    5
    7      0.235D-03      0.943D-05       -96.03396808    170.885082   -0.24311    0.00002    0.55057    6
    8      0.495D-04      0.376D-05       -96.03397111    170.884482   -0.24710    0.00002    0.55102    7
    9      0.140D-04      0.155D-05       -96.03397155    170.883429   -0.24846    0.00002    0.55138    7
   10      0.998D-05      0.643D-06       -96.03397164    170.883987   -0.24919    0.00002    0.55161    7
   11      0.295D-05      0.239D-06       -96.03397164    170.883659   -0.24931    0.00002    0.55162    8

 Final alpha occupancy:  10
 Final beta  occupancy:   9

 !UKS STATE 1.1 Energy                -96.033971644224
 Nuclear energy                        39.42840512
 One-electron energy                 -206.79065362
 Two-electron energy                   85.44182948
 Density functional                   -14.11355262     VSXC=-14.11355262
 Virial quotient                       -1.00435983
 !UKS STATE 1.1 Dipole moment          -0.24930763     0.00002317     0.55162080
 Dipole moment /Debye                  -0.63363528     0.00005889     1.40198840

 Orbital energies for positive spin:

         1.1          2.1          3.1          4.1          5.1          6.1          7.1          8.1          9.1         10.1
    -14.068138    -9.959664    -0.801464    -0.651932    -0.415172    -0.401073    -0.365509    -0.364346    -0.256043    -0.181048

        11.1         12.1
     -0.012270     0.013617

 Orbital energies for negative spin:

         1.1          2.1          3.1          4.1          5.1          6.1          7.1          8.1          9.1         10.1
    -14.057631    -9.952890    -0.772951    -0.630200    -0.401617    -0.374275    -0.354663    -0.354018    -0.233035    -0.121994

        11.1         12.1
     -0.009230     0.021383

 HOMO     10.1    -0.181048 =      -4.9266eV
 LUMO    -10.1    -0.121994 =      -3.3196eV
 LUMO-HOMO         0.059054 =       1.6069eV

 EXPECTATION VALUE OF S**2:             0.75541187

 Occupation number threshold for canonical orbitals:  1.999000 (occupied),  0.001000 (virtual)

 Number of pseudo-canonical orbitals per symmetry:    8
 Number of active natural orbitals per symmetry:      3

 Natural orbitals saved to record    2200.2 (Orbital set 3)

 Orbital spaces for UNO-CAS (Min. occupation: 0.020  Max. occupation: 1.980):

 Closed:        9
 Active:        1


 **********************************************************************************************************************************
 DATASETS  * FILE   NREC   LENGTH (MB)   RECORD NAMES
              1      20     1439.39       500      610      700      900      950      970     1000      129      960     1100   
                                          VAR    BASINP    GEOM    SYMINP    ZMAT    AOBASIS   BASIS     P2S    ABASIS      S 
                                         1400     1410     1200     1210     1080     1600     1650     1300     1700     1800   
                                           T        V       H0       H01     AOSYM     SMH    MOLCAS    ERIS     OPER     GRID   

              2       5        5.04       700     1000      520     1800     2200   
                                         GEOM     BASIS   MCVARS    GRID      UKS  

 PROGRAMS   *        TOTAL       UKS       INT
 CPU TIMES  *       280.76    253.00     27.61
 REAL TIME  *       407.41 SEC
 DISK USED  *         5.72 GB      
 **********************************************************************************************************************************


 PROGRAM * Intrinsic Basis Bonding Analysis (IBBA)          Author: G. Knizia

 Molecular orbitals read from record     2200.2  Type=UKS/ALPHA (state 1.1)
 Fock matrix read from record            2200.2  Type=UKS/TOTAL (state 1.1)
 Orbital energies read from record       2200.2  Type=UKS/ALPHA (state 1.1)
 Density matrix read from record         2200.2  Type=UKS/CHARGE (state 1.1)

 Number of core orbitals:           2 (   2 )
 Number of closed-shell orbitals:   7 (   7 )
 Number of active  orbitals:        1 (   1 )

 Basis set MINAO-AUTO-PP generated.      Number of basis functions:   16 

 Polarized AO type:                A = (O Ot + (1-O)(1-Ot)) P12
 Orthogonalization method:         Symmetric (Loewdin)
 Localization functional:          L = sum[A,i] <i|n_A|i>^4 -> max

 Localization group 1:   9 orbitals, occupancy  2.000
 Iterative localization: IB/PM,    6 iter; Final gradient 0.31E-08

 Bond order analysis:       [THRPRINT= 0.020]

   CEN ATOM   CEN ATOM     WIBERG.BO      RENORM.BO
     1   C  -   4   H       0.958115       0.999208
     1   C  -   3   H       0.950295       0.999734
     1   C  -   5   H       0.950243       0.999733
     1   C  -   2   N       0.504028       1.003850
     1   C  -   6   H       0.385531       0.780625

     2   N  -   7   H       0.921777       0.999962
     2   N  -   8   H       0.921776       0.999962
     2   N  -   6   H       0.549298       0.903230
     2   N  -   1   C       0.504028       1.003850

     3   H  -   1   C       0.950295       0.999734

     4   H  -   1   C       0.958115       0.999208

     5   H  -   1   C       0.950243       0.999733

     6   H  -   2   N       0.549298       0.903230
     6   H  -   1   C       0.385531       0.780625

     7   H  -   2   N       0.921777       0.999962

     8   H  -   2   N       0.921776       0.999962


 Valency analysis:

   CEN ATOM   TOT.VALENCE
     1   C       3.750328
     2   N       2.929775
     3   H       0.965026
     4   H       0.968062
     5   H       0.965003
     6   H       0.940865
     7   H       0.923151
     8   H       0.923150
 Localization group 2:   1 orbitals, occupancy  1.000
 Iterative localization: IB/PM,    1 iter; Final gradient 0.00E+00

 Bond order analysis:       [THRPRINT= 0.020]

   CEN ATOM   CEN ATOM     WIBERG.BO      RENORM.BO
     1   C  -   2   N       0.470617       0.500000

     2   N  -   1   C       0.470617       0.500000








 Valency analysis:

   CEN ATOM   TOT.VALENCE
     1   C       0.498096
     2   N       0.499995
     3   H       0.013190
     4   H       0.007842
     5   H       0.013226
     6   H       0.015684
     7   H       0.004140
     8   H       0.004141

 Total charge composition:

   CEN ATOM         s          p       ELECTRONS ->P.CHARGE
     1   C       3.15639    3.44760      6.60400   -0.60400
     2   N       3.55792    4.15921      7.71713   -0.71713
     3   H       0.81962                 0.81962    0.18038
     4   H       0.82522                 0.82522    0.17478
     5   H       0.81958                 0.81958    0.18042
     6   H       0.76473                 0.76473    0.23527
     7   H       0.72486                 0.72486    0.27514
     8   H       0.72486                 0.72486    0.27514

 Total charge composition, AO contributions:

   CEN ATOM SHL      SPHERICAL COMPONENTS
     1   C  1s       1.99174
     1   C  2s       1.16466
     1   C  2p       1.05934    1.19532    1.19294

     2   N  1s       1.99560
     2   N  2s       1.56233
     2   N  2p       1.23193    1.27977    1.64751

     3   H  1s       0.81962

     4   H  1s       0.82522

     5   H  1s       0.81958

     6   H  1s       0.76473

     7   H  1s       0.72486

     8   H  1s       0.72486

 Active orbital charges:

   CEN ATOM         s          p       ELECTRONS ->SPIN.DEN
     1   C       0.02758    0.44156      0.46914    0.46914
     2   N       0.00511    0.49646      0.50157    0.50157
     3   H       0.00664                 0.00664    0.00664
     4   H       0.00394                 0.00394    0.00394
     5   H       0.00666                 0.00666    0.00666
     6   H       0.00790                 0.00790    0.00790
     7   H       0.00207                 0.00207    0.00207
     8   H       0.00208                 0.00208    0.00208

 Active orbital charges, AO contributions:

   CEN ATOM SHL      SPHERICAL COMPONENTS
     1   C  1s       0.00006
     1   C  2s       0.02752
     1   C  2p       0.43944    0.00000    0.00212

     2   N  1s       0.00005
     2   N  2s       0.00506
     2   N  2p       0.47391    0.00000    0.02255

     3   H  1s       0.00664

     4   H  1s       0.00394

     5   H  1s       0.00666

     6   H  1s       0.00790

     7   H  1s       0.00207

     8   H  1s       0.00208

 Summary of localized orbital composition:   [THRPRINT= 0.020]

   ORB  GRP  ORB.ENERGY      CENTERS/CHARGES
     1   1   -13.931161      N  2   2.000
     2   1    -9.841180      C  1   2.000
     3   1    -0.588591      N  2   1.276   H  8   0.722
     4   1    -0.588580      N  2   1.276   H  7   0.722
     5   1    -0.486722      C  1   1.175   H  5   0.809
     6   1    -0.486708      C  1   1.175   H  3   0.809
     7   1    -0.484853      C  1   1.173   H  4   0.818
     8   1    -0.430165      N  2   0.730   H  6   0.693   C  1   0.567
     9   1    -0.366596      N  2   1.923   C  1   0.043   H  6   0.034
    10   2    -0.150460      N  2   0.502   C  1   0.469   (other: 0.029)

 Localized orbitals saved to record      2200.2  (orbital set 4)


 **********************************************************************************************************************************
 DATASETS  * FILE   NREC   LENGTH (MB)   RECORD NAMES
              1      20     1439.39       500      610      700      900      950      970     1000      129      960     1100   
                                          VAR    BASINP    GEOM    SYMINP    ZMAT    AOBASIS   BASIS     P2S    ABASIS      S 
                                         1400     1410     1200     1210     1080     1600     1650     1300     1700     1800   
                                           T        V       H0       H01     AOSYM     SMH    MOLCAS    ERIS     OPER     GRID   

              2       5        5.46       700     1000      520     1800     2200   
                                         GEOM     BASIS   MCVARS    GRID      UKS  

 PROGRAMS   *        TOTAL      IBBA       UKS       INT
 CPU TIMES  *       280.81      0.05    253.00     27.61
 REAL TIME  *       407.52 SEC
 DISK USED  *         5.72 GB      
 **********************************************************************************************************************************
 Molecular orbitals read from record     2200.2  Type=UKS/LOCAL(IBO)  
 Occupation numbers read from record     2200.2  Type=UKS/LOCAL(IBO)  
 Orbital energies read from record       2200.2  Type=UKS/LOCAL(IBO)  
 Redundancy group numbers read from rec  2200.2  Type=UKS/BETA (state 1.1)

 IBBA/aug-cc-pVTZ energy=      0.000000000000

        UKS-SCF 
    -96.03397164
 **********************************************************************************************************************************
 Molpro calculation terminated
