
 Primary working directories    : /local/molpro.rAMXLnNAk2
 Secondary working directories  : /local/molpro.rAMXLnNAk2
 Wavefunction directory         : /local/
 Main file repository           : /local/molpro.rAMXLnNAk2/

 id        : simonbennie

 Nodes     nprocs
 node35-006    1

 Using customized tuning parameters: mindgm=1; mindgv=20; mindgc=4; mindgr=1; noblas=0; minvec=7
 default implementation of scratch files=df  

 memory,500,m
 geomtyp=xyz
 nosym
 noorient
 geometry={
 C         -1.26075       -0.00001        0.01229
 N          1.31326       -0.00001       -0.13678
 H         -1.58399        0.90854       -0.48474
 H         -1.46367       -0.00457        1.07730
 H         -1.58475       -0.90388       -0.49270
 H          0.04311       -0.00006       -0.15169
 H          1.48046        0.80558        0.46775
 H          1.48056       -0.80552        0.46781
 }
 basis={default,sto-3g}
 {hf,direct;wf,19,1,1}
 
 basis={ default,6-31+G(d,p) }
 {hf,direct;wf,19,1,1}
 {ks,B-LYP,direct;maxit,0;wf,19,1,1}
 {ibba,bonds=1}

 Variables initialized (920), CPU time= 0.01 sec
 Commands  initialized (754), CPU time= 0.01 sec, 615 directives.
 Default parameters read. Elapsed time= 0.12 sec

 Checking input...
 Passed
1


                                         ***  PROGRAM SYSTEM MOLPRO  ***
                                       Copyright, TTI GmbH Stuttgart, 2015
                                    Version 2018.0 linked Jul  6 2018 18:07:13


 **********************************************************************************************************************************
 LABEL *                                                                                 
  64 bit serial version                                                                  DATE: 10-Oct-18          TIME: 17:18:13  
 **********************************************************************************************************************************

 SHA1:             b58f8fddb9d75525be9261ebe3faf0e4279c479b
 **********************************************************************************************************************************
 SETTING GEOMTYP        =    XYZ

 Variable memory set to  500000000 words,  buffer space 

 ZSYMEL=NOSYM

 SETTING BASIS          =    STO-3G


 Recomputing integrals since basis changed


 Using spherical harmonics

 Library entry C      S STO-3G               selected for orbital group  1
 Library entry C      P STO-3G               selected for orbital group  1
 Library entry N      S STO-3G               selected for orbital group  2
 Library entry N      P STO-3G               selected for orbital group  2
 Library entry H      S STO-3G               selected for orbital group  3


 PROGRAM * SEWARD (Integral evaluation for generally contracted gaussian basis sets)     Author: Roland Lindh, 1990

 Geometry written to block  1 of record 700


 Point group  C1  



 ATOMIC COORDINATES

 NR  ATOM    CHARGE       X              Y              Z

   1  C       6.00   -2.382472212   -0.000018897    0.023224734
   2  N       7.00    2.481701730   -0.000018897   -0.258476739
   3  H       1.00   -2.993307284    1.716891773   -0.916025842
   4  H       1.00   -2.765935437   -0.008636048    2.035801954
   5  H       1.00   -2.994743476   -1.708085649   -0.931068062
   6  H       1.00    0.081466093   -0.000113384   -0.286652556
   7  H       1.00    2.797663938    1.522325571    0.883919395
   8  H       1.00    2.797852911   -1.522212188    0.884032778

 Bond lengths in Bohr (Angstrom)

 1-3  2.050144722  1-4  2.048800958  1-5  2.050132403  1-6  2.483347723  2-6  2.400401008
     ( 1.084889866)     ( 1.084178777)     ( 1.084883347)     ( 1.314131022)     ( 1.270237511)

 2-7  1.929360963  2-8  1.929339778
     ( 1.020973853)     ( 1.020962643)

 Bond angles

  1-6-2  172.15927634   3-1-4  113.44044653   3-1-5  113.29668306   3-1-6  103.79702058

  4-1-5  113.44370848   4-1-6  107.95545954   5-1-6  103.78034715   6-2-7   99.83056598

  6-2-8   99.83279831   7-2-8  104.18542184

 NUCLEAR CHARGE:                   19
 NUMBER OF PRIMITIVE AOS:          48
 NUMBER OF SYMMETRY AOS:           48
 NUMBER OF CONTRACTIONS:           16   (  16A   )
 NUMBER OF CORE ORBITALS:           2   (   2A   )
 NUMBER OF VALENCE ORBITALS:       14   (  14A   )


 NUCLEAR REPULSION ENERGY   39.42840512


 Eigenvalues of metric

         1 0.229E+00 0.286E+00 0.358E+00 0.360E+00 0.376E+00 0.391E+00 0.856E+00 0.924E+00


 Contracted 2-electron integrals neglected if value below      1.0D-11
 AO integral compression algorithm  1   Integral accuracy      1.0D-11

     0.262 MB (compressed) written to integral file (100.0%)


 NUMBER OF SORTED TWO-ELECTRON INTEGRALS:       9316.     BUFFER LENGTH:  32768
 NUMBER OF SEGMENTS:   1  SEGMENT LENGTH:       9316      RECORD LENGTH: 524288

 Memory used in sort:       0.57 MW

 SORT1 READ       11328. AND WROTE        8469. INTEGRALS IN      1 RECORDS. CPU TIME:     0.00 SEC, REAL TIME:     0.01 SEC
 SORT2 READ        8469. AND WROTE        9316. INTEGRALS IN      1 RECORDS. CPU TIME:     0.00 SEC, REAL TIME:     0.01 SEC

 FILE SIZES:   FILE 1:    30.3 MBYTE,  FILE 4:     4.2 MBYTE,   TOTAL:     34.6 MBYTE

 OPERATOR DM      FOR CENTER  0  COORDINATES:    0.000000    0.000000    0.000000


 **********************************************************************************************************************************
 DATASETS  * FILE   NREC   LENGTH (MB)   RECORD NAMES
              1      19       30.12       500      610      700      900      950      970     1000      129      960     1100   
                                          VAR    BASINP    GEOM    SYMINP    ZMAT    AOBASIS   BASIS     P2S    ABASIS      S 
                                         1400     1410     1200     1210     1080     1600     1650     1300     1700   
                                           T        V       H0       H01     AOSYM     SMH    MOLCAS    ERIS     OPER   

 PROGRAMS   *        TOTAL       INT
 CPU TIMES  *         0.46      0.33
 REAL TIME  *         1.10 SEC
 DISK USED  *        34.94 MB
 **********************************************************************************************************************************


 PROGRAM * RHF-SCF (OPEN SHELL)       Authors: W. Meyer, H.-J. Werner


 NUMBER OF ELECTRONS:      10+    9-    SPACE SYMMETRY=1    SPIN SYMMETRY: Doublet 
 CONVERGENCE THRESHOLDS:    1.00E-05 (Density)    1.00E-07 (Energy)
 INTEGRAL THRESHOLDS:       1.00E-11 (Initial)    1.00E-11 (Final)
 MAX. NUMBER OF ITERATIONS:       60
 INTERPOLATION TYPE:            DIIS
 INTERPOLATION STEPS:              2 (START)      1 (STEP)
 LEVEL SHIFTS:                 -0.60 (CLOSED) -0.30 (OPEN) 



 Orbital guess generated from atomic densities. Full valence occupancy:   10

 Molecular orbital dump at record        2100.2

 Initial alpha occupancy:  10
 Initial beta  occupancy:   9
 Wave function symmetry:    1

 Direct Fock-matrix evaluation.        Author: H.-J. Werner (1996)

 Integral Threshold:                  0.1D-10

 ITERATION   DDIFF            GRAD            ENERGY        2-EL.EN.            DIPOLE MOMENTS         DIIS   CPU(IT)  CPU(TOT)
    1      0.000D+00      0.000D+00       -94.44190493    146.820362   -0.25758    0.00006    1.02244    0      0.9      1.7     start
    2      0.000D+00      0.220D-01       -94.48869427    144.654577   -0.06044    0.00003    0.76352    1      0.5      2.1     diag,B
    3      0.309D-01      0.600D-02       -94.49362582    143.962478   -0.02577    0.00002    0.67930    2      0.5      2.6     diag,B
    4      0.114D-01      0.150D-02       -94.49444642    143.919182   -0.00940    0.00002    0.66937    3      0.5      3.1     diag,B
    5      0.331D-02      0.821D-03       -94.49492025    143.910762    0.01600    0.00002    0.66779    4      0.5      3.5     diag,B
    6      0.268D-02      0.509D-03       -94.49522868    143.899982    0.06332    0.00002    0.67046    5      0.5      4.0     diag,B
    7      0.327D-02      0.220D-03       -94.49527509    143.897050    0.08413    0.00002    0.67104    6      0.5      4.5     fixocc
    8      0.103D-02      0.159D-03       -94.49531624    143.895908    0.10645    0.00002    0.67064    7      0.5      4.9     diag,B
    9      0.111D-02      0.104D-03       -94.49535026    143.896313    0.13924    0.00002    0.66964    8      0.5      5.4     diag,B
   10      0.191D-02      0.253D-04       -94.49535131    143.896755    0.14379    0.00002    0.66933    9      0.5      5.8     orth
   11      0.313D-03      0.840D-05       -94.49535135    143.896570    0.14463    0.00002    0.66930    9      0.5      6.3     diag,B
   12      0.813D-04      0.205D-05       -94.49535135    143.896599    0.14433    0.00002    0.66928    9      0.5      6.8     diag,B
   13      0.181D-04      0.866D-06       -94.49535135    143.896577    0.14446    0.00002    0.66928    9      0.5      7.2     diag,B
   14      0.726D-05      0.167D-06       -94.49535135    143.896579    0.14446    0.00002    0.66928    0      0.5      7.7     orth

 Final alpha occupancy:  10
 Final beta  occupancy:   9

 !RHF STATE  1.1 Energy               -94.495351354594
 Nuclear energy                        39.42840512
 One-electron energy                 -205.87204583
 Two-electron energy                   71.94828936
 Virial quotient                       -1.00419744
 !RHF STATE  1.1 Dipole moment          0.14446196     0.00002281     0.66928049
 Dipole moment /Debye                   0.36716163     0.00005797     1.70102991

 Orbital energies:

         1.1          2.1          3.1          4.1          5.1          6.1          7.1          8.1          9.1         10.1
    -15.337952   -11.000454    -1.087903    -0.874852    -0.589073    -0.531498    -0.512560    -0.512133    -0.376574    -0.329466

        11.1         12.1
      0.618480     0.684188


 HOMO     10.1    -0.329466 =      -8.9652eV
 LUMO     11.1     0.618480 =      16.8297eV
 LUMO-HOMO         0.947946 =      25.7949eV


 **********************************************************************************************************************************
 DATASETS  * FILE   NREC   LENGTH (MB)   RECORD NAMES
              1      19       30.12       500      610      700      900      950      970     1000      129      960     1100   
                                          VAR    BASINP    GEOM    SYMINP    ZMAT    AOBASIS   BASIS     P2S    ABASIS      S 
                                         1400     1410     1200     1210     1080     1600     1650     1300     1700   
                                           T        V       H0       H01     AOSYM     SMH    MOLCAS    ERIS     OPER   

              2       4        2.87       700     1000      520     2100   
                                         GEOM     BASIS   MCVARS     RHF  

 PROGRAMS   *        TOTAL    HF-SCF       INT
 CPU TIMES  *         8.17      7.71      0.33
 REAL TIME  *        17.56 SEC
 DISK USED  *        34.94 MB
 **********************************************************************************************************************************
 SETTING BASIS          =    6-31+G(D,P)


 Recomputing integrals since basis changed


 Using spherical harmonics

 Library entry C      S 6-31G                selected for orbital group  1
 Library entry C      S 6-31++G              selected for orbital group  1
 Library entry C      P 6-31G                selected for orbital group  1
 Library entry C      P 6-31++G              selected for orbital group  1
 Library entry C      D 6-31G*               selected for orbital group  1
 Library entry N      S 6-31G                selected for orbital group  2
 Library entry N      S 6-31++G              selected for orbital group  2
 Library entry N      P 6-31G                selected for orbital group  2
 Library entry N      P 6-31++G              selected for orbital group  2
 Library entry N      D 6-31G*               selected for orbital group  2
 Library entry H      S 6-31G                selected for orbital group  3
 Library entry H      P 6-31G**              selected for orbital group  3


 PROGRAM * SEWARD (Integral evaluation for generally contracted gaussian basis sets)     Author: Roland Lindh, 1990

 Geometry written to block  1 of record 700


 Point group  C1  



 ATOMIC COORDINATES

 NR  ATOM    CHARGE       X              Y              Z

   1  C       6.00   -2.382472212   -0.000018897    0.023224734
   2  N       7.00    2.481701730   -0.000018897   -0.258476739
   3  H       1.00   -2.993307284    1.716891773   -0.916025842
   4  H       1.00   -2.765935437   -0.008636048    2.035801954
   5  H       1.00   -2.994743476   -1.708085649   -0.931068062
   6  H       1.00    0.081466093   -0.000113384   -0.286652556
   7  H       1.00    2.797663938    1.522325571    0.883919395
   8  H       1.00    2.797852911   -1.522212188    0.884032778

 Bond lengths in Bohr (Angstrom)

 1-3  2.050144722  1-4  2.048800958  1-5  2.050132403  1-6  2.483347723  2-6  2.400401008
     ( 1.084889866)     ( 1.084178777)     ( 1.084883347)     ( 1.314131022)     ( 1.270237511)

 2-7  1.929360963  2-8  1.929339778
     ( 1.020973853)     ( 1.020962643)

 Bond angles

  1-6-2  172.15927634   3-1-4  113.44044653   3-1-5  113.29668306   3-1-6  103.79702058

  4-1-5  113.44370848   4-1-6  107.95545954   5-1-6  103.78034715   6-2-7   99.83056598

  6-2-8   99.83279831   7-2-8  104.18542184

 NUCLEAR CHARGE:                   19
 NUMBER OF PRIMITIVE AOS:         106
 NUMBER OF SYMMETRY AOS:          104
 NUMBER OF CONTRACTIONS:           66   (  66A   )
 NUMBER OF CORE ORBITALS:           2   (   2A   )
 NUMBER OF VALENCE ORBITALS:       14   (  14A   )


 NUCLEAR REPULSION ENERGY   39.42840512


 Eigenvalues of metric

         1 0.534E-02 0.747E-02 0.261E-01 0.276E-01 0.535E-01 0.536E-01 0.577E-01 0.105E+00


 Contracted 2-electron integrals neglected if value below      1.0D-11
 AO integral compression algorithm  1   Integral accuracy      1.0D-11

     10.486 MB (compressed) written to integral file ( 46.1%)


 NUMBER OF SORTED TWO-ELECTRON INTEGRALS:    2445366.     BUFFER LENGTH:  32768
 NUMBER OF SEGMENTS:   1  SEGMENT LENGTH:    2445366      RECORD LENGTH: 524288

 Memory used in sort:       3.00 MW

 SORT1 READ     2862067. AND WROTE     2191973. INTEGRALS IN      7 RECORDS. CPU TIME:     0.03 SEC, REAL TIME:     0.07 SEC
 SORT2 READ     2191973. AND WROTE     2445366. INTEGRALS IN     40 RECORDS. CPU TIME:     0.09 SEC, REAL TIME:     0.12 SEC

 FILE SIZES:   FILE 1:    40.7 MBYTE,  FILE 4:    29.4 MBYTE,   TOTAL:     70.1 MBYTE

 OPERATOR DM      FOR CENTER  0  COORDINATES:    0.000000    0.000000    0.000000


 **********************************************************************************************************************************
 DATASETS  * FILE   NREC   LENGTH (MB)   RECORD NAMES
              1      19       38.95       500      610      700      900      950      970     1001      129      960     1100   
                                          VAR    BASINP    GEOM    SYMINP    ZMAT    AOBASIS   BASIS     P2S    ABASIS      S 
                                         1400     1410     1200     1210     1080     1600     1650     1300     1700   
                                           T        V       H0       H01     AOSYM     SMH    MOLCAS    ERIS     OPER   

              2       5        2.89       700     1000      520     2100     1001   
                                         GEOM     BASIS   MCVARS     RHF     BASIS   

 PROGRAMS   *        TOTAL       INT    HF-SCF       INT
 CPU TIMES  *         8.77      0.60      7.71      0.33
 REAL TIME  *        18.32 SEC
 DISK USED  *        73.06 MB
 **********************************************************************************************************************************


 PROGRAM * RHF-SCF (OPEN SHELL)       Authors: W. Meyer, H.-J. Werner


 NUMBER OF ELECTRONS:      10+    9-    SPACE SYMMETRY=1    SPIN SYMMETRY: Doublet 
 CONVERGENCE THRESHOLDS:    1.00E-05 (Density)    1.00E-07 (Energy)
 INTEGRAL THRESHOLDS:       1.00E-11 (Initial)    1.00E-11 (Final)
 MAX. NUMBER OF ITERATIONS:       60
 INTERPOLATION TYPE:            DIIS
 INTERPOLATION STEPS:              2 (START)      1 (STEP)
 LEVEL SHIFTS:                 -0.60 (CLOSED) -0.30 (OPEN) 



 Molecular orbitals read from record     2100.2  Type=RHF/CANONICAL (state 1.1)

 Present basis size:      66
 Previous basis size:     16
 Previous occupation:     10
 Previous closed-shells:   9
 Previous core-orbitals:   2
 Present occupation:      10
 Present closed-shells:    9
 Present core-orbitals:    2
 Wavefunction symmetry:    1   Doublet 

 Orbital overlap <old|new>:  < 1.1| 1.1> = 0.999840   < 2.1| 2.1> = 0.999833   < 3.1| 3.1> = 0.999825   < 4.1| 4.1> = 0.999901
                             < 5.1| 5.1> = 0.999177   < 6.1| 6.1> = 0.999256   < 7.1| 7.1> = 0.999546   < 8.1| 8.1> = 0.999591
                             < 9.1| 9.1> = 0.998301   <10.1|10.1> = 0.997731


 Molecular orbital dump at record        2101.2

 Direct Fock-matrix evaluation.        Author: H.-J. Werner (1996)

 Integral Threshold:                  0.1D-10

 ITERATION   DDIFF            GRAD            ENERGY        2-EL.EN.            DIPOLE MOMENTS         DIIS   CPU(IT)  CPU(TOT)
    1      0.000D+00      0.000D+00       -95.54032542    144.802143    0.14337    0.00002    0.65848    0      1.1      1.2     start
    2      0.000D+00      0.178D-01       -95.67696593    143.359023    0.15266    0.00002    0.55778    1      0.7      1.9     diag,B
    3      0.942D-02      0.502D-02       -95.69885846    143.136564    0.09829    0.00003    0.61713    2      0.8      2.7     diag,B
    4      0.428D-02      0.171D-02       -95.70382139    143.003202    0.06012    0.00003    0.66995    3      0.8      3.5     diag,B
    5      0.232D-02      0.736D-03       -95.70521129    142.952516    0.00783    0.00003    0.70842    4      0.7      4.2     diag,B
    6      0.165D-02      0.261D-03       -95.70544411    142.934919   -0.02078    0.00003    0.71865    5      0.7      4.9     diag,B
    7      0.561D-03      0.150D-03       -95.70560217    142.936187   -0.05555    0.00003    0.72421    6      0.8      5.7     diag,B
    8      0.411D-03      0.109D-03       -95.70573800    142.934759   -0.09456    0.00003    0.72809    7      0.7      6.4     orth
    9      0.408D-03      0.807D-04       -95.70589439    142.938226   -0.16984    0.00003    0.73341    8      0.7      7.1     diag,B
   10      0.783D-03      0.355D-04       -95.70591690    142.935598   -0.19849    0.00003    0.73570    9      0.7      7.8     diag,B
   11      0.311D-03      0.138D-04       -95.70591928    142.935943   -0.20864    0.00003    0.73645    9      0.7      8.4     diag,B
   12      0.116D-03      0.439D-05       -95.70591936    142.935803   -0.20943    0.00003    0.73648    9      0.7      9.1     diag,B
   13      0.154D-04      0.149D-05       -95.70591937    142.935781   -0.20971    0.00003    0.73647    9      0.7      9.8     diag,B
   14      0.634D-05      0.555D-06       -95.70591937    142.935791   -0.20967    0.00003    0.73647    0      0.7     10.5     orth

 Final alpha occupancy:  10
 Final beta  occupancy:   9

 !RHF STATE  1.1 Energy               -95.705919369215
 Nuclear energy                        39.42840512
 One-electron energy                 -206.60222014
 Two-electron energy                   71.46789565
 Virial quotient                       -1.00142681
 !RHF STATE  1.1 Dipole moment         -0.20966685     0.00002542     0.73647302
 Dipole moment /Debye                  -0.53288508     0.00006461     1.87180509

 Orbital energies:

         1.1          2.1          3.1          4.1          5.1          6.1          7.1          8.1          9.1         10.1
    -15.575912   -11.228160    -1.128030    -0.930643    -0.633501    -0.579714    -0.562275    -0.561478    -0.448832    -0.369343

        11.1         12.1
      0.088911     0.114866


 HOMO     10.1    -0.369343 =     -10.0503eV
 LUMO     11.1     0.088911 =       2.4194eV
 LUMO-HOMO         0.458254 =      12.4697eV


 **********************************************************************************************************************************
 DATASETS  * FILE   NREC   LENGTH (MB)   RECORD NAMES
              1      19       38.95       500      610      700      900      950      970     1001      129      960     1100   
                                          VAR    BASINP    GEOM    SYMINP    ZMAT    AOBASIS   BASIS     P2S    ABASIS      S 
                                         1400     1410     1200     1210     1080     1600     1650     1300     1700   
                                           T        V       H0       H01     AOSYM     SMH    MOLCAS    ERIS     OPER   

              2       6        5.51       700     1000      520     2100     1001     2101   
                                         GEOM     BASIS   MCVARS     RHF     BASIS     RHF  

 PROGRAMS   *        TOTAL    HF-SCF       INT    HF-SCF       INT
 CPU TIMES  *        19.27     10.50      0.60      7.71      0.33
 REAL TIME  *        29.30 SEC
 DISK USED  *        73.06 MB
 **********************************************************************************************************************************

 Density functional group B-LYP=B88+LYP
 Functional: B88(Automatically generated (new) B88)                            Gradient terms: 1
 Functional: LYP(Automatically generated (new) LYP)                            Gradient terms: 1
 Use libxcgrid:  F
 Use grid at  1800.2

 Functional: B88                       Factor:  1.0000
 Functional: LYP                       Factor:  1.0000

 Generated new metagrid on record  1800.2 with target accuracy 1.0D-06 and 27332 points in CPU time    0.7
 Computed new grid on record 1800.1 in CPU time    0.7
   56398 words reserved for DFT integration

 PROGRAM * RKS-SCF (Restricted open shell Kohn-Sham)     Authors: W. Meyer, H.-J. Werner, P.J. Knowles, 1993

 NUMBER OF ELECTRONS:      10+    9-    SPACE SYMMETRY=1    SPIN SYMMETRY: Doublet 
 CONVERGENCE THRESHOLDS:    1.00E-05 (Density)    1.00E-06 (Energy)
 MAX. NUMBER OF ITERATIONS:        0
 INTERPOLATION TYPE:            DIIS
 INTERPOLATION STEPS:              2 (START)      1 (STEP)
 LEVEL SHIFTS:                 -0.60 (CLOSED) -0.30 (OPEN) 



 Use fine grid record 1800.2 for energy threshold  1.0D-06
 Molecular orbitals read from record     2101.2  Type=RHF/CANONICAL (state 1.1)

 Molecular orbital dump at record        2102.2

 ITERATION    DDIFF          GRAD             ENERGY        2-EL.EN.            DIPOLE MOMENTS         DIIS   ORB.
    1      0.000D+00      0.000D+00       -96.31890047    170.557790   -0.20967    0.00003    0.73647    0    start

 Final alpha occupancy:  10
 Final beta  occupancy:   9

 !RKS STATE  1.1 Energy               -96.318900471714
 Nuclear energy                        39.42840512
 One-electron energy                 -206.60222014
 Two-electron energy                   85.27889483
 Density functional                   -14.42398028     B88=-13.83720109 LYP= -0.58677919
 Virial quotient                       -1.00784078
 !RKS STATE  1.1 Dipole moment         -0.20966685     0.00002542     0.73647302
 Dipole moment /Debye                  -0.53288508     0.00006461     1.87180509

 Orbital energies:

         1.1          2.1          3.1          4.1          5.1          6.1          7.1          8.1          9.1         10.1
    -15.575912   -11.228160    -1.128030    -0.930643    -0.633501    -0.579714    -0.562275    -0.561478    -0.448832    -0.369343

        11.1         12.1
      0.088911     0.114866


 HOMO     10.1    -0.369343 =     -10.0503eV
 LUMO     11.1     0.088911 =       2.4194eV
 LUMO-HOMO         0.458254 =      12.4697eV


 **********************************************************************************************************************************
 DATASETS  * FILE   NREC   LENGTH (MB)   RECORD NAMES
              1      20       39.83       500      610      700      900      950      970     1001      129      960     1100   
                                          VAR    BASINP    GEOM    SYMINP    ZMAT    AOBASIS   BASIS     P2S    ABASIS      S 
                                         1400     1410     1200     1210     1080     1600     1650     1300     1700     1800   
                                           T        V       H0       H01     AOSYM     SMH    MOLCAS    ERIS     OPER     GRID   

              2       8        8.18       700     1000      520     2100     1001     2101     1800     2102   
                                         GEOM     BASIS   MCVARS     RHF     BASIS     RHF     GRID      RKS  

 PROGRAMS   *        TOTAL    KS-SCF    HF-SCF       INT    HF-SCF       INT
 CPU TIMES  *        20.17      0.90     10.50      0.60      7.71      0.33
 REAL TIME  *        30.22 SEC
 DISK USED  *        73.06 MB
 **********************************************************************************************************************************


 PROGRAM * Intrinsic Basis Bonding Analysis (IBBA)          Author: G. Knizia

 Molecular orbitals read from record     2102.2  Type=RKS/CANONICAL (state 1.1)
 Fock matrix read from record            2102.2  Type=RKS/TOTAL (state 1.1)
 Orbital energies read from record       2102.2  Type=RKS/CANONICAL (state 1.1)
 Density matrix read from record         2102.2  Type=RKS/CHARGE (state 1.1)

 Number of core orbitals:           2 (   2 )
 Number of closed-shell orbitals:   7 (   7 )
 Number of active  orbitals:        1 (   1 )

 Basis set MINAO-AUTO-PP generated.      Number of basis functions:   16 

 Polarized AO type:                A = (O Ot + (1-O)(1-Ot)) P12
 Orthogonalization method:         Symmetric (Loewdin)
 Localization functional:          L = sum[A,i] <i|n_A|i>^4 -> max

 Localization group 1:   9 orbitals, occupancy  2.000
 Iterative localization: IB/PM,    6 iter; Final gradient 0.50E-08

 Bond order analysis:       [THRPRINT= 0.020]

   CEN ATOM   CEN ATOM     WIBERG.BO      RENORM.BO
     1   C  -   4   H       0.974958       0.999326
     1   C  -   3   H       0.970494       0.999812
     1   C  -   5   H       0.970463       0.999811
     1   C  -   6   H       0.488107       0.864536
     1   C  -   2   N       0.419225       1.001858

     2   N  -   7   H       0.935069       0.999980
     2   N  -   8   H       0.935067       0.999980
     2   N  -   6   H       0.479570       0.945638
     2   N  -   1   C       0.419225       1.001858

     3   H  -   1   C       0.970494       0.999812

     4   H  -   1   C       0.974958       0.999326

     5   H  -   1   C       0.970463       0.999811

     6   H  -   1   C       0.488107       0.864536
     6   H  -   2   N       0.479570       0.945638

     7   H  -   2   N       0.935069       0.999980

     8   H  -   2   N       0.935067       0.999980


 Valency analysis:

   CEN ATOM   TOT.VALENCE
     1   C       3.826196
     2   N       2.785724
     3   H       0.978468
     4   H       0.981054
     5   H       0.978449
     6   H       0.970830
     7   H       0.936932
     8   H       0.936930
 Localization group 2:   1 orbitals, occupancy  1.000
 Iterative localization: IB/PM,    1 iter; Final gradient 0.00E+00

 Bond order analysis:       [THRPRINT= 0.020]

   CEN ATOM   CEN ATOM     WIBERG.BO      RENORM.BO
     1   C  -   2   N       0.467265       0.500000

     2   N  -   1   C       0.467265       0.500000








 Valency analysis:

   CEN ATOM   TOT.VALENCE
     1   C       0.480858
     2   N       0.486900
     3   H       0.005773
     4   H       0.003909
     5   H       0.005785
     6   H       0.008923
     7   H       0.004653
     8   H       0.004654

 Total charge composition:

   CEN ATOM         s          p       ELECTRONS ->P.CHARGE
     1   C       3.10252    3.38291      6.48543   -0.48543
     2   N       3.52651    4.07541      7.60192   -0.60192
     3   H       0.85616                 0.85616    0.14384
     4   H       0.86431                 0.86431    0.13569
     5   H       0.85610                 0.85610    0.14390
     6   H       0.83369                 0.83369    0.16631
     7   H       0.75120                 0.75120    0.24880
     8   H       0.75119                 0.75119    0.24881

 Total charge composition, AO contributions:

   CEN ATOM SHL      SPHERICAL COMPONENTS
     1   C  1s       1.99084
     1   C  2s       1.11168
     1   C  2p       1.05552    1.16742    1.15996

     2   N  1s       1.99513
     2   N  2s       1.53138
     2   N  2p       1.15306    1.25626    1.66608

     3   H  1s       0.85616

     4   H  1s       0.86431

     5   H  1s       0.85610

     6   H  1s       0.83369

     7   H  1s       0.75120

     8   H  1s       0.75119

 Active orbital charges:

   CEN ATOM         s          p       ELECTRONS ->SPIN.DEN
     1   C       0.03704    0.36513      0.40217    0.40217
     2   N       0.01356    0.56737      0.58093    0.58093
     3   H       0.00289                 0.00289    0.00289
     4   H       0.00196                 0.00196    0.00196
     5   H       0.00290                 0.00290    0.00290
     6   H       0.00448                 0.00448    0.00448
     7   H       0.00233                 0.00233    0.00233
     8   H       0.00233                 0.00233    0.00233

 Active orbital charges, AO contributions:

   CEN ATOM SHL      SPHERICAL COMPONENTS
     1   C  1s       0.00005
     1   C  2s       0.03699
     1   C  2p       0.36297    0.00000    0.00216

     2   N  1s       0.00005
     2   N  2s       0.01351
     2   N  2p       0.55619    0.00000    0.01118

     3   H  1s       0.00289

     4   H  1s       0.00196

     5   H  1s       0.00290

     6   H  1s       0.00448

     7   H  1s       0.00233

     8   H  1s       0.00233

 Summary of localized orbital composition:   [THRPRINT= 0.020]

   ORB  GRP  ORB.ENERGY      CENTERS/CHARGES
     1   1   -13.897493      N  2   2.000
     2   1    -9.833928      C  1   2.000
     3   1    -0.593561      N  2   1.249   H  8   0.749
     4   1    -0.593550      N  2   1.249   H  7   0.749
     5   1    -0.478445      C  1   1.134   H  4   0.861
     6   1    -0.476432      C  1   1.140   H  3   0.853
     7   1    -0.476423      C  1   1.140   H  5   0.852
     8   1    -0.442791      H  6   0.799   C  1   0.640   N  2   0.560
     9   1    -0.369000      N  2   1.952   C  1   0.027   H  6   0.020
    10   2    -0.167446      N  2   0.581   C  1   0.402

 Localized orbitals saved to record      2102.2  (orbital set 2)


 **********************************************************************************************************************************
 DATASETS  * FILE   NREC   LENGTH (MB)   RECORD NAMES
              1      20       39.83       500      610      700      900      950      970     1001      129      960     1100   
                                          VAR    BASINP    GEOM    SYMINP    ZMAT    AOBASIS   BASIS     P2S    ABASIS      S 
                                         1400     1410     1200     1210     1080     1600     1650     1300     1700     1800   
                                           T        V       H0       H01     AOSYM     SMH    MOLCAS    ERIS     OPER     GRID   

              2       8        8.22       700     1000      520     2100     1001     2101     1800     2102   
                                         GEOM     BASIS   MCVARS     RHF     BASIS     RHF     GRID      RKS  

 PROGRAMS   *        TOTAL      IBBA    KS-SCF    HF-SCF       INT    HF-SCF       INT
 CPU TIMES  *        20.19      0.02      0.90     10.50      0.60      7.71      0.33
 REAL TIME  *        30.25 SEC
 DISK USED  *        73.06 MB
 **********************************************************************************************************************************

 IBBA/6-31+G(D,P) energy=      0.000000000000

          KS-SCF          HF-SCF          HF-SCF
    -96.31890047    -95.70591937    -94.49535135
 **********************************************************************************************************************************
 Molpro calculation terminated
