
 Primary working directories    : /local
 Secondary working directories  : /local
 Wavefunction directory         : /local/
 Main file repository           : /local/

 SHA1      : b4a5b34a9e711420743f49e6833241d17c61fb3c
 NAME      : 2099.9.b4a5b34
 ARCHNAME  : linux/x86_64_openmp
 FC        : /cm/shared/languages/GCC-6.1/bin/gfortran
 BLASLIB   : -lblas
 id        : simonbennie

 Nodes     nprocs
 node47-007    1

 Using customized tuning parameters: mindgm=1; mindgv=20; mindgc=4; mindgr=1; noblas=0; minvec=7
 default implementation of scratch files=df  

 memory,500,m
 geomtyp=xyz
 nosym
 noorient
 geometry={
 C         -1.26075       -0.00001        0.01229
 N          1.31326       -0.00001       -0.13678
 H         -1.58399        0.90854       -0.48474
 H         -1.46367       -0.00457        1.07730
 H         -1.58475       -0.90388       -0.49270
 H          0.04311       -0.00006       -0.15169
 H          1.48046        0.80558        0.46775
 H          1.48056       -0.80552        0.46781
 }
 basis={ default,avtz }
 {ks,M05-2X,direct;wf,19,1,1}
 {ibba,bonds=1}

 Variables initialized (895), CPU time= 0.00 sec
 Commands  initialized (725), CPU time= 0.01 sec, 591 directives.
 Default parameters read. Elapsed time= 0.09 sec

 Checking input...
 Passed
1


                                         ***  PROGRAM SYSTEM MOLPRO  ***
                                       Copyright, TTI GmbH Stuttgart, 2015
                                    Version 2099.9 linked May 26 2017 16:03:21


 **********************************************************************************************************************************
 LABEL *                                                                                 
  64 bit serial version                                                                  DATE: 23-Jun-17          TIME: 23:28:35  
 **********************************************************************************************************************************

 SHA1:             b4a5b34a9e711420743f49e6833241d17c61fb3c
 **********************************************************************************************************************************
 SETTING GEOMTYP        =    XYZ

 Variable memory set to  500000000 words,  buffer space 

 ZSYMEL=NOSYM

 SETTING BASIS          =    AVTZ


 Recomputing integrals since basis changed


 Using spherical harmonics

 Library entry C      S aug-cc-pVTZ          selected for orbital group  1
 Library entry C      P aug-cc-pVTZ          selected for orbital group  1
 Library entry C      D aug-cc-pVTZ          selected for orbital group  1
 Library entry C      F aug-cc-pVTZ          selected for orbital group  1
 Library entry N      S aug-cc-pVTZ          selected for orbital group  2
 Library entry N      P aug-cc-pVTZ          selected for orbital group  2
 Library entry N      D aug-cc-pVTZ          selected for orbital group  2
 Library entry N      F aug-cc-pVTZ          selected for orbital group  2
 Library entry H      S aug-cc-pVTZ          selected for orbital group  3
 Library entry H      P aug-cc-pVTZ          selected for orbital group  3
 Library entry H      D aug-cc-pVTZ          selected for orbital group  3


 PROGRAM * SEWARD (Integral evaluation for generally contracted gaussian basis sets)     Author: Roland Lindh, 1990

 Geometry written to block  1 of record 700


 Point group  C1  



 ATOMIC COORDINATES

 NR  ATOM    CHARGE       X              Y              Z

   1  C       6.00   -2.382472212   -0.000018897    0.023224734
   2  N       7.00    2.481701730   -0.000018897   -0.258476739
   3  H       1.00   -2.993307284    1.716891773   -0.916025842
   4  H       1.00   -2.765935437   -0.008636048    2.035801954
   5  H       1.00   -2.994743476   -1.708085649   -0.931068062
   6  H       1.00    0.081466093   -0.000113384   -0.286652556
   7  H       1.00    2.797663938    1.522325571    0.883919395
   8  H       1.00    2.797852911   -1.522212188    0.884032778

 Bond lengths in Bohr (Angstrom)

 1-3  2.050144722  1-4  2.048800958  1-5  2.050132403  1-6  2.483347723  2-6  2.400401008
     ( 1.084889866)     ( 1.084178777)     ( 1.084883347)     ( 1.314131022)     ( 1.270237511)

 2-7  1.929360963  2-8  1.929339778
     ( 1.020973853)     ( 1.020962643)

 Bond angles

  1-6-2  172.15927634   3-1-4  113.44044653   3-1-5  113.29668306   3-1-6  103.79702058

  4-1-5  113.44370848   4-1-6  107.95545954   5-1-6  103.78034715   6-2-7   99.83056598

  6-2-8   99.83279831   7-2-8  104.18542184

 NUCLEAR CHARGE:                   19
 NUMBER OF PRIMITIVE AOS:         296
 NUMBER OF SYMMETRY AOS:          266
 NUMBER OF CONTRACTIONS:          230   ( 230A   )
 NUMBER OF CORE ORBITALS:           2   (   2A   )
 NUMBER OF VALENCE ORBITALS:       14   (  14A   )


 NUCLEAR REPULSION ENERGY   39.42840512


 Eigenvalues of metric

         1 0.520E-04 0.648E-04 0.862E-04 0.876E-04 0.163E-03 0.253E-03 0.269E-03 0.401E-03


 Contracted 2-electron integrals neglected if value below      1.0D-11
 AO integral compression algorithm  1   Integral accuracy      1.0D-11

     1558.708 MB (compressed) written to integral file ( 48.7%)


 NUMBER OF SORTED TWO-ELECTRON INTEGRALS:  352862895.     BUFFER LENGTH:  32768
 NUMBER OF SEGMENTS:  23  SEGMENT LENGTH:   15999762      RECORD LENGTH: 524288

 Memory used in sort:      16.56 MW

 SORT1 READ   399806319. AND WROTE   340354764. INTEGRALS IN    984 RECORDS. CPU TIME:     4.84 SEC, REAL TIME:    14.01 SEC
 SORT2 READ   340354764. AND WROTE   352862895. INTEGRALS IN   5946 RECORDS. CPU TIME:     8.59 SEC, REAL TIME:    14.06 SEC

 FILE SIZES:   FILE 1:  1590.7 MBYTE,  FILE 4:  4127.2 MBYTE,   TOTAL:   5718.0 MBYTE

 OPERATOR DM      FOR CENTER  0  COORDINATES:    0.000000    0.000000    0.000000


 **********************************************************************************************************************************
 DATASETS  * FILE   NREC   LENGTH (MB)   RECORD NAMES
              1      19     1438.48       500      610      700      900      950      970     1000      129      960     1100   
                                          VAR    BASINP    GEOM    SYMINP    ZMAT    AOBASIS   BASIS     P2S    ABASIS      S 
                                         1400     1410     1200     1210     1080     1600     1650     1300     1700   
                                           T        V       H0       H01     AOSYM     SMH    MOLCAS    ERIS     OPER   

 PROGRAMS   *        TOTAL       INT
 CPU TIMES  *        26.71     26.56
 REAL TIME  *       103.28 SEC
 DISK USED  *         5.72 GB      
 **********************************************************************************************************************************

 Density functional group M05-2X=XC-M05-2X
 Functional: XC-M05-2X(via MFM 1.6)                                            Gradient terms: 1
 Use grid at  1800.2


 Exact exchange will be calculated, factor:  0.5600

 Functional: XC-M05-2X                 Factor:  1.0000

 Generated new metagrid on record  1800.2 with target accuracy 1.0D-06 and 28324 points in CPU time    0.7
 Computed new grid on record 1800.1 in CPU time    0.7
  186896 words reserved for DFT integration

 PROGRAM * RKS-SCF (Restricted open shell Kohn-Sham)     Authors: W. Meyer, H.-J. Werner, P.J. Knowles, 1993

 NUMBER OF ELECTRONS:      10+    9-    SPACE SYMMETRY=1    SPIN SYMMETRY: Doublet 
 CONVERGENCE THRESHOLDS:    1.00E-05 (Density)    1.00E-06 (Energy)
 MAX. NUMBER OF ITERATIONS:       60
 INTERPOLATION TYPE:            DIIS
 INTERPOLATION STEPS:              2 (START)      1 (STEP)
 LEVEL SHIFTS:                 -0.60 (CLOSED) -0.30 (OPEN) 



 Use fine grid record 1800.2 for energy threshold  1.0D-06
 Orbital guess generated from atomic densities. Full valence occupancy:   16

 Molecular orbital dump at record        2100.2

 Initial alpha occupancy:  10
 Initial beta  occupancy:   9
 Wave function symmetry:    1

 ITERATION    DDIFF          GRAD             ENERGY        2-EL.EN.            DIPOLE MOMENTS         DIIS   ORB.
    1      0.000D+00      0.000D+00       -96.37076228    158.989169   -0.22198    0.00008    0.91339    0    start
    2      0.000D+00      0.478D-02       -96.41522100    155.007148   -0.24746    0.00006    0.61297    1    diag,B
    3      0.549D-02      0.149D-02       -96.41936826    155.713365   -0.29147    0.00007    0.62276    2    diag,B
    4      0.134D-02      0.395D-03       -96.42019720    155.624885   -0.29049    0.00007    0.60259    3    diag,B
    5      0.617D-03      0.177D-03       -96.42045506    155.627075   -0.31154    0.00007    0.60028    4    diag,B
    6      0.305D-03      0.749D-04       -96.42051770    155.614095   -0.31770    0.00007    0.59901    5    diag,B
    7      0.133D-03      0.272D-04       -96.42052673    155.611637   -0.32542    0.00007    0.60002    6    fixocc
    8      0.607D-04      0.151D-04       -96.42052173    155.610352   -0.33224    0.00007    0.60096    7    diag,B
    9      0.565D-04      0.961D-05       -96.42050973    155.609686   -0.33956    0.00007    0.60181    8    diag,B
   10      0.485D-04      0.530D-05       -96.42049548    155.609779   -0.34565    0.00007    0.60245    9    orth
   11      0.264D-04      0.187D-05       -96.42049033    155.609865   -0.34732    0.00007    0.60259    9    diag,B
   12      0.128D-04      0.659D-06       -96.42048851    155.609877   -0.34784    0.00007    0.60263    9    diag,B
   13      0.462D-05      0.198D-06       -96.42048827    155.609881   -0.34788    0.00007    0.60262    9    diag,B
   14      0.199D-05      0.700D-07       -96.42048823    155.609884   -0.34789    0.00007    0.60262    0    orth

 Final alpha occupancy:  10
 Final beta  occupancy:   9

 !RKS STATE 1.1 Energy                -96.420488226380
 Nuclear energy                        39.42840512
 One-electron energy                 -206.89028977
 Two-electron energy                   77.80494192
 Density functional                    -6.76354550     XC-M05-2X=-6.76354550
 Virial quotient                       -1.00695967
 !RKS STATE 1.1 Dipole moment          -0.34788829     0.00006703     0.60262286
 Dipole moment /Debye                  -0.88418591     0.00017037     1.53161420

 Orbital energies:

         1.1          2.1          3.1          4.1          5.1          6.1          7.1          8.1          9.1         10.1
    -14.778545   -10.569055    -0.950983    -0.793579    -0.536894    -0.502916    -0.485194    -0.484977    -0.366259    -0.289878

        11.1         12.1
      0.016656     0.037924

 HOMO     10.1    -0.289878 =      -7.8880eV
 LUMO     11.1     0.016656 =       0.4532eV
 LUMO-HOMO         0.306534 =       8.3412eV


 **********************************************************************************************************************************
 DATASETS  * FILE   NREC   LENGTH (MB)   RECORD NAMES
              1      20     1439.39       500      610      700      900      950      970     1000      129      960     1100   
                                          VAR    BASINP    GEOM    SYMINP    ZMAT    AOBASIS   BASIS     P2S    ABASIS      S 
                                         1400     1410     1200     1210     1080     1600     1650     1300     1700     1800   
                                           T        V       H0       H01     AOSYM     SMH    MOLCAS    ERIS     OPER     GRID   

              2       5        4.39       700     1000      520     1800     2100   
                                         GEOM     BASIS   MCVARS    GRID      RKS  

 PROGRAMS   *        TOTAL        KS       INT
 CPU TIMES  *       287.97    261.26     26.56
 REAL TIME  *       374.12 SEC
 DISK USED  *         5.72 GB      
 **********************************************************************************************************************************


 PROGRAM * Intrinsic Basis Bonding Analysis (IBBA)          Author: G. Knizia

 Molecular orbitals read from record     2100.2  Type=RKS/CANONICAL (state 1.1)
 Fock matrix read from record            2100.2  Type=RKS/TOTAL (state 1.1)
 Orbital energies read from record       2100.2  Type=RKS/CANONICAL (state 1.1)
 Density matrix read from record         2100.2  Type=RKS/CHARGE (state 1.1)

 Number of core orbitals:           2 (   2 )
 Number of closed-shell orbitals:   7 (   7 )
 Number of active  orbitals:        1 (   1 )

 Basis set MINAO-AUTO-PP generated.      Number of basis functions:   16 

 Polarized AO type:                A = (O Ot + (1-O)(1-Ot)) P12
 Orthogonalization method:         Symmetric (Loewdin)
 Localization functional:          L = sum[A,i] <i|n_A|i>^4 -> max

 Localization group 1:   9 orbitals, occupancy  2.000
 Iterative localization: IB/PM,    7 iter; Final gradient 0.34E-09

 Bond order analysis:       [THRPRINT= 0.020]

   CEN ATOM   CEN ATOM     WIBERG.BO      RENORM.BO
     1   C  -   4   H       0.966260       0.999186
     1   C  -   3   H       0.960332       0.999740
     1   C  -   5   H       0.960300       0.999738
     1   C  -   2   N       0.453830       1.002651
     1   C  -   6   H       0.401994       0.828789

     2   N  -   7   H       0.932699       0.999965
     2   N  -   8   H       0.932696       0.999965
     2   N  -   6   H       0.551353       0.930436
     2   N  -   1   C       0.453830       1.002651

     3   H  -   1   C       0.960332       0.999740

     4   H  -   1   C       0.966260       0.999186

     5   H  -   1   C       0.960300       0.999738

     6   H  -   2   N       0.551353       0.930436
     6   H  -   1   C       0.401994       0.828789

     7   H  -   2   N       0.932699       0.999965

     8   H  -   2   N       0.932696       0.999965


 Valency analysis:

   CEN ATOM   TOT.VALENCE
     1   C       3.745309
     2   N       2.892219
     3   H       0.971533
     4   H       0.974312
     5   H       0.971517
     6   H       0.959192
     7   H       0.934564
     8   H       0.934561
 Localization group 2:   1 orbitals, occupancy  1.000
 Iterative localization: IB/PM,    1 iter; Final gradient 0.00E+00

 Bond order analysis:       [THRPRINT= 0.020]

   CEN ATOM   CEN ATOM     WIBERG.BO      RENORM.BO
     1   C  -   2   N       0.478445       0.500000

     2   N  -   1   C       0.478445       0.500000








 Valency analysis:

   CEN ATOM   TOT.VALENCE
     1   C       0.498384
     2   N       0.499894
     3   H       0.007796
     4   H       0.004492
     5   H       0.007815
     6   H       0.014799
     7   H       0.003591
     8   H       0.003592

 Total charge composition:

   CEN ATOM         s          p       ELECTRONS ->P.CHARGE
     1   C       3.10836    3.42416      6.53252   -0.53252
     2   N       3.51875    4.13898      7.65773   -0.65773
     3   H       0.83519                 0.83519    0.16481
     4   H       0.84198                 0.84198    0.15802
     5   H       0.83515                 0.83515    0.16485
     6   H       0.80545                 0.80545    0.19455
     7   H       0.74599                 0.74599    0.25401
     8   H       0.74599                 0.74599    0.25401

 Total charge composition, AO contributions:

   CEN ATOM SHL      SPHERICAL COMPONENTS
     1   C  1s       1.99150
     1   C  2s       1.11686
     1   C  2p       1.04465    1.19209    1.18741

     2   N  1s       1.99539
     2   N  2s       1.52336
     2   N  2p       1.20944    1.26552    1.66402

     3   H  1s       0.83519

     4   H  1s       0.84198

     5   H  1s       0.83515

     6   H  1s       0.80545

     7   H  1s       0.74599

     8   H  1s       0.74599

 Active orbital charges:

   CEN ATOM         s          p       ELECTRONS ->SPIN.DEN
     1   C       0.03521    0.43637      0.47157    0.47157
     2   N       0.01063    0.49665      0.50728    0.50728
     3   H       0.00391                 0.00391    0.00391
     4   H       0.00225                 0.00225    0.00225
     5   H       0.00392                 0.00392    0.00392
     6   H       0.00746                 0.00746    0.00746
     7   H       0.00180                 0.00180    0.00180
     8   H       0.00180                 0.00180    0.00180

 Active orbital charges, AO contributions:

   CEN ATOM SHL      SPHERICAL COMPONENTS
     1   C  1s       0.00004
     1   C  2s       0.03517
     1   C  2p       0.43407    0.00000    0.00230

     2   N  1s       0.00005
     2   N  2s       0.01059
     2   N  2p       0.48429    0.00000    0.01236

     3   H  1s       0.00391

     4   H  1s       0.00225

     5   H  1s       0.00392

     6   H  1s       0.00746

     7   H  1s       0.00180

     8   H  1s       0.00180

 Summary of localized orbital composition:   [THRPRINT= 0.020]

   ORB  GRP  ORB.ENERGY      CENTERS/CHARGES
     1   1   -14.636899      N  2   2.000
     2   1   -10.453397      C  1   2.000
     3   1    -0.733298      N  2   1.254   H  8   0.744
     4   1    -0.733285      N  2   1.254   H  7   0.744
     5   1    -0.618605      C  1   1.159   H  3   0.830
     6   1    -0.618595      C  1   1.159   H  5   0.830
     7   1    -0.617762      C  1   1.155   H  4   0.838
     8   1    -0.563181      H  6   0.758   N  2   0.689   C  1   0.550
     9   1    -0.493379      N  2   1.943   C  1   0.034   H  6   0.023
    10   2    -0.173143      N  2   0.507   C  1   0.472   (other: 0.021)

 Localized orbitals saved to record      2100.2  (orbital set 2)


 **********************************************************************************************************************************
 DATASETS  * FILE   NREC   LENGTH (MB)   RECORD NAMES
              1      20     1439.39       500      610      700      900      950      970     1000      129      960     1100   
                                          VAR    BASINP    GEOM    SYMINP    ZMAT    AOBASIS   BASIS     P2S    ABASIS      S 
                                         1400     1410     1200     1210     1080     1600     1650     1300     1700     1800   
                                           T        V       H0       H01     AOSYM     SMH    MOLCAS    ERIS     OPER     GRID   

              2       5        4.82       700     1000      520     1800     2100   
                                         GEOM     BASIS   MCVARS    GRID      RKS  

 PROGRAMS   *        TOTAL      IBBA        KS       INT
 CPU TIMES  *       288.02      0.05    261.26     26.56
 REAL TIME  *       374.22 SEC
 DISK USED  *         5.72 GB      
 **********************************************************************************************************************************
 Molecular orbitals read from record     2100.2  Type=RKS/LOCAL(IBO)  
 Occupation numbers read from record     2100.2  Type=RKS/LOCAL(IBO)  
 Orbital energies read from record       2100.2  Type=RKS/LOCAL(IBO)  
 Redundancy group numbers read from rec  2100.2  Type=RKS/LOCAL(IBO)  

 IBBA/aug-cc-pVTZ energy=      0.000000000000

        KS-SCF  
    -96.42048823
 **********************************************************************************************************************************
 Molpro calculation terminated
