
 Primary working directories    : /local
 Secondary working directories  : /local
 Wavefunction directory         : /local/
 Main file repository           : /local/

 SHA1      : b4a5b34a9e711420743f49e6833241d17c61fb3c
 NAME      : 2099.9.b4a5b34
 ARCHNAME  : linux/x86_64_openmp
 FC        : /cm/shared/languages/GCC-6.1/bin/gfortran
 BLASLIB   : -lblas
 id        : simonbennie

 Nodes     nprocs
 node32-046    1

 Using customized tuning parameters: mindgm=1; mindgv=20; mindgc=4; mindgr=1; noblas=0; minvec=7
 default implementation of scratch files=df  

 memory,500,m
 geomtyp=xyz
 nosym
 noorient
 geometry={
 C         -1.26075       -0.00001        0.01229
 N          1.31326       -0.00001       -0.13678
 H         -1.58399        0.90854       -0.48474
 H         -1.46367       -0.00457        1.07730
 H         -1.58475       -0.90388       -0.49270
 H          0.04311       -0.00006       -0.15169
 H          1.48046        0.80558        0.46775
 H          1.48056       -0.80552        0.46781
 }
 basis={ default,qzvp }
 {uks,PBEREV,direct;wf,19,1,1}
 {ibba,bonds=1}

 Variables initialized (895), CPU time= 0.00 sec
 Commands  initialized (725), CPU time= 0.02 sec, 591 directives.
 Default parameters read. Elapsed time= 0.08 sec

 Checking input...
 Passed
1


                                         ***  PROGRAM SYSTEM MOLPRO  ***
                                       Copyright, TTI GmbH Stuttgart, 2015
                                    Version 2099.9 linked May 26 2017 16:03:21


 **********************************************************************************************************************************
 LABEL *                                                                                 
  64 bit serial version                                                                  DATE: 23-Jun-17          TIME: 22:51:44  
 **********************************************************************************************************************************

 SHA1:             b4a5b34a9e711420743f49e6833241d17c61fb3c
 **********************************************************************************************************************************
 SETTING GEOMTYP        =    XYZ

 Variable memory set to  500000000 words,  buffer space 

 ZSYMEL=NOSYM

 SETTING BASIS          =    QZVP


 Recomputing integrals since basis changed


 Using spherical harmonics

 Library entry C      S def2-QZVP            selected for orbital group  1
 Library entry C      P def2-QZVP            selected for orbital group  1
 Library entry C      D def2-QZVP            selected for orbital group  1
 Library entry C      F def2-QZVP            selected for orbital group  1
 Library entry C      G def2-QZVP            selected for orbital group  1
 Library entry N      S def2-QZVP            selected for orbital group  2
 Library entry N      P def2-QZVP            selected for orbital group  2
 Library entry N      D def2-QZVP            selected for orbital group  2
 Library entry N      F def2-QZVP            selected for orbital group  2
 Library entry N      G def2-QZVP            selected for orbital group  2
 Library entry H      S def2-QZVP            selected for orbital group  3
 Library entry H      P def2-QZVP            selected for orbital group  3
 Library entry H      D def2-QZVP            selected for orbital group  3
 Library entry H      F def2-QZVP            selected for orbital group  3


 PROGRAM * SEWARD (Integral evaluation for generally contracted gaussian basis sets)     Author: Roland Lindh, 1990

 Geometry written to block  1 of record 700


 Point group  C1  



 ATOMIC COORDINATES

 NR  ATOM    CHARGE       X              Y              Z

   1  C       6.00   -2.382472212   -0.000018897    0.023224734
   2  N       7.00    2.481701730   -0.000018897   -0.258476739
   3  H       1.00   -2.993307284    1.716891773   -0.916025842
   4  H       1.00   -2.765935437   -0.008636048    2.035801954
   5  H       1.00   -2.994743476   -1.708085649   -0.931068062
   6  H       1.00    0.081466093   -0.000113384   -0.286652556
   7  H       1.00    2.797663938    1.522325571    0.883919395
   8  H       1.00    2.797852911   -1.522212188    0.884032778

 Bond lengths in Bohr (Angstrom)

 1-3  2.050144722  1-4  2.048800958  1-5  2.050132403  1-6  2.483347723  2-6  2.400401008
     ( 1.084889866)     ( 1.084178777)     ( 1.084883347)     ( 1.314131022)     ( 1.270237511)

 2-7  1.929360963  2-8  1.929339778
     ( 1.020973853)     ( 1.020962643)

 Bond angles

  1-6-2  172.15927634   3-1-4  113.44044653   3-1-5  113.29668306   3-1-6  103.79702058

  4-1-5  113.44370848   4-1-6  107.95545954   5-1-6  103.78034715   6-2-7   99.83056598

  6-2-8   99.83279831   7-2-8  104.18542184

 NUCLEAR CHARGE:                   19
 NUMBER OF PRIMITIVE AOS:         412
 NUMBER OF SYMMETRY AOS:          352
 NUMBER OF CONTRACTIONS:          294   ( 294A   )
 NUMBER OF CORE ORBITALS:           2   (   2A   )
 NUMBER OF VALENCE ORBITALS:       14   (  14A   )


 NUCLEAR REPULSION ENERGY   39.42840512


 Eigenvalues of metric

         1 0.122E-03 0.145E-03 0.148E-03 0.164E-03 0.194E-03 0.365E-03 0.448E-03 0.744E-03


 Contracted 2-electron integrals neglected if value below      1.0D-11
 AO integral compression algorithm  1   Integral accuracy      1.0D-11

     2952.790 MB (compressed) written to integral file ( 36.0%)


 NUMBER OF SORTED TWO-ELECTRON INTEGRALS:  940283295.     BUFFER LENGTH:  32768
 NUMBER OF SEGMENTS:  59  SEGMENT LENGTH:   15999984      RECORD LENGTH: 262144

 Memory used in sort:      16.29 MW

 SORT1 READ  1026184354. AND WROTE   742563888. INTEGRALS IN   4280 RECORDS. CPU TIME:    11.07 SEC, REAL TIME:    20.76 SEC
 SORT2 READ   742563888. AND WROTE   940283295. INTEGRALS IN  11264 RECORDS. CPU TIME:    17.05 SEC, REAL TIME:    21.05 SEC

 FILE SIZES:   FILE 1:  2986.1 MBYTE,  FILE 4:  8975.8 MBYTE,   TOTAL:  11961.9 MBYTE

 OPERATOR DM      FOR CENTER  0  COORDINATES:    0.000000    0.000000    0.000000


 **********************************************************************************************************************************
 DATASETS  * FILE   NREC   LENGTH (MB)   RECORD NAMES
              1      19     2672.76       500      610      700      900      950      970     1000      129      960     1100   
                                          VAR    BASINP    GEOM    SYMINP    ZMAT    AOBASIS   BASIS     P2S    ABASIS      S 
                                         1400     1410     1200     1210     1080     1600     1650     1300     1700   
                                           T        V       H0       H01     AOSYM     SMH    MOLCAS    ERIS     OPER   

 PROGRAMS   *        TOTAL       INT
 CPU TIMES  *        67.57     67.43
 REAL TIME  *       145.97 SEC
 DISK USED  *        11.96 GB      
 **********************************************************************************************************************************

 Density functional group PBEREV=PBEXREV+PBEC
 Functional: PBEXREV(Automatically generated (new) PBEXREV)                    Gradient terms: 1
 Functional: PBEC(Automatically generated (new) PBEC)                          Gradient terms: 1
 Use grid at  1800.2

 Functional: PBEXREV                   Factor:  1.0000
 Functional: PBEC                      Factor:  1.0000

 Generated new metagrid on record  1800.2 with target accuracy 1.0D-06 and 29780 points in CPU time    0.7
 Computed new grid on record 1800.1 in CPU time    0.8
  237464 words reserved for DFT integration

 PROGRAM * UKS-SCF (Unrestricted Kohn-Sham)     Authors: W. Meyer, H.-J. Werner, P.J. Knowles, 1993

 NUMBER OF ELECTRONS:      10+    9-    SPACE SYMMETRY=1    SPIN SYMMETRY: Doublet 
 CONVERGENCE THRESHOLDS:    1.00E-05 (Density)    1.00E-06 (Energy)
 MAX. NUMBER OF ITERATIONS:       60
 INTERPOLATION TYPE:            DIIS
 INTERPOLATION STEPS:              2 (START)      1 (STEP)
 LEVEL SHIFTS:                 -0.20 (ALPHA)  -0.20 (BETA) 



 Use fine grid record 1800.2 for energy threshold  1.0D-06
 Orbital guess generated from atomic densities. Full valence occupancy:   10

 Molecular orbital dump at record        2200.2

 Initial alpha occupation  10
 Initial beta  occupation   9

 ITERATION    DDIFF          GRAD             ENERGY        2-EL.EN.            DIPOLE MOMENTS         DIIS
    1      0.000D+00      0.000D+00       -96.27794833    177.727150   -0.05982    0.00008    0.89598    0
    2      0.192D-02      0.168D-02       -96.37565130    168.683767   -0.14834    0.00001    0.46453    1
    3      0.604D-03      0.950D-03       -96.40019592    171.279168   -0.20450    0.00003    0.58479    2
    4      0.349D-03      0.109D-03       -96.40081835    171.175720   -0.19009    0.00002    0.56438    3
    5      0.272D-03      0.573D-04       -96.40105381    171.172815   -0.21126    0.00002    0.56442    4
    6      0.273D-03      0.217D-04       -96.40113768    171.142995   -0.22383    0.00002    0.55949    5
    7      0.946D-04      0.757D-05       -96.40115512    171.139505   -0.23045    0.00002    0.55937    6
    8      0.207D-04      0.353D-05       -96.40115944    171.139862   -0.23579    0.00002    0.55981    7
    9      0.670D-05      0.146D-05       -96.40116010    171.138461   -0.23733    0.00002    0.56029    7
   10      0.534D-05      0.577D-06       -96.40116021    171.139462   -0.23813    0.00002    0.56057    7

 Final alpha occupancy:  10
 Final beta  occupancy:   9

 !UKS STATE 1.1 Energy                -96.401160208211
 Nuclear energy                        39.42840512
 One-electron energy                 -206.92372681
 Two-electron energy                   85.56973120
 Density functional                   -14.47556972     PBEXREV=-13.88964864 PBEC= -0.58592107
 Virial quotient                       -1.00414388
 !UKS STATE 1.1 Dipole moment          -0.23813356     0.00001675     0.56057222
 Dipole moment /Debye                  -0.60523549     0.00004257     1.42473915

 Orbital energies for positive spin:

         1.1          2.1          3.1          4.1          5.1          6.1          7.1          8.1          9.1         10.1
    -13.995711    -9.898465    -0.776900    -0.633246    -0.414932    -0.398941    -0.366696    -0.365557    -0.257460    -0.191576

        11.1         12.1
     -0.005684     0.036172

 Orbital energies for negative spin:

         1.1          2.1          3.1          4.1          5.1          6.1          7.1          8.1          9.1         10.1
    -13.985540    -9.891195    -0.752438    -0.615026    -0.407621    -0.374881    -0.359704    -0.359597    -0.240442    -0.133172

        11.1         12.1
     -0.002143     0.041868

 HOMO     10.1    -0.191576 =      -5.2131eV
 LUMO    -10.1    -0.133172 =      -3.6238eV
 LUMO-HOMO         0.058404 =       1.5892eV

 EXPECTATION VALUE OF S**2:             0.75454583

 Occupation number threshold for canonical orbitals:  1.999000 (occupied),  0.001000 (virtual)

 Number of pseudo-canonical orbitals per symmetry:    8
 Number of active natural orbitals per symmetry:      3

 Natural orbitals saved to record    2200.2 (Orbital set 3)

 Orbital spaces for UNO-CAS (Min. occupation: 0.020  Max. occupation: 1.980):

 Closed:        9
 Active:        1


 **********************************************************************************************************************************
 DATASETS  * FILE   NREC   LENGTH (MB)   RECORD NAMES
              1      20     2673.72       500      610      700      900      950      970     1000      129      960     1100   
                                          VAR    BASINP    GEOM    SYMINP    ZMAT    AOBASIS   BASIS     P2S    ABASIS      S 
                                         1400     1410     1200     1210     1080     1600     1650     1300     1700     1800   
                                           T        V       H0       H01     AOSYM     SMH    MOLCAS    ERIS     OPER     GRID   

              2       5        6.40       700     1000      520     1800     2200   
                                         GEOM     BASIS   MCVARS    GRID      UKS  

 PROGRAMS   *        TOTAL       UKS       INT
 CPU TIMES  *       177.25    109.67     67.43
 REAL TIME  *       261.96 SEC
 DISK USED  *        11.96 GB      
 **********************************************************************************************************************************


 PROGRAM * Intrinsic Basis Bonding Analysis (IBBA)          Author: G. Knizia

 Molecular orbitals read from record     2200.2  Type=UKS/ALPHA (state 1.1)
 Fock matrix read from record            2200.2  Type=UKS/TOTAL (state 1.1)
 Orbital energies read from record       2200.2  Type=UKS/ALPHA (state 1.1)
 Density matrix read from record         2200.2  Type=UKS/CHARGE (state 1.1)

 Number of core orbitals:           2 (   2 )
 Number of closed-shell orbitals:   7 (   7 )
 Number of active  orbitals:        1 (   1 )

 Basis set MINAO-AUTO-PP generated.      Number of basis functions:   16 

 Polarized AO type:                A = (O Ot + (1-O)(1-Ot)) P12
 Orthogonalization method:         Symmetric (Loewdin)
 Localization functional:          L = sum[A,i] <i|n_A|i>^4 -> max

 Localization group 1:   9 orbitals, occupancy  2.000
 Iterative localization: IB/PM,    6 iter; Final gradient 0.31E-08

 Bond order analysis:       [THRPRINT= 0.020]

   CEN ATOM   CEN ATOM     WIBERG.BO      RENORM.BO
     1   C  -   4   H       0.960033       0.999151
     1   C  -   3   H       0.952280       0.999716
     1   C  -   5   H       0.952229       0.999714
     1   C  -   2   N       0.509430       1.003896
     1   C  -   6   H       0.378934       0.776435

     2   N  -   7   H       0.928326       0.999957
     2   N  -   8   H       0.928324       0.999957
     2   N  -   6   H       0.552189       0.902754
     2   N  -   1   C       0.509430       1.003896

     3   H  -   1   C       0.952280       0.999716

     4   H  -   1   C       0.960033       0.999151

     5   H  -   1   C       0.952229       0.999714

     6   H  -   2   N       0.552189       0.902754
     6   H  -   1   C       0.378934       0.776435

     7   H  -   2   N       0.928326       0.999957

     8   H  -   2   N       0.928324       0.999957


 Valency analysis:

   CEN ATOM   TOT.VALENCE
     1   C       3.755051
     2   N       2.949769
     3   H       0.967085
     4   H       0.970081
     5   H       0.967064
     6   H       0.938345
     7   H       0.929755
     8   H       0.929753
 Localization group 2:   1 orbitals, occupancy  1.000
 Iterative localization: IB/PM,    1 iter; Final gradient 0.00E+00

 Bond order analysis:       [THRPRINT= 0.020]

   CEN ATOM   CEN ATOM     WIBERG.BO      RENORM.BO
     1   C  -   2   N       0.472266       0.500000

     2   N  -   1   C       0.472266       0.500000








 Valency analysis:

   CEN ATOM   TOT.VALENCE
     1   C       0.498584
     2   N       0.499997
     3   H       0.011843
     4   H       0.006850
     5   H       0.011876
     6   H       0.016684
     7   H       0.004009
     8   H       0.004010

 Total charge composition:

   CEN ATOM         s          p       ELECTRONS ->P.CHARGE
     1   C       3.13992    3.44834      6.58826   -0.58826
     2   N       3.54964    4.14856      7.69820   -0.69820
     3   H       0.82453                 0.82453    0.17547
     4   H       0.83047                 0.83047    0.16953
     5   H       0.82449                 0.82449    0.17551
     6   H       0.76011                 0.76011    0.23989
     7   H       0.73697                 0.73697    0.26303
     8   H       0.73697                 0.73697    0.26303

 Total charge composition, AO contributions:

   CEN ATOM SHL      SPHERICAL COMPONENTS
     1   C  1s       1.99184
     1   C  2s       1.14808
     1   C  2p       1.06388    1.19356    1.19090

     2   N  1s       1.99557
     2   N  2s       1.55407
     2   N  2p       1.24000    1.26711    1.64144

     3   H  1s       0.82453

     4   H  1s       0.83047

     5   H  1s       0.82449

     6   H  1s       0.76011

     7   H  1s       0.73697

     8   H  1s       0.73697

 Active orbital charges:

   CEN ATOM         s          p       ELECTRONS ->SPIN.DEN
     1   C       0.02778    0.44560      0.47339    0.47339
     2   N       0.00573    0.49308      0.49881    0.49881
     3   H       0.00596                 0.00596    0.00596
     4   H       0.00344                 0.00344    0.00344
     5   H       0.00597                 0.00597    0.00597
     6   H       0.00841                 0.00841    0.00841
     7   H       0.00201                 0.00201    0.00201
     8   H       0.00201                 0.00201    0.00201

 Active orbital charges, AO contributions:

   CEN ATOM SHL      SPHERICAL COMPONENTS
     1   C  1s       0.00005
     1   C  2s       0.02773
     1   C  2p       0.44346    0.00000    0.00214

     2   N  1s       0.00005
     2   N  2s       0.00569
     2   N  2p       0.47212    0.00000    0.02096

     3   H  1s       0.00596

     4   H  1s       0.00344

     5   H  1s       0.00597

     6   H  1s       0.00841

     7   H  1s       0.00201

     8   H  1s       0.00201

 Summary of localized orbital composition:   [THRPRINT= 0.020]

   ORB  GRP  ORB.ENERGY      CENTERS/CHARGES
     1   1   -13.861547      N  2   2.000
     2   1    -9.782785      C  1   2.000
     3   1    -0.582453      N  2   1.263   H  8   0.735
     4   1    -0.582442      N  2   1.263   H  7   0.735
     5   1    -0.482360      C  1   1.169   H  5   0.815
     6   1    -0.482350      C  1   1.169   H  3   0.816
     7   1    -0.480755      C  1   1.166   H  4   0.824
     8   1    -0.427727      N  2   0.739   H  6   0.687   C  1   0.565
     9   1    -0.362033      N  2   1.922   C  1   0.044   H  6   0.034
    10   2    -0.161578      N  2   0.499   C  1   0.473   (other: 0.028)

 Localized orbitals saved to record      2200.2  (orbital set 4)


 **********************************************************************************************************************************
 DATASETS  * FILE   NREC   LENGTH (MB)   RECORD NAMES
              1      20     2673.72       500      610      700      900      950      970     1000      129      960     1100   
                                          VAR    BASINP    GEOM    SYMINP    ZMAT    AOBASIS   BASIS     P2S    ABASIS      S 
                                         1400     1410     1200     1210     1080     1600     1650     1300     1700     1800   
                                           T        V       H0       H01     AOSYM     SMH    MOLCAS    ERIS     OPER     GRID   

              2       5        7.10       700     1000      520     1800     2200   
                                         GEOM     BASIS   MCVARS    GRID      UKS  

 PROGRAMS   *        TOTAL      IBBA       UKS       INT
 CPU TIMES  *       177.34      0.09    109.67     67.43
 REAL TIME  *       262.14 SEC
 DISK USED  *        11.96 GB      
 **********************************************************************************************************************************
 Molecular orbitals read from record     2200.2  Type=UKS/LOCAL(IBO)  
 Occupation numbers read from record     2200.2  Type=UKS/LOCAL(IBO)  
 Orbital energies read from record       2200.2  Type=UKS/LOCAL(IBO)  
 Redundancy group numbers read from rec  2200.2  Type=UKS/BETA (state 1.1)

 IBBA/QZVP energy=      0.000000000000

        UKS-SCF 
    -96.40116021
 **********************************************************************************************************************************
 Molpro calculation terminated
