
 Primary working directories    : /local
 Secondary working directories  : /local
 Wavefunction directory         : /local/
 Main file repository           : /local/

 SHA1      : b4a5b34a9e711420743f49e6833241d17c61fb3c
 NAME      : 2099.9.b4a5b34
 ARCHNAME  : linux/x86_64_openmp
 FC        : /cm/shared/languages/GCC-6.1/bin/gfortran
 BLASLIB   : -lblas
 id        : simonbennie

 Nodes     nprocs
 node33-022    1

 Using customized tuning parameters: mindgm=1; mindgv=20; mindgc=4; mindgr=1; noblas=0; minvec=7
 default implementation of scratch files=df  

 memory,500,m
 geomtyp=xyz
 nosym
 noorient
 geometry={
 C         -1.29962       -0.90485       -0.02015
 C         -1.20595        0.50582       -0.01341
 C          0.00000        1.18336        0.15330
 C          1.20595        0.50581       -0.01342
 C          1.29963       -0.90485       -0.02015
 H          2.16880       -1.32755       -0.51570
 H          1.03204       -1.45439        0.87317
 H          2.03713        1.08558       -0.39850
 H          0.00000        2.26291        0.08590
 H         -2.03713        1.08559       -0.39848
 H         -2.16880       -1.32754       -0.51572
 H         -0.00001       -1.18194       -0.52081
 H         -1.03206       -1.45439        0.87316
 }
 basis={ default,avdz }
 {hf,direct;wf,38,1,0}
 {df-ks,B-LYP,direct;maxit,0;wf,38,1,0}
 {ibba,bonds=1}

 Variables initialized (895), CPU time= 0.00 sec
 Commands  initialized (725), CPU time= 0.02 sec, 591 directives.
 Default parameters read. Elapsed time= 0.09 sec

 Checking input...
 Passed
1


                                         ***  PROGRAM SYSTEM MOLPRO  ***
                                       Copyright, TTI GmbH Stuttgart, 2015
                                    Version 2099.9 linked May 26 2017 16:03:21


 **********************************************************************************************************************************
 LABEL *                                                                                 
  64 bit serial version                                                                  DATE: 17-Mar-18          TIME: 09:58:25  
 **********************************************************************************************************************************

 SHA1:             b4a5b34a9e711420743f49e6833241d17c61fb3c
 **********************************************************************************************************************************
 SETTING GEOMTYP        =    XYZ

 Variable memory set to  500000000 words,  buffer space 

 ZSYMEL=NOSYM

 SETTING BASIS          =    AVDZ


 Recomputing integrals since basis changed


 Using spherical harmonics

 Library entry C      S aug-cc-pVDZ          selected for orbital group  1
 Library entry C      P aug-cc-pVDZ          selected for orbital group  1
 Library entry C      D aug-cc-pVDZ          selected for orbital group  1
 Library entry H      S aug-cc-pVDZ          selected for orbital group  2
 Library entry H      P aug-cc-pVDZ          selected for orbital group  2


 PROGRAM * SEWARD (Integral evaluation for generally contracted gaussian basis sets)     Author: Roland Lindh, 1990

 Geometry written to block  1 of record 700


 Point group  C1  



 ATOMIC COORDINATES

 NR  ATOM    CHARGE       X              Y              Z

   1  C       6.00   -2.455925866   -1.709918684   -0.038077981
   2  C       6.00   -2.278915220    0.955861268   -0.025341227
   3  C       6.00    0.000000000    2.236226307    0.289695015
   4  C       6.00    2.278915220    0.955842371   -0.025360125
   5  C       6.00    2.455944763   -1.709918684   -0.038077981
   6  H       1.00    4.098438019   -2.508705917   -0.974531762
   7  H       1.00    1.950272950   -2.748398778    1.650052160
   8  H       1.00    3.849617780    2.051448886   -0.753055861
   9  H       1.00    0.000000000    4.276280145    0.162327474
  10  H       1.00   -3.849617780    2.051467784   -0.753018066
  11  H       1.00   -4.098438019   -2.508687019   -0.974569557
  12  H       1.00   -0.000018897   -2.233542896   -0.984188263
  13  H       1.00   -1.950310744   -2.748398778    1.650033263

 Bond lengths in Bohr (Angstrom)

  1- 2  2.671680697   1-11  2.052533434   1-12  2.683428035   1-13  2.045435683   2- 3  2.632876193
       ( 1.413792540)       ( 1.086153918)       ( 1.420008963)       ( 1.082397950)       ( 1.393258080)

  2-10  2.048651691   3- 4  2.632887643   3- 9  2.044025966   4- 5  2.671663004   4- 8  2.048658403
       ( 1.084099788)       ( 1.393264140)       ( 1.081651960)       ( 1.413783177)       ( 1.084103340)

  5- 6  2.052508422   5- 7  2.045465293   5-12  2.683479920
       ( 1.086140682)       ( 1.082413619)       ( 1.420036420)

 Bond angles

  1- 2- 3  122.89782778   1- 2-10  118.75871624   1-12- 5  132.47234294   2- 1-11  116.32721645

  2- 1-12   97.80173434   2- 1-13  119.09588828   2- 3- 4  119.89324472   2- 3- 9  118.54820900

  3- 2-10  116.49102536   3- 4- 5  122.89852837   3- 4- 8  116.49079575   4- 3- 9  118.54851150

  4- 5- 6  116.32827193   4- 5- 7  119.09554722   4- 5-12   97.80095519   5- 4- 8  118.75838114

  6- 5- 7  112.13503634   6- 5-12  119.70875871   7- 5-12   88.03169400  11- 1-12  119.70812329

 11- 1-13  112.13482699  12- 1-13   88.03319435

 NUCLEAR CHARGE:                   38
 NUMBER OF PRIMITIVE AOS:         273
 NUMBER OF SYMMETRY AOS:          263
 NUMBER OF CONTRACTIONS:          187   ( 187A   )
 NUMBER OF CORE ORBITALS:           5   (   5A   )
 NUMBER OF VALENCE ORBITALS:       28   (  28A   )


 NUCLEAR REPULSION ENERGY  164.93668795


 Eigenvalues of metric

         1 0.186E-04 0.225E-04 0.442E-04 0.527E-04 0.637E-04 0.848E-04 0.871E-04 0.140E-03


 Contracted 2-electron integrals neglected if value below      1.0D-12
 AO integral compression algorithm  1   Integral accuracy      1.0D-12

     854.065 MB (compressed) written to integral file ( 62.3%)


 NUMBER OF SORTED TWO-ELECTRON INTEGRALS:  154501831.     BUFFER LENGTH:  32768
 NUMBER OF SEGMENTS:  10  SEGMENT LENGTH:   15999503      RECORD LENGTH: 524288

 Memory used in sort:      16.56 MW

 SORT1 READ   171475898. AND WROTE   153097897. INTEGRALS IN    443 RECORDS. CPU TIME:     2.14 SEC, REAL TIME:     4.54 SEC
 SORT2 READ   153097897. AND WROTE   154501831. INTEGRALS IN   3258 RECORDS. CPU TIME:     3.37 SEC, REAL TIME:     4.59 SEC

 FILE SIZES:   FILE 1:   885.5 MBYTE,  FILE 4:  1858.1 MBYTE,   TOTAL:   2743.6 MBYTE

 OPERATOR DM      FOR CENTER  0  COORDINATES:    0.000000    0.000000    0.000000


 **********************************************************************************************************************************
 DATASETS  * FILE   NREC   LENGTH (MB)   RECORD NAMES
              1      19      817.72       500      610      700      900      950      970     1000      129      960     1100   
                                          VAR    BASINP    GEOM    SYMINP    ZMAT    AOBASIS   BASIS     P2S    ABASIS      S 
                                         1400     1410     1200     1210     1080     1600     1650     1300     1700   
                                           T        V       H0       H01     AOSYM     SMH    MOLCAS    ERIS     OPER   

 PROGRAMS   *        TOTAL       INT
 CPU TIMES  *        14.58     14.43
 REAL TIME  *        34.98 SEC
 DISK USED  *         2.74 GB      
 **********************************************************************************************************************************


 PROGRAM * RHF-SCF (CLOSED SHELL)       Authors: W. Meyer, H.-J. Werner


 NUMBER OF ELECTRONS:      19+   19-    SPACE SYMMETRY=1    SPIN SYMMETRY: Singlet 
 CONVERGENCE THRESHOLDS:    1.00E-05 (Density)    1.00E-07 (Energy)
 INTEGRAL THRESHOLDS:       1.00E-11 (Initial)    1.00E-11 (Final)
 MAX. NUMBER OF ITERATIONS:       60
 INTERPOLATION TYPE:            DIIS
 INTERPOLATION STEPS:              2 (START)      1 (STEP)
 LEVEL SHIFTS:                  0.00 (CLOSED)  0.00 (OPEN) 



 Orbital guess generated from atomic densities. Full valence occupancy:   33

 Molecular orbital dump at record        2100.2

 Initial occupancy:  19

 Direct Fock-matrix evaluation.        Authors: Roland Lindh & Martin Schuetz (1993/96)

 Integral Threshold:                  0.1D-10
 Threshold for writing integrals:     0.1D-06
 Prescreening on density matrix:        ON 
 Calculation will be performed fully direct        

 ITERATION   DDIFF            GRAD            ENERGY        2-EL.EN.            DIPOLE MOMENTS         DIIS   CPU(IT)  CPU(TOT)
    1      0.000D+00      0.000D+00      -193.83015390    458.515928    0.00001   -0.35195   -0.13928    0      8.9     11.0     start
    2      0.000D+00      0.321D-02      -193.88140999    454.450002    0.00000    0.11606   -0.03413    1      8.1     19.1     diag
    3      0.801D-02      0.127D-02      -193.88771790    456.359576    0.00001   -0.08144   -0.10971    2      8.2     27.3     diag
    4      0.293D-02      0.454D-03      -193.88888207    455.889859    0.00000    0.00230   -0.10101    3      8.8     36.1     diag
    5      0.128D-02      0.111D-03      -193.88894073    455.863519    0.00001   -0.02393   -0.10732    4      8.8     44.9     diag
    6      0.283D-03      0.343D-04      -193.88894999    455.880728    0.00001   -0.01604   -0.10700    5      8.5     53.4     diag
    7      0.118D-03      0.120D-04      -193.88895132    455.877792    0.00001   -0.01770   -0.10827    6      8.2     61.6     diag
    8      0.391D-04      0.458D-05      -193.88895164    455.878104    0.00001   -0.01714   -0.10814    7      8.2     69.8     diag
    9      0.216D-04      0.172D-05      -193.88895171    455.878232    0.00001   -0.01677   -0.10825    8      8.4     78.1     diag
   10      0.935D-05      0.838D-06      -193.88895171    455.878242    0.00001   -0.01678   -0.10819    0      8.3     86.5     orth

 Final occupancy:  19

 !RHF STATE 1.1 Energy               -193.888951712404
 Nuclear energy                       164.93668795
 One-electron energy                 -586.76476073
 Two-electron energy                  227.93912106
 Virial quotient                       -1.00078845
 !RHF STATE 1.1 Dipole moment           0.00000547    -0.01677620    -0.10819310
 Dipole moment /Debye                   0.00001390    -0.04263805    -0.27498141

 Orbital energies:

         1.1          2.1          3.1          4.1          5.1          6.1          7.1          8.1          9.1         10.1
    -11.248024   -11.247987   -11.233724   -11.233723   -11.233181    -1.119730    -1.010022    -0.945164    -0.810027    -0.728917

        11.1         12.1         13.1         14.1         15.1         16.1         17.1         18.1         19.1         20.1
     -0.678507    -0.592593    -0.579705    -0.571276    -0.535389    -0.518519    -0.498713    -0.353281    -0.304777     0.036732

        21.1
      0.045411

 HOMO     19.1    -0.304777 =      -8.2934eV
 LUMO     20.1     0.036732 =       0.9995eV
 LUMO-HOMO         0.341509 =       9.2929eV


 **********************************************************************************************************************************
 DATASETS  * FILE   NREC   LENGTH (MB)   RECORD NAMES
              1      19      817.72       500      610      700      900      950      970     1000      129      960     1100   
                                          VAR    BASINP    GEOM    SYMINP    ZMAT    AOBASIS   BASIS     P2S    ABASIS      S 
                                         1400     1410     1200     1210     1080     1600     1650     1300     1700   
                                           T        V       H0       H01     AOSYM     SMH    MOLCAS    ERIS     OPER   

              2       4        3.68       700     1000      520     2100   
                                         GEOM     BASIS   MCVARS     RHF  

 PROGRAMS   *        TOTAL        HF       INT
 CPU TIMES  *       101.09     86.51     14.43
 REAL TIME  *       158.91 SEC
 DISK USED  *         2.74 GB      
 **********************************************************************************************************************************

 Density functional group B-LYP=B88+LYP
 Functional: B88(Automatically generated (new) B88)                            Gradient terms: 1
 Functional: LYP(Automatically generated (new) LYP)                            Gradient terms: 1
 Use grid at  1800.2

 Functional: B88                       Factor:  1.0000
 Functional: LYP                       Factor:  1.0000

 Generated new metagrid on record  1800.2 with target accuracy 1.0D-06 and 48308 points in CPU time    1.3
 Computed new grid on record 1800.1 in CPU time    1.4
  152971 words reserved for DFT integration

 PROGRAM * RKS-SCF (Restricted closed shell Kohn-Sham)     Authors: W. Meyer, H.-J. Werner, P.J. Knowles, 1993

 NUMBER OF ELECTRONS:      19+   19-    SPACE SYMMETRY=1    SPIN SYMMETRY: Singlet 
 CONVERGENCE THRESHOLDS:    1.00E-05 (Density)    1.00E-06 (Energy)
 INTEGRAL THRESHOLDS:       1.00E-11 (Initial)    1.00E-11 (Final)
 MAX. NUMBER OF ITERATIONS:        0
 INTERPOLATION TYPE:            DIIS
 INTERPOLATION STEPS:              2 (START)      1 (STEP)
 LEVEL SHIFTS:                  0.00 (CLOSED)  0.00 (OPEN) 



 Use fine grid record 1800.2 for energy threshold  1.0D-06

 Basis set AUG-CC-PVDZ/JKFIT generated.  Number of basis functions:   686 
 Coulomb fitting
 Screening thresholds:    THRAO_COUL= 1.0D-14    THRAO= 1.0D-12    THROV= 1.0D-12

 Reserved 12 MW to cache 100.0% of significant integrals. CPU: 0.5 sec

 Molecular orbitals read from record     2100.2  Type=RHF/CANONICAL (state 1.1)

 Molecular orbital dump at record        2101.2

 ITERATION   DDIFF            GRAD            ENERGY        2-EL.EN.            DIPOLE MOMENTS         DIIS   CPU(IT)  CPU(TOT)  ORB.
    1      0.000D+00      0.000D+00      -195.12121760    513.240897    0.00001   -0.01678   -0.10819    0      2.4      3.0     start

 Final occupancy:  19

 !RKS STATE 1.1 Energy               -195.121217596432
 Nuclear energy                       164.93668795
 One-electron energy                 -586.76476073
 Two-electron energy                  256.62044837
 Density functional                   -29.91359319     B88=-28.68863797 LYP= -1.22495522
 Virial quotient                       -1.00714898
 !RKS STATE 1.1 Dipole moment           0.00000547    -0.01677620    -0.10819310
 Dipole moment /Debye                   0.00001390    -0.04263805    -0.27498141

 Orbital energies:

         1.1          2.1          3.1          4.1          5.1          6.1          7.1          8.1          9.1         10.1
    -11.248024   -11.247987   -11.233724   -11.233723   -11.233181    -1.119730    -1.010022    -0.945164    -0.810027    -0.728917

        11.1         12.1         13.1         14.1         15.1         16.1         17.1         18.1         19.1         20.1
     -0.678507    -0.592593    -0.579705    -0.571276    -0.535389    -0.518519    -0.498713    -0.353281    -0.304777     0.036732

        21.1
      0.045411

 HOMO     19.1    -0.304777 =      -8.2934eV
 LUMO     20.1     0.036732 =       0.9995eV
 LUMO-HOMO         0.341509 =       9.2929eV


 **********************************************************************************************************************************
 DATASETS  * FILE   NREC   LENGTH (MB)   RECORD NAMES
              1      20      819.26       500      610      700      900      950      970     1000      129      960     1100   
                                          VAR    BASINP    GEOM    SYMINP    ZMAT    AOBASIS   BASIS     P2S    ABASIS      S 
                                         1400     1410     1200     1210     1080     1600     1650     1300     1700     1800   
                                           T        V       H0       H01     AOSYM     SMH    MOLCAS    ERIS     OPER     GRID   

              2       6        7.60       700     1000      520     2100     1800     2101   
                                         GEOM     BASIS   MCVARS     RHF     GRID      RKS  

 PROGRAMS   *        TOTAL        KS        HF       INT
 CPU TIMES  *       105.54      4.45     86.51     14.43
 REAL TIME  *       163.49 SEC
 DISK USED  *         2.74 GB      
 **********************************************************************************************************************************


 PROGRAM * Intrinsic Basis Bonding Analysis (IBBA)          Author: G. Knizia

 Molecular orbitals read from record     2101.2  Type=RKS/CANONICAL (state 1.1)
 Fock matrix read from record            2101.2  Type=RKS/TOTAL (state 1.1)
 Orbital energies read from record       2101.2  Type=RKS/CANONICAL (state 1.1)
 Density matrix read from record         2101.2  Type=RKS/CHARGE (state 1.1)

 Number of core orbitals:           5 (   5 )
 Number of closed-shell orbitals:  14 (  14 )

 Basis set MINAO-AUTO-PP generated.      Number of basis functions:   33 

 Polarized AO type:                A = (O Ot + (1-O)(1-Ot)) P12
 Orthogonalization method:         Symmetric (Loewdin)
 Localization functional:          L = sum[A,i] <i|n_A|i>^4 -> max

 Localization group 1:  19 orbitals, occupancy  2.000
 Iterative localization: IB/PM,   12 iter; Final gradient 0.20E-08

 Bond order analysis:       [THRPRINT= 0.020]

   CEN ATOM   CEN ATOM     WIBERG.BO      RENORM.BO
     1   C  -   2   C       1.390850       1.375224
     1   C  -  11   H       0.962076       0.979544
     1   C  -  13   H       0.943223       0.975335
     1   C  -  12   H       0.464281       0.487154
     1   C  -   4   C       0.143150       0.138282

     2   C  -   3   C       1.459308       1.456797
     2   C  -   1   C       1.390850       1.375224
     2   C  -  10   H       0.946168       0.969258
     2   C  -   5   C       0.143155       0.138288

     3   C  -   2   C       1.459308       1.456797
     3   C  -   4   C       1.459259       1.456747
     3   C  -   9   H       0.952792       0.975337
     3   C  -  12   H       0.037181       0.040905

     4   C  -   3   C       1.459259       1.456747
     4   C  -   5   C       1.390905       1.375278
     4   C  -   8   H       0.946168       0.969258
     4   C  -   1   C       0.143150       0.138282

     5   C  -   4   C       1.390905       1.375278
     5   C  -   6   H       0.962075       0.979544
     5   C  -   7   H       0.943222       0.975334
     5   C  -  12   H       0.464225       0.487098
     5   C  -   2   C       0.143155       0.138288

     6   H  -   5   C       0.962075       0.979544

     7   H  -   5   C       0.943222       0.975334

     8   H  -   4   C       0.946168       0.969258

     9   H  -   3   C       0.952792       0.975337

    10   H  -   2   C       0.946168       0.969258

    11   H  -   1   C       0.962076       0.979544

    12   H  -   1   C       0.464281       0.487154
    12   H  -   5   C       0.464225       0.487098
    12   H  -   3   C       0.037181       0.040905

    13   H  -   1   C       0.943223       0.975335


 Valency analysis:

   CEN ATOM   TOT.VALENCE
     1   C       3.948444
     2   C       3.968367
     3   C       3.969911
     4   C       3.968368
     5   C       3.948444
     6   H       0.982469
     7   H       0.979051
     8   H       0.979943
     9   H       0.980943
    10   H       0.979943
    11   H       0.982470
    12   H       0.982211
    13   H       0.979050

 Total charge composition:

   CEN ATOM         s          p       ELECTRONS ->P.CHARGE
     1   C       3.04447    3.30978      6.35425   -0.35425
     2   C       2.97826    3.13023      6.10849   -0.10849
     3   C       2.96618    3.21730      6.18348   -0.18348
     4   C       2.97826    3.13023      6.10849   -0.10849
     5   C       3.04447    3.30977      6.35424   -0.35424
     6   H       0.86759                 0.86759    0.13241
     7   H       0.85526                 0.85526    0.14474
     8   H       0.85838                 0.85838    0.14162
     9   H       0.86195                 0.86195    0.13805
    10   H       0.85838                 0.85838    0.14162
    11   H       0.86760                 0.86760    0.13240
    12   H       0.86662                 0.86662    0.13338
    13   H       0.85526                 0.85526    0.14474

 Total charge composition, AO contributions:

   CEN ATOM SHL      SPHERICAL COMPONENTS
     1   C  1s       1.99017
     1   C  2s       1.05430
     1   C  2p       1.10970    1.07124    1.12883

     2   C  1s       1.98928
     2   C  2s       0.98898
     2   C  2p       1.08982    1.06379    0.97662

     3   C  1s       1.98899
     3   C  2s       0.97719
     3   C  2p       1.03749    1.12545    1.05437

     4   C  1s       1.98928
     4   C  2s       0.98898
     4   C  2p       1.08982    1.06379    0.97662

     5   C  1s       1.99017
     5   C  2s       1.05430
     5   C  2p       1.10970    1.07124    1.12883

     6   H  1s       0.86759

     7   H  1s       0.85526

     8   H  1s       0.85838

     9   H  1s       0.86195

    10   H  1s       0.85838

    11   H  1s       0.86760

    12   H  1s       0.86662

    13   H  1s       0.85526

 Summary of localized orbital composition:   [THRPRINT= 0.020]

   ORB  GRP  ORB.ENERGY      CENTERS/CHARGES
     1   1    -9.841391      C  4   2.000
     2   1    -9.841391      C  2   2.000
     3   1    -9.833930      C  5   2.000
     4   1    -9.833929      C  1   2.000
     5   1    -9.824705      C  3   2.000
     6   1    -0.637635      C  2   0.998   C  3   0.989
     7   1    -0.637631      C  4   0.998   C  3   0.989
     8   1    -0.620343      C  4   1.008   C  5   0.983
     9   1    -0.620335      C  2   1.008   C  1   0.983
    10   1    -0.479980      C  1   1.132   H 13   0.839   (other: 0.029)
    11   1    -0.479975      C  5   1.132   H  7   0.839   (other: 0.029)
    12   1    -0.477444      C  2   1.135   H 10   0.847
    13   1    -0.477442      C  4   1.135   H  8   0.847
    14   1    -0.471275      C  3   1.135   H  9   0.851
    15   1    -0.466014      C  5   1.132   H  6   0.859
    16   1    -0.466006      C  1   1.132   H 11   0.859
    17   1    -0.316352      C  1   1.094   H 12   0.411   C  2   0.357   C  4   0.124
    18   1    -0.316344      C  5   1.094   H 12   0.411   C  4   0.357   C  2   0.124
    19   1    -0.276030      C  3   1.049   C  2   0.454   C  4   0.454   H 12   0.025

 Localized orbitals saved to record      2101.2  (orbital set 2)


 **********************************************************************************************************************************
 DATASETS  * FILE   NREC   LENGTH (MB)   RECORD NAMES
              1      20      819.26       500      610      700      900      950      970     1000      129      960     1100   
                                          VAR    BASINP    GEOM    SYMINP    ZMAT    AOBASIS   BASIS     P2S    ABASIS      S 
                                         1400     1410     1200     1210     1080     1600     1650     1300     1700     1800   
                                           T        V       H0       H01     AOSYM     SMH    MOLCAS    ERIS     OPER     GRID   

              2       6        7.88       700     1000      520     2100     1800     2101   
                                         GEOM     BASIS   MCVARS     RHF     GRID      RKS  

 PROGRAMS   *        TOTAL      IBBA        KS        HF       INT
 CPU TIMES  *       105.59      0.05      4.45     86.51     14.43
 REAL TIME  *       163.56 SEC
 DISK USED  *         2.74 GB      
 **********************************************************************************************************************************

 IBBA/aug-cc-pVDZ energy=      0.000000000000

        DF-KS           HF-SCF  
   -195.12121760   -193.88895171
 **********************************************************************************************************************************
 Molpro calculation terminated
