
 Primary working directories    : /local/molpro.Z9YS5NxVUX
 Secondary working directories  : /local/molpro.Z9YS5NxVUX
 Wavefunction directory         : /local/
 Main file repository           : /local/molpro.Z9YS5NxVUX/

 id        : simonbennie

 Nodes     nprocs
 node33-001    1

 Using customized tuning parameters: mindgm=1; mindgv=20; mindgc=4; mindgr=1; noblas=0; minvec=7
 default implementation of scratch files=df  

 memory,500,m
 geomtyp=xyz
 nosym
 noorient
 geometry={
 C         -1.29962       -0.90485       -0.02015
 C         -1.20595        0.50582       -0.01341
 C          0.00000        1.18336        0.15330
 C          1.20595        0.50581       -0.01342
 C          1.29963       -0.90485       -0.02015
 H          2.16880       -1.32755       -0.51570
 H          1.03204       -1.45439        0.87317
 H          2.03713        1.08558       -0.39850
 H          0.00000        2.26291        0.08590
 H         -2.03713        1.08559       -0.39848
 H         -2.16880       -1.32754       -0.51572
 H         -0.00001       -1.18194       -0.52081
 H         -1.03206       -1.45439        0.87316
 }
 basis={default,sto-3g}
 {hf,direct;wf,38,1,0}
 
 basis={ default,6-31+G(d,p) }
 {ks,BH-LYP,direct;wf,38,1,0}
 {ibba,bonds=1}

 Variables initialized (920), CPU time= 0.00 sec
 Commands  initialized (754), CPU time= 0.01 sec, 615 directives.
 Default parameters read. Elapsed time= 0.16 sec

 Checking input...
 Passed
1


                                         ***  PROGRAM SYSTEM MOLPRO  ***
                                       Copyright, TTI GmbH Stuttgart, 2015
                                    Version 2018.0 linked Jul  6 2018 18:07:13


 **********************************************************************************************************************************
 LABEL *                                                                                 
  64 bit serial version                                                                  DATE: 10-Oct-18          TIME: 16:33:03  
 **********************************************************************************************************************************

 SHA1:             b58f8fddb9d75525be9261ebe3faf0e4279c479b
 **********************************************************************************************************************************
 SETTING GEOMTYP        =    XYZ

 Variable memory set to  500000000 words,  buffer space 

 ZSYMEL=NOSYM

 SETTING BASIS          =    STO-3G


 Recomputing integrals since basis changed


 Using spherical harmonics

 Library entry C      S STO-3G               selected for orbital group  1
 Library entry C      P STO-3G               selected for orbital group  1
 Library entry H      S STO-3G               selected for orbital group  2


 PROGRAM * SEWARD (Integral evaluation for generally contracted gaussian basis sets)     Author: Roland Lindh, 1990

 Geometry written to block  1 of record 700


 Point group  C1  



 ATOMIC COORDINATES

 NR  ATOM    CHARGE       X              Y              Z

   1  C       6.00   -2.455925866   -1.709918684   -0.038077981
   2  C       6.00   -2.278915220    0.955861268   -0.025341227
   3  C       6.00    0.000000000    2.236226307    0.289695015
   4  C       6.00    2.278915220    0.955842371   -0.025360125
   5  C       6.00    2.455944763   -1.709918684   -0.038077981
   6  H       1.00    4.098438019   -2.508705917   -0.974531762
   7  H       1.00    1.950272950   -2.748398778    1.650052160
   8  H       1.00    3.849617780    2.051448886   -0.753055861
   9  H       1.00    0.000000000    4.276280145    0.162327474
  10  H       1.00   -3.849617780    2.051467784   -0.753018066
  11  H       1.00   -4.098438019   -2.508687019   -0.974569557
  12  H       1.00   -0.000018897   -2.233542896   -0.984188263
  13  H       1.00   -1.950310744   -2.748398778    1.650033263

 Bond lengths in Bohr (Angstrom)

  1- 2  2.671680697   1-11  2.052533434   1-12  2.683428035   1-13  2.045435683   2- 3  2.632876193
       ( 1.413792540)       ( 1.086153918)       ( 1.420008963)       ( 1.082397950)       ( 1.393258080)

  2-10  2.048651691   3- 4  2.632887643   3- 9  2.044025966   4- 5  2.671663004   4- 8  2.048658403
       ( 1.084099788)       ( 1.393264140)       ( 1.081651960)       ( 1.413783177)       ( 1.084103340)

  5- 6  2.052508422   5- 7  2.045465293   5-12  2.683479920
       ( 1.086140682)       ( 1.082413619)       ( 1.420036420)

 Bond angles

  1- 2- 3  122.89782778   1- 2-10  118.75871624   1-12- 5  132.47234294   2- 1-11  116.32721645

  2- 1-12   97.80173434   2- 1-13  119.09588828   2- 3- 4  119.89324472   2- 3- 9  118.54820900

  3- 2-10  116.49102536   3- 4- 5  122.89852837   3- 4- 8  116.49079575   4- 3- 9  118.54851150

  4- 5- 6  116.32827193   4- 5- 7  119.09554722   4- 5-12   97.80095519   5- 4- 8  118.75838114

  6- 5- 7  112.13503634   6- 5-12  119.70875871   7- 5-12   88.03169400  11- 1-12  119.70812329

 11- 1-13  112.13482699  12- 1-13   88.03319435

 NUCLEAR CHARGE:                   38
 NUMBER OF PRIMITIVE AOS:          99
 NUMBER OF SYMMETRY AOS:           99
 NUMBER OF CONTRACTIONS:           33   (  33A   )
 NUMBER OF CORE ORBITALS:           5   (   5A   )
 NUMBER OF VALENCE ORBITALS:       28   (  28A   )


 NUCLEAR REPULSION ENERGY  164.93668795


 Eigenvalues of metric

         1 0.184E+00 0.213E+00 0.226E+00 0.252E+00 0.296E+00 0.304E+00 0.313E+00 0.330E+00


 Contracted 2-electron integrals neglected if value below      1.0D-11
 AO integral compression algorithm  1   Integral accuracy      1.0D-11

     1.311 MB (compressed) written to integral file ( 78.6%)


 NUMBER OF SORTED TWO-ELECTRON INTEGRALS:     157641.     BUFFER LENGTH:  32768
 NUMBER OF SEGMENTS:   1  SEGMENT LENGTH:     157641      RECORD LENGTH: 524288

 Memory used in sort:       0.71 MW

 SORT1 READ      179750. AND WROTE      152549. INTEGRALS IN      1 RECORDS. CPU TIME:     0.00 SEC, REAL TIME:     0.01 SEC
 SORT2 READ      152549. AND WROTE      157641. INTEGRALS IN      5 RECORDS. CPU TIME:     0.02 SEC, REAL TIME:     0.02 SEC

 FILE SIZES:   FILE 1:    31.5 MBYTE,  FILE 4:     4.2 MBYTE,   TOTAL:     35.7 MBYTE

 OPERATOR DM      FOR CENTER  0  COORDINATES:    0.000000    0.000000    0.000000


 **********************************************************************************************************************************
 DATASETS  * FILE   NREC   LENGTH (MB)   RECORD NAMES
              1      19       30.88       500      610      700      900      950      970     1000      129      960     1100   
                                          VAR    BASINP    GEOM    SYMINP    ZMAT    AOBASIS   BASIS     P2S    ABASIS      S 
                                         1400     1410     1200     1210     1080     1600     1650     1300     1700   
                                           T        V       H0       H01     AOSYM     SMH    MOLCAS    ERIS     OPER   

 PROGRAMS   *        TOTAL       INT
 CPU TIMES  *         0.62      0.48
 REAL TIME  *         1.23 SEC
 DISK USED  *        36.22 MB
 **********************************************************************************************************************************


 PROGRAM * RHF-SCF (CLOSED SHELL)       Authors: W. Meyer, H.-J. Werner


 NUMBER OF ELECTRONS:      19+   19-    SPACE SYMMETRY=1    SPIN SYMMETRY: Singlet 
 CONVERGENCE THRESHOLDS:    1.00E-05 (Density)    1.00E-07 (Energy)
 INTEGRAL THRESHOLDS:       1.00E-11 (Initial)    1.00E-11 (Final)
 MAX. NUMBER OF ITERATIONS:       60
 INTERPOLATION TYPE:            DIIS
 INTERPOLATION STEPS:              2 (START)      1 (STEP)
 LEVEL SHIFTS:                  0.00 (CLOSED)  0.00 (OPEN) 



 Orbital guess generated from atomic densities. Full valence occupancy:   19

 Molecular orbital dump at record        2100.2

 Initial occupancy:  19

 Direct Fock-matrix evaluation.        Authors: Roland Lindh & Martin Schuetz (1993/96)

 Integral Threshold:                  0.1D-10
 Threshold for writing integrals:     0.1D-06
 Prescreening on density matrix:        ON 
 Calculation will be performed fully direct        

 ITERATION   DDIFF            GRAD            ENERGY        2-EL.EN.            DIPOLE MOMENTS         DIIS   CPU(IT)  CPU(TOT)
    1      0.000D+00      0.000D+00      -191.39330067    465.500054    0.00001   -0.31613   -0.20453    0      0.9      1.6     start
    2      0.000D+00      0.159D-01      -191.49720411    457.887523    0.00000    0.08694   -0.01586    1      0.6      2.2     diag
    3      0.325D-01      0.204D-02      -191.49870192    458.451578    0.00001   -0.03945   -0.04991    2      0.6      2.8     diag
    4      0.379D-02      0.491D-03      -191.49883012    458.432725    0.00001    0.01497   -0.03998    3      0.6      3.4     diag
    5      0.116D-02      0.251D-03      -191.49886018    458.431583    0.00001    0.00647   -0.04292    4      0.6      4.0     diag
    6      0.456D-03      0.736D-04      -191.49886680    458.432235    0.00001    0.00911   -0.04371    5      0.6      4.6     diag
    7      0.313D-03      0.248D-04      -191.49886759    458.432554    0.00001    0.01009   -0.04401    6      0.6      5.2     diag
    8      0.138D-03      0.423D-05      -191.49886761    458.432530    0.00001    0.01017   -0.04401    7      0.6      5.8     diag
    9      0.137D-04      0.208D-05      -191.49886762    458.432545    0.00001    0.01024   -0.04401    8      0.6      6.3     diag
   10      0.800D-05      0.361D-06      -191.49886762    458.432544    0.00001    0.01024   -0.04401    0      0.6      7.0     orth

 Final occupancy:  19

 !RHF STATE  1.1 Energy              -191.498867615759
 Nuclear energy                       164.93668795
 One-electron energy                 -585.65182781
 Two-electron energy                  229.21627225
 Virial quotient                       -1.00650770
 !RHF STATE  1.1 Dipole moment          0.00000821     0.01023963    -0.04401216
 Dipole moment /Debye                   0.00002086     0.02602484    -0.11186041

 Orbital energies:

         1.1          2.1          3.1          4.1          5.1          6.1          7.1          8.1          9.1         10.1
    -11.031752   -11.031683   -11.016804   -11.016714   -11.016047    -1.059149    -0.951337    -0.888743    -0.756699    -0.679644

        11.1         12.1         13.1         14.1         15.1         16.1         17.1         18.1         19.1         20.1
     -0.631186    -0.543941    -0.526665    -0.523473    -0.490088    -0.460974    -0.446902    -0.296990    -0.240850     0.228892

        21.1
      0.327369


 HOMO     19.1    -0.240850 =      -6.5539eV
 LUMO     20.1     0.228892 =       6.2285eV
 LUMO-HOMO         0.469742 =      12.7823eV


 **********************************************************************************************************************************
 DATASETS  * FILE   NREC   LENGTH (MB)   RECORD NAMES
              1      19       30.88       500      610      700      900      950      970     1000      129      960     1100   
                                          VAR    BASINP    GEOM    SYMINP    ZMAT    AOBASIS   BASIS     P2S    ABASIS      S 
                                         1400     1410     1200     1210     1080     1600     1650     1300     1700   
                                           T        V       H0       H01     AOSYM     SMH    MOLCAS    ERIS     OPER   

              2       4        2.98       700     1000      520     2100   
                                         GEOM     BASIS   MCVARS     RHF  

 PROGRAMS   *        TOTAL    HF-SCF       INT
 CPU TIMES  *         7.59      6.97      0.48
 REAL TIME  *         9.79 SEC
 DISK USED  *        36.22 MB
 **********************************************************************************************************************************
 SETTING BASIS          =    6-31+G(D,P)


 Recomputing integrals since basis changed


 Using spherical harmonics

 Library entry C      S 6-31G                selected for orbital group  1
 Library entry C      S 6-31++G              selected for orbital group  1
 Library entry C      P 6-31G                selected for orbital group  1
 Library entry C      P 6-31++G              selected for orbital group  1
 Library entry C      D 6-31G*               selected for orbital group  1
 Library entry H      S 6-31G                selected for orbital group  2
 Library entry H      P 6-31G**              selected for orbital group  2


 PROGRAM * SEWARD (Integral evaluation for generally contracted gaussian basis sets)     Author: Roland Lindh, 1990

 Geometry written to block  1 of record 700


 Point group  C1  



 ATOMIC COORDINATES

 NR  ATOM    CHARGE       X              Y              Z

   1  C       6.00   -2.455925866   -1.709918684   -0.038077981
   2  C       6.00   -2.278915220    0.955861268   -0.025341227
   3  C       6.00    0.000000000    2.236226307    0.289695015
   4  C       6.00    2.278915220    0.955842371   -0.025360125
   5  C       6.00    2.455944763   -1.709918684   -0.038077981
   6  H       1.00    4.098438019   -2.508705917   -0.974531762
   7  H       1.00    1.950272950   -2.748398778    1.650052160
   8  H       1.00    3.849617780    2.051448886   -0.753055861
   9  H       1.00    0.000000000    4.276280145    0.162327474
  10  H       1.00   -3.849617780    2.051467784   -0.753018066
  11  H       1.00   -4.098438019   -2.508687019   -0.974569557
  12  H       1.00   -0.000018897   -2.233542896   -0.984188263
  13  H       1.00   -1.950310744   -2.748398778    1.650033263

 Bond lengths in Bohr (Angstrom)

  1- 2  2.671680697   1-11  2.052533434   1-12  2.683428035   1-13  2.045435683   2- 3  2.632876193
       ( 1.413792540)       ( 1.086153918)       ( 1.420008963)       ( 1.082397950)       ( 1.393258080)

  2-10  2.048651691   3- 4  2.632887643   3- 9  2.044025966   4- 5  2.671663004   4- 8  2.048658403
       ( 1.084099788)       ( 1.393264140)       ( 1.081651960)       ( 1.413783177)       ( 1.084103340)

  5- 6  2.052508422   5- 7  2.045465293   5-12  2.683479920
       ( 1.086140682)       ( 1.082413619)       ( 1.420036420)

 Bond angles

  1- 2- 3  122.89782778   1- 2-10  118.75871624   1-12- 5  132.47234294   2- 1-11  116.32721645

  2- 1-12   97.80173434   2- 1-13  119.09588828   2- 3- 4  119.89324472   2- 3- 9  118.54820900

  3- 2-10  116.49102536   3- 4- 5  122.89852837   3- 4- 8  116.49079575   4- 3- 9  118.54851150

  4- 5- 6  116.32827193   4- 5- 7  119.09554722   4- 5-12   97.80095519   5- 4- 8  118.75838114

  6- 5- 7  112.13503634   6- 5-12  119.70875871   7- 5-12   88.03169400  11- 1-12  119.70812329

 11- 1-13  112.13482699  12- 1-13   88.03319435

 NUCLEAR CHARGE:                   38
 NUMBER OF PRIMITIVE AOS:         216
 NUMBER OF SYMMETRY AOS:          211
 NUMBER OF CONTRACTIONS:          130   ( 130A   )
 NUMBER OF CORE ORBITALS:           5   (   5A   )
 NUMBER OF VALENCE ORBITALS:       28   (  28A   )


 NUCLEAR REPULSION ENERGY  164.93668795


 Eigenvalues of metric

         1 0.475E-04 0.620E-04 0.864E-04 0.200E-03 0.237E-02 0.398E-02 0.523E-02 0.704E-02


 Contracted 2-electron integrals neglected if value below      1.0D-12
 AO integral compression algorithm  1   Integral accuracy      1.0D-12

     164.102 MB (compressed) written to integral file ( 52.0%)


 NUMBER OF SORTED TWO-ELECTRON INTEGRALS:   36256870.     BUFFER LENGTH:  32768
 NUMBER OF SEGMENTS:   3  SEGMENT LENGTH:   15998004      RECORD LENGTH: 524288

 Memory used in sort:      16.56 MW

 SORT1 READ    39399191. AND WROTE    33412081. INTEGRALS IN     96 RECORDS. CPU TIME:     0.46 SEC, REAL TIME:     1.96 SEC
 SORT2 READ    33412081. AND WROTE    36256870. INTEGRALS IN    626 RECORDS. CPU TIME:     0.96 SEC, REAL TIME:     1.27 SEC

 FILE SIZES:   FILE 1:   194.9 MBYTE,  FILE 4:   402.7 MBYTE,   TOTAL:    597.6 MBYTE

 OPERATOR DM      FOR CENTER  0  COORDINATES:    0.000000    0.000000    0.000000


 **********************************************************************************************************************************
 DATASETS  * FILE   NREC   LENGTH (MB)   RECORD NAMES
              1      19      177.26       500      610      700      900      950      970     1001      129      960     1100   
                                          VAR    BASINP    GEOM    SYMINP    ZMAT    AOBASIS   BASIS     P2S    ABASIS      S 
                                         1400     1410     1200     1210     1080     1600     1650     1300     1700   
                                           T        V       H0       H01     AOSYM     SMH    MOLCAS    ERIS     OPER   

              2       5        3.03       700     1000      520     2100     1001   
                                         GEOM     BASIS   MCVARS     RHF     BASIS   

 PROGRAMS   *        TOTAL       INT    HF-SCF       INT
 CPU TIMES  *        12.27      4.68      6.97      0.48
 REAL TIME  *        17.47 SEC
 DISK USED  *       600.69 MB
 **********************************************************************************************************************************

 Density functional group BH-LYP=B88+LYP
 Functional: B88(Automatically generated (new) B88)                            Gradient terms: 1
 Functional: LYP(Automatically generated (new) LYP)                            Gradient terms: 1
 Use libxcgrid:  F
 Use grid at  1800.2


 Exact exchange will be calculated, factor:  0.5000

 Functional: B88                       Factor:  0.5000
 Functional: LYP                       Factor:  1.0000

 Generated new metagrid on record  1800.2 with target accuracy 1.0D-06 and 48308 points in CPU time    1.1
 Computed new grid on record 1800.1 in CPU time    1.2
  107560 words reserved for DFT integration

 PROGRAM * RKS-SCF (Restricted closed shell Kohn-Sham)     Authors: W. Meyer, H.-J. Werner, P.J. Knowles, 1993

 NUMBER OF ELECTRONS:      19+   19-    SPACE SYMMETRY=1    SPIN SYMMETRY: Singlet 
 CONVERGENCE THRESHOLDS:    1.00E-05 (Density)    1.00E-06 (Energy)
 MAX. NUMBER OF ITERATIONS:       60
 INTERPOLATION TYPE:            DIIS
 INTERPOLATION STEPS:              2 (START)      1 (STEP)
 LEVEL SHIFTS:                  0.00 (CLOSED)  0.00 (OPEN) 



 Use fine grid record 1800.2 for energy threshold  1.0D-06
 Molecular orbitals read from record     2100.2  Type=RHF/CANONICAL (state 1.1)

 Present basis size:     130
 Previous basis size:     33
 Previous occupation:     19
 Previous closed-shells:  19
 Previous core-orbitals:   5
 Present occupation:      19
 Present closed-shells:   19
 Present core-orbitals:    5
 Wavefunction symmetry:    1   Singlet 

 Orbital overlap <old|new>:  < 1.1| 1.1> = 0.999833   < 2.1| 2.1> = 0.999833   < 3.1| 3.1> = 0.999833   < 4.1| 4.1> = 0.999833
                             < 5.1| 5.1> = 0.999833   < 6.1| 6.1> = 0.999904   < 7.1| 7.1> = 0.999893   < 8.1| 8.1> = 0.999878
                             < 9.1| 9.1> = 0.999804   <10.1|10.1> = 0.999738   <11.1|11.1> = 0.999571   <12.1|12.1> = 0.999513
                             <13.1|13.1> = 0.999605   <14.1|14.1> = 0.999275   <15.1|15.1> = 0.999395   <16.1|16.1> = 0.999403
                             <17.1|17.1> = 0.999471   <18.1|18.1> = 0.999081   <19.1|19.1> = 0.998966


 Molecular orbital dump at record        2101.2

 ITERATION    DDIFF          GRAD             ENERGY        2-EL.EN.            DIPOLE MOMENTS         DIIS   ORB.
    1      0.000D+00      0.000D+00      -194.89450882    488.337247    0.00001    0.00507   -0.06176    0    start
    2      0.000D+00      0.109D-01      -195.11720227    484.867899    0.00001   -0.06193   -0.05795    1    diag
    3      0.360D-01      0.132D-02      -195.12201583    486.459258    0.00000    0.03590   -0.10392    2    diag
    4      0.375D-02      0.649D-03      -195.12301141    485.453670    0.00001   -0.05274   -0.11350    3    diag
    5      0.164D-02      0.207D-03      -195.12311050    485.581926    0.00000   -0.01160   -0.10777    4    diag
    6      0.357D-03      0.704D-04      -195.12312213    485.629608    0.00001   -0.03039   -0.11344    5    diag
    7      0.166D-03      0.186D-04      -195.12312312    485.620352    0.00000   -0.02623   -0.11339    6    diag
    8      0.465D-04      0.260D-05      -195.12312314    485.619628    0.00001   -0.02662   -0.11333    7    orth
    9      0.145D-04      0.122D-05      -195.12312315    485.619891    0.00000   -0.02657   -0.11334    8    diag
   10      0.313D-05      0.227D-06      -195.12312315    485.619767    0.00000   -0.02656   -0.11337    0    orth

 Final occupancy:  19

 !RKS STATE  1.1 Energy              -195.123123146156
 Nuclear energy                       164.93668795
 One-electron energy                 -587.27854983
 Two-electron energy                  242.80988349
 SCF exchange energy                  -28.68378287     Factor= 0.5000
 Density functional                   -15.59114475     B88=-28.72825595 LYP= -1.22701678
 Virial quotient                       -1.00627070
 !RKS STATE  1.1 Dipole moment          0.00000498    -0.02655670    -0.11336817
 Dipole moment /Debye                   0.00001265    -0.06749598    -0.28813428

 Orbital energies:

         1.1          2.1          3.1          4.1          5.1          6.1          7.1          8.1          9.1         10.1
    -10.604445   -10.604427   -10.593761   -10.591673   -10.591669    -0.948693    -0.853045    -0.799255    -0.683961    -0.616983

        11.1         12.1         13.1         14.1         15.1         16.1         17.1         18.1         19.1         20.1
     -0.576112    -0.499898    -0.487997    -0.482058    -0.455025    -0.433653    -0.416883    -0.306305    -0.265776     0.007246

        21.1
      0.036271


 HOMO     19.1    -0.265776 =      -7.2321eV
 LUMO     20.1     0.007246 =       0.1972eV
 LUMO-HOMO         0.273022 =       7.4293eV


 **********************************************************************************************************************************
 DATASETS  * FILE   NREC   LENGTH (MB)   RECORD NAMES
              1      20      178.80       500      610      700      900      950      970     1001      129      960     1100   
                                          VAR    BASINP    GEOM    SYMINP    ZMAT    AOBASIS   BASIS     P2S    ABASIS      S 
                                         1400     1410     1200     1210     1080     1600     1650     1300     1700     1800   
                                           T        V       H0       H01     AOSYM     SMH    MOLCAS    ERIS     OPER     GRID   

              2       7        5.87       700     1000      520     2100     1001     1800     2101   
                                         GEOM     BASIS   MCVARS     RHF     BASIS    GRID      RKS  

 PROGRAMS   *        TOTAL    KS-SCF       INT    HF-SCF       INT
 CPU TIMES  *        20.28      8.00      4.68      6.97      0.48
 REAL TIME  *        41.96 SEC
 DISK USED  *       600.69 MB
 **********************************************************************************************************************************


 PROGRAM * Intrinsic Basis Bonding Analysis (IBBA)          Author: G. Knizia

 Molecular orbitals read from record     2101.2  Type=RKS/CANONICAL (state 1.1)
 Fock matrix read from record            2101.2  Type=RKS/TOTAL (state 1.1)
 Orbital energies read from record       2101.2  Type=RKS/CANONICAL (state 1.1)
 Density matrix read from record         2101.2  Type=RKS/CHARGE (state 1.1)

 Number of core orbitals:           5 (   5 )
 Number of closed-shell orbitals:  14 (  14 )

 Basis set MINAO-AUTO-PP generated.      Number of basis functions:   33 

 Polarized AO type:                A = (O Ot + (1-O)(1-Ot)) P12
 Orthogonalization method:         Symmetric (Loewdin)
 Localization functional:          L = sum[A,i] <i|n_A|i>^4 -> max

 Localization group 1:  19 orbitals, occupancy  2.000
 Iterative localization: IB/PM,   12 iter; Final gradient 0.33E-08

 Bond order analysis:       [THRPRINT= 0.020]

   CEN ATOM   CEN ATOM     WIBERG.BO      RENORM.BO
     1   C  -   2   C       1.388730       1.366176
     1   C  -  11   H       0.956848       0.977532
     1   C  -  13   H       0.937560       0.973438
     1   C  -  12   H       0.464102       0.493619
     1   C  -   4   C       0.146957       0.139488

     2   C  -   3   C       1.460570       1.455440
     2   C  -   1   C       1.388730       1.366176
     2   C  -  10   H       0.940281       0.966337
     2   C  -   5   C       0.146962       0.139494

     3   C  -   2   C       1.460570       1.455440
     3   C  -   4   C       1.460530       1.455400
     3   C  -   9   H       0.947352       0.972464
     3   C  -  12   H       0.033182       0.037558

     4   C  -   3   C       1.460530       1.455400
     4   C  -   5   C       1.388776       1.366222
     4   C  -   8   H       0.940281       0.966336
     4   C  -   1   C       0.146957       0.139488

     5   C  -   4   C       1.388776       1.366222
     5   C  -   6   H       0.956847       0.977533
     5   C  -   7   H       0.937560       0.973436
     5   C  -  12   H       0.464053       0.493569
     5   C  -   2   C       0.146962       0.139494

     6   H  -   5   C       0.956847       0.977533

     7   H  -   5   C       0.937560       0.973436

     8   H  -   4   C       0.940281       0.966336

     9   H  -   3   C       0.947352       0.972464

    10   H  -   2   C       0.940281       0.966337

    11   H  -   1   C       0.956848       0.977532

    12   H  -   1   C       0.464102       0.493619
    12   H  -   5   C       0.464053       0.493569
    12   H  -   3   C       0.033182       0.037558

    13   H  -   1   C       0.937560       0.973438


 Valency analysis:

   CEN ATOM   TOT.VALENCE
     1   C       3.943725
     2   C       3.968919
     3   C       3.968899
     4   C       3.968919
     5   C       3.943725
     6   H       0.979487
     7   H       0.976745
     8   H       0.977970
     9   H       0.978683
    10   H       0.977970
    11   H       0.979489
    12   H       0.978711
    13   H       0.976744

 Total charge composition:

   CEN ATOM         s          p       ELECTRONS ->P.CHARGE
     1   C       3.04736    3.32744      6.37480   -0.37480
     2   C       2.97873    3.14645      6.12518   -0.12518
     3   C       2.96867    3.21158      6.18024   -0.18024
     4   C       2.97873    3.14645      6.12518   -0.12518
     5   C       3.04736    3.32743      6.37480   -0.37480
     6   H       0.85678                 0.85678    0.14322
     7   H       0.84750                 0.84750    0.15250
     8   H       0.85157                 0.85157    0.14843
     9   H       0.85400                 0.85400    0.14600
    10   H       0.85157                 0.85157    0.14843
    11   H       0.85678                 0.85678    0.14322
    12   H       0.85409                 0.85409    0.14591
    13   H       0.84750                 0.84750    0.15250

 Total charge composition, AO contributions:

   CEN ATOM SHL      SPHERICAL COMPONENTS
     1   C  1s       1.99079
     1   C  2s       1.05657
     1   C  2p       1.11797    1.07831    1.13115

     2   C  1s       1.98995
     2   C  2s       0.98878
     2   C  2p       1.09144    1.06327    0.99174

     3   C  1s       1.98965
     3   C  2s       0.97901
     3   C  2p       1.03923    1.13141    1.04093

     4   C  1s       1.98995
     4   C  2s       0.98878
     4   C  2p       1.09144    1.06327    0.99174

     5   C  1s       1.99079
     5   C  2s       1.05657
     5   C  2p       1.11797    1.07831    1.13115

     6   H  1s       0.85678

     7   H  1s       0.84750

     8   H  1s       0.85157

     9   H  1s       0.85400

    10   H  1s       0.85157

    11   H  1s       0.85678

    12   H  1s       0.85409

    13   H  1s       0.84750

 Summary of localized orbital composition:   [THRPRINT= 0.020]

   ORB  GRP  ORB.ENERGY      CENTERS/CHARGES
     1   1   -10.477474      C  4   2.000
     2   1   -10.477474      C  2   2.000
     3   1   -10.470785      C  5   2.000
     4   1   -10.470785      C  1   2.000
     5   1   -10.464447      C  3   2.000
     6   1    -0.776299      C  2   0.996   C  3   0.990
     7   1    -0.776294      C  4   0.996   C  3   0.990
     8   1    -0.760485      C  4   1.002   C  5   0.987
     9   1    -0.760476      C  2   1.002   C  1   0.987
    10   1    -0.611627      C  1   1.138   H 13   0.830   (other: 0.032)
    11   1    -0.611620      C  5   1.138   H  7   0.830   (other: 0.032)
    12   1    -0.603605      C  2   1.140   H 10   0.839   (other: 0.021)
    13   1    -0.603603      C  4   1.140   H  8   0.839   (other: 0.021)
    14   1    -0.599817      C  3   1.142   H  9   0.841
    15   1    -0.594467      C  5   1.143   H  6   0.847
    16   1    -0.594458      C  1   1.143   H 11   0.847
    17   1    -0.401273      C  1   1.093   H 12   0.406   C  2   0.356   C  4   0.130
    18   1    -0.401262      C  5   1.093   H 12   0.406   C  4   0.356   C  2   0.130
    19   1    -0.355368      C  3   1.034   C  2   0.463   C  4   0.463   H 12   0.022

 Localized orbitals saved to record      2101.2  (orbital set 2)


 **********************************************************************************************************************************
 DATASETS  * FILE   NREC   LENGTH (MB)   RECORD NAMES
              1      20      178.80       500      610      700      900      950      970     1001      129      960     1100   
                                          VAR    BASINP    GEOM    SYMINP    ZMAT    AOBASIS   BASIS     P2S    ABASIS      S 
                                         1400     1410     1200     1210     1080     1600     1650     1300     1700     1800   
                                           T        V       H0       H01     AOSYM     SMH    MOLCAS    ERIS     OPER     GRID   

              2       7        6.02       700     1000      520     2100     1001     1800     2101   
                                         GEOM     BASIS   MCVARS     RHF     BASIS    GRID      RKS  

 PROGRAMS   *        TOTAL      IBBA    KS-SCF       INT    HF-SCF       INT
 CPU TIMES  *        20.31      0.03      8.00      4.68      6.97      0.48
 REAL TIME  *        42.00 SEC
 DISK USED  *       600.69 MB
 **********************************************************************************************************************************

 IBBA/6-31+G(D,P) energy=      0.000000000000

          KS-SCF          HF-SCF
   -195.12312315   -191.49886762
 **********************************************************************************************************************************
 Molpro calculation terminated
