
 Primary working directories    : /local
 Secondary working directories  : /local
 Wavefunction directory         : /local/
 Main file repository           : /local/

 SHA1      : b4a5b34a9e711420743f49e6833241d17c61fb3c
 NAME      : 2099.9.b4a5b34
 ARCHNAME  : linux/x86_64_openmp
 FC        : /cm/shared/languages/GCC-6.1/bin/gfortran
 BLASLIB   : -lblas
 id        : simonbennie

 Nodes     nprocs
 node47-002    1

 Using customized tuning parameters: mindgm=1; mindgv=20; mindgc=4; mindgr=1; noblas=0; minvec=7
 default implementation of scratch files=df  

 memory,500,m
 geomtyp=xyz
 nosym
 noorient
 geometry={
 C         -1.29962       -0.90485       -0.02015
 C         -1.20595        0.50582       -0.01341
 C          0.00000        1.18336        0.15330
 C          1.20595        0.50581       -0.01342
 C          1.29963       -0.90485       -0.02015
 H          2.16880       -1.32755       -0.51570
 H          1.03204       -1.45439        0.87317
 H          2.03713        1.08558       -0.39850
 H          0.00000        2.26291        0.08590
 H         -2.03713        1.08559       -0.39848
 H         -2.16880       -1.32754       -0.51572
 H         -0.00001       -1.18194       -0.52081
 H         -1.03206       -1.45439        0.87316
 }
 basis={ default,qzvp }
 {ks,B3LYP3,direct;wf,38,1,0}
 {ibba,bonds=1}

 Variables initialized (895), CPU time= 0.00 sec
 Commands  initialized (725), CPU time= 0.01 sec, 591 directives.
 Default parameters read. Elapsed time= 0.08 sec

 Checking input...
 Passed
1


                                         ***  PROGRAM SYSTEM MOLPRO  ***
                                       Copyright, TTI GmbH Stuttgart, 2015
                                    Version 2099.9 linked May 26 2017 16:03:21


 **********************************************************************************************************************************
 LABEL *                                                                                 
  64 bit serial version                                                                  DATE: 24-Jun-17          TIME: 00:44:21  
 **********************************************************************************************************************************

 SHA1:             b4a5b34a9e711420743f49e6833241d17c61fb3c
 **********************************************************************************************************************************
 SETTING GEOMTYP        =    XYZ

 Variable memory set to  500000000 words,  buffer space 

 ZSYMEL=NOSYM

 SETTING BASIS          =    QZVP


 Recomputing integrals since basis changed


 Using spherical harmonics

 Library entry C      S def2-QZVP            selected for orbital group  1
 Library entry C      P def2-QZVP            selected for orbital group  1
 Library entry C      D def2-QZVP            selected for orbital group  1
 Library entry C      F def2-QZVP            selected for orbital group  1
 Library entry C      G def2-QZVP            selected for orbital group  1
 Library entry H      S def2-QZVP            selected for orbital group  2
 Library entry H      P def2-QZVP            selected for orbital group  2
 Library entry H      D def2-QZVP            selected for orbital group  2
 Library entry H      F def2-QZVP            selected for orbital group  2


 PROGRAM * SEWARD (Integral evaluation for generally contracted gaussian basis sets)     Author: Roland Lindh, 1990

 Geometry written to block  1 of record 700


 Point group  C1  



 ATOMIC COORDINATES

 NR  ATOM    CHARGE       X              Y              Z

   1  C       6.00   -2.455925866   -1.709918684   -0.038077981
   2  C       6.00   -2.278915220    0.955861268   -0.025341227
   3  C       6.00    0.000000000    2.236226307    0.289695015
   4  C       6.00    2.278915220    0.955842371   -0.025360125
   5  C       6.00    2.455944763   -1.709918684   -0.038077981
   6  H       1.00    4.098438019   -2.508705917   -0.974531762
   7  H       1.00    1.950272950   -2.748398778    1.650052160
   8  H       1.00    3.849617780    2.051448886   -0.753055861
   9  H       1.00    0.000000000    4.276280145    0.162327474
  10  H       1.00   -3.849617780    2.051467784   -0.753018066
  11  H       1.00   -4.098438019   -2.508687019   -0.974569557
  12  H       1.00   -0.000018897   -2.233542896   -0.984188263
  13  H       1.00   -1.950310744   -2.748398778    1.650033263

 Bond lengths in Bohr (Angstrom)

  1- 2  2.671680697   1-11  2.052533434   1-12  2.683428035   1-13  2.045435683   2- 3  2.632876193
       ( 1.413792540)       ( 1.086153918)       ( 1.420008963)       ( 1.082397950)       ( 1.393258080)

  2-10  2.048651691   3- 4  2.632887643   3- 9  2.044025966   4- 5  2.671663004   4- 8  2.048658403
       ( 1.084099788)       ( 1.393264140)       ( 1.081651960)       ( 1.413783177)       ( 1.084103340)

  5- 6  2.052508422   5- 7  2.045465293   5-12  2.683479920
       ( 1.086140682)       ( 1.082413619)       ( 1.420036420)

 Bond angles

  1- 2- 3  122.89782778   1- 2-10  118.75871624   1-12- 5  132.47234294   2- 1-11  116.32721645

  2- 1-12   97.80173434   2- 1-13  119.09588828   2- 3- 4  119.89324472   2- 3- 9  118.54820900

  3- 2-10  116.49102536   3- 4- 5  122.89852837   3- 4- 8  116.49079575   4- 3- 9  118.54851150

  4- 5- 6  116.32827193   4- 5- 7  119.09554722   4- 5-12   97.80095519   5- 4- 8  118.75838114

  6- 5- 7  112.13503634   6- 5-12  119.70875871   7- 5-12   88.03169400  11- 1-12  119.70812329

 11- 1-13  112.13482699  12- 1-13   88.03319435

 NUCLEAR CHARGE:                   38
 NUMBER OF PRIMITIVE AOS:         764
 NUMBER OF SYMMETRY AOS:          649
 NUMBER OF CONTRACTIONS:          525   ( 525A   )
 NUMBER OF CORE ORBITALS:           5   (   5A   )
 NUMBER OF VALENCE ORBITALS:       28   (  28A   )


 NUCLEAR REPULSION ENERGY  164.93668795


 Eigenvalues of metric

         1 0.410E-04 0.477E-04 0.642E-04 0.752E-04 0.821E-04 0.922E-04 0.978E-04 0.105E-03


 Contracted 2-electron integrals neglected if value below      1.0D-12
 AO integral compression algorithm  1   Integral accuracy      1.0D-12

     28845.539 MB (compressed) written to integral file ( 36.3%)


 NUMBER OF SORTED TWO-ELECTRON INTEGRALS: 9532421850.     BUFFER LENGTH:  32768
 NUMBER OF SEGMENTS: 199  SEGMENT LENGTH:   47999545      RECORD LENGTH: 131072

 Memory used in sort:      48.16 MW

 SORT1 READ  9928127119. AND WROTE  7204614461. INTEGRALS IN  82552 RECORDS. CPU TIME:   120.22 SEC, REAL TIME:  1243.02 SEC
 SORT2 READ  7204614461. AND WROTE  9532421850. INTEGRALS IN 110037 RECORDS. CPU TIME:   221.38 SEC, REAL TIME:  1792.16 SEC

 FILE SIZES:   FILE 1: 28885.8 MBYTE,  FILE 4: 86562.1 MBYTE,   TOTAL: 115447.9 MBYTE

 OPERATOR DM      FOR CENTER  0  COORDINATES:    0.000000    0.000000    0.000000


 **********************************************************************************************************************************
 DATASETS  * FILE   NREC   LENGTH (MB)   RECORD NAMES
              1      19    26839.87       500      610      700      900      950      970     1000      129      960     1100   
                                          VAR    BASINP    GEOM    SYMINP    ZMAT    AOBASIS   BASIS     P2S    ABASIS      S 
                                         1400     1410     1200     1210     1080     1600     1650     1300     1700   
                                           T        V       H0       H01     AOSYM     SMH    MOLCAS    ERIS     OPER   

 PROGRAMS   *        TOTAL       INT
 CPU TIMES  *       786.32    786.19
 REAL TIME  *      3540.87 SEC
 DISK USED  *       115.45 GB      
 **********************************************************************************************************************************

 Density functional group B3LYP3=B88+DIRAC+LYP+VWN3
 Functional: B88(Automatically generated (new) B88)                            Gradient terms: 1
 Functional: DIRAC(Automatically generated (new) DIRAC)                        Gradient terms: 0
 Functional: LYP(Automatically generated (new) LYP)                            Gradient terms: 1
 Functional: VWN3(Automatically generated (new) VWN3)                          Gradient terms: 0
 Use grid at  1800.2


 Exact exchange will be calculated, factor:  0.2000

 Functional: B88                       Factor:  0.7200
 Functional: DIRAC                     Factor:  0.0800
 Functional: LYP                       Factor:  0.8100
 Functional: VWN3                      Factor:  0.1900

 Generated new metagrid on record  1800.2 with target accuracy 1.0D-06 and 52872 points in CPU time    1.2
 Computed new grid on record 1800.1 in CPU time    1.4
  421548 words reserved for DFT integration

 PROGRAM * RKS-SCF (Restricted closed shell Kohn-Sham)     Authors: W. Meyer, H.-J. Werner, P.J. Knowles, 1993

 NUMBER OF ELECTRONS:      19+   19-    SPACE SYMMETRY=1    SPIN SYMMETRY: Singlet 
 CONVERGENCE THRESHOLDS:    1.00E-05 (Density)    1.00E-06 (Energy)
 MAX. NUMBER OF ITERATIONS:       60
 INTERPOLATION TYPE:            DIIS
 INTERPOLATION STEPS:              2 (START)      1 (STEP)
 LEVEL SHIFTS:                  0.00 (CLOSED)  0.00 (OPEN) 



 Use fine grid record 1800.2 for energy threshold  1.0D-06
 Orbital guess generated from atomic densities. Full valence occupancy:   19

 Molecular orbital dump at record        2100.2

 Initial occupancy:  19

 ITERATION    DDIFF          GRAD             ENERGY        2-EL.EN.            DIPOLE MOMENTS         DIIS   ORB.
    1      0.000D+00      0.000D+00      -195.15907525    516.888827    0.00001   -0.28720   -0.15920    0    start
    2      0.000D+00      0.417D-02      -195.04835159    486.281568   -0.00001    0.35160   -0.01696    1    diag
    3      0.283D-02      0.530D-02      -195.34111418    503.993648    0.00001   -0.12965   -0.11274    2    diag
    4      0.202D-02      0.442D-03      -195.34238255    503.424789   -0.00000    0.04784   -0.08210    3    diag
    5      0.145D-03      0.249D-03      -195.34285914    503.451498    0.00001   -0.11928   -0.11147    4    diag
    6      0.743D-04      0.113D-03      -195.34299938    503.458142    0.00000   -0.04482   -0.09739    5    diag
    7      0.295D-04      0.110D-04      -195.34300086    503.464160    0.00000   -0.05372   -0.10010    6    diag
    8      0.407D-05      0.199D-05      -195.34300089    503.466713    0.00000   -0.05305   -0.09928    7    diag
    9      0.708D-06      0.118D-05      -195.34300087    503.466354    0.00001   -0.05286   -0.09967    0    orth

 Final occupancy:  19

 !RKS STATE 1.1 Energy               -195.343000871775
 Nuclear energy                       164.93668795
 One-electron energy                 -587.65931799
 Two-electron energy                  251.73317683
 SCF exchange energy                  -28.65136914     Factor= 0.2000
 Density functional                   -24.35354766     B88=-28.74680069 DIRAC=-25.85475381 LYP= -1.22995214 VWN3= -3.11162957
 Virial quotient                       -1.00550305
 !RKS STATE 1.1 Dipole moment           0.00000550    -0.05285548    -0.09967477
 Dipole moment /Debye                   0.00001398    -0.13433644    -0.25333141

 Orbital energies:

         1.1          2.1          3.1          4.1          5.1          6.1          7.1          8.1          9.1         10.1
    -10.183125   -10.183108   -10.175412   -10.175411   -10.174508    -0.832051    -0.745210    -0.697944    -0.595012    -0.536856

        11.1         12.1         13.1         14.1         15.1         16.1         17.1         18.1         19.1         20.1
     -0.502036    -0.432307    -0.421222    -0.417161    -0.395178    -0.370891    -0.356531    -0.267102    -0.230627    -0.036447

        21.1
      0.007278

 HOMO     19.1    -0.230627 =      -6.2757eV
 LUMO     20.1    -0.036447 =      -0.9918eV
 LUMO-HOMO         0.194180 =       5.2839eV


 **********************************************************************************************************************************
 DATASETS  * FILE   NREC   LENGTH (MB)   RECORD NAMES
              1      20    26841.56       500      610      700      900      950      970     1000      129      960     1100   
                                          VAR    BASINP    GEOM    SYMINP    ZMAT    AOBASIS   BASIS     P2S    ABASIS      S 
                                         1400     1410     1200     1210     1080     1600     1650     1300     1700     1800   
                                           T        V       H0       H01     AOSYM     SMH    MOLCAS    ERIS     OPER     GRID   

              2       5        8.57       700     1000      520     1800     2100   
                                         GEOM     BASIS   MCVARS    GRID      RKS  

 PROGRAMS   *        TOTAL        KS       INT
 CPU TIMES  *      2415.01   1628.69    786.19
 REAL TIME  *      5377.42 SEC
 DISK USED  *       115.45 GB      
 **********************************************************************************************************************************


 PROGRAM * Intrinsic Basis Bonding Analysis (IBBA)          Author: G. Knizia

 Molecular orbitals read from record     2100.2  Type=RKS/CANONICAL (state 1.1)
 Fock matrix read from record            2100.2  Type=RKS/TOTAL (state 1.1)
 Orbital energies read from record       2100.2  Type=RKS/CANONICAL (state 1.1)
 Density matrix read from record         2100.2  Type=RKS/CHARGE (state 1.1)

 Number of core orbitals:           5 (   5 )
 Number of closed-shell orbitals:  14 (  14 )

 Basis set MINAO-AUTO-PP generated.      Number of basis functions:   33 

 Polarized AO type:                A = (O Ot + (1-O)(1-Ot)) P12
 Orthogonalization method:         Symmetric (Loewdin)
 Localization functional:          L = sum[A,i] <i|n_A|i>^4 -> max

 Localization group 1:  19 orbitals, occupancy  2.000
 Iterative localization: IB/PM,   12 iter; Final gradient 0.55E-08

 Bond order analysis:       [THRPRINT= 0.020]

   CEN ATOM   CEN ATOM     WIBERG.BO      RENORM.BO
     1   C  -   2   C       1.387119       1.361053
     1   C  -  11   H       0.954288       0.975497
     1   C  -  13   H       0.934278       0.971531
     1   C  -  12   H       0.464459       0.499111
     1   C  -   4   C       0.149841       0.141006

     2   C  -   3   C       1.460802       1.451763
     2   C  -   1   C       1.387119       1.361053
     2   C  -  10   H       0.936575       0.964092
     2   C  -   5   C       0.149848       0.141013

     3   C  -   2   C       1.460802       1.451763
     3   C  -   4   C       1.460766       1.451727
     3   C  -   9   H       0.944192       0.969783
     3   C  -  12   H       0.030274       0.034661

     4   C  -   3   C       1.460766       1.451727
     4   C  -   5   C       1.387161       1.361095
     4   C  -   8   H       0.936574       0.964092
     4   C  -   1   C       0.149841       0.141006

     5   C  -   4   C       1.387161       1.361095
     5   C  -   6   H       0.954287       0.975498
     5   C  -   7   H       0.934278       0.971530
     5   C  -  12   H       0.464414       0.499065
     5   C  -   2   C       0.149848       0.141013

     6   H  -   5   C       0.954287       0.975498

     7   H  -   5   C       0.934278       0.971530

     8   H  -   4   C       0.936574       0.964092

     9   H  -   3   C       0.944192       0.969783

    10   H  -   2   C       0.936575       0.964092

    11   H  -   1   C       0.954288       0.975497

    12   H  -   1   C       0.464459       0.499111
    12   H  -   5   C       0.464414       0.499065
    12   H  -   3   C       0.030274       0.034661

    13   H  -   1   C       0.934278       0.971531


 Valency analysis:

   CEN ATOM   TOT.VALENCE
     1   C       3.943881
     2   C       3.969957
     3   C       3.968843
     4   C       3.969957
     5   C       3.943882
     6   H       0.978977
     7   H       0.976124
     8   H       0.977662
     9   H       0.978346
    10   H       0.977661
    11   H       0.978979
    12   H       0.977459
    13   H       0.976123

 Total charge composition:

   CEN ATOM         s          p       ELECTRONS ->P.CHARGE
     1   C       3.04615    3.32890      6.37505   -0.37505
     2   C       2.97719    3.15692      6.13411   -0.13411
     3   C       2.96883    3.20808      6.17691   -0.17691
     4   C       2.97719    3.15693      6.13411   -0.13411
     5   C       3.04615    3.32889      6.37505   -0.37505
     6   H       0.85501                 0.85501    0.14499
     7   H       0.84548                 0.84548    0.15452
     8   H       0.85054                 0.85054    0.14946
     9   H       0.85285                 0.85285    0.14715
    10   H       0.85054                 0.85054    0.14946
    11   H       0.85501                 0.85501    0.14499
    12   H       0.84986                 0.84986    0.15014
    13   H       0.84548                 0.84548    0.15452

 Total charge composition, AO contributions:

   CEN ATOM SHL      SPHERICAL COMPONENTS
     1   C  1s       1.99122
     1   C  2s       1.05493
     1   C  2p       1.11554    1.08238    1.13098

     2   C  1s       1.99041
     2   C  2s       0.98677
     2   C  2p       1.09109    1.06179    1.00404

     3   C  1s       1.99011
     3   C  2s       0.97872
     3   C  2p       1.04018    1.13216    1.03574

     4   C  1s       1.99041
     4   C  2s       0.98677
     4   C  2p       1.09108    1.06180    1.00405

     5   C  1s       1.99122
     5   C  2s       1.05493
     5   C  2p       1.11554    1.08238    1.13097

     6   H  1s       0.85501

     7   H  1s       0.84548

     8   H  1s       0.85054

     9   H  1s       0.85285

    10   H  1s       0.85054

    11   H  1s       0.85501

    12   H  1s       0.84986

    13   H  1s       0.84548

 Summary of localized orbital composition:   [THRPRINT= 0.020]

   ORB  GRP  ORB.ENERGY      CENTERS/CHARGES
     1   1   -10.061294      C  4   2.000
     2   1   -10.061293      C  2   2.000
     3   1   -10.059530      C  5   2.000
     4   1   -10.059530      C  1   2.000
     5   1   -10.050223      C  3   2.000
     6   1    -0.682036      C  2   0.995   C  3   0.990
     7   1    -0.682031      C  4   0.995   C  3   0.990
     8   1    -0.670696      C  4   0.998   C  5   0.991
     9   1    -0.670687      C  2   0.998   C  1   0.991
    10   1    -0.535182      C  1   1.139   H 13   0.827   (other: 0.034)
    11   1    -0.535176      C  5   1.139   H  7   0.827   (other: 0.034)
    12   1    -0.525684      C  2   1.139   H 10   0.837   (other: 0.023)
    13   1    -0.525682      C  4   1.139   H  8   0.837   (other: 0.023)
    14   1    -0.522255      C  3   1.143   H  9   0.839
    15   1    -0.519271      C  5   1.145   H  6   0.844
    16   1    -0.519262      C  1   1.145   H 11   0.844
    17   1    -0.350058      C  1   1.087   H 12   0.404   C  2   0.358   C  4   0.136
    18   1    -0.350048      C  5   1.087   H 12   0.404   C  4   0.359   C  2   0.136
    19   1    -0.311752      C  3   1.027   C  2   0.467   C  4   0.467   (other: 0.039)

 Localized orbitals saved to record      2100.2  (orbital set 2)


 **********************************************************************************************************************************
 DATASETS  * FILE   NREC   LENGTH (MB)   RECORD NAMES
              1      20    26841.56       500      610      700      900      950      970     1000      129      960     1100   
                                          VAR    BASINP    GEOM    SYMINP    ZMAT    AOBASIS   BASIS     P2S    ABASIS      S 
                                         1400     1410     1200     1210     1080     1600     1650     1300     1700     1800   
                                           T        V       H0       H01     AOSYM     SMH    MOLCAS    ERIS     OPER     GRID   

              2       5       10.79       700     1000      520     1800     2100   
                                         GEOM     BASIS   MCVARS    GRID      RKS  

 PROGRAMS   *        TOTAL      IBBA        KS       INT
 CPU TIMES  *      2415.36      0.34   1628.69    786.19
 REAL TIME  *      5378.02 SEC
 DISK USED  *       115.45 GB      
 **********************************************************************************************************************************
 Molecular orbitals read from record     2100.2  Type=RKS/LOCAL(IBO)  
 Occupation numbers read from record     2100.2  Type=RKS/LOCAL(IBO)  
 Orbital energies read from record       2100.2  Type=RKS/LOCAL(IBO)  
 Redundancy group numbers read from rec  2100.2  Type=RKS/LOCAL(IBO)  

 IBBA/QZVP energy=      0.000000000000

        KS-SCF  
   -195.34300087
 **********************************************************************************************************************************
 Molpro calculation terminated
