
 Primary working directories    : /local
 Secondary working directories  : /local
 Wavefunction directory         : /local/
 Main file repository           : /local/

 SHA1      : b4a5b34a9e711420743f49e6833241d17c61fb3c
 NAME      : 2099.9.b4a5b34
 ARCHNAME  : linux/x86_64_openmp
 FC        : /cm/shared/languages/GCC-6.1/bin/gfortran
 BLASLIB   : -lblas
 id        : simonbennie

 Nodes     nprocs
 node35-033    1

 Using customized tuning parameters: mindgm=1; mindgv=20; mindgc=4; mindgr=1; noblas=0; minvec=7
 default implementation of scratch files=df  

 memory,500,m
 geomtyp=xyz
 nosym
 noorient
 geometry={
 C         -1.29962       -0.90485       -0.02015
 C         -1.20595        0.50582       -0.01341
 C          0.00000        1.18336        0.15330
 C          1.20595        0.50581       -0.01342
 C          1.29963       -0.90485       -0.02015
 H          2.16880       -1.32755       -0.51570
 H          1.03204       -1.45439        0.87317
 H          2.03713        1.08558       -0.39850
 H          0.00000        2.26291        0.08590
 H         -2.03713        1.08559       -0.39848
 H         -2.16880       -1.32754       -0.51572
 H         -0.00001       -1.18194       -0.52081
 H         -1.03206       -1.45439        0.87316
 }
 basis={ default,tzvp }
 {ks,B97,direct;wf,38,1,0}
 {ibba,bonds=1}

 Variables initialized (895), CPU time= 0.00 sec
 Commands  initialized (725), CPU time= 0.02 sec, 591 directives.
 Default parameters read. Elapsed time= 0.08 sec

 Checking input...
 Passed
1


                                         ***  PROGRAM SYSTEM MOLPRO  ***
                                       Copyright, TTI GmbH Stuttgart, 2015
                                    Version 2099.9 linked May 26 2017 16:03:21


 **********************************************************************************************************************************
 LABEL *                                                                                 
  64 bit serial version                                                                  DATE: 24-Jun-17          TIME: 00:27:46  
 **********************************************************************************************************************************

 SHA1:             b4a5b34a9e711420743f49e6833241d17c61fb3c
 **********************************************************************************************************************************
 SETTING GEOMTYP        =    XYZ

 Variable memory set to  500000000 words,  buffer space 

 ZSYMEL=NOSYM

 SETTING BASIS          =    TZVP


 Recomputing integrals since basis changed


 Using spherical harmonics

 Library entry C      S def2-TZVP            selected for orbital group  1
 Library entry C      P def2-TZVP            selected for orbital group  1
 Library entry C      D def2-TZVP            selected for orbital group  1
 Library entry C      F def2-TZVP            selected for orbital group  1
 Library entry H      S def2-TZVP            selected for orbital group  2
 Library entry H      P def2-TZVP            selected for orbital group  2


 PROGRAM * SEWARD (Integral evaluation for generally contracted gaussian basis sets)     Author: Roland Lindh, 1990

 Geometry written to block  1 of record 700


 Point group  C1  



 ATOMIC COORDINATES

 NR  ATOM    CHARGE       X              Y              Z

   1  C       6.00   -2.455925866   -1.709918684   -0.038077981
   2  C       6.00   -2.278915220    0.955861268   -0.025341227
   3  C       6.00    0.000000000    2.236226307    0.289695015
   4  C       6.00    2.278915220    0.955842371   -0.025360125
   5  C       6.00    2.455944763   -1.709918684   -0.038077981
   6  H       1.00    4.098438019   -2.508705917   -0.974531762
   7  H       1.00    1.950272950   -2.748398778    1.650052160
   8  H       1.00    3.849617780    2.051448886   -0.753055861
   9  H       1.00    0.000000000    4.276280145    0.162327474
  10  H       1.00   -3.849617780    2.051467784   -0.753018066
  11  H       1.00   -4.098438019   -2.508687019   -0.974569557
  12  H       1.00   -0.000018897   -2.233542896   -0.984188263
  13  H       1.00   -1.950310744   -2.748398778    1.650033263

 Bond lengths in Bohr (Angstrom)

  1- 2  2.671680697   1-11  2.052533434   1-12  2.683428035   1-13  2.045435683   2- 3  2.632876193
       ( 1.413792540)       ( 1.086153918)       ( 1.420008963)       ( 1.082397950)       ( 1.393258080)

  2-10  2.048651691   3- 4  2.632887643   3- 9  2.044025966   4- 5  2.671663004   4- 8  2.048658403
       ( 1.084099788)       ( 1.393264140)       ( 1.081651960)       ( 1.413783177)       ( 1.084103340)

  5- 6  2.052508422   5- 7  2.045465293   5-12  2.683479920
       ( 1.086140682)       ( 1.082413619)       ( 1.420036420)

 Bond angles

  1- 2- 3  122.89782778   1- 2-10  118.75871624   1-12- 5  132.47234294   2- 1-11  116.32721645

  2- 1-12   97.80173434   2- 1-13  119.09588828   2- 3- 4  119.89324472   2- 3- 9  118.54820900

  3- 2-10  116.49102536   3- 4- 5  122.89852837   3- 4- 8  116.49079575   4- 3- 9  118.54851150

  4- 5- 6  116.32827193   4- 5- 7  119.09554722   4- 5-12   97.80095519   5- 4- 8  118.75838114

  6- 5- 7  112.13503634   6- 5-12  119.70875871   7- 5-12   88.03169400  11- 1-12  119.70812329

 11- 1-13  112.13482699  12- 1-13   88.03319435

 NUCLEAR CHARGE:                   38
 NUMBER OF PRIMITIVE AOS:         319
 NUMBER OF SYMMETRY AOS:          294
 NUMBER OF CONTRACTIONS:          203   ( 203A   )
 NUMBER OF CORE ORBITALS:           5   (   5A   )
 NUMBER OF VALENCE ORBITALS:       28   (  28A   )


 NUCLEAR REPULSION ENERGY  164.93668795


 Eigenvalues of metric

         1 0.135E-03 0.164E-03 0.251E-03 0.289E-03 0.365E-03 0.388E-03 0.833E-03 0.836E-03


 Contracted 2-electron integrals neglected if value below      1.0D-11
 AO integral compression algorithm  1   Integral accuracy      1.0D-11

     813.433 MB (compressed) written to integral file ( 43.5%)


 NUMBER OF SORTED TWO-ELECTRON INTEGRALS:  214379571.     BUFFER LENGTH:  32768
 NUMBER OF SEGMENTS:  14  SEGMENT LENGTH:   15999503      RECORD LENGTH: 524288

 Memory used in sort:      16.56 MW

 SORT1 READ   233608977. AND WROTE   194891648. INTEGRALS IN    565 RECORDS. CPU TIME:     2.59 SEC, REAL TIME:     5.10 SEC
 SORT2 READ   194891648. AND WROTE   214379571. INTEGRALS IN   3103 RECORDS. CPU TIME:     5.13 SEC, REAL TIME:    29.72 SEC

 FILE SIZES:   FILE 1:   845.1 MBYTE,  FILE 4:  2369.8 MBYTE,   TOTAL:   3215.0 MBYTE

 OPERATOR DM      FOR CENTER  0  COORDINATES:    0.000000    0.000000    0.000000


 **********************************************************************************************************************************
 DATASETS  * FILE   NREC   LENGTH (MB)   RECORD NAMES
              1      19      774.60       500      610      700      900      950      970     1000      129      960     1100   
                                          VAR    BASINP    GEOM    SYMINP    ZMAT    AOBASIS   BASIS     P2S    ABASIS      S 
                                         1400     1410     1200     1210     1080     1600     1650     1300     1700   
                                           T        V       H0       H01     AOSYM     SMH    MOLCAS    ERIS     OPER   

 PROGRAMS   *        TOTAL       INT
 CPU TIMES  *        20.88     20.74
 REAL TIME  *        50.14 SEC
 DISK USED  *         3.22 GB      
 **********************************************************************************************************************************

 Density functional group B97=B97DF
 Functional: B97DF(Automatically generated (new) B97DF)                        Gradient terms: 1
 Use grid at  1800.2


 Exact exchange will be calculated, factor:  0.1943

 Functional: B97DF                     Factor:  1.0000

 Generated new metagrid on record  1800.2 with target accuracy 1.0D-06 and 49448 points in CPU time    1.3
 Computed new grid on record 1800.1 in CPU time    1.4
  165651 words reserved for DFT integration

 PROGRAM * RKS-SCF (Restricted closed shell Kohn-Sham)     Authors: W. Meyer, H.-J. Werner, P.J. Knowles, 1993

 NUMBER OF ELECTRONS:      19+   19-    SPACE SYMMETRY=1    SPIN SYMMETRY: Singlet 
 CONVERGENCE THRESHOLDS:    1.00E-05 (Density)    1.00E-06 (Energy)
 MAX. NUMBER OF ITERATIONS:       60
 INTERPOLATION TYPE:            DIIS
 INTERPOLATION STEPS:              2 (START)      1 (STEP)
 LEVEL SHIFTS:                  0.00 (CLOSED)  0.00 (OPEN) 



 Use fine grid record 1800.2 for energy threshold  1.0D-06
 Orbital guess generated from atomic densities. Full valence occupancy:   19

 Molecular orbital dump at record        2100.2

 Initial occupancy:  19

 ITERATION    DDIFF          GRAD             ENERGY        2-EL.EN.            DIPOLE MOMENTS         DIIS   ORB.
    1      0.000D+00      0.000D+00      -195.08832205    516.464007    0.00001   -0.28412   -0.15660    0    start
    2      0.000D+00      0.647D-02      -195.01140110    488.569287   -0.00001    0.40267    0.00794    1    diag
    3      0.835D-02      0.792D-02      -195.25067658    504.229180    0.00001   -0.14106   -0.11918    2    diag
    4      0.582D-02      0.676D-03      -195.25173322    503.798875   -0.00000    0.06690   -0.07820    3    diag
    5      0.556D-03      0.392D-03      -195.25222089    503.816603    0.00001   -0.09661   -0.10754    4    diag
    6      0.259D-03      0.150D-03      -195.25231317    503.827659    0.00000   -0.03542   -0.09694    5    diag
    7      0.102D-03      0.146D-04      -195.25231415    503.831740    0.00000   -0.04252   -0.09887    6    diag
    8      0.152D-04      0.244D-05      -195.25231417    503.833898    0.00000   -0.04196   -0.09821    7    diag
    9      0.212D-05      0.129D-05      -195.25231416    503.833450    0.00001   -0.04175   -0.09857    0    orth

 Final occupancy:  19

 !RKS STATE 1.1 Energy               -195.252314158965
 Nuclear energy                       164.93668795
 One-electron energy                 -587.65470595
 Two-electron energy                  251.91672510
 SCF exchange energy                  -28.68015002     Factor= 0.1943
 Density functional                   -24.45102127     B97DF=-24.45102127
 Virial quotient                       -1.00485992
 !RKS STATE 1.1 Dipole moment           0.00000579    -0.04174865    -0.09857399
 Dipole moment /Debye                   0.00001473    -0.10610752    -0.25053367

 Orbital energies:

         1.1          2.1          3.1          4.1          5.1          6.1          7.1          8.1          9.1         10.1
    -10.166106   -10.166103   -10.159227   -10.159225   -10.157731    -0.829326    -0.742188    -0.694646    -0.591297    -0.532741

        11.1         12.1         13.1         14.1         15.1         16.1         17.1         18.1         19.1         20.1
     -0.497577    -0.427039    -0.415547    -0.412090    -0.390668    -0.364916    -0.350811    -0.262525    -0.226140    -0.031565

        21.1
      0.015882

 HOMO     19.1    -0.226140 =      -6.1536eV
 LUMO     20.1    -0.031565 =      -0.8589eV
 LUMO-HOMO         0.194575 =       5.2947eV


 **********************************************************************************************************************************
 DATASETS  * FILE   NREC   LENGTH (MB)   RECORD NAMES
              1      20      776.19       500      610      700      900      950      970     1000      129      960     1100   
                                          VAR    BASINP    GEOM    SYMINP    ZMAT    AOBASIS   BASIS     P2S    ABASIS      S 
                                         1400     1410     1200     1210     1080     1600     1650     1300     1700     1800   
                                           T        V       H0       H01     AOSYM     SMH    MOLCAS    ERIS     OPER     GRID   

              2       5        3.82       700     1000      520     1800     2100   
                                         GEOM     BASIS   MCVARS    GRID      RKS  

 PROGRAMS   *        TOTAL        KS       INT
 CPU TIMES  *        72.02     51.14     20.74
 REAL TIME  *       102.76 SEC
 DISK USED  *         3.22 GB      
 **********************************************************************************************************************************


 PROGRAM * Intrinsic Basis Bonding Analysis (IBBA)          Author: G. Knizia

 Molecular orbitals read from record     2100.2  Type=RKS/CANONICAL (state 1.1)
 Fock matrix read from record            2100.2  Type=RKS/TOTAL (state 1.1)
 Orbital energies read from record       2100.2  Type=RKS/CANONICAL (state 1.1)
 Density matrix read from record         2100.2  Type=RKS/CHARGE (state 1.1)

 Number of core orbitals:           5 (   5 )
 Number of closed-shell orbitals:  14 (  14 )

 Basis set MINAO-AUTO-PP generated.      Number of basis functions:   33 

 Polarized AO type:                A = (O Ot + (1-O)(1-Ot)) P12
 Orthogonalization method:         Symmetric (Loewdin)
 Localization functional:          L = sum[A,i] <i|n_A|i>^4 -> max

 Localization group 1:  19 orbitals, occupancy  2.000
 Iterative localization: IB/PM,   12 iter; Final gradient 0.55E-08

 Bond order analysis:       [THRPRINT= 0.020]

   CEN ATOM   CEN ATOM     WIBERG.BO      RENORM.BO
     1   C  -   2   C       1.387907       1.361233
     1   C  -  11   H       0.953495       0.975050
     1   C  -  13   H       0.933550       0.971208
     1   C  -  12   H       0.464338       0.499252
     1   C  -   4   C       0.149709       0.140840

     2   C  -   3   C       1.460926       1.451246
     2   C  -   1   C       1.387907       1.361233
     2   C  -  10   H       0.935529       0.963314
     2   C  -   5   C       0.149715       0.140846

     3   C  -   2   C       1.460926       1.451246
     3   C  -   4   C       1.460891       1.451212
     3   C  -   9   H       0.943175       0.968900
     3   C  -  12   H       0.030245       0.034645

     4   C  -   3   C       1.460891       1.451212
     4   C  -   5   C       1.387949       1.361275
     4   C  -   8   H       0.935528       0.963313
     4   C  -   1   C       0.149709       0.140840

     5   C  -   4   C       1.387949       1.361275
     5   C  -   6   H       0.953494       0.975051
     5   C  -   7   H       0.933550       0.971207
     5   C  -  12   H       0.464293       0.499206
     5   C  -   2   C       0.149715       0.140846

     6   H  -   5   C       0.953494       0.975051

     7   H  -   5   C       0.933550       0.971207

     8   H  -   4   C       0.935528       0.963313

     9   H  -   3   C       0.943175       0.968900

    10   H  -   2   C       0.935529       0.963314

    11   H  -   1   C       0.953495       0.975050

    12   H  -   1   C       0.464338       0.499252
    12   H  -   5   C       0.464293       0.499206
    12   H  -   3   C       0.030245       0.034645

    13   H  -   1   C       0.933550       0.971208


 Valency analysis:

   CEN ATOM   TOT.VALENCE
     1   C       3.943416
     2   C       3.970066
     3   C       3.968935
     4   C       3.970067
     5   C       3.943416
     6   H       0.978504
     7   H       0.975679
     8   H       0.977253
     9   H       0.977961
    10   H       0.977253
    11   H       0.978505
    12   H       0.977320
    13   H       0.975678

 Total charge composition:

   CEN ATOM         s          p       ELECTRONS ->P.CHARGE
     1   C       3.04920    3.32871      6.37791   -0.37791
     2   C       2.98021    3.15558      6.13578   -0.13578
     3   C       2.97180    3.20666      6.17846   -0.17846
     4   C       2.98021    3.15558      6.13578   -0.13578
     5   C       3.04920    3.32870      6.37790   -0.37790
     6   H       0.85338                 0.85338    0.14662
     7   H       0.84405                 0.84405    0.15595
     8   H       0.84918                 0.84918    0.15082
     9   H       0.85154                 0.85154    0.14846
    10   H       0.84918                 0.84918    0.15082
    11   H       0.85339                 0.85339    0.14661
    12   H       0.84940                 0.84940    0.15060
    13   H       0.84405                 0.84405    0.15595

 Total charge composition, AO contributions:

   CEN ATOM SHL      SPHERICAL COMPONENTS
     1   C  1s       1.99111
     1   C  2s       1.05809
     1   C  2p       1.11517    1.08186    1.13168

     2   C  1s       1.99030
     2   C  2s       0.98991
     2   C  2p       1.09023    1.06095    1.00440

     3   C  1s       1.99000
     3   C  2s       0.98180
     3   C  2p       1.03922    1.13137    1.03607

     4   C  1s       1.99030
     4   C  2s       0.98990
     4   C  2p       1.09022    1.06095    1.00440

     5   C  1s       1.99111
     5   C  2s       1.05809
     5   C  2p       1.11517    1.08186    1.13167

     6   H  1s       0.85338

     7   H  1s       0.84405

     8   H  1s       0.84918

     9   H  1s       0.85154

    10   H  1s       0.84918

    11   H  1s       0.85339

    12   H  1s       0.84940

    13   H  1s       0.84405

 Summary of localized orbital composition:   [THRPRINT= 0.020]

   ORB  GRP  ORB.ENERGY      CENTERS/CHARGES
     1   1   -10.044158      C  4   2.000
     2   1   -10.044157      C  2   2.000
     3   1   -10.043118      C  5   2.000
     4   1   -10.043117      C  1   2.000
     5   1   -10.033335      C  3   2.000
     6   1    -0.676909      C  2   0.995   C  3   0.990
     7   1    -0.676905      C  4   0.995   C  3   0.990
     8   1    -0.665749      C  4   0.998   C  5   0.991
     9   1    -0.665740      C  2   0.998   C  1   0.991
    10   1    -0.530722      C  1   1.140   H 13   0.825   (other: 0.034)
    11   1    -0.530716      C  5   1.140   H  7   0.825   (other: 0.034)
    12   1    -0.521652      C  2   1.140   H 10   0.836   (other: 0.024)
    13   1    -0.521650      C  4   1.140   H  8   0.836   (other: 0.024)
    14   1    -0.518261      C  3   1.144   H  9   0.838
    15   1    -0.515085      C  5   1.146   H  6   0.843
    16   1    -0.515076      C  1   1.146   H 11   0.843
    17   1    -0.345888      C  1   1.087   H 12   0.404   C  2   0.359   C  4   0.135
    18   1    -0.345879      C  5   1.087   H 12   0.404   C  4   0.359   C  2   0.135
    19   1    -0.307786      C  3   1.027   C  2   0.467   C  4   0.467   (other: 0.039)

 Localized orbitals saved to record      2100.2  (orbital set 2)


 **********************************************************************************************************************************
 DATASETS  * FILE   NREC   LENGTH (MB)   RECORD NAMES
              1      20      776.19       500      610      700      900      950      970     1000      129      960     1100   
                                          VAR    BASINP    GEOM    SYMINP    ZMAT    AOBASIS   BASIS     P2S    ABASIS      S 
                                         1400     1410     1200     1210     1080     1600     1650     1300     1700     1800   
                                           T        V       H0       H01     AOSYM     SMH    MOLCAS    ERIS     OPER     GRID   

              2       5        4.15       700     1000      520     1800     2100   
                                         GEOM     BASIS   MCVARS    GRID      RKS  

 PROGRAMS   *        TOTAL      IBBA        KS       INT
 CPU TIMES  *        72.08      0.06     51.14     20.74
 REAL TIME  *       102.92 SEC
 DISK USED  *         3.22 GB      
 **********************************************************************************************************************************
 Molecular orbitals read from record     2100.2  Type=RKS/LOCAL(IBO)  
 Occupation numbers read from record     2100.2  Type=RKS/LOCAL(IBO)  
 Orbital energies read from record       2100.2  Type=RKS/LOCAL(IBO)  
 Redundancy group numbers read from rec  2100.2  Type=RKS/LOCAL(IBO)  

 IBBA/TZVP energy=      0.000000000000

        KS-SCF  
   -195.25231416
 **********************************************************************************************************************************
 Molpro calculation terminated
