
 Primary working directories    : /local
 Secondary working directories  : /local
 Wavefunction directory         : /local/
 Main file repository           : /local/

 SHA1      : b4a5b34a9e711420743f49e6833241d17c61fb3c
 NAME      : 2099.9.b4a5b34
 ARCHNAME  : linux/x86_64_openmp
 FC        : /cm/shared/languages/GCC-6.1/bin/gfortran
 BLASLIB   : -lblas
 id        : simonbennie

 Nodes     nprocs
 node35-031    1

 Using customized tuning parameters: mindgm=1; mindgv=20; mindgc=4; mindgr=1; noblas=0; minvec=7
 default implementation of scratch files=df  

 memory,500,m
 geomtyp=xyz
 nosym
 noorient
 geometry={
 C         -1.29962       -0.90485       -0.02015
 C         -1.20595        0.50582       -0.01341
 C          0.00000        1.18336        0.15330
 C          1.20595        0.50581       -0.01342
 C          1.29963       -0.90485       -0.02015
 H          2.16880       -1.32755       -0.51570
 H          1.03204       -1.45439        0.87317
 H          2.03713        1.08558       -0.39850
 H          0.00000        2.26291        0.08590
 H         -2.03713        1.08559       -0.39848
 H         -2.16880       -1.32754       -0.51572
 H         -0.00001       -1.18194       -0.52081
 H         -1.03206       -1.45439        0.87316
 }
 basis={ default,avdz }
 {ks,PBE,direct;wf,38,1,0}
 {ibba,bonds=1}

 Variables initialized (895), CPU time= 0.00 sec
 Commands  initialized (725), CPU time= 0.02 sec, 591 directives.
 Default parameters read. Elapsed time= 0.09 sec

 Checking input...
 Passed
1


                                         ***  PROGRAM SYSTEM MOLPRO  ***
                                       Copyright, TTI GmbH Stuttgart, 2015
                                    Version 2099.9 linked May 26 2017 16:03:21


 **********************************************************************************************************************************
 LABEL *                                                                                 
  64 bit serial version                                                                  DATE: 24-Jun-17          TIME: 01:07:50  
 **********************************************************************************************************************************

 SHA1:             b4a5b34a9e711420743f49e6833241d17c61fb3c
 **********************************************************************************************************************************
 SETTING GEOMTYP        =    XYZ

 Variable memory set to  500000000 words,  buffer space 

 ZSYMEL=NOSYM

 SETTING BASIS          =    AVDZ


 Recomputing integrals since basis changed


 Using spherical harmonics

 Library entry C      S aug-cc-pVDZ          selected for orbital group  1
 Library entry C      P aug-cc-pVDZ          selected for orbital group  1
 Library entry C      D aug-cc-pVDZ          selected for orbital group  1
 Library entry H      S aug-cc-pVDZ          selected for orbital group  2
 Library entry H      P aug-cc-pVDZ          selected for orbital group  2


 PROGRAM * SEWARD (Integral evaluation for generally contracted gaussian basis sets)     Author: Roland Lindh, 1990

 Geometry written to block  1 of record 700


 Point group  C1  



 ATOMIC COORDINATES

 NR  ATOM    CHARGE       X              Y              Z

   1  C       6.00   -2.455925866   -1.709918684   -0.038077981
   2  C       6.00   -2.278915220    0.955861268   -0.025341227
   3  C       6.00    0.000000000    2.236226307    0.289695015
   4  C       6.00    2.278915220    0.955842371   -0.025360125
   5  C       6.00    2.455944763   -1.709918684   -0.038077981
   6  H       1.00    4.098438019   -2.508705917   -0.974531762
   7  H       1.00    1.950272950   -2.748398778    1.650052160
   8  H       1.00    3.849617780    2.051448886   -0.753055861
   9  H       1.00    0.000000000    4.276280145    0.162327474
  10  H       1.00   -3.849617780    2.051467784   -0.753018066
  11  H       1.00   -4.098438019   -2.508687019   -0.974569557
  12  H       1.00   -0.000018897   -2.233542896   -0.984188263
  13  H       1.00   -1.950310744   -2.748398778    1.650033263

 Bond lengths in Bohr (Angstrom)

  1- 2  2.671680697   1-11  2.052533434   1-12  2.683428035   1-13  2.045435683   2- 3  2.632876193
       ( 1.413792540)       ( 1.086153918)       ( 1.420008963)       ( 1.082397950)       ( 1.393258080)

  2-10  2.048651691   3- 4  2.632887643   3- 9  2.044025966   4- 5  2.671663004   4- 8  2.048658403
       ( 1.084099788)       ( 1.393264140)       ( 1.081651960)       ( 1.413783177)       ( 1.084103340)

  5- 6  2.052508422   5- 7  2.045465293   5-12  2.683479920
       ( 1.086140682)       ( 1.082413619)       ( 1.420036420)

 Bond angles

  1- 2- 3  122.89782778   1- 2-10  118.75871624   1-12- 5  132.47234294   2- 1-11  116.32721645

  2- 1-12   97.80173434   2- 1-13  119.09588828   2- 3- 4  119.89324472   2- 3- 9  118.54820900

  3- 2-10  116.49102536   3- 4- 5  122.89852837   3- 4- 8  116.49079575   4- 3- 9  118.54851150

  4- 5- 6  116.32827193   4- 5- 7  119.09554722   4- 5-12   97.80095519   5- 4- 8  118.75838114

  6- 5- 7  112.13503634   6- 5-12  119.70875871   7- 5-12   88.03169400  11- 1-12  119.70812329

 11- 1-13  112.13482699  12- 1-13   88.03319435

 NUCLEAR CHARGE:                   38
 NUMBER OF PRIMITIVE AOS:         273
 NUMBER OF SYMMETRY AOS:          263
 NUMBER OF CONTRACTIONS:          187   ( 187A   )
 NUMBER OF CORE ORBITALS:           5   (   5A   )
 NUMBER OF VALENCE ORBITALS:       28   (  28A   )


 NUCLEAR REPULSION ENERGY  164.93668795


 Eigenvalues of metric

         1 0.186E-04 0.225E-04 0.442E-04 0.527E-04 0.637E-04 0.848E-04 0.871E-04 0.140E-03


 Contracted 2-electron integrals neglected if value below      1.0D-12
 AO integral compression algorithm  1   Integral accuracy      1.0D-12

     854.065 MB (compressed) written to integral file ( 62.3%)


 NUMBER OF SORTED TWO-ELECTRON INTEGRALS:  154501831.     BUFFER LENGTH:  32768
 NUMBER OF SEGMENTS:  10  SEGMENT LENGTH:   15999503      RECORD LENGTH: 524288

 Memory used in sort:      16.56 MW

 SORT1 READ   171475898. AND WROTE   153097897. INTEGRALS IN    443 RECORDS. CPU TIME:     2.01 SEC, REAL TIME:     4.92 SEC
 SORT2 READ   153097897. AND WROTE   154501831. INTEGRALS IN   3258 RECORDS. CPU TIME:     3.65 SEC, REAL TIME:    43.97 SEC

 FILE SIZES:   FILE 1:   885.5 MBYTE,  FILE 4:  1858.1 MBYTE,   TOTAL:   2743.6 MBYTE

 OPERATOR DM      FOR CENTER  0  COORDINATES:    0.000000    0.000000    0.000000


 **********************************************************************************************************************************
 DATASETS  * FILE   NREC   LENGTH (MB)   RECORD NAMES
              1      19      817.72       500      610      700      900      950      970     1000      129      960     1100   
                                          VAR    BASINP    GEOM    SYMINP    ZMAT    AOBASIS   BASIS     P2S    ABASIS      S 
                                         1400     1410     1200     1210     1080     1600     1650     1300     1700   
                                           T        V       H0       H01     AOSYM     SMH    MOLCAS    ERIS     OPER   

 PROGRAMS   *        TOTAL       INT
 CPU TIMES  *        14.21     14.07
 REAL TIME  *        84.92 SEC
 DISK USED  *         2.74 GB      
 **********************************************************************************************************************************

 Density functional group PBE=PBEX+PBEC
 Functional: PBEX(Automatically generated (new) PBEX)                          Gradient terms: 1
 Functional: PBEC(Automatically generated (new) PBEC)                          Gradient terms: 1
 Use grid at  1800.2

 Functional: PBEX                      Factor:  1.0000
 Functional: PBEC                      Factor:  1.0000

 Generated new metagrid on record  1800.2 with target accuracy 1.0D-06 and 48308 points in CPU time    1.2
 Computed new grid on record 1800.1 in CPU time    1.3
  152971 words reserved for DFT integration

 PROGRAM * RKS-SCF (Restricted closed shell Kohn-Sham)     Authors: W. Meyer, H.-J. Werner, P.J. Knowles, 1993

 NUMBER OF ELECTRONS:      19+   19-    SPACE SYMMETRY=1    SPIN SYMMETRY: Singlet 
 CONVERGENCE THRESHOLDS:    1.00E-05 (Density)    1.00E-06 (Energy)
 MAX. NUMBER OF ITERATIONS:       60
 INTERPOLATION TYPE:            DIIS
 INTERPOLATION STEPS:              2 (START)      1 (STEP)
 LEVEL SHIFTS:                  0.00 (CLOSED)  0.00 (OPEN) 



 Use fine grid record 1800.2 for energy threshold  1.0D-06
 Orbital guess generated from atomic densities. Full valence occupancy:   33

 Molecular orbital dump at record        2100.2

 Initial occupancy:  19

 ITERATION    DDIFF          GRAD             ENERGY        2-EL.EN.            DIPOLE MOMENTS         DIIS   ORB.
    1      0.000D+00      0.000D+00      -194.77197519    529.941539    0.00001   -0.24708   -0.15767    0    start
    2      0.000D+00      0.776D-02      -194.40225139    489.394887   -0.00001    0.34133   -0.11344    1    diag
    3      0.430D-01      0.126D-01      -194.99835977    515.443541    0.00002   -0.18290   -0.11202    2    diag
    4      0.236D-01      0.111D-02      -195.00025982    514.541806   -0.00002    0.15765   -0.06248    3    diag
    5      0.309D-02      0.841D-03      -195.00214204    514.634198    0.00002   -0.22246   -0.12561    4    diag
    6      0.165D-02      0.413D-03      -195.00283801    514.608262    0.00000   -0.04267   -0.09420    5    diag
    7      0.637D-03      0.430D-04      -195.00284687    514.619931    0.00001   -0.06533   -0.09962    6    diag
    8      0.107D-03      0.603D-05      -195.00284700    514.626685   -0.00000   -0.06424   -0.09806    7    diag
    9      0.172D-04      0.227D-05      -195.00284701    514.627018    0.00001   -0.06376   -0.09851    8    diag
   10      0.507D-05      0.918D-06      -195.00284701    514.626700   -0.00001   -0.06386   -0.09859    0    orth

 Final occupancy:  19

 !RKS STATE 1.1 Energy               -195.002847005797
 Nuclear energy                       164.93668795
 One-electron energy                 -587.46537732
 Two-electron energy                  257.31334977
 Density functional                   -29.78750741     PBEX=-28.55409709 PBEC= -1.23341032
 Virial quotient                       -1.00558267
 !RKS STATE 1.1 Dipole moment          -0.00000943    -0.06386106    -0.09859452
 Dipole moment /Debye                  -0.00002397    -0.16230800    -0.25058586

 Orbital energies:

         1.1          2.1          3.1          4.1          5.1          6.1          7.1          8.1          9.1         10.1
     -9.901930    -9.901918    -9.895296    -9.895280    -9.894162    -0.756981    -0.674679    -0.630368    -0.533987    -0.480391

        11.1         12.1         13.1         14.1         15.1         16.1         17.1         18.1         19.1         20.1
     -0.448205    -0.381725    -0.370924    -0.368177    -0.350108    -0.322329    -0.309676    -0.235528    -0.202117    -0.060660

        21.1
     -0.022170

 HOMO     19.1    -0.202117 =      -5.4999eV
 LUMO     20.1    -0.060660 =      -1.6506eV
 LUMO-HOMO         0.141457 =       3.8492eV


 **********************************************************************************************************************************
 DATASETS  * FILE   NREC   LENGTH (MB)   RECORD NAMES
              1      20      819.26       500      610      700      900      950      970     1000      129      960     1100   
                                          VAR    BASINP    GEOM    SYMINP    ZMAT    AOBASIS   BASIS     P2S    ABASIS      S 
                                         1400     1410     1200     1210     1080     1600     1650     1300     1700     1800   
                                           T        V       H0       H01     AOSYM     SMH    MOLCAS    ERIS     OPER     GRID   

              2       5        3.69       700     1000      520     1800     2100   
                                         GEOM     BASIS   MCVARS    GRID      RKS  

 PROGRAMS   *        TOTAL        KS       INT
 CPU TIMES  *        48.95     34.74     14.07
 REAL TIME  *       223.49 SEC
 DISK USED  *         2.74 GB      
 **********************************************************************************************************************************


 PROGRAM * Intrinsic Basis Bonding Analysis (IBBA)          Author: G. Knizia

 Molecular orbitals read from record     2100.2  Type=RKS/CANONICAL (state 1.1)
 Fock matrix read from record            2100.2  Type=RKS/TOTAL (state 1.1)
 Orbital energies read from record       2100.2  Type=RKS/CANONICAL (state 1.1)
 Density matrix read from record         2100.2  Type=RKS/CHARGE (state 1.1)

 Number of core orbitals:           5 (   5 )
 Number of closed-shell orbitals:  14 (  14 )

 Basis set MINAO-AUTO-PP generated.      Number of basis functions:   33 

 Polarized AO type:                A = (O Ot + (1-O)(1-Ot)) P12
 Orthogonalization method:         Symmetric (Loewdin)
 Localization functional:          L = sum[A,i] <i|n_A|i>^4 -> max

 Localization group 1:  19 orbitals, occupancy  2.000
 Iterative localization: IB/PM,   13 iter; Final gradient 0.27E-08

 Bond order analysis:       [THRPRINT= 0.020]

   CEN ATOM   CEN ATOM     WIBERG.BO      RENORM.BO
     1   C  -   2   C       1.387458       1.356984
     1   C  -  11   H       0.950033       0.973111
     1   C  -  13   H       0.929848       0.970064
     1   C  -  12   H       0.463778       0.502513
     1   C  -   4   C       0.151521       0.141331

     2   C  -   3   C       1.461072       1.448046
     2   C  -   1   C       1.387458       1.356984
     2   C  -  10   H       0.930843       0.960870
     2   C  -   5   C       0.151527       0.141339
     2   C  -   8   H       0.020148       0.023690

     3   C  -   2   C       1.461072       1.448046
     3   C  -   4   C       1.461041       1.448014
     3   C  -   9   H       0.939208       0.966276
     3   C  -  12   H       0.028043       0.032508

     4   C  -   3   C       1.461041       1.448014
     4   C  -   5   C       1.387497       1.357020
     4   C  -   8   H       0.930842       0.960869
     4   C  -   1   C       0.151521       0.141331
     4   C  -  10   H       0.020148       0.023689

     5   C  -   4   C       1.387497       1.357020
     5   C  -   6   H       0.950032       0.973112
     5   C  -   7   H       0.929848       0.970062
     5   C  -  12   H       0.463735       0.502468
     5   C  -   2   C       0.151527       0.141339

     6   H  -   5   C       0.950032       0.973112

     7   H  -   5   C       0.929848       0.970062

     8   H  -   4   C       0.930842       0.960869
     8   H  -   2   C       0.020148       0.023690

     9   H  -   3   C       0.939208       0.966276

    10   H  -   2   C       0.930843       0.960870
    10   H  -   4   C       0.020148       0.023689

    11   H  -   1   C       0.950033       0.973111

    12   H  -   1   C       0.463778       0.502513
    12   H  -   5   C       0.463735       0.502468
    12   H  -   3   C       0.028043       0.032508

    13   H  -   1   C       0.929848       0.970064


 Valency analysis:

   CEN ATOM   TOT.VALENCE
     1   C       3.941556
     2   C       3.970220
     3   C       3.968465
     4   C       3.970221
     5   C       3.941556
     6   H       0.977074
     7   H       0.974475
     8   H       0.976033
     9   H       0.976816
    10   H       0.976033
    11   H       0.977076
    12   H       0.975053
    13   H       0.974474

 Total charge composition:

   CEN ATOM         s          p       ELECTRONS ->P.CHARGE
     1   C       3.05183    3.33567      6.38749   -0.38749
     2   C       2.98243    3.16087      6.14330   -0.14330
     3   C       2.97507    3.20554      6.18061   -0.18061
     4   C       2.98243    3.16087      6.14330   -0.14330
     5   C       3.05183    3.33566      6.38749   -0.38749
     6   H       0.84859                 0.84859    0.15141
     7   H       0.84023                 0.84023    0.15977
     8   H       0.84519                 0.84519    0.15481
     9   H       0.84774                 0.84774    0.15226
    10   H       0.84519                 0.84519    0.15481
    11   H       0.84859                 0.84859    0.15141
    12   H       0.84206                 0.84206    0.15794
    13   H       0.84023                 0.84023    0.15977

 Total charge composition, AO contributions:

   CEN ATOM SHL      SPHERICAL COMPONENTS
     1   C  1s       1.99139
     1   C  2s       1.06044
     1   C  2p       1.11854    1.08402    1.13311

     2   C  1s       1.99060
     2   C  2s       0.99182
     2   C  2p       1.08986    1.05930    1.01171

     3   C  1s       1.99030
     3   C  2s       0.98477
     3   C  2p       1.03810    1.13320    1.03424

     4   C  1s       1.99060
     4   C  2s       0.99182
     4   C  2p       1.08986    1.05930    1.01172

     5   C  1s       1.99139
     5   C  2s       1.06044
     5   C  2p       1.11854    1.08402    1.13310

     6   H  1s       0.84859

     7   H  1s       0.84023

     8   H  1s       0.84519

     9   H  1s       0.84774

    10   H  1s       0.84519

    11   H  1s       0.84859

    12   H  1s       0.84206

    13   H  1s       0.84023

 Summary of localized orbital composition:   [THRPRINT= 0.020]

   ORB  GRP  ORB.ENERGY      CENTERS/CHARGES
     1   1    -9.783048      C  2   2.000
     2   1    -9.783045      C  4   2.000
     3   1    -9.782139      C  1   2.000
     4   1    -9.782137      C  5   2.000
     5   1    -9.772786      C  3   2.000
     6   1    -0.617743      C  2   0.994   C  3   0.990
     7   1    -0.617738      C  4   0.994   C  3   0.990
     8   1    -0.609134      C  4   0.995   C  5   0.993
     9   1    -0.609128      C  2   0.995   C  1   0.993
    10   1    -0.480124      C  1   1.142   H 13   0.821   (other: 0.037)
    11   1    -0.480117      C  5   1.142   H  7   0.821   (other: 0.037)
    12   1    -0.469924      C  2   1.142   H 10   0.831   (other: 0.027)
    13   1    -0.469920      C  4   1.142   H  8   0.831   (other: 0.027)
    14   1    -0.466475      C  3   1.147   H  9   0.833   (other: 0.020)
    15   1    -0.464270      C  5   1.151   H  6   0.837
    16   1    -0.464263      C  1   1.151   H 11   0.837
    17   1    -0.311768      C  1   1.087   H 12   0.400   C  2   0.359   C  4   0.138
    18   1    -0.311759      C  5   1.087   H 12   0.400   C  4   0.359   C  2   0.138
    19   1    -0.278262      C  3   1.024   C  2   0.469   C  4   0.469   (other: 0.037)

 Localized orbitals saved to record      2100.2  (orbital set 2)


 **********************************************************************************************************************************
 DATASETS  * FILE   NREC   LENGTH (MB)   RECORD NAMES
              1      20      819.26       500      610      700      900      950      970     1000      129      960     1100   
                                          VAR    BASINP    GEOM    SYMINP    ZMAT    AOBASIS   BASIS     P2S    ABASIS      S 
                                         1400     1410     1200     1210     1080     1600     1650     1300     1700     1800   
                                           T        V       H0       H01     AOSYM     SMH    MOLCAS    ERIS     OPER     GRID   

              2       5        3.97       700     1000      520     1800     2100   
                                         GEOM     BASIS   MCVARS    GRID      RKS  

 PROGRAMS   *        TOTAL      IBBA        KS       INT
 CPU TIMES  *        49.00      0.05     34.74     14.07
 REAL TIME  *       226.35 SEC
 DISK USED  *         2.74 GB      
 **********************************************************************************************************************************
 Molecular orbitals read from record     2100.2  Type=RKS/LOCAL(IBO)  
 Occupation numbers read from record     2100.2  Type=RKS/LOCAL(IBO)  
 Orbital energies read from record       2100.2  Type=RKS/LOCAL(IBO)  
 Redundancy group numbers read from rec  2100.2  Type=RKS/LOCAL(IBO)  

 IBBA/aug-cc-pVDZ energy=      0.000000000000

        KS-SCF  
   -195.00284701
 **********************************************************************************************************************************
 Molpro calculation terminated
