
 Primary working directories    : /local
 Secondary working directories  : /local
 Wavefunction directory         : /local/
 Main file repository           : /local/

 SHA1      : b4a5b34a9e711420743f49e6833241d17c61fb3c
 NAME      : 2099.9.b4a5b34
 ARCHNAME  : linux/x86_64_openmp
 FC        : /cm/shared/languages/GCC-6.1/bin/gfortran
 BLASLIB   : -lblas
 id        : simonbennie

 Nodes     nprocs
 node32-039    1

 Using customized tuning parameters: mindgm=1; mindgv=20; mindgc=4; mindgr=1; noblas=0; minvec=7
 default implementation of scratch files=df  

 memory,500,m
 geomtyp=xyz
 nosym
 noorient
 geometry={
 C         -1.29962       -0.90485       -0.02015
 C         -1.20595        0.50582       -0.01341
 C          0.00000        1.18336        0.15330
 C          1.20595        0.50581       -0.01342
 C          1.29963       -0.90485       -0.02015
 H          2.16880       -1.32755       -0.51570
 H          1.03204       -1.45439        0.87317
 H          2.03713        1.08558       -0.39850
 H          0.00000        2.26291        0.08590
 H         -2.03713        1.08559       -0.39848
 H         -2.16880       -1.32754       -0.51572
 H         -0.00001       -1.18194       -0.52081
 H         -1.03206       -1.45439        0.87316
 }
 basis={ default,svp }
 {uks,B-LYP,direct;wf,38,1,0}
 {ibba,bonds=1}

 Variables initialized (895), CPU time= 0.00 sec
 Commands  initialized (725), CPU time= 0.01 sec, 591 directives.
 Default parameters read. Elapsed time= 0.08 sec

 Checking input...
 Passed
1


                                         ***  PROGRAM SYSTEM MOLPRO  ***
                                       Copyright, TTI GmbH Stuttgart, 2015
                                    Version 2099.9 linked May 26 2017 16:03:21


 **********************************************************************************************************************************
 LABEL *                                                                                 
  64 bit serial version                                                                  DATE: 24-Jun-17          TIME: 00:08:02  
 **********************************************************************************************************************************

 SHA1:             b4a5b34a9e711420743f49e6833241d17c61fb3c
 **********************************************************************************************************************************
 SETTING GEOMTYP        =    XYZ

 Variable memory set to  500000000 words,  buffer space 

 ZSYMEL=NOSYM

 SETTING BASIS          =    SVP


 Recomputing integrals since basis changed


 Using spherical harmonics

 Library entry C      S def2-SVP             selected for orbital group  1
 Library entry C      P def2-SVP             selected for orbital group  1
 Library entry C      D def2-SVP             selected for orbital group  1
 Library entry H      S def2-SVP             selected for orbital group  2
 Library entry H      P def2-SVP             selected for orbital group  2


 PROGRAM * SEWARD (Integral evaluation for generally contracted gaussian basis sets)     Author: Roland Lindh, 1990

 Geometry written to block  1 of record 700


 Point group  C1  



 ATOMIC COORDINATES

 NR  ATOM    CHARGE       X              Y              Z

   1  C       6.00   -2.455925866   -1.709918684   -0.038077981
   2  C       6.00   -2.278915220    0.955861268   -0.025341227
   3  C       6.00    0.000000000    2.236226307    0.289695015
   4  C       6.00    2.278915220    0.955842371   -0.025360125
   5  C       6.00    2.455944763   -1.709918684   -0.038077981
   6  H       1.00    4.098438019   -2.508705917   -0.974531762
   7  H       1.00    1.950272950   -2.748398778    1.650052160
   8  H       1.00    3.849617780    2.051448886   -0.753055861
   9  H       1.00    0.000000000    4.276280145    0.162327474
  10  H       1.00   -3.849617780    2.051467784   -0.753018066
  11  H       1.00   -4.098438019   -2.508687019   -0.974569557
  12  H       1.00   -0.000018897   -2.233542896   -0.984188263
  13  H       1.00   -1.950310744   -2.748398778    1.650033263

 Bond lengths in Bohr (Angstrom)

  1- 2  2.671680697   1-11  2.052533434   1-12  2.683428035   1-13  2.045435683   2- 3  2.632876193
       ( 1.413792540)       ( 1.086153918)       ( 1.420008963)       ( 1.082397950)       ( 1.393258080)

  2-10  2.048651691   3- 4  2.632887643   3- 9  2.044025966   4- 5  2.671663004   4- 8  2.048658403
       ( 1.084099788)       ( 1.393264140)       ( 1.081651960)       ( 1.413783177)       ( 1.084103340)

  5- 6  2.052508422   5- 7  2.045465293   5-12  2.683479920
       ( 1.086140682)       ( 1.082413619)       ( 1.420036420)

 Bond angles

  1- 2- 3  122.89782778   1- 2-10  118.75871624   1-12- 5  132.47234294   2- 1-11  116.32721645

  2- 1-12   97.80173434   2- 1-13  119.09588828   2- 3- 4  119.89324472   2- 3- 9  118.54820900

  3- 2-10  116.49102536   3- 4- 5  122.89852837   3- 4- 8  116.49079575   4- 3- 9  118.54851150

  4- 5- 6  116.32827193   4- 5- 7  119.09554722   4- 5-12   97.80095519   5- 4- 8  118.75838114

  6- 5- 7  112.13503634   6- 5-12  119.70875871   7- 5-12   88.03169400  11- 1-12  119.70812329

 11- 1-13  112.13482699  12- 1-13   88.03319435

 NUCLEAR CHARGE:                   38
 NUMBER OF PRIMITIVE AOS:         181
 NUMBER OF SYMMETRY AOS:          176
 NUMBER OF CONTRACTIONS:          110   ( 110A   )
 NUMBER OF CORE ORBITALS:           5   (   5A   )
 NUMBER OF VALENCE ORBITALS:       28   (  28A   )


 NUCLEAR REPULSION ENERGY  164.93668795


 Eigenvalues of metric

         1 0.137E-02 0.252E-02 0.396E-02 0.501E-02 0.137E-01 0.147E-01 0.169E-01 0.209E-01


 Contracted 2-electron integrals neglected if value below      1.0D-11
 AO integral compression algorithm  1   Integral accuracy      1.0D-11

     73.400 MB (compressed) written to integral file ( 45.7%)


 NUMBER OF SORTED TWO-ELECTRON INTEGRALS:   18638565.     BUFFER LENGTH:  32768
 NUMBER OF SEGMENTS:   2  SEGMENT LENGTH:   15997996      RECORD LENGTH: 524288

 Memory used in sort:      16.56 MW

 SORT1 READ    20114084. AND WROTE    17030464. INTEGRALS IN     49 RECORDS. CPU TIME:     0.23 SEC, REAL TIME:     0.47 SEC
 SORT2 READ    17030464. AND WROTE    18638565. INTEGRALS IN    280 RECORDS. CPU TIME:     0.43 SEC, REAL TIME:     0.55 SEC

 FILE SIZES:   FILE 1:   104.0 MBYTE,  FILE 4:   205.6 MBYTE,   TOTAL:    309.6 MBYTE

 OPERATOR DM      FOR CENTER  0  COORDINATES:    0.000000    0.000000    0.000000


 **********************************************************************************************************************************
 DATASETS  * FILE   NREC   LENGTH (MB)   RECORD NAMES
              1      19       95.32       500      610      700      900      950      970     1000      129      960     1100   
                                          VAR    BASINP    GEOM    SYMINP    ZMAT    AOBASIS   BASIS     P2S    ABASIS      S 
                                         1400     1410     1200     1210     1080     1600     1650     1300     1700   
                                           T        V       H0       H01     AOSYM     SMH    MOLCAS    ERIS     OPER   

 PROGRAMS   *        TOTAL       INT
 CPU TIMES  *         2.76      2.62
 REAL TIME  *         3.58 SEC
 DISK USED  *       310.07 MB      
 **********************************************************************************************************************************

 Density functional group B-LYP=B88+LYP
 Functional: B88(Automatically generated (new) B88)                            Gradient terms: 1
 Functional: LYP(Automatically generated (new) LYP)                            Gradient terms: 1
 Use grid at  1800.2

 Functional: B88                       Factor:  1.0000
 Functional: LYP                       Factor:  1.0000

 Generated new metagrid on record  1800.2 with target accuracy 1.0D-06 and 48308 points in CPU time    1.2
 Computed new grid on record 1800.1 in CPU time    1.3
   91565 words reserved for DFT integration

 PROGRAM * UKS-SCF (Unrestricted Kohn-Sham)     Authors: W. Meyer, H.-J. Werner, P.J. Knowles, 1993

 NUMBER OF ELECTRONS:      19+   19-    SPACE SYMMETRY=1    SPIN SYMMETRY: Singlet 
 CONVERGENCE THRESHOLDS:    1.00E-05 (Density)    1.00E-06 (Energy)
 MAX. NUMBER OF ITERATIONS:       60
 INTERPOLATION TYPE:            DIIS
 INTERPOLATION STEPS:              2 (START)      1 (STEP)
 LEVEL SHIFTS:                 -0.20 (ALPHA)  -0.20 (BETA) 



 Use fine grid record 1800.2 for energy threshold  1.0D-06
 Orbital guess generated from atomic densities. Full valence occupancy:   19

 Molecular orbital dump at record        2200.2

 Initial alpha occupation  19
 Initial beta  occupation  19

 ITERATION    DDIFF          GRAD             ENERGY        2-EL.EN.            DIPOLE MOMENTS         DIIS
    1      0.000D+00      0.000D+00      -194.73562429    530.644178    0.00001   -0.26480   -0.13934    0
    2      0.143D-01      0.590D-02      -194.95774747    509.769622    0.00000   -0.03196   -0.03535    1
    3      0.415D-02      0.254D-02      -194.99539666    515.002672    0.00001   -0.03584   -0.06056    2
    4      0.114D-02      0.222D-03      -194.99602660    514.783981    0.00000   -0.05503   -0.05923    3
    5      0.659D-03      0.868D-04      -194.99616449    514.734497    0.00000   -0.04306   -0.05620    4
    6      0.273D-03      0.311D-04      -194.99618818    514.723254    0.00000   -0.05167   -0.05765    5
    7      0.626D-04      0.223D-04      -194.99619257    514.718270    0.00000   -0.04587   -0.05626    6
    8      0.348D-04      0.478D-05      -194.99619327    514.720574    0.00000   -0.04682   -0.05660    7
    9      0.685D-05      0.231D-05      -194.99619333    514.719760    0.00000   -0.04681   -0.05666    7
   10      0.353D-05      0.101D-05      -194.99619334    514.720159    0.00000   -0.04682   -0.05665    7

 Final alpha occupancy:  19
 Final beta  occupancy:  19

 !UKS STATE 1.1 Energy               -194.996193337923
 Nuclear energy                       164.93668795
 One-electron energy                 -587.36977270
 Two-electron energy                  257.36007975
 Density functional                   -29.92318834     B88=-28.69490641 LYP= -1.22828193
 Virial quotient                       -1.01090133
 !UKS STATE 1.1 Dipole moment           0.00000405    -0.04681557    -0.05664541
 Dipole moment /Debye                   0.00001030    -0.11898551    -0.14396885

 Orbital energies for positive spin:

         1.1          2.1          3.1          4.1          5.1          6.1          7.1          8.1          9.1         10.1
     -9.923568    -9.923556    -9.919183    -9.919175    -9.916633    -0.734736    -0.653326    -0.611282    -0.517159    -0.466625

        11.1         12.1         13.1         14.1         15.1         16.1         17.1         18.1         19.1         20.1
     -0.436746    -0.372611    -0.362434    -0.358590    -0.339485    -0.315541    -0.302673    -0.224754    -0.190724    -0.047746

        21.1
     -0.001250

 Orbital energies for negative spin:

         1.1          2.1          3.1          4.1          5.1          6.1          7.1          8.1          9.1         10.1
     -9.923568    -9.923556    -9.919183    -9.919175    -9.916633    -0.734736    -0.653326    -0.611282    -0.517159    -0.466625

        11.1         12.1         13.1         14.1         15.1         16.1         17.1         18.1         19.1         20.1
     -0.436746    -0.372611    -0.362434    -0.358590    -0.339485    -0.315541    -0.302673    -0.224754    -0.190724    -0.047746

        21.1
     -0.001250

 HOMO     19.1    -0.190724 =      -5.1899eV
 LUMO     20.1    -0.047746 =      -1.2992eV
 LUMO-HOMO         0.142978 =       3.8906eV

 EXPECTATION VALUE OF S**2:             0.00000000

 Natural orbitals saved to record    2200.2 (Orbital set 3)

 Orbital spaces for UNO-CAS (Min. occupation: 0.020  Max. occupation: 1.980):

 Closed:       19
 Active:        0


 **********************************************************************************************************************************
 DATASETS  * FILE   NREC   LENGTH (MB)   RECORD NAMES
              1      20       96.87       500      610      700      900      950      970     1000      129      960     1100   
                                          VAR    BASINP    GEOM    SYMINP    ZMAT    AOBASIS   BASIS     P2S    ABASIS      S 
                                         1400     1410     1200     1210     1080     1600     1650     1300     1700     1800   
                                           T        V       H0       H01     AOSYM     SMH    MOLCAS    ERIS     OPER     GRID   

              2       5        3.46       700     1000      520     1800     2200   
                                         GEOM     BASIS   MCVARS    GRID      UKS  

 PROGRAMS   *        TOTAL       UKS       INT
 CPU TIMES  *        19.29     16.53      2.62
 REAL TIME  *        21.24 SEC
 DISK USED  *       310.07 MB      
 **********************************************************************************************************************************


 PROGRAM * Intrinsic Basis Bonding Analysis (IBBA)          Author: G. Knizia

 Molecular orbitals read from record     2200.2  Type=UKS/ALPHA (state 1.1)
 Fock matrix read from record            2200.2  Type=UKS/TOTAL (state 1.1)
 Orbital energies read from record       2200.2  Type=UKS/ALPHA (state 1.1)
 Density matrix read from record         2200.2  Type=UKS/CHARGE (state 1.1)

 Number of core orbitals:           5 (   5 )
 Number of closed-shell orbitals:  14 (  14 )

 Basis set MINAO-AUTO-PP generated.      Number of basis functions:   33 

 Polarized AO type:                A = (O Ot + (1-O)(1-Ot)) P12
 Orthogonalization method:         Symmetric (Loewdin)
 Localization functional:          L = sum[A,i] <i|n_A|i>^4 -> max

 Localization group 1:  19 orbitals, occupancy  2.000
 Iterative localization: IB/PM,   13 iter; Final gradient 0.37E-08

 Bond order analysis:       [THRPRINT= 0.020]

   CEN ATOM   CEN ATOM     WIBERG.BO      RENORM.BO
     1   C  -   2   C       1.384059       1.358834
     1   C  -  11   H       0.956210       0.974953
     1   C  -  13   H       0.935507       0.970256
     1   C  -  12   H       0.465366       0.500332
     1   C  -   4   C       0.152248       0.142721

     2   C  -   3   C       1.459130       1.451513
     2   C  -   1   C       1.384059       1.358834
     2   C  -  10   H       0.937491       0.962813
     2   C  -   5   C       0.152255       0.142729

     3   C  -   2   C       1.459130       1.451513
     3   C  -   4   C       1.459098       1.451481
     3   C  -   9   H       0.945753       0.968630
     3   C  -  12   H       0.028197       0.032341

     4   C  -   3   C       1.459098       1.451481
     4   C  -   5   C       1.384099       1.358873
     4   C  -   8   H       0.937491       0.962812
     4   C  -   1   C       0.152248       0.142721

     5   C  -   4   C       1.384099       1.358873
     5   C  -   6   H       0.956209       0.974953
     5   C  -   7   H       0.935507       0.970254
     5   C  -  12   H       0.465322       0.500287
     5   C  -   2   C       0.152255       0.142729

     6   H  -   5   C       0.956209       0.974953

     7   H  -   5   C       0.935507       0.970254

     8   H  -   4   C       0.937491       0.962812

     9   H  -   3   C       0.945753       0.968630

    10   H  -   2   C       0.937491       0.962813

    11   H  -   1   C       0.956210       0.974953

    12   H  -   1   C       0.465366       0.500332
    12   H  -   5   C       0.465322       0.500287
    12   H  -   3   C       0.028197       0.032341

    13   H  -   1   C       0.935507       0.970256


 Valency analysis:

   CEN ATOM   TOT.VALENCE
     1   C       3.949729
     2   C       3.971687
     3   C       3.969608
     4   C       3.971688
     5   C       3.949729
     6   H       0.982217
     7   H       0.979961
     8   H       0.981393
     9   H       0.981910
    10   H       0.981393
    11   H       0.982218
    12   H       0.978320
    13   H       0.979960

 Total charge composition:

   CEN ATOM         s          p       ELECTRONS ->P.CHARGE
     1   C       3.02614    3.32169      6.34783   -0.34783
     2   C       2.96040    3.16333      6.12373   -0.12373
     3   C       2.95318    3.20807      6.16125   -0.16125
     4   C       2.96040    3.16333      6.12373   -0.12373
     5   C       3.02614    3.32168      6.34783   -0.34783
     6   H       0.86665                 0.86665    0.13335
     7   H       0.85844                 0.85844    0.14156
     8   H       0.86359                 0.86359    0.13641
     9   H       0.86550                 0.86550    0.13450
    10   H       0.86359                 0.86359    0.13641
    11   H       0.86665                 0.86665    0.13335
    12   H       0.85276                 0.85276    0.14724
    13   H       0.85844                 0.85844    0.14156

 Total charge composition, AO contributions:

   CEN ATOM SHL      SPHERICAL COMPONENTS
     1   C  1s       1.99126
     1   C  2s       1.03489
     1   C  2p       1.11178    1.08604    1.12387

     2   C  1s       1.99046
     2   C  2s       0.96994
     2   C  2p       1.08986    1.06460    1.00887

     3   C  1s       1.99015
     3   C  2s       0.96303
     3   C  2p       1.04689    1.12912    1.03206

     4   C  1s       1.99046
     4   C  2s       0.96994
     4   C  2p       1.08986    1.06461    1.00887

     5   C  1s       1.99126
     5   C  2s       1.03489
     5   C  2p       1.11178    1.08604    1.12386

     6   H  1s       0.86665

     7   H  1s       0.85844

     8   H  1s       0.86359

     9   H  1s       0.86550

    10   H  1s       0.86359

    11   H  1s       0.86665

    12   H  1s       0.85276

    13   H  1s       0.85844

 Summary of localized orbital composition:   [THRPRINT= 0.020]

   ORB  GRP  ORB.ENERGY      CENTERS/CHARGES
     1   1    -9.807467      C  5   2.000
     2   1    -9.807467      C  1   2.000
     3   1    -9.805755      C  4   2.000
     4   1    -9.805755      C  2   2.000
     5   1    -9.796262      C  3   2.000
     6   1    -0.603052      C  2   0.994   C  3   0.990
     7   1    -0.603048      C  4   0.994   C  3   0.990
     8   1    -0.595015      C  4   0.995   C  5   0.992
     9   1    -0.595007      C  2   0.995   C  1   0.992
    10   1    -0.467360      C  1   1.125   H 13   0.839   (other: 0.036)
    11   1    -0.467354      C  5   1.125   H  7   0.839   (other: 0.036)
    12   1    -0.456663      C  2   1.126   H 10   0.850   (other: 0.025)
    13   1    -0.456661      C  4   1.126   H  8   0.850   (other: 0.025)
    14   1    -0.454000      C  3   1.131   H  9   0.851
    15   1    -0.451780      C  5   1.133   H  6   0.856
    16   1    -0.451772      C  1   1.133   H 11   0.856
    17   1    -0.299356      C  1   1.082   H 12   0.405   C  2   0.358   C  4   0.139
    18   1    -0.299348      C  5   1.082   H 12   0.405   C  4   0.358   C  2   0.139
    19   1    -0.265648      C  3   1.023   C  2   0.470   C  4   0.470   (other: 0.037)

 Localized orbitals saved to record      2200.2  (orbital set 4)


 **********************************************************************************************************************************
 DATASETS  * FILE   NREC   LENGTH (MB)   RECORD NAMES
              1      20       96.87       500      610      700      900      950      970     1000      129      960     1100   
                                          VAR    BASINP    GEOM    SYMINP    ZMAT    AOBASIS   BASIS     P2S    ABASIS      S 
                                         1400     1410     1200     1210     1080     1600     1650     1300     1700     1800   
                                           T        V       H0       H01     AOSYM     SMH    MOLCAS    ERIS     OPER     GRID   

              2       5        3.56       700     1000      520     1800     2200   
                                         GEOM     BASIS   MCVARS    GRID      UKS  

 PROGRAMS   *        TOTAL      IBBA       UKS       INT
 CPU TIMES  *        19.32      0.03     16.53      2.62
 REAL TIME  *        21.35 SEC
 DISK USED  *       310.07 MB      
 **********************************************************************************************************************************
 Molecular orbitals read from record     2200.2  Type=UKS/LOCAL(IBO)  
 Occupation numbers read from record     2200.2  Type=UKS/LOCAL(IBO)  
 Orbital energies read from record       2200.2  Type=UKS/LOCAL(IBO)  
 Redundancy group numbers read from rec  2200.2  Type=UKS/BETA (state 1.1)

 IBBA/SVP energy=      0.000000000000

        UKS-SCF 
   -194.99619334
 **********************************************************************************************************************************
 Molpro calculation terminated
