
 Primary working directories    : /local
 Secondary working directories  : /local
 Wavefunction directory         : /local/
 Main file repository           : /local/

 SHA1      : b4a5b34a9e711420743f49e6833241d17c61fb3c
 NAME      : 2099.9.b4a5b34
 ARCHNAME  : linux/x86_64_openmp
 FC        : /cm/shared/languages/GCC-6.1/bin/gfortran
 BLASLIB   : -lblas
 id        : simonbennie

 Nodes     nprocs
 node32-007    1

 Using customized tuning parameters: mindgm=1; mindgv=20; mindgc=4; mindgr=1; noblas=0; minvec=7
 default implementation of scratch files=df  

 memory,500,m
 geomtyp=xyz
 nosym
 noorient
 geometry={
 C         -1.29962       -0.90485       -0.02015
 C         -1.20595        0.50582       -0.01341
 C          0.00000        1.18336        0.15330
 C          1.20595        0.50581       -0.01342
 C          1.29963       -0.90485       -0.02015
 H          2.16880       -1.32755       -0.51570
 H          1.03204       -1.45439        0.87317
 H          2.03713        1.08558       -0.39850
 H          0.00000        2.26291        0.08590
 H         -2.03713        1.08559       -0.39848
 H         -2.16880       -1.32754       -0.51572
 H         -0.00001       -1.18194       -0.52081
 H         -1.03206       -1.45439        0.87316
 }
 basis={ default,sto-3g }
 {ks,M06-2X,direct;disp;wf,38,1,0}
 {ibba,bonds=1}

 Variables initialized (895), CPU time= 0.00 sec
 Commands  initialized (725), CPU time= 0.02 sec, 591 directives.
 Default parameters read. Elapsed time= 0.08 sec

 Checking input...
 Passed
1


                                         ***  PROGRAM SYSTEM MOLPRO  ***
                                       Copyright, TTI GmbH Stuttgart, 2015
                                    Version 2099.9 linked May 26 2017 16:03:21


 **********************************************************************************************************************************
 LABEL *                                                                                 
  64 bit serial version                                                                  DATE: 17-Mar-18          TIME: 08:45:19  
 **********************************************************************************************************************************

 SHA1:             b4a5b34a9e711420743f49e6833241d17c61fb3c
 **********************************************************************************************************************************
 SETTING GEOMTYP        =    XYZ

 Variable memory set to  500000000 words,  buffer space 

 ZSYMEL=NOSYM

 SETTING BASIS          =    STO-3G


 Recomputing integrals since basis changed


 Using spherical harmonics

 Library entry C      S STO-3G               selected for orbital group  1
 Library entry C      P STO-3G               selected for orbital group  1
 Library entry H      S STO-3G               selected for orbital group  2


 PROGRAM * SEWARD (Integral evaluation for generally contracted gaussian basis sets)     Author: Roland Lindh, 1990

 Geometry written to block  1 of record 700


 Point group  C1  



 ATOMIC COORDINATES

 NR  ATOM    CHARGE       X              Y              Z

   1  C       6.00   -2.455925866   -1.709918684   -0.038077981
   2  C       6.00   -2.278915220    0.955861268   -0.025341227
   3  C       6.00    0.000000000    2.236226307    0.289695015
   4  C       6.00    2.278915220    0.955842371   -0.025360125
   5  C       6.00    2.455944763   -1.709918684   -0.038077981
   6  H       1.00    4.098438019   -2.508705917   -0.974531762
   7  H       1.00    1.950272950   -2.748398778    1.650052160
   8  H       1.00    3.849617780    2.051448886   -0.753055861
   9  H       1.00    0.000000000    4.276280145    0.162327474
  10  H       1.00   -3.849617780    2.051467784   -0.753018066
  11  H       1.00   -4.098438019   -2.508687019   -0.974569557
  12  H       1.00   -0.000018897   -2.233542896   -0.984188263
  13  H       1.00   -1.950310744   -2.748398778    1.650033263

 Bond lengths in Bohr (Angstrom)

  1- 2  2.671680697   1-11  2.052533434   1-12  2.683428035   1-13  2.045435683   2- 3  2.632876193
       ( 1.413792540)       ( 1.086153918)       ( 1.420008963)       ( 1.082397950)       ( 1.393258080)

  2-10  2.048651691   3- 4  2.632887643   3- 9  2.044025966   4- 5  2.671663004   4- 8  2.048658403
       ( 1.084099788)       ( 1.393264140)       ( 1.081651960)       ( 1.413783177)       ( 1.084103340)

  5- 6  2.052508422   5- 7  2.045465293   5-12  2.683479920
       ( 1.086140682)       ( 1.082413619)       ( 1.420036420)

 Bond angles

  1- 2- 3  122.89782778   1- 2-10  118.75871624   1-12- 5  132.47234294   2- 1-11  116.32721645

  2- 1-12   97.80173434   2- 1-13  119.09588828   2- 3- 4  119.89324472   2- 3- 9  118.54820900

  3- 2-10  116.49102536   3- 4- 5  122.89852837   3- 4- 8  116.49079575   4- 3- 9  118.54851150

  4- 5- 6  116.32827193   4- 5- 7  119.09554722   4- 5-12   97.80095519   5- 4- 8  118.75838114

  6- 5- 7  112.13503634   6- 5-12  119.70875871   7- 5-12   88.03169400  11- 1-12  119.70812329

 11- 1-13  112.13482699  12- 1-13   88.03319435

 NUCLEAR CHARGE:                   38
 NUMBER OF PRIMITIVE AOS:          99
 NUMBER OF SYMMETRY AOS:           99
 NUMBER OF CONTRACTIONS:           33   (  33A   )
 NUMBER OF CORE ORBITALS:           5   (   5A   )
 NUMBER OF VALENCE ORBITALS:       28   (  28A   )


 NUCLEAR REPULSION ENERGY  164.93668795


 Eigenvalues of metric

         1 0.184E+00 0.213E+00 0.226E+00 0.252E+00 0.296E+00 0.304E+00 0.313E+00 0.330E+00


 Contracted 2-electron integrals neglected if value below      1.0D-11
 AO integral compression algorithm  1   Integral accuracy      1.0D-11

     1.311 MB (compressed) written to integral file ( 78.6%)


 NUMBER OF SORTED TWO-ELECTRON INTEGRALS:     157641.     BUFFER LENGTH:  32768
 NUMBER OF SEGMENTS:   1  SEGMENT LENGTH:     157641      RECORD LENGTH: 524288

 Memory used in sort:       0.71 MW

 SORT1 READ      179750. AND WROTE      152549. INTEGRALS IN      1 RECORDS. CPU TIME:     0.00 SEC, REAL TIME:     0.01 SEC
 SORT2 READ      152549. AND WROTE      157641. INTEGRALS IN      5 RECORDS. CPU TIME:     0.02 SEC, REAL TIME:     0.02 SEC

 FILE SIZES:   FILE 1:    31.5 MBYTE,  FILE 4:     4.2 MBYTE,   TOTAL:     35.7 MBYTE

 OPERATOR DM      FOR CENTER  0  COORDINATES:    0.000000    0.000000    0.000000


 **********************************************************************************************************************************
 DATASETS  * FILE   NREC   LENGTH (MB)   RECORD NAMES
              1      19       30.88       500      610      700      900      950      970     1000      129      960     1100   
                                          VAR    BASINP    GEOM    SYMINP    ZMAT    AOBASIS   BASIS     P2S    ABASIS      S 
                                         1400     1410     1200     1210     1080     1600     1650     1300     1700   
                                           T        V       H0       H01     AOSYM     SMH    MOLCAS    ERIS     OPER   

 PROGRAMS   *        TOTAL       INT
 CPU TIMES  *         0.48      0.35
 REAL TIME  *         0.75 SEC
 DISK USED  *        36.21 MB      
 **********************************************************************************************************************************

 Density functional group M06-2X=XC-M06-2X
 Functional: XC-M06-2X(via MFM 1.6)                                            Gradient terms: 1

 dispersion correction activated
 Density functional: M06-2X  
 functional not in list, set to default 


 Exact exchange will be calculated, factor:  0.5400

 Functional: XC-M06-2X                 Factor:  1.0000

 Use grid at  1800.2


 Exact exchange will be calculated, factor:  0.5400

 Functional: XC-M06-2X                 Factor:  1.0000

 Generated new metagrid on record  1800.2 with target accuracy 1.0D-06 and 48308 points in CPU time    1.2
 Computed new grid on record 1800.1 in CPU time    1.4
   30715 words reserved for DFT integration

 PROGRAM * RKS-SCF (Restricted closed shell Kohn-Sham)     Authors: W. Meyer, H.-J. Werner, P.J. Knowles, 1993

 NUMBER OF ELECTRONS:      19+   19-    SPACE SYMMETRY=1    SPIN SYMMETRY: Singlet 
 CONVERGENCE THRESHOLDS:    1.00E-05 (Density)    1.00E-06 (Energy)
 MAX. NUMBER OF ITERATIONS:       60
 INTERPOLATION TYPE:            DIIS
 INTERPOLATION STEPS:              2 (START)      1 (STEP)
 LEVEL SHIFTS:                  0.00 (CLOSED)  0.00 (OPEN) 



 Use fine grid record 1800.2 for energy threshold  1.0D-06
 Orbital guess generated from atomic densities. Full valence occupancy:   19

 Molecular orbital dump at record        2100.2

 Initial occupancy:  19

 ITERATION    DDIFF          GRAD             ENERGY        2-EL.EN.            DIPOLE MOMENTS         DIIS   ORB.
    1      0.000D+00      0.000D+00      -192.69011398    494.261463    0.00001   -0.37945   -0.24049    0    start
    2      0.000D+00      0.194D-01      -192.81784955    482.051893   -0.00000    0.23766    0.04406    1    diag
    3      0.513D-01      0.791D-02      -192.84163273    485.448424    0.00001   -0.12973   -0.07825    2    diag
    4      0.154D-01      0.104D-02      -192.84202236    485.420089    0.00001   -0.00717   -0.05453    3    diag
    5      0.213D-02      0.294D-03      -192.84205262    485.412194    0.00001   -0.02745   -0.05716    4    diag
    6      0.484D-03      0.456D-04      -192.84205329    485.413220    0.00001   -0.02864   -0.05768    5    diag
    7      0.104D-03      0.215D-04      -192.84205343    485.413997    0.00001   -0.02901   -0.05776    6    diag
    8      0.334D-04      0.186D-05      -192.84205344    485.414087    0.00001   -0.02896   -0.05777    7    diag
    9      0.474D-05      0.530D-06      -192.84205344    485.414090    0.00001   -0.02903   -0.05778    0    orth

 Dispersion correction
 - - - - - - - - - - - 
  _________________________________
                                   
 |         DFTD3 V1.3 Rev 1        |
 | S.Grimme, University Muenster   |
 | Fri Jul  2 12:48:21 CEST 2010   |
  _________________________________

 Please cite DFT-D3 work done with this code as:
 S. Grimme, J. Antony, S. Ehrlich and H. Krieg,
 J. Chem. Phys, 132 (2010), 154104.
 For DFT-D2 the reference is
 S. Grimme, J. Comput. Chem., 27 (2006), 1787-1799

 C6 coefficients used:
                    2  C6 for element                     1
 Z=  1 CN=   0.912     C6(AA)=    3.03
 Z=  1 CN=   0.000     C6(AA)=    7.59
                    5  C6 for element                     6
 Z=  6 CN=   0.000     C6(AA)=   49.11
 Z=  6 CN=   0.987     C6(AA)=   43.25
 Z=  6 CN=   1.998     C6(AA)=   29.36
 Z=  6 CN=   2.999     C6(AA)=   25.78
 Z=  6 CN=   3.984     C6(AA)=   18.21

 #           XYZ [au]               R0(AA) [Ang.]   CN       C6(AA)     C8(AA)   C10(AA) [au]
  1  -2.45593  -1.70992  -0.03808   c   1.455  3.589        20.4       590.4     20917.3
  2  -2.27892   0.95586  -0.02534   c   1.455  3.080        25.5       737.5     26127.9
  3   0.00000   2.23623   0.28970   c   1.455  3.098        25.4       736.0     26075.7
  4   2.27892   0.95584  -0.02536   c   1.455  3.080        25.5       737.5     26127.9
  5   2.45594  -1.70992  -0.03808   c   1.455  3.589        20.4       590.4     20918.3
  6   4.09844  -2.50871  -0.97453   h   1.091  0.999         3.1        37.4       553.3
  7   1.95027  -2.74840   1.65005   h   1.091  1.000         3.1        37.4       553.2
  8   3.84962   2.05145  -0.75306   h   1.091  1.004         3.1        37.3       552.9
  9   0.00000   4.27628   0.16233   h   1.091  1.004         3.1        37.3       552.9
 10  -3.84962   2.05147  -0.75302   h   1.091  1.004         3.1        37.3       552.9
 11  -4.09844  -2.50869  -0.97457   h   1.091  0.999         3.1        37.4       553.3
 12  -0.00002  -2.23354  -0.98419   h   1.091  1.049         3.1        37.1       549.8
 13  -1.95031  -2.74840   1.65003   h   1.091  1.000         3.1        37.4       553.2

 molecular C6(AA) [au] =      1459.75

           DFT-D V3
 DF pbe                                               
 parameters
 s6       :    1.0000
 s8       :    0.7220
 rs6      :    1.2170
 alpha6   :   14.0000
 alpha8   :   16.0000
 k1-k3    :   16.0000    1.3333   -4.0000

 Edisp /kcal,au:    -2.2390 -0.00356809

 E6    /kcal :    -0.8874
 E8    /kcal :    -1.3517
 % E8        : 60.37
 normal termination of dftd3

 RKS STATE 1.1 ENERGY+DISP     -192.84562153

 Final occupancy:  19

 !RKS STATE 1.1 Energy               -192.845621527105
 Nuclear energy                       164.93668795
 One-electron energy                 -585.92099766
 Two-electron energy                  242.70704495
 SCF exchange energy                  -28.73831320     Factor= 0.5400
 Density functional                   -14.56478867     XC-M06-2X=-14.56478867
 Virial quotient                       -1.01415622
 !RKS STATE 1.1 Dipole moment           0.00000561    -0.02902675    -0.05777755
 Dipole moment /Debye                   0.00001426    -0.07377382    -0.14684627

 Orbital energies:

         1.1          2.1          3.1          4.1          5.1          6.1          7.1          8.1          9.1         10.1
    -10.368979   -10.368924   -10.360177   -10.360132   -10.360007    -0.876548    -0.785348    -0.735774    -0.626831    -0.565390

        11.1         12.1         13.1         14.1         15.1         16.1         17.1         18.1         19.1         20.1
     -0.528152    -0.451152    -0.437515    -0.430935    -0.406678    -0.376774    -0.365531    -0.252123    -0.207560     0.111967

        21.1
      0.191830

 HOMO     19.1    -0.207560 =      -5.6480eV
 LUMO     20.1     0.111967 =       3.0468eV
 LUMO-HOMO         0.319527 =       8.6948eV


 **********************************************************************************************************************************
 DATASETS  * FILE   NREC   LENGTH (MB)   RECORD NAMES
              1      20       32.43       500      610      700      900      950      970     1000      129      960     1100   
                                          VAR    BASINP    GEOM    SYMINP    ZMAT    AOBASIS   BASIS     P2S    ABASIS      S 
                                         1400     1410     1200     1210     1080     1600     1650     1300     1700     1800   
                                           T        V       H0       H01     AOSYM     SMH    MOLCAS    ERIS     OPER     GRID   

              2       5        2.98       700     1000      520     1800     2100   
                                         GEOM     BASIS   MCVARS    GRID      RKS  

 PROGRAMS   *        TOTAL        KS       INT
 CPU TIMES  *         8.15      7.67      0.35
 REAL TIME  *         8.72 SEC
 DISK USED  *        36.21 MB      
 **********************************************************************************************************************************


 PROGRAM * Intrinsic Basis Bonding Analysis (IBBA)          Author: G. Knizia

 Molecular orbitals read from record     2100.2  Type=RKS/CANONICAL (state 1.1)
 Fock matrix read from record            2100.2  Type=RKS/TOTAL (state 1.1)
 Orbital energies read from record       2100.2  Type=RKS/CANONICAL (state 1.1)
 Density matrix read from record         2100.2  Type=RKS/CHARGE (state 1.1)

 Number of core orbitals:           5 (   5 )
 Number of closed-shell orbitals:  14 (  14 )

 Basis set MINAO-AUTO-PP generated.      Number of basis functions:   33 

 Polarized AO type:                A = (O Ot + (1-O)(1-Ot)) P12
 Orthogonalization method:         Symmetric (Loewdin)
 Localization functional:          L = sum[A,i] <i|n_A|i>^4 -> max

 Localization group 1:  19 orbitals, occupancy  2.000
 Iterative localization: IB/PM,   12 iter; Final gradient 0.30E-08

 Bond order analysis:       [THRPRINT= 0.020]

   CEN ATOM   CEN ATOM     WIBERG.BO      RENORM.BO
     1   C  -   2   C       1.383798       1.361217
     1   C  -  11   H       0.962602       0.981534
     1   C  -  13   H       0.942826       0.973796
     1   C  -  12   H       0.463211       0.495578
     1   C  -   4   C       0.148858       0.140036

     2   C  -   3   C       1.459379       1.459474
     2   C  -   1   C       1.383798       1.361217
     2   C  -  10   H       0.945727       0.968298
     2   C  -   5   C       0.148864       0.140042

     3   C  -   2   C       1.459379       1.459474
     3   C  -   4   C       1.459336       1.459431
     3   C  -   9   H       0.951043       0.973338
     3   C  -  12   H       0.032936       0.037679

     4   C  -   3   C       1.459336       1.459431
     4   C  -   5   C       1.383848       1.361266
     4   C  -   8   H       0.945726       0.968298
     4   C  -   1   C       0.148858       0.140036

     5   C  -   4   C       1.383848       1.361266
     5   C  -   6   H       0.962602       0.981535
     5   C  -   7   H       0.942826       0.973795
     5   C  -  12   H       0.463159       0.495525
     5   C  -   2   C       0.148864       0.140042

     6   H  -   5   C       0.962602       0.981535

     7   H  -   5   C       0.942826       0.973795

     8   H  -   4   C       0.945726       0.968298

     9   H  -   3   C       0.951043       0.973338

    10   H  -   2   C       0.945727       0.968298

    11   H  -   1   C       0.962602       0.981534

    12   H  -   1   C       0.463211       0.495578
    12   H  -   5   C       0.463159       0.495525
    12   H  -   3   C       0.032936       0.037679

    13   H  -   1   C       0.942826       0.973796


 Valency analysis:

   CEN ATOM   TOT.VALENCE
     1   C       3.949499
     2   C       3.970164
     3   C       3.969476
     4   C       3.970164
     5   C       3.949500
     6   H       0.983112
     7   H       0.983446
     8   H       0.982664
     9   H       0.982749
    10   H       0.982664
    11   H       0.983112
    12   H       0.977534
    13   H       0.983446

 Total charge composition:

   CEN ATOM         s          p       ELECTRONS ->P.CHARGE
     1   C       3.00501    3.32977      6.33478   -0.33478
     2   C       2.96024    3.15669      6.11693   -0.11693
     3   C       2.94995    3.20843      6.15838   -0.15838
     4   C       2.96024    3.15669      6.11693   -0.11693
     5   C       3.00501    3.32976      6.33477   -0.33477
     6   H       0.87005                 0.87005    0.12995
     7   H       0.87134                 0.87134    0.12866
     8   H       0.86834                 0.86834    0.13166
     9   H       0.86866                 0.86866    0.13134
    10   H       0.86834                 0.86834    0.13166
    11   H       0.87005                 0.87005    0.12995
    12   H       0.85011                 0.85011    0.14989
    13   H       0.87134                 0.87134    0.12866

 Total charge composition, AO contributions:

   CEN ATOM SHL      SPHERICAL COMPONENTS
     1   C  1s       1.99136
     1   C  2s       1.01365
     1   C  2p       1.12130    1.07565    1.13282

     2   C  1s       1.99041
     2   C  2s       0.96983
     2   C  2p       1.08775    1.07290    0.99603

     3   C  1s       1.99012
     3   C  2s       0.95983
     3   C  2p       1.04758    1.12628    1.03456

     4   C  1s       1.99041
     4   C  2s       0.96983
     4   C  2p       1.08775    1.07290    0.99604

     5   C  1s       1.99136
     5   C  2s       1.01365
     5   C  2p       1.12130    1.07566    1.13281

     6   H  1s       0.87005

     7   H  1s       0.87134

     8   H  1s       0.86834

     9   H  1s       0.86866

    10   H  1s       0.86834

    11   H  1s       0.87005

    12   H  1s       0.85011

    13   H  1s       0.87134

 Summary of localized orbital composition:   [THRPRINT= 0.020]

   ORB  GRP  ORB.ENERGY      CENTERS/CHARGES
     1   1   -10.243477      C  1   2.000
     2   1   -10.243477      C  5   2.000
     3   1   -10.243320      C  4   2.000
     4   1   -10.243319      C  2   2.000
     5   1   -10.232282      C  3   2.000
     6   1    -0.698802      C  2   0.996   C  3   0.989
     7   1    -0.698798      C  4   0.996   C  3   0.989
     8   1    -0.688384      C  4   1.007   C  5   0.981
     9   1    -0.688375      C  2   1.007   C  1   0.981
    10   1    -0.563477      C  1   1.115   H 13   0.853   (other: 0.032)
    11   1    -0.563469      C  5   1.115   H  7   0.853   (other: 0.032)
    12   1    -0.556545      C  2   1.125   H 10   0.856
    13   1    -0.556542      C  4   1.125   H  8   0.856
    14   1    -0.553027      C  3   1.128   H  9   0.856
    15   1    -0.550842      C  5   1.130   H  6   0.861
    16   1    -0.550833      C  1   1.130   H 11   0.861
    17   1    -0.341990      C  1   1.096   H 12   0.401   C  2   0.355   C  4   0.134
    18   1    -0.341979      C  5   1.096   H 12   0.401   C  4   0.355   C  2   0.134
    19   1    -0.305592      C  3   1.027   C  2   0.467   C  4   0.467   H 12   0.022

 Localized orbitals saved to record      2100.2  (orbital set 2)


 **********************************************************************************************************************************
 DATASETS  * FILE   NREC   LENGTH (MB)   RECORD NAMES
              1      20       32.43       500      610      700      900      950      970     1000      129      960     1100   
                                          VAR    BASINP    GEOM    SYMINP    ZMAT    AOBASIS   BASIS     P2S    ABASIS      S 
                                         1400     1410     1200     1210     1080     1600     1650     1300     1700     1800   
                                           T        V       H0       H01     AOSYM     SMH    MOLCAS    ERIS     OPER     GRID   

              2       5        3.00       700     1000      520     1800     2100   
                                         GEOM     BASIS   MCVARS    GRID      RKS  

 PROGRAMS   *        TOTAL      IBBA        KS       INT
 CPU TIMES  *         8.18      0.03      7.67      0.35
 REAL TIME  *         8.76 SEC
 DISK USED  *        36.21 MB      
 **********************************************************************************************************************************

 IBBA/STO-3G energy=      0.000000000000

        KS-SCF  
   -192.84562153
 **********************************************************************************************************************************
 Molpro calculation terminated
