
 Primary working directories    : /local
 Secondary working directories  : /local
 Wavefunction directory         : /local/
 Main file repository           : /local/

 SHA1      : b4a5b34a9e711420743f49e6833241d17c61fb3c
 NAME      : 2099.9.b4a5b34
 ARCHNAME  : linux/x86_64_openmp
 FC        : /cm/shared/languages/GCC-6.1/bin/gfortran
 BLASLIB   : -lblas
 id        : simonbennie

 Nodes     nprocs
 node35-001    1

 Using customized tuning parameters: mindgm=1; mindgv=20; mindgc=4; mindgr=1; noblas=0; minvec=7
 default implementation of scratch files=df  

 memory,500,m
 geomtyp=xyz
 nosym
 noorient
 geometry={
 H          0.00048       -1.34063        0.00000
 Cl         0.00000        0.20325        0.00000
 H         -0.00048       -2.11466        0.00000
 }
 basis={ default,sto-3g }
 {ks,BECKE,direct;wf,19,1,1}
 {ibba,bonds=1}

 Variables initialized (895), CPU time= 0.00 sec
 Commands  initialized (725), CPU time= 0.01 sec, 591 directives.
 Default parameters read. Elapsed time= 0.08 sec

 Checking input...
 Passed
1


                                         ***  PROGRAM SYSTEM MOLPRO  ***
                                       Copyright, TTI GmbH Stuttgart, 2015
                                    Version 2099.9 linked May 26 2017 16:03:21


 **********************************************************************************************************************************
 LABEL *                                                                                 
  64 bit serial version                                                                  DATE: 24-Jun-17          TIME: 01:36:07  
 **********************************************************************************************************************************

 SHA1:             b4a5b34a9e711420743f49e6833241d17c61fb3c
 **********************************************************************************************************************************
 SETTING GEOMTYP        =    XYZ

 Variable memory set to  500000000 words,  buffer space 

 ZSYMEL=NOSYM

 SETTING BASIS          =    STO-3G


 Recomputing integrals since basis changed


 Using spherical harmonics

 Library entry H      S STO-3G               selected for orbital group  1
 Library entry CL     S STO-3G               selected for orbital group  2
 Library entry CL     P STO-3G               selected for orbital group  2


 PROGRAM * SEWARD (Integral evaluation for generally contracted gaussian basis sets)     Author: Roland Lindh, 1990

 Geometry written to block  1 of record 700


 Point group  C1  



 ATOMIC COORDINATES

 NR  ATOM    CHARGE       X              Y              Z

   1  H       1.00    0.000907069   -2.533423534    0.000000000
   2  CL     17.00    0.000000000    0.384086835    0.000000000
   3  H       1.00   -0.000907069   -3.996128247    0.000000000

 Bond lengths in Bohr (Angstrom)

 1-2  2.917510510  1-3  1.462705837
     ( 1.543880075)     ( 0.774030595)

 Bond angles

  2-1-3  179.91112471

 NUCLEAR CHARGE:                   19
 NUMBER OF PRIMITIVE AOS:          33
 NUMBER OF SYMMETRY AOS:           33
 NUMBER OF CONTRACTIONS:           11   (  11A   )
 NUMBER OF CORE ORBITALS:           5   (   5A   )
 NUMBER OF VALENCE ORBITALS:        6   (   6A   )


 NUCLEAR REPULSION ENERGY   10.39163794

 EXTRA SYMMETRY OF AOS IN SYMMETRY 1:   1 1 1 1 1 1 2 1 1 2   1

 Eigenvalues of metric

         1 0.273E+00 0.600E+00 0.745E+00 0.767E+00 0.767E+00 0.946E+00 0.117E+01 0.123E+01


 Contracted 2-electron integrals neglected if value below      1.0D-11
 AO integral compression algorithm  1   Integral accuracy      1.0D-11

     0.262 MB (compressed) written to integral file ( 71.8%)


 NUMBER OF SORTED TWO-ELECTRON INTEGRALS:       2211.     BUFFER LENGTH:  32768
 NUMBER OF SEGMENTS:   1  SEGMENT LENGTH:       2211      RECORD LENGTH: 524288

 Memory used in sort:       0.56 MW

 SORT1 READ        4003. AND WROTE         959. INTEGRALS IN      1 RECORDS. CPU TIME:     0.00 SEC, REAL TIME:     0.00 SEC
 SORT2 READ         959. AND WROTE        2211. INTEGRALS IN      1 RECORDS. CPU TIME:     0.00 SEC, REAL TIME:     0.00 SEC

 FILE SIZES:   FILE 1:    30.2 MBYTE,  FILE 4:     4.2 MBYTE,   TOTAL:     34.5 MBYTE

 OPERATOR DM      FOR CENTER  0  COORDINATES:    0.000000    0.000000    0.000000


 **********************************************************************************************************************************
 DATASETS  * FILE   NREC   LENGTH (MB)   RECORD NAMES
              1      19       29.98       500      610      700      900      950      970     1000      129      960     1100   
                                          VAR    BASINP    GEOM    SYMINP    ZMAT    AOBASIS   BASIS     P2S    ABASIS      S 
                                         1400     1410     1200     1210     1080     1600     1650     1300     1700   
                                           T        V       H0       H01     AOSYM     SMH    MOLCAS    ERIS     OPER   

 PROGRAMS   *        TOTAL       INT
 CPU TIMES  *         0.33      0.19
 REAL TIME  *         0.67 SEC
 DISK USED  *        34.76 MB      
 **********************************************************************************************************************************

 Density functional group BECKE=B88
 Functional: B88(Automatically generated (new) B88)                            Gradient terms: 1
 Use grid at  1800.2

 Functional: B88                       Factor:  1.0000

 Generated new metagrid on record  1800.2 with target accuracy 1.0D-06 and 13034 points in CPU time    0.2
 Computed new grid on record 1800.1 in CPU time    0.2
   12677 words reserved for DFT integration

 PROGRAM * RKS-SCF (Restricted open shell Kohn-Sham)     Authors: W. Meyer, H.-J. Werner, P.J. Knowles, 1993

 NUMBER OF ELECTRONS:      10+    9-    SPACE SYMMETRY=1    SPIN SYMMETRY: Doublet 
 CONVERGENCE THRESHOLDS:    1.00E-05 (Density)    1.00E-06 (Energy)
 MAX. NUMBER OF ITERATIONS:       60
 INTERPOLATION TYPE:            DIIS
 INTERPOLATION STEPS:              2 (START)      1 (STEP)
 LEVEL SHIFTS:                 -0.60 (CLOSED) -0.30 (OPEN) 



 Use fine grid record 1800.2 for energy threshold  1.0D-06
 Orbital guess generated from atomic densities. Full valence occupancy:   10

 Molecular orbital dump at record        2100.2

 Initial alpha occupancy:  10
 Initial beta  occupancy:   9
 Wave function symmetry:    1

 ITERATION    DDIFF          GRAD             ENERGY        2-EL.EN.            DIPOLE MOMENTS         DIIS   ORB.
    1      0.000D+00      0.000D+00      -455.43763762    430.154266   -0.00009   -1.39038   -0.00000    0    start
    2      0.000D+00      0.175D-01      -455.46762126    427.233181    0.00008   -0.40003   -0.00000    1    diag,B
    3      0.445D-01      0.300D-02      -455.46838063    427.361616    0.00004   -0.44255   -0.00000    2    diag,B
    4      0.658D-02      0.109D-02      -455.46860864    427.304040    0.00004   -0.41850   -0.00000    3    diag,B
    5      0.343D-02      0.362D-03      -455.46863390    427.283647    0.00004   -0.40772   -0.00000    4    diag,B
    6      0.165D-02      0.164D-04      -455.46863392    427.284642    0.00004   -0.40774   -0.00000    5    diag,B
    7      0.368D-04      0.290D-05      -455.46863393    427.284426    0.00004   -0.40763   -0.00000    6    fixocc
    8      0.146D-04      0.102D-05      -455.46863393    427.284469    0.00004   -0.40764   -0.00000    7    diag,B
    9      0.360D-05      0.502D-06      -455.46863393    427.284475    0.00004   -0.40765   -0.00000    0    orth

 Final alpha occupancy:  10
 Final beta  occupancy:   9

 !RKS STATE 1.1 Energy               -455.468633926007
 Nuclear energy                        10.39163794
 One-electron energy                 -651.39590296
 Two-electron energy                  213.64223738
 Density functional                   -28.10660629     B88=-28.10660629
 Virial quotient                       -1.01716799
 !RKS STATE 1.1 Dipole moment           0.00003993    -0.40764582    -0.00000000
 Dipole moment /Debye                   0.00010148    -1.03606445    -0.00000000

 Orbital energies:

         1.1          2.1          3.1          4.1          5.1          6.1          7.1          8.1          9.1         10.1
    -99.599724    -8.899781    -6.760762    -6.740187    -6.740187    -0.631548    -0.395731    -0.167719    -0.167719    -0.194691

        11.1
      0.460821

 HOMO     10.1    -0.194691 =      -5.2978eV
 LUMO     11.1     0.460821 =      12.5396eV
 LUMO-HOMO         0.655512 =      17.8374eV


 **********************************************************************************************************************************
 DATASETS  * FILE   NREC   LENGTH (MB)   RECORD NAMES
              1      20       30.40       500      610      700      900      950      970     1000      129      960     1100   
                                          VAR    BASINP    GEOM    SYMINP    ZMAT    AOBASIS   BASIS     P2S    ABASIS      S 
                                         1400     1410     1200     1210     1080     1600     1650     1300     1700     1800   
                                           T        V       H0       H01     AOSYM     SMH    MOLCAS    ERIS     OPER     GRID   

              2       5        2.78       700     1000      520     1800     2100   
                                         GEOM     BASIS   MCVARS    GRID      RKS  

 PROGRAMS   *        TOTAL        KS       INT
 CPU TIMES  *         0.81      0.48      0.19
 REAL TIME  *         1.20 SEC
 DISK USED  *        34.76 MB      
 **********************************************************************************************************************************


 PROGRAM * Intrinsic Basis Bonding Analysis (IBBA)          Author: G. Knizia

 Molecular orbitals read from record     2100.2  Type=RKS/CANONICAL (state 1.1)
 Fock matrix read from record            2100.2  Type=RKS/TOTAL (state 1.1)
 Orbital energies read from record       2100.2  Type=RKS/CANONICAL (state 1.1)
 Density matrix read from record         2100.2  Type=RKS/CHARGE (state 1.1)

 Number of core orbitals:           5 (   5 )
 Number of closed-shell orbitals:   4 (   4 )
 Number of active  orbitals:        1 (   1 )

 Basis set MINAO-AUTO-PP generated.      Number of basis functions:   11 

 Polarized AO type:                A = (O Ot + (1-O)(1-Ot)) P12
 Orthogonalization method:         Symmetric (Loewdin)
 Localization functional:          L = sum[A,i] <i|n_A|i>^4 -> max

 Localization group 1:   9 orbitals, occupancy  2.000
 Iterative localization: IB/PM,    4 iter; Final gradient 0.54E-08

 Bond order analysis:       [THRPRINT= 0.020]

   CEN ATOM   CEN ATOM     WIBERG.BO      RENORM.BO
     1   H  -   3   H       0.555888       0.872504
     1   H  -   2  CL       0.442505       1.000000

     2  CL  -   1   H       0.442505       1.000000
     2  CL  -   3   H       0.331028       1.000000

     3   H  -   1   H       0.555888       0.872504
     3   H  -   2  CL       0.331028       1.000000


 Valency analysis:

   CEN ATOM   TOT.VALENCE
     1   H       0.998393
     2  CL       0.773533
     3   H       0.886917
 Localization group 2:   1 orbitals, occupancy  1.000
 Iterative localization: IB/PM,    1 iter; Final gradient 0.00E+00

 Bond order analysis:       [THRPRINT= 0.020]

   CEN ATOM   CEN ATOM     WIBERG.BO      RENORM.BO

     2  CL  -   3   H       0.391981       0.500000

     3   H  -   2  CL       0.391981       0.500000


 Valency analysis:

   CEN ATOM   TOT.VALENCE
     1   H       0.027553
     2  CL       0.411821
     3   H       0.399695

 Total charge composition:

   CEN ATOM         s          p       ELECTRONS ->P.CHARGE
     1   H       0.97389                 0.97389    0.02611
     2  CL       5.92994   11.15639     17.08634   -0.08634
     3   H       0.93977                 0.93977    0.06023

 Total charge composition, AO contributions:

   CEN ATOM SHL      SPHERICAL COMPONENTS
     1   H  1s       0.97389

     2  CL  1s       1.99998
     2  CL  2s       1.99858
     2  CL  3s       1.93138
     2  CL  2p       2.00000    1.99987    2.00000
     2  CL  3p       2.00000    1.15652    2.00000

     3   H  1s       0.93977

 Active orbital charges:

   CEN ATOM         s          p       ELECTRONS ->SPIN.DEN
     1   H       0.01397                 0.01397    0.01397
     2  CL       0.00100    0.70897      0.70998    0.70998
     3   H       0.27605                 0.27605    0.27605

 Active orbital charges, AO contributions:

   CEN ATOM SHL      SPHERICAL COMPONENTS
     1   H  1s       0.01397

     2  CL  1s       0.00000
     2  CL  2s       0.00003
     2  CL  3s       0.00097
     2  CL  2p       0.00000    0.00003    0.00000
     2  CL  3p       0.00000    0.70894    0.00000

     3   H  1s       0.27605

 Summary of localized orbital composition:   [THRPRINT= 0.020]

   ORB  GRP  ORB.ENERGY      CENTERS/CHARGES
     1   1   -99.579445     CL  2   2.000
     2   1    -8.730922     CL  2   2.000
     3   1    -6.748331     CL  2   2.000
     4   1    -6.740187     CL  2   2.000
     5   1    -6.740187     CL  2   2.000
     6   1    -0.777248     CL  2   1.948   H  3   0.033
     7   1    -0.451598      H  1   0.941   H  3   0.631  CL  2   0.428
     8   1    -0.167720     CL  2   2.000
     9   1    -0.167719     CL  2   2.000
    10   2    -0.158921     CL  2   0.710   H  3   0.276

 Localized orbitals saved to record      2100.2  (orbital set 2)


 **********************************************************************************************************************************
 DATASETS  * FILE   NREC   LENGTH (MB)   RECORD NAMES
              1      20       30.40       500      610      700      900      950      970     1000      129      960     1100   
                                          VAR    BASINP    GEOM    SYMINP    ZMAT    AOBASIS   BASIS     P2S    ABASIS      S 
                                         1400     1410     1200     1210     1080     1600     1650     1300     1700     1800   
                                           T        V       H0       H01     AOSYM     SMH    MOLCAS    ERIS     OPER     GRID   

              2       5        2.79       700     1000      520     1800     2100   
                                         GEOM     BASIS   MCVARS    GRID      RKS  

 PROGRAMS   *        TOTAL      IBBA        KS       INT
 CPU TIMES  *         0.83      0.02      0.48      0.19
 REAL TIME  *         1.25 SEC
 DISK USED  *        34.76 MB      
 **********************************************************************************************************************************
 Molecular orbitals read from record     2100.2  Type=RKS/LOCAL(IBO)  
 Occupation numbers read from record     2100.2  Type=RKS/LOCAL(IBO)  
 Orbital energies read from record       2100.2  Type=RKS/LOCAL(IBO)  
 Redundancy group numbers read from rec  2100.2  Type=RKS/LOCAL(IBO)  

 IBBA/STO-3G energy=      0.000000000000

        KS-SCF  
   -455.46863393
 **********************************************************************************************************************************
 Molpro calculation terminated
