
 Primary working directories    : /local
 Secondary working directories  : /local
 Wavefunction directory         : /local/
 Main file repository           : /local/

 SHA1      : b4a5b34a9e711420743f49e6833241d17c61fb3c
 NAME      : 2099.9.b4a5b34
 ARCHNAME  : linux/x86_64_openmp
 FC        : /cm/shared/languages/GCC-6.1/bin/gfortran
 BLASLIB   : -lblas
 id        : simonbennie

 Nodes     nprocs
 node32-031    1

 Using customized tuning parameters: mindgm=1; mindgv=20; mindgc=4; mindgr=1; noblas=0; minvec=7
 default implementation of scratch files=df  

 memory,500,m
 geomtyp=xyz
 nosym
 noorient
 geometry={
 H          0.00048       -1.34063        0.00000
 Cl         0.00000        0.20325        0.00000
 H         -0.00048       -2.11466        0.00000
 }
 basis={ default,qzvp }
 {uhf,direct;wf,19,1,1}
 {uks,M06-L,direct;maxit,0;wf,19,1,1}
 {ibba,bonds=1}

 Variables initialized (895), CPU time= 0.00 sec
 Commands  initialized (725), CPU time= 0.02 sec, 591 directives.
 Default parameters read. Elapsed time= 0.08 sec

 Checking input...
 Passed
1


                                         ***  PROGRAM SYSTEM MOLPRO  ***
                                       Copyright, TTI GmbH Stuttgart, 2015
                                    Version 2099.9 linked May 26 2017 16:03:21


 **********************************************************************************************************************************
 LABEL *                                                                                 
  64 bit serial version                                                                  DATE: 17-Mar-18          TIME: 11:59:01  
 **********************************************************************************************************************************

 SHA1:             b4a5b34a9e711420743f49e6833241d17c61fb3c
 **********************************************************************************************************************************
 SETTING GEOMTYP        =    XYZ

 Variable memory set to  500000000 words,  buffer space 

 ZSYMEL=NOSYM

 SETTING BASIS          =    QZVP


 Recomputing integrals since basis changed


 Using spherical harmonics

 Library entry H      S def2-QZVP            selected for orbital group  1
 Library entry H      P def2-QZVP            selected for orbital group  1
 Library entry H      D def2-QZVP            selected for orbital group  1
 Library entry H      F def2-QZVP            selected for orbital group  1
 Library entry CL     S def2-QZVP            selected for orbital group  2
 Library entry CL     P def2-QZVP            selected for orbital group  2
 Library entry CL     D def2-QZVP            selected for orbital group  2
 Library entry CL     F def2-QZVP            selected for orbital group  2
 Library entry CL     G def2-QZVP            selected for orbital group  2


 PROGRAM * SEWARD (Integral evaluation for generally contracted gaussian basis sets)     Author: Roland Lindh, 1990

 Geometry written to block  1 of record 700


 Point group  C1  



 ATOMIC COORDINATES

 NR  ATOM    CHARGE       X              Y              Z

   1  H       1.00    0.000907069   -2.533423534    0.000000000
   2  CL     17.00    0.000000000    0.384086835    0.000000000
   3  H       1.00   -0.000907069   -3.996128247    0.000000000

 Bond lengths in Bohr (Angstrom)

 1-2  2.917510510  1-3  1.462705837
     ( 1.543880075)     ( 0.774030595)

 Bond angles

  2-1-3  179.91112471

 NUCLEAR CHARGE:                   19
 NUMBER OF PRIMITIVE AOS:         197
 NUMBER OF SYMMETRY AOS:          171
 NUMBER OF CONTRACTIONS:          130   ( 130A   )
 NUMBER OF CORE ORBITALS:           5   (   5A   )
 NUMBER OF VALENCE ORBITALS:        6   (   6A   )


 NUCLEAR REPULSION ENERGY   10.39163794

 EXTRA SYMMETRY OF AOS IN SYMMETRY 1:   1 1 1 1 1 1 2 1 1 2   1 1 2 1 1 2 1 2 1 1   2 1 2 1 1 2 1 2 1 2   1 1 1 1 1 1 1 1 1 1
                                        1 2 1 1 2 1 1 2 1 1   2 1 1 2 1 1 2 1 1 2   1 2 1 1 2 1 2 1 1 2   1 2 1 1 2 1 2 1 1 2
                                        1 2 1 2 1 1 2 1 2 1   2 1 1 2 1 2 1 1 2 2   1 1 1 1 1 1 2 1 1 2   1 1 2 1 1 2 1 2 1 1
                                        2 1 2 1 1 2 1 2 1 2

 Eigenvalues of metric

         1 0.159E-03 0.648E-03 0.853E-03 0.161E-02 0.372E-02 0.748E-02 0.748E-02 0.884E-02


 Contracted 2-electron integrals neglected if value below      1.0D-11
 AO integral compression algorithm  1   Integral accuracy      1.0D-11

     78.905 MB (compressed) written to integral file ( 22.2%)


 NUMBER OF SORTED TWO-ELECTRON INTEGRALS:   36256870.     BUFFER LENGTH:  32768
 NUMBER OF SEGMENTS:   3  SEGMENT LENGTH:   15998004      RECORD LENGTH: 524288

 Memory used in sort:      16.56 MW

 SORT1 READ    44422673. AND WROTE    15463879. INTEGRALS IN     46 RECORDS. CPU TIME:     0.34 SEC, REAL TIME:     0.61 SEC
 SORT2 READ    15463879. AND WROTE    36256870. INTEGRALS IN    301 RECORDS. CPU TIME:     0.80 SEC, REAL TIME:     0.94 SEC

 FILE SIZES:   FILE 1:   109.5 MBYTE,  FILE 4:   193.0 MBYTE,   TOTAL:    302.5 MBYTE

 OPERATOR DM      FOR CENTER  0  COORDINATES:    0.000000    0.000000    0.000000


 **********************************************************************************************************************************
 DATASETS  * FILE   NREC   LENGTH (MB)   RECORD NAMES
              1      19       90.36       500      610      700      900      950      970     1000      129      960     1100   
                                          VAR    BASINP    GEOM    SYMINP    ZMAT    AOBASIS   BASIS     P2S    ABASIS      S 
                                         1400     1410     1200     1210     1080     1600     1650     1300     1700   
                                           T        V       H0       H01     AOSYM     SMH    MOLCAS    ERIS     OPER   

 PROGRAMS   *        TOTAL       INT
 CPU TIMES  *         3.64      3.49
 REAL TIME  *         4.51 SEC
 DISK USED  *       302.85 MB      
 **********************************************************************************************************************************


 PROGRAM * UHF-SCF       Authors: W. Meyer, H.-J. Werner


 NUMBER OF ELECTRONS:      10+    9-    SPACE SYMMETRY=1    SPIN SYMMETRY: Doublet 
 CONVERGENCE THRESHOLDS:    1.00E-05 (Density)    1.00E-07 (Energy)
 INTEGRAL THRESHOLDS:       1.00E-11 (Initial)    1.00E-11 (Final)
 MAX. NUMBER OF ITERATIONS:       60
 INTERPOLATION TYPE:            DIIS
 INTERPOLATION STEPS:              2 (START)      1 (STEP)
 LEVEL SHIFTS:                 -0.20 (ALPHA)  -0.20 (BETA) 



 Orbital guess generated from atomic densities. Full valence occupancy:   10

 Molecular orbital dump at record        2200.2

 Initial alpha occupation  10
 Initial beta  occupation   9

 Direct Fock-matrix evaluation.        Author: H.-J. Werner (1996)

 Integral Threshold:                  0.1D-10

 ITERATION   DDIFF            GRAD            ENERGY        2-EL.EN.            DIPOLE MOMENTS         DIIS   CPU(IT)  CPU(TOT)
    1      0.000D+00      0.000D+00      -460.55690178    373.063416   -0.00001   -1.13257   -0.00000    0      3.1      4.6
    2      0.888D-03      0.132D-02      -460.57973429    371.836108   -0.00005   -0.72958   -0.00000    1      2.6      7.2
    3      0.494D-03      0.644D-03      -460.58609074    371.854327   -0.00006   -0.60336   -0.00000    2      2.6      9.9
    4      0.381D-03      0.379D-03      -460.58893756    371.800631   -0.00006   -0.51757    0.00000    3      2.6     12.5
    5      0.300D-03      0.198D-03      -460.59002575    371.762865   -0.00005   -0.46173    0.00000    4      2.6     15.1
    6      0.176D-03      0.969D-04      -460.59037018    371.713860   -0.00005   -0.42193    0.00000    5      2.6     17.8
    7      0.143D-03      0.544D-04      -460.59050731    371.687440   -0.00004   -0.38793    0.00000    6      2.6     20.4
    8      0.686D-04      0.220D-04      -460.59052930    371.672983   -0.00004   -0.37426   -0.00000    7      2.6     23.0
    9      0.203D-04      0.710D-05      -460.59053152    371.672336   -0.00004   -0.37182   -0.00000    8      2.6     25.7
   10      0.644D-05      0.246D-05      -460.59053171    371.671646   -0.00004   -0.37173   -0.00000    9      2.6     28.3
   11      0.225D-05      0.717D-06      -460.59053172    371.671804   -0.00004   -0.37181   -0.00000    9      2.6     30.9
   12      0.709D-06      0.228D-06      -460.59053173    371.671842   -0.00004   -0.37180   -0.00000    8      2.6     33.5

 Final alpha occupancy:  10
 Final beta  occupancy:   9

 !UHF STATE 1.1 Energy               -460.590531725753
 Nuclear energy                        10.39163794
 One-electron energy                 -656.81809060
 Two-electron energy                  185.83592093
 Virial quotient                       -0.99971341
 !UHF STATE 1.1 Dipole moment          -0.00004201    -0.37180471    -0.00000000
 Dipole moment /Debye                  -0.00010678    -0.94497142    -0.00000000

 Orbital energies for positive spin:

         1.1          2.1          3.1          4.1          5.1          6.1          7.1          8.1          9.1         10.1
   -104.866884   -10.591279    -8.073845    -8.053228    -8.053228    -1.135588    -0.731328    -0.489921    -0.489921    -0.483619

        11.1         12.1
      0.142479     0.179524

 Orbital energies for negative spin:

         1.1          2.1          3.1          4.1          5.1          6.1          7.1          8.1          9.1         10.1
   -104.856901   -10.581670    -8.047833    -8.047833    -8.032392    -1.045203    -0.619666    -0.472967    -0.472967    -0.023601

        11.1         12.1
      0.152889     0.191016

 HOMO     -9.1    -0.472967 =     -12.8701eV
 LUMO    -10.1    -0.023601 =      -0.6422eV
 LUMO-HOMO         0.449366 =      12.2279eV

 EXPECTATION VALUE OF S**2:             0.78147339

 Occupation number threshold for canonical orbitals:  1.999000 (occupied),  0.001000 (virtual)

 Number of pseudo-canonical orbitals per symmetry:    7
 Number of active natural orbitals per symmetry:      5

 Natural orbitals saved to record    2200.2 (Orbital set 3)

 Orbital spaces for UNO-CAS (Min. occupation: 0.020  Max. occupation: 1.980):

 Closed:        9
 Active:        1


 **********************************************************************************************************************************
 DATASETS  * FILE   NREC   LENGTH (MB)   RECORD NAMES
              1      19       90.36       500      610      700      900      950      970     1000      129      960     1100   
                                          VAR    BASINP    GEOM    SYMINP    ZMAT    AOBASIS   BASIS     P2S    ABASIS      S 
                                         1400     1410     1200     1210     1080     1600     1650     1300     1700   
                                           T        V       H0       H01     AOSYM     SMH    MOLCAS    ERIS     OPER   

              2       4        3.49       700     1000      520     2200   
                                         GEOM     BASIS   MCVARS     UHF  

 PROGRAMS   *        TOTAL       UHF       INT
 CPU TIMES  *        37.23     33.58      3.49
 REAL TIME  *        39.78 SEC
 DISK USED  *       302.85 MB      
 **********************************************************************************************************************************

 Density functional group M06-L=XC-M06-L
 Functional: XC-M06-L(via MFM 1.6)                                             Gradient terms: 1
 Use grid at  1800.2

 Functional: XC-M06-L                  Factor:  1.0000

 Generated new metagrid on record  1800.2 with target accuracy 1.0D-06 and 14238 points in CPU time    0.2
 Computed new grid on record 1800.1 in CPU time    0.2
  107229 words reserved for DFT integration

 PROGRAM * UKS-SCF (Unrestricted Kohn-Sham)     Authors: W. Meyer, H.-J. Werner, P.J. Knowles, 1993

 NUMBER OF ELECTRONS:      10+    9-    SPACE SYMMETRY=1    SPIN SYMMETRY: Doublet 
 CONVERGENCE THRESHOLDS:    1.00E-05 (Density)    1.00E-06 (Energy)
 MAX. NUMBER OF ITERATIONS:        0
 INTERPOLATION TYPE:            DIIS
 INTERPOLATION STEPS:              2 (START)      1 (STEP)
 LEVEL SHIFTS:                 -0.20 (ALPHA)  -0.20 (BETA) 



 Use fine grid record 1800.2 for energy threshold  1.0D-06
 Molecular orbitals read from record     2200.2  Type=UHF/ALPHA (state 1.1)
 Molecular orbitals read from record     2200.2  Type=UHF/BETA (state 1.1)

 Molecular orbital dump at record        2201.2

 Initial alpha occupation  10
 Initial beta  occupation   9

 ITERATION    DDIFF          GRAD             ENERGY        2-EL.EN.            DIPOLE MOMENTS         DIIS
    1      0.000D+00      0.000D+00      -461.31395616    428.102268   -0.00004   -0.37180   -0.00000    0

 Final alpha occupancy:  10
 Final beta  occupancy:   9

 !UKS STATE 1.1 Energy               -461.313956156827
 Nuclear energy                        10.39163794
 One-electron energy                 -656.81809060
 Two-electron energy                  214.05113381
 Density functional                   -28.93863731     XC-M06-L=-28.93863731
 Virial quotient                       -1.00128360
 !UKS STATE 1.1 Dipole moment          -0.00004201    -0.37180471    -0.00000000
 Dipole moment /Debye                  -0.00010678    -0.94497142    -0.00000000

 Orbital energies for positive spin:

         1.1          2.1          3.1          4.1          5.1          6.1          7.1          8.1          9.1         10.1
   -104.861883   -10.584918    -8.052892    -8.050528    -8.050528    -0.481200    -0.481199    -1.088598    -0.667706    -0.244680

        11.1         12.1
      0.504312     0.827635

 Orbital energies for negative spin:

         1.1          2.1          3.1          4.1          5.1          6.1          7.1          8.1          9.1         10.1
   -104.861883   -10.584918    -8.052892    -8.050528    -8.050528    -0.481200    -0.481199    -1.088598    -0.667706    -0.244680

        11.1         12.1
      0.504312     0.827635

 HOMO     10.1    -0.244680 =      -6.6581eV
 LUMO    -10.1    -0.244680 =      -6.6581eV
 LUMO-HOMO         0.000000 =       0.0000eV

 EXPECTATION VALUE OF S**2:             0.78147339

 Occupation number threshold for canonical orbitals:  1.999000 (occupied),  0.001000 (virtual)

 Number of pseudo-canonical orbitals per symmetry:    7
 Number of active natural orbitals per symmetry:      5

 Natural orbitals saved to record    2201.2 (Orbital set 3)

 Orbital spaces for UNO-CAS (Min. occupation: 0.020  Max. occupation: 1.980):

 Closed:        9
 Active:        1

 No convergence



 **********************************************************************************************************************************
 DATASETS  * FILE   NREC   LENGTH (MB)   RECORD NAMES
              1      20       90.81       500      610      700      900      950      970     1000      129      960     1100   
                                          VAR    BASINP    GEOM    SYMINP    ZMAT    AOBASIS   BASIS     P2S    ABASIS      S 
                                         1400     1410     1200     1210     1080     1600     1650     1300     1700     1800   
                                           T        V       H0       H01     AOSYM     SMH    MOLCAS    ERIS     OPER     GRID   

              2       6        6.67       700     1000      520     2200     1800     2201   
                                         GEOM     BASIS   MCVARS     UHF     GRID      UKS  

 PROGRAMS   *        TOTAL       UKS       UHF       INT
 CPU TIMES  *        39.34      2.10     33.58      3.49
 REAL TIME  *        41.90 SEC
 DISK USED  *       302.85 MB      
 **********************************************************************************************************************************


 PROGRAM * Intrinsic Basis Bonding Analysis (IBBA)          Author: G. Knizia

 Molecular orbitals read from record     2201.2  Type=UKS/ALPHA (state 1.1)
 Fock matrix read from record            2201.2  Type=UKS/TOTAL (state 1.1)
 Orbital energies read from record       2201.2  Type=UKS/ALPHA (state 1.1)
 Density matrix read from record         2201.2  Type=UKS/CHARGE (state 1.1)

 Number of core orbitals:           5 (   5 )
 Number of closed-shell orbitals:   4 (   4 )
 Number of active  orbitals:        1 (   1 )

 Basis set MINAO-AUTO-PP generated.      Number of basis functions:   11 

 Polarized AO type:                A = (O Ot + (1-O)(1-Ot)) P12
 Orthogonalization method:         Symmetric (Loewdin)
 Localization functional:          L = sum[A,i] <i|n_A|i>^4 -> max

 Localization group 1:   9 orbitals, occupancy  2.000
 Iterative localization: IB/PM,    4 iter; Final gradient 0.17E-08

 Bond order analysis:       [THRPRINT= 0.020]

   CEN ATOM   CEN ATOM     WIBERG.BO      RENORM.BO
     1   H  -   2  CL       0.512687       1.000000
     1   H  -   3   H       0.442816       0.896621

     2  CL  -   1   H       0.512687       1.000000
     2  CL  -   3   H       0.417234       1.000000

     3   H  -   1   H       0.442816       0.896621
     3   H  -   2  CL       0.417234       1.000000


 Valency analysis:

   CEN ATOM   TOT.VALENCE
     1   H       0.955503
     2  CL       0.929922
     3   H       0.860050
 Localization group 2:   1 orbitals, occupancy  1.000
 Iterative localization: IB/PM,    1 iter; Final gradient 0.00E+00

 Bond order analysis:       [THRPRINT= 0.020]

   CEN ATOM   CEN ATOM     WIBERG.BO      RENORM.BO
     1   H  -   2  CL       0.044424       0.500000
     1   H  -   3   H       0.023516       0.500000

     2  CL  -   3   H       0.421334       0.500000
     2  CL  -   1   H       0.044424       0.500000

     3   H  -   2  CL       0.421334       0.500000
     3   H  -   1   H       0.023516       0.500000


 Valency analysis:

   CEN ATOM   TOT.VALENCE
     1   H       0.067940
     2  CL       0.465758
     3   H       0.444850

 Total charge composition:

   CEN ATOM         s          p       ELECTRONS ->P.CHARGE
     1   H       0.82427                 0.82427    0.17573
     2  CL       5.94197   11.27392     17.21589   -0.21589
     3   H       0.95984                 0.95984    0.04016

 Total charge composition, AO contributions:

   CEN ATOM SHL      SPHERICAL COMPONENTS
     1   H  1s       0.82427

     2  CL  1s       1.99998
     2  CL  2s       1.99883
     2  CL  3s       1.94316
     2  CL  2p       2.00000    1.99978    2.00000
     2  CL  3p       2.00000    1.27414    2.00000

     3   H  1s       0.95984

 Active orbital charges:

   CEN ATOM         s          p       ELECTRONS ->SPIN.DEN
     1   H       0.03521                 0.03521    0.03521
     2  CL       0.00445    0.62640      0.63085    0.63085
     3   H       0.33394                 0.33394    0.33394

 Active orbital charges, AO contributions:

   CEN ATOM SHL      SPHERICAL COMPONENTS
     1   H  1s       0.03521

     2  CL  1s       0.00000
     2  CL  2s       0.00008
     2  CL  3s       0.00437
     2  CL  2p       0.00000    0.00002    0.00000
     2  CL  3p       0.00000    0.62638    0.00000

     3   H  1s       0.33394

 Summary of localized orbital composition:   [THRPRINT= 0.020]

   ORB  GRP  ORB.ENERGY      CENTERS/CHARGES
     1   1  -101.191823     CL  2   2.000
     2   1    -9.257937     CL  2   2.000
     3   1    -7.144775     CL  2   2.000
     4   1    -7.144775     CL  2   2.000
     5   1    -7.136944     CL  2   2.000
     6   1    -0.994010     CL  2   1.963   H  3   0.021
     7   1    -0.533467      H  1   0.773  CL  2   0.622   H  3   0.605
     8   1    -0.314738     CL  2   2.000
     9   1    -0.314737     CL  2   2.000
    10   2    -0.265609     CL  2   0.631   H  3   0.334   H  1   0.035

 Localized orbitals saved to record      2201.2  (orbital set 4)


 **********************************************************************************************************************************
 DATASETS  * FILE   NREC   LENGTH (MB)   RECORD NAMES
              1      20       90.81       500      610      700      900      950      970     1000      129      960     1100   
                                          VAR    BASINP    GEOM    SYMINP    ZMAT    AOBASIS   BASIS     P2S    ABASIS      S 
                                         1400     1410     1200     1210     1080     1600     1650     1300     1700     1800   
                                           T        V       H0       H01     AOSYM     SMH    MOLCAS    ERIS     OPER     GRID   

              2       6        6.81       700     1000      520     2200     1800     2201   
                                         GEOM     BASIS   MCVARS     UHF     GRID      UKS  

 PROGRAMS   *        TOTAL      IBBA       UKS       UHF       INT
 CPU TIMES  *        39.36      0.02      2.10     33.58      3.49
 REAL TIME  *        41.94 SEC
 DISK USED  *       302.85 MB      
 **********************************************************************************************************************************

 IBBA/QZVP energy=      0.000000000000

        UKS-SCF         UHF-SCF 
   -461.31395616   -460.59053173
 **********************************************************************************************************************************
 Molpro calculation terminated
