
 Primary working directories    : /local
 Secondary working directories  : /local
 Wavefunction directory         : /local/
 Main file repository           : /local/

 SHA1      : b4a5b34a9e711420743f49e6833241d17c61fb3c
 NAME      : 2099.9.b4a5b34
 ARCHNAME  : linux/x86_64_openmp
 FC        : /cm/shared/languages/GCC-6.1/bin/gfortran
 BLASLIB   : -lblas
 id        : simonbennie

 Nodes     nprocs
 node32-007    1

 Using customized tuning parameters: mindgm=1; mindgv=20; mindgc=4; mindgr=1; noblas=0; minvec=7
 default implementation of scratch files=df  

 memory,500,m
 geomtyp=xyz
 nosym
 noorient
 geometry={
 H          0.00048       -1.34063        0.00000
 Cl         0.00000        0.20325        0.00000
 H         -0.00048       -2.11466        0.00000
 }
 basis={ default,qzvp }
 {hf,direct;wf,19,1,1}
 {df-ks,M06-2X,direct;maxit,0;wf,19,1,1}
 {ibba,bonds=1}

 Variables initialized (895), CPU time= 0.00 sec
 Commands  initialized (725), CPU time= 0.02 sec, 591 directives.
 Default parameters read. Elapsed time= 0.08 sec

 Checking input...
 Passed
1


                                         ***  PROGRAM SYSTEM MOLPRO  ***
                                       Copyright, TTI GmbH Stuttgart, 2015
                                    Version 2099.9 linked May 26 2017 16:03:21


 **********************************************************************************************************************************
 LABEL *                                                                                 
  64 bit serial version                                                                  DATE: 17-Mar-18          TIME: 11:57:13  
 **********************************************************************************************************************************

 SHA1:             b4a5b34a9e711420743f49e6833241d17c61fb3c
 **********************************************************************************************************************************
 SETTING GEOMTYP        =    XYZ

 Variable memory set to  500000000 words,  buffer space 

 ZSYMEL=NOSYM

 SETTING BASIS          =    QZVP


 Recomputing integrals since basis changed


 Using spherical harmonics

 Library entry H      S def2-QZVP            selected for orbital group  1
 Library entry H      P def2-QZVP            selected for orbital group  1
 Library entry H      D def2-QZVP            selected for orbital group  1
 Library entry H      F def2-QZVP            selected for orbital group  1
 Library entry CL     S def2-QZVP            selected for orbital group  2
 Library entry CL     P def2-QZVP            selected for orbital group  2
 Library entry CL     D def2-QZVP            selected for orbital group  2
 Library entry CL     F def2-QZVP            selected for orbital group  2
 Library entry CL     G def2-QZVP            selected for orbital group  2


 PROGRAM * SEWARD (Integral evaluation for generally contracted gaussian basis sets)     Author: Roland Lindh, 1990

 Geometry written to block  1 of record 700


 Point group  C1  



 ATOMIC COORDINATES

 NR  ATOM    CHARGE       X              Y              Z

   1  H       1.00    0.000907069   -2.533423534    0.000000000
   2  CL     17.00    0.000000000    0.384086835    0.000000000
   3  H       1.00   -0.000907069   -3.996128247    0.000000000

 Bond lengths in Bohr (Angstrom)

 1-2  2.917510510  1-3  1.462705837
     ( 1.543880075)     ( 0.774030595)

 Bond angles

  2-1-3  179.91112471

 NUCLEAR CHARGE:                   19
 NUMBER OF PRIMITIVE AOS:         197
 NUMBER OF SYMMETRY AOS:          171
 NUMBER OF CONTRACTIONS:          130   ( 130A   )
 NUMBER OF CORE ORBITALS:           5   (   5A   )
 NUMBER OF VALENCE ORBITALS:        6   (   6A   )


 NUCLEAR REPULSION ENERGY   10.39163794

 EXTRA SYMMETRY OF AOS IN SYMMETRY 1:   1 1 1 1 1 1 2 1 1 2   1 1 2 1 1 2 1 2 1 1   2 1 2 1 1 2 1 2 1 2   1 1 1 1 1 1 1 1 1 1
                                        1 2 1 1 2 1 1 2 1 1   2 1 1 2 1 1 2 1 1 2   1 2 1 1 2 1 2 1 1 2   1 2 1 1 2 1 2 1 1 2
                                        1 2 1 2 1 1 2 1 2 1   2 1 1 2 1 2 1 1 2 2   1 1 1 1 1 1 2 1 1 2   1 1 2 1 1 2 1 2 1 1
                                        2 1 2 1 1 2 1 2 1 2

 Eigenvalues of metric

         1 0.159E-03 0.648E-03 0.853E-03 0.161E-02 0.372E-02 0.748E-02 0.748E-02 0.884E-02


 Contracted 2-electron integrals neglected if value below      1.0D-11
 AO integral compression algorithm  1   Integral accuracy      1.0D-11

     78.905 MB (compressed) written to integral file ( 22.2%)


 NUMBER OF SORTED TWO-ELECTRON INTEGRALS:   36256870.     BUFFER LENGTH:  32768
 NUMBER OF SEGMENTS:   3  SEGMENT LENGTH:   15998004      RECORD LENGTH: 524288

 Memory used in sort:      16.56 MW

 SORT1 READ    44422673. AND WROTE    15463879. INTEGRALS IN     46 RECORDS. CPU TIME:     0.34 SEC, REAL TIME:     0.59 SEC
 SORT2 READ    15463879. AND WROTE    36256870. INTEGRALS IN    301 RECORDS. CPU TIME:     0.79 SEC, REAL TIME:     0.94 SEC

 FILE SIZES:   FILE 1:   109.5 MBYTE,  FILE 4:   193.0 MBYTE,   TOTAL:    302.5 MBYTE

 OPERATOR DM      FOR CENTER  0  COORDINATES:    0.000000    0.000000    0.000000


 **********************************************************************************************************************************
 DATASETS  * FILE   NREC   LENGTH (MB)   RECORD NAMES
              1      19       90.36       500      610      700      900      950      970     1000      129      960     1100   
                                          VAR    BASINP    GEOM    SYMINP    ZMAT    AOBASIS   BASIS     P2S    ABASIS      S 
                                         1400     1410     1200     1210     1080     1600     1650     1300     1700   
                                           T        V       H0       H01     AOSYM     SMH    MOLCAS    ERIS     OPER   

 PROGRAMS   *        TOTAL       INT
 CPU TIMES  *         3.61      3.46
 REAL TIME  *         4.48 SEC
 DISK USED  *       302.85 MB      
 **********************************************************************************************************************************


 PROGRAM * RHF-SCF (OPEN SHELL)       Authors: W. Meyer, H.-J. Werner


 NUMBER OF ELECTRONS:      10+    9-    SPACE SYMMETRY=1    SPIN SYMMETRY: Doublet 
 CONVERGENCE THRESHOLDS:    1.00E-05 (Density)    1.00E-07 (Energy)
 INTEGRAL THRESHOLDS:       1.00E-11 (Initial)    1.00E-11 (Final)
 MAX. NUMBER OF ITERATIONS:       60
 INTERPOLATION TYPE:            DIIS
 INTERPOLATION STEPS:              2 (START)      1 (STEP)
 LEVEL SHIFTS:                 -0.60 (CLOSED) -0.30 (OPEN) 



 Orbital guess generated from atomic densities. Full valence occupancy:   10

 Molecular orbital dump at record        2100.2

 Initial alpha occupancy:  10
 Initial beta  occupancy:   9
 Wave function symmetry:    1

 Direct Fock-matrix evaluation.        Author: H.-J. Werner (1996)

 Integral Threshold:                  0.1D-10

 ITERATION   DDIFF            GRAD            ENERGY        2-EL.EN.            DIPOLE MOMENTS         DIIS   CPU(IT)  CPU(TOT)
    1      0.000D+00      0.000D+00      -460.55690178    373.063416   -0.00001   -1.13257   -0.00000    0      3.0      4.4     start
    2      0.000D+00      0.260D-02      -460.57453878    371.671472   -0.00004   -0.64800   -0.00000    1      2.6      7.0     diag,B
    3      0.103D-02      0.930D-03      -460.57703163    371.755472   -0.00005   -0.55236   -0.00000    2      2.5      9.5     diag,B
    4      0.378D-03      0.456D-03      -460.57836195    371.746848   -0.00005   -0.49097   -0.00000    3      2.5     12.0     diag,B
    5      0.249D-03      0.294D-03      -460.57938438    371.726662   -0.00005   -0.44152   -0.00000    4      2.5     14.5     diag,B
    6      0.275D-03      0.183D-03      -460.57999408    371.685793   -0.00005   -0.39924    0.00000    5      2.5     17.0     diag,B
    7      0.289D-03      0.108D-03      -460.58024812    371.645730   -0.00004   -0.36097    0.00000    6      2.5     19.5     fixocc
    8      0.270D-03      0.427D-04      -460.58027880    371.631022   -0.00004   -0.34347    0.00000    7      2.5     22.0     diag,B
    9      0.106D-03      0.104D-04      -460.58027974    371.630553   -0.00004   -0.34090    0.00000    8      2.6     24.6     diag,B
   10      0.156D-04      0.357D-05      -460.58027985    371.630626   -0.00004   -0.34058    0.00000    9      2.5     27.1     orth
   11      0.706D-05      0.105D-05      -460.58027985    371.630732   -0.00004   -0.34063   -0.00000    9      2.5     29.6     diag,B
   12      0.269D-05      0.280D-06      -460.58027985    371.630726   -0.00004   -0.34066   -0.00000    0      2.6     32.2     orth

 Final alpha occupancy:  10
 Final beta  occupancy:   9

 !RHF STATE 1.1 Energy               -460.580279854626
 Nuclear energy                        10.39163794
 One-electron energy                 -656.78728094
 Two-electron energy                  185.81536314
 Virial quotient                       -0.99971302
 !RHF STATE 1.1 Dipole moment          -0.00003922    -0.34066446    -0.00000000
 Dipole moment /Debye                  -0.00009969    -0.86582598    -0.00000000

 Orbital energies:

         1.1          2.1          3.1          4.1          5.1          6.1          7.1          8.1          9.1         10.1
   -104.864956   -10.589598    -8.056228    -8.053513    -8.053513    -1.090364    -0.668297    -0.483556    -0.483556    -0.469389

        11.1         12.1
      0.140429     0.179832

 HOMO     10.1    -0.469389 =     -12.7727eV
 LUMO     11.1     0.140429 =       3.8213eV
 LUMO-HOMO         0.609818 =      16.5940eV


 **********************************************************************************************************************************
 DATASETS  * FILE   NREC   LENGTH (MB)   RECORD NAMES
              1      19       90.36       500      610      700      900      950      970     1000      129      960     1100   
                                          VAR    BASINP    GEOM    SYMINP    ZMAT    AOBASIS   BASIS     P2S    ABASIS      S 
                                         1400     1410     1200     1210     1080     1600     1650     1300     1700   
                                           T        V       H0       H01     AOSYM     SMH    MOLCAS    ERIS     OPER   

              2       4        3.27       700     1000      520     2100   
                                         GEOM     BASIS   MCVARS     RHF  

 PROGRAMS   *        TOTAL        HF       INT
 CPU TIMES  *        35.80     32.19      3.46
 REAL TIME  *        37.36 SEC
 DISK USED  *       302.85 MB      
 **********************************************************************************************************************************

 Density functional group M06-2X=XC-M06-2X
 Functional: XC-M06-2X(via MFM 1.6)                                            Gradient terms: 1
 Use grid at  1800.2


 Exact exchange will be calculated, factor:  0.5400

 Functional: XC-M06-2X                 Factor:  1.0000

 Generated new metagrid on record  1800.2 with target accuracy 1.0D-06 and 14238 points in CPU time    0.2
 Computed new grid on record 1800.1 in CPU time    0.2
  107229 words reserved for DFT integration

 PROGRAM * RKS-SCF (Restricted open shell Kohn-Sham)     Authors: W. Meyer, H.-J. Werner, P.J. Knowles, 1993

 NUMBER OF ELECTRONS:      10+    9-    SPACE SYMMETRY=1    SPIN SYMMETRY: Doublet 
 CONVERGENCE THRESHOLDS:    1.00E-05 (Density)    1.00E-06 (Energy)
 INTEGRAL THRESHOLDS:       1.00E-11 (Initial)    1.00E-11 (Final)
 MAX. NUMBER OF ITERATIONS:        0
 INTERPOLATION TYPE:            DIIS
 INTERPOLATION STEPS:              2 (START)      1 (STEP)
 LEVEL SHIFTS:                 -0.60 (CLOSED) -0.30 (OPEN) 



 Use fine grid record 1800.2 for energy threshold  1.0D-06

 Basis set DEF2-QZVPP/JKFIT generated.   Number of basis functions:   164 

 Molecular orbitals read from record     2100.2  Type=RHF/CANONICAL (state 1.1)
 Coulomb and exchange fitting
 Thresholds for fitting:       THRAO_COUL= 1.0D-14    THRAO_EXCH= 1.0D-12    THRMO= 1.0D-11    THRPROD= 1.0D-11    THRASM= 1.0D-11
                               THR2HLF=    1.0D-11

 Molecular orbital dump at record        2101.2

 ITERATION   DDIFF            GRAD            ENERGY        2-EL.EN.            DIPOLE MOMENTS         DIIS   CPU(IT)  CPU(TOT)  ORB.
    1      0.000D+00      0.000D+00      -461.29421911    397.568674   -0.00004   -0.34066   -0.00000    0      1.7      1.7     start

 Final alpha occupancy:  10
 Final beta  occupancy:   9

 !RKS STATE 1.1 Energy               -461.294219110913
 Nuclear energy                        10.39163794
 One-electron energy                 -656.78728094
 Two-electron energy                  198.78433714
 Density functional                   -13.68291325     XC-M06-2X=-13.68291325
 Virial quotient                       -1.00126266
 !RKS STATE 1.1 Dipole moment          -0.00003922    -0.34066446    -0.00000000
 Dipole moment /Debye                  -0.00009969    -0.86582598    -0.00000000

 Orbital energies:

         1.1          2.1          3.1          4.1          5.1          6.1          7.1          8.1          9.1         10.1
   -104.864956   -10.589598    -8.056228    -8.053513    -8.053513    -1.090364    -0.668297    -0.483556    -0.483556    -0.469389

        11.1         12.1
      0.140429     0.179832

 HOMO     10.1    -0.469389 =     -12.7727eV
 LUMO     11.1     0.140429 =       3.8213eV
 LUMO-HOMO         0.609818 =      16.5940eV


 **********************************************************************************************************************************
 DATASETS  * FILE   NREC   LENGTH (MB)   RECORD NAMES
              1      20       90.81       500      610      700      900      950      970     1000      129      960     1100   
                                          VAR    BASINP    GEOM    SYMINP    ZMAT    AOBASIS   BASIS     P2S    ABASIS      S 
                                         1400     1410     1200     1210     1080     1600     1650     1300     1700     1800   
                                           T        V       H0       H01     AOSYM     SMH    MOLCAS    ERIS     OPER     GRID   

              2       6        6.52       700     1000      520     2100     1800     2101   
                                         GEOM     BASIS   MCVARS     RHF     GRID      RKS  

 PROGRAMS   *        TOTAL        KS        HF       INT
 CPU TIMES  *        37.78      1.98     32.19      3.46
 REAL TIME  *        39.36 SEC
 DISK USED  *       302.85 MB      
 **********************************************************************************************************************************


 PROGRAM * Intrinsic Basis Bonding Analysis (IBBA)          Author: G. Knizia

 Molecular orbitals read from record     2101.2  Type=RKS/CANONICAL (state 1.1)
 Fock matrix read from record            2101.2  Type=RKS/TOTAL (state 1.1)
 Orbital energies read from record       2101.2  Type=RKS/CANONICAL (state 1.1)
 Density matrix read from record         2101.2  Type=RKS/CHARGE (state 1.1)

 Number of core orbitals:           5 (   5 )
 Number of closed-shell orbitals:   4 (   4 )
 Number of active  orbitals:        1 (   1 )

 Basis set MINAO-AUTO-PP generated.      Number of basis functions:   11 

 Polarized AO type:                A = (O Ot + (1-O)(1-Ot)) P12
 Orthogonalization method:         Symmetric (Loewdin)
 Localization functional:          L = sum[A,i] <i|n_A|i>^4 -> max

 Localization group 1:   9 orbitals, occupancy  2.000
 Iterative localization: IB/PM,    5 iter; Final gradient 0.12E-11

 Bond order analysis:       [THRPRINT= 0.020]

   CEN ATOM   CEN ATOM     WIBERG.BO      RENORM.BO
     1   H  -   3   H       0.618548       0.928984
     1   H  -   2  CL       0.380882       1.000000

     2  CL  -   1   H       0.380882       1.000000
     2  CL  -   3   H       0.280399       1.000000

     3   H  -   1   H       0.618548       0.928984
     3   H  -   2  CL       0.280399       1.000000


 Valency analysis:

   CEN ATOM   TOT.VALENCE
     1   H       0.999430
     2  CL       0.661282
     3   H       0.898947
 Localization group 2:   1 orbitals, occupancy  1.000
 Iterative localization: IB/PM,    1 iter; Final gradient 0.00E+00

 Bond order analysis:       [THRPRINT= 0.020]

   CEN ATOM   CEN ATOM     WIBERG.BO      RENORM.BO
     1   H  -   2  CL       0.021895       0.500000

     2  CL  -   3   H       0.360056       0.500000
     2  CL  -   1   H       0.021895       0.500000

     3   H  -   2  CL       0.360056       0.500000


 Valency analysis:

   CEN ATOM   TOT.VALENCE
     1   H       0.029037
     2  CL       0.381952
     3   H       0.367198

 Total charge composition:

   CEN ATOM         s          p       ELECTRONS ->P.CHARGE
     1   H       0.99087                 0.99087    0.00913
     2  CL       5.95165   11.13305     17.08470   -0.08470
     3   H       0.92443                 0.92443    0.07557

 Total charge composition, AO contributions:

   CEN ATOM SHL      SPHERICAL COMPONENTS
     1   H  1s       0.99087

     2  CL  1s       1.99999
     2  CL  2s       1.99900
     2  CL  3s       1.95266
     2  CL  2p       2.00000    1.99982    2.00000
     2  CL  3p       2.00000    1.13323    2.00000

     3   H  1s       0.92443

 Active orbital charges:

   CEN ATOM         s          p       ELECTRONS ->SPIN.DEN
     1   H       0.01474                 0.01474    0.01474
     2  CL       0.00481    0.73814      0.74295    0.74295
     3   H       0.24232                 0.24232    0.24232

 Active orbital charges, AO contributions:

   CEN ATOM SHL      SPHERICAL COMPONENTS
     1   H  1s       0.01474

     2  CL  1s       0.00000
     2  CL  2s       0.00005
     2  CL  3s       0.00476
     2  CL  2p       0.00000    0.00001    0.00000
     2  CL  3p       0.00000    0.73813    0.00000

     3   H  1s       0.24232

 Summary of localized orbital composition:   [THRPRINT= 0.020]

   ORB  GRP  ORB.ENERGY      CENTERS/CHARGES
     1   1  -102.665336     CL  2   2.000
     2   1    -9.620901     CL  2   2.000
     3   1    -7.563501     CL  2   2.000
     4   1    -7.563501     CL  2   2.000
     5   1    -7.543385     CL  2   2.000
     6   1    -1.173560     CL  2   1.971   (other: 0.029)
     7   1    -0.630272      H  1   0.965   H  3   0.664  CL  2   0.371
     8   1    -0.407789     CL  2   2.000
     9   1    -0.407788     CL  2   2.000
    10   2    -0.274391     CL  2   0.743   H  3   0.242

 Localized orbitals saved to record      2101.2  (orbital set 2)


 **********************************************************************************************************************************
 DATASETS  * FILE   NREC   LENGTH (MB)   RECORD NAMES
              1      20       90.81       500      610      700      900      950      970     1000      129      960     1100   
                                          VAR    BASINP    GEOM    SYMINP    ZMAT    AOBASIS   BASIS     P2S    ABASIS      S 
                                         1400     1410     1200     1210     1080     1600     1650     1300     1700     1800   
                                           T        V       H0       H01     AOSYM     SMH    MOLCAS    ERIS     OPER     GRID   

              2       6        6.66       700     1000      520     2100     1800     2101   
                                         GEOM     BASIS   MCVARS     RHF     GRID      RKS  

 PROGRAMS   *        TOTAL      IBBA        KS        HF       INT
 CPU TIMES  *        37.81      0.03      1.98     32.19      3.46
 REAL TIME  *        39.39 SEC
 DISK USED  *       302.85 MB      
 **********************************************************************************************************************************

 IBBA/QZVP energy=      0.000000000000

        DF-KS           HF-SCF  
   -461.29421911   -460.58027985
 **********************************************************************************************************************************
 Molpro calculation terminated
