
 Primary working directories    : /local/molpro.vx2ltlsfOO
 Secondary working directories  : /local/molpro.vx2ltlsfOO
 Wavefunction directory         : /local/
 Main file repository           : /local/molpro.vx2ltlsfOO/

 id        : simonbennie

 Nodes     nprocs
 node32-027    1

 Using customized tuning parameters: mindgm=1; mindgv=20; mindgc=4; mindgr=1; noblas=0; minvec=7
 default implementation of scratch files=df  

 memory,500,m
 geomtyp=xyz
 nosym
 noorient
 geometry={
 H          0.00048       -1.34063        0.00000
 Cl         0.00000        0.20325        0.00000
 H         -0.00048       -2.11466        0.00000
 }
 basis={default,sto-3g}
 {uhf,direct;wf,19,1,1}
 
 basis={ default,6-31+G(d,p) }
 {uks,SLATER,direct;wf,19,1,1}
 {ibba,bonds=1}

 Variables initialized (920), CPU time= 0.01 sec
 Commands  initialized (754), CPU time= 0.01 sec, 615 directives.
 Default parameters read. Elapsed time= 0.11 sec

 Checking input...
 Passed
1


                                         ***  PROGRAM SYSTEM MOLPRO  ***
                                       Copyright, TTI GmbH Stuttgart, 2015
                                    Version 2018.0 linked Jul  6 2018 18:07:13


 **********************************************************************************************************************************
 LABEL *                                                                                 
  64 bit serial version                                                                  DATE: 10-Oct-18          TIME: 15:54:23  
 **********************************************************************************************************************************

 SHA1:             b58f8fddb9d75525be9261ebe3faf0e4279c479b
 **********************************************************************************************************************************
 SETTING GEOMTYP        =    XYZ

 Variable memory set to  500000000 words,  buffer space 

 ZSYMEL=NOSYM

 SETTING BASIS          =    STO-3G


 Recomputing integrals since basis changed


 Using spherical harmonics

 Library entry H      S STO-3G               selected for orbital group  1
 Library entry CL     S STO-3G               selected for orbital group  2
 Library entry CL     P STO-3G               selected for orbital group  2


 PROGRAM * SEWARD (Integral evaluation for generally contracted gaussian basis sets)     Author: Roland Lindh, 1990

 Geometry written to block  1 of record 700


 Point group  C1  



 ATOMIC COORDINATES

 NR  ATOM    CHARGE       X              Y              Z

   1  H       1.00    0.000907069   -2.533423534    0.000000000
   2  CL     17.00    0.000000000    0.384086835    0.000000000
   3  H       1.00   -0.000907069   -3.996128247    0.000000000

 Bond lengths in Bohr (Angstrom)

 1-2  2.917510510  1-3  1.462705837
     ( 1.543880075)     ( 0.774030595)

 Bond angles

  2-1-3  179.91112471

 NUCLEAR CHARGE:                   19
 NUMBER OF PRIMITIVE AOS:          33
 NUMBER OF SYMMETRY AOS:           33
 NUMBER OF CONTRACTIONS:           11   (  11A   )
 NUMBER OF CORE ORBITALS:           5   (   5A   )
 NUMBER OF VALENCE ORBITALS:        6   (   6A   )


 NUCLEAR REPULSION ENERGY   10.39163794

 EXTRA SYMMETRY OF AOS IN SYMMETRY 1:   1 1 1 1 1 1 2 1 1 2   1

 Eigenvalues of metric

         1 0.273E+00 0.600E+00 0.745E+00 0.767E+00 0.767E+00 0.946E+00 0.117E+01 0.123E+01


 Contracted 2-electron integrals neglected if value below      1.0D-11
 AO integral compression algorithm  1   Integral accuracy      1.0D-11

     0.262 MB (compressed) written to integral file ( 71.8%)


 NUMBER OF SORTED TWO-ELECTRON INTEGRALS:       2211.     BUFFER LENGTH:  32768
 NUMBER OF SEGMENTS:   1  SEGMENT LENGTH:       2211      RECORD LENGTH: 524288

 Memory used in sort:       0.56 MW

 SORT1 READ        4003. AND WROTE         959. INTEGRALS IN      1 RECORDS. CPU TIME:     0.00 SEC, REAL TIME:     0.01 SEC
 SORT2 READ         959. AND WROTE        2211. INTEGRALS IN      1 RECORDS. CPU TIME:     0.01 SEC, REAL TIME:     0.00 SEC

 FILE SIZES:   FILE 1:    30.2 MBYTE,  FILE 4:     4.2 MBYTE,   TOTAL:     34.5 MBYTE

 OPERATOR DM      FOR CENTER  0  COORDINATES:    0.000000    0.000000    0.000000


 **********************************************************************************************************************************
 DATASETS  * FILE   NREC   LENGTH (MB)   RECORD NAMES
              1      19       29.98       500      610      700      900      950      970     1000      129      960     1100   
                                          VAR    BASINP    GEOM    SYMINP    ZMAT    AOBASIS   BASIS     P2S    ABASIS      S 
                                         1400     1410     1200     1210     1080     1600     1650     1300     1700   
                                           T        V       H0       H01     AOSYM     SMH    MOLCAS    ERIS     OPER   

 PROGRAMS   *        TOTAL       INT
 CPU TIMES  *         0.47      0.32
 REAL TIME  *         0.77 SEC
 DISK USED  *        34.76 MB
 **********************************************************************************************************************************


 PROGRAM * UHF-SCF       Authors: W. Meyer, H.-J. Werner


 NUMBER OF ELECTRONS:      10+    9-    SPACE SYMMETRY=1    SPIN SYMMETRY: Doublet 
 CONVERGENCE THRESHOLDS:    1.00E-05 (Density)    1.00E-07 (Energy)
 INTEGRAL THRESHOLDS:       1.00E-11 (Initial)    1.00E-11 (Final)
 MAX. NUMBER OF ITERATIONS:       60
 INTERPOLATION TYPE:            DIIS
 INTERPOLATION STEPS:              2 (START)      1 (STEP)
 LEVEL SHIFTS:                 -0.20 (ALPHA)  -0.20 (BETA) 



 Orbital guess generated from atomic densities. Full valence occupancy:   10

 Molecular orbital dump at record        2200.2

 Initial alpha occupation  10
 Initial beta  occupation   9

 Direct Fock-matrix evaluation.        Author: H.-J. Werner (1996)

 Integral Threshold:                  0.1D-10

 ITERATION   DDIFF            GRAD            ENERGY        2-EL.EN.            DIPOLE MOMENTS         DIIS   CPU(IT)  CPU(TOT)
    1      0.000D+00      0.000D+00      -455.55115406    374.724321   -0.00007   -1.82093   -0.00000    0      1.0      1.8
    2      0.298D-01      0.193D-01      -455.59120763    372.881042   -0.00003   -1.21800   -0.00000    1      0.5      2.2
    3      0.247D-01      0.121D-01      -455.61270702    371.196983    0.00000   -0.62055   -0.00000    2      0.5      2.7
    4      0.111D-01      0.443D-02      -455.61690191    370.787936    0.00001   -0.43792    0.00000    3      0.5      3.2
    5      0.717D-02      0.178D-02      -455.61782984    370.669836    0.00001   -0.37062    0.00000    4      0.5      3.7
    6      0.312D-02      0.847D-03      -455.61803691    370.600041    0.00001   -0.33309    0.00000    5      0.5      4.2
    7      0.938D-03      0.229D-03      -455.61804965    370.576442    0.00001   -0.32111    0.00000    6      0.5      4.7
    8      0.518D-04      0.289D-04      -455.61804974    370.576773    0.00001   -0.32167    0.00000    7      0.5      5.2
    9      0.145D-04      0.745D-05      -455.61804974    370.576455    0.00001   -0.32165    0.00000    6      0.5      5.6
   10      0.387D-05      0.198D-05      -455.61804974    370.576485    0.00001   -0.32171    0.00000    6      0.5      6.1
   11      0.867D-06      0.444D-06      -455.61804974    370.576515    0.00001   -0.32172    0.00000    5      0.5      6.6

 Final alpha occupancy:  10
 Final beta  occupancy:   9

 !UHF STATE  1.1 Energy              -455.618049744459
 Nuclear energy                        10.39163794
 One-electron energy                 -651.29794532
 Two-electron energy                  185.28825763
 Virial quotient                       -1.01732529
 !UHF STATE  1.1 Dipole moment          0.00000793    -0.32172463     0.00000000
 Dipole moment /Debye                   0.00002015    -0.81768887     0.00000000

 Orbital energies for positive spin:

         1.1          2.1          3.1          4.1          5.1          6.1          7.1          8.1          9.1         10.1
   -103.725185   -10.409098    -7.867998    -7.844445    -7.844445    -1.047112    -0.688752    -0.437281    -0.437281    -0.425744

        11.1
      0.741255

 Orbital energies for negative spin:

         1.1          2.1          3.1          4.1          5.1          6.1          7.1          8.1          9.1         10.1
   -103.718431   -10.399904    -7.840640    -7.840640    -7.830337    -0.960258    -0.583192    -0.410348    -0.410348     0.064199

        11.1
      0.802404


 HOMO     -9.1    -0.410348 =     -11.1662eV
 LUMO    -10.1     0.064199 =       1.7469eV
 LUMO-HOMO         0.474548 =      12.9131eV

 EXPECTATION VALUE OF S**2:             0.76503443

 Occupation number threshold for pseudo-canonical orbitals: 1.9990 (occupied), 0.0010 (virtual)

 Number of pseudo-canonical occupied orbitals per symmetry:    8
 Number of active natural orbitals per symmetry:               3

 Natural orbitals saved to record    2200.2 (Orbital set 3)

 Orbital spaces for UNO-CAS (Min. occupation: 0.020  Max. occupation: 1.980):

 Closed:        9
 Active:        1


 **********************************************************************************************************************************
 DATASETS  * FILE   NREC   LENGTH (MB)   RECORD NAMES
              1      19       29.98       500      610      700      900      950      970     1000      129      960     1100   
                                          VAR    BASINP    GEOM    SYMINP    ZMAT    AOBASIS   BASIS     P2S    ABASIS      S 
                                         1400     1410     1200     1210     1080     1600     1650     1300     1700   
                                           T        V       H0       H01     AOSYM     SMH    MOLCAS    ERIS     OPER   

              2       4        2.79       700     1000      520     2200   
                                         GEOM     BASIS   MCVARS     UHF  

 PROGRAMS   *        TOTAL   UHF-SCF       INT
 CPU TIMES  *         7.11      6.64      0.32
 REAL TIME  *         9.04 SEC
 DISK USED  *        34.76 MB
 **********************************************************************************************************************************
 SETTING BASIS          =    6-31+G(D,P)


 Recomputing integrals since basis changed


 Using spherical harmonics

 Library entry H      S 6-31G                selected for orbital group  1
 Library entry H      P 6-31G**              selected for orbital group  1
 Library entry CL     S 6-31G                selected for orbital group  2
 Library entry CL     S 6-31++G              selected for orbital group  2
 Library entry CL     P 6-31G                selected for orbital group  2
 Library entry CL     P 6-31++G              selected for orbital group  2
 Library entry CL     D 6-31G*               selected for orbital group  2


 PROGRAM * SEWARD (Integral evaluation for generally contracted gaussian basis sets)     Author: Roland Lindh, 1990

 Geometry written to block  1 of record 700


 Point group  C1  



 ATOMIC COORDINATES

 NR  ATOM    CHARGE       X              Y              Z

   1  H       1.00    0.000907069   -2.533423534    0.000000000
   2  CL     17.00    0.000000000    0.384086835    0.000000000
   3  H       1.00   -0.000907069   -3.996128247    0.000000000

 Bond lengths in Bohr (Angstrom)

 1-2  2.917510510  1-3  1.462705837
     ( 1.543880075)     ( 0.774030595)

 Bond angles

  2-1-3  179.91112471

 NUCLEAR CHARGE:                   19
 NUMBER OF PRIMITIVE AOS:          70
 NUMBER OF SYMMETRY AOS:           69
 NUMBER OF CONTRACTIONS:           32   (  32A   )
 NUMBER OF CORE ORBITALS:           5   (   5A   )
 NUMBER OF VALENCE ORBITALS:        6   (   6A   )


 NUCLEAR REPULSION ENERGY   10.39163794

 EXTRA SYMMETRY OF AOS IN SYMMETRY 1:   1 1 1 1 2 1 1 1 1 1   1 1 2 1 1 2 1 1 2 1   1 2 1 1 2 1 2 1 1 1   1 2

 Eigenvalues of metric

         1 0.197E-01 0.661E-01 0.122E+00 0.156E+00 0.159E+00 0.159E+00 0.201E+00 0.459E+00


 Contracted 2-electron integrals neglected if value below      1.0D-11
 AO integral compression algorithm  1   Integral accuracy      1.0D-11

     0.524 MB (compressed) written to integral file ( 37.6%)


 NUMBER OF SORTED TWO-ELECTRON INTEGRALS:     139656.     BUFFER LENGTH:  32768
 NUMBER OF SEGMENTS:   1  SEGMENT LENGTH:     139656      RECORD LENGTH: 524288

 Memory used in sort:       0.70 MW

 SORT1 READ      206254. AND WROTE       60280. INTEGRALS IN      1 RECORDS. CPU TIME:     0.01 SEC, REAL TIME:     0.00 SEC
 SORT2 READ       60280. AND WROTE      139656. INTEGRALS IN      2 RECORDS. CPU TIME:     0.01 SEC, REAL TIME:     0.03 SEC

 FILE SIZES:   FILE 1:    30.5 MBYTE,  FILE 4:     4.2 MBYTE,   TOTAL:     34.8 MBYTE

 OPERATOR DM      FOR CENTER  0  COORDINATES:    0.000000    0.000000    0.000000


 **********************************************************************************************************************************
 DATASETS  * FILE   NREC   LENGTH (MB)   RECORD NAMES
              1      19       30.32       500      610      700      900      950      970     1001      129      960     1100   
                                          VAR    BASINP    GEOM    SYMINP    ZMAT    AOBASIS   BASIS     P2S    ABASIS      S 
                                         1400     1410     1200     1210     1080     1600     1650     1300     1700   
                                           T        V       H0       H01     AOSYM     SMH    MOLCAS    ERIS     OPER   

              2       5        2.80       700     1000      520     2200     1001   
                                         GEOM     BASIS   MCVARS     UHF     BASIS   

 PROGRAMS   *        TOTAL       INT   UHF-SCF       INT
 CPU TIMES  *         7.39      0.28      6.64      0.32
 REAL TIME  *         9.39 SEC
 DISK USED  *        37.61 MB
 **********************************************************************************************************************************

 Density functional group SLATER=DIRAC
 Functional: DIRAC(Automatically generated (new) DIRAC)                        Gradient terms: 0
 Use libxcgrid:  F
 Use grid at  1800.2

 Functional: DIRAC                     Factor:  1.0000

 Generated new metagrid on record  1800.2 with target accuracy 1.0D-06 and 13034 points in CPU time    0.2
 Computed new grid on record 1800.1 in CPU time    0.2
   17262 words reserved for DFT integration

 PROGRAM * UKS-SCF (Unrestricted Kohn-Sham)     Authors: W. Meyer, H.-J. Werner, P.J. Knowles, 1993

 NUMBER OF ELECTRONS:      10+    9-    SPACE SYMMETRY=1    SPIN SYMMETRY: Doublet 
 CONVERGENCE THRESHOLDS:    1.00E-05 (Density)    1.00E-06 (Energy)
 MAX. NUMBER OF ITERATIONS:       60
 INTERPOLATION TYPE:            DIIS
 INTERPOLATION STEPS:              2 (START)      1 (STEP)
 LEVEL SHIFTS:                 -0.20 (ALPHA)  -0.20 (BETA) 



 Use fine grid record 1800.2 for energy threshold  1.0D-06
 Molecular orbitals read from record     2200.2  Type=UHF/ALPHA (state 1.1)

 Present basis size:      32
 Previous basis size:     11
 Previous occupation:     10
 Previous closed-shells:   9
 Previous core-orbitals:   5
 Present occupation:      10
 Present closed-shells:    9
 Present core-orbitals:    5
 Wavefunction symmetry:    1   Doublet 

 Orbital overlap <old|new>:  < 1.1| 1.1> = 0.999828   < 2.1| 2.1> = 0.999034   < 3.1| 3.1> = 0.998816   < 4.1| 4.1> = 0.998809
                             < 5.1| 5.1> = 0.998809   < 6.1| 6.1> = 0.998309   < 7.1| 7.1> = 0.999335   < 8.1| 8.1> = 0.997979
                             < 9.1| 9.1> = 0.997979   <10.1|10.1> = 0.998450

 Molecular orbitals read from record     2200.2  Type=UHF/BETA (state 1.1)

 Present basis size:      32
 Previous basis size:     11
 Previous occupation:     10
 Previous closed-shells:   9
 Previous core-orbitals:   5
 Present occupation:      10
 Present closed-shells:    9
 Present core-orbitals:    5
 Wavefunction symmetry:    1   Doublet 

 Orbital overlap <old|new>:  < 1.1| 1.1> = 0.999828   < 2.1| 2.1> = 0.999035   < 3.1| 3.1> = 0.998809   < 4.1| 4.1> = 0.998809
                             < 5.1| 5.1> = 0.998816   < 6.1| 6.1> = 0.998396   < 7.1| 7.1> = 0.999416   < 8.1| 8.1> = 0.997979
                             < 9.1| 9.1> = 0.997979   <10.1|10.1> = 0.998339


 Molecular orbital dump at record        2201.2

 Initial alpha occupation  10
 Initial beta  occupation   9

 ITERATION    DDIFF          GRAD             ENERGY        2-EL.EN.            DIPOLE MOMENTS         DIIS
    1      0.000D+00      0.000D+00      -458.14405779    433.632973   -0.00002   -0.32185   -0.00000    0
    2      0.403D-01      0.267D-01      -458.31610656    427.245466   -0.00006   -0.31397   -0.00000    1
    3      0.148D-01      0.402D-02      -458.33217259    427.793870   -0.00005   -0.48393    0.00000    2
    4      0.768D-02      0.157D-02      -458.33735418    426.871829   -0.00004   -0.57435    0.00000    3
    5      0.263D-02      0.701D-03      -458.33791581    427.320648   -0.00005   -0.65876   -0.00000    4
    6      0.114D-02      0.302D-03      -458.33802453    427.161998   -0.00004   -0.67164   -0.00000    5
    7      0.266D-03      0.507D-04      -458.33803081    427.179032   -0.00004   -0.67669    0.00000    6
    8      0.110D-03      0.241D-04      -458.33803160    427.174478   -0.00004   -0.67806    0.00000    6
    9      0.421D-04      0.822D-05      -458.33803168    427.173752   -0.00004   -0.67778    0.00000    7
   10      0.453D-05      0.118D-05      -458.33803168    427.173941   -0.00004   -0.67779    0.00000    7
   11      0.178D-05      0.302D-06      -458.33803168    427.173918   -0.00004   -0.67777    0.00000    6

 Final alpha occupancy:  10
 Final beta  occupancy:   9

 !UKS STATE  1.1 Energy              -458.338031680729
 Nuclear energy                        10.39163794
 One-electron energy                 -656.39621503
 Two-electron energy                  213.58695900
 Density functional                   -25.92041359     DIRAC=-25.92041359
 Virial quotient                       -0.99660757
 !UKS STATE  1.1 Dipole moment         -0.00003590    -0.67776879     0.00000000
 Dipole moment /Debye                  -0.00009125    -1.72260359     0.00000000

 Orbital energies for positive spin:

         1.1          2.1          3.1          4.1          5.1          6.1          7.1          8.1          9.1         10.1
   -100.223648    -9.090501    -6.955238    -6.937926    -6.937926    -0.720857    -0.457844    -0.253965    -0.253965    -0.252044

        11.1         12.1
      0.046905     0.064635

 Orbital energies for negative spin:

         1.1          2.1          3.1          4.1          5.1          6.1          7.1          8.1          9.1         10.1
   -100.218954    -9.084857    -6.943408    -6.933713    -6.933713    -0.691651    -0.412694    -0.239982    -0.239982    -0.188866

        11.1         12.1
      0.051801     0.079722


 HOMO     -9.1    -0.239982 =      -6.5302eV
 LUMO    -10.1    -0.188866 =      -5.1393eV
 LUMO-HOMO         0.051117 =       1.3910eV

 EXPECTATION VALUE OF S**2:             0.75323873

 Occupation number threshold for pseudo-canonical orbitals: 1.9990 (occupied), 0.0010 (virtual)

 Number of pseudo-canonical occupied orbitals per symmetry:    8
 Number of active natural orbitals per symmetry:               3

 Natural orbitals saved to record    2201.2 (Orbital set 3)

 Orbital spaces for UNO-CAS (Min. occupation: 0.020  Max. occupation: 1.980):

 Closed:        9
 Active:        1


 **********************************************************************************************************************************
 DATASETS  * FILE   NREC   LENGTH (MB)   RECORD NAMES
              1      20       30.73       500      610      700      900      950      970     1001      129      960     1100   
                                          VAR    BASINP    GEOM    SYMINP    ZMAT    AOBASIS   BASIS     P2S    ABASIS      S 
                                         1400     1410     1200     1210     1080     1600     1650     1300     1700     1800   
                                           T        V       H0       H01     AOSYM     SMH    MOLCAS    ERIS     OPER     GRID   

              2       7        5.33       700     1000      520     2200     1001     1800     2201   
                                         GEOM     BASIS   MCVARS     UHF     BASIS    GRID      UKS  

 PROGRAMS   *        TOTAL   UKS-SCF       INT   UHF-SCF       INT
 CPU TIMES  *         7.95      0.56      0.28      6.64      0.32
 REAL TIME  *        10.32 SEC
 DISK USED  *        37.61 MB
 **********************************************************************************************************************************


 PROGRAM * Intrinsic Basis Bonding Analysis (IBBA)          Author: G. Knizia

 Molecular orbitals read from record     2201.2  Type=UKS/ALPHA (state 1.1)
 Fock matrix read from record            2201.2  Type=UKS/TOTAL (state 1.1)
 Orbital energies read from record       2201.2  Type=UKS/ALPHA (state 1.1)
 Density matrix read from record         2201.2  Type=UKS/CHARGE (state 1.1)

 Number of core orbitals:           5 (   5 )
 Number of closed-shell orbitals:   4 (   4 )
 Number of active  orbitals:        1 (   1 )

 Basis set MINAO-AUTO-PP generated.      Number of basis functions:   11 

 Polarized AO type:                A = (O Ot + (1-O)(1-Ot)) P12
 Orthogonalization method:         Symmetric (Loewdin)
 Localization functional:          L = sum[A,i] <i|n_A|i>^4 -> max

 Localization group 1:   9 orbitals, occupancy  2.000
 Iterative localization: IB/PM,    4 iter; Final gradient 0.53E-08

 Bond order analysis:       [THRPRINT= 0.020]

   CEN ATOM   CEN ATOM     WIBERG.BO      RENORM.BO
     1   H  -   3   H       0.503579       0.896656
     1   H  -   2  CL       0.485479       1.000000

     2  CL  -   1   H       0.485479       1.000000
     2  CL  -   3   H       0.357464       1.000000

     3   H  -   1   H       0.503579       0.896656
     3   H  -   2  CL       0.357464       1.000000


 Valency analysis:

   CEN ATOM   TOT.VALENCE
     1   H       0.989058
     2  CL       0.842942
     3   H       0.861043
 Localization group 2:   1 orbitals, occupancy  1.000
 Iterative localization: IB/PM,    1 iter; Final gradient 0.00E+00

 Bond order analysis:       [THRPRINT= 0.020]

   CEN ATOM   CEN ATOM     WIBERG.BO      RENORM.BO
     1   H  -   2  CL       0.026086       0.500000

     2  CL  -   3   H       0.425587       0.500000
     2  CL  -   1   H       0.026086       0.500000

     3   H  -   2  CL       0.425587       0.500000


 Valency analysis:

   CEN ATOM   TOT.VALENCE
     1   H       0.039006
     2  CL       0.451673
     3   H       0.438508

 Total charge composition:

   CEN ATOM         s          p       ELECTRONS ->P.CHARGE
     1   H       0.91529                 0.91529    0.08471
     2  CL       5.94251   11.19031     17.13282   -0.13282
     3   H       0.95188                 0.95188    0.04812

 Total charge composition, AO contributions:

   CEN ATOM SHL      SPHERICAL COMPONENTS
     1   H  1s       0.91529

     2  CL  1s       1.99998
     2  CL  2s       1.99920
     2  CL  3s       1.94332
     2  CL  2p       2.00000    1.99991    2.00000
     2  CL  3p       1.99999    1.19042    2.00000

     3   H  1s       0.95188

 Active orbital charges:

   CEN ATOM         s          p       ELECTRONS ->SPIN.DEN
     1   H       0.01990                 0.01990    0.01990
     2  CL       0.00226    0.65319      0.65545    0.65545
     3   H       0.32465                 0.32465    0.32465

 Active orbital charges, AO contributions:

   CEN ATOM SHL      SPHERICAL COMPONENTS
     1   H  1s       0.01990

     2  CL  1s       0.00000
     2  CL  2s       0.00004
     2  CL  3s       0.00222
     2  CL  2p       0.00000    0.00001    0.00000
     2  CL  3p       0.00001    0.65317    0.00000

     3   H  1s       0.32465

 Summary of localized orbital composition:   [THRPRINT= 0.020]

   ORB  GRP  ORB.ENERGY      CENTERS/CHARGES
     1   1  -100.192237     CL  2   2.000
     2   1    -8.951238     CL  2   2.000
     3   1    -6.935817     CL  2   2.000
     4   1    -6.935817     CL  2   2.000
     5   1    -6.933667     CL  2   2.000
     6   1    -0.837973     CL  2   1.961   H  3   0.024
     7   1    -0.482921      H  1   0.881   H  3   0.603  CL  2   0.517
     8   1    -0.246977     CL  2   2.000
     9   1    -0.246938     CL  2   2.000
    10   2    -0.220246     CL  2   0.655   H  3   0.325

 Localized orbitals saved to record      2201.2  (orbital set 4)


 **********************************************************************************************************************************
 DATASETS  * FILE   NREC   LENGTH (MB)   RECORD NAMES
              1      20       30.73       500      610      700      900      950      970     1001      129      960     1100   
                                          VAR    BASINP    GEOM    SYMINP    ZMAT    AOBASIS   BASIS     P2S    ABASIS      S 
                                         1400     1410     1200     1210     1080     1600     1650     1300     1700     1800   
                                           T        V       H0       H01     AOSYM     SMH    MOLCAS    ERIS     OPER     GRID   

              2       7        5.34       700     1000      520     2200     1001     1800     2201   
                                         GEOM     BASIS   MCVARS     UHF     BASIS    GRID      UKS  

 PROGRAMS   *        TOTAL      IBBA   UKS-SCF       INT   UHF-SCF       INT
 CPU TIMES  *         7.97      0.02      0.56      0.28      6.64      0.32
 REAL TIME  *        10.34 SEC
 DISK USED  *        37.61 MB
 **********************************************************************************************************************************

 IBBA/6-31+G(D,P) energy=      0.000000000000

         UKS-SCF         UHF-SCF
   -458.33803168   -455.61804974
 **********************************************************************************************************************************
 Molpro calculation terminated
