
 Primary working directories    : /scratch/12403917
 Secondary working directories  : /scratch/12403917
 Wavefunction directory         : /groups/kemi/lab/nonconverged/htbh38/
 Main file repository           : /groups/kemi/lab/nonconverged/htbh38/

 SHA1      : 2c68d29c09da70e1723824271fadde4bcd5f07a0
 ARCHNAME  : Linux/x86_64
 FC        : /users/software/kemi/intel/Compiler/composer_xe_2011_sp1.13.367/bin/intel64/ifort
 FCVERSION : 12.1.6
 BLASLIB   : /users/software/kemi/intel/Compiler/composer_xe_2011_sp1.13.367/mkl/lib/intel64/libmkl_blas95_ilp64.a /users/software/kemi/intel/Compiler/composer_xe_2011_sp1.13.367/mkl/lib/intel64/libmkl_lapack95_ilp64.a -Wl,--start-group /users/software/kemi/intel/Compiler/composer_xe_2011_sp1.13.367/mkl/lib/intel64/libmkl_intel_ilp64.a /users/software/kemi/intel/Compiler/composer_xe_2011_sp1.13.367/mkl/lib/intel64/libmkl_intel_thread.a /users/software/kemi/intel/Compiler/composer_xe_2011_sp1.13.367/mkl/lib/intel64/libmkl_core.a -Wl,--end-group -openmp -lpthread -lm
 id        : kiku

 Nodes          nprocs
 node318.cluster    1

 Using customized tuning parameters: mindgm=16; mindgv=24; mindgc=8; mindgr=1; noblas=0; minvec=7
 default implementation of scratch files=df  

 memory,500,m
 geomtyp=xyz
 nosym
 noorient
 geometry={
 H          0.00048       -1.34063        0.00000
 Cl         0.00000        0.20325        0.00000
 H         -0.00048       -2.11466        0.00000
 }
 basis={default,sto-3g}
 
 
 basis={ default,6-31+G(d,p) }
 {ks,PBE,direct;wf,19,1,1}
 {ks,CS,direct,nitord=1;wf,19,1,1;shift,-1.0,-0.5}
 

 Variables initialized (766), CPU time= 0.00 sec
 Commands  initialized (545), CPU time= 0.01 sec, 513 directives.
 Default parameters read. Elapsed time= 0.18 sec

 Checking input...
 Passed
1


                                         ***  PROGRAM SYSTEM MOLPRO  ***
                         Copyright, University College Cardiff Consultants Limited, 2008

                                    Version 2012.1 linked 22 Jun 2017 13:51:13


 **********************************************************************************************************************************
 LABEL *                                                                                 
 Linux-2.6.32-754.6.3.el6.x86_64/node318.cluster(x86_64) 64 bit serial version           DATE: 04-Mar-19          TIME: 16:30:16  
 **********************************************************************************************************************************

 SHA1:             2c68d29c09da70e1723824271fadde4bcd5f07a0
 **********************************************************************************************************************************
 SETTING GEOMTYP        =    XYZ

 Variable memory set to  500000000 words,  buffer space   230000 words

 ZSYMEL=NOSYM
 
 SETTING BASIS          =    STO-3G
 SETTING BASIS          =    6-31+G(D,P)


 Recomputing integrals since basis changed


 Using spherical harmonics

 Library entry H      S 6-31G                selected for orbital group  1
 Library entry H      P 6-31G**              selected for orbital group  1
 Library entry CL     S 6-31G                selected for orbital group  2
 Library entry CL     S 6-31++G              selected for orbital group  2
 Library entry CL     P 6-31G                selected for orbital group  2
 Library entry CL     P 6-31++G              selected for orbital group  2
 Library entry CL     D 6-31G*               selected for orbital group  2

1PROGRAM * SEWARD (Integral evaluation for generally contracted gaussian basis sets)     Author: Roland Lindh, 1990

 Geometry written to block  1 of record 700


 Point group  C1  



 ATOMIC COORDINATES

 NR  ATOM    CHARGE       X              Y              Z

   1  H       1.00    0.000907069   -2.533423544    0.000000000
   2  CL     17.00    0.000000000    0.384086836    0.000000000
   3  H       1.00   -0.000907069   -3.996128261    0.000000000

 Bond lengths in Bohr (Angstrom)

 1-2  2.917510521  1-3  1.462705843
     ( 1.543880075)     ( 0.774030595)

 Bond angles

  2-1-3  179.91112471

 NUCLEAR CHARGE:                   19
 NUMBER OF PRIMITIVE AOS:          70
 NUMBER OF SYMMETRY AOS:           69
 NUMBER OF CONTRACTIONS:           32   (  32A   )
 NUMBER OF CORE ORBITALS:           5   (   5A   )
 NUMBER OF VALENCE ORBITALS:        6   (   6A   )


 NUCLEAR REPULSION ENERGY   10.39163791

 EXTRA SYMMETRY OF AOS IN SYMMETRY 1:   1 1 1 1 2 1 1 1 1 1   1 1 2 1 1 2 1 1 2 1   1 2 1 1 2 1 2 1 1 1   1 2

 Eigenvalues of metric

         1 0.197E-01 0.661E-01 0.122E+00 0.156E+00 0.159E+00 0.159E+00 0.201E+00 0.459E+00


 Contracted 2-electron integrals neglected if value below      1.0D-11
 AO integral compression algorithm  1   Integral accuracy      1.0D-11

     0.524 MB (compressed) written to integral file ( 37.6%)


 NUMBER OF SORTED TWO-ELECTRON INTEGRALS:     139656.     BUFFER LENGTH:  32768
 NUMBER OF SEGMENTS:   1  SEGMENT LENGTH:     139656      RECORD LENGTH: 524288

 Memory used in sort:       0.70 MW

 SORT1 READ      206254. AND WROTE       60280. INTEGRALS IN      1 RECORDS. CPU TIME:     0.00 SEC, REAL TIME:     0.00 SEC
 SORT2 READ       60280. AND WROTE      139656. INTEGRALS IN      2 RECORDS. CPU TIME:     0.00 SEC, REAL TIME:     0.01 SEC

 FILE SIZES:   FILE 1:     8.1 MBYTE,  FILE 4:     4.2 MBYTE,   TOTAL:     12.3 MBYTE

 OPERATOR DM      FOR CENTER  0  COORDINATES:    0.000000    0.000000    0.000000


 **********************************************************************************************************************************
 DATASETS  * FILE   NREC   LENGTH (MB)   RECORD NAMES
              1      19        7.88       500      610      700      900      950      970     1000      129      960     1100   
                                          VAR    BASINP    GEOM    SYMINP    ZMAT    AOBASIS   BASIS     P2S    ABASIS      S 
                                         1400     1410     1200     1210     1080     1600     1650     1300     1700   
                                           T        V       H0       H01     AOSYM     SMH    MOLCAS    ERIS     OPER   

 PROGRAMS   *        TOTAL       INT
 CPU TIMES  *         0.12      0.06
 REAL TIME  *         0.40 SEC
 DISK USED  *        12.64 MB      
 **********************************************************************************************************************************

 Density functional group PBE=PBEX+PBEC
 Functional: PBEX(Automatically generated (new) PBEX)                          Gradient terms: 1
 Functional: PBEC(Automatically generated (new) PBEC)                          Gradient terms: 1
 Use grid at  1800.2
 
 Functional: PBEX                      Factor:  1.0000
 Functional: PBEC                      Factor:  1.0000
 
 Generated new metagrid on record  1800.2 with target accuracy 1.0D-06 and 16464 points in CPU time    0.1
 Computed new grid on record 1800.1 in CPU time    0.1
   29454 words reserved for DFT integration

 PROGRAM * RKS-SCF (Restricted open shell Kohn-Sham)     Authors: W. Meyer, H.-J. Werner, P.J. Knowles, 1993

 NUMBER OF ELECTRONS:      10+    9-    SPACE SYMMETRY=1    SPIN SYMMETRY: Doublet 
 CONVERGENCE THRESHOLDS:    1.00E-05 (Density)    1.00E-06 (Energy)
 MAX. NUMBER OF ITERATIONS:       60
 INTERPOLATION TYPE:            DIIS
 INTERPOLATION STEPS:              2 (START)      1 (STEP)
 LEVEL SHIFTS:                 -0.30 (CLOSED)  0.00 (OPEN) 



 Use fine grid record 1800.2 for energy threshold  1.0D-06
 Orbital guess generated from atomic densities. Full valence occupancy:   10

 Molecular orbital dump at record        2100.2

 ITERATION    DDIFF          GRAD             ENERGY        2-EL.EN.            DIPOLE MOMENTS         DIIS   ORB.
    1      0.000D+00      0.000D+00      -461.08540859    429.860179   -0.00010   -0.70163    0.00000    0    start
    2      0.000D+00      0.298D-02      -461.08783294    427.518851   -0.00002   -0.49770    0.00000    1    diag,B
    3      0.812D-02      0.153D-02      -461.08867251    428.492653   -0.00005   -0.62359    0.00000    2    diag,B
    4      0.354D-02      0.322D-03      -461.08872808    428.325002   -0.00004   -0.60447    0.00000    3    diag,B
    5      0.696D-03      0.665D-04      -461.08873457    428.328327   -0.00004   -0.61373    0.00000    4    diag,B
    6      0.227D-03      0.299D-04      -461.08873545    428.325753   -0.00003   -0.61409    0.00000    5    diag,B
    7      0.920D-04      0.877D-05      -461.08873555    428.324132   -0.00003   -0.61481    0.00000    6    fixocc
    8      0.285D-04      0.266D-05      -461.08873557    428.324447   -0.00003   -0.61515    0.00000    7    diag,B
    9      0.109D-04      0.819D-06      -461.08873557    428.324304   -0.00003   -0.61520    0.00000    8    diag,B
   10      0.393D-05      0.999D-07      -461.08873557    428.324325   -0.00003   -0.61521    0.00000    0    orth

 Final alpha occupancy:  10
 Final beta  occupancy:   9

 !RKS STATE 1.1 Energy               -461.088735567081
 Nuclear energy                        10.39163791
 One-electron energy                 -656.91669698
 Two-electron energy                  214.16216263
 Density functional                   -28.72583912     PBEX=-28.02214082 PBEC= -0.70369830
 Virial quotient                       -1.00143701
 !RKS STATE 1.1 Dipole moment          -0.00003273    -0.61520768     0.00000000
 Dipole moment /Debye                  -0.00008319    -1.56359954     0.00000000

 Orbital energies:

         1.1          2.1          3.1          4.1          5.1          6.1          7.1          8.1          9.1         10.1
   -100.679707    -9.192226    -7.019609    -7.005579    -7.005579    -0.754035    -0.480881    -0.290415    -0.290415    -0.291270

        11.1         12.1
      0.024941     0.042184

 HOMO     10.1    -0.291270 =      -7.9259eV
 LUMO     11.1     0.024941 =       0.6787eV
 LUMO-HOMO         0.316211 =       8.6045eV


 **********************************************************************************************************************************
 DATASETS  * FILE   NREC   LENGTH (MB)   RECORD NAMES
              1      20        8.41       500      610      700      900      950      970     1000      129      960     1100   
                                          VAR    BASINP    GEOM    SYMINP    ZMAT    AOBASIS   BASIS     P2S    ABASIS      S 
                                         1400     1410     1200     1210     1080     1600     1650     1300     1700     1800   
                                           T        V       H0       H01     AOSYM     SMH    MOLCAS    ERIS     OPER     GRID   

              2       5        0.36       700     1000      520     1800     2100   
                                         GEOM     BASIS   MCVARS    GRID      RKS  

 PROGRAMS   *        TOTAL        KS       INT
 CPU TIMES  *         0.62      0.50      0.06
 REAL TIME  *         2.95 SEC
 DISK USED  *        12.64 MB      
 **********************************************************************************************************************************

 Density functional group CS=CS1
 Functional: CS1(Colle-Salvetti (Gradient form))                               Gradient terms: 1
 Use grid at  1800.2
 
 Functional: CS1                       Factor:  1.0000
 
   29454 words reserved for DFT integration

 PROGRAM * RKS-SCF (Restricted open shell Kohn-Sham)     Authors: W. Meyer, H.-J. Werner, P.J. Knowles, 1993

 NUMBER OF ELECTRONS:      10+    9-    SPACE SYMMETRY=1    SPIN SYMMETRY: Doublet 
 CONVERGENCE THRESHOLDS:    1.00E-05 (Density)    1.00E-06 (Energy)
 MAX. NUMBER OF ITERATIONS:       60
 INTERPOLATION TYPE:            DIIS
 INTERPOLATION STEPS:              2 (START)      1 (STEP)
 LEVEL SHIFTS:                 -1.00 (CLOSED) -0.50 (OPEN) 



 Use fine grid record 1800.2 for energy threshold  1.0D-06
 Molecular orbitals read from record     2100.2  Type=RKS/CANONICAL (state 1.1)

 Molecular orbital dump at record        2101.2

 ITERATION    DDIFF          GRAD             ENERGY        2-EL.EN.            DIPOLE MOMENTS         DIIS   ORB.
    1      0.000D+00      0.000D+00      -433.09899426    428.324325   -0.00003   -0.61521    0.00000    0    start
    2      0.000D+00      0.542D-01      -433.50211654    404.905951    0.00008   -0.27964    0.00000    1    diag,B
    3      0.670D-01      0.107D-01      -433.52628386    408.092680    0.00004   -0.61723    0.00000    2    diag,B
    4      0.134D-01      0.303D-02      -433.53362091    407.199319    0.00006   -0.69975    0.00000    3    diag,B
    5      0.612D-02      0.201D-02      -433.53874016    406.591261    0.00008   -0.81999    0.00000    4    diag,B
    6      0.906D-02      0.751D-03      -433.53939604    406.340568    0.00009   -0.85426    0.00000    5    diag,B
    7      0.387D-02      0.243D-03      -433.53946263    406.307088    0.00009   -0.85220    0.00000    6    diag,B
    8      0.128D-02      0.923D-04      -433.53947519    406.300961    0.00010   -0.84652    0.00000    7    orth
    9      0.420D-03      0.381D-04      -433.53947774    406.303727    0.00010   -0.84308    0.00000    8    diag,B
   10      0.225D-03      0.120D-04      -433.53947798    406.302745    0.00010   -0.84243    0.00000    9    diag,B
   11      0.758D-04      0.476D-05      -433.53947803    406.303492    0.00010   -0.84224    0.00000    9    diag,B
   12      0.369D-04      0.213D-05      -433.53947804    406.303302    0.00010   -0.84216    0.00000    9    diag,B
   13      0.195D-04      0.906D-06      -433.53947804    406.303446    0.00010   -0.84214    0.00000    9    diag,B
   14      0.752D-05      0.536D-06      -433.53947805    406.303451    0.00010   -0.84214    0.00000    0    orth

 Final alpha occupancy:  10
 Final beta  occupancy:   9

 !RKS STATE 1.1 Energy               -433.539478045388
 Nuclear energy                        10.39163791
 One-electron energy                 -646.36873034
 Two-electron energy                  203.15172571
 Density functional                    -0.71411132     CS1=-0.71411132
 Virial quotient                       -0.96196623
 !RKS STATE 1.1 Dipole moment           0.00010198    -0.84213666     0.00000000
 Dipole moment /Debye                   0.00025919    -2.14035769     0.00000000

 Orbital energies:

         1.1          2.1          3.1          4.1          5.1          6.1          7.1          8.1          9.1         10.1
    -94.962937    -7.787981    -5.621098    -5.608178    -5.608178    -0.471219    -0.220345    -0.056285    -0.056285    -0.010915

        11.1         12.1
      0.111251     0.123713

 HOMO     10.1    -0.010915 =      -0.2970eV
 LUMO     11.1     0.111251 =       3.0273eV
 LUMO-HOMO         0.122166 =       3.3243eV


 **********************************************************************************************************************************
 DATASETS  * FILE   NREC   LENGTH (MB)   RECORD NAMES
              1      20        8.41       500      610      700      900      950      970     1000      129      960     1100   
                                          VAR    BASINP    GEOM    SYMINP    ZMAT    AOBASIS   BASIS     P2S    ABASIS      S 
                                         1400     1410     1200     1210     1080     1600     1650     1300     1700     1800   
                                           T        V       H0       H01     AOSYM     SMH    MOLCAS    ERIS     OPER     GRID   

              2       6        0.44       700     1000      520     1800     2100     2101   
                                         GEOM     BASIS   MCVARS    GRID      RKS      RKS  

 PROGRAMS   *        TOTAL        KS        KS       INT
 CPU TIMES  *         1.30      0.68      0.50      0.06
 REAL TIME  *         5.26 SEC
 DISK USED  *        12.64 MB      
 **********************************************************************************************************************************

        KS-SCF          KS-SCF  
   -433.53947805   -461.08873557
 **********************************************************************************************************************************
 Variable memory released
