
 Primary working directories    : /local
 Secondary working directories  : /local
 Wavefunction directory         : /local/
 Main file repository           : /local/

 SHA1      : b4a5b34a9e711420743f49e6833241d17c61fb3c
 NAME      : 2099.9.b4a5b34
 ARCHNAME  : linux/x86_64_openmp
 FC        : /cm/shared/languages/GCC-6.1/bin/gfortran
 BLASLIB   : -lblas
 id        : simonbennie

 Nodes     nprocs
 node32-014    1

 Using customized tuning parameters: mindgm=1; mindgv=20; mindgc=4; mindgr=1; noblas=0; minvec=7
 default implementation of scratch files=df  

 memory,500,m
 geomtyp=xyz
 nosym
 noorient
 geometry={
 H          0.00048       -1.34063        0.00000
 Cl         0.00000        0.20325        0.00000
 H         -0.00048       -2.11466        0.00000
 }
 basis={ default,avtz }
 {df-ks,B-LYP,direct;disp;wf,19,1,1}
 {ibba,bonds=1}

 Variables initialized (895), CPU time= 0.00 sec
 Commands  initialized (725), CPU time= 0.01 sec, 591 directives.
 Default parameters read. Elapsed time= 0.08 sec

 Checking input...
 Passed
1


                                         ***  PROGRAM SYSTEM MOLPRO  ***
                                       Copyright, TTI GmbH Stuttgart, 2015
                                    Version 2099.9 linked May 26 2017 16:03:21


 **********************************************************************************************************************************
 LABEL *                                                                                 
  64 bit serial version                                                                  DATE: 17-Mar-18          TIME: 12:39:10  
 **********************************************************************************************************************************

 SHA1:             b4a5b34a9e711420743f49e6833241d17c61fb3c
 **********************************************************************************************************************************
 SETTING GEOMTYP        =    XYZ

 Variable memory set to  500000000 words,  buffer space 

 ZSYMEL=NOSYM

 SETTING BASIS          =    AVTZ


 Recomputing integrals since basis changed


 Using spherical harmonics

 Library entry H      S aug-cc-pVTZ          selected for orbital group  1
 Library entry H      P aug-cc-pVTZ          selected for orbital group  1
 Library entry H      D aug-cc-pVTZ          selected for orbital group  1
 Library entry CL     S aug-cc-pVTZ          selected for orbital group  2
 Library entry CL     P aug-cc-pVTZ          selected for orbital group  2
 Library entry CL     D aug-cc-pVTZ          selected for orbital group  2
 Library entry CL     F aug-cc-pVTZ          selected for orbital group  2


 PROGRAM * SEWARD (Integral evaluation for generally contracted gaussian basis sets)     Author: Roland Lindh, 1990

 Geometry written to block  1 of record 700


 Point group  C1  



 ATOMIC COORDINATES

 NR  ATOM    CHARGE       X              Y              Z

   1  H       1.00    0.000907069   -2.533423534    0.000000000
   2  CL     17.00    0.000000000    0.384086835    0.000000000
   3  H       1.00   -0.000907069   -3.996128247    0.000000000

 Bond lengths in Bohr (Angstrom)

 1-2  2.917510510  1-3  1.462705837
     ( 1.543880075)     ( 0.774030595)

 Bond angles

  2-1-3  179.91112471

 NUCLEAR CHARGE:                   19
 NUMBER OF PRIMITIVE AOS:         138
 NUMBER OF SYMMETRY AOS:          125
 NUMBER OF CONTRACTIONS:           96   (  96A   )
 NUMBER OF CORE ORBITALS:           5   (   5A   )
 NUMBER OF VALENCE ORBITALS:        6   (   6A   )


 NUCLEAR REPULSION ENERGY   10.39163794

 EXTRA SYMMETRY OF AOS IN SYMMETRY 1:   1 1 1 1 1 1 2 1 1 2   1 1 2 1 1 2 1 2 1 1   2 1 2 1 1 1 1 1 1 1   1 2 1 1 2 1 1 2 1 1
                                        2 1 1 2 1 1 2 1 2 1   1 2 1 2 1 1 2 1 2 1   1 2 1 2 1 2 1 1 2 1   2 1 2 1 1 1 1 1 1 2
                                        1 1 2 1 1 2 1 1 2 1   2 1 1 2 1 2

 Eigenvalues of metric

         1 0.105E-04 0.158E-03 0.448E-03 0.257E-02 0.317E-02 0.516E-02 0.516E-02 0.554E-02


 OPERATOR DM      FOR CENTER  0  COORDINATES:    0.000000    0.000000    0.000000


 **********************************************************************************************************************************
 DATASETS  * FILE   NREC   LENGTH (MB)   RECORD NAMES
              1      18       30.34       500      610      700      900      950      970     1000      129      960     1100   
                                          VAR    BASINP    GEOM    SYMINP    ZMAT    AOBASIS   BASIS     P2S    ABASIS      S 
                                         1400     1410     1200     1210     1080     1600     1650     1700   
                                           T        V       H0       H01     AOSYM     SMH    MOLCAS    OPER   

 PROGRAMS   *        TOTAL       INT
 CPU TIMES  *         0.31      0.17
 REAL TIME  *         0.60 SEC
 DISK USED  *        30.66 MB      
 **********************************************************************************************************************************

 Density functional group B-LYP=B88+LYP
 Functional: B88(Automatically generated (new) B88)                            Gradient terms: 1
 Functional: LYP(Automatically generated (new) LYP)                            Gradient terms: 1

 dispersion correction activated
 Density functional: B-LYP   

 Functional: B88                       Factor:  1.0000
 Functional: LYP                       Factor:  1.0000

 Use grid at  1800.2

 Functional: B88                       Factor:  1.0000
 Functional: LYP                       Factor:  1.0000

 Generated new metagrid on record  1800.2 with target accuracy 1.0D-06 and 13590 points in CPU time    0.2
 Computed new grid on record 1800.1 in CPU time    0.2
   80619 words reserved for DFT integration

 PROGRAM * RKS-SCF (Restricted open shell Kohn-Sham)     Authors: W. Meyer, H.-J. Werner, P.J. Knowles, 1993

 NUMBER OF ELECTRONS:      10+    9-    SPACE SYMMETRY=1    SPIN SYMMETRY: Doublet 
 CONVERGENCE THRESHOLDS:    1.00E-05 (Density)    1.00E-06 (Energy)
 INTEGRAL THRESHOLDS:       1.00E-11 (Initial)    1.00E-11 (Final)
 MAX. NUMBER OF ITERATIONS:       60
 INTERPOLATION TYPE:            DIIS
 INTERPOLATION STEPS:              2 (START)      1 (STEP)
 LEVEL SHIFTS:                 -0.60 (CLOSED) -0.30 (OPEN) 



 Use fine grid record 1800.2 for energy threshold  1.0D-06

 Basis set AUG-CC-PVTZ/JKFIT generated.  Number of basis functions:   238 
 Coulomb fitting
 Screening thresholds:    THRAO_COUL= 1.0D-14    THRAO= 1.0D-12    THROV= 1.0D-12

 Reserved 1 MW to cache 100.0% of significant integrals. CPU: 0.0 sec

 Orbital guess generated from atomic densities. Full valence occupancy:   11
 Using density fitting in orbital guess


 Molecular orbital dump at record        2100.2

 Initial alpha occupancy:  10
 Initial beta  occupancy:   9
 Wave function symmetry:    1

 ITERATION   DDIFF            GRAD            ENERGY        2-EL.EN.            DIPOLE MOMENTS         DIIS   CPU(IT)  CPU(TOT)  ORB.
    1      0.000D+00      0.000D+00      -461.31825372    429.545271   -0.00003   -0.48120   -0.00000    0      0.3      0.6     start
    2      0.000D+00      0.180D-02      -461.32179789    427.869530   -0.00002   -0.45358   -0.00000    1      0.4      0.9     diag,B
    3      0.485D-02      0.586D-03      -461.32213018    428.271778   -0.00002   -0.48138   -0.00000    2      0.3      1.3     diag,B
    4      0.136D-02      0.197D-03      -461.32220834    428.138601   -0.00002   -0.47309   -0.00000    3      0.4      1.7     diag,B
    5      0.402D-03      0.804D-04      -461.32223960    428.125121   -0.00002   -0.47688   -0.00000    4      0.4      2.0     diag,B
    6      0.291D-03      0.303D-04      -461.32224388    428.116790   -0.00001   -0.47667   -0.00000    5      0.4      2.4     diag,B
    7      0.150D-03      0.116D-04      -461.32224455    428.116262   -0.00001   -0.47808   -0.00000    6      0.4      2.7     fixocc
    8      0.505D-04      0.338D-05      -461.32224459    428.115399   -0.00001   -0.47826   -0.00000    7      0.4      3.1     diag,B
    9      0.366D-04      0.769D-06      -461.32224459    428.115602   -0.00001   -0.47834    0.00000    8      0.4      3.4     diag,B
   10      0.169D-04      0.199D-06      -461.32224459    428.115499   -0.00001   -0.47834    0.00000    9      0.3      3.8     orth
   11      0.385D-05      0.528D-07      -461.32224459    428.115528   -0.00001   -0.47834    0.00000    0      0.4      4.1     orth

 Dispersion correction
 - - - - - - - - - - - 
  _________________________________
                                   
 |         DFTD3 V1.3 Rev 1        |
 | S.Grimme, University Muenster   |
 | Fri Jul  2 12:48:21 CEST 2010   |
  _________________________________

 Please cite DFT-D3 work done with this code as:
 S. Grimme, J. Antony, S. Ehrlich and H. Krieg,
 J. Chem. Phys, 132 (2010), 154104.
 For DFT-D2 the reference is
 S. Grimme, J. Comput. Chem., 27 (2006), 1787-1799

 C6 coefficients used:
                    2  C6 for element                     1
 Z=  1 CN=   0.912     C6(AA)=    3.03
 Z=  1 CN=   0.000     C6(AA)=    7.59
                    2  C6 for element                    17
 Z= 17 CN=   0.000     C6(AA)=   92.35
 Z= 17 CN=   0.997     C6(AA)=   90.40

 #           XYZ [au]               R0(AA) [Ang.]   CN       C6(AA)     C8(AA)   C10(AA) [au]
  1   0.00091  -2.53342   0.00000   h   1.091  1.728         3.0        36.6       541.9
  2   0.00000   0.38409   0.00000   cl  1.552  0.910        90.5      3774.7    192928.6
  3  -0.00091  -3.99613   0.00000   h   1.091  0.856         3.2        38.7       573.6

 molecular C6(AA) [au] =       170.01

           DFT-D V3
 DF b-lyp                                             
 parameters
 s6       :    1.0000
 s8       :    1.6820
 rs6      :    1.0940
 alpha6   :   14.0000
 alpha8   :   16.0000
 k1-k3    :   16.0000    1.3333   -4.0000

 Edisp /kcal,au:    -0.1989 -0.00031697

 E6    /kcal :    -0.0290
 E8    /kcal :    -0.1699
 % E8        : 85.41
 normal termination of dftd3

 RKS STATE 1.1 ENERGY+DISP     -461.32256156

 Final alpha occupancy:  10
 Final beta  occupancy:   9

 !RKS STATE 1.1 Energy               -461.322561563641
 Nuclear energy                        10.39163794
 One-electron energy                 -656.88107138
 Two-electron energy                  214.05776424
 Density functional                   -28.89057539     B88=-28.14648311 LYP= -0.74409228
 Virial quotient                       -1.00288376
 !RKS STATE 1.1 Dipole moment          -0.00001428    -0.47834435     0.00000000
 Dipole moment /Debye                  -0.00003630    -1.21575042     0.00000000

 Orbital energies:

         1.1          2.1          3.1          4.1          5.1          6.1          7.1          8.1          9.1         10.1
   -100.783988    -9.197287    -7.032296    -7.019637    -7.019637    -0.747914    -0.473235    -0.288061    -0.288061    -0.284606

        11.1         12.1
     -0.007442     0.006246

 HOMO     10.1    -0.284606 =      -7.7445eV
 LUMO     11.1    -0.007442 =      -0.2025eV
 LUMO-HOMO         0.277165 =       7.5420eV


 **********************************************************************************************************************************
 DATASETS  * FILE   NREC   LENGTH (MB)   RECORD NAMES
              1      19       30.77       500      610      700      900      950      970     1000      129      960     1100   
                                          VAR    BASINP    GEOM    SYMINP    ZMAT    AOBASIS   BASIS     P2S    ABASIS      S 
                                         1400     1410     1200     1210     1080     1600     1650     1700     1800   
                                           T        V       H0       H01     AOSYM     SMH    MOLCAS    OPER     GRID   

              2       5        3.05       700     1000      520     1800     2100   
                                         GEOM     BASIS   MCVARS    GRID      RKS  

 PROGRAMS   *        TOTAL        KS       INT
 CPU TIMES  *         4.70      4.39      0.17
 REAL TIME  *         5.65 SEC
 DISK USED  *        35.59 MB      
 **********************************************************************************************************************************


 PROGRAM * Intrinsic Basis Bonding Analysis (IBBA)          Author: G. Knizia

 Molecular orbitals read from record     2100.2  Type=RKS/CANONICAL (state 1.1)
 Fock matrix read from record            2100.2  Type=RKS/TOTAL (state 1.1)
 Orbital energies read from record       2100.2  Type=RKS/CANONICAL (state 1.1)
 Density matrix read from record         2100.2  Type=RKS/CHARGE (state 1.1)

 Number of core orbitals:           5 (   5 )
 Number of closed-shell orbitals:   4 (   4 )
 Number of active  orbitals:        1 (   1 )

 Basis set MINAO-AUTO-PP generated.      Number of basis functions:   11 

 Polarized AO type:                A = (O Ot + (1-O)(1-Ot)) P12
 Orthogonalization method:         Symmetric (Loewdin)
 Localization functional:          L = sum[A,i] <i|n_A|i>^4 -> max

 Localization group 1:   9 orbitals, occupancy  2.000
 Iterative localization: IB/PM,    4 iter; Final gradient 0.49E-08

 Bond order analysis:       [THRPRINT= 0.020]

   CEN ATOM   CEN ATOM     WIBERG.BO      RENORM.BO
     1   H  -   2  CL       0.522288       1.000000
     1   H  -   3   H       0.471468       0.910780

     2  CL  -   1   H       0.522288       1.000000
     2  CL  -   3   H       0.336748       1.000000

     3   H  -   1   H       0.471468       0.910780
     3   H  -   2  CL       0.336748       1.000000


 Valency analysis:

   CEN ATOM   TOT.VALENCE
     1   H       0.993756
     2  CL       0.859036
     3   H       0.808215
 Localization group 2:   1 orbitals, occupancy  1.000
 Iterative localization: IB/PM,    1 iter; Final gradient 0.00E+00

 Bond order analysis:       [THRPRINT= 0.020]

   CEN ATOM   CEN ATOM     WIBERG.BO      RENORM.BO
     1   H  -   2  CL       0.033629       0.500000

     2  CL  -   3   H       0.428408       0.500000
     2  CL  -   1   H       0.033629       0.500000

     3   H  -   2  CL       0.428408       0.500000


 Valency analysis:

   CEN ATOM   TOT.VALENCE
     1   H       0.051338
     2  CL       0.462036
     3   H       0.446117

 Total charge composition:

   CEN ATOM         s          p       ELECTRONS ->P.CHARGE
     1   H       0.94734                 0.94734    0.05266
     2  CL       5.94599   11.20874     17.15473   -0.15473
     3   H       0.89793                 0.89793    0.10207

 Total charge composition, AO contributions:

   CEN ATOM SHL      SPHERICAL COMPONENTS
     1   H  1s       0.94734

     2  CL  1s       1.99998
     2  CL  2s       1.99916
     2  CL  3s       1.94685
     2  CL  2p       2.00000    1.99989    2.00000
     2  CL  3p       2.00000    1.20885    2.00000

     3   H  1s       0.89793

 Active orbital charges:

   CEN ATOM         s          p       ELECTRONS ->SPIN.DEN
     1   H       0.02636                 0.02636    0.02636
     2  CL       0.00392    0.63385      0.63777    0.63777
     3   H       0.33586                 0.33586    0.33586

 Active orbital charges, AO contributions:

   CEN ATOM SHL      SPHERICAL COMPONENTS
     1   H  1s       0.02636

     2  CL  1s       0.00000
     2  CL  2s       0.00005
     2  CL  3s       0.00387
     2  CL  2p       0.00000    0.00000    0.00000
     2  CL  3p       0.00000    0.63385    0.00000

     3   H  1s       0.33586

 Summary of localized orbital composition:   [THRPRINT= 0.020]

   ORB  GRP  ORB.ENERGY      CENTERS/CHARGES
     1   1  -100.752835     CL  2   2.000
     2   1    -9.039226     CL  2   2.000
     3   1    -7.019636     CL  2   2.000
     4   1    -7.019636     CL  2   2.000
     5   1    -7.013731     CL  2   2.000
     6   1    -0.906987     CL  2   1.968   H  3   0.021
     7   1    -0.521937      H  1   0.910  CL  2   0.549   H  3   0.541
     8   1    -0.288062     CL  2   2.000
     9   1    -0.288060     CL  2   2.000
    10   2    -0.258670     CL  2   0.638   H  3   0.336   H  1   0.026

 Localized orbitals saved to record      2100.2  (orbital set 2)


 **********************************************************************************************************************************
 DATASETS  * FILE   NREC   LENGTH (MB)   RECORD NAMES
              1      19       30.77       500      610      700      900      950      970     1000      129      960     1100   
                                          VAR    BASINP    GEOM    SYMINP    ZMAT    AOBASIS   BASIS     P2S    ABASIS      S 
                                         1400     1410     1200     1210     1080     1600     1650     1700     1800   
                                           T        V       H0       H01     AOSYM     SMH    MOLCAS    OPER     GRID   

              2       5        3.13       700     1000      520     1800     2100   
                                         GEOM     BASIS   MCVARS    GRID      RKS  

 PROGRAMS   *        TOTAL      IBBA        KS       INT
 CPU TIMES  *         4.72      0.02      4.39      0.17
 REAL TIME  *         5.71 SEC
 DISK USED  *        35.59 MB      
 **********************************************************************************************************************************

 IBBA/aug-cc-pVTZ energy=      0.000000000000

        DF-KS   
   -461.32256156
 **********************************************************************************************************************************
 Molpro calculation terminated
