
 Primary working directories    : /local
 Secondary working directories  : /local
 Wavefunction directory         : /local/
 Main file repository           : /local/

 SHA1      : b4a5b34a9e711420743f49e6833241d17c61fb3c
 NAME      : 2099.9.b4a5b34
 ARCHNAME  : linux/x86_64_openmp
 FC        : /cm/shared/languages/GCC-6.1/bin/gfortran
 BLASLIB   : -lblas
 id        : simonbennie

 Nodes     nprocs
 node32-034    1

 Using customized tuning parameters: mindgm=1; mindgv=20; mindgc=4; mindgr=1; noblas=0; minvec=7
 default implementation of scratch files=df  

 memory,500,m
 geomtyp=xyz
 nosym
 noorient
 geometry={
 H          0.00048       -1.34063        0.00000
 Cl         0.00000        0.20325        0.00000
 H         -0.00048       -2.11466        0.00000
 }
 basis={ default,svp }
 {uks,M06-2X,direct;wf,19,1,1}
 {ibba,bonds=1}

 Variables initialized (895), CPU time= 0.01 sec
 Commands  initialized (725), CPU time= 0.01 sec, 591 directives.
 Default parameters read. Elapsed time= 0.14 sec

 Checking input...
 Passed
1


                                         ***  PROGRAM SYSTEM MOLPRO  ***
                                       Copyright, TTI GmbH Stuttgart, 2015
                                    Version 2099.9 linked May 26 2017 16:03:21


 **********************************************************************************************************************************
 LABEL *                                                                                 
  64 bit serial version                                                                  DATE: 24-Jun-17          TIME: 02:19:59  
 **********************************************************************************************************************************

 SHA1:             b4a5b34a9e711420743f49e6833241d17c61fb3c
 **********************************************************************************************************************************
 SETTING GEOMTYP        =    XYZ

 Variable memory set to  500000000 words,  buffer space 

 ZSYMEL=NOSYM

 SETTING BASIS          =    SVP


 Recomputing integrals since basis changed


 Using spherical harmonics

 Library entry H      S def2-SVP             selected for orbital group  1
 Library entry H      P def2-SVP             selected for orbital group  1
 Library entry CL     S def2-SVP             selected for orbital group  2
 Library entry CL     P def2-SVP             selected for orbital group  2
 Library entry CL     D def2-SVP             selected for orbital group  2


 PROGRAM * SEWARD (Integral evaluation for generally contracted gaussian basis sets)     Author: Roland Lindh, 1990

 Geometry written to block  1 of record 700


 Point group  C1  



 ATOMIC COORDINATES

 NR  ATOM    CHARGE       X              Y              Z

   1  H       1.00    0.000907069   -2.533423534    0.000000000
   2  CL     17.00    0.000000000    0.384086835    0.000000000
   3  H       1.00   -0.000907069   -3.996128247    0.000000000

 Bond lengths in Bohr (Angstrom)

 1-2  2.917510510  1-3  1.462705837
     ( 1.543880075)     ( 0.774030595)

 Bond angles

  2-1-3  179.91112471

 NUCLEAR CHARGE:                   19
 NUMBER OF PRIMITIVE AOS:          51
 NUMBER OF SYMMETRY AOS:           50
 NUMBER OF CONTRACTIONS:           28   (  28A   )
 NUMBER OF CORE ORBITALS:           5   (   5A   )
 NUMBER OF VALENCE ORBITALS:        6   (   6A   )


 NUCLEAR REPULSION ENERGY   10.39163794

 EXTRA SYMMETRY OF AOS IN SYMMETRY 1:   1 1 1 1 2 1 1 1 1 1   1 2 1 1 2 1 1 2 1 1   2 1 2 1 1 1 1 2

 Eigenvalues of metric

         1 0.190E-01 0.549E-01 0.111E+00 0.236E+00 0.320E+00 0.320E+00 0.336E+00 0.467E+00


 Contracted 2-electron integrals neglected if value below      1.0D-11
 AO integral compression algorithm  1   Integral accuracy      1.0D-11

     0.524 MB (compressed) written to integral file ( 28.8%)


 NUMBER OF SORTED TWO-ELECTRON INTEGRALS:      82621.     BUFFER LENGTH:  32768
 NUMBER OF SEGMENTS:   1  SEGMENT LENGTH:      82621      RECORD LENGTH: 524288

 Memory used in sort:       0.64 MW

 SORT1 READ      116832. AND WROTE       37811. INTEGRALS IN      1 RECORDS. CPU TIME:     0.00 SEC, REAL TIME:     0.00 SEC
 SORT2 READ       37811. AND WROTE       82621. INTEGRALS IN      2 RECORDS. CPU TIME:     0.01 SEC, REAL TIME:     0.01 SEC

 FILE SIZES:   FILE 1:    30.5 MBYTE,  FILE 4:     4.2 MBYTE,   TOTAL:     34.8 MBYTE

 OPERATOR DM      FOR CENTER  0  COORDINATES:    0.000000    0.000000    0.000000


 **********************************************************************************************************************************
 DATASETS  * FILE   NREC   LENGTH (MB)   RECORD NAMES
              1      19       30.20       500      610      700      900      950      970     1000      129      960     1100   
                                          VAR    BASINP    GEOM    SYMINP    ZMAT    AOBASIS   BASIS     P2S    ABASIS      S 
                                         1400     1410     1200     1210     1080     1600     1650     1300     1700   
                                           T        V       H0       H01     AOSYM     SMH    MOLCAS    ERIS     OPER   

 PROGRAMS   *        TOTAL       INT
 CPU TIMES  *         0.49      0.35
 REAL TIME  *         0.92 SEC
 DISK USED  *        35.06 MB      
 **********************************************************************************************************************************

 Density functional group M06-2X=XC-M06-2X
 Functional: XC-M06-2X(via MFM 1.6)                                            Gradient terms: 1
 Use grid at  1800.2


 Exact exchange will be calculated, factor:  0.5400

 Functional: XC-M06-2X                 Factor:  1.0000

 Generated new metagrid on record  1800.2 with target accuracy 1.0D-06 and 13034 points in CPU time    0.2
 Computed new grid on record 1800.1 in CPU time    0.2
   26111 words reserved for DFT integration

 PROGRAM * UKS-SCF (Unrestricted Kohn-Sham)     Authors: W. Meyer, H.-J. Werner, P.J. Knowles, 1993

 NUMBER OF ELECTRONS:      10+    9-    SPACE SYMMETRY=1    SPIN SYMMETRY: Doublet 
 CONVERGENCE THRESHOLDS:    1.00E-05 (Density)    1.00E-06 (Energy)
 MAX. NUMBER OF ITERATIONS:       60
 INTERPOLATION TYPE:            DIIS
 INTERPOLATION STEPS:              2 (START)      1 (STEP)
 LEVEL SHIFTS:                 -0.20 (ALPHA)  -0.20 (BETA) 



 Use fine grid record 1800.2 for energy threshold  1.0D-06
 Orbital guess generated from atomic densities. Full valence occupancy:   10

 Molecular orbital dump at record        2200.2

 Initial alpha occupation  10
 Initial beta  occupation   9

 ITERATION    DDIFF          GRAD             ENERGY        2-EL.EN.            DIPOLE MOMENTS         DIIS
    1      0.000D+00      0.000D+00      -461.11051176    400.559366    0.00001   -1.04730    0.00000    0
    2      0.894D-02      0.491D-02      -461.12395819    398.262544    0.00000   -0.65446   -0.00000    1
    3      0.227D-02      0.150D-02      -461.12551791    398.521482    0.00000   -0.59717    0.00000    2
    4      0.117D-02      0.823D-03      -461.12624942    398.464267    0.00001   -0.52735   -0.00000    3
    5      0.748D-03      0.337D-03      -461.12642734    398.426083    0.00001   -0.49588   -0.00000    4
    6      0.628D-03      0.137D-03      -461.12647251    398.405761    0.00001   -0.47992    0.00000    5
    7      0.245D-03      0.511D-04      -461.12647706    398.404138    0.00001   -0.47541    0.00000    6
    8      0.480D-04      0.137D-04      -461.12647729    398.402791    0.00001   -0.47507    0.00000    7
    9      0.586D-05      0.325D-05      -461.12647730    398.403270    0.00001   -0.47503    0.00000    7
   10      0.232D-05      0.684D-06      -461.12647730    398.403349    0.00001   -0.47505    0.00000    7

 Final alpha occupancy:  10
 Final beta  occupancy:   9

 !UKS STATE 1.1 Energy               -461.126477299107
 Nuclear energy                        10.39163794
 One-electron energy                 -657.02418623
 Two-electron energy                  199.20167428
 Density functional                   -13.69560329     XC-M06-2X=-13.69560329
 Virial quotient                       -1.00141985
 !UKS STATE 1.1 Dipole moment           0.00000685    -0.47505088     0.00000000
 Dipole moment /Debye                   0.00001741    -1.20737982     0.00000000

 Orbital energies for positive spin:

         1.1          2.1          3.1          4.1          5.1          6.1          7.1          8.1          9.1         10.1
   -102.644320    -9.810762    -7.547881    -7.529995    -7.529995    -0.924083    -0.606780    -0.391530    -0.391530    -0.374595

        11.1         12.1
      0.182099     0.380502

 Orbital energies for negative spin:

         1.1          2.1          3.1          4.1          5.1          6.1          7.1          8.1          9.1         10.1
   -102.636639    -9.808398    -7.527676    -7.527676    -7.526544    -0.884237    -0.544436    -0.375280    -0.375280    -0.144993

        11.1         12.1
      0.169604     0.380992

 HOMO     10.1    -0.374595 =     -10.1933eV
 LUMO    -10.1    -0.144993 =      -3.9454eV
 LUMO-HOMO         0.229603 =       6.2478eV

 EXPECTATION VALUE OF S**2:             0.75590613

 Occupation number threshold for canonical orbitals:  1.999000 (occupied),  0.001000 (virtual)

 Number of pseudo-canonical orbitals per symmetry:    8
 Number of active natural orbitals per symmetry:      3

 Natural orbitals saved to record    2200.2 (Orbital set 3)

 Orbital spaces for UNO-CAS (Min. occupation: 0.020  Max. occupation: 1.980):

 Closed:        9
 Active:        1


 **********************************************************************************************************************************
 DATASETS  * FILE   NREC   LENGTH (MB)   RECORD NAMES
              1      20       30.61       500      610      700      900      950      970     1000      129      960     1100   
                                          VAR    BASINP    GEOM    SYMINP    ZMAT    AOBASIS   BASIS     P2S    ABASIS      S 
                                         1400     1410     1200     1210     1080     1600     1650     1300     1700     1800   
                                           T        V       H0       H01     AOSYM     SMH    MOLCAS    ERIS     OPER     GRID   

              2       5        2.82       700     1000      520     1800     2200   
                                         GEOM     BASIS   MCVARS    GRID      UKS  

 PROGRAMS   *        TOTAL       UKS       INT
 CPU TIMES  *         2.65      2.16      0.35
 REAL TIME  *         3.14 SEC
 DISK USED  *        35.06 MB      
 **********************************************************************************************************************************


 PROGRAM * Intrinsic Basis Bonding Analysis (IBBA)          Author: G. Knizia

 Molecular orbitals read from record     2200.2  Type=UKS/ALPHA (state 1.1)
 Fock matrix read from record            2200.2  Type=UKS/TOTAL (state 1.1)
 Orbital energies read from record       2200.2  Type=UKS/ALPHA (state 1.1)
 Density matrix read from record         2200.2  Type=UKS/CHARGE (state 1.1)

 Number of core orbitals:           5 (   5 )
 Number of closed-shell orbitals:   4 (   4 )
 Number of active  orbitals:        1 (   1 )

 Basis set MINAO-AUTO-PP generated.      Number of basis functions:   11 

 Polarized AO type:                A = (O Ot + (1-O)(1-Ot)) P12
 Orthogonalization method:         Symmetric (Loewdin)
 Localization functional:          L = sum[A,i] <i|n_A|i>^4 -> max

 Localization group 1:   9 orbitals, occupancy  2.000
 Iterative localization: IB/PM,    4 iter; Final gradient 0.44E-08

 Bond order analysis:       [THRPRINT= 0.020]

   CEN ATOM   CEN ATOM     WIBERG.BO      RENORM.BO
     1   H  -   2  CL       0.494421       1.000000
     1   H  -   3   H       0.488525       0.898928

     2  CL  -   1   H       0.494421       1.000000
     2  CL  -   3   H       0.370914       1.000000

     3   H  -   1   H       0.488525       0.898928
     3   H  -   2  CL       0.370914       1.000000


 Valency analysis:

   CEN ATOM   TOT.VALENCE
     1   H       0.982945
     2  CL       0.865334
     3   H       0.859438
 Localization group 2:   1 orbitals, occupancy  1.000
 Iterative localization: IB/PM,    1 iter; Final gradient 0.00E+00

 Bond order analysis:       [THRPRINT= 0.020]

   CEN ATOM   CEN ATOM     WIBERG.BO      RENORM.BO
     1   H  -   2  CL       0.033130       0.500000

     2  CL  -   3   H       0.419804       0.500000
     2  CL  -   1   H       0.033130       0.500000

     3   H  -   2  CL       0.419804       0.500000


 Valency analysis:

   CEN ATOM   TOT.VALENCE
     1   H       0.049418
     2  CL       0.452934
     3   H       0.436092

 Total charge composition:

   CEN ATOM         s          p       ELECTRONS ->P.CHARGE
     1   H       0.89476                 0.89476    0.10524
     2  CL       5.94245   11.21647     17.15891   -0.15891
     3   H       0.94633                 0.94633    0.05367

 Total charge composition, AO contributions:

   CEN ATOM SHL      SPHERICAL COMPONENTS
     1   H  1s       0.89476

     2  CL  1s       1.99998
     2  CL  2s       1.99902
     2  CL  3s       1.94345
     2  CL  2p       2.00000    1.99981    2.00000
     2  CL  3p       2.00000    1.21666    2.00000

     3   H  1s       0.94633

 Active orbital charges:

   CEN ATOM         s          p       ELECTRONS ->SPIN.DEN
     1   H       0.02535                 0.02535    0.02535
     2  CL       0.00326    0.65015      0.65341    0.65341
     3   H       0.32124                 0.32124    0.32124

 Active orbital charges, AO contributions:

   CEN ATOM SHL      SPHERICAL COMPONENTS
     1   H  1s       0.02535

     2  CL  1s       0.00000
     2  CL  2s       0.00006
     2  CL  3s       0.00320
     2  CL  2p       0.00000    0.00001    0.00000
     2  CL  3p       0.00000    0.65014    0.00000

     3   H  1s       0.32124

 Summary of localized orbital composition:   [THRPRINT= 0.020]

   ORB  GRP  ORB.ENERGY      CENTERS/CHARGES
     1   1  -102.609661     CL  2   2.000
     2   1    -9.645417     CL  2   2.000
     3   1    -7.528829     CL  2   2.000
     4   1    -7.528829     CL  2   2.000
     5   1    -7.516128     CL  2   2.000
     6   1    -1.065349     CL  2   1.962   H  3   0.023
     7   1    -0.627046      H  1   0.855   H  3   0.602  CL  2   0.543
     8   1    -0.383358     CL  2   2.000
     9   1    -0.383357     CL  2   2.000
    10   2    -0.257467     CL  2   0.653   H  3   0.321   H  1   0.025

 Localized orbitals saved to record      2200.2  (orbital set 4)


 **********************************************************************************************************************************
 DATASETS  * FILE   NREC   LENGTH (MB)   RECORD NAMES
              1      20       30.61       500      610      700      900      950      970     1000      129      960     1100   
                                          VAR    BASINP    GEOM    SYMINP    ZMAT    AOBASIS   BASIS     P2S    ABASIS      S 
                                         1400     1410     1200     1210     1080     1600     1650     1300     1700     1800   
                                           T        V       H0       H01     AOSYM     SMH    MOLCAS    ERIS     OPER     GRID   

              2       5        2.83       700     1000      520     1800     2200   
                                         GEOM     BASIS   MCVARS    GRID      UKS  

 PROGRAMS   *        TOTAL      IBBA       UKS       INT
 CPU TIMES  *         2.67      0.02      2.16      0.35
 REAL TIME  *         3.19 SEC
 DISK USED  *        35.06 MB      
 **********************************************************************************************************************************
 Molecular orbitals read from record     2200.2  Type=UKS/LOCAL(IBO)  
 Occupation numbers read from record     2200.2  Type=UKS/LOCAL(IBO)  
 Orbital energies read from record       2200.2  Type=UKS/LOCAL(IBO)  
 Redundancy group numbers read from rec  2200.2  Type=UKS/BETA (state 1.1)

 IBBA/SVP energy=      0.000000000000

        UKS-SCF 
   -461.12647730
 **********************************************************************************************************************************
 Molpro calculation terminated
