
 Primary working directories    : /local
 Secondary working directories  : /local
 Wavefunction directory         : /local/
 Main file repository           : /local/

 SHA1      : b4a5b34a9e711420743f49e6833241d17c61fb3c
 NAME      : 2099.9.b4a5b34
 ARCHNAME  : linux/x86_64_openmp
 FC        : /cm/shared/languages/GCC-6.1/bin/gfortran
 BLASLIB   : -lblas
 id        : simonbennie

 Nodes     nprocs
 node33-017    1

 Using customized tuning parameters: mindgm=1; mindgv=20; mindgc=4; mindgr=1; noblas=0; minvec=7
 default implementation of scratch files=df  

 memory,500,m
 geomtyp=xyz
 nosym
 noorient
 geometry={
 O         -0.30106       -0.10805       -0.00001
 H         -0.42795        0.85157        0.00002
 H          1.01549       -0.10037        0.00012
 H          1.82097        0.11319       -0.00007
 }
 basis={ default,svp }
 {uhf,direct;wf,11,1,1}
 {uks,B3LYP3,direct;maxit,0;wf,11,1,1}
 {ibba,bonds=1}

 Variables initialized (895), CPU time= 0.00 sec
 Commands  initialized (725), CPU time= 0.02 sec, 591 directives.
 Default parameters read. Elapsed time= 0.15 sec

 Checking input...
 Passed
1


                                         ***  PROGRAM SYSTEM MOLPRO  ***
                                       Copyright, TTI GmbH Stuttgart, 2015
                                    Version 2099.9 linked May 26 2017 16:03:21


 **********************************************************************************************************************************
 LABEL *                                                                                 
  64 bit serial version                                                                  DATE: 17-Mar-18          TIME: 13:28:15  
 **********************************************************************************************************************************

 SHA1:             b4a5b34a9e711420743f49e6833241d17c61fb3c
 **********************************************************************************************************************************
 SETTING GEOMTYP        =    XYZ

 Variable memory set to  500000000 words,  buffer space 

 ZSYMEL=NOSYM

 SETTING BASIS          =    SVP


 Recomputing integrals since basis changed


 Using spherical harmonics

 Library entry O      S def2-SVP             selected for orbital group  1
 Library entry O      P def2-SVP             selected for orbital group  1
 Library entry O      D def2-SVP             selected for orbital group  1
 Library entry H      S def2-SVP             selected for orbital group  2
 Library entry H      P def2-SVP             selected for orbital group  2


 PROGRAM * SEWARD (Integral evaluation for generally contracted gaussian basis sets)     Author: Roland Lindh, 1990

 Geometry written to block  1 of record 700


 Point group  C1  



 ATOMIC COORDINATES

 NR  ATOM    CHARGE       X              Y              Z

   1  O       8.00   -0.568920947   -0.204184908   -0.000018897
   2  H       1.00   -0.808708295    1.609234076    0.000037795
   3  H       1.00    1.918997982   -0.189671811    0.000226767
   4  H       1.00    3.441134581    0.213898100   -0.000132281

 Bond lengths in Bohr (Angstrom)

 1-2  1.829203757  1-3  2.487961272  3-4  1.574728112
     ( 0.967972942)     ( 1.316572407)     ( 0.833310230)

 Bond angles

  1-3-4  165.48482331   2-1-3   97.19826261

 NUCLEAR CHARGE:                   11
 NUMBER OF PRIMITIVE AOS:          46
 NUMBER OF SYMMETRY AOS:           45
 NUMBER OF CONTRACTIONS:           29   (  29A   )
 NUMBER OF CORE ORBITALS:           1   (   1A   )
 NUMBER OF VALENCE ORBITALS:        7   (   7A   )


 NUCLEAR REPULSION ENERGY   10.73783922

 Eigenvalues of metric

         1 0.292E-01 0.520E-01 0.780E-01 0.149E+00 0.193E+00 0.277E+00 0.346E+00 0.404E+00


 Contracted 2-electron integrals neglected if value below      1.0D-11
 AO integral compression algorithm  1   Integral accuracy      1.0D-11

     0.524 MB (compressed) written to integral file ( 73.5%)


 NUMBER OF SORTED TWO-ELECTRON INTEGRALS:      94830.     BUFFER LENGTH:  32768
 NUMBER OF SEGMENTS:   1  SEGMENT LENGTH:      94830      RECORD LENGTH: 524288

 Memory used in sort:       0.65 MW

 SORT1 READ      121049. AND WROTE       89292. INTEGRALS IN      1 RECORDS. CPU TIME:     0.01 SEC, REAL TIME:     0.01 SEC
 SORT2 READ       89292. AND WROTE       94830. INTEGRALS IN      2 RECORDS. CPU TIME:     0.01 SEC, REAL TIME:     0.02 SEC

 FILE SIZES:   FILE 1:    30.5 MBYTE,  FILE 4:     4.2 MBYTE,   TOTAL:     34.8 MBYTE

 OPERATOR DM      FOR CENTER  0  COORDINATES:    0.000000    0.000000    0.000000


 **********************************************************************************************************************************
 DATASETS  * FILE   NREC   LENGTH (MB)   RECORD NAMES
              1      19       30.41       500      610      700      900      950      970     1000      129      960     1100   
                                          VAR    BASINP    GEOM    SYMINP    ZMAT    AOBASIS   BASIS     P2S    ABASIS      S 
                                         1400     1410     1200     1210     1080     1600     1650     1300     1700   
                                           T        V       H0       H01     AOSYM     SMH    MOLCAS    ERIS     OPER   

 PROGRAMS   *        TOTAL       INT
 CPU TIMES  *         0.47      0.33
 REAL TIME  *         0.90 SEC
 DISK USED  *        35.09 MB      
 **********************************************************************************************************************************


 PROGRAM * UHF-SCF       Authors: W. Meyer, H.-J. Werner


 NUMBER OF ELECTRONS:       6+    5-    SPACE SYMMETRY=1    SPIN SYMMETRY: Doublet 
 CONVERGENCE THRESHOLDS:    1.00E-05 (Density)    1.00E-07 (Energy)
 INTEGRAL THRESHOLDS:       1.00E-11 (Initial)    1.00E-11 (Final)
 MAX. NUMBER OF ITERATIONS:       60
 INTERPOLATION TYPE:            DIIS
 INTERPOLATION STEPS:              2 (START)      1 (STEP)
 LEVEL SHIFTS:                 -0.20 (ALPHA)  -0.20 (BETA) 



 Orbital guess generated from atomic densities. Full valence occupancy:    6

 Molecular orbital dump at record        2200.2

 Initial alpha occupation   6
 Initial beta  occupation   5

 Direct Fock-matrix evaluation.        Author: H.-J. Werner (1996)

 Integral Threshold:                  0.1D-10

 ITERATION   DDIFF            GRAD            ENERGY        2-EL.EN.            DIPOLE MOMENTS         DIIS   CPU(IT)  CPU(TOT)
    1      0.000D+00      0.000D+00       -76.34325573     80.962402    1.06256    0.97574    0.00007    0      0.9      1.9
    2      0.125D-01      0.115D-01       -76.39568063     78.265904    0.60037    0.72431    0.00005    1      0.5      2.4
    3      0.432D-02      0.453D-02       -76.40631977     78.729790    0.49406    0.71704    0.00005    2      0.5      2.9
    4      0.356D-02      0.289D-02       -76.41542944     78.574964    0.28563    0.68643    0.00005    3      0.4      3.3
    5      0.247D-02      0.155D-02       -76.41913549     78.442925    0.13934    0.68371    0.00005    4      0.5      3.8
    6      0.208D-02      0.807D-03       -76.42058120     78.347584    0.03663    0.68457    0.00005    5      0.5      4.3
    7      0.139D-02      0.427D-03       -76.42103151     78.306095   -0.02756    0.68321    0.00005    6      0.5      4.8
    8      0.551D-03      0.190D-03       -76.42111283     78.289861   -0.04822    0.68164    0.00005    7      0.5      5.3
    9      0.299D-03      0.888D-04       -76.42112901     78.287310   -0.05765    0.68052    0.00005    8      0.5      5.8
   10      0.821D-04      0.426D-04       -76.42113163     78.285250   -0.05633    0.67993    0.00005    8      0.5      6.3
   11      0.645D-04      0.208D-04       -76.42113237     78.285639   -0.05856    0.67969    0.00005    9      0.5      6.8
   12      0.274D-04      0.903D-05       -76.42113253     78.285279   -0.05818    0.67958    0.00005    9      0.5      7.2
   13      0.991D-05      0.285D-05       -76.42113255     78.285173   -0.05840    0.67955    0.00005    9      0.5      7.8
   14      0.324D-05      0.886D-06       -76.42113255     78.285107   -0.05846    0.67954    0.00005    8      0.5      8.2
   15      0.524D-06      0.178D-06       -76.42113255     78.285096   -0.05848    0.67954    0.00005    7      0.5      8.7

 Final alpha occupancy:   6
 Final beta  occupancy:   5

 !UHF STATE 1.1 Energy                -76.421132547343
 Nuclear energy                        10.73783922
 One-electron energy                 -126.30151958
 Two-electron energy                   39.14254781
 Virial quotient                       -1.00076874
 !UHF STATE 1.1 Dipole moment          -0.05847572     0.67954092     0.00004918
 Dipole moment /Debye                  -0.14862073     1.72710762     0.00012499

 Orbital energies for positive spin:

         1.1          2.1          3.1          4.1          5.1          6.1          7.1          8.1
    -20.623484    -1.371146    -0.742181    -0.670538    -0.557967    -0.495390     0.185311     0.287949

 Orbital energies for negative spin:

         1.1          2.1          3.1          4.1          5.1          6.1          7.1          8.1
    -20.586641    -1.243342    -0.661126    -0.545744    -0.518864     0.066868     0.197803     0.338430

 HOMO      6.1    -0.495390 =     -13.4803eV
 LUMO     -6.1     0.066868 =       1.8196eV
 LUMO-HOMO         0.562258 =      15.2998eV

 EXPECTATION VALUE OF S**2:             0.78286056

 Occupation number threshold for canonical orbitals:  1.999000 (occupied),  0.001000 (virtual)

 Number of pseudo-canonical orbitals per symmetry:    3
 Number of active natural orbitals per symmetry:      5

 Natural orbitals saved to record    2200.2 (Orbital set 3)

 Orbital spaces for UNO-CAS (Min. occupation: 0.020  Max. occupation: 1.980):

 Closed:        5
 Active:        1


 **********************************************************************************************************************************
 DATASETS  * FILE   NREC   LENGTH (MB)   RECORD NAMES
              1      19       30.41       500      610      700      900      950      970     1000      129      960     1100   
                                          VAR    BASINP    GEOM    SYMINP    ZMAT    AOBASIS   BASIS     P2S    ABASIS      S 
                                         1400     1410     1200     1210     1080     1600     1650     1300     1700   
                                           T        V       H0       H01     AOSYM     SMH    MOLCAS    ERIS     OPER   

              2       4        2.84       700     1000      520     2200   
                                         GEOM     BASIS   MCVARS     UHF  

 PROGRAMS   *        TOTAL       UHF       INT
 CPU TIMES  *         9.21      8.73      0.33
 REAL TIME  *        10.83 SEC
 DISK USED  *        35.09 MB      
 **********************************************************************************************************************************

 Density functional group B3LYP3=B88+DIRAC+LYP+VWN3
 Functional: B88(Automatically generated (new) B88)                            Gradient terms: 1
 Functional: DIRAC(Automatically generated (new) DIRAC)                        Gradient terms: 0
 Functional: LYP(Automatically generated (new) LYP)                            Gradient terms: 1
 Functional: VWN3(Automatically generated (new) VWN3)                          Gradient terms: 0
 Use grid at  1800.2


 Exact exchange will be calculated, factor:  0.2000

 Functional: B88                       Factor:  0.7200
 Functional: DIRAC                     Factor:  0.0800
 Functional: LYP                       Factor:  0.8100
 Functional: VWN3                      Factor:  0.1900

 Generated new metagrid on record  1800.2 with target accuracy 1.0D-06 and 12814 points in CPU time    0.2
 Computed new grid on record 1800.1 in CPU time    0.2
   26842 words reserved for DFT integration

 PROGRAM * UKS-SCF (Unrestricted Kohn-Sham)     Authors: W. Meyer, H.-J. Werner, P.J. Knowles, 1993

 NUMBER OF ELECTRONS:       6+    5-    SPACE SYMMETRY=1    SPIN SYMMETRY: Doublet 
 CONVERGENCE THRESHOLDS:    1.00E-05 (Density)    1.00E-06 (Energy)
 MAX. NUMBER OF ITERATIONS:        0
 INTERPOLATION TYPE:            DIIS
 INTERPOLATION STEPS:              2 (START)      1 (STEP)
 LEVEL SHIFTS:                 -0.20 (ALPHA)  -0.20 (BETA) 



 Use fine grid record 1800.2 for energy threshold  1.0D-06
 Molecular orbitals read from record     2200.2  Type=UHF/ALPHA (state 1.1)
 Molecular orbitals read from record     2200.2  Type=UHF/BETA (state 1.1)

 Molecular orbital dump at record        2201.2

 Initial alpha occupation   6
 Initial beta  occupation   5

 ITERATION    DDIFF          GRAD             ENERGY        2-EL.EN.            DIPOLE MOMENTS         DIIS
    1      0.000D+00      0.000D+00       -76.82978459     93.029162   -0.05848    0.67954    0.00005    0

 Final alpha occupancy:   6
 Final beta  occupancy:   5

 !UKS STATE 1.1 Energy                -76.829784590775
 Nuclear energy                        10.73783922
 One-electron energy                 -126.30151958
 Two-electron energy                   46.51458093
 Density functional                    -7.78068516     B88=-9.24639212 DIRAC=-8.32852152 LYP=-0.35033957 VWN3=-0.91171609
 Virial quotient                       -1.00612022
 !UKS STATE 1.1 Dipole moment          -0.05847572     0.67954092     0.00004918
 Dipole moment /Debye                  -0.14862073     1.72710762     0.00012499

 Orbital energies for positive spin:

         1.1          2.1          3.1          4.1          5.1          6.1          7.1          8.1
    -20.593766    -0.669881    -0.538258    -1.303210    -0.613507    -0.219928     0.593056     1.363806

 Orbital energies for negative spin:

         1.1          2.1          3.1          4.1          5.1          6.1          7.1          8.1
    -20.593766    -0.669881    -0.538258    -1.303210    -0.613507    -0.219928     0.593056     1.363806

 HOMO      6.1    -0.219928 =      -5.9845eV
 LUMO     -6.1    -0.219928 =      -5.9845eV
 LUMO-HOMO         0.000000 =       0.0000eV

 EXPECTATION VALUE OF S**2:             0.78286056

 Occupation number threshold for canonical orbitals:  1.999000 (occupied),  0.001000 (virtual)

 Number of pseudo-canonical orbitals per symmetry:    3
 Number of active natural orbitals per symmetry:      5

 Natural orbitals saved to record    2201.2 (Orbital set 3)

 Orbital spaces for UNO-CAS (Min. occupation: 0.020  Max. occupation: 1.980):

 Closed:        5
 Active:        1

 No convergence



 **********************************************************************************************************************************
 DATASETS  * FILE   NREC   LENGTH (MB)   RECORD NAMES
              1      20       30.82       500      610      700      900      950      970     1000      129      960     1100   
                                          VAR    BASINP    GEOM    SYMINP    ZMAT    AOBASIS   BASIS     P2S    ABASIS      S 
                                         1400     1410     1200     1210     1080     1600     1650     1300     1700     1800   
                                           T        V       H0       H01     AOSYM     SMH    MOLCAS    ERIS     OPER     GRID   

              2       6        5.37       700     1000      520     2200     1800     2201   
                                         GEOM     BASIS   MCVARS     UHF     GRID      UKS  

 PROGRAMS   *        TOTAL       UKS       UHF       INT
 CPU TIMES  *         9.56      0.35      8.73      0.33
 REAL TIME  *        11.21 SEC
 DISK USED  *        36.26 MB      
 **********************************************************************************************************************************


 PROGRAM * Intrinsic Basis Bonding Analysis (IBBA)          Author: G. Knizia

 Molecular orbitals read from record     2201.2  Type=UKS/ALPHA (state 1.1)
 Fock matrix read from record            2201.2  Type=UKS/TOTAL (state 1.1)
 Orbital energies read from record       2201.2  Type=UKS/ALPHA (state 1.1)
 Density matrix read from record         2201.2  Type=UKS/CHARGE (state 1.1)

 Number of core orbitals:           1 (   1 )
 Number of closed-shell orbitals:   4 (   4 )
 Number of active  orbitals:        1 (   1 )

 Basis set MINAO-AUTO-PP generated.      Number of basis functions:   8 

 Polarized AO type:                A = (O Ot + (1-O)(1-Ot)) P12
 Orthogonalization method:         Symmetric (Loewdin)
 Localization functional:          L = sum[A,i] <i|n_A|i>^4 -> max

 Localization group 1:   5 orbitals, occupancy  2.000
 Iterative localization: IB/PM,    5 iter; Final gradient 0.17E-08

 Bond order analysis:       [THRPRINT= 0.020]

   CEN ATOM   CEN ATOM     WIBERG.BO      RENORM.BO
     1   O  -   2   H       0.834734       1.000000
     1   O  -   3   H       0.639357       1.000000
     1   O  -   4   H       0.338381       1.000000

     2   H  -   1   O       0.834734       1.000000

     3   H  -   1   O       0.639357       1.000000
     3   H  -   4   H       0.113341       0.864963

     4   H  -   1   O       0.338381       1.000000
     4   H  -   3   H       0.113341       0.864963


 Valency analysis:

   CEN ATOM   TOT.VALENCE
     1   O       1.812472
     2   H       0.836391
     3   H       0.752703
     4   H       0.453374
 Localization group 2:   1 orbitals, occupancy  1.000
 Iterative localization: IB/PM,    1 iter; Final gradient 0.00E+00

 Bond order analysis:       [THRPRINT= 0.020]

   CEN ATOM   CEN ATOM     WIBERG.BO      RENORM.BO
     1   O  -   4   H       0.349204       0.500000
     1   O  -   3   H       0.082804       0.500000


     3   H  -   4   H       0.143634       0.500000
     3   H  -   1   O       0.082804       0.500000

     4   H  -   1   O       0.349204       0.500000
     4   H  -   3   H       0.143634       0.500000


 Valency analysis:

   CEN ATOM   TOT.VALENCE
     1   O       0.433216
     2   H       0.003801
     3   H       0.226935
     4   H       0.494933

 Total charge composition:

   CEN ATOM         s          p       ELECTRONS ->P.CHARGE
     1   O       3.76927    5.18911      8.95838   -0.95838
     2   H       0.59742                 0.59742    0.40258
     3   H       0.63321                 0.63321    0.36679
     4   H       0.81099                 0.81099    0.18901

 Total charge composition, AO contributions:

   CEN ATOM SHL      SPHERICAL COMPONENTS
     1   O  1s       1.99773
     1   O  2s       1.77154
     1   O  2p       1.60512    1.58399    2.00000

     2   H  1s       0.59742

     3   H  1s       0.63321

     4   H  1s       0.81099

 Active orbital charges:

   CEN ATOM         s          p       ELECTRONS ->SPIN.DEN
     1   O       0.01370    0.30357      0.31727    0.31727
     2   H       0.00190                 0.00190    0.00190
     3   H       0.13050                 0.13050    0.13050
     4   H       0.55033                 0.55033    0.55033

 Active orbital charges, AO contributions:

   CEN ATOM SHL      SPHERICAL COMPONENTS
     1   O  1s       0.00006
     1   O  2s       0.01363
     1   O  2p       0.30357    0.00000    0.00000

     2   H  1s       0.00190

     3   H  1s       0.13050

     4   H  1s       0.55033

 Summary of localized orbital composition:   [THRPRINT= 0.020]

   ORB  GRP  ORB.ENERGY      CENTERS/CHARGES
     1   1   -19.024888      O  1   2.000
     2   1    -0.852598      O  1   1.405   H  2   0.592
     3   1    -0.708148      O  1   1.978   (other: 0.022)
     4   1    -0.510134      O  1   1.258   H  3   0.493   H  4   0.245
     5   1    -0.331316      O  1   2.000
     6   2    -0.261452      H  4   0.550   O  1   0.317   H  3   0.130

 Localized orbitals saved to record      2201.2  (orbital set 4)


 **********************************************************************************************************************************
 DATASETS  * FILE   NREC   LENGTH (MB)   RECORD NAMES
              1      20       30.82       500      610      700      900      950      970     1000      129      960     1100   
                                          VAR    BASINP    GEOM    SYMINP    ZMAT    AOBASIS   BASIS     P2S    ABASIS      S 
                                         1400     1410     1200     1210     1080     1600     1650     1300     1700     1800   
                                           T        V       H0       H01     AOSYM     SMH    MOLCAS    ERIS     OPER     GRID   

              2       6        5.38       700     1000      520     2200     1800     2201   
                                         GEOM     BASIS   MCVARS     UHF     GRID      UKS  

 PROGRAMS   *        TOTAL      IBBA       UKS       UHF       INT
 CPU TIMES  *         9.58      0.02      0.35      8.73      0.33
 REAL TIME  *        11.23 SEC
 DISK USED  *        36.26 MB      
 **********************************************************************************************************************************

 IBBA/SVP energy=      0.000000000000

        UKS-SCF         UHF-SCF 
    -76.82978459    -76.42113255
 **********************************************************************************************************************************
 Molpro calculation terminated
