
 Primary working directories    : /local
 Secondary working directories  : /local
 Wavefunction directory         : /local/
 Main file repository           : /local/

 SHA1      : b4a5b34a9e711420743f49e6833241d17c61fb3c
 NAME      : 2099.9.b4a5b34
 ARCHNAME  : linux/x86_64_openmp
 FC        : /cm/shared/languages/GCC-6.1/bin/gfortran
 BLASLIB   : -lblas
 id        : simonbennie

 Nodes     nprocs
 node32-035    1

 Using customized tuning parameters: mindgm=1; mindgv=20; mindgc=4; mindgr=1; noblas=0; minvec=7
 default implementation of scratch files=df  

 memory,500,m
 geomtyp=xyz
 nosym
 noorient
 geometry={
 O         -0.30106       -0.10805       -0.00001
 H         -0.42795        0.85157        0.00002
 H          1.01549       -0.10037        0.00012
 H          1.82097        0.11319       -0.00007
 }
 basis={ default,tzvp }
 {df-ks,PBE0,direct;disp;wf,11,1,1}
 {ibba,bonds=1}

 Variables initialized (895), CPU time= 0.01 sec
 Commands  initialized (725), CPU time= 0.01 sec, 591 directives.
 Default parameters read. Elapsed time= 0.07 sec

 Checking input...
 Passed
1


                                         ***  PROGRAM SYSTEM MOLPRO  ***
                                       Copyright, TTI GmbH Stuttgart, 2015
                                    Version 2099.9 linked May 26 2017 16:03:21


 **********************************************************************************************************************************
 LABEL *                                                                                 
  64 bit serial version                                                                  DATE: 17-Mar-18          TIME: 13:53:25  
 **********************************************************************************************************************************

 SHA1:             b4a5b34a9e711420743f49e6833241d17c61fb3c
 **********************************************************************************************************************************
 SETTING GEOMTYP        =    XYZ

 Variable memory set to  500000000 words,  buffer space 

 ZSYMEL=NOSYM

 SETTING BASIS          =    TZVP


 Recomputing integrals since basis changed


 Using spherical harmonics

 Library entry O      S def2-TZVP            selected for orbital group  1
 Library entry O      P def2-TZVP            selected for orbital group  1
 Library entry O      D def2-TZVP            selected for orbital group  1
 Library entry O      F def2-TZVP            selected for orbital group  1
 Library entry H      S def2-TZVP            selected for orbital group  2
 Library entry H      P def2-TZVP            selected for orbital group  2


 PROGRAM * SEWARD (Integral evaluation for generally contracted gaussian basis sets)     Author: Roland Lindh, 1990

 Geometry written to block  1 of record 700


 Point group  C1  



 ATOMIC COORDINATES

 NR  ATOM    CHARGE       X              Y              Z

   1  O       8.00   -0.568920947   -0.204184908   -0.000018897
   2  H       1.00   -0.808708295    1.609234076    0.000037795
   3  H       1.00    1.918997982   -0.189671811    0.000226767
   4  H       1.00    3.441134581    0.213898100   -0.000132281

 Bond lengths in Bohr (Angstrom)

 1-2  1.829203757  1-3  2.487961272  3-4  1.574728112
     ( 0.967972942)     ( 1.316572407)     ( 0.833310230)

 Bond angles

  1-3-4  165.48482331   2-1-3   97.19826261

 NUCLEAR CHARGE:                   11
 NUMBER OF PRIMITIVE AOS:          75
 NUMBER OF SYMMETRY AOS:           70
 NUMBER OF CONTRACTIONS:           49   (  49A   )
 NUMBER OF CORE ORBITALS:           1   (   1A   )
 NUMBER OF VALENCE ORBITALS:        7   (   7A   )


 NUCLEAR REPULSION ENERGY   10.73783922


 Eigenvalues of metric

         1 0.907E-02 0.117E-01 0.172E-01 0.370E-01 0.554E-01 0.929E-01 0.107E+00 0.131E+00


 OPERATOR DM      FOR CENTER  0  COORDINATES:    0.000000    0.000000    0.000000


 **********************************************************************************************************************************
 DATASETS  * FILE   NREC   LENGTH (MB)   RECORD NAMES
              1      18       30.09       500      610      700      900      950      970     1000      129      960     1100   
                                          VAR    BASINP    GEOM    SYMINP    ZMAT    AOBASIS   BASIS     P2S    ABASIS      S 
                                         1400     1410     1200     1210     1080     1600     1650     1700   
                                           T        V       H0       H01     AOSYM     SMH    MOLCAS    OPER   

 PROGRAMS   *        TOTAL       INT
 CPU TIMES  *         0.29      0.14
 REAL TIME  *         0.55 SEC
 DISK USED  *        30.41 MB      
 **********************************************************************************************************************************

 Density functional group PBE0=PBEX+PBEC
 Functional: PBEX(Automatically generated (new) PBEX)                          Gradient terms: 1
 Functional: PBEC(Automatically generated (new) PBEC)                          Gradient terms: 1

 dispersion correction activated
 Density functional: PBE0    
 functional not in list, set to default 


 Exact exchange will be calculated, factor:  0.2500

 Functional: PBEX                      Factor:  0.7500
 Functional: PBEC                      Factor:  1.0000

 Use grid at  1800.2


 Exact exchange will be calculated, factor:  0.2500

 Functional: PBEX                      Factor:  0.7500
 Functional: PBEC                      Factor:  1.0000

 Generated new metagrid on record  1800.2 with target accuracy 1.0D-06 and 13042 points in CPU time    0.2
 Computed new grid on record 1800.1 in CPU time    0.2
   42775 words reserved for DFT integration

 PROGRAM * RKS-SCF (Restricted open shell Kohn-Sham)     Authors: W. Meyer, H.-J. Werner, P.J. Knowles, 1993

 NUMBER OF ELECTRONS:       6+    5-    SPACE SYMMETRY=1    SPIN SYMMETRY: Doublet 
 CONVERGENCE THRESHOLDS:    1.00E-05 (Density)    1.00E-06 (Energy)
 INTEGRAL THRESHOLDS:       1.00E-11 (Initial)    1.00E-11 (Final)
 MAX. NUMBER OF ITERATIONS:       60
 INTERPOLATION TYPE:            DIIS
 INTERPOLATION STEPS:              2 (START)      1 (STEP)
 LEVEL SHIFTS:                 -0.60 (CLOSED) -0.30 (OPEN) 



 Use fine grid record 1800.2 for energy threshold  1.0D-06

 Basis set DEF2-TZVPP/JKFIT generated.   Number of basis functions:   131 

 Orbital guess generated from atomic densities. Full valence occupancy:    6
 Using density fitting in orbital guess

 Coulomb and exchange fitting
 Thresholds for fitting:       THRAO_COUL= 1.0D-14    THRAO_EXCH= 1.0D-12    THRMO= 1.0D-11    THRPROD= 1.0D-11    THRASM= 1.0D-11
                               THR2HLF=    1.0D-11

 Molecular orbital dump at record        2100.2

 Initial alpha occupancy:   6
 Initial beta  occupancy:   5
 Wave function symmetry:    1

 ITERATION   DDIFF            GRAD            ENERGY        2-EL.EN.            DIPOLE MOMENTS         DIIS   CPU(IT)  CPU(TOT)  ORB.
    1      0.000D+00      0.000D+00       -76.79451480     95.912230    0.98575    0.95482    0.00006    0      0.1      0.3     start
    2      0.000D+00      0.142D-01       -76.82407645     90.100638    0.11373    0.58754    0.00005    1      0.1      0.4     diag,B
    3      0.854D-02      0.115D-01       -76.84740944     92.308764    0.34954    0.67289    0.00005    2      0.2      0.6     diag,B
    4      0.326D-02      0.109D-02       -76.84810616     92.370027    0.31800    0.66219    0.00005    3      0.1      0.7     diag,B
    5      0.599D-03      0.443D-03       -76.84845309     92.368078    0.28357    0.65394    0.00005    4      0.1      0.8     diag,B
    6      0.491D-03      0.212D-03       -76.84859702     92.349898    0.25318    0.64955    0.00005    5      0.2      1.0     diag,B
    7      0.444D-03      0.815D-04       -76.84861619     92.347836    0.24138    0.64910    0.00005    6      0.1      1.1     fixocc
    8      0.211D-03      0.228D-04       -76.84861750     92.346661    0.23858    0.64922    0.00005    7      0.2      1.3     diag,B
    9      0.584D-04      0.734D-05       -76.84861765     92.346507    0.23830    0.64929    0.00005    8      0.1      1.4     diag,B
   10      0.133D-04      0.297D-05       -76.84861769     92.346491    0.23809    0.64926    0.00005    9      0.2      1.6     orth
   11      0.618D-05      0.948D-06       -76.84861769     92.346467    0.23808    0.64924    0.00005    0      0.1      1.7     orth

 Dispersion correction
 - - - - - - - - - - - 
  _________________________________
                                   
 |         DFTD3 V1.3 Rev 1        |
 | S.Grimme, University Muenster   |
 | Fri Jul  2 12:48:21 CEST 2010   |
  _________________________________

 Please cite DFT-D3 work done with this code as:
 S. Grimme, J. Antony, S. Ehrlich and H. Krieg,
 J. Chem. Phys, 132 (2010), 154104.
 For DFT-D2 the reference is
 S. Grimme, J. Comput. Chem., 27 (2006), 1787-1799

 C6 coefficients used:
                    2  C6 for element                     1
 Z=  1 CN=   0.912     C6(AA)=    3.03
 Z=  1 CN=   0.000     C6(AA)=    7.59
                    3  C6 for element                     8
 Z=  8 CN=   0.000     C6(AA)=   15.51
 Z=  8 CN=   0.993     C6(AA)=   12.82
 Z=  8 CN=   1.989     C6(AA)=   10.37

 #           XYZ [au]               R0(AA) [Ang.]   CN       C6(AA)     C8(AA)   C10(AA) [au]
  1  -0.56892  -0.20418  -0.00002   o   1.241  1.347        12.2       246.1      6083.2
  2  -0.80871   1.60923   0.00004   h   1.091  0.993         3.1        37.4       553.8
  3   1.91900  -0.18967   0.00023   h   1.091  0.948         3.1        37.7       558.4
  4   3.44113   0.21390  -0.00013   h   1.091  0.596         4.0        48.5       717.8

 molecular C6(AA) [au] =        79.96

           DFT-D V3
 DF pbe                                               
 parameters
 s6       :    1.0000
 s8       :    0.7220
 rs6      :    1.2170
 alpha6   :   14.0000
 alpha8   :   16.0000
 k1-k3    :   16.0000    1.3333   -4.0000

 Edisp /kcal,au:    -0.1432 -0.00022816

 E6    /kcal :    -0.0175
 E8    /kcal :    -0.1257
 % E8        : 87.78
 normal termination of dftd3

 RKS STATE 1.1 ENERGY+DISP      -76.84884585

 Final alpha occupancy:   6
 Final beta  occupancy:   5

 !RKS STATE 1.1 Energy                -76.848845846420
 Nuclear energy                        10.73783922
 One-electron energy                 -126.54062700
 Two-electron energy                   46.17323369
 Density functional                    -7.21906360     PBEX=-9.17284965 PBEC=-0.33942636
 Virial quotient                       -1.00369148
 !RKS STATE 1.1 Dipole moment           0.23808081     0.64923874     0.00004966
 Dipole moment /Debye                   0.60510141     1.65009219     0.00012620

 Orbital energies:

         1.1          2.1          3.1          4.1          5.1          6.1          7.1          8.1
    -19.242837    -1.016012    -0.519916    -0.452559    -0.339815    -0.341807     0.049704     0.119404

 HOMO      6.1    -0.341807 =      -9.3010eV
 LUMO      7.1     0.049704 =       1.3525eV
 LUMO-HOMO         0.391511 =      10.6535eV


 **********************************************************************************************************************************
 DATASETS  * FILE   NREC   LENGTH (MB)   RECORD NAMES
              1      19       30.51       500      610      700      900      950      970     1000      129      960     1100   
                                          VAR    BASINP    GEOM    SYMINP    ZMAT    AOBASIS   BASIS     P2S    ABASIS      S 
                                         1400     1410     1200     1210     1080     1600     1650     1700     1800   
                                           T        V       H0       H01     AOSYM     SMH    MOLCAS    OPER     GRID   

              2       5        2.88       700     1000      520     1800     2100   
                                         GEOM     BASIS   MCVARS    GRID      RKS  

 PROGRAMS   *        TOTAL        KS       INT
 CPU TIMES  *         2.27      1.99      0.14
 REAL TIME  *         2.61 SEC
 DISK USED  *        34.25 MB      
 **********************************************************************************************************************************


 PROGRAM * Intrinsic Basis Bonding Analysis (IBBA)          Author: G. Knizia

 Molecular orbitals read from record     2100.2  Type=RKS/CANONICAL (state 1.1)
 Fock matrix read from record            2100.2  Type=RKS/TOTAL (state 1.1)
 Orbital energies read from record       2100.2  Type=RKS/CANONICAL (state 1.1)
 Density matrix read from record         2100.2  Type=RKS/CHARGE (state 1.1)

 Number of core orbitals:           1 (   1 )
 Number of closed-shell orbitals:   4 (   4 )
 Number of active  orbitals:        1 (   1 )

 Basis set MINAO-AUTO-PP generated.      Number of basis functions:   8 

 Polarized AO type:                A = (O Ot + (1-O)(1-Ot)) P12
 Orthogonalization method:         Symmetric (Loewdin)
 Localization functional:          L = sum[A,i] <i|n_A|i>^4 -> max

 Localization group 1:   5 orbitals, occupancy  2.000
 Iterative localization: IB/PM,    6 iter; Final gradient 0.45E-13

 Bond order analysis:       [THRPRINT= 0.020]

   CEN ATOM   CEN ATOM     WIBERG.BO      RENORM.BO
     1   O  -   2   H       0.864658       1.000000
     1   O  -   3   H       0.477665       1.000000
     1   O  -   4   H       0.384046       1.000000

     2   H  -   1   O       0.864658       1.000000

     3   H  -   4   H       0.502639       0.880102
     3   H  -   1   O       0.477665       1.000000

     4   H  -   3   H       0.502639       0.880102
     4   H  -   1   O       0.384046       1.000000


 Valency analysis:

   CEN ATOM   TOT.VALENCE
     1   O       1.726370
     2   H       0.865010
     3   H       0.980656
     4   H       0.886686
 Localization group 2:   1 orbitals, occupancy  1.000
 Iterative localization: IB/PM,    1 iter; Final gradient 0.00E+00

 Bond order analysis:       [THRPRINT= 0.020]

   CEN ATOM   CEN ATOM     WIBERG.BO      RENORM.BO
     1   O  -   4   H       0.412196       0.500000
     1   O  -   3   H       0.030631       0.500000


     3   H  -   1   O       0.030631       0.500000

     4   H  -   1   O       0.412196       0.500000


 Valency analysis:

   CEN ATOM   TOT.VALENCE
     1   O       0.444430
     2   H       0.002401
     3   H       0.044889
     4   H       0.427143

 Total charge composition:

   CEN ATOM         s          p       ELECTRONS ->P.CHARGE
     1   O       3.77989    4.72991      8.50980   -0.50980
     2   H       0.63379                 0.63379    0.36621
     3   H       0.88389                 0.88389    0.11611
     4   H       0.97252                 0.97252    0.02748

 Total charge composition, AO contributions:

   CEN ATOM SHL      SPHERICAL COMPONENTS
     1   O  1s       1.99800
     1   O  2s       1.78190
     1   O  2p       1.19110    1.53881    2.00000

     2   H  1s       0.63379

     3   H  1s       0.88389

     4   H  1s       0.97252

 Active orbital charges:

   CEN ATOM         s          p       ELECTRONS ->SPIN.DEN
     1   O       0.00263    0.66406      0.66669    0.66669
     2   H       0.00120                 0.00120    0.00120
     3   H       0.02297                 0.02297    0.02297
     4   H       0.30914                 0.30914    0.30914

 Active orbital charges, AO contributions:

   CEN ATOM SHL      SPHERICAL COMPONENTS
     1   O  1s       0.00002
     1   O  2s       0.00261
     1   O  2p       0.65214    0.01192    0.00000

     2   H  1s       0.00120

     3   H  1s       0.02297

     4   H  1s       0.30914

 Summary of localized orbital composition:   [THRPRINT= 0.020]

   ORB  GRP  ORB.ENERGY      CENTERS/CHARGES
     1   1   -19.105218      O  1   2.000
     2   1    -0.822990      O  1   1.367   H  2   0.632
     3   1    -0.769413      O  1   1.954   H  4   0.027
     4   1    -0.533707      H  3   0.842   H  4   0.636   O  1   0.522
     5   1    -0.339816      O  1   2.000
     6   2    -0.246534      O  1   0.667   H  4   0.309   H  3   0.023

 Localized orbitals saved to record      2100.2  (orbital set 2)


 **********************************************************************************************************************************
 DATASETS  * FILE   NREC   LENGTH (MB)   RECORD NAMES
              1      19       30.51       500      610      700      900      950      970     1000      129      960     1100   
                                          VAR    BASINP    GEOM    SYMINP    ZMAT    AOBASIS   BASIS     P2S    ABASIS      S 
                                         1400     1410     1200     1210     1080     1600     1650     1700     1800   
                                           T        V       H0       H01     AOSYM     SMH    MOLCAS    OPER     GRID   

              2       5        2.90       700     1000      520     1800     2100   
                                         GEOM     BASIS   MCVARS    GRID      RKS  

 PROGRAMS   *        TOTAL      IBBA        KS       INT
 CPU TIMES  *         2.29      0.02      1.99      0.14
 REAL TIME  *         2.64 SEC
 DISK USED  *        34.25 MB      
 **********************************************************************************************************************************

 IBBA/TZVP energy=      0.000000000000

        DF-KS   
    -76.84884585
 **********************************************************************************************************************************
 Molpro calculation terminated
