
 Primary working directories    : /local
 Secondary working directories  : /local
 Wavefunction directory         : /local/
 Main file repository           : /local/

 SHA1      : b4a5b34a9e711420743f49e6833241d17c61fb3c
 NAME      : 2099.9.b4a5b34
 ARCHNAME  : linux/x86_64_openmp
 FC        : /cm/shared/languages/GCC-6.1/bin/gfortran
 BLASLIB   : -lblas
 id        : simonbennie

 Nodes     nprocs
 node32-039    1

 Using customized tuning parameters: mindgm=1; mindgv=20; mindgc=4; mindgr=1; noblas=0; minvec=7
 default implementation of scratch files=df  

 memory,500,m
 geomtyp=xyz
 nosym
 noorient
 geometry={
 O         -0.30106       -0.10805       -0.00001
 H         -0.42795        0.85157        0.00002
 H          1.01549       -0.10037        0.00012
 H          1.82097        0.11319       -0.00007
 }
 basis={ default,avdz }
 {ks,PBEREV,direct;wf,11,1,1}
 {ibba,bonds=1}

 Variables initialized (895), CPU time= 0.01 sec
 Commands  initialized (725), CPU time= 0.01 sec, 591 directives.
 Default parameters read. Elapsed time= 0.08 sec

 Checking input...
 Passed
1


                                         ***  PROGRAM SYSTEM MOLPRO  ***
                                       Copyright, TTI GmbH Stuttgart, 2015
                                    Version 2099.9 linked May 26 2017 16:03:21


 **********************************************************************************************************************************
 LABEL *                                                                                 
  64 bit serial version                                                                  DATE: 24-Jun-17          TIME: 05:08:16  
 **********************************************************************************************************************************

 SHA1:             b4a5b34a9e711420743f49e6833241d17c61fb3c
 **********************************************************************************************************************************
 SETTING GEOMTYP        =    XYZ

 Variable memory set to  500000000 words,  buffer space 

 ZSYMEL=NOSYM

 SETTING BASIS          =    AVDZ


 Recomputing integrals since basis changed


 Using spherical harmonics

 Library entry O      S aug-cc-pVDZ          selected for orbital group  1
 Library entry O      P aug-cc-pVDZ          selected for orbital group  1
 Library entry O      D aug-cc-pVDZ          selected for orbital group  1
 Library entry H      S aug-cc-pVDZ          selected for orbital group  2
 Library entry H      P aug-cc-pVDZ          selected for orbital group  2


 PROGRAM * SEWARD (Integral evaluation for generally contracted gaussian basis sets)     Author: Roland Lindh, 1990

 Geometry written to block  1 of record 700


 Point group  C1  



 ATOMIC COORDINATES

 NR  ATOM    CHARGE       X              Y              Z

   1  O       8.00   -0.568920947   -0.204184908   -0.000018897
   2  H       1.00   -0.808708295    1.609234076    0.000037795
   3  H       1.00    1.918997982   -0.189671811    0.000226767
   4  H       1.00    3.441134581    0.213898100   -0.000132281

 Bond lengths in Bohr (Angstrom)

 1-2  1.829203757  1-3  2.487961272  3-4  1.574728112
     ( 0.967972942)     ( 1.316572407)     ( 0.833310230)

 Bond angles

  1-3-4  165.48482331   2-1-3   97.19826261

 NUCLEAR CHARGE:                   11
 NUMBER OF PRIMITIVE AOS:          70
 NUMBER OF SYMMETRY AOS:           68
 NUMBER OF CONTRACTIONS:           50   (  50A   )
 NUMBER OF CORE ORBITALS:           1   (   1A   )
 NUMBER OF VALENCE ORBITALS:        7   (   7A   )


 NUCLEAR REPULSION ENERGY   10.73783922

 Eigenvalues of metric

         1 0.204E-03 0.287E-02 0.346E-02 0.716E-02 0.125E-01 0.221E-01 0.294E-01 0.355E-01


 Contracted 2-electron integrals neglected if value below      1.0D-11
 AO integral compression algorithm  1   Integral accuracy      1.0D-11

     4.456 MB (compressed) written to integral file ( 48.8%)


 NUMBER OF SORTED TWO-ELECTRON INTEGRALS:     813450.     BUFFER LENGTH:  32768
 NUMBER OF SEGMENTS:   1  SEGMENT LENGTH:     813450      RECORD LENGTH: 524288

 Memory used in sort:       1.37 MW

 SORT1 READ     1096515. AND WROTE      775331. INTEGRALS IN      3 RECORDS. CPU TIME:     0.01 SEC, REAL TIME:     0.03 SEC
 SORT2 READ      775331. AND WROTE      813450. INTEGRALS IN     17 RECORDS. CPU TIME:     0.05 SEC, REAL TIME:     0.06 SEC

 FILE SIZES:   FILE 1:    34.5 MBYTE,  FILE 4:    12.6 MBYTE,   TOTAL:     47.2 MBYTE

 OPERATOR DM      FOR CENTER  0  COORDINATES:    0.000000    0.000000    0.000000


 **********************************************************************************************************************************
 DATASETS  * FILE   NREC   LENGTH (MB)   RECORD NAMES
              1      19       33.35       500      610      700      900      950      970     1000      129      960     1100   
                                          VAR    BASINP    GEOM    SYMINP    ZMAT    AOBASIS   BASIS     P2S    ABASIS      S 
                                         1400     1410     1200     1210     1080     1600     1650     1300     1700   
                                           T        V       H0       H01     AOSYM     SMH    MOLCAS    ERIS     OPER   

 PROGRAMS   *        TOTAL       INT
 CPU TIMES  *         0.42      0.28
 REAL TIME  *         0.72 SEC
 DISK USED  *        47.49 MB      
 **********************************************************************************************************************************

 Density functional group PBEREV=PBEXREV+PBEC
 Functional: PBEXREV(Automatically generated (new) PBEXREV)                    Gradient terms: 1
 Functional: PBEC(Automatically generated (new) PBEC)                          Gradient terms: 1
 Use grid at  1800.2

 Functional: PBEXREV                   Factor:  1.0000
 Functional: PBEC                      Factor:  1.0000

 Generated new metagrid on record  1800.2 with target accuracy 1.0D-06 and 12814 points in CPU time    0.2
 Computed new grid on record 1800.1 in CPU time    0.2
   43564 words reserved for DFT integration

 PROGRAM * RKS-SCF (Restricted open shell Kohn-Sham)     Authors: W. Meyer, H.-J. Werner, P.J. Knowles, 1993

 NUMBER OF ELECTRONS:       6+    5-    SPACE SYMMETRY=1    SPIN SYMMETRY: Doublet 
 CONVERGENCE THRESHOLDS:    1.00E-05 (Density)    1.00E-06 (Energy)
 MAX. NUMBER OF ITERATIONS:       60
 INTERPOLATION TYPE:            DIIS
 INTERPOLATION STEPS:              2 (START)      1 (STEP)
 LEVEL SHIFTS:                 -0.60 (CLOSED) -0.30 (OPEN) 



 Use fine grid record 1800.2 for energy threshold  1.0D-06
 Orbital guess generated from atomic densities. Full valence occupancy:    8

 Molecular orbital dump at record        2100.2

 Initial alpha occupancy:   6
 Initial beta  occupancy:   5
 Wave function symmetry:    1

 ITERATION    DDIFF          GRAD             ENERGY        2-EL.EN.            DIPOLE MOMENTS         DIIS   ORB.
    1      0.000D+00      0.000D+00       -76.85787006    100.087138    0.76128    0.86545    0.00005    0    start
    2      0.000D+00      0.126D-01       -76.86740875     93.956374   -0.06338    0.45651    0.00004    1    diag,B
    3      0.241D-01      0.119D-01       -76.89890283     96.701724    0.30641    0.58725    0.00004    2    diag,B
    4      0.122D-01      0.644D-03       -76.89918590     96.657168    0.29244    0.57136    0.00004    3    diag,B
    5      0.139D-02      0.273D-03       -76.89925634     96.659528    0.28903    0.56433    0.00004    4    diag,B
    6      0.134D-02      0.774D-04       -76.89926684     96.652728    0.28642    0.56299    0.00004    5    diag,B
    7      0.707D-03      0.251D-04       -76.89926815     96.651550    0.28521    0.56262    0.00004    6    fixocc
    8      0.164D-03      0.814D-05       -76.89926828     96.651761    0.28478    0.56265    0.00004    7    diag,B
    9      0.516D-04      0.265D-05       -76.89926829     96.651838    0.28458    0.56262    0.00004    8    diag,B
   10      0.192D-04      0.100D-05       -76.89926830     96.651875    0.28451    0.56259    0.00004    9    orth
   11      0.582D-05      0.289D-06       -76.89926830     96.651877    0.28450    0.56259    0.00004    0    orth

 Final alpha occupancy:   6
 Final beta  occupancy:   5

 !RKS STATE 1.1 Energy                -76.899268295485
 Nuclear energy                        10.73783922
 One-electron energy                 -126.40780278
 Two-electron energy                   48.32593865
 Density functional                    -9.55524338     PBEXREV=-9.21568091 PBEC=-0.33956248
 Virial quotient                       -1.00670478
 !RKS STATE 1.1 Dipole moment           0.28449607     0.56258761     0.00004052
 Dipole moment /Debye                   0.72306952     1.42986141     0.00010298

 Orbital energies:

         1.1          2.1          3.1          4.1          5.1          6.1          7.1          8.1
    -18.821521    -0.908140    -0.461402    -0.390835    -0.268444    -0.280023    -0.021175     0.007566

 HOMO      6.1    -0.280023 =      -7.6198eV
 LUMO      7.1    -0.021175 =      -0.5762eV
 LUMO-HOMO         0.258848 =       7.0436eV


 **********************************************************************************************************************************
 DATASETS  * FILE   NREC   LENGTH (MB)   RECORD NAMES
              1      20       33.76       500      610      700      900      950      970     1000      129      960     1100   
                                          VAR    BASINP    GEOM    SYMINP    ZMAT    AOBASIS   BASIS     P2S    ABASIS      S 
                                         1400     1410     1200     1210     1080     1600     1650     1300     1700     1800   
                                           T        V       H0       H01     AOSYM     SMH    MOLCAS    ERIS     OPER     GRID   

              2       5        2.87       700     1000      520     1800     2100   
                                         GEOM     BASIS   MCVARS    GRID      RKS  

 PROGRAMS   *        TOTAL        KS       INT
 CPU TIMES  *         2.08      1.66      0.28
 REAL TIME  *         2.42 SEC
 DISK USED  *        47.49 MB      
 **********************************************************************************************************************************


 PROGRAM * Intrinsic Basis Bonding Analysis (IBBA)          Author: G. Knizia

 Molecular orbitals read from record     2100.2  Type=RKS/CANONICAL (state 1.1)
 Fock matrix read from record            2100.2  Type=RKS/TOTAL (state 1.1)
 Orbital energies read from record       2100.2  Type=RKS/CANONICAL (state 1.1)
 Density matrix read from record         2100.2  Type=RKS/CHARGE (state 1.1)

 Number of core orbitals:           1 (   1 )
 Number of closed-shell orbitals:   4 (   4 )
 Number of active  orbitals:        1 (   1 )

 Basis set MINAO-AUTO-PP generated.      Number of basis functions:   8 

 Polarized AO type:                A = (O Ot + (1-O)(1-Ot)) P12
 Orthogonalization method:         Symmetric (Loewdin)
 Localization functional:          L = sum[A,i] <i|n_A|i>^4 -> max

 Localization group 1:   5 orbitals, occupancy  2.000
 Iterative localization: IB/PM,    5 iter; Final gradient 0.58E-08

 Bond order analysis:       [THRPRINT= 0.020]

   CEN ATOM   CEN ATOM     WIBERG.BO      RENORM.BO
     1   O  -   2   H       0.867997       1.000000
     1   O  -   3   H       0.528939       1.000000
     1   O  -   4   H       0.401860       1.000000

     2   H  -   1   O       0.867997       1.000000

     3   H  -   1   O       0.528939       1.000000
     3   H  -   4   H       0.445550       0.869420

     4   H  -   3   H       0.445550       0.869420
     4   H  -   1   O       0.401860       1.000000


 Valency analysis:

   CEN ATOM   TOT.VALENCE
     1   O       1.798796
     2   H       0.868221
     3   H       0.974712
     4   H       0.847410
 Localization group 2:   1 orbitals, occupancy  1.000
 Iterative localization: IB/PM,    1 iter; Final gradient 0.00E+00

 Bond order analysis:       [THRPRINT= 0.020]

   CEN ATOM   CEN ATOM     WIBERG.BO      RENORM.BO
     1   O  -   4   H       0.434371       0.500000
     1   O  -   3   H       0.034430       0.500000


     3   H  -   1   O       0.034430       0.500000

     4   H  -   1   O       0.434371       0.500000


 Valency analysis:

   CEN ATOM   TOT.VALENCE
     1   O       0.470392
     2   H       0.002554
     3   H       0.053850
     4   H       0.454614

 Total charge composition:

   CEN ATOM         s          p       ELECTRONS ->P.CHARGE
     1   O       3.78196    4.75238      8.53434   -0.53434
     2   H       0.63826                 0.63826    0.36174
     3   H       0.86867                 0.86867    0.13133
     4   H       0.95873                 0.95873    0.04127

 Total charge composition, AO contributions:

   CEN ATOM SHL      SPHERICAL COMPONENTS
     1   O  1s       1.99802
     1   O  2s       1.78393
     1   O  2p       1.22161    1.53077    2.00000

     2   H  1s       0.63826

     3   H  1s       0.86867

     4   H  1s       0.95873

 Active orbital charges:

   CEN ATOM         s          p       ELECTRONS ->SPIN.DEN
     1   O       0.00250    0.61917      0.62167    0.62167
     2   H       0.00128                 0.00128    0.00128
     3   H       0.02769                 0.02769    0.02769
     4   H       0.34936                 0.34936    0.34936

 Active orbital charges, AO contributions:

   CEN ATOM SHL      SPHERICAL COMPONENTS
     1   O  1s       0.00002
     1   O  2s       0.00248
     1   O  2p       0.60772    0.01145    0.00000

     2   H  1s       0.00128

     3   H  1s       0.02769

     4   H  1s       0.34936

 Summary of localized orbital composition:   [THRPRINT= 0.020]

   ORB  GRP  ORB.ENERGY      CENTERS/CHARGES
     1   1   -18.690903      O  1   2.000
     2   1    -0.732862      O  1   1.363   H  2   0.637
     3   1    -0.677902      O  1   1.952   H  4   0.029
     4   1    -0.480230      H  3   0.822   O  1   0.597   H  4   0.580
     5   1    -0.268444      O  1   2.000
     6   2    -0.243763      O  1   0.622   H  4   0.349   H  3   0.028

 Localized orbitals saved to record      2100.2  (orbital set 2)


 **********************************************************************************************************************************
 DATASETS  * FILE   NREC   LENGTH (MB)   RECORD NAMES
              1      20       33.76       500      610      700      900      950      970     1000      129      960     1100   
                                          VAR    BASINP    GEOM    SYMINP    ZMAT    AOBASIS   BASIS     P2S    ABASIS      S 
                                         1400     1410     1200     1210     1080     1600     1650     1300     1700     1800   
                                           T        V       H0       H01     AOSYM     SMH    MOLCAS    ERIS     OPER     GRID   

              2       5        2.89       700     1000      520     1800     2100   
                                         GEOM     BASIS   MCVARS    GRID      RKS  

 PROGRAMS   *        TOTAL      IBBA        KS       INT
 CPU TIMES  *         2.10      0.02      1.66      0.28
 REAL TIME  *         2.47 SEC
 DISK USED  *        47.49 MB      
 **********************************************************************************************************************************
 Molecular orbitals read from record     2100.2  Type=RKS/LOCAL(IBO)  
 Occupation numbers read from record     2100.2  Type=RKS/LOCAL(IBO)  
 Orbital energies read from record       2100.2  Type=RKS/LOCAL(IBO)  
 Redundancy group numbers read from rec  2100.2  Type=RKS/LOCAL(IBO)  

 IBBA/aug-cc-pVDZ energy=      0.000000000000

        KS-SCF  
    -76.89926830
 **********************************************************************************************************************************
 Molpro calculation terminated
