
 Primary working directories    : /local
 Secondary working directories  : /local
 Wavefunction directory         : /local/
 Main file repository           : /local/

 SHA1      : b4a5b34a9e711420743f49e6833241d17c61fb3c
 NAME      : 2099.9.b4a5b34
 ARCHNAME  : linux/x86_64_openmp
 FC        : /cm/shared/languages/GCC-6.1/bin/gfortran
 BLASLIB   : -lblas
 id        : simonbennie

 Nodes     nprocs
 node32-019    1

 Using customized tuning parameters: mindgm=1; mindgv=20; mindgc=4; mindgr=1; noblas=0; minvec=7
 default implementation of scratch files=df  

 memory,500,m
 geomtyp=xyz
 nosym
 noorient
 geometry={
 O         -0.30106       -0.10805       -0.00001
 H         -0.42795        0.85157        0.00002
 H          1.01549       -0.10037        0.00012
 H          1.82097        0.11319       -0.00007
 }
 basis={ default,avtz }
 {uks,M06-2X,direct;wf,11,1,1}
 {ibba,bonds=1}

 Variables initialized (895), CPU time= 0.00 sec
 Commands  initialized (725), CPU time= 0.01 sec, 591 directives.
 Default parameters read. Elapsed time= 0.09 sec

 Checking input...
 Passed
1


                                         ***  PROGRAM SYSTEM MOLPRO  ***
                                       Copyright, TTI GmbH Stuttgart, 2015
                                    Version 2099.9 linked May 26 2017 16:03:21


 **********************************************************************************************************************************
 LABEL *                                                                                 
  64 bit serial version                                                                  DATE: 24-Jun-17          TIME: 05:29:04  
 **********************************************************************************************************************************

 SHA1:             b4a5b34a9e711420743f49e6833241d17c61fb3c
 **********************************************************************************************************************************
 SETTING GEOMTYP        =    XYZ

 Variable memory set to  500000000 words,  buffer space 

 ZSYMEL=NOSYM

 SETTING BASIS          =    AVTZ


 Recomputing integrals since basis changed


 Using spherical harmonics

 Library entry O      S aug-cc-pVTZ          selected for orbital group  1
 Library entry O      P aug-cc-pVTZ          selected for orbital group  1
 Library entry O      D aug-cc-pVTZ          selected for orbital group  1
 Library entry O      F aug-cc-pVTZ          selected for orbital group  1
 Library entry H      S aug-cc-pVTZ          selected for orbital group  2
 Library entry H      P aug-cc-pVTZ          selected for orbital group  2
 Library entry H      D aug-cc-pVTZ          selected for orbital group  2


 PROGRAM * SEWARD (Integral evaluation for generally contracted gaussian basis sets)     Author: Roland Lindh, 1990

 Geometry written to block  1 of record 700


 Point group  C1  



 ATOMIC COORDINATES

 NR  ATOM    CHARGE       X              Y              Z

   1  O       8.00   -0.568920947   -0.204184908   -0.000018897
   2  H       1.00   -0.808708295    1.609234076    0.000037795
   3  H       1.00    1.918997982   -0.189671811    0.000226767
   4  H       1.00    3.441134581    0.213898100   -0.000132281

 Bond lengths in Bohr (Angstrom)

 1-2  1.829203757  1-3  2.487961272  3-4  1.574728112
     ( 0.967972942)     ( 1.316572407)     ( 0.833310230)

 Bond angles

  1-3-4  165.48482331   2-1-3   97.19826261

 NUCLEAR CHARGE:                   11
 NUMBER OF PRIMITIVE AOS:         148
 NUMBER OF SYMMETRY AOS:          133
 NUMBER OF CONTRACTIONS:          115   ( 115A   )
 NUMBER OF CORE ORBITALS:           1   (   1A   )
 NUMBER OF VALENCE ORBITALS:        7   (   7A   )


 NUCLEAR REPULSION ENERGY   10.73783922

 Eigenvalues of metric

         1 0.244E-04 0.231E-03 0.379E-03 0.662E-03 0.157E-02 0.217E-02 0.298E-02 0.410E-02


 Contracted 2-electron integrals neglected if value below      1.0D-12
 AO integral compression algorithm  1   Integral accuracy      1.0D-12

     123.208 MB (compressed) written to integral file ( 55.3%)


 NUMBER OF SORTED TWO-ELECTRON INTEGRALS:   22247785.     BUFFER LENGTH:  32768
 NUMBER OF SEGMENTS:   2  SEGMENT LENGTH:   15997996      RECORD LENGTH: 524288

 Memory used in sort:      16.56 MW

 SORT1 READ    27857919. AND WROTE    21590006. INTEGRALS IN     62 RECORDS. CPU TIME:     0.32 SEC, REAL TIME:     0.63 SEC
 SORT2 READ    21590006. AND WROTE    22247785. INTEGRALS IN    470 RECORDS. CPU TIME:     0.68 SEC, REAL TIME:     0.86 SEC

 FILE SIZES:   FILE 1:   153.7 MBYTE,  FILE 4:   260.1 MBYTE,   TOTAL:    413.8 MBYTE

 OPERATOR DM      FOR CENTER  0  COORDINATES:    0.000000    0.000000    0.000000


 **********************************************************************************************************************************
 DATASETS  * FILE   NREC   LENGTH (MB)   RECORD NAMES
              1      19      131.07       500      610      700      900      950      970     1000      129      960     1100   
                                          VAR    BASINP    GEOM    SYMINP    ZMAT    AOBASIS   BASIS     P2S    ABASIS      S 
                                         1400     1410     1200     1210     1080     1600     1650     1300     1700   
                                           T        V       H0       H01     AOSYM     SMH    MOLCAS    ERIS     OPER   

 PROGRAMS   *        TOTAL       INT
 CPU TIMES  *         2.29      2.14
 REAL TIME  *         3.32 SEC
 DISK USED  *       414.13 MB      
 **********************************************************************************************************************************

 Density functional group M06-2X=XC-M06-2X
 Functional: XC-M06-2X(via MFM 1.6)                                            Gradient terms: 1
 Use grid at  1800.2


 Exact exchange will be calculated, factor:  0.5400

 Functional: XC-M06-2X                 Factor:  1.0000

 Generated new metagrid on record  1800.2 with target accuracy 1.0D-06 and 13274 points in CPU time    0.2
 Computed new grid on record 1800.1 in CPU time    0.2
   95290 words reserved for DFT integration

 PROGRAM * UKS-SCF (Unrestricted Kohn-Sham)     Authors: W. Meyer, H.-J. Werner, P.J. Knowles, 1993

 NUMBER OF ELECTRONS:       6+    5-    SPACE SYMMETRY=1    SPIN SYMMETRY: Doublet 
 CONVERGENCE THRESHOLDS:    1.00E-05 (Density)    1.00E-06 (Energy)
 MAX. NUMBER OF ITERATIONS:       60
 INTERPOLATION TYPE:            DIIS
 INTERPOLATION STEPS:              2 (START)      1 (STEP)
 LEVEL SHIFTS:                 -0.20 (ALPHA)  -0.20 (BETA) 



 Use fine grid record 1800.2 for energy threshold  1.0D-06
 Orbital guess generated from atomic densities. Full valence occupancy:    8

 Molecular orbital dump at record        2200.2

 Initial alpha occupation   6
 Initial beta  occupation   5

 ITERATION    DDIFF          GRAD             ENERGY        2-EL.EN.            DIPOLE MOMENTS         DIIS
    1      0.000D+00      0.000D+00       -76.84374322     89.832200    1.01485    0.94382    0.00006    0
    2      0.893D-02      0.285D-02       -76.88029731     85.605249    0.43312    0.58407    0.00003    1
    3      0.322D-02      0.195D-02       -76.89191984     87.010481    0.48144    0.63576    0.00004    2
    4      0.121D-02      0.338D-03       -76.89386445     86.980360    0.39999    0.61606    0.00004    3
    5      0.132D-02      0.193D-03       -76.89481276     86.946760    0.33172    0.60574    0.00004    4
    6      0.573D-03      0.944D-04       -76.89514610     86.901841    0.28463    0.60379    0.00004    5
    7      0.476D-03      0.412D-04       -76.89522077     86.897672    0.26085    0.60345    0.00004    6
    8      0.107D-03      0.155D-04       -76.89522877     86.891960    0.25368    0.60288    0.00004    7
    9      0.622D-04      0.544D-05       -76.89522956     86.892209    0.25235    0.60257    0.00004    7
   10      0.197D-04      0.218D-05       -76.89522970     86.892126    0.25222    0.60245    0.00004    7
   11      0.997D-05      0.715D-06       -76.89522971     86.892080    0.25218    0.60240    0.00004    7
   12      0.191D-05      0.146D-06       -76.89522972     86.892125    0.25217    0.60240    0.00004    7

 Final alpha occupancy:   6
 Final beta  occupancy:   5

 !UKS STATE 1.1 Energy                -76.895229715144
 Nuclear energy                        10.73783922
 One-electron energy                 -126.47920822
 Two-electron energy                   43.44606261
 Density functional                    -4.59992332     XC-M06-2X=-4.59992332
 Virial quotient                       -1.00501769
 !UKS STATE 1.1 Dipole moment           0.25217461     0.60239558     0.00003655
 Dipole moment /Debye                   0.64092193     1.53103656     0.00009290

 Orbital energies for positive spin:

         1.1          2.1          3.1          4.1          5.1          6.1          7.1          8.1
    -19.675764    -1.141241    -0.613749    -0.543550    -0.429182    -0.395003    -0.002826     0.016451

 Orbital energies for negative spin:

         1.1          2.1          3.1          4.1          5.1          6.1          7.1          8.1
    -19.662736    -1.090391    -0.558541    -0.485572    -0.400578    -0.119963     0.003495     0.033150

 HOMO      6.1    -0.395003 =     -10.7486eV
 LUMO     -6.1    -0.119963 =      -3.2644eV
 LUMO-HOMO         0.275041 =       7.4842eV

 EXPECTATION VALUE OF S**2:             0.76094274

 Occupation number threshold for canonical orbitals:  1.999000 (occupied),  0.001000 (virtual)

 Number of pseudo-canonical orbitals per symmetry:    4
 Number of active natural orbitals per symmetry:      3

 Natural orbitals saved to record    2200.2 (Orbital set 3)

 Orbital spaces for UNO-CAS (Min. occupation: 0.020  Max. occupation: 1.980):

 Closed:        5
 Active:        1


 **********************************************************************************************************************************
 DATASETS  * FILE   NREC   LENGTH (MB)   RECORD NAMES
              1      20      131.50       500      610      700      900      950      970     1000      129      960     1100   
                                          VAR    BASINP    GEOM    SYMINP    ZMAT    AOBASIS   BASIS     P2S    ABASIS      S 
                                         1400     1410     1200     1210     1080     1600     1650     1300     1700     1800   
                                           T        V       H0       H01     AOSYM     SMH    MOLCAS    ERIS     OPER     GRID   

              2       5        3.35       700     1000      520     1800     2200   
                                         GEOM     BASIS   MCVARS    GRID      UKS  

 PROGRAMS   *        TOTAL       UKS       INT
 CPU TIMES  *        26.71     24.42      2.14
 REAL TIME  *        28.64 SEC
 DISK USED  *       414.13 MB      
 **********************************************************************************************************************************


 PROGRAM * Intrinsic Basis Bonding Analysis (IBBA)          Author: G. Knizia

 Molecular orbitals read from record     2200.2  Type=UKS/ALPHA (state 1.1)
 Fock matrix read from record            2200.2  Type=UKS/TOTAL (state 1.1)
 Orbital energies read from record       2200.2  Type=UKS/ALPHA (state 1.1)
 Density matrix read from record         2200.2  Type=UKS/CHARGE (state 1.1)

 Number of core orbitals:           1 (   1 )
 Number of closed-shell orbitals:   4 (   4 )
 Number of active  orbitals:        1 (   1 )

 Basis set MINAO-AUTO-PP generated.      Number of basis functions:   8 

 Polarized AO type:                A = (O Ot + (1-O)(1-Ot)) P12
 Orthogonalization method:         Symmetric (Loewdin)
 Localization functional:          L = sum[A,i] <i|n_A|i>^4 -> max

 Localization group 1:   5 orbitals, occupancy  2.000
 Iterative localization: IB/PM,    5 iter; Final gradient 0.25E-09

 Bond order analysis:       [THRPRINT= 0.020]

   CEN ATOM   CEN ATOM     WIBERG.BO      RENORM.BO
     1   O  -   2   H       0.843126       1.000000
     1   O  -   3   H       0.630055       1.000000
     1   O  -   4   H       0.432118       1.000000

     2   H  -   1   O       0.843126       1.000000

     3   H  -   1   O       0.630055       1.000000
     3   H  -   4   H       0.267181       0.869624

     4   H  -   1   O       0.432118       1.000000
     4   H  -   3   H       0.267181       0.869624


 Valency analysis:

   CEN ATOM   TOT.VALENCE
     1   O       1.905299
     2   H       0.843732
     3   H       0.897284
     4   H       0.699859
 Localization group 2:   1 orbitals, occupancy  1.000
 Iterative localization: IB/PM,    1 iter; Final gradient 0.00E+00

 Bond order analysis:       [THRPRINT= 0.020]

   CEN ATOM   CEN ATOM     WIBERG.BO      RENORM.BO
     1   O  -   4   H       0.429885       0.500000
     1   O  -   3   H       0.068057       0.500000


     3   H  -   1   O       0.068057       0.500000
     3   H  -   4   H       0.061765       0.500000

     4   H  -   1   O       0.429885       0.500000
     4   H  -   3   H       0.061765       0.500000


 Valency analysis:

   CEN ATOM   TOT.VALENCE
     1   O       0.499644
     2   H       0.003491
     3   H       0.130067
     4   H       0.493195

 Total charge composition:

   CEN ATOM         s          p       ELECTRONS ->P.CHARGE
     1   O       3.77508    4.97524      8.75031   -0.75031
     2   H       0.60644                 0.60644    0.39356
     3   H       0.74943                 0.74943    0.25057
     4   H       0.89382                 0.89382    0.10618

 Total charge composition, AO contributions:

   CEN ATOM SHL      SPHERICAL COMPONENTS
     1   O  1s       1.99785
     1   O  2s       1.77723
     1   O  2p       1.40223    1.57300    2.00000

     2   H  1s       0.60644

     3   H  1s       0.74943

     4   H  1s       0.89382

 Active orbital charges:

   CEN ATOM         s          p       ELECTRONS ->SPIN.DEN
     1   O       0.00710    0.47956      0.48666    0.48666
     2   H       0.00175                 0.00175    0.00175
     3   H       0.06992                 0.06992    0.06992
     4   H       0.44167                 0.44167    0.44167

 Active orbital charges, AO contributions:

   CEN ATOM SHL      SPHERICAL COMPONENTS
     1   O  1s       0.00004
     1   O  2s       0.00706
     1   O  2p       0.47640    0.00316    0.00000

     2   H  1s       0.00175

     3   H  1s       0.06992

     4   H  1s       0.44167

 Summary of localized orbital composition:   [THRPRINT= 0.020]

   ORB  GRP  ORB.ENERGY      CENTERS/CHARGES
     1   1   -19.519794      O  1   2.000
     2   1    -0.916374      O  1   1.395   H  2   0.604
     3   1    -0.842498      O  1   1.964   H  4   0.022
     4   1    -0.593378      O  1   0.905   H  3   0.665   H  4   0.430
     5   1    -0.414581      O  1   2.000
     6   2    -0.258504      O  1   0.487   H  4   0.442   H  3   0.070

 Localized orbitals saved to record      2200.2  (orbital set 4)


 **********************************************************************************************************************************
 DATASETS  * FILE   NREC   LENGTH (MB)   RECORD NAMES
              1      20      131.50       500      610      700      900      950      970     1000      129      960     1100   
                                          VAR    BASINP    GEOM    SYMINP    ZMAT    AOBASIS   BASIS     P2S    ABASIS      S 
                                         1400     1410     1200     1210     1080     1600     1650     1300     1700     1800   
                                           T        V       H0       H01     AOSYM     SMH    MOLCAS    ERIS     OPER     GRID   

              2       5        3.46       700     1000      520     1800     2200   
                                         GEOM     BASIS   MCVARS    GRID      UKS  

 PROGRAMS   *        TOTAL      IBBA       UKS       INT
 CPU TIMES  *        26.74      0.02     24.42      2.14
 REAL TIME  *        28.69 SEC
 DISK USED  *       414.13 MB      
 **********************************************************************************************************************************
 Molecular orbitals read from record     2200.2  Type=UKS/LOCAL(IBO)  
 Occupation numbers read from record     2200.2  Type=UKS/LOCAL(IBO)  
 Orbital energies read from record       2200.2  Type=UKS/LOCAL(IBO)  
 Redundancy group numbers read from rec  2200.2  Type=UKS/BETA (state 1.1)

 IBBA/aug-cc-pVTZ energy=      0.000000000000

        UKS-SCF 
    -76.89522972
 **********************************************************************************************************************************
 Molpro calculation terminated
