
 Primary working directories    : /local/molpro.iWMp6RPfWR
 Secondary working directories  : /local/molpro.iWMp6RPfWR
 Wavefunction directory         : /local/
 Main file repository           : /local/molpro.iWMp6RPfWR/

 id        : simonbennie

 Nodes     nprocs
 node35-048    1

 Using customized tuning parameters: mindgm=1; mindgv=20; mindgc=4; mindgr=1; noblas=0; minvec=7
 default implementation of scratch files=df  

 memory,500,m
 geomtyp=xyz
 nosym
 noorient
 geometry={
 O         -0.30106       -0.10805       -0.00001
 H         -0.42795        0.85157        0.00002
 H          1.01549       -0.10037        0.00012
 H          1.82097        0.11319       -0.00007
 }
 basis={default,sto-3g}
 {hf,direct;wf,11,1,1}
 
 basis={ default,6-31+G(d,p) }
 {hf;wf,11,1,1}
 {rDCSD,direct;wf,11,1,1}
 {ibba,bonds=1}

 Variables initialized (920), CPU time= 0.01 sec
 Commands  initialized (754), CPU time= 0.01 sec, 615 directives.
 Default parameters read. Elapsed time= 0.11 sec

 Checking input...
 Passed
1


                                         ***  PROGRAM SYSTEM MOLPRO  ***
                                       Copyright, TTI GmbH Stuttgart, 2015
                                    Version 2018.0 linked Jul  6 2018 18:07:13


 **********************************************************************************************************************************
 LABEL *                                                                                 
  64 bit serial version                                                                  DATE: 10-Oct-18          TIME: 15:22:13  
 **********************************************************************************************************************************

 SHA1:             b58f8fddb9d75525be9261ebe3faf0e4279c479b
 **********************************************************************************************************************************
 SETTING GEOMTYP        =    XYZ

 Variable memory set to  500000000 words,  buffer space 

 ZSYMEL=NOSYM

 SETTING BASIS          =    STO-3G


 Recomputing integrals since basis changed


 Using spherical harmonics

 Library entry O      S STO-3G               selected for orbital group  1
 Library entry O      P STO-3G               selected for orbital group  1
 Library entry H      S STO-3G               selected for orbital group  2


 PROGRAM * SEWARD (Integral evaluation for generally contracted gaussian basis sets)     Author: Roland Lindh, 1990

 Geometry written to block  1 of record 700


 Point group  C1  



 ATOMIC COORDINATES

 NR  ATOM    CHARGE       X              Y              Z

   1  O       8.00   -0.568920947   -0.204184908   -0.000018897
   2  H       1.00   -0.808708295    1.609234076    0.000037795
   3  H       1.00    1.918997982   -0.189671811    0.000226767
   4  H       1.00    3.441134581    0.213898100   -0.000132281

 Bond lengths in Bohr (Angstrom)

 1-2  1.829203757  1-3  2.487961272  3-4  1.574728112
     ( 0.967972942)     ( 1.316572407)     ( 0.833310230)

 Bond angles

  1-3-4  165.48482331   2-1-3   97.19826261

 NUCLEAR CHARGE:                   11
 NUMBER OF PRIMITIVE AOS:          24
 NUMBER OF SYMMETRY AOS:           24
 NUMBER OF CONTRACTIONS:            8   (   8A   )
 NUMBER OF CORE ORBITALS:           1   (   1A   )
 NUMBER OF VALENCE ORBITALS:        7   (   7A   )


 NUCLEAR REPULSION ENERGY   10.73783922

 Eigenvalues of metric

         1 0.324E+00 0.382E+00 0.830E+00 0.954E+00 0.100E+01 0.112E+01 0.146E+01 0.193E+01


 Contracted 2-electron integrals neglected if value below      1.0D-11
 AO integral compression algorithm  1   Integral accuracy      1.0D-11

     0.262 MB (compressed) written to integral file (100.0%)


 NUMBER OF SORTED TWO-ELECTRON INTEGRALS:        666.     BUFFER LENGTH:  32768
 NUMBER OF SEGMENTS:   1  SEGMENT LENGTH:        666      RECORD LENGTH: 524288

 Memory used in sort:       0.56 MW

 SORT1 READ         863. AND WROTE         579. INTEGRALS IN      1 RECORDS. CPU TIME:     0.00 SEC, REAL TIME:     0.03 SEC
 SORT2 READ         579. AND WROTE         666. INTEGRALS IN      1 RECORDS. CPU TIME:     0.00 SEC, REAL TIME:     0.00 SEC

 FILE SIZES:   FILE 1:    30.2 MBYTE,  FILE 4:     4.2 MBYTE,   TOTAL:     34.5 MBYTE

 OPERATOR DM      FOR CENTER  0  COORDINATES:    0.000000    0.000000    0.000000


 **********************************************************************************************************************************
 DATASETS  * FILE   NREC   LENGTH (MB)   RECORD NAMES
              1      19       29.99       500      610      700      900      950      970     1000      129      960     1100   
                                          VAR    BASINP    GEOM    SYMINP    ZMAT    AOBASIS   BASIS     P2S    ABASIS      S 
                                         1400     1410     1200     1210     1080     1600     1650     1300     1700   
                                           T        V       H0       H01     AOSYM     SMH    MOLCAS    ERIS     OPER   

 PROGRAMS   *        TOTAL       INT
 CPU TIMES  *         0.62      0.45
 REAL TIME  *         1.06 SEC
 DISK USED  *        34.79 MB
 **********************************************************************************************************************************


 PROGRAM * RHF-SCF (OPEN SHELL)       Authors: W. Meyer, H.-J. Werner


 NUMBER OF ELECTRONS:       6+    5-    SPACE SYMMETRY=1    SPIN SYMMETRY: Doublet 
 CONVERGENCE THRESHOLDS:    1.00E-05 (Density)    1.00E-07 (Energy)
 INTEGRAL THRESHOLDS:       1.00E-11 (Initial)    1.00E-11 (Final)
 MAX. NUMBER OF ITERATIONS:       60
 INTERPOLATION TYPE:            DIIS
 INTERPOLATION STEPS:              2 (START)      1 (STEP)
 LEVEL SHIFTS:                 -0.60 (CLOSED) -0.30 (OPEN) 



 Orbital guess generated from atomic densities. Full valence occupancy:    6

 Molecular orbital dump at record        2100.2

 Initial alpha occupancy:   6
 Initial beta  occupancy:   5
 Wave function symmetry:    1

 Direct Fock-matrix evaluation.        Author: H.-J. Werner (1996)

 Integral Threshold:                  0.1D-10

 ITERATION   DDIFF            GRAD            ENERGY        2-EL.EN.            DIPOLE MOMENTS         DIIS   CPU(IT)  CPU(TOT)
    1      0.000D+00      0.000D+00       -75.26577749     83.993874    1.25738    1.07875    0.00005    0      1.5      2.7     start
    2      0.000D+00      0.583D-01       -75.40556740     80.016190    0.23783    0.61987    0.00005    1      0.8      3.5     diag,B
    3      0.910D-01      0.136D-01       -75.42065957     79.324201    0.02330    0.52571    0.00004    2      0.8      4.2     diag,B
    4      0.219D-01      0.866D-02       -75.43322147     79.122736   -0.09800    0.50071    0.00004    3      0.7      5.0     diag,B
    5      0.285D-01      0.431D-02       -75.43617553     79.034923   -0.17867    0.49862    0.00004    4      0.6      5.6     diag,B
    6      0.137D-01      0.166D-02       -75.43659532     78.989245   -0.22456    0.49817    0.00004    5      0.6      6.2     diag,B
    7      0.549D-02      0.658D-03       -75.43670224     78.980092   -0.24416    0.49817    0.00004    6      0.6      6.8     fixocc
    8      0.281D-02      0.284D-03       -75.43672160     78.977456   -0.24766    0.49708    0.00004    7      0.6      7.3     diag,B
    9      0.130D-02      0.108D-03       -75.43672335     78.976264   -0.24933    0.49656    0.00004    8      0.5      7.9     diag,B
   10      0.679D-03      0.569D-04       -75.43672370     78.976009   -0.24881    0.49642    0.00004    9      0.6      8.4     orth
   11      0.224D-03      0.125D-04       -75.43672372     78.976128   -0.24875    0.49642    0.00004    9      0.5      9.0     diag,B
   12      0.310D-04      0.408D-05       -75.43672372     78.976172   -0.24875    0.49644    0.00004    9      0.8      9.7     diag,B
   13      0.157D-04      0.991D-06       -75.43672372     78.976149   -0.24876    0.49644    0.00004    9      0.8     10.5     diag,B
   14      0.244D-05      0.359D-06       -75.43672372     78.976153   -0.24876    0.49644    0.00004    0      0.7     11.2     orth

 Final alpha occupancy:   6
 Final beta  occupancy:   5

 !RHF STATE  1.1 Energy               -75.436723718472
 Nuclear energy                        10.73783922
 One-electron energy                 -125.66263924
 Two-electron energy                   39.48807630
 Virial quotient                       -1.00272034
 !RHF STATE  1.1 Dipole moment         -0.24876157     0.49644089     0.00004411
 Dipole moment /Debye                  -0.63224743     1.26174423     0.00011210

 Orbital energies:

         1.1          2.1          3.1          4.1          5.1          6.1          7.1          8.1
    -20.305680    -1.254129    -0.600233    -0.511456    -0.433725    -0.476043     0.602175     0.748693


 HOMO      6.1    -0.476043 =     -12.9538eV
 LUMO      7.1     0.602175 =      16.3860eV
 LUMO-HOMO         1.078217 =      29.3398eV


 **********************************************************************************************************************************
 DATASETS  * FILE   NREC   LENGTH (MB)   RECORD NAMES
              1      19       29.99       500      610      700      900      950      970     1000      129      960     1100   
                                          VAR    BASINP    GEOM    SYMINP    ZMAT    AOBASIS   BASIS     P2S    ABASIS      S 
                                         1400     1410     1200     1210     1080     1600     1650     1300     1700   
                                           T        V       H0       H01     AOSYM     SMH    MOLCAS    ERIS     OPER   

              2       4        2.80       700     1000      520     2100   
                                         GEOM     BASIS   MCVARS     RHF  

 PROGRAMS   *        TOTAL    HF-SCF       INT
 CPU TIMES  *        11.83     11.20      0.45
 REAL TIME  *        17.68 SEC
 DISK USED  *        34.79 MB
 **********************************************************************************************************************************
 SETTING BASIS          =    6-31+G(D,P)


 Recomputing integrals since basis changed


 Using spherical harmonics

 Library entry O      S 6-31G                selected for orbital group  1
 Library entry O      S 6-31++G              selected for orbital group  1
 Library entry O      P 6-31G                selected for orbital group  1
 Library entry O      P 6-31++G              selected for orbital group  1
 Library entry O      D 6-31G*               selected for orbital group  1
 Library entry H      S 6-31G                selected for orbital group  2
 Library entry H      P 6-31G**              selected for orbital group  2


 PROGRAM * SEWARD (Integral evaluation for generally contracted gaussian basis sets)     Author: Roland Lindh, 1990

 Geometry written to block  1 of record 700


 Point group  C1  



 ATOMIC COORDINATES

 NR  ATOM    CHARGE       X              Y              Z

   1  O       8.00   -0.568920947   -0.204184908   -0.000018897
   2  H       1.00   -0.808708295    1.609234076    0.000037795
   3  H       1.00    1.918997982   -0.189671811    0.000226767
   4  H       1.00    3.441134581    0.213898100   -0.000132281

 Bond lengths in Bohr (Angstrom)

 1-2  1.829203757  1-3  2.487961272  3-4  1.574728112
     ( 0.967972942)     ( 1.316572407)     ( 0.833310230)

 Bond angles

  1-3-4  165.48482331   2-1-3   97.19826261

 NUCLEAR CHARGE:                   11
 NUMBER OF PRIMITIVE AOS:          53
 NUMBER OF SYMMETRY AOS:           52
 NUMBER OF CONTRACTIONS:           33   (  33A   )
 NUMBER OF CORE ORBITALS:           1   (   1A   )
 NUMBER OF VALENCE ORBITALS:        7   (   7A   )


 NUCLEAR REPULSION ENERGY   10.73783922

 Eigenvalues of metric

         1 0.209E-01 0.343E-01 0.545E-01 0.103E+00 0.162E+00 0.173E+00 0.224E+00 0.226E+00


 Contracted 2-electron integrals neglected if value below      1.0D-11
 AO integral compression algorithm  1   Integral accuracy      1.0D-11

     0.786 MB (compressed) written to integral file ( 61.9%)


 NUMBER OF SORTED TWO-ELECTRON INTEGRALS:     157641.     BUFFER LENGTH:  32768
 NUMBER OF SEGMENTS:   1  SEGMENT LENGTH:     157641      RECORD LENGTH: 524288

 Memory used in sort:       0.71 MW

 SORT1 READ      203835. AND WROTE      143213. INTEGRALS IN      1 RECORDS. CPU TIME:     0.01 SEC, REAL TIME:     0.01 SEC
 SORT2 READ      143213. AND WROTE      157641. INTEGRALS IN      3 RECORDS. CPU TIME:     0.01 SEC, REAL TIME:     0.02 SEC

 FILE SIZES:   FILE 1:    30.8 MBYTE,  FILE 4:     4.2 MBYTE,   TOTAL:     35.0 MBYTE

 OPERATOR DM      FOR CENTER  0  COORDINATES:    0.000000    0.000000    0.000000


 **********************************************************************************************************************************
 DATASETS  * FILE   NREC   LENGTH (MB)   RECORD NAMES
              1      19       30.64       500      610      700      900      950      970     1001      129      960     1100   
                                          VAR    BASINP    GEOM    SYMINP    ZMAT    AOBASIS   BASIS     P2S    ABASIS      S 
                                         1400     1410     1200     1210     1080     1600     1650     1300     1700   
                                           T        V       H0       H01     AOSYM     SMH    MOLCAS    ERIS     OPER   

              2       5        2.81       700     1000      520     2100     1001   
                                         GEOM     BASIS   MCVARS     RHF     BASIS   

 PROGRAMS   *        TOTAL       INT    HF-SCF       INT
 CPU TIMES  *        12.07      0.24     11.20      0.45
 REAL TIME  *        17.98 SEC
 DISK USED  *        37.90 MB
 **********************************************************************************************************************************


 PROGRAM * RHF-SCF (OPEN SHELL)       Authors: W. Meyer, H.-J. Werner


 NUMBER OF ELECTRONS:       6+    5-    SPACE SYMMETRY=1    SPIN SYMMETRY: Doublet 
 CONVERGENCE THRESHOLDS:    1.00E-05 (Density)    1.00E-07 (Energy)
 MAX. NUMBER OF ITERATIONS:       60
 INTERPOLATION TYPE:            DIIS
 INTERPOLATION STEPS:              2 (START)      1 (STEP)
 LEVEL SHIFTS:                 -0.60 (CLOSED) -0.30 (OPEN) 



 Molecular orbitals read from record     2100.2  Type=RHF/CANONICAL (state 1.1)

 Present basis size:      33
 Previous basis size:      8
 Previous occupation:      6
 Previous closed-shells:   5
 Previous core-orbitals:   1
 Present occupation:       6
 Present closed-shells:    5
 Present core-orbitals:    1
 Wavefunction symmetry:    1   Doublet 

 Orbital overlap <old|new>:  < 1.1| 1.1> = 0.999844   < 2.1| 2.1> = 0.999564   < 3.1| 3.1> = 0.999014   < 4.1| 4.1> = 0.998910
                             < 5.1| 5.1> = 0.995801   < 6.1| 6.1> = 0.996455


 Molecular orbital dump at record        2101.2

 ITERATION    DDIFF          GRAD             ENERGY        2-EL.EN.            DIPOLE MOMENTS         DIIS   ORB.
    1      0.000D+00      0.000D+00       -76.32705737     80.561638   -0.24358    0.49529    0.00004    0    start
    2      0.000D+00      0.307D-01       -76.44898205     78.058236   -0.27133    0.43506    0.00003    1    diag,B
    3      0.168D-01      0.875D-02       -76.46954232     78.191501   -0.21338    0.55174    0.00003    2    diag,B
    4      0.699D-02      0.407D-02       -76.47705947     78.006501   -0.17618    0.64313    0.00004    3    diag,B
    5      0.498D-02      0.162D-02       -76.47871695     78.017893   -0.14053    0.70071    0.00004    4    diag,B
    6      0.304D-02      0.489D-03       -76.47890684     78.014580   -0.12289    0.71449    0.00005    5    diag,B
    7      0.905D-03      0.193D-03       -76.47896080     78.025648   -0.11043    0.71722    0.00005    6    diag,B
    8      0.352D-03      0.104D-03       -76.47898704     78.030801   -0.09995    0.71906    0.00005    7    orth
    9      0.259D-03      0.557D-04       -76.47899644     78.035548   -0.09198    0.71984    0.00005    8    diag,B
   10      0.194D-03      0.180D-04       -76.47899707     78.035275   -0.09060    0.72036    0.00005    9    diag,B
   11      0.495D-04      0.750D-05       -76.47899716     78.035545   -0.09051    0.72044    0.00005    9    diag,B
   12      0.133D-04      0.382D-05       -76.47899719     78.035408   -0.09062    0.72048    0.00005    9    diag,B
   13      0.786D-05      0.155D-05       -76.47899719     78.035250   -0.09075    0.72048    0.00005    0    orth

 Final alpha occupancy:   6
 Final beta  occupancy:   5

 !RHF STATE  1.1 Energy               -76.478997193901
 Nuclear energy                        10.73783922
 One-electron energy                 -126.23446144
 Two-electron energy                   39.01762503
 Virial quotient                       -1.00082537
 !RHF STATE  1.1 Dipole moment         -0.09074758     0.72047642     0.00004733
 Dipole moment /Debye                  -0.23064225     1.83114845     0.00012030

 Orbital energies:

         1.1          2.1          3.1          4.1          5.1          6.1          7.1          8.1
    -20.638670    -1.341493    -0.692103    -0.595943    -0.549178    -0.564360     0.164482     0.227712


 HOMO      6.1    -0.564360 =     -15.3570eV
 LUMO      7.1     0.164482 =       4.4758eV
 LUMO-HOMO         0.728842 =      19.8328eV


 **********************************************************************************************************************************
 DATASETS  * FILE   NREC   LENGTH (MB)   RECORD NAMES
              1      19       30.64       500      610      700      900      950      970     1001      129      960     1100   
                                          VAR    BASINP    GEOM    SYMINP    ZMAT    AOBASIS   BASIS     P2S    ABASIS      S 
                                         1400     1410     1200     1210     1080     1600     1650     1300     1700   
                                           T        V       H0       H01     AOSYM     SMH    MOLCAS    ERIS     OPER   

              2       6        5.33       700     1000      520     2100     1001     2101   
                                         GEOM     BASIS   MCVARS     RHF     BASIS     RHF  

 PROGRAMS   *        TOTAL    HF-SCF       INT    HF-SCF       INT
 CPU TIMES  *        12.24      0.17      0.24     11.20      0.45
 REAL TIME  *        18.20 SEC
 DISK USED  *        37.90 MB
 **********************************************************************************************************************************


 PROGRAM * CCSD (Restricted open-shell coupled cluster)     Authors: C. Hampel, H.-J. Werner, 1991, M. Deegan, P.J. Knowles, 1992

                              Distinguishable Cluster modification by D. Kats, 2013

 Convergence thresholds:  THRVAR = 1.00D-08  THRDEN = 1.00D-06

 Number of core orbitals:           1 (   1 )
 Number of closed-shell orbitals:   4 (   4 )
 Number of active  orbitals:        1 (   1 )
 Number of external orbitals:      27 (  27 )

 Number of N-1 electron functions:               9
 Number of N-2 electron functions:              36
 Number of singly external CSFs:               252
 Number of doubly external CSFs:             21728
 Total number of CSFs:                       21980

 Molecular orbitals read from record     2101.2  Type=RHF/CANONICAL (state 1.1)

 Integral transformation finished. Total CPU:   0.01 sec, npass=  1  Memory used:   0.22 MW

 Starting RMP2 calculation, locsing= 0

 Wavefunction is spin-projected

 ITER.      SQ.NORM     CORR.ENERGY   TOTAL ENERGY   ENERGY CHANGE        DEN1      VAR(S)    VAR(P)  DIIS     TIME
   1      1.05747464    -0.19776266   -76.67675985    -0.19776266    -0.00078241  0.44D-04  0.27D-03  1  1     0.01
   2      1.05826647    -0.19861988   -76.67761707    -0.00085722    -0.00000573  0.14D-05  0.19D-05  2  2     0.01
   3      1.05832149    -0.19865074   -76.67764794    -0.00003086    -0.00000007  0.38D-07  0.17D-07  3  3     0.01
   4      1.05832509    -0.19865242   -76.67764962    -0.00000168    -0.00000000  0.86D-09  0.18D-09  4  4     0.02
   5      1.05832523    -0.19865243   -76.67764963    -0.00000001    -0.00000000  0.14D-10  0.15D-11  5  5     0.02

 Norm of t1 vector:      0.04513209      S-energy:    -0.00409536      T1 diagnostic:  0.00171568
 Norm of t2 vector:      0.23725160      P-energy:    -0.19455707
                                         Alpha-Beta:  -0.15004094
                                         Alpha-Alpha: -0.02684629
                                         Beta-Beta:   -0.01766985

 Spin contamination <S**2-Sz**2-Sz>     0.00000000
  Reference energy                    -76.478997193901
  RHF-RMP2 correlation energy          -0.198652433886
 !RHF-RMP2 energy                     -76.677649627787
 (NB above energy spin projected)

 Starting RDCSD calculation

 ITER.      SQ.NORM     CORR.ENERGY   TOTAL ENERGY   ENERGY CHANGE        DEN1      VAR(S)    VAR(P)  DIIS     TIME
   1      1.06926881    -0.21086219   -76.68985939    -0.21086219    -0.00820941  0.30D-02  0.16D-02  1  1     0.06
   2      1.08450008    -0.22059242   -76.69958961    -0.00973023    -0.00129143  0.57D-03  0.29D-03  2  2     0.09
   3      1.09792486    -0.22415056   -76.70314776    -0.00355815    -0.00038812  0.37D-03  0.27D-04  3  3     0.13
   4      1.10842348    -0.22590122   -76.70489842    -0.00175066    -0.00010029  0.77D-04  0.13D-04  4  4     0.17
   5      1.11786091    -0.22700323   -76.70600043    -0.00110201    -0.00001104  0.71D-05  0.19D-05  5  5     0.20
   6      1.11999906    -0.22717066   -76.70616785    -0.00016742    -0.00000142  0.90D-06  0.22D-06  6  6     0.23
   7      1.12021001    -0.22718780   -76.70618499    -0.00001714    -0.00000040  0.31D-06  0.41D-07  6  3     0.27
   8      1.12036823    -0.22719807   -76.70619526    -0.00001027    -0.00000008  0.60D-07  0.10D-07  6  1     0.31
   9      1.12041492    -0.22720067   -76.70619787    -0.00000260    -0.00000001  0.80D-08  0.23D-08  6  2     0.34
  10      1.12042156    -0.22720041   -76.70619760     0.00000027    -0.00000000  0.87D-09  0.43D-09  6  4     0.38

 Norm of t1 vector:      0.18856744      S-energy:    -0.00635022      T1 diagnostic:  0.04032924
                                                                       D1 diagnostic:  0.10697512
 Norm of t2 vector:      0.29131406      P-energy:    -0.22085018
                                         Alpha-Beta:  -0.17731203
                                         Alpha-Alpha: -0.02525219
                                         Beta-Beta:   -0.01828596

 Singles amplitudes (print threshold =  0.500E-01):

         I         SYM. A    A   T(IA) [Beta-Beta]

         3         1         1      0.14541223

 Doubles amplitudes (print threshold =  0.500E-01):

         I         J         SYM. A    SYM. B    A         B      T(IJ, AB) [Alpha-Beta]

         5         3         1         1         6         1     -0.06601250

 Spin contamination <S**2-Sz**2-Sz>     0.00000000


 RESULTS
 =======

  Reference energy                    -76.478997193901
  RDCSD singles energy                 -0.006350222897
  RDCSD pair energy                    -0.220850182331
  RDCSD correlation energy             -0.227200405228

 !RHF-RDCSD energy                    -76.706197599129
  SCS-RDCSD total energy              -76.722638857121
 (using cOS= 1.050 cSS= 1.150 cO= 0.150)

 Program statistics:

 Available memory in ccsd:               499999744
 Min. memory needed in ccsd:                 89243
 Max. memory used in ccsd:                  112302
 Max. memory used in cckext:                134482 (10 integral passes)
 Max. memory used in cckint:                220504 ( 1 integral passes)



 **********************************************************************************************************************************
 DATASETS  * FILE   NREC   LENGTH (MB)   RECORD NAMES
              1      19       30.64       500      610      700      900      950      970     1001      129      960     1100   
                                          VAR    BASINP    GEOM    SYMINP    ZMAT    AOBASIS   BASIS     P2S    ABASIS      S 
                                         1400     1410     1200     1210     1080     1600     1650     1300     1700   
                                           T        V       H0       H01     AOSYM     SMH    MOLCAS    ERIS     OPER   

              2       6        5.33       700     1000      520     2100     1001     2101   
                                         GEOM     BASIS   MCVARS     RHF     BASIS     RHF  

 PROGRAMS   *        TOTAL     RDCSD    HF-SCF       INT    HF-SCF       INT
 CPU TIMES  *        12.67      0.43      0.17      0.24     11.20      0.45
 REAL TIME  *        18.73 SEC
 DISK USED  *        41.95 MB
 **********************************************************************************************************************************


 PROGRAM * Intrinsic Basis Bonding Analysis (IBBA)          Author: G. Knizia

 Molecular orbitals read from record     2101.2  Type=RHF/CANONICAL (state 1.1)
 Fock matrix read from record            2101.2  Type=RHF/TOTAL (state 1.1)
 Orbital energies read from record       2101.2  Type=RHF/CANONICAL (state 1.1)
 Density matrix read from record         2101.2  Type=RHF/CHARGE (state 1.1)

 Number of core orbitals:           1 (   1 )
 Number of closed-shell orbitals:   4 (   4 )
 Number of active  orbitals:        1 (   1 )

 Basis set MINAO-AUTO-PP generated.      Number of basis functions:   8 

 Polarized AO type:                A = (O Ot + (1-O)(1-Ot)) P12
 Orthogonalization method:         Symmetric (Loewdin)
 Localization functional:          L = sum[A,i] <i|n_A|i>^4 -> max

 Localization group 1:   5 orbitals, occupancy  2.000
 Iterative localization: IB/PM,    5 iter; Final gradient 0.19E-09

 Bond order analysis:       [THRPRINT= 0.020]

   CEN ATOM   CEN ATOM     WIBERG.BO      RENORM.BO
     1   O  -   2   H       0.851268       1.000000
     1   O  -   3   H       0.263920       1.000000
     1   O  -   4   H       0.255731       1.000000

     2   H  -   1   O       0.851268       1.000000

     3   H  -   4   H       0.728395       0.908144
     3   H  -   1   O       0.263920       1.000000

     4   H  -   3   H       0.728395       0.908144
     4   H  -   1   O       0.255731       1.000000


 Valency analysis:

   CEN ATOM   TOT.VALENCE
     1   O       1.370918
     2   H       0.852191
     3   H       0.993197
     4   H       0.984167
 Localization group 2:   1 orbitals, occupancy  1.000
 Iterative localization: IB/PM,    1 iter; Final gradient 0.00E+00

 Bond order analysis:       [THRPRINT= 0.020]

   CEN ATOM   CEN ATOM     WIBERG.BO      RENORM.BO
     1   O  -   4   H       0.265168       0.500000



     4   H  -   1   O       0.265168       0.500000


 Valency analysis:

   CEN ATOM   TOT.VALENCE
     1   O       0.279699
     2   H       0.002096
     3   H       0.015251
     4   H       0.267952

 Total charge composition:

   CEN ATOM         s          p       ELECTRONS ->P.CHARGE
     1   O       3.78499    4.63966      8.42466   -0.42466
     2   H       0.61659                 0.61659    0.38341
     3   H       0.92521                 0.92521    0.07479
     4   H       1.03355                 1.03355   -0.03355

 Total charge composition, AO contributions:

   CEN ATOM SHL      SPHERICAL COMPONENTS
     1   O  1s       1.99785
     1   O  2s       1.78714
     1   O  2p       1.08273    1.55693    2.00000

     2   H  1s       0.61659

     3   H  1s       0.92521

     4   H  1s       1.03355

 Active orbital charges:

   CEN ATOM         s          p       ELECTRONS ->SPIN.DEN
     1   O       0.00167    0.83022      0.83189    0.83189
     2   H       0.00105                 0.00105    0.00105
     3   H       0.00768                 0.00768    0.00768
     4   H       0.15938                 0.15938    0.15938

 Active orbital charges, AO contributions:

   CEN ATOM SHL      SPHERICAL COMPONENTS
     1   O  1s       0.00001
     1   O  2s       0.00165
     1   O  2p       0.81418    0.01604    0.00000

     2   H  1s       0.00105

     3   H  1s       0.00768

     4   H  1s       0.15938

 Summary of localized orbital composition:   [THRPRINT= 0.020]

   ORB  GRP  ORB.ENERGY      CENTERS/CHARGES
     1   1   -20.468888      O  1   2.000
     2   1    -1.084168      O  1   1.385   H  2   0.615
     3   1    -1.067941      O  1   1.958   H  4   0.022   H  3   0.020
     4   1    -0.647230      H  3   0.897   H  4   0.852   O  1   0.250
     5   1    -0.549186      O  1   2.000
     6   2    -0.233171      O  1   0.832   H  4   0.159

 Localized orbitals saved to record      2101.2  (orbital set 2)


 **********************************************************************************************************************************
 DATASETS  * FILE   NREC   LENGTH (MB)   RECORD NAMES
              1      19       30.64       500      610      700      900      950      970     1001      129      960     1100   
                                          VAR    BASINP    GEOM    SYMINP    ZMAT    AOBASIS   BASIS     P2S    ABASIS      S 
                                         1400     1410     1200     1210     1080     1600     1650     1300     1700   
                                           T        V       H0       H01     AOSYM     SMH    MOLCAS    ERIS     OPER   

              2       6        5.34       700     1000      520     2100     1001     2101   
                                         GEOM     BASIS   MCVARS     RHF     BASIS     RHF  

 PROGRAMS   *        TOTAL      IBBA     RDCSD    HF-SCF       INT    HF-SCF       INT
 CPU TIMES  *        12.69      0.02      0.43      0.17      0.24     11.20      0.45
 REAL TIME  *        18.76 SEC
 DISK USED  *        41.95 MB
 **********************************************************************************************************************************

 IBBA/6-31+G(D,P) energy=      0.000000000000

           RDCSD          HF-SCF          HF-SCF
    -76.70619760    -76.47899719    -75.43672372
 **********************************************************************************************************************************
 Molpro calculation terminated
