
 Primary working directories    : /local
 Secondary working directories  : /local
 Wavefunction directory         : /local/
 Main file repository           : /local/

 SHA1      : b4a5b34a9e711420743f49e6833241d17c61fb3c
 NAME      : 2099.9.b4a5b34
 ARCHNAME  : linux/x86_64_openmp
 FC        : /cm/shared/languages/GCC-6.1/bin/gfortran
 BLASLIB   : -lblas
 id        : simonbennie

 Nodes     nprocs
 node32-045    1

 Using customized tuning parameters: mindgm=1; mindgv=20; mindgc=4; mindgr=1; noblas=0; minvec=7
 default implementation of scratch files=df  

 memory,500,m
 geomtyp=xyz
 nosym
 noorient
 geometry={
 O         -0.30106       -0.10805       -0.00001
 H         -0.42795        0.85157        0.00002
 H          1.01549       -0.10037        0.00012
 H          1.82097        0.11319       -0.00007
 }
 basis={ default,avdz }
 {uks,M05-2X,direct;wf,11,1,1}
 {ibba,bonds=1}

 Variables initialized (895), CPU time= 0.01 sec
 Commands  initialized (725), CPU time= 0.01 sec, 591 directives.
 Default parameters read. Elapsed time= 0.07 sec

 Checking input...
 Passed
1


                                         ***  PROGRAM SYSTEM MOLPRO  ***
                                       Copyright, TTI GmbH Stuttgart, 2015
                                    Version 2099.9 linked May 26 2017 16:03:21


 **********************************************************************************************************************************
 LABEL *                                                                                 
  64 bit serial version                                                                  DATE: 24-Jun-17          TIME: 05:12:00  
 **********************************************************************************************************************************

 SHA1:             b4a5b34a9e711420743f49e6833241d17c61fb3c
 **********************************************************************************************************************************
 SETTING GEOMTYP        =    XYZ

 Variable memory set to  500000000 words,  buffer space 

 ZSYMEL=NOSYM

 SETTING BASIS          =    AVDZ


 Recomputing integrals since basis changed


 Using spherical harmonics

 Library entry O      S aug-cc-pVDZ          selected for orbital group  1
 Library entry O      P aug-cc-pVDZ          selected for orbital group  1
 Library entry O      D aug-cc-pVDZ          selected for orbital group  1
 Library entry H      S aug-cc-pVDZ          selected for orbital group  2
 Library entry H      P aug-cc-pVDZ          selected for orbital group  2


 PROGRAM * SEWARD (Integral evaluation for generally contracted gaussian basis sets)     Author: Roland Lindh, 1990

 Geometry written to block  1 of record 700


 Point group  C1  



 ATOMIC COORDINATES

 NR  ATOM    CHARGE       X              Y              Z

   1  O       8.00   -0.568920947   -0.204184908   -0.000018897
   2  H       1.00   -0.808708295    1.609234076    0.000037795
   3  H       1.00    1.918997982   -0.189671811    0.000226767
   4  H       1.00    3.441134581    0.213898100   -0.000132281

 Bond lengths in Bohr (Angstrom)

 1-2  1.829203757  1-3  2.487961272  3-4  1.574728112
     ( 0.967972942)     ( 1.316572407)     ( 0.833310230)

 Bond angles

  1-3-4  165.48482331   2-1-3   97.19826261

 NUCLEAR CHARGE:                   11
 NUMBER OF PRIMITIVE AOS:          70
 NUMBER OF SYMMETRY AOS:           68
 NUMBER OF CONTRACTIONS:           50   (  50A   )
 NUMBER OF CORE ORBITALS:           1   (   1A   )
 NUMBER OF VALENCE ORBITALS:        7   (   7A   )


 NUCLEAR REPULSION ENERGY   10.73783922

 Eigenvalues of metric

         1 0.204E-03 0.287E-02 0.346E-02 0.716E-02 0.125E-01 0.221E-01 0.294E-01 0.355E-01


 Contracted 2-electron integrals neglected if value below      1.0D-11
 AO integral compression algorithm  1   Integral accuracy      1.0D-11

     4.456 MB (compressed) written to integral file ( 48.8%)


 NUMBER OF SORTED TWO-ELECTRON INTEGRALS:     813450.     BUFFER LENGTH:  32768
 NUMBER OF SEGMENTS:   1  SEGMENT LENGTH:     813450      RECORD LENGTH: 524288

 Memory used in sort:       1.37 MW

 SORT1 READ     1096515. AND WROTE      775331. INTEGRALS IN      3 RECORDS. CPU TIME:     0.01 SEC, REAL TIME:     0.02 SEC
 SORT2 READ      775331. AND WROTE      813450. INTEGRALS IN     17 RECORDS. CPU TIME:     0.05 SEC, REAL TIME:     0.06 SEC

 FILE SIZES:   FILE 1:    34.5 MBYTE,  FILE 4:    12.6 MBYTE,   TOTAL:     47.2 MBYTE

 OPERATOR DM      FOR CENTER  0  COORDINATES:    0.000000    0.000000    0.000000


 **********************************************************************************************************************************
 DATASETS  * FILE   NREC   LENGTH (MB)   RECORD NAMES
              1      19       33.35       500      610      700      900      950      970     1000      129      960     1100   
                                          VAR    BASINP    GEOM    SYMINP    ZMAT    AOBASIS   BASIS     P2S    ABASIS      S 
                                         1400     1410     1200     1210     1080     1600     1650     1300     1700   
                                           T        V       H0       H01     AOSYM     SMH    MOLCAS    ERIS     OPER   

 PROGRAMS   *        TOTAL       INT
 CPU TIMES  *         0.45      0.30
 REAL TIME  *         0.74 SEC
 DISK USED  *        47.49 MB      
 **********************************************************************************************************************************

 Density functional group M05-2X=XC-M05-2X
 Functional: XC-M05-2X(via MFM 1.6)                                            Gradient terms: 1
 Use grid at  1800.2


 Exact exchange will be calculated, factor:  0.5600

 Functional: XC-M05-2X                 Factor:  1.0000

 Generated new metagrid on record  1800.2 with target accuracy 1.0D-06 and 12814 points in CPU time    0.2
 Computed new grid on record 1800.1 in CPU time    0.2
   43564 words reserved for DFT integration

 PROGRAM * UKS-SCF (Unrestricted Kohn-Sham)     Authors: W. Meyer, H.-J. Werner, P.J. Knowles, 1993

 NUMBER OF ELECTRONS:       6+    5-    SPACE SYMMETRY=1    SPIN SYMMETRY: Doublet 
 CONVERGENCE THRESHOLDS:    1.00E-05 (Density)    1.00E-06 (Energy)
 MAX. NUMBER OF ITERATIONS:       60
 INTERPOLATION TYPE:            DIIS
 INTERPOLATION STEPS:              2 (START)      1 (STEP)
 LEVEL SHIFTS:                 -0.20 (ALPHA)  -0.20 (BETA) 



 Use fine grid record 1800.2 for energy threshold  1.0D-06
 Orbital guess generated from atomic densities. Full valence occupancy:    8

 Molecular orbital dump at record        2200.2

 Initial alpha occupation   6
 Initial beta  occupation   5

 ITERATION    DDIFF          GRAD             ENERGY        2-EL.EN.            DIPOLE MOMENTS         DIIS
    1      0.000D+00      0.000D+00       -76.87517090     89.266482    0.98544    0.93286    0.00006    0
    2      0.204D-01      0.624D-02       -76.91544012     85.267664    0.43384    0.57952    0.00003    1
    3      0.789D-02      0.392D-02       -76.92777355     86.585303    0.47535    0.63218    0.00004    2
    4      0.369D-02      0.850D-03       -76.93239153     86.512146    0.38083    0.61251    0.00004    3
    5      0.216D-02      0.529D-03       -76.93522198     86.476602    0.30953    0.60918    0.00004    4
    6      0.241D-02      0.326D-03       -76.93716451     86.408962    0.23088    0.60892    0.00004    5
    7      0.176D-02      0.135D-03       -76.93772135     86.393404    0.19015    0.60832    0.00004    6
    8      0.376D-03      0.389D-04       -76.93783002     86.387923    0.18087    0.60773    0.00004    7
    9      0.595D-04      0.124D-04       -76.93783845     86.388518    0.18103    0.60758    0.00004    8
   10      0.327D-04      0.671D-05       -76.93785288     86.388593    0.18079    0.60744    0.00004    7
   11      0.153D-04      0.321D-05       -76.93784939     86.388345    0.18093    0.60736    0.00004    8
   12      0.946D-05      0.139D-05       -76.93784989     86.388450    0.18077    0.60731    0.00004    9
   13      0.317D-05      0.315D-06       -76.93784911     86.388394    0.18073    0.60730    0.00004    8

 Final alpha occupancy:   6
 Final beta  occupancy:   5

 !UKS STATE 1.1 Energy                -76.937849110933
 Nuclear energy                        10.73783922
 One-electron energy                 -126.39319527
 Two-electron energy                   43.19419718
 Density functional                    -4.47669023     XC-M05-2X=-4.47669023
 Virial quotient                       -1.00719012
 !UKS STATE 1.1 Dipole moment           0.18072653     0.60729745     0.00004070
 Dipole moment /Debye                   0.45933094     1.54349505     0.00010343

 Orbital energies for positive spin:

         1.1          2.1          3.1          4.1          5.1          6.1          7.1          8.1
    -19.744424    -1.145131    -0.623874    -0.550802    -0.430903    -0.401516     0.028978     0.050316

 Orbital energies for negative spin:

         1.1          2.1          3.1          4.1          5.1          6.1          7.1          8.1
    -19.726686    -1.100687    -0.570378    -0.489224    -0.413821    -0.110587     0.036550     0.076551

 HOMO      6.1    -0.401516 =     -10.9258eV
 LUMO     -6.1    -0.110587 =      -3.0092eV
 LUMO-HOMO         0.290929 =       7.9166eV

 EXPECTATION VALUE OF S**2:             0.75988836

 Occupation number threshold for canonical orbitals:  1.999000 (occupied),  0.001000 (virtual)

 Number of pseudo-canonical orbitals per symmetry:    4
 Number of active natural orbitals per symmetry:      3

 Natural orbitals saved to record    2200.2 (Orbital set 3)

 Orbital spaces for UNO-CAS (Min. occupation: 0.020  Max. occupation: 1.980):

 Closed:        5
 Active:        1


 **********************************************************************************************************************************
 DATASETS  * FILE   NREC   LENGTH (MB)   RECORD NAMES
              1      20       33.76       500      610      700      900      950      970     1000      129      960     1100   
                                          VAR    BASINP    GEOM    SYMINP    ZMAT    AOBASIS   BASIS     P2S    ABASIS      S 
                                         1400     1410     1200     1210     1080     1600     1650     1300     1700     1800   
                                           T        V       H0       H01     AOSYM     SMH    MOLCAS    ERIS     OPER     GRID   

              2       5        2.91       700     1000      520     1800     2200   
                                         GEOM     BASIS   MCVARS    GRID      UKS  

 PROGRAMS   *        TOTAL       UKS       INT
 CPU TIMES  *         6.03      5.58      0.30
 REAL TIME  *         6.55 SEC
 DISK USED  *        47.49 MB      
 **********************************************************************************************************************************


 PROGRAM * Intrinsic Basis Bonding Analysis (IBBA)          Author: G. Knizia

 Molecular orbitals read from record     2200.2  Type=UKS/ALPHA (state 1.1)
 Fock matrix read from record            2200.2  Type=UKS/TOTAL (state 1.1)
 Orbital energies read from record       2200.2  Type=UKS/ALPHA (state 1.1)
 Density matrix read from record         2200.2  Type=UKS/CHARGE (state 1.1)

 Number of core orbitals:           1 (   1 )
 Number of closed-shell orbitals:   4 (   4 )
 Number of active  orbitals:        1 (   1 )

 Basis set MINAO-AUTO-PP generated.      Number of basis functions:   8 

 Polarized AO type:                A = (O Ot + (1-O)(1-Ot)) P12
 Orthogonalization method:         Symmetric (Loewdin)
 Localization functional:          L = sum[A,i] <i|n_A|i>^4 -> max

 Localization group 1:   5 orbitals, occupancy  2.000
 Iterative localization: IB/PM,    5 iter; Final gradient 0.31E-09

 Bond order analysis:       [THRPRINT= 0.020]

   CEN ATOM   CEN ATOM     WIBERG.BO      RENORM.BO
     1   O  -   2   H       0.845647       1.000000
     1   O  -   3   H       0.647976       1.000000
     1   O  -   4   H       0.417398       1.000000

     2   H  -   1   O       0.845647       1.000000

     3   H  -   1   O       0.647976       1.000000
     3   H  -   4   H       0.242656       0.868272

     4   H  -   1   O       0.417398       1.000000
     4   H  -   3   H       0.242656       0.868272


 Valency analysis:

   CEN ATOM   TOT.VALENCE
     1   O       1.911021
     2   H       0.846352
     3   H       0.890680
     4   H       0.660713
 Localization group 2:   1 orbitals, occupancy  1.000
 Iterative localization: IB/PM,    1 iter; Final gradient 0.00E+00

 Bond order analysis:       [THRPRINT= 0.020]

   CEN ATOM   CEN ATOM     WIBERG.BO      RENORM.BO
     1   O  -   4   H       0.419420       0.500000
     1   O  -   3   H       0.076889       0.500000


     3   H  -   1   O       0.076889       0.500000
     3   H  -   4   H       0.073588       0.500000

     4   H  -   1   O       0.419420       0.500000
     4   H  -   3   H       0.073588       0.500000


 Valency analysis:

   CEN ATOM   TOT.VALENCE
     1   O       0.497965
     2   H       0.003531
     3   H       0.150767
     4   H       0.494592

 Total charge composition:

   CEN ATOM         s          p       ELECTRONS ->P.CHARGE
     1   O       3.77054    5.00266      8.77320   -0.77320
     2   H       0.60979                 0.60979    0.39021
     3   H       0.75149                 0.75149    0.24851
     4   H       0.86552                 0.86552    0.13448

 Total charge composition, AO contributions:

   CEN ATOM SHL      SPHERICAL COMPONENTS
     1   O  1s       1.99788
     1   O  2s       1.77267
     1   O  2p       1.43017    1.57249    2.00000

     2   H  1s       0.60979

     3   H  1s       0.75149

     4   H  1s       0.86552

 Active orbital charges:

   CEN ATOM         s          p       ELECTRONS ->SPIN.DEN
     1   O       0.00870    0.45940      0.46810    0.46810
     2   H       0.00177                 0.00177    0.00177
     3   H       0.08213                 0.08213    0.08213
     4   H       0.44800                 0.44800    0.44800

 Active orbital charges, AO contributions:

   CEN ATOM SHL      SPHERICAL COMPONENTS
     1   O  1s       0.00005
     1   O  2s       0.00866
     1   O  2p       0.45724    0.00215    0.00000

     2   H  1s       0.00177

     3   H  1s       0.08213

     4   H  1s       0.44800

 Summary of localized orbital composition:   [THRPRINT= 0.020]

   ORB  GRP  ORB.ENERGY      CENTERS/CHARGES
     1   1   -19.587750      O  1   2.000
     2   1    -0.931383      O  1   1.391   H  2   0.608
     3   1    -0.841645      O  1   1.966   H  4   0.022
     4   1    -0.594949      O  1   0.948   H  3   0.656   H  4   0.395
     5   1    -0.422182      O  1   2.000
     6   2    -0.260301      O  1   0.468   H  4   0.448   H  3   0.082

 Localized orbitals saved to record      2200.2  (orbital set 4)


 **********************************************************************************************************************************
 DATASETS  * FILE   NREC   LENGTH (MB)   RECORD NAMES
              1      20       33.76       500      610      700      900      950      970     1000      129      960     1100   
                                          VAR    BASINP    GEOM    SYMINP    ZMAT    AOBASIS   BASIS     P2S    ABASIS      S 
                                         1400     1410     1200     1210     1080     1600     1650     1300     1700     1800   
                                           T        V       H0       H01     AOSYM     SMH    MOLCAS    ERIS     OPER     GRID   

              2       5        2.93       700     1000      520     1800     2200   
                                         GEOM     BASIS   MCVARS    GRID      UKS  

 PROGRAMS   *        TOTAL      IBBA       UKS       INT
 CPU TIMES  *         6.05      0.02      5.58      0.30
 REAL TIME  *         6.64 SEC
 DISK USED  *        47.49 MB      
 **********************************************************************************************************************************
 Molecular orbitals read from record     2200.2  Type=UKS/LOCAL(IBO)  
 Occupation numbers read from record     2200.2  Type=UKS/LOCAL(IBO)  
 Orbital energies read from record       2200.2  Type=UKS/LOCAL(IBO)  
 Redundancy group numbers read from rec  2200.2  Type=UKS/BETA (state 1.1)

 IBBA/aug-cc-pVDZ energy=      0.000000000000

        UKS-SCF 
    -76.93784911
 **********************************************************************************************************************************
 Molpro calculation terminated
