
 Primary working directories    : /local
 Secondary working directories  : /local
 Wavefunction directory         : /local/
 Main file repository           : /local/

 SHA1      : b4a5b34a9e711420743f49e6833241d17c61fb3c
 NAME      : 2099.9.b4a5b34
 ARCHNAME  : linux/x86_64_openmp
 FC        : /cm/shared/languages/GCC-6.1/bin/gfortran
 BLASLIB   : -lblas
 id        : simonbennie

 Nodes     nprocs
 node32-043    1

 Using customized tuning parameters: mindgm=1; mindgv=20; mindgc=4; mindgr=1; noblas=0; minvec=7
 default implementation of scratch files=df  

 memory,500,m
 geomtyp=xyz
 nosym
 noorient
 geometry={
 O         -0.30106       -0.10805       -0.00001
 H         -0.42795        0.85157        0.00002
 H          1.01549       -0.10037        0.00012
 H          1.82097        0.11319       -0.00007
 }
 basis={ default,avdz }
 {hf,direct;wf,11,1,1}
 {df-ks,B-LYP,direct;maxit,0;wf,11,1,1}
 {ibba,bonds=1}

 Variables initialized (895), CPU time= 0.00 sec
 Commands  initialized (725), CPU time= 0.01 sec, 591 directives.
 Default parameters read. Elapsed time= 0.15 sec

 Checking input...
 Passed
1


                                         ***  PROGRAM SYSTEM MOLPRO  ***
                                       Copyright, TTI GmbH Stuttgart, 2015
                                    Version 2099.9 linked May 26 2017 16:03:21


 **********************************************************************************************************************************
 LABEL *                                                                                 
  64 bit serial version                                                                  DATE: 17-Mar-18          TIME: 14:15:53  
 **********************************************************************************************************************************

 SHA1:             b4a5b34a9e711420743f49e6833241d17c61fb3c
 **********************************************************************************************************************************
 SETTING GEOMTYP        =    XYZ

 Variable memory set to  500000000 words,  buffer space 

 ZSYMEL=NOSYM

 SETTING BASIS          =    AVDZ


 Recomputing integrals since basis changed


 Using spherical harmonics

 Library entry O      S aug-cc-pVDZ          selected for orbital group  1
 Library entry O      P aug-cc-pVDZ          selected for orbital group  1
 Library entry O      D aug-cc-pVDZ          selected for orbital group  1
 Library entry H      S aug-cc-pVDZ          selected for orbital group  2
 Library entry H      P aug-cc-pVDZ          selected for orbital group  2


 PROGRAM * SEWARD (Integral evaluation for generally contracted gaussian basis sets)     Author: Roland Lindh, 1990

 Geometry written to block  1 of record 700


 Point group  C1  



 ATOMIC COORDINATES

 NR  ATOM    CHARGE       X              Y              Z

   1  O       8.00   -0.568920947   -0.204184908   -0.000018897
   2  H       1.00   -0.808708295    1.609234076    0.000037795
   3  H       1.00    1.918997982   -0.189671811    0.000226767
   4  H       1.00    3.441134581    0.213898100   -0.000132281

 Bond lengths in Bohr (Angstrom)

 1-2  1.829203757  1-3  2.487961272  3-4  1.574728112
     ( 0.967972942)     ( 1.316572407)     ( 0.833310230)

 Bond angles

  1-3-4  165.48482331   2-1-3   97.19826261

 NUCLEAR CHARGE:                   11
 NUMBER OF PRIMITIVE AOS:          70
 NUMBER OF SYMMETRY AOS:           68
 NUMBER OF CONTRACTIONS:           50   (  50A   )
 NUMBER OF CORE ORBITALS:           1   (   1A   )
 NUMBER OF VALENCE ORBITALS:        7   (   7A   )


 NUCLEAR REPULSION ENERGY   10.73783922

 Eigenvalues of metric

         1 0.204E-03 0.287E-02 0.346E-02 0.716E-02 0.125E-01 0.221E-01 0.294E-01 0.355E-01


 Contracted 2-electron integrals neglected if value below      1.0D-11
 AO integral compression algorithm  1   Integral accuracy      1.0D-11

     4.456 MB (compressed) written to integral file ( 48.8%)


 NUMBER OF SORTED TWO-ELECTRON INTEGRALS:     813450.     BUFFER LENGTH:  32768
 NUMBER OF SEGMENTS:   1  SEGMENT LENGTH:     813450      RECORD LENGTH: 524288

 Memory used in sort:       1.37 MW

 SORT1 READ     1096515. AND WROTE      775331. INTEGRALS IN      3 RECORDS. CPU TIME:     0.01 SEC, REAL TIME:     0.03 SEC
 SORT2 READ      775331. AND WROTE      813450. INTEGRALS IN     17 RECORDS. CPU TIME:     0.05 SEC, REAL TIME:     0.06 SEC

 FILE SIZES:   FILE 1:    34.5 MBYTE,  FILE 4:    12.6 MBYTE,   TOTAL:     47.2 MBYTE

 OPERATOR DM      FOR CENTER  0  COORDINATES:    0.000000    0.000000    0.000000


 **********************************************************************************************************************************
 DATASETS  * FILE   NREC   LENGTH (MB)   RECORD NAMES
              1      19       33.35       500      610      700      900      950      970     1000      129      960     1100   
                                          VAR    BASINP    GEOM    SYMINP    ZMAT    AOBASIS   BASIS     P2S    ABASIS      S 
                                         1400     1410     1200     1210     1080     1600     1650     1300     1700   
                                           T        V       H0       H01     AOSYM     SMH    MOLCAS    ERIS     OPER   

 PROGRAMS   *        TOTAL       INT
 CPU TIMES  *         0.43      0.29
 REAL TIME  *         0.87 SEC
 DISK USED  *        47.49 MB      
 **********************************************************************************************************************************


 PROGRAM * RHF-SCF (OPEN SHELL)       Authors: W. Meyer, H.-J. Werner


 NUMBER OF ELECTRONS:       6+    5-    SPACE SYMMETRY=1    SPIN SYMMETRY: Doublet 
 CONVERGENCE THRESHOLDS:    1.00E-05 (Density)    1.00E-07 (Energy)
 INTEGRAL THRESHOLDS:       1.00E-11 (Initial)    1.00E-11 (Final)
 MAX. NUMBER OF ITERATIONS:       60
 INTERPOLATION TYPE:            DIIS
 INTERPOLATION STEPS:              2 (START)      1 (STEP)
 LEVEL SHIFTS:                 -0.60 (CLOSED) -0.30 (OPEN) 



 Orbital guess generated from atomic densities. Full valence occupancy:    8

 Molecular orbital dump at record        2100.2

 Initial alpha occupancy:   6
 Initial beta  occupancy:   5
 Wave function symmetry:    1

 Direct Fock-matrix evaluation.        Author: H.-J. Werner (1996)

 Integral Threshold:                  0.1D-10

 ITERATION   DDIFF            GRAD            ENERGY        2-EL.EN.            DIPOLE MOMENTS         DIIS   CPU(IT)  CPU(TOT)
    1      0.000D+00      0.000D+00       -76.43020979     80.467437    1.00059    0.95153    0.00006    0      0.9      1.7     start
    2      0.000D+00      0.106D-01       -76.47056658     77.860194    0.44262    0.68008    0.00004    1      0.5      2.2     diag,B
    3      0.159D-01      0.433D-02       -76.47639020     78.378899    0.39399    0.67305    0.00004    2      0.5      2.7     diag,B
    4      0.524D-02      0.170D-02       -76.48097220     78.306730    0.26145    0.64600    0.00003    3      0.6      3.3     diag,B
    5      0.393D-02      0.115D-02       -76.48458215     78.250242    0.16023    0.64164    0.00003    4      0.6      3.9     diag,B
    6      0.250D-02      0.895D-03       -76.48872383     78.154440   -0.00432    0.64023    0.00003    5      0.6      4.4     diag,B
    7      0.495D-02      0.435D-03       -76.48903169     78.098687   -0.04606    0.63513    0.00003    6      0.6      5.0     fixocc
    8      0.150D-02      0.285D-03       -76.48928868     78.093334   -0.10160    0.63374    0.00003    7      0.5      5.5     diag,B
    9      0.170D-02      0.147D-03       -76.48931226     78.081261   -0.09600    0.63116    0.00003    8      0.5      6.1     diag,B
   10      0.821D-03      0.991D-04       -76.48934142     78.079865   -0.10861    0.62970    0.00003    9      0.6      6.7     orth
   11      0.435D-03      0.366D-04       -76.48934739     78.079640   -0.11164    0.62860    0.00003    9      0.5      7.2     diag,B
   12      0.235D-03      0.128D-04       -76.48934794     78.079248   -0.11228    0.62819    0.00003    9      0.6      7.8     diag,B
   13      0.503D-04      0.426D-05       -76.48934797     78.079208   -0.11192    0.62816    0.00003    9      0.6      8.4     diag,B
   14      0.441D-04      0.978D-06       -76.48934797     78.079209   -0.11186    0.62816    0.00003    9      0.6      9.0     diag,B
   15      0.718D-05      0.383D-06       -76.48934797     78.079206   -0.11188    0.62816    0.00003    0      0.6      9.7     orth

 Final alpha occupancy:   6
 Final beta  occupancy:   5

 !RHF STATE 1.1 Energy                -76.489347970365
 Nuclear energy                        10.73783922
 One-electron energy                 -126.26679039
 Two-electron energy                   39.03960320
 Virial quotient                       -1.00040199
 !RHF STATE 1.1 Dipole moment          -0.11187575     0.62815802     0.00003454
 Dipole moment /Debye                  -0.28434116     1.59651386     0.00008779

 Orbital energies:

         1.1          2.1          3.1          4.1          5.1          6.1          7.1          8.1
    -20.635868    -1.341451    -0.691462    -0.595486    -0.548467    -0.562115     0.038768     0.065973

 HOMO      6.1    -0.562115 =     -15.2959eV
 LUMO      7.1     0.038768 =       1.0549eV
 LUMO-HOMO         0.600883 =      16.3508eV


 **********************************************************************************************************************************
 DATASETS  * FILE   NREC   LENGTH (MB)   RECORD NAMES
              1      19       33.35       500      610      700      900      950      970     1000      129      960     1100   
                                          VAR    BASINP    GEOM    SYMINP    ZMAT    AOBASIS   BASIS     P2S    ABASIS      S 
                                         1400     1410     1200     1210     1080     1600     1650     1300     1700   
                                           T        V       H0       H01     AOSYM     SMH    MOLCAS    ERIS     OPER   

              2       4        2.87       700     1000      520     2100   
                                         GEOM     BASIS   MCVARS     RHF  

 PROGRAMS   *        TOTAL        HF       INT
 CPU TIMES  *        10.10      9.67      0.29
 REAL TIME  *        11.33 SEC
 DISK USED  *        47.49 MB      
 **********************************************************************************************************************************

 Density functional group B-LYP=B88+LYP
 Functional: B88(Automatically generated (new) B88)                            Gradient terms: 1
 Functional: LYP(Automatically generated (new) LYP)                            Gradient terms: 1
 Use grid at  1800.2

 Functional: B88                       Factor:  1.0000
 Functional: LYP                       Factor:  1.0000

 Generated new metagrid on record  1800.2 with target accuracy 1.0D-06 and 12814 points in CPU time    0.2
 Computed new grid on record 1800.1 in CPU time    0.2
   43564 words reserved for DFT integration

 PROGRAM * RKS-SCF (Restricted open shell Kohn-Sham)     Authors: W. Meyer, H.-J. Werner, P.J. Knowles, 1993

 NUMBER OF ELECTRONS:       6+    5-    SPACE SYMMETRY=1    SPIN SYMMETRY: Doublet 
 CONVERGENCE THRESHOLDS:    1.00E-05 (Density)    1.00E-06 (Energy)
 INTEGRAL THRESHOLDS:       1.00E-11 (Initial)    1.00E-11 (Final)
 MAX. NUMBER OF ITERATIONS:        0
 INTERPOLATION TYPE:            DIIS
 INTERPOLATION STEPS:              2 (START)      1 (STEP)
 LEVEL SHIFTS:                 -0.60 (CLOSED) -0.30 (OPEN) 



 Use fine grid record 1800.2 for energy threshold  1.0D-06

 Basis set AUG-CC-PVDZ/JKFIT generated.  Number of basis functions:   182 
 Coulomb fitting
 Screening thresholds:    THRAO_COUL= 1.0D-14    THRAO= 1.0D-12    THROV= 1.0D-12

 Reserved 0 MW to cache 100.0% of significant integrals. CPU: 0.0 sec

 Molecular orbitals read from record     2100.2  Type=RHF/CANONICAL (state 1.1)

 Molecular orbital dump at record        2101.2

 ITERATION   DDIFF            GRAD            ENERGY        2-EL.EN.            DIPOLE MOMENTS         DIIS   CPU(IT)  CPU(TOT)  ORB.
    1      0.000D+00      0.000D+00       -76.88020482     96.452368   -0.11188    0.62816    0.00003    0      0.1      0.2     start

 Final alpha occupancy:   6
 Final beta  occupancy:   5

 !RKS STATE 1.1 Energy                -76.880204821756
 Nuclear energy                        10.73783922
 One-electron energy                 -126.26679039
 Two-electron energy                   48.22618398
 Density functional                    -9.57743763     B88=-9.22609785 LYP=-0.35133979
 Virial quotient                       -1.00551399
 !RKS STATE 1.1 Dipole moment          -0.11187575     0.62815802     0.00003454
 Dipole moment /Debye                  -0.28434116     1.59651386     0.00008779

 Orbital energies:

         1.1          2.1          3.1          4.1          5.1          6.1          7.1          8.1
    -20.635868    -1.341451    -0.691462    -0.595486    -0.548467    -0.562115     0.038768     0.065973

 HOMO      6.1    -0.562115 =     -15.2959eV
 LUMO      7.1     0.038768 =       1.0549eV
 LUMO-HOMO         0.600883 =      16.3508eV


 **********************************************************************************************************************************
 DATASETS  * FILE   NREC   LENGTH (MB)   RECORD NAMES
              1      20       33.76       500      610      700      900      950      970     1000      129      960     1100   
                                          VAR    BASINP    GEOM    SYMINP    ZMAT    AOBASIS   BASIS     P2S    ABASIS      S 
                                         1400     1410     1200     1210     1080     1600     1650     1300     1700     1800   
                                           T        V       H0       H01     AOSYM     SMH    MOLCAS    ERIS     OPER     GRID   

              2       6        5.46       700     1000      520     2100     1800     2101   
                                         GEOM     BASIS   MCVARS     RHF     GRID      RKS  

 PROGRAMS   *        TOTAL        KS        HF       INT
 CPU TIMES  *        10.52      0.41      9.67      0.29
 REAL TIME  *        11.79 SEC
 DISK USED  *        47.49 MB      
 **********************************************************************************************************************************


 PROGRAM * Intrinsic Basis Bonding Analysis (IBBA)          Author: G. Knizia

 Molecular orbitals read from record     2101.2  Type=RKS/CANONICAL (state 1.1)
 Fock matrix read from record            2101.2  Type=RKS/TOTAL (state 1.1)
 Orbital energies read from record       2101.2  Type=RKS/CANONICAL (state 1.1)
 Density matrix read from record         2101.2  Type=RKS/CHARGE (state 1.1)

 Number of core orbitals:           1 (   1 )
 Number of closed-shell orbitals:   4 (   4 )
 Number of active  orbitals:        1 (   1 )

 Basis set MINAO-AUTO-PP generated.      Number of basis functions:   8 

 Polarized AO type:                A = (O Ot + (1-O)(1-Ot)) P12
 Orthogonalization method:         Symmetric (Loewdin)
 Localization functional:          L = sum[A,i] <i|n_A|i>^4 -> max

 Localization group 1:   5 orbitals, occupancy  2.000
 Iterative localization: IB/PM,    5 iter; Final gradient 0.16E-09

 Bond order analysis:       [THRPRINT= 0.020]

   CEN ATOM   CEN ATOM     WIBERG.BO      RENORM.BO
     1   O  -   2   H       0.851095       1.000000
     1   O  -   3   H       0.264618       1.000000
     1   O  -   4   H       0.256188       1.000000

     2   H  -   1   O       0.851095       1.000000

     3   H  -   4   H       0.727558       0.909281
     3   H  -   1   O       0.264618       1.000000

     4   H  -   3   H       0.727558       0.909281
     4   H  -   1   O       0.256188       1.000000


 Valency analysis:

   CEN ATOM   TOT.VALENCE
     1   O       1.371901
     2   H       0.852056
     3   H       0.993086
     4   H       0.983798
 Localization group 2:   1 orbitals, occupancy  1.000
 Iterative localization: IB/PM,    1 iter; Final gradient 0.00E+00

 Bond order analysis:       [THRPRINT= 0.020]

   CEN ATOM   CEN ATOM     WIBERG.BO      RENORM.BO
     1   O  -   4   H       0.268178       0.500000



     4   H  -   1   O       0.268178       0.500000


 Valency analysis:

   CEN ATOM   TOT.VALENCE
     1   O       0.282874
     2   H       0.002235
     3   H       0.015361
     4   H       0.271042

 Total charge composition:

   CEN ATOM         s          p       ELECTRONS ->P.CHARGE
     1   O       3.78495    4.63961      8.42456   -0.42456
     2   H       0.61648                 0.61648    0.38352
     3   H       0.92459                 0.92459    0.07541
     4   H       1.03436                 1.03436   -0.03436

 Total charge composition, AO contributions:

   CEN ATOM SHL      SPHERICAL COMPONENTS
     1   O  1s       1.99785
     1   O  2s       1.78710
     1   O  2p       1.08196    1.55765    2.00000

     2   H  1s       0.61648

     3   H  1s       0.92459

     4   H  1s       1.03436

 Active orbital charges:

   CEN ATOM         s          p       ELECTRONS ->SPIN.DEN
     1   O       0.00189    0.82760      0.82949    0.82949
     2   H       0.00112                 0.00112    0.00112
     3   H       0.00774                 0.00774    0.00774
     4   H       0.16165                 0.16165    0.16165

 Active orbital charges, AO contributions:

   CEN ATOM SHL      SPHERICAL COMPONENTS
     1   O  1s       0.00001
     1   O  2s       0.00188
     1   O  2p       0.81173    0.01587    0.00000

     2   H  1s       0.00112

     3   H  1s       0.00774

     4   H  1s       0.16165

 Summary of localized orbital composition:   [THRPRINT= 0.020]

   ORB  GRP  ORB.ENERGY      CENTERS/CHARGES
     1   1   -18.702657      O  1   2.000
     2   1    -0.765057      O  1   1.385   H  2   0.615
     3   1    -0.709133      O  1   1.959   H  4   0.021
     4   1    -0.432545      H  3   0.897   H  4   0.851   O  1   0.251
     5   1    -0.280029      O  1   2.000
     6   2    -0.258684      O  1   0.829   H  4   0.162

 Localized orbitals saved to record      2101.2  (orbital set 2)


 **********************************************************************************************************************************
 DATASETS  * FILE   NREC   LENGTH (MB)   RECORD NAMES
              1      20       33.76       500      610      700      900      950      970     1000      129      960     1100   
                                          VAR    BASINP    GEOM    SYMINP    ZMAT    AOBASIS   BASIS     P2S    ABASIS      S 
                                         1400     1410     1200     1210     1080     1600     1650     1300     1700     1800   
                                           T        V       H0       H01     AOSYM     SMH    MOLCAS    ERIS     OPER     GRID   

              2       6        5.49       700     1000      520     2100     1800     2101   
                                         GEOM     BASIS   MCVARS     RHF     GRID      RKS  

 PROGRAMS   *        TOTAL      IBBA        KS        HF       INT
 CPU TIMES  *        10.53      0.01      0.41      9.67      0.29
 REAL TIME  *        11.82 SEC
 DISK USED  *        47.49 MB      
 **********************************************************************************************************************************

 IBBA/aug-cc-pVDZ energy=      0.000000000000

        DF-KS           HF-SCF  
    -76.88020482    -76.48934797
 **********************************************************************************************************************************
 Molpro calculation terminated
