
 Primary working directories    : /local
 Secondary working directories  : /local
 Wavefunction directory         : /local/
 Main file repository           : /local/

 SHA1      : b4a5b34a9e711420743f49e6833241d17c61fb3c
 NAME      : 2099.9.b4a5b34
 ARCHNAME  : linux/x86_64_openmp
 FC        : /cm/shared/languages/GCC-6.1/bin/gfortran
 BLASLIB   : -lblas
 id        : simonbennie

 Nodes     nprocs
 node34-032    1

 Using customized tuning parameters: mindgm=1; mindgv=20; mindgc=4; mindgr=1; noblas=0; minvec=7
 default implementation of scratch files=df  

 memory,500,m
 geomtyp=xyz
 nosym
 noorient
 geometry={
 C          0.00000        0.26481        0.00000
 H          1.05343        0.51667        0.00000
 H         -0.52663        0.51702        0.91225
 H         -0.52663        0.51702       -0.91225
 H         -0.00026       -1.11777        0.00000
 H          0.00008       -2.02183        0.00000
 }
 basis={ default,sto-3g }
 {ks,VWN,direct;wf,11,1,1}
 {ibba,bonds=1}

 Variables initialized (895), CPU time= 0.00 sec
 Commands  initialized (725), CPU time= 0.02 sec, 591 directives.
 Default parameters read. Elapsed time= 0.08 sec

 Checking input...
 Passed
1


                                         ***  PROGRAM SYSTEM MOLPRO  ***
                                       Copyright, TTI GmbH Stuttgart, 2015
                                    Version 2099.9 linked May 26 2017 16:03:21


 **********************************************************************************************************************************
 LABEL *                                                                                 
  64 bit serial version                                                                  DATE: 24-Jun-17          TIME: 05:45:04  
 **********************************************************************************************************************************

 SHA1:             b4a5b34a9e711420743f49e6833241d17c61fb3c
 **********************************************************************************************************************************
 SETTING GEOMTYP        =    XYZ

 Variable memory set to  500000000 words,  buffer space 

 ZSYMEL=NOSYM

 SETTING BASIS          =    STO-3G


 Recomputing integrals since basis changed


 Using spherical harmonics

 Library entry C      S STO-3G               selected for orbital group  1
 Library entry C      P STO-3G               selected for orbital group  1
 Library entry H      S STO-3G               selected for orbital group  2


 PROGRAM * SEWARD (Integral evaluation for generally contracted gaussian basis sets)     Author: Roland Lindh, 1990

 Geometry written to block  1 of record 700


 Point group  C1  



 ATOMIC COORDINATES

 NR  ATOM    CHARGE       X              Y              Z

   1  C       6.00    0.000000000    0.500418375    0.000000000
   2  H       1.00    1.990694191    0.976364797    0.000000000
   3  H       1.00   -0.995186469    0.977026201    1.723902657
   4  H       1.00   -0.995186469    0.977026201   -1.723902657
   5  H       1.00   -0.000491329   -2.112279170    0.000000000
   6  H       1.00    0.000151178   -3.820704970    0.000000000

 Bond lengths in Bohr (Angstrom)

 1-2  2.046799541  1-3  2.046800308  1-4  2.046800308  1-5  2.612697591
     ( 1.083119672)     ( 1.083120078)     ( 1.083120078)     ( 1.382580024)

 Bond angles

  2-1-3  114.75516930   2-1-4  114.75516930   2-1-5  103.45696275   3-1-4  114.75541708

  3-1-5  103.45983296   4-1-5  103.45983296

 NUCLEAR CHARGE:                   11
 NUMBER OF PRIMITIVE AOS:          30
 NUMBER OF SYMMETRY AOS:           30
 NUMBER OF CONTRACTIONS:           10   (  10A   )
 NUMBER OF CORE ORBITALS:           1   (   1A   )
 NUMBER OF VALENCE ORBITALS:        9   (   9A   )


 NUCLEAR REPULSION ENERGY   15.32860217


 Eigenvalues of metric

         1 0.233E+00 0.344E+00 0.356E+00 0.356E+00 0.864E+00 0.991E+00 0.149E+01 0.149E+01


 Contracted 2-electron integrals neglected if value below      1.0D-11
 AO integral compression algorithm  1   Integral accuracy      1.0D-11

     0.262 MB (compressed) written to integral file (100.0%)


 NUMBER OF SORTED TWO-ELECTRON INTEGRALS:       1540.     BUFFER LENGTH:  32768
 NUMBER OF SEGMENTS:   1  SEGMENT LENGTH:       1540      RECORD LENGTH: 524288

 Memory used in sort:       0.56 MW

 SORT1 READ        1894. AND WROTE        1287. INTEGRALS IN      1 RECORDS. CPU TIME:     0.00 SEC, REAL TIME:     0.00 SEC
 SORT2 READ        1287. AND WROTE        1540. INTEGRALS IN      1 RECORDS. CPU TIME:     0.01 SEC, REAL TIME:     0.00 SEC

 FILE SIZES:   FILE 1:    30.3 MBYTE,  FILE 4:     4.2 MBYTE,   TOTAL:     34.5 MBYTE

 OPERATOR DM      FOR CENTER  0  COORDINATES:    0.000000    0.000000    0.000000


 **********************************************************************************************************************************
 DATASETS  * FILE   NREC   LENGTH (MB)   RECORD NAMES
              1      19       30.03       500      610      700      900      950      970     1000      129      960     1100   
                                          VAR    BASINP    GEOM    SYMINP    ZMAT    AOBASIS   BASIS     P2S    ABASIS      S 
                                         1400     1410     1200     1210     1080     1600     1650     1300     1700   
                                           T        V       H0       H01     AOSYM     SMH    MOLCAS    ERIS     OPER   

 PROGRAMS   *        TOTAL       INT
 CPU TIMES  *         0.38      0.22
 REAL TIME  *         1.62 SEC
 DISK USED  *        34.86 MB      
 **********************************************************************************************************************************

 Density functional group VWN=VWN5
 Functional: VWN5(Automatically generated (new) VWN5)                          Gradient terms: 0
 Use grid at  1800.2

 Functional: VWN5                      Factor:  1.0000

 Generated new metagrid on record  1800.2 with target accuracy 1.0D-06 and 17266 points in CPU time    0.4
 Computed new grid on record 1800.1 in CPU time    0.5
    8092 words reserved for DFT integration

 PROGRAM * RKS-SCF (Restricted open shell Kohn-Sham)     Authors: W. Meyer, H.-J. Werner, P.J. Knowles, 1993

 NUMBER OF ELECTRONS:       6+    5-    SPACE SYMMETRY=1    SPIN SYMMETRY: Doublet 
 CONVERGENCE THRESHOLDS:    1.00E-05 (Density)    1.00E-06 (Energy)
 MAX. NUMBER OF ITERATIONS:       60
 INTERPOLATION TYPE:            DIIS
 INTERPOLATION STEPS:              2 (START)      1 (STEP)
 LEVEL SHIFTS:                 -0.60 (CLOSED) -0.30 (OPEN) 



 Use fine grid record 1800.2 for energy threshold  1.0D-06
 Orbital guess generated from atomic densities. Full valence occupancy:    6

 Molecular orbital dump at record        2100.2

 Initial alpha occupancy:   6
 Initial beta  occupancy:   5
 Wave function symmetry:    1

 ITERATION    DDIFF          GRAD             ENERGY        2-EL.EN.            DIPOLE MOMENTS         DIIS   ORB.
    1      0.000D+00      0.000D+00       -33.89341184     69.551684    0.00001    0.02635   -0.00000    0    start
    2      0.000D+00      0.109D-01       -33.89729052     68.630036   -0.00004    0.31351   -0.00000    1    diag,B
    3      0.259D-01      0.583D-02       -33.89880083     68.973243   -0.00002    0.21244   -0.00000    2    diag,B
    4      0.971D-02      0.307D-03       -33.89880785     68.964841   -0.00002    0.21321   -0.00000    3    diag,B
    5      0.562D-03      0.850D-04       -33.89880867     68.962567   -0.00002    0.21446   -0.00000    4    diag,B
    6      0.237D-03      0.138D-04       -33.89880869     68.963158   -0.00002    0.21434   -0.00000    5    diag,B
    7      0.324D-04      0.132D-05       -33.89880869     68.963160   -0.00002    0.21435   -0.00000    6    fixocc
    8      0.321D-05      0.285D-06       -33.89880869     68.963151   -0.00002    0.21435   -0.00000    0    orth

 Final alpha occupancy:   6
 Final beta  occupancy:   5

 !RKS STATE 1.1 Energy                -33.898808688190
 Nuclear energy                        15.32860217
 One-electron energy                  -83.07407685
 Two-electron energy                   34.48157567
 Density functional                    -0.63490968     VWN5=-0.63490968
 Virial quotient                       -0.86269024
 !RKS STATE 1.1 Dipole moment          -0.00002028     0.21434806    -0.00000000
 Dipole moment /Debye                  -0.00005155     0.54478275    -0.00000000

 Orbital energies:

         1.1          2.1          3.1          4.1          5.1          6.1          7.1          8.1
     -7.735568    -0.138083     0.062915     0.105592     0.105594     0.371162     0.862340     0.889072

 HOMO      6.1     0.371162 =      10.0998eV
 LUMO      7.1     0.862340 =      23.4655eV
 LUMO-HOMO         0.491178 =      13.3656eV


 **********************************************************************************************************************************
 DATASETS  * FILE   NREC   LENGTH (MB)   RECORD NAMES
              1      20       30.59       500      610      700      900      950      970     1000      129      960     1100   
                                          VAR    BASINP    GEOM    SYMINP    ZMAT    AOBASIS   BASIS     P2S    ABASIS      S 
                                         1400     1410     1200     1210     1080     1600     1650     1300     1700     1800   
                                           T        V       H0       H01     AOSYM     SMH    MOLCAS    ERIS     OPER     GRID   

              2       5        2.84       700     1000      520     1800     2100   
                                         GEOM     BASIS   MCVARS    GRID      RKS  

 PROGRAMS   *        TOTAL        KS       INT
 CPU TIMES  *         1.30      0.92      0.22
 REAL TIME  *         2.61 SEC
 DISK USED  *        34.86 MB      
 **********************************************************************************************************************************


 PROGRAM * Intrinsic Basis Bonding Analysis (IBBA)          Author: G. Knizia

 Molecular orbitals read from record     2100.2  Type=RKS/CANONICAL (state 1.1)
 Fock matrix read from record            2100.2  Type=RKS/TOTAL (state 1.1)
 Orbital energies read from record       2100.2  Type=RKS/CANONICAL (state 1.1)
 Density matrix read from record         2100.2  Type=RKS/CHARGE (state 1.1)

 Number of core orbitals:           1 (   1 )
 Number of closed-shell orbitals:   4 (   4 )
 Number of active  orbitals:        1 (   1 )

 Basis set MINAO-AUTO-PP generated.      Number of basis functions:   10 

 Polarized AO type:                A = (O Ot + (1-O)(1-Ot)) P12
 Orthogonalization method:         Symmetric (Loewdin)
 Localization functional:          L = sum[A,i] <i|n_A|i>^4 -> max

 Localization group 1:   5 orbitals, occupancy  2.000
 Iterative localization: IB/PM,    6 iter; Final gradient 0.18E-09

 Bond order analysis:       [THRPRINT= 0.020]

   CEN ATOM   CEN ATOM     WIBERG.BO      RENORM.BO
     1   C  -   2   H       0.982232       1.000000
     1   C  -   3   H       0.982227       1.000000
     1   C  -   4   H       0.982227       1.000000
     1   C  -   5   H       0.425247       1.000000
     1   C  -   6   H       0.282048       1.000000

     2   H  -   1   C       0.982232       1.000000

     3   H  -   1   C       0.982227       1.000000

     4   H  -   1   C       0.982227       1.000000

     5   H  -   6   H       0.565562       0.939664
     5   H  -   1   C       0.425247       1.000000

     6   H  -   5   H       0.565562       0.939664
     6   H  -   1   C       0.282048       1.000000


 Valency analysis:

   CEN ATOM   TOT.VALENCE
     1   C       3.653980
     2   H       0.995576
     3   H       0.995575
     4   H       0.995575
     5   H       0.997584
     6   H       0.865305
 Localization group 2:   1 orbitals, occupancy  1.000
 Iterative localization: IB/PM,    1 iter; Final gradient 0.00E+00

 Bond order analysis:       [THRPRINT= 0.020]

   CEN ATOM   CEN ATOM     WIBERG.BO      RENORM.BO
     1   C  -   6   H       0.482510       0.500000





     6   H  -   1   C       0.482510       0.500000


 Valency analysis:

   CEN ATOM   TOT.VALENCE
     1   C       0.485093
     2   H       0.001462
     3   H       0.001466
     4   H       0.001466
     5   H       0.000009
     6   H       0.484323

 Total charge composition:

   CEN ATOM         s          p       ELECTRONS ->P.CHARGE
     1   C       2.94995    3.25210      6.20205   -0.20205
     2   H       0.93422                 0.93422    0.06578
     3   H       0.93421                 0.93421    0.06579
     4   H       0.93421                 0.93421    0.06579
     5   H       0.95085                 0.95085    0.04915
     6   H       1.04446                 1.04446   -0.04446

 Total charge composition, AO contributions:

   CEN ATOM SHL      SPHERICAL COMPONENTS
     1   C  1s       1.99834
     1   C  2s       0.95161
     1   C  2p       1.11746    1.01718    1.11746

     2   H  1s       0.93422

     3   H  1s       0.93421

     4   H  1s       0.93421

     5   H  1s       0.95085

     6   H  1s       1.04446

 Active orbital charges:

   CEN ATOM         s          p       ELECTRONS ->SPIN.DEN
     1   C       0.03994    0.54639      0.58633    0.58633
     2   H       0.00073                 0.00073    0.00073
     3   H       0.00073                 0.00073    0.00073
     4   H       0.00073                 0.00073    0.00073
     5   H       0.00000                 0.00000    0.00000
     6   H       0.41146                 0.41146    0.41146

 Active orbital charges, AO contributions:

   CEN ATOM SHL      SPHERICAL COMPONENTS
     1   C  1s       0.00002
     1   C  2s       0.03992
     1   C  2p       0.00000    0.54639    0.00000

     2   H  1s       0.00073

     3   H  1s       0.00073

     4   H  1s       0.00073

     5   H  1s       0.00000

     6   H  1s       0.41146

 Summary of localized orbital composition:   [THRPRINT= 0.020]

   ORB  GRP  ORB.ENERGY      CENTERS/CHARGES
     1   1    -7.656734      C  1   2.000
     2   1     0.011293      C  1   1.059   H  4   0.932
     3   1     0.011293      C  1   1.059   H  3   0.932
     4   1     0.011299      C  1   1.059   H  2   0.932
     5   1     0.023298      H  5   0.945   H  6   0.614   C  1   0.440
     6   2     0.360679      C  1   0.586   H  6   0.411

 Localized orbitals saved to record      2100.2  (orbital set 2)


 **********************************************************************************************************************************
 DATASETS  * FILE   NREC   LENGTH (MB)   RECORD NAMES
              1      20       30.59       500      610      700      900      950      970     1000      129      960     1100   
                                          VAR    BASINP    GEOM    SYMINP    ZMAT    AOBASIS   BASIS     P2S    ABASIS      S 
                                         1400     1410     1200     1210     1080     1600     1650     1300     1700     1800   
                                           T        V       H0       H01     AOSYM     SMH    MOLCAS    ERIS     OPER     GRID   

              2       5        2.84       700     1000      520     1800     2100   
                                         GEOM     BASIS   MCVARS    GRID      RKS  

 PROGRAMS   *        TOTAL      IBBA        KS       INT
 CPU TIMES  *         1.33      0.02      0.92      0.22
 REAL TIME  *         2.67 SEC
 DISK USED  *        34.86 MB      
 **********************************************************************************************************************************
 Molecular orbitals read from record     2100.2  Type=RKS/LOCAL(IBO)  
 Occupation numbers read from record     2100.2  Type=RKS/LOCAL(IBO)  
 Orbital energies read from record       2100.2  Type=RKS/LOCAL(IBO)  
 Redundancy group numbers read from rec  2100.2  Type=RKS/LOCAL(IBO)  

 IBBA/STO-3G energy=      0.000000000000

        KS-SCF  
    -33.89880869
 **********************************************************************************************************************************
 Molpro calculation terminated
