
 Primary working directories    : /local
 Secondary working directories  : /local
 Wavefunction directory         : /local/
 Main file repository           : /local/

 SHA1      : b4a5b34a9e711420743f49e6833241d17c61fb3c
 NAME      : 2099.9.b4a5b34
 ARCHNAME  : linux/x86_64_openmp
 FC        : /cm/shared/languages/GCC-6.1/bin/gfortran
 BLASLIB   : -lblas
 id        : simonbennie

 Nodes     nprocs
 node34-017    1

 Using customized tuning parameters: mindgm=1; mindgv=20; mindgc=4; mindgr=1; noblas=0; minvec=7
 default implementation of scratch files=df  

 memory,500,m
 geomtyp=xyz
 nosym
 noorient
 geometry={
 C          0.00000        0.26481        0.00000
 H          1.05343        0.51667        0.00000
 H         -0.52663        0.51702        0.91225
 H         -0.52663        0.51702       -0.91225
 H         -0.00026       -1.11777        0.00000
 H          0.00008       -2.02183        0.00000
 }
 basis={ default,tzvp }
 {ks,M05-2X,direct;wf,11,1,1}
 {ibba,bonds=1}

 Variables initialized (895), CPU time= 0.00 sec
 Commands  initialized (725), CPU time= 0.02 sec, 591 directives.
 Default parameters read. Elapsed time= 0.08 sec

 Checking input...
 Passed
1


                                         ***  PROGRAM SYSTEM MOLPRO  ***
                                       Copyright, TTI GmbH Stuttgart, 2015
                                    Version 2099.9 linked May 26 2017 16:03:21


 **********************************************************************************************************************************
 LABEL *                                                                                 
  64 bit serial version                                                                  DATE: 24-Jun-17          TIME: 06:36:48  
 **********************************************************************************************************************************

 SHA1:             b4a5b34a9e711420743f49e6833241d17c61fb3c
 **********************************************************************************************************************************
 SETTING GEOMTYP        =    XYZ

 Variable memory set to  500000000 words,  buffer space 

 ZSYMEL=NOSYM

 SETTING BASIS          =    TZVP


 Recomputing integrals since basis changed


 Using spherical harmonics

 Library entry C      S def2-TZVP            selected for orbital group  1
 Library entry C      P def2-TZVP            selected for orbital group  1
 Library entry C      D def2-TZVP            selected for orbital group  1
 Library entry C      F def2-TZVP            selected for orbital group  1
 Library entry H      S def2-TZVP            selected for orbital group  2
 Library entry H      P def2-TZVP            selected for orbital group  2


 PROGRAM * SEWARD (Integral evaluation for generally contracted gaussian basis sets)     Author: Roland Lindh, 1990

 Geometry written to block  1 of record 700


 Point group  C1  



 ATOMIC COORDINATES

 NR  ATOM    CHARGE       X              Y              Z

   1  C       6.00    0.000000000    0.500418375    0.000000000
   2  H       1.00    1.990694191    0.976364797    0.000000000
   3  H       1.00   -0.995186469    0.977026201    1.723902657
   4  H       1.00   -0.995186469    0.977026201   -1.723902657
   5  H       1.00   -0.000491329   -2.112279170    0.000000000
   6  H       1.00    0.000151178   -3.820704970    0.000000000

 Bond lengths in Bohr (Angstrom)

 1-2  2.046799541  1-3  2.046800308  1-4  2.046800308  1-5  2.612697591
     ( 1.083119672)     ( 1.083120078)     ( 1.083120078)     ( 1.382580024)

 Bond angles

  2-1-3  114.75516930   2-1-4  114.75516930   2-1-5  103.45696275   3-1-4  114.75541708

  3-1-5  103.45983296   4-1-5  103.45983296

 NUCLEAR CHARGE:                   11
 NUMBER OF PRIMITIVE AOS:          91
 NUMBER OF SYMMETRY AOS:           86
 NUMBER OF CONTRACTIONS:           61   (  61A   )
 NUMBER OF CORE ORBITALS:           1   (   1A   )
 NUMBER OF VALENCE ORBITALS:        9   (   9A   )


 NUCLEAR REPULSION ENERGY   15.32860217


 Eigenvalues of metric

         1 0.114E-02 0.596E-02 0.712E-02 0.712E-02 0.134E-01 0.203E-01 0.260E-01 0.260E-01


 Contracted 2-electron integrals neglected if value below      1.0D-11
 AO integral compression algorithm  1   Integral accuracy      1.0D-11

     7.602 MB (compressed) written to integral file ( 44.8%)


 NUMBER OF SORTED TWO-ELECTRON INTEGRALS:    1788886.     BUFFER LENGTH:  32768
 NUMBER OF SEGMENTS:   1  SEGMENT LENGTH:    1788886      RECORD LENGTH: 524288

 Memory used in sort:       2.35 MW

 SORT1 READ     2109172. AND WROTE     1374886. INTEGRALS IN      4 RECORDS. CPU TIME:     0.02 SEC, REAL TIME:     0.04 SEC
 SORT2 READ     1374886. AND WROTE     1788886. INTEGRALS IN     29 RECORDS. CPU TIME:     0.08 SEC, REAL TIME:     0.09 SEC

 FILE SIZES:   FILE 1:    37.8 MBYTE,  FILE 4:    16.8 MBYTE,   TOTAL:     54.6 MBYTE

 OPERATOR DM      FOR CENTER  0  COORDINATES:    0.000000    0.000000    0.000000


 **********************************************************************************************************************************
 DATASETS  * FILE   NREC   LENGTH (MB)   RECORD NAMES
              1      19       36.46       500      610      700      900      950      970     1000      129      960     1100   
                                          VAR    BASINP    GEOM    SYMINP    ZMAT    AOBASIS   BASIS     P2S    ABASIS      S 
                                         1400     1410     1200     1210     1080     1600     1650     1300     1700   
                                           T        V       H0       H01     AOSYM     SMH    MOLCAS    ERIS     OPER   

 PROGRAMS   *        TOTAL       INT
 CPU TIMES  *         0.59      0.45
 REAL TIME  *         0.92 SEC
 DISK USED  *        54.95 MB      
 **********************************************************************************************************************************

 Density functional group M05-2X=XC-M05-2X
 Functional: XC-M05-2X(via MFM 1.6)                                            Gradient terms: 1
 Use grid at  1800.2


 Exact exchange will be calculated, factor:  0.5600

 Functional: XC-M05-2X                 Factor:  1.0000

 Generated new metagrid on record  1800.2 with target accuracy 1.0D-06 and 17554 points in CPU time    0.4
 Computed new grid on record 1800.1 in CPU time    0.4
   52343 words reserved for DFT integration

 PROGRAM * RKS-SCF (Restricted open shell Kohn-Sham)     Authors: W. Meyer, H.-J. Werner, P.J. Knowles, 1993

 NUMBER OF ELECTRONS:       6+    5-    SPACE SYMMETRY=1    SPIN SYMMETRY: Doublet 
 CONVERGENCE THRESHOLDS:    1.00E-05 (Density)    1.00E-06 (Energy)
 MAX. NUMBER OF ITERATIONS:       60
 INTERPOLATION TYPE:            DIIS
 INTERPOLATION STEPS:              2 (START)      1 (STEP)
 LEVEL SHIFTS:                 -0.60 (CLOSED) -0.30 (OPEN) 



 Use fine grid record 1800.2 for energy threshold  1.0D-06
 Orbital guess generated from atomic densities. Full valence occupancy:    6

 Molecular orbital dump at record        2100.2

 Initial alpha occupancy:   6
 Initial beta  occupancy:   5
 Wave function symmetry:    1

 ITERATION    DDIFF          GRAD             ENERGY        2-EL.EN.            DIPOLE MOMENTS         DIIS   ORB.
    1      0.000D+00      0.000D+00       -40.97410726     64.056981    0.00004   -0.15348   -0.00000    0    start
    2      0.000D+00      0.919D-02       -41.00680066     61.463756    0.00016    0.31698   -0.00000    1    diag,B
    3      0.480D-02      0.326D-02       -41.01035341     61.950476    0.00002    0.28367   -0.00000    2    diag,B
    4      0.122D-02      0.772D-03       -41.01110249     61.945595   -0.00015    0.31940   -0.00000    3    diag,B
    5      0.715D-03      0.269D-03       -41.01133306     61.937184   -0.00026    0.33809   -0.00000    4    diag,B
    6      0.433D-03      0.980D-04       -41.01142713     61.934190   -0.00030    0.34690   -0.00000    5    diag,B
    7      0.251D-03      0.419D-04       -41.01148067     61.932417   -0.00031    0.35175   -0.00000    6    fixocc
    8      0.177D-03      0.160D-04       -41.01150467     61.931917   -0.00031    0.35321   -0.00000    7    diag,B
    9      0.944D-04      0.467D-05       -41.01151112     61.931971   -0.00030    0.35325   -0.00000    8    diag,B
   10      0.315D-04      0.975D-06       -41.01151188     61.931997   -0.00030    0.35319   -0.00000    9    orth
   11      0.518D-05      0.264D-06       -41.01151194     61.931996   -0.00030    0.35319   -0.00000    0    orth

 Final alpha occupancy:   6
 Final beta  occupancy:   5

 !RKS STATE 1.1 Energy                -41.011511943023
 Nuclear energy                        15.32860217
 One-electron energy                  -83.94706789
 Two-electron energy                   30.96599794
 Density functional                    -3.35904415     XC-M05-2X=-3.35904415
 Virial quotient                       -1.00702606
 !RKS STATE 1.1 Dipole moment          -0.00030257     0.35318574    -0.00000000
 Dipole moment /Debye                  -0.00076901     0.89764980    -0.00000000

 Orbital energies:

         1.1          2.1          3.1          4.1          5.1          6.1          7.1          8.1
    -10.573776    -0.796375    -0.496294    -0.491953    -0.491790    -0.267873     0.104774     0.167459

 HOMO      6.1    -0.267873 =      -7.2892eV
 LUMO      7.1     0.104774 =       2.8511eV
 LUMO-HOMO         0.372647 =      10.1403eV


 **********************************************************************************************************************************
 DATASETS  * FILE   NREC   LENGTH (MB)   RECORD NAMES
              1      20       37.02       500      610      700      900      950      970     1000      129      960     1100   
                                          VAR    BASINP    GEOM    SYMINP    ZMAT    AOBASIS   BASIS     P2S    ABASIS      S 
                                         1400     1410     1200     1210     1080     1600     1650     1300     1700     1800   
                                           T        V       H0       H01     AOSYM     SMH    MOLCAS    ERIS     OPER     GRID   

              2       5        2.94       700     1000      520     1800     2100   
                                         GEOM     BASIS   MCVARS    GRID      RKS  

 PROGRAMS   *        TOTAL        KS       INT
 CPU TIMES  *         8.86      8.27      0.45
 REAL TIME  *         9.70 SEC
 DISK USED  *        54.95 MB      
 **********************************************************************************************************************************


 PROGRAM * Intrinsic Basis Bonding Analysis (IBBA)          Author: G. Knizia

 Molecular orbitals read from record     2100.2  Type=RKS/CANONICAL (state 1.1)
 Fock matrix read from record            2100.2  Type=RKS/TOTAL (state 1.1)
 Orbital energies read from record       2100.2  Type=RKS/CANONICAL (state 1.1)
 Density matrix read from record         2100.2  Type=RKS/CHARGE (state 1.1)

 Number of core orbitals:           1 (   1 )
 Number of closed-shell orbitals:   4 (   4 )
 Number of active  orbitals:        1 (   1 )

 Basis set MINAO-AUTO-PP generated.      Number of basis functions:   10 

 Polarized AO type:                A = (O Ot + (1-O)(1-Ot)) P12
 Orthogonalization method:         Symmetric (Loewdin)
 Localization functional:          L = sum[A,i] <i|n_A|i>^4 -> max

 Localization group 1:   5 orbitals, occupancy  2.000
 Iterative localization: IB/PM,    5 iter; Final gradient 0.64E-08

 Bond order analysis:       [THRPRINT= 0.020]

   CEN ATOM   CEN ATOM     WIBERG.BO      RENORM.BO
     1   C  -   2   H       0.965494       1.000000
     1   C  -   3   H       0.965468       1.000000
     1   C  -   4   H       0.965468       1.000000
     1   C  -   5   H       0.413499       1.000000
     1   C  -   6   H       0.280956       1.000000

     2   H  -   1   C       0.965494       1.000000

     3   H  -   1   C       0.965468       1.000000

     4   H  -   1   C       0.965468       1.000000

     5   H  -   6   H       0.580402       0.956988
     5   H  -   1   C       0.413499       1.000000

     6   H  -   5   H       0.580402       0.956988
     6   H  -   1   C       0.280956       1.000000


 Valency analysis:

   CEN ATOM   TOT.VALENCE
     1   C       3.590885
     2   H       0.972191
     3   H       0.972127
     4   H       0.972127
     5   H       0.996075
     6   H       0.875409
 Localization group 2:   1 orbitals, occupancy  1.000
 Iterative localization: IB/PM,    1 iter; Final gradient 0.00E+00

 Bond order analysis:       [THRPRINT= 0.020]

   CEN ATOM   CEN ATOM     WIBERG.BO      RENORM.BO
     1   C  -   6   H       0.476851       0.500000





     6   H  -   1   C       0.476851       0.500000


 Valency analysis:

   CEN ATOM   TOT.VALENCE
     1   C       0.486832
     2   H       0.005735
     3   H       0.005661
     4   H       0.005661
     5   H       0.000070
     6   H       0.483897

 Total charge composition:

   CEN ATOM         s          p       ELECTRONS ->P.CHARGE
     1   C       3.11297    3.38447      6.49743   -0.49743
     2   H       0.83611                 0.83611    0.16389
     3   H       0.83589                 0.83589    0.16411
     4   H       0.83589                 0.83589    0.16411
     5   H       0.93738                 0.93738    0.06262
     6   H       1.05730                 1.05730   -0.05730

 Total charge composition, AO contributions:

   CEN ATOM SHL      SPHERICAL COMPONENTS
     1   C  1s       1.99172
     1   C  2s       1.12125
     1   C  2p       1.19190    1.00042    1.19215

     2   H  1s       0.83611

     3   H  1s       0.83589

     4   H  1s       0.83589

     5   H  1s       0.93738

     6   H  1s       1.05730

 Active orbital charges:

   CEN ATOM         s          p       ELECTRONS ->SPIN.DEN
     1   C       0.04374    0.53740      0.58114    0.58114
     2   H       0.00288                 0.00288    0.00288
     3   H       0.00284                 0.00284    0.00284
     4   H       0.00284                 0.00284    0.00284
     5   H       0.00003                 0.00003    0.00003
     6   H       0.41027                 0.41027    0.41027

 Active orbital charges, AO contributions:

   CEN ATOM SHL      SPHERICAL COMPONENTS
     1   C  1s       0.00007
     1   C  2s       0.04367
     1   C  2p       0.00000    0.53740    0.00000

     2   H  1s       0.00288

     3   H  1s       0.00284

     4   H  1s       0.00284

     5   H  1s       0.00003

     6   H  1s       0.41027

 Summary of localized orbital composition:   [THRPRINT= 0.020]

   ORB  GRP  ORB.ENERGY      CENTERS/CHARGES
     1   1   -10.459305      C  1   2.000
     2   1    -0.620908      C  1   1.162   H  4   0.832
     3   1    -0.620908      C  1   1.162   H  3   0.832
     4   1    -0.620750      C  1   1.161   H  2   0.833
     5   1    -0.528318      H  5   0.932   H  6   0.636   C  1   0.432
     6   2    -0.151030      C  1   0.581   H  6   0.410

 Localized orbitals saved to record      2100.2  (orbital set 2)


 **********************************************************************************************************************************
 DATASETS  * FILE   NREC   LENGTH (MB)   RECORD NAMES
              1      20       37.02       500      610      700      900      950      970     1000      129      960     1100   
                                          VAR    BASINP    GEOM    SYMINP    ZMAT    AOBASIS   BASIS     P2S    ABASIS      S 
                                         1400     1410     1200     1210     1080     1600     1650     1300     1700     1800   
                                           T        V       H0       H01     AOSYM     SMH    MOLCAS    ERIS     OPER     GRID   

              2       5        2.98       700     1000      520     1800     2100   
                                         GEOM     BASIS   MCVARS    GRID      RKS  

 PROGRAMS   *        TOTAL      IBBA        KS       INT
 CPU TIMES  *         8.88      0.02      8.27      0.45
 REAL TIME  *         9.76 SEC
 DISK USED  *        54.95 MB      
 **********************************************************************************************************************************
 Molecular orbitals read from record     2100.2  Type=RKS/LOCAL(IBO)  
 Occupation numbers read from record     2100.2  Type=RKS/LOCAL(IBO)  
 Orbital energies read from record       2100.2  Type=RKS/LOCAL(IBO)  
 Redundancy group numbers read from rec  2100.2  Type=RKS/LOCAL(IBO)  

 IBBA/TZVP energy=      0.000000000000

        KS-SCF  
    -41.01151194
 **********************************************************************************************************************************
 Molpro calculation terminated
