
 Primary working directories    : /scratch/12403957
 Secondary working directories  : /scratch/12403957
 Wavefunction directory         : /groups/kemi/lab/nonconverged/htbh38/
 Main file repository           : /groups/kemi/lab/nonconverged/htbh38/

 SHA1      : 2c68d29c09da70e1723824271fadde4bcd5f07a0
 ARCHNAME  : Linux/x86_64
 FC        : /users/software/kemi/intel/Compiler/composer_xe_2011_sp1.13.367/bin/intel64/ifort
 FCVERSION : 12.1.6
 BLASLIB   : /users/software/kemi/intel/Compiler/composer_xe_2011_sp1.13.367/mkl/lib/intel64/libmkl_blas95_ilp64.a /users/software/kemi/intel/Compiler/composer_xe_2011_sp1.13.367/mkl/lib/intel64/libmkl_lapack95_ilp64.a -Wl,--start-group /users/software/kemi/intel/Compiler/composer_xe_2011_sp1.13.367/mkl/lib/intel64/libmkl_intel_ilp64.a /users/software/kemi/intel/Compiler/composer_xe_2011_sp1.13.367/mkl/lib/intel64/libmkl_intel_thread.a /users/software/kemi/intel/Compiler/composer_xe_2011_sp1.13.367/mkl/lib/intel64/libmkl_core.a -Wl,--end-group -openmp -lpthread -lm
 id        : kiku

 Nodes          nprocs
 node311.cluster    1

 Using customized tuning parameters: mindgm=16; mindgv=24; mindgc=8; mindgr=1; noblas=0; minvec=7
 default implementation of scratch files=df  

 memory,500,m
 geomtyp=xyz
 nosym
 noorient
 geometry={
 C          0.00000        0.26481        0.00000
 H          1.05343        0.51667        0.00000
 H         -0.52663        0.51702        0.91225
 H         -0.52663        0.51702       -0.91225
 H         -0.00026       -1.11777        0.00000
 H          0.00008       -2.02183        0.00000
 }
 basis={default,sto-3g}
 
 
 basis={ default,6-31+G(d,p) }
 {ks,PBE,direct;wf,11,1,1}
 {ks,LSDC,direct,nitord=1;wf,11,1,1;shift,-1.0,-0.5}
 

 Variables initialized (766), CPU time= 0.01 sec
 Commands  initialized (545), CPU time= 0.00 sec, 513 directives.
 Default parameters read. Elapsed time= 0.15 sec

 Checking input...
 Passed
1


                                         ***  PROGRAM SYSTEM MOLPRO  ***
                         Copyright, University College Cardiff Consultants Limited, 2008

                                    Version 2012.1 linked 22 Jun 2017 13:51:13


 **********************************************************************************************************************************
 LABEL *                                                                                 
 Linux-2.6.32-754.6.3.el6.x86_64/node311.cluster(x86_64) 64 bit serial version           DATE: 04-Mar-19          TIME: 16:30:12  
 **********************************************************************************************************************************

 SHA1:             2c68d29c09da70e1723824271fadde4bcd5f07a0
 **********************************************************************************************************************************
 SETTING GEOMTYP        =    XYZ

 Variable memory set to  500000000 words,  buffer space   230000 words

 ZSYMEL=NOSYM
 
 SETTING BASIS          =    STO-3G
 SETTING BASIS          =    6-31+G(D,P)


 Recomputing integrals since basis changed


 Using spherical harmonics

 Library entry C      S 6-31G                selected for orbital group  1
 Library entry C      S 6-31++G              selected for orbital group  1
 Library entry C      P 6-31G                selected for orbital group  1
 Library entry C      P 6-31++G              selected for orbital group  1
 Library entry C      D 6-31G*               selected for orbital group  1
 Library entry H      S 6-31G                selected for orbital group  2
 Library entry H      P 6-31G**              selected for orbital group  2

1PROGRAM * SEWARD (Integral evaluation for generally contracted gaussian basis sets)     Author: Roland Lindh, 1990

 Geometry written to block  1 of record 700


 Point group  C1  



 ATOMIC COORDINATES

 NR  ATOM    CHARGE       X              Y              Z

   1  C       6.00    0.000000000    0.500418377    0.000000000
   2  H       1.00    1.990694199    0.976364800    0.000000000
   3  H       1.00   -0.995186473    0.977026204    1.723902663
   4  H       1.00   -0.995186473    0.977026204   -1.723902663
   5  H       1.00   -0.000491329   -2.112279178    0.000000000
   6  H       1.00    0.000151178   -3.820704984    0.000000000

 Bond lengths in Bohr (Angstrom)

 1-2  2.046799548  1-3  2.046800315  1-4  2.046800315  1-5  2.612697601
     ( 1.083119672)     ( 1.083120078)     ( 1.083120078)     ( 1.382580024)

 Bond angles

  2-1-3  114.75516930   2-1-4  114.75516930   2-1-5  103.45696275   3-1-4  114.75541708

  3-1-5  103.45983296   4-1-5  103.45983296

 NUCLEAR CHARGE:                   11
 NUMBER OF PRIMITIVE AOS:          67
 NUMBER OF SYMMETRY AOS:           66
 NUMBER OF CONTRACTIONS:           43   (  43A   )
 NUMBER OF CORE ORBITALS:           1   (   1A   )
 NUMBER OF VALENCE ORBITALS:        9   (   9A   )


 NUCLEAR REPULSION ENERGY   15.32860211


 Eigenvalues of metric

         1 0.117E-01 0.340E-01 0.558E-01 0.558E-01 0.106E+00 0.163E+00 0.163E+00 0.199E+00


 Contracted 2-electron integrals neglected if value below      1.0D-11
 AO integral compression algorithm  1   Integral accuracy      1.0D-11

     2.097 MB (compressed) written to integral file ( 51.3%)


 NUMBER OF SORTED TWO-ELECTRON INTEGRALS:     447931.     BUFFER LENGTH:  32768
 NUMBER OF SEGMENTS:   1  SEGMENT LENGTH:     447931      RECORD LENGTH: 524288

 Memory used in sort:       1.00 MW

 SORT1 READ      546889. AND WROTE      366169. INTEGRALS IN      2 RECORDS. CPU TIME:     0.00 SEC, REAL TIME:     0.02 SEC
 SORT2 READ      366169. AND WROTE      447931. INTEGRALS IN      8 RECORDS. CPU TIME:     0.02 SEC, REAL TIME:     0.02 SEC

 FILE SIZES:   FILE 1:     9.8 MBYTE,  FILE 4:     8.4 MBYTE,   TOTAL:     18.2 MBYTE

 OPERATOR DM      FOR CENTER  0  COORDINATES:    0.000000    0.000000    0.000000


 **********************************************************************************************************************************
 DATASETS  * FILE   NREC   LENGTH (MB)   RECORD NAMES
              1      19        9.33       500      610      700      900      950      970     1000      129      960     1100   
                                          VAR    BASINP    GEOM    SYMINP    ZMAT    AOBASIS   BASIS     P2S    ABASIS      S 
                                         1400     1410     1200     1210     1080     1600     1650     1300     1700   
                                           T        V       H0       H01     AOSYM     SMH    MOLCAS    ERIS     OPER   

 PROGRAMS   *        TOTAL       INT
 CPU TIMES  *         0.14      0.08
 REAL TIME  *         0.36 SEC
 DISK USED  *        18.54 MB      
 **********************************************************************************************************************************

 Density functional group PBE=PBEX+PBEC
 Functional: PBEX(Automatically generated (new) PBEX)                          Gradient terms: 1
 Functional: PBEC(Automatically generated (new) PBEC)                          Gradient terms: 1
 Use grid at  1800.2
 
 Functional: PBEX                      Factor:  1.0000
 Functional: PBEC                      Factor:  1.0000
 
 Generated new metagrid on record  1800.2 with target accuracy 1.0D-06 and 16130 points in CPU time    0.1
 Computed new grid on record 1800.1 in CPU time    0.1
   38015 words reserved for DFT integration

 PROGRAM * RKS-SCF (Restricted open shell Kohn-Sham)     Authors: W. Meyer, H.-J. Werner, P.J. Knowles, 1993

 NUMBER OF ELECTRONS:       6+    5-    SPACE SYMMETRY=1    SPIN SYMMETRY: Doublet 
 CONVERGENCE THRESHOLDS:    1.00E-05 (Density)    1.00E-06 (Energy)
 MAX. NUMBER OF ITERATIONS:       60
 INTERPOLATION TYPE:            DIIS
 INTERPOLATION STEPS:              2 (START)      1 (STEP)
 LEVEL SHIFTS:                 -0.30 (CLOSED)  0.00 (OPEN) 



 Use fine grid record 1800.2 for energy threshold  1.0D-06
 Orbital guess generated from atomic densities. Full valence occupancy:    6

 Molecular orbital dump at record        2100.2

 ITERATION    DDIFF          GRAD             ENERGY        2-EL.EN.            DIPOLE MOMENTS         DIIS   ORB.
    1      0.000D+00      0.000D+00       -40.83674471     73.707214    0.00007   -0.25003    0.00000    0    start
    2      0.000D+00      0.182D-01       -40.85171857     66.416090    0.00010    0.84187    0.00000    1    diag,B
    3      0.323D-01      0.161D-01       -40.93232616     69.808045    0.00013    0.15260    0.00000    2    diag,B
    4      0.208D-01      0.727D-03       -40.93267197     69.625438    0.00015    0.22909    0.00000    3    diag,B
    5      0.105D-02      0.230D-03       -40.93271906     69.639690    0.00016    0.21828    0.00000    4    diag,B
    6      0.564D-03      0.633D-04       -40.93272753     69.635930    0.00016    0.22614    0.00000    5    diag,B
    7      0.162D-03      0.227D-04       -40.93272865     69.635859    0.00016    0.22751    0.00000    6    fixocc
    8      0.769D-04      0.760D-05       -40.93272877     69.636032    0.00016    0.22857    0.00000    7    diag,B
    9      0.244D-04      0.197D-05       -40.93272878     69.636128    0.00016    0.22872    0.00000    8    diag,B
   10      0.579D-05      0.293D-06       -40.93272878     69.636126    0.00016    0.22872    0.00000    0    orth

 Final alpha occupancy:   6
 Final beta  occupancy:   5

 !RKS STATE 1.1 Energy                -40.932728777891
 Nuclear energy                        15.32860211
 One-electron energy                  -83.96086234
 Two-electron energy                   34.81806310
 Density functional                    -7.11853165     PBEX=-6.80046997 PBEC=-0.31806168
 Virial quotient                       -1.00668880
 !RKS STATE 1.1 Dipole moment           0.00016417     0.22871735     0.00000000
 Dipole moment /Debye                   0.00041726     0.58130344     0.00000000

 Orbital energies:

         1.1          2.1          3.1          4.1          5.1          6.1          7.1          8.1
     -9.898807    -0.627339    -0.384914    -0.367499    -0.367493    -0.177661     0.010411     0.043458

 HOMO      6.1    -0.177661 =      -4.8344eV
 LUMO      7.1     0.010411 =       0.2833eV
 LUMO-HOMO         0.188072 =       5.1177eV


 **********************************************************************************************************************************
 DATASETS  * FILE   NREC   LENGTH (MB)   RECORD NAMES
              1      20        9.85       500      610      700      900      950      970     1000      129      960     1100   
                                          VAR    BASINP    GEOM    SYMINP    ZMAT    AOBASIS   BASIS     P2S    ABASIS      S 
                                         1400     1410     1200     1210     1080     1600     1650     1300     1700     1800   
                                           T        V       H0       H01     AOSYM     SMH    MOLCAS    ERIS     OPER     GRID   

              2       5        0.43       700     1000      520     1800     2100   
                                         GEOM     BASIS   MCVARS    GRID      RKS  

 PROGRAMS   *        TOTAL        KS       INT
 CPU TIMES  *         0.90      0.76      0.08
 REAL TIME  *         2.72 SEC
 DISK USED  *        18.54 MB      
 **********************************************************************************************************************************

 Density functional group LSDC=PW92C
 Functional: PW92C(Automatically generated (new) PW92C)                        Gradient terms: 0
 Use grid at  1800.2
 
 Functional: PW92C                     Factor:  1.0000
 
   21632 words reserved for DFT integration

 PROGRAM * RKS-SCF (Restricted open shell Kohn-Sham)     Authors: W. Meyer, H.-J. Werner, P.J. Knowles, 1993

 NUMBER OF ELECTRONS:       6+    5-    SPACE SYMMETRY=1    SPIN SYMMETRY: Doublet 
 CONVERGENCE THRESHOLDS:    1.00E-05 (Density)    1.00E-06 (Energy)
 MAX. NUMBER OF ITERATIONS:       60
 INTERPOLATION TYPE:            DIIS
 INTERPOLATION STEPS:              2 (START)      1 (STEP)
 LEVEL SHIFTS:                 -1.00 (CLOSED) -0.50 (OPEN) 



 Use fine grid record 1800.2 for energy threshold  1.0D-06
 Molecular orbitals read from record     2100.2  Type=RKS/CANONICAL (state 1.1)

 Molecular orbital dump at record        2101.2

 ITERATION    DDIFF          GRAD             ENERGY        2-EL.EN.            DIPOLE MOMENTS         DIIS   ORB.
    1      0.000D+00      0.000D+00       -34.44359560     69.636126    0.00016    0.22872    0.00000    0    start
    2      0.000D+00      0.311D-01       -34.63576695     64.495725    0.00037    0.32384    0.00000    1    diag,B
    3      0.225D-01      0.723D-02       -34.65618629     64.920702    0.00065    0.04177    0.00000    2    diag,B
    4      0.792D-02      0.301D-02       -34.66431974     64.380665    0.00118   -0.08875    0.00000    3    diag,B
    5      0.705D-02      0.190D-02       -34.66970323     64.097370    0.00230   -0.27096    0.00000    4    diag,B
    6      0.870D-02      0.898D-03       -34.67131480     63.907072    0.00382   -0.37576    0.00000    5    diag,B
    7      0.639D-02      0.311D-03       -34.67153334     63.888660    0.00481   -0.38117    0.00000    6    diag,B
    8      0.200D-02      0.138D-03       -34.67160840     63.859295    0.00567   -0.38979    0.00000    7    orth
    9      0.155D-02      0.743D-04       -34.67162398     63.863517    0.00610   -0.38789    0.00000    8    diag,B
   10      0.575D-03      0.366D-04       -34.67163115     63.853844    0.00649   -0.38989    0.00000    9    diag,B
   11      0.642D-03      0.175D-04       -34.67163212     63.853179    0.00665   -0.38890    0.00000    9    diag,B
   12      0.215D-03      0.770D-05       -34.67163227     63.853074    0.00672   -0.38774    0.00000    9    diag,B
   13      0.685D-04      0.322D-05       -34.67163230     63.852592    0.00675   -0.38739    0.00000    9    diag,B
   14      0.288D-04      0.152D-05       -34.67163230     63.852616    0.00677   -0.38713    0.00000    9    diag,B
   15      0.962D-05      0.715D-06       -34.67163230     63.852620    0.00677   -0.38708    0.00000    0    orth

 Final alpha occupancy:   6
 Final beta  occupancy:   5

 !RKS STATE 1.1 Energy                -34.671632303780
 Nuclear energy                        15.32860211
 One-electron energy                  -81.32724366
 Two-electron energy                   31.92630997
 Density functional                    -0.59930073     PW92C=-0.59930073
 Virial quotient                       -0.90526258
 !RKS STATE 1.1 Dipole moment           0.00677490    -0.38708395     0.00000000
 Dipole moment /Debye                   0.01721894    -0.98380484     0.00000000

 Orbital energies:

         1.1          2.1          3.1          4.1          5.1          6.1          7.1          8.1
     -8.267710    -0.372470    -0.178810    -0.138235    -0.138179     0.038294     0.102574     0.103229

 HOMO      6.1     0.038294 =       1.0420eV
 LUMO      7.1     0.102574 =       2.7912eV
 LUMO-HOMO         0.064280 =       1.7492eV


 **********************************************************************************************************************************
 DATASETS  * FILE   NREC   LENGTH (MB)   RECORD NAMES
              1      20        9.85       500      610      700      900      950      970     1000      129      960     1100   
                                          VAR    BASINP    GEOM    SYMINP    ZMAT    AOBASIS   BASIS     P2S    ABASIS      S 
                                         1400     1410     1200     1210     1080     1600     1650     1300     1700     1800   
                                           T        V       H0       H01     AOSYM     SMH    MOLCAS    ERIS     OPER     GRID   

              2       6        0.54       700     1000      520     1800     2100     2101   
                                         GEOM     BASIS   MCVARS    GRID      RKS      RKS  

 PROGRAMS   *        TOTAL        KS        KS       INT
 CPU TIMES  *         1.36      0.46      0.76      0.08
 REAL TIME  *         5.36 SEC
 DISK USED  *        18.54 MB      
 **********************************************************************************************************************************

        KS-SCF          KS-SCF  
    -34.67163230    -40.93272878
 **********************************************************************************************************************************
 Variable memory released
