
 Primary working directories    : /local
 Secondary working directories  : /local
 Wavefunction directory         : /local/
 Main file repository           : /local/

 SHA1      : b4a5b34a9e711420743f49e6833241d17c61fb3c
 NAME      : 2099.9.b4a5b34
 ARCHNAME  : linux/x86_64_openmp
 FC        : /cm/shared/languages/GCC-6.1/bin/gfortran
 BLASLIB   : -lblas
 id        : simonbennie

 Nodes     nprocs
 node34-032    1

 Using customized tuning parameters: mindgm=1; mindgv=20; mindgc=4; mindgr=1; noblas=0; minvec=7
 default implementation of scratch files=df  

 memory,500,m
 geomtyp=xyz
 nosym
 noorient
 geometry={
 C          0.00000        0.26481        0.00000
 H          1.05343        0.51667        0.00000
 H         -0.52663        0.51702        0.91225
 H         -0.52663        0.51702       -0.91225
 H         -0.00026       -1.11777        0.00000
 H          0.00008       -2.02183        0.00000
 }
 basis={ default,sto-3g }
 {uks,SLATER,direct;wf,11,1,1}
 {ibba,bonds=1}

 Variables initialized (895), CPU time= 0.00 sec
 Commands  initialized (725), CPU time= 0.02 sec, 591 directives.
 Default parameters read. Elapsed time= 0.09 sec

 Checking input...
 Passed
1


                                         ***  PROGRAM SYSTEM MOLPRO  ***
                                       Copyright, TTI GmbH Stuttgart, 2015
                                    Version 2099.9 linked May 26 2017 16:03:21


 **********************************************************************************************************************************
 LABEL *                                                                                 
  64 bit serial version                                                                  DATE: 24-Jun-17          TIME: 05:44:32  
 **********************************************************************************************************************************

 SHA1:             b4a5b34a9e711420743f49e6833241d17c61fb3c
 **********************************************************************************************************************************
 SETTING GEOMTYP        =    XYZ

 Variable memory set to  500000000 words,  buffer space 

 ZSYMEL=NOSYM

 SETTING BASIS          =    STO-3G


 Recomputing integrals since basis changed


 Using spherical harmonics

 Library entry C      S STO-3G               selected for orbital group  1
 Library entry C      P STO-3G               selected for orbital group  1
 Library entry H      S STO-3G               selected for orbital group  2


 PROGRAM * SEWARD (Integral evaluation for generally contracted gaussian basis sets)     Author: Roland Lindh, 1990

 Geometry written to block  1 of record 700


 Point group  C1  



 ATOMIC COORDINATES

 NR  ATOM    CHARGE       X              Y              Z

   1  C       6.00    0.000000000    0.500418375    0.000000000
   2  H       1.00    1.990694191    0.976364797    0.000000000
   3  H       1.00   -0.995186469    0.977026201    1.723902657
   4  H       1.00   -0.995186469    0.977026201   -1.723902657
   5  H       1.00   -0.000491329   -2.112279170    0.000000000
   6  H       1.00    0.000151178   -3.820704970    0.000000000

 Bond lengths in Bohr (Angstrom)

 1-2  2.046799541  1-3  2.046800308  1-4  2.046800308  1-5  2.612697591
     ( 1.083119672)     ( 1.083120078)     ( 1.083120078)     ( 1.382580024)

 Bond angles

  2-1-3  114.75516930   2-1-4  114.75516930   2-1-5  103.45696275   3-1-4  114.75541708

  3-1-5  103.45983296   4-1-5  103.45983296

 NUCLEAR CHARGE:                   11
 NUMBER OF PRIMITIVE AOS:          30
 NUMBER OF SYMMETRY AOS:           30
 NUMBER OF CONTRACTIONS:           10   (  10A   )
 NUMBER OF CORE ORBITALS:           1   (   1A   )
 NUMBER OF VALENCE ORBITALS:        9   (   9A   )


 NUCLEAR REPULSION ENERGY   15.32860217


 Eigenvalues of metric

         1 0.233E+00 0.344E+00 0.356E+00 0.356E+00 0.864E+00 0.991E+00 0.149E+01 0.149E+01


 Contracted 2-electron integrals neglected if value below      1.0D-11
 AO integral compression algorithm  1   Integral accuracy      1.0D-11

     0.262 MB (compressed) written to integral file (100.0%)


 NUMBER OF SORTED TWO-ELECTRON INTEGRALS:       1540.     BUFFER LENGTH:  32768
 NUMBER OF SEGMENTS:   1  SEGMENT LENGTH:       1540      RECORD LENGTH: 524288

 Memory used in sort:       0.56 MW

 SORT1 READ        1894. AND WROTE        1287. INTEGRALS IN      1 RECORDS. CPU TIME:     0.00 SEC, REAL TIME:     0.01 SEC
 SORT2 READ        1287. AND WROTE        1540. INTEGRALS IN      1 RECORDS. CPU TIME:     0.00 SEC, REAL TIME:     0.00 SEC

 FILE SIZES:   FILE 1:    30.3 MBYTE,  FILE 4:     4.2 MBYTE,   TOTAL:     34.5 MBYTE

 OPERATOR DM      FOR CENTER  0  COORDINATES:    0.000000    0.000000    0.000000


 **********************************************************************************************************************************
 DATASETS  * FILE   NREC   LENGTH (MB)   RECORD NAMES
              1      19       30.03       500      610      700      900      950      970     1000      129      960     1100   
                                          VAR    BASINP    GEOM    SYMINP    ZMAT    AOBASIS   BASIS     P2S    ABASIS      S 
                                         1400     1410     1200     1210     1080     1600     1650     1300     1700   
                                           T        V       H0       H01     AOSYM     SMH    MOLCAS    ERIS     OPER   

 PROGRAMS   *        TOTAL       INT
 CPU TIMES  *         0.38      0.21
 REAL TIME  *         0.72 SEC
 DISK USED  *        34.86 MB      
 **********************************************************************************************************************************

 Density functional group SLATER=DIRAC
 Functional: DIRAC(Automatically generated (new) DIRAC)                        Gradient terms: 0
 Use grid at  1800.2

 Functional: DIRAC                     Factor:  1.0000

 Generated new metagrid on record  1800.2 with target accuracy 1.0D-06 and 17266 points in CPU time    0.4
 Computed new grid on record 1800.1 in CPU time    0.5
    8092 words reserved for DFT integration

 PROGRAM * UKS-SCF (Unrestricted Kohn-Sham)     Authors: W. Meyer, H.-J. Werner, P.J. Knowles, 1993

 NUMBER OF ELECTRONS:       6+    5-    SPACE SYMMETRY=1    SPIN SYMMETRY: Doublet 
 CONVERGENCE THRESHOLDS:    1.00E-05 (Density)    1.00E-06 (Energy)
 MAX. NUMBER OF ITERATIONS:       60
 INTERPOLATION TYPE:            DIIS
 INTERPOLATION STEPS:              2 (START)      1 (STEP)
 LEVEL SHIFTS:                 -0.20 (ALPHA)  -0.20 (BETA) 



 Use fine grid record 1800.2 for energy threshold  1.0D-06
 Orbital guess generated from atomic densities. Full valence occupancy:    6

 Molecular orbital dump at record        2200.2

 Initial alpha occupation   6
 Initial beta  occupation   5

 ITERATION    DDIFF          GRAD             ENERGY        2-EL.EN.            DIPOLE MOMENTS         DIIS
    1      0.000D+00      0.000D+00       -39.34180287     73.214913    0.00008   -0.47284   -0.00000    0
    2      0.950D-01      0.326D-01       -39.40998094     69.641537   -0.00002    0.14149   -0.00000    1
    3      0.242D-01      0.122D-01       -39.41755822     70.428999    0.00000    0.08075   -0.00000    2
    4      0.235D-02      0.161D-02       -39.41797252     70.422179    0.00000    0.11057   -0.00000    3
    5      0.136D-02      0.582D-03       -39.41804133     70.417489    0.00000    0.11558   -0.00000    4
    6      0.473D-03      0.150D-03       -39.41804559     70.416671    0.00000    0.11606   -0.00000    5
    7      0.181D-03      0.511D-04       -39.41804606     70.416463    0.00000    0.11665   -0.00000    6
    8      0.267D-04      0.790D-05       -39.41804607     70.416689    0.00000    0.11671   -0.00000    6
    9      0.235D-05      0.783D-06       -39.41804607     70.416675    0.00000    0.11672   -0.00000    6
   10      0.109D-05      0.278D-06       -39.41804607     70.416693    0.00000    0.11672   -0.00000    5

 Final alpha occupancy:   6
 Final beta  occupancy:   5

 !UKS STATE 1.1 Energy                -39.418046072794
 Nuclear energy                        15.32860217
 One-electron energy                  -83.76008574
 Two-electron energy                   35.20834667
 Density functional                    -6.19490916     DIRAC=-6.19490916
 Virial quotient                       -0.98281149
 !UKS STATE 1.1 Dipole moment           0.00000450     0.11672216    -0.00000000
 Dipole moment /Debye                   0.00001143     0.29665870    -0.00000000

 Orbital energies for positive spin:

         1.1          2.1          3.1          4.1          5.1          6.1          7.1          8.1
     -9.481623    -0.527647    -0.298394    -0.264432    -0.264432    -0.045251     0.454812     0.493113

 Orbital energies for negative spin:

         1.1          2.1          3.1          4.1          5.1          6.1          7.1          8.1
     -9.467391    -0.500557    -0.251493    -0.251030    -0.251029     0.052867     0.476622     0.511846

 HOMO      6.1    -0.045251 =      -1.2313eV
 LUMO     -6.1     0.052867 =       1.4386eV
 LUMO-HOMO         0.098118 =       2.6699eV

 EXPECTATION VALUE OF S**2:             0.75628149

 Occupation number threshold for canonical orbitals:  1.999000 (occupied),  0.001000 (virtual)

 Number of pseudo-canonical orbitals per symmetry:    4
 Number of active natural orbitals per symmetry:      3

 Natural orbitals saved to record    2200.2 (Orbital set 3)

 Orbital spaces for UNO-CAS (Min. occupation: 0.020  Max. occupation: 1.980):

 Closed:        5
 Active:        1


 **********************************************************************************************************************************
 DATASETS  * FILE   NREC   LENGTH (MB)   RECORD NAMES
              1      20       30.59       500      610      700      900      950      970     1000      129      960     1100   
                                          VAR    BASINP    GEOM    SYMINP    ZMAT    AOBASIS   BASIS     P2S    ABASIS      S 
                                         1400     1410     1200     1210     1080     1600     1650     1300     1700     1800   
                                           T        V       H0       H01     AOSYM     SMH    MOLCAS    ERIS     OPER     GRID   

              2       5        2.84       700     1000      520     1800     2200   
                                         GEOM     BASIS   MCVARS    GRID      UKS  

 PROGRAMS   *        TOTAL       UKS       INT
 CPU TIMES  *         1.23      0.85      0.21
 REAL TIME  *         1.64 SEC
 DISK USED  *        34.86 MB      
 **********************************************************************************************************************************


 PROGRAM * Intrinsic Basis Bonding Analysis (IBBA)          Author: G. Knizia

 Molecular orbitals read from record     2200.2  Type=UKS/ALPHA (state 1.1)
 Fock matrix read from record            2200.2  Type=UKS/TOTAL (state 1.1)
 Orbital energies read from record       2200.2  Type=UKS/ALPHA (state 1.1)
 Density matrix read from record         2200.2  Type=UKS/CHARGE (state 1.1)

 Number of core orbitals:           1 (   1 )
 Number of closed-shell orbitals:   4 (   4 )
 Number of active  orbitals:        1 (   1 )

 Basis set MINAO-AUTO-PP generated.      Number of basis functions:   10 

 Polarized AO type:                A = (O Ot + (1-O)(1-Ot)) P12
 Orthogonalization method:         Symmetric (Loewdin)
 Localization functional:          L = sum[A,i] <i|n_A|i>^4 -> max

 Localization group 1:   5 orbitals, occupancy  2.000
 Iterative localization: IB/PM,    5 iter; Final gradient 0.70E-08

 Bond order analysis:       [THRPRINT= 0.020]

   CEN ATOM   CEN ATOM     WIBERG.BO      RENORM.BO
     1   C  -   2   H       0.961582       1.000000
     1   C  -   3   H       0.961578       1.000000
     1   C  -   4   H       0.961578       1.000000
     1   C  -   5   H       0.415402       1.000000
     1   C  -   6   H       0.315153       1.000000

     2   H  -   1   C       0.961582       1.000000

     3   H  -   1   C       0.961578       1.000000

     4   H  -   1   C       0.961578       1.000000

     5   H  -   6   H       0.566229       0.935834
     5   H  -   1   C       0.415402       1.000000

     6   H  -   5   H       0.566229       0.935834
     6   H  -   1   C       0.315153       1.000000


 Valency analysis:

   CEN ATOM   TOT.VALENCE
     1   C       3.615294
     2   H       0.972163
     3   H       0.972161
     4   H       0.972161
     5   H       0.985660
     6   H       0.902258
 Localization group 2:   1 orbitals, occupancy  1.000
 Iterative localization: IB/PM,    1 iter; Final gradient 0.00E+00

 Bond order analysis:       [THRPRINT= 0.020]

   CEN ATOM   CEN ATOM     WIBERG.BO      RENORM.BO
     1   C  -   6   H       0.472362       0.500000





     6   H  -   1   C       0.472362       0.500000


 Valency analysis:

   CEN ATOM   TOT.VALENCE
     1   C       0.479010
     2   H       0.003612
     3   H       0.003617
     4   H       0.003617
     5   H       0.000169
     6   H       0.476688

 Total charge composition:

   CEN ATOM         s          p       ELECTRONS ->P.CHARGE
     1   C       3.09102    3.44436      6.53538   -0.53538
     2   H       0.83497                 0.83497    0.16503
     3   H       0.83496                 0.83496    0.16504
     4   H       0.83496                 0.83496    0.16504
     5   H       0.88034                 0.88034    0.11966
     6   H       1.07940                 1.07940   -0.07940

 Total charge composition, AO contributions:

   CEN ATOM SHL      SPHERICAL COMPONENTS
     1   C  1s       1.99350
     1   C  2s       1.09752
     1   C  2p       1.20061    1.04314    1.20061

     2   H  1s       0.83497

     3   H  1s       0.83496

     4   H  1s       0.83496

     5   H  1s       0.88034

     6   H  1s       1.07940

 Active orbital charges:

   CEN ATOM         s          p       ELECTRONS ->SPIN.DEN
     1   C       0.03496    0.56748      0.60245    0.60245
     2   H       0.00181                 0.00181    0.00181
     3   H       0.00181                 0.00181    0.00181
     4   H       0.00181                 0.00181    0.00181
     5   H       0.00008                 0.00008    0.00008
     6   H       0.39204                 0.39204    0.39204

 Active orbital charges, AO contributions:

   CEN ATOM SHL      SPHERICAL COMPONENTS
     1   C  1s       0.00002
     1   C  2s       0.03494
     1   C  2p       0.00000    0.56748    0.00000

     2   H  1s       0.00181

     3   H  1s       0.00181

     4   H  1s       0.00181

     5   H  1s       0.00008

     6   H  1s       0.39204

 Summary of localized orbital composition:   [THRPRINT= 0.020]

   ORB  GRP  ORB.ENERGY      CENTERS/CHARGES
     1   1    -9.370136      C  1   2.000
     2   1    -0.369132      C  1   1.159   H  3   0.832
     3   1    -0.369132      C  1   1.159   H  4   0.832
     4   1    -0.369129      C  1   1.159   H  2   0.832
     5   1    -0.298175      H  5   0.869   H  6   0.673   C  1   0.456
     6   2     0.003399      C  1   0.602   H  6   0.392

 Localized orbitals saved to record      2200.2  (orbital set 4)


 **********************************************************************************************************************************
 DATASETS  * FILE   NREC   LENGTH (MB)   RECORD NAMES
              1      20       30.59       500      610      700      900      950      970     1000      129      960     1100   
                                          VAR    BASINP    GEOM    SYMINP    ZMAT    AOBASIS   BASIS     P2S    ABASIS      S 
                                         1400     1410     1200     1210     1080     1600     1650     1300     1700     1800   
                                           T        V       H0       H01     AOSYM     SMH    MOLCAS    ERIS     OPER     GRID   

              2       5        2.84       700     1000      520     1800     2200   
                                         GEOM     BASIS   MCVARS    GRID      UKS  

 PROGRAMS   *        TOTAL      IBBA       UKS       INT
 CPU TIMES  *         1.26      0.02      0.85      0.21
 REAL TIME  *         1.70 SEC
 DISK USED  *        34.86 MB      
 **********************************************************************************************************************************
 Molecular orbitals read from record     2200.2  Type=UKS/LOCAL(IBO)  
 Occupation numbers read from record     2200.2  Type=UKS/LOCAL(IBO)  
 Orbital energies read from record       2200.2  Type=UKS/LOCAL(IBO)  
 Redundancy group numbers read from rec  2200.2  Type=UKS/BETA (state 1.1)

 IBBA/STO-3G energy=      0.000000000000

        UKS-SCF 
    -39.41804607
 **********************************************************************************************************************************
 Molpro calculation terminated
