
 Primary working directories    : /local
 Secondary working directories  : /local
 Wavefunction directory         : /local/
 Main file repository           : /local/

 SHA1      : b4a5b34a9e711420743f49e6833241d17c61fb3c
 NAME      : 2099.9.b4a5b34
 ARCHNAME  : linux/x86_64_openmp
 FC        : /cm/shared/languages/GCC-6.1/bin/gfortran
 BLASLIB   : -lblas
 id        : simonbennie

 Nodes     nprocs
 node32-037    1

 Using customized tuning parameters: mindgm=1; mindgv=20; mindgc=4; mindgr=1; noblas=0; minvec=7
 default implementation of scratch files=df  

 memory,500,m
 geomtyp=xyz
 nosym
 noorient
 geometry={
 C          0.00000        0.26481        0.00000
 H          1.05343        0.51667        0.00000
 H         -0.52663        0.51702        0.91225
 H         -0.52663        0.51702       -0.91225
 H         -0.00026       -1.11777        0.00000
 H          0.00008       -2.02183        0.00000
 }
 basis={ default,svp }
 {uks,MM05-2X,direct;wf,11,1,1}
 {ibba,bonds=1}

 Variables initialized (895), CPU time= 0.01 sec
 Commands  initialized (725), CPU time= 0.01 sec, 591 directives.
 Default parameters read. Elapsed time= 0.07 sec

 Checking input...
 Passed
1


                                         ***  PROGRAM SYSTEM MOLPRO  ***
                                       Copyright, TTI GmbH Stuttgart, 2015
                                    Version 2099.9 linked May 26 2017 16:03:21


 **********************************************************************************************************************************
 LABEL *                                                                                 
  64 bit serial version                                                                  DATE: 24-Jun-17          TIME: 06:14:24  
 **********************************************************************************************************************************

 SHA1:             b4a5b34a9e711420743f49e6833241d17c61fb3c
 **********************************************************************************************************************************
 SETTING GEOMTYP        =    XYZ

 Variable memory set to  500000000 words,  buffer space 

 ZSYMEL=NOSYM

 SETTING BASIS          =    SVP


 Recomputing integrals since basis changed


 Using spherical harmonics

 Library entry C      S def2-SVP             selected for orbital group  1
 Library entry C      P def2-SVP             selected for orbital group  1
 Library entry C      D def2-SVP             selected for orbital group  1
 Library entry H      S def2-SVP             selected for orbital group  2
 Library entry H      P def2-SVP             selected for orbital group  2


 PROGRAM * SEWARD (Integral evaluation for generally contracted gaussian basis sets)     Author: Roland Lindh, 1990

 Geometry written to block  1 of record 700


 Point group  C1  



 ATOMIC COORDINATES

 NR  ATOM    CHARGE       X              Y              Z

   1  C       6.00    0.000000000    0.500418375    0.000000000
   2  H       1.00    1.990694191    0.976364797    0.000000000
   3  H       1.00   -0.995186469    0.977026201    1.723902657
   4  H       1.00   -0.995186469    0.977026201   -1.723902657
   5  H       1.00   -0.000491329   -2.112279170    0.000000000
   6  H       1.00    0.000151178   -3.820704970    0.000000000

 Bond lengths in Bohr (Angstrom)

 1-2  2.046799541  1-3  2.046800308  1-4  2.046800308  1-5  2.612697591
     ( 1.083119672)     ( 1.083120078)     ( 1.083120078)     ( 1.382580024)

 Bond angles

  2-1-3  114.75516930   2-1-4  114.75516930   2-1-5  103.45696275   3-1-4  114.75541708

  3-1-5  103.45983296   4-1-5  103.45983296

 NUCLEAR CHARGE:                   11
 NUMBER OF PRIMITIVE AOS:          60
 NUMBER OF SYMMETRY AOS:           59
 NUMBER OF CONTRACTIONS:           39   (  39A   )
 NUMBER OF CORE ORBITALS:           1   (   1A   )
 NUMBER OF VALENCE ORBITALS:        9   (   9A   )


 NUCLEAR REPULSION ENERGY   15.32860217


 Eigenvalues of metric

         1 0.897E-02 0.273E-01 0.529E-01 0.529E-01 0.983E-01 0.105E+00 0.128E+00 0.128E+00


 Contracted 2-electron integrals neglected if value below      1.0D-11
 AO integral compression algorithm  1   Integral accuracy      1.0D-11

     1.573 MB (compressed) written to integral file ( 57.6%)


 NUMBER OF SORTED TWO-ELECTRON INTEGRALS:     304590.     BUFFER LENGTH:  32768
 NUMBER OF SEGMENTS:   1  SEGMENT LENGTH:     304590      RECORD LENGTH: 524288

 Memory used in sort:       0.86 MW

 SORT1 READ      367325. AND WROTE      256764. INTEGRALS IN      1 RECORDS. CPU TIME:     0.01 SEC, REAL TIME:     0.01 SEC
 SORT2 READ      256764. AND WROTE      304590. INTEGRALS IN      6 RECORDS. CPU TIME:     0.02 SEC, REAL TIME:     0.03 SEC

 FILE SIZES:   FILE 1:    31.7 MBYTE,  FILE 4:     4.2 MBYTE,   TOTAL:     35.9 MBYTE

 OPERATOR DM      FOR CENTER  0  COORDINATES:    0.000000    0.000000    0.000000


 **********************************************************************************************************************************
 DATASETS  * FILE   NREC   LENGTH (MB)   RECORD NAMES
              1      19       31.32       500      610      700      900      950      970     1000      129      960     1100   
                                          VAR    BASINP    GEOM    SYMINP    ZMAT    AOBASIS   BASIS     P2S    ABASIS      S 
                                         1400     1410     1200     1210     1080     1600     1650     1300     1700   
                                           T        V       H0       H01     AOSYM     SMH    MOLCAS    ERIS     OPER   

 PROGRAMS   *        TOTAL       INT
 CPU TIMES  *         0.42      0.28
 REAL TIME  *         0.73 SEC
 DISK USED  *        36.24 MB      
 **********************************************************************************************************************************

 Density functional group MM05-2X=M052XX+M052XC
 Functional: M052XX(Automatically generated (new) M052XX)                      Gradient terms: 2
 Functional: M052XC(Automatically generated (new) M052XC)                      Gradient terms: 2
 Use grid at  1800.2


 Exact exchange will be calculated, factor:  0.5600

 Functional: M052XX                    Factor:  0.4400
 Functional: M052XC                    Factor:  1.0000

 Generated new metagrid on record  1800.2 with target accuracy 1.0D-06 and 17266 points in CPU time    0.4
 Computed new grid on record 1800.1 in CPU time    0.4
   64534 words reserved for DFT integration

 PROGRAM * UKS-SCF (Unrestricted Kohn-Sham)     Authors: W. Meyer, H.-J. Werner, P.J. Knowles, 1993

 NUMBER OF ELECTRONS:       6+    5-    SPACE SYMMETRY=1    SPIN SYMMETRY: Doublet 
 CONVERGENCE THRESHOLDS:    1.00E-05 (Density)    1.00E-06 (Energy)
 MAX. NUMBER OF ITERATIONS:       60
 INTERPOLATION TYPE:            DIIS
 INTERPOLATION STEPS:              2 (START)      1 (STEP)
 LEVEL SHIFTS:                 -0.20 (ALPHA)  -0.20 (BETA) 



 Use fine grid record 1800.2 for energy threshold  1.0D-06
 Orbital guess generated from atomic densities. Full valence occupancy:    6

 Molecular orbital dump at record        2200.2

 Initial alpha occupation   6
 Initial beta  occupation   5

 ITERATION    DDIFF          GRAD             ENERGY        2-EL.EN.            DIPOLE MOMENTS         DIIS
    1      0.000D+00      0.000D+00       -40.90072563     63.845455    0.00002   -0.16177   -0.00000    0
    2      0.101D-01      0.630D-02       -40.93361720     61.558958   -0.00120    0.16895   -0.00000    1
    3      0.300D-02      0.210D-02       -40.93677824     61.954617   -0.00129    0.20595   -0.00000    2
    4      0.194D-02      0.695D-03       -40.93781514     61.932133   -0.00174    0.28520   -0.00000    3
    5      0.643D-03      0.214D-03       -40.93792949     61.913592   -0.00186    0.31240   -0.00000    4
    6      0.227D-03      0.781D-04       -40.93795295     61.908801   -0.00187    0.32363   -0.00000    5
    7      0.151D-03      0.267D-04       -40.93795643     61.908068   -0.00187    0.32689   -0.00000    6
    8      0.842D-04      0.899D-05       -40.93795685     61.907754   -0.00186    0.32722   -0.00000    6
    9      0.194D-04      0.240D-05       -40.93795686     61.907986   -0.00186    0.32720   -0.00000    6
   10      0.310D-05      0.636D-06       -40.93795687     61.907867   -0.00186    0.32717   -0.00000    7
   11      0.538D-06      0.158D-06       -40.93795687     61.907899   -0.00186    0.32717   -0.00000    7

 Final alpha occupancy:   6
 Final beta  occupancy:   5

 !UKS STATE 1.1 Energy                -40.937956865693
 Nuclear energy                        15.32860217
 One-electron energy                  -83.89548263
 Two-electron energy                   30.95394926
 Density functional                    -3.32502566     M052XX=-6.83405925 M052XC=-0.31803959
 Virial quotient                       -1.01392228
 !UKS STATE 1.1 Dipole moment          -0.00186141     0.32716695    -0.00000000
 Dipole moment /Debye                  -0.00473092     0.83152097    -0.00000000

 Orbital energies for positive spin:

         1.1          2.1          3.1          4.1          5.1          6.1          7.1          8.1
    -10.590484    -0.797693    -0.520828    -0.490501    -0.490145    -0.269167     0.132002     0.193516

 Orbital energies for negative spin:

         1.1          2.1          3.1          4.1          5.1          6.1          7.1          8.1
    -10.581262    -0.769257    -0.482243    -0.482169    -0.462286    -0.040431     0.137006     0.199621

 HOMO      6.1    -0.269167 =      -7.3244eV
 LUMO     -6.1    -0.040431 =      -1.1002eV
 LUMO-HOMO         0.228736 =       6.2242eV

 EXPECTATION VALUE OF S**2:             0.75887168

 Occupation number threshold for canonical orbitals:  1.999000 (occupied),  0.001000 (virtual)

 Number of pseudo-canonical orbitals per symmetry:    4
 Number of active natural orbitals per symmetry:      3

 Natural orbitals saved to record    2200.2 (Orbital set 3)

 Orbital spaces for UNO-CAS (Min. occupation: 0.020  Max. occupation: 1.980):

 Closed:        5
 Active:        1


 **********************************************************************************************************************************
 DATASETS  * FILE   NREC   LENGTH (MB)   RECORD NAMES
              1      20       31.87       500      610      700      900      950      970     1000      129      960     1100   
                                          VAR    BASINP    GEOM    SYMINP    ZMAT    AOBASIS   BASIS     P2S    ABASIS      S 
                                         1400     1410     1200     1210     1080     1600     1650     1300     1700     1800   
                                           T        V       H0       H01     AOSYM     SMH    MOLCAS    ERIS     OPER     GRID   

              2       5        2.90       700     1000      520     1800     2200   
                                         GEOM     BASIS   MCVARS    GRID      UKS  

 PROGRAMS   *        TOTAL       UKS       INT
 CPU TIMES  *         7.02      6.60      0.28
 REAL TIME  *         7.72 SEC
 DISK USED  *        36.24 MB      
 **********************************************************************************************************************************


 PROGRAM * Intrinsic Basis Bonding Analysis (IBBA)          Author: G. Knizia

 Molecular orbitals read from record     2200.2  Type=UKS/ALPHA (state 1.1)
 Fock matrix read from record            2200.2  Type=UKS/TOTAL (state 1.1)
 Orbital energies read from record       2200.2  Type=UKS/ALPHA (state 1.1)
 Density matrix read from record         2200.2  Type=UKS/CHARGE (state 1.1)

 Number of core orbitals:           1 (   1 )
 Number of closed-shell orbitals:   4 (   4 )
 Number of active  orbitals:        1 (   1 )

 Basis set MINAO-AUTO-PP generated.      Number of basis functions:   10 

 Polarized AO type:                A = (O Ot + (1-O)(1-Ot)) P12
 Orthogonalization method:         Symmetric (Loewdin)
 Localization functional:          L = sum[A,i] <i|n_A|i>^4 -> max

 Localization group 1:   5 orbitals, occupancy  2.000
 Iterative localization: IB/PM,    6 iter; Final gradient 0.10E-09

 Bond order analysis:       [THRPRINT= 0.020]

   CEN ATOM   CEN ATOM     WIBERG.BO      RENORM.BO
     1   C  -   2   H       0.959358       1.000000
     1   C  -   3   H       0.959239       1.000000
     1   C  -   4   H       0.959239       1.000000
     1   C  -   5   H       0.460539       1.000000
     1   C  -   6   H       0.337114       1.000000

     2   H  -   1   C       0.959358       1.000000

     3   H  -   1   C       0.959239       1.000000

     4   H  -   1   C       0.959239       1.000000

     5   H  -   6   H       0.515506       0.931424
     5   H  -   1   C       0.460539       1.000000

     6   H  -   5   H       0.515506       0.931424
     6   H  -   1   C       0.337114       1.000000


 Valency analysis:

   CEN ATOM   TOT.VALENCE
     1   C       3.675489
     2   H       0.969438
     3   H       0.969295
     4   H       0.969295
     5   H       0.978924
     6   H       0.875712
 Localization group 2:   1 orbitals, occupancy  1.000
 Iterative localization: IB/PM,    1 iter; Final gradient 0.00E+00

 Bond order analysis:       [THRPRINT= 0.020]

   CEN ATOM   CEN ATOM     WIBERG.BO      RENORM.BO
     1   C  -   6   H       0.483946       0.500000





     6   H  -   1   C       0.483946       0.500000


 Valency analysis:

   CEN ATOM   TOT.VALENCE
     1   C       0.495873
     2   H       0.007192
     3   H       0.007168
     4   H       0.007168
     5   H       0.000262
     6   H       0.493647

 Total charge composition:

   CEN ATOM         s          p       ELECTRONS ->P.CHARGE
     1   C       3.11774    3.45069      6.56842   -0.56842
     2   H       0.82879                 0.82879    0.17121
     3   H       0.82837                 0.82837    0.17163
     4   H       0.82837                 0.82837    0.17163
     5   H       0.85496                 0.85496    0.14504
     6   H       1.09110                 1.09110   -0.09110

 Total charge composition, AO contributions:

   CEN ATOM SHL      SPHERICAL COMPONENTS
     1   C  1s       1.99147
     1   C  2s       1.12626
     1   C  2p       1.20138    1.04744    1.20187

     2   H  1s       0.82879

     3   H  1s       0.82837

     4   H  1s       0.82837

     5   H  1s       0.85496

     6   H  1s       1.09110

 Active orbital charges:

   CEN ATOM         s          p       ELECTRONS ->SPIN.DEN
     1   C       0.03088    0.51455      0.54543    0.54543
     2   H       0.00361                 0.00361    0.00361
     3   H       0.00360                 0.00360    0.00360
     4   H       0.00360                 0.00360    0.00360
     5   H       0.00013                 0.00013    0.00013
     6   H       0.44364                 0.44364    0.44364

 Active orbital charges, AO contributions:

   CEN ATOM SHL      SPHERICAL COMPONENTS
     1   C  1s       0.00008
     1   C  2s       0.03080
     1   C  2p       0.00000    0.51455    0.00000

     2   H  1s       0.00361

     3   H  1s       0.00360

     4   H  1s       0.00360

     5   H  1s       0.00013

     6   H  1s       0.44364

 Summary of localized orbital composition:   [THRPRINT= 0.020]

   ORB  GRP  ORB.ENERGY      CENTERS/CHARGES
     1   1   -10.469492      C  1   2.000
     2   1    -0.614528      C  1   1.168   H  3   0.823
     3   1    -0.614528      C  1   1.168   H  4   0.823
     4   1    -0.614210      C  1   1.167   H  2   0.824
     5   1    -0.515776      H  5   0.843   H  6   0.634   C  1   0.521
     6   2    -0.150444      C  1   0.545   H  6   0.444

 Localized orbitals saved to record      2200.2  (orbital set 4)


 **********************************************************************************************************************************
 DATASETS  * FILE   NREC   LENGTH (MB)   RECORD NAMES
              1      20       31.87       500      610      700      900      950      970     1000      129      960     1100   
                                          VAR    BASINP    GEOM    SYMINP    ZMAT    AOBASIS   BASIS     P2S    ABASIS      S 
                                         1400     1410     1200     1210     1080     1600     1650     1300     1700     1800   
                                           T        V       H0       H01     AOSYM     SMH    MOLCAS    ERIS     OPER     GRID   

              2       5        2.92       700     1000      520     1800     2200   
                                         GEOM     BASIS   MCVARS    GRID      UKS  

 PROGRAMS   *        TOTAL      IBBA       UKS       INT
 CPU TIMES  *         7.04      0.02      6.60      0.28
 REAL TIME  *         7.78 SEC
 DISK USED  *        36.24 MB      
 **********************************************************************************************************************************
 Molecular orbitals read from record     2200.2  Type=UKS/LOCAL(IBO)  
 Occupation numbers read from record     2200.2  Type=UKS/LOCAL(IBO)  
 Orbital energies read from record       2200.2  Type=UKS/LOCAL(IBO)  
 Redundancy group numbers read from rec  2200.2  Type=UKS/BETA (state 1.1)

 IBBA/SVP energy=      0.000000000000

        UKS-SCF 
    -40.93795687
 **********************************************************************************************************************************
 Molpro calculation terminated
