
 Primary working directories    : /local
 Secondary working directories  : /local
 Wavefunction directory         : /local/
 Main file repository           : /local/

 SHA1      : b4a5b34a9e711420743f49e6833241d17c61fb3c
 NAME      : 2099.9.b4a5b34
 ARCHNAME  : linux/x86_64_openmp
 FC        : /cm/shared/languages/GCC-6.1/bin/gfortran
 BLASLIB   : -lblas
 id        : simonbennie

 Nodes     nprocs
 node32-029    1

 Using customized tuning parameters: mindgm=1; mindgv=20; mindgc=4; mindgr=1; noblas=0; minvec=7
 default implementation of scratch files=df  

 memory,500,m
 geomtyp=xyz
 nosym
 noorient
 geometry={
 C          0.00000        0.26481        0.00000
 H          1.05343        0.51667        0.00000
 H         -0.52663        0.51702        0.91225
 H         -0.52663        0.51702       -0.91225
 H         -0.00026       -1.11777        0.00000
 H          0.00008       -2.02183        0.00000
 }
 basis={ default,qzvp }
 {hf,direct;wf,11,1,1}
 {df-ks,B3LYP5,direct;maxit,0;wf,11,1,1}
 {ibba,bonds=1}

 Variables initialized (895), CPU time= 0.00 sec
 Commands  initialized (725), CPU time= 0.01 sec, 591 directives.
 Default parameters read. Elapsed time= 0.19 sec

 Checking input...
 Passed
1


                                         ***  PROGRAM SYSTEM MOLPRO  ***
                                       Copyright, TTI GmbH Stuttgart, 2015
                                    Version 2099.9 linked May 26 2017 16:03:21


 **********************************************************************************************************************************
 LABEL *                                                                                 
  64 bit serial version                                                                  DATE: 17-Mar-18          TIME: 16:05:09  
 **********************************************************************************************************************************

 SHA1:             b4a5b34a9e711420743f49e6833241d17c61fb3c
 **********************************************************************************************************************************
 SETTING GEOMTYP        =    XYZ

 Variable memory set to  500000000 words,  buffer space 

 ZSYMEL=NOSYM

 SETTING BASIS          =    QZVP


 Recomputing integrals since basis changed


 Using spherical harmonics

 Library entry C      S def2-QZVP            selected for orbital group  1
 Library entry C      P def2-QZVP            selected for orbital group  1
 Library entry C      D def2-QZVP            selected for orbital group  1
 Library entry C      F def2-QZVP            selected for orbital group  1
 Library entry C      G def2-QZVP            selected for orbital group  1
 Library entry H      S def2-QZVP            selected for orbital group  2
 Library entry H      P def2-QZVP            selected for orbital group  2
 Library entry H      D def2-QZVP            selected for orbital group  2
 Library entry H      F def2-QZVP            selected for orbital group  2


 PROGRAM * SEWARD (Integral evaluation for generally contracted gaussian basis sets)     Author: Roland Lindh, 1990

 Geometry written to block  1 of record 700


 Point group  C1  



 ATOMIC COORDINATES

 NR  ATOM    CHARGE       X              Y              Z

   1  C       6.00    0.000000000    0.500418375    0.000000000
   2  H       1.00    1.990694191    0.976364797    0.000000000
   3  H       1.00   -0.995186469    0.977026201    1.723902657
   4  H       1.00   -0.995186469    0.977026201   -1.723902657
   5  H       1.00   -0.000491329   -2.112279170    0.000000000
   6  H       1.00    0.000151178   -3.820704970    0.000000000

 Bond lengths in Bohr (Angstrom)

 1-2  2.046799541  1-3  2.046800308  1-4  2.046800308  1-5  2.612697591
     ( 1.083119672)     ( 1.083120078)     ( 1.083120078)     ( 1.382580024)

 Bond angles

  2-1-3  114.75516930   2-1-4  114.75516930   2-1-5  103.45696275   3-1-4  114.75541708

  3-1-5  103.45983296   4-1-5  103.45983296

 NUCLEAR CHARGE:                   11
 NUMBER OF PRIMITIVE AOS:         282
 NUMBER OF SYMMETRY AOS:          242
 NUMBER OF CONTRACTIONS:          207   ( 207A   )
 NUMBER OF CORE ORBITALS:           1   (   1A   )
 NUMBER OF VALENCE ORBITALS:        9   (   9A   )


 NUCLEAR REPULSION ENERGY   15.32860217


 Eigenvalues of metric

         1 0.134E-03 0.151E-03 0.151E-03 0.211E-03 0.479E-03 0.823E-03 0.823E-03 0.982E-03


 Contracted 2-electron integrals neglected if value below      1.0D-11
 AO integral compression algorithm  1   Integral accuracy      1.0D-11

     828.375 MB (compressed) written to integral file ( 39.5%)


 NUMBER OF SORTED TWO-ELECTRON INTEGRALS:  231738156.     BUFFER LENGTH:  32768
 NUMBER OF SEGMENTS:  15  SEGMENT LENGTH:   15999503      RECORD LENGTH: 524288

 Memory used in sort:      16.56 MW

 SORT1 READ   261984116. AND WROTE   190332775. INTEGRALS IN    553 RECORDS. CPU TIME:     2.62 SEC, REAL TIME:     5.36 SEC
 SORT2 READ   190332775. AND WROTE   231738156. INTEGRALS IN   3160 RECORDS. CPU TIME:     4.45 SEC, REAL TIME:     5.72 SEC

 FILE SIZES:   FILE 1:   860.0 MBYTE,  FILE 4:  2319.5 MBYTE,   TOTAL:   3179.5 MBYTE

 OPERATOR DM      FOR CENTER  0  COORDINATES:    0.000000    0.000000    0.000000


 **********************************************************************************************************************************
 DATASETS  * FILE   NREC   LENGTH (MB)   RECORD NAMES
              1      19      771.64       500      610      700      900      950      970     1000      129      960     1100   
                                          VAR    BASINP    GEOM    SYMINP    ZMAT    AOBASIS   BASIS     P2S    ABASIS      S 
                                         1400     1410     1200     1210     1080     1600     1650     1300     1700   
                                           T        V       H0       H01     AOSYM     SMH    MOLCAS    ERIS     OPER   

 PROGRAMS   *        TOTAL       INT
 CPU TIMES  *        17.50     17.35
 REAL TIME  *        39.36 SEC
 DISK USED  *         3.18 GB      
 **********************************************************************************************************************************


 PROGRAM * RHF-SCF (OPEN SHELL)       Authors: W. Meyer, H.-J. Werner


 NUMBER OF ELECTRONS:       6+    5-    SPACE SYMMETRY=1    SPIN SYMMETRY: Doublet 
 CONVERGENCE THRESHOLDS:    1.00E-05 (Density)    1.00E-07 (Energy)
 INTEGRAL THRESHOLDS:       1.00E-11 (Initial)    1.00E-11 (Final)
 MAX. NUMBER OF ITERATIONS:       60
 INTERPOLATION TYPE:            DIIS
 INTERPOLATION STEPS:              2 (START)      1 (STEP)
 LEVEL SHIFTS:                 -0.60 (CLOSED) -0.30 (OPEN) 



 Orbital guess generated from atomic densities. Full valence occupancy:    6

 Molecular orbital dump at record        2100.2

 Initial alpha occupancy:   6
 Initial beta  occupancy:   5
 Wave function symmetry:    1

 Direct Fock-matrix evaluation.        Author: H.-J. Werner (1996)

 Integral Threshold:                  0.1D-10

 ITERATION   DDIFF            GRAD            ENERGY        2-EL.EN.            DIPOLE MOMENTS         DIIS   CPU(IT)  CPU(TOT)
    1      0.000D+00      0.000D+00       -40.64918463     56.238606    0.00000    0.01573    0.00000    0     12.3     13.7     start
    2      0.000D+00      0.265D-02       -40.66367517     55.612093    0.00001    0.25154    0.00000    1     11.6     25.3     diag,B
    3      0.515D-03      0.109D-02       -40.66669670     55.687547    0.00001    0.31626    0.00000    2     11.6     36.9     diag,B
    4      0.258D-03      0.512D-03       -40.66777564     55.694764    0.00002    0.36624   -0.00000    3     11.6     48.5     diag,B
    5      0.223D-03      0.159D-03       -40.66795081     55.691141    0.00001    0.38019   -0.00000    4     11.5     60.0     diag,B
    6      0.112D-03      0.731D-04       -40.66802246     55.686091    0.00001    0.38885   -0.00000    5     11.5     71.5     diag,B
    7      0.791D-04      0.471D-04       -40.66807484     55.681393    0.00001    0.39861   -0.00000    6     11.5     83.0     fixocc
    8      0.868D-04      0.258D-04       -40.66809317     55.679157    0.00002    0.40503   -0.00000    7     11.7     94.6     diag,B
    9      0.778D-04      0.840D-05       -40.66809450     55.679083    0.00002    0.40591   -0.00000    8     11.3    105.9     diag,B
   10      0.269D-04      0.231D-05       -40.66809458     55.679286    0.00002    0.40572   -0.00000    9     11.2    117.1     orth
   11      0.781D-05      0.855D-06       -40.66809458     55.679329    0.00002    0.40565   -0.00000    0     11.1    128.2     orth

 Final alpha occupancy:   6
 Final beta  occupancy:   5

 !RHF STATE 1.1 Energy                -40.668094580655
 Nuclear energy                        15.32860217
 One-electron energy                  -83.83636144
 Two-electron energy                   27.83966469
 Virial quotient                       -1.00091262
 !RHF STATE 1.1 Dipole moment           0.00001574     0.40564839    -0.00000000
 Dipole moment /Debye                   0.00004001     1.03098784    -0.00000000

 Orbital energies:

         1.1          2.1          3.1          4.1          5.1          6.1          7.1          8.1
    -11.239008    -0.939514    -0.577718    -0.577717    -0.575004    -0.339133     0.114861     0.161592

 HOMO      6.1    -0.339133 =      -9.2283eV
 LUMO      7.1     0.114861 =       3.1255eV
 LUMO-HOMO         0.453994 =      12.3538eV


 **********************************************************************************************************************************
 DATASETS  * FILE   NREC   LENGTH (MB)   RECORD NAMES
              1      19      771.64       500      610      700      900      950      970     1000      129      960     1100   
                                          VAR    BASINP    GEOM    SYMINP    ZMAT    AOBASIS   BASIS     P2S    ABASIS      S 
                                         1400     1410     1200     1210     1080     1600     1650     1300     1700   
                                           T        V       H0       H01     AOSYM     SMH    MOLCAS    ERIS     OPER   

              2       4        4.07       700     1000      520     2100   
                                         GEOM     BASIS   MCVARS     RHF  

 PROGRAMS   *        TOTAL        HF       INT
 CPU TIMES  *       145.76    128.26     17.35
 REAL TIME  *       244.14 SEC
 DISK USED  *         3.18 GB      
 **********************************************************************************************************************************

 Density functional group B3LYP5=B88+DIRAC+LYP+VWN5
 Functional: B88(Automatically generated (new) B88)                            Gradient terms: 1
 Functional: DIRAC(Automatically generated (new) DIRAC)                        Gradient terms: 0
 Functional: LYP(Automatically generated (new) LYP)                            Gradient terms: 1
 Functional: VWN5(Automatically generated (new) VWN5)                          Gradient terms: 0
 Use grid at  1800.2


 Exact exchange will be calculated, factor:  0.2000

 Functional: B88                       Factor:  0.7200
 Functional: DIRAC                     Factor:  0.0800
 Functional: LYP                       Factor:  0.8100
 Functional: VWN5                      Factor:  0.1900

 Generated new metagrid on record  1800.2 with target accuracy 1.0D-06 and 19122 points in CPU time    0.4
 Computed new grid on record 1800.1 in CPU time    0.4
  168170 words reserved for DFT integration

 PROGRAM * RKS-SCF (Restricted open shell Kohn-Sham)     Authors: W. Meyer, H.-J. Werner, P.J. Knowles, 1993

 NUMBER OF ELECTRONS:       6+    5-    SPACE SYMMETRY=1    SPIN SYMMETRY: Doublet 
 CONVERGENCE THRESHOLDS:    1.00E-05 (Density)    1.00E-06 (Energy)
 INTEGRAL THRESHOLDS:       1.00E-11 (Initial)    1.00E-11 (Final)
 MAX. NUMBER OF ITERATIONS:        0
 INTERPOLATION TYPE:            DIIS
 INTERPOLATION STEPS:              2 (START)      1 (STEP)
 LEVEL SHIFTS:                 -0.60 (CLOSED) -0.30 (OPEN) 



 Use fine grid record 1800.2 for energy threshold  1.0D-06

 Basis set DEF2-QZVPP/JKFIT generated.   Number of basis functions:   165 

 Molecular orbitals read from record     2100.2  Type=RHF/CANONICAL (state 1.1)
 Coulomb and exchange fitting
 Thresholds for fitting:       THRAO_COUL= 1.0D-14    THRAO_EXCH= 1.0D-12    THRMO= 1.0D-11    THRPROD= 1.0D-11    THRASM= 1.0D-11
                               THR2HLF=    1.0D-11

 Molecular orbital dump at record        2101.2

 ITERATION   DDIFF            GRAD            ENERGY        2-EL.EN.            DIPOLE MOMENTS         DIIS   CPU(IT)  CPU(TOT)  ORB.
    1      0.000D+00      0.000D+00       -40.97883142     66.631292    0.00002    0.40565   -0.00000    0      1.9      1.9     start

 Final alpha occupancy:   6
 Final beta  occupancy:   5

 !RKS STATE 1.1 Energy                -40.978831422706
 Nuclear energy                        15.32860217
 One-electron energy                  -83.83636144
 Two-electron energy                   33.31564597
 Density functional                    -5.78671812     B88=-6.84361055 DIRAC=-6.11950531 LYP=-0.30831299 VWN5=-0.63170828
 Virial quotient                       -1.00856040
 !RKS STATE 1.1 Dipole moment           0.00001574     0.40564839    -0.00000000
 Dipole moment /Debye                   0.00004001     1.03098784    -0.00000000

 Orbital energies:

         1.1          2.1          3.1          4.1          5.1          6.1          7.1          8.1
    -11.239008    -0.939514    -0.577718    -0.577717    -0.575004    -0.339133     0.114861     0.161592

 HOMO      6.1    -0.339133 =      -9.2283eV
 LUMO      7.1     0.114861 =       3.1255eV
 LUMO-HOMO         0.453994 =      12.3538eV


 **********************************************************************************************************************************
 DATASETS  * FILE   NREC   LENGTH (MB)   RECORD NAMES
              1      20      772.25       500      610      700      900      950      970     1000      129      960     1100   
                                          VAR    BASINP    GEOM    SYMINP    ZMAT    AOBASIS   BASIS     P2S    ABASIS      S 
                                         1400     1410     1200     1210     1080     1600     1650     1300     1700     1800   
                                           T        V       H0       H01     AOSYM     SMH    MOLCAS    ERIS     OPER     GRID   

              2       6        8.46       700     1000      520     2100     1800     2101   
                                         GEOM     BASIS   MCVARS     RHF     GRID      RKS  

 PROGRAMS   *        TOTAL        KS        HF       INT
 CPU TIMES  *       148.12      2.36    128.26     17.35
 REAL TIME  *       246.72 SEC
 DISK USED  *         3.18 GB      
 **********************************************************************************************************************************


 PROGRAM * Intrinsic Basis Bonding Analysis (IBBA)          Author: G. Knizia

 Molecular orbitals read from record     2101.2  Type=RKS/CANONICAL (state 1.1)
 Fock matrix read from record            2101.2  Type=RKS/TOTAL (state 1.1)
 Orbital energies read from record       2101.2  Type=RKS/CANONICAL (state 1.1)
 Density matrix read from record         2101.2  Type=RKS/CHARGE (state 1.1)

 Number of core orbitals:           1 (   1 )
 Number of closed-shell orbitals:   4 (   4 )
 Number of active  orbitals:        1 (   1 )

 Basis set MINAO-AUTO-PP generated.      Number of basis functions:   10 

 Polarized AO type:                A = (O Ot + (1-O)(1-Ot)) P12
 Orthogonalization method:         Symmetric (Loewdin)
 Localization functional:          L = sum[A,i] <i|n_A|i>^4 -> max

 Localization group 1:   5 orbitals, occupancy  2.000
 Iterative localization: IB/PM,    5 iter; Final gradient 0.55E-08

 Bond order analysis:       [THRPRINT= 0.020]

   CEN ATOM   CEN ATOM     WIBERG.BO      RENORM.BO
     1   C  -   2   H       0.971827       1.000000
     1   C  -   3   H       0.971824       1.000000
     1   C  -   4   H       0.971824       1.000000
     1   C  -   5   H       0.376771       1.000000
     1   C  -   6   H       0.263838       1.000000

     2   H  -   1   C       0.971827       1.000000

     3   H  -   1   C       0.971824       1.000000

     4   H  -   1   C       0.971824       1.000000

     5   H  -   6   H       0.619020       0.964637
     5   H  -   1   C       0.376771       1.000000

     6   H  -   5   H       0.619020       0.964637
     6   H  -   1   C       0.263838       1.000000


 Valency analysis:

   CEN ATOM   TOT.VALENCE
     1   C       3.556085
     2   H       0.977337
     3   H       0.977337
     4   H       0.977337
     5   H       0.997269
     6   H       0.895732
 Localization group 2:   1 orbitals, occupancy  1.000
 Iterative localization: IB/PM,    1 iter; Final gradient 0.00E+00

 Bond order analysis:       [THRPRINT= 0.020]

   CEN ATOM   CEN ATOM     WIBERG.BO      RENORM.BO
     1   C  -   6   H       0.468344       0.500000





     6   H  -   1   C       0.468344       0.500000


 Valency analysis:

   CEN ATOM   TOT.VALENCE
     1   C       0.481266
     2   H       0.006810
     3   H       0.006816
     4   H       0.006816
     5   H       0.001142
     6   H       0.476840

 Total charge composition:

   CEN ATOM         s          p       ELECTRONS ->P.CHARGE
     1   C       3.11599    3.30758      6.42357   -0.42357
     2   H       0.85288                 0.85288    0.14712
     3   H       0.85288                 0.85288    0.14712
     4   H       0.85288                 0.85288    0.14712
     5   H       0.94832                 0.94832    0.05168
     6   H       1.06948                 1.06948   -0.06948

 Total charge composition, AO contributions:

   CEN ATOM SHL      SPHERICAL COMPONENTS
     1   C  1s       1.99108
     1   C  2s       1.12491
     1   C  2p       1.16961    0.96835    1.16961

     2   H  1s       0.85288

     3   H  1s       0.85288

     4   H  1s       0.85288

     5   H  1s       0.94832

     6   H  1s       1.06948

 Active orbital charges:

   CEN ATOM         s          p       ELECTRONS ->SPIN.DEN
     1   C       0.05059    0.54619      0.59678    0.59678
     2   H       0.00342                 0.00342    0.00342
     3   H       0.00342                 0.00342    0.00342
     4   H       0.00342                 0.00342    0.00342
     5   H       0.00057                 0.00057    0.00057
     6   H       0.39239                 0.39239    0.39239

 Active orbital charges, AO contributions:

   CEN ATOM SHL      SPHERICAL COMPONENTS
     1   C  1s       0.00009
     1   C  2s       0.05050
     1   C  2p       0.00000    0.54619    0.00000

     2   H  1s       0.00342

     3   H  1s       0.00342

     4   H  1s       0.00342

     5   H  1s       0.00057

     6   H  1s       0.39239

 Summary of localized orbital composition:   [THRPRINT= 0.020]

   ORB  GRP  ORB.ENERGY      CENTERS/CHARGES
     1   1   -10.102279      C  1   2.000
     2   1    -0.547031      C  1   1.146   H  4   0.849
     3   1    -0.547031      C  1   1.146   H  3   0.849
     4   1    -0.547030      C  1   1.146   H  2   0.849
     5   1    -0.457453      H  5   0.943   H  6   0.668   C  1   0.388
     6   2    -0.155702      C  1   0.597   H  6   0.392

 Localized orbitals saved to record      2101.2  (orbital set 2)


 **********************************************************************************************************************************
 DATASETS  * FILE   NREC   LENGTH (MB)   RECORD NAMES
              1      20      772.25       500      610      700      900      950      970     1000      129      960     1100   
                                          VAR    BASINP    GEOM    SYMINP    ZMAT    AOBASIS   BASIS     P2S    ABASIS      S 
                                         1400     1410     1200     1210     1080     1600     1650     1300     1700     1800   
                                           T        V       H0       H01     AOSYM     SMH    MOLCAS    ERIS     OPER     GRID   

              2       6        8.81       700     1000      520     2100     1800     2101   
                                         GEOM     BASIS   MCVARS     RHF     GRID      RKS  

 PROGRAMS   *        TOTAL      IBBA        KS        HF       INT
 CPU TIMES  *       148.16      0.04      2.36    128.26     17.35
 REAL TIME  *       246.82 SEC
 DISK USED  *         3.18 GB      
 **********************************************************************************************************************************

 IBBA/QZVP energy=      0.000000000000

        DF-KS           HF-SCF  
    -40.97883142    -40.66809458
 **********************************************************************************************************************************
 Molpro calculation terminated
