
 Primary working directories    : /local
 Secondary working directories  : /local
 Wavefunction directory         : /local/
 Main file repository           : /local/

 SHA1      : b4a5b34a9e711420743f49e6833241d17c61fb3c
 NAME      : 2099.9.b4a5b34
 ARCHNAME  : linux/x86_64_openmp
 FC        : /cm/shared/languages/GCC-6.1/bin/gfortran
 BLASLIB   : -lblas
 id        : simonbennie

 Nodes     nprocs
 node32-015    1

 Using customized tuning parameters: mindgm=1; mindgv=20; mindgc=4; mindgr=1; noblas=0; minvec=7
 default implementation of scratch files=df  

 memory,500,m
 geomtyp=xyz
 nosym
 noorient
 geometry={
 C          0.00000        0.26481        0.00000
 H          1.05343        0.51667        0.00000
 H         -0.52663        0.51702        0.91225
 H         -0.52663        0.51702       -0.91225
 H         -0.00026       -1.11777        0.00000
 H          0.00008       -2.02183        0.00000
 }
 basis={ default,sto-3g }
 {ks,PBE0,direct;disp;wf,11,1,1}
 {ibba,bonds=1}

 Variables initialized (895), CPU time= 0.01 sec
 Commands  initialized (725), CPU time= 0.01 sec, 591 directives.
 Default parameters read. Elapsed time= 0.08 sec

 Checking input...
 Passed
1


                                         ***  PROGRAM SYSTEM MOLPRO  ***
                                       Copyright, TTI GmbH Stuttgart, 2015
                                    Version 2099.9 linked May 26 2017 16:03:21


 **********************************************************************************************************************************
 LABEL *                                                                                 
  64 bit serial version                                                                  DATE: 17-Mar-18          TIME: 14:57:50  
 **********************************************************************************************************************************

 SHA1:             b4a5b34a9e711420743f49e6833241d17c61fb3c
 **********************************************************************************************************************************
 SETTING GEOMTYP        =    XYZ

 Variable memory set to  500000000 words,  buffer space 

 ZSYMEL=NOSYM

 SETTING BASIS          =    STO-3G


 Recomputing integrals since basis changed


 Using spherical harmonics

 Library entry C      S STO-3G               selected for orbital group  1
 Library entry C      P STO-3G               selected for orbital group  1
 Library entry H      S STO-3G               selected for orbital group  2


 PROGRAM * SEWARD (Integral evaluation for generally contracted gaussian basis sets)     Author: Roland Lindh, 1990

 Geometry written to block  1 of record 700


 Point group  C1  



 ATOMIC COORDINATES

 NR  ATOM    CHARGE       X              Y              Z

   1  C       6.00    0.000000000    0.500418375    0.000000000
   2  H       1.00    1.990694191    0.976364797    0.000000000
   3  H       1.00   -0.995186469    0.977026201    1.723902657
   4  H       1.00   -0.995186469    0.977026201   -1.723902657
   5  H       1.00   -0.000491329   -2.112279170    0.000000000
   6  H       1.00    0.000151178   -3.820704970    0.000000000

 Bond lengths in Bohr (Angstrom)

 1-2  2.046799541  1-3  2.046800308  1-4  2.046800308  1-5  2.612697591
     ( 1.083119672)     ( 1.083120078)     ( 1.083120078)     ( 1.382580024)

 Bond angles

  2-1-3  114.75516930   2-1-4  114.75516930   2-1-5  103.45696275   3-1-4  114.75541708

  3-1-5  103.45983296   4-1-5  103.45983296

 NUCLEAR CHARGE:                   11
 NUMBER OF PRIMITIVE AOS:          30
 NUMBER OF SYMMETRY AOS:           30
 NUMBER OF CONTRACTIONS:           10   (  10A   )
 NUMBER OF CORE ORBITALS:           1   (   1A   )
 NUMBER OF VALENCE ORBITALS:        9   (   9A   )


 NUCLEAR REPULSION ENERGY   15.32860217


 Eigenvalues of metric

         1 0.233E+00 0.344E+00 0.356E+00 0.356E+00 0.864E+00 0.991E+00 0.149E+01 0.149E+01


 Contracted 2-electron integrals neglected if value below      1.0D-11
 AO integral compression algorithm  1   Integral accuracy      1.0D-11

     0.262 MB (compressed) written to integral file (100.0%)


 NUMBER OF SORTED TWO-ELECTRON INTEGRALS:       1540.     BUFFER LENGTH:  32768
 NUMBER OF SEGMENTS:   1  SEGMENT LENGTH:       1540      RECORD LENGTH: 524288

 Memory used in sort:       0.56 MW

 SORT1 READ        1894. AND WROTE        1287. INTEGRALS IN      1 RECORDS. CPU TIME:     0.00 SEC, REAL TIME:     0.00 SEC
 SORT2 READ        1287. AND WROTE        1540. INTEGRALS IN      1 RECORDS. CPU TIME:     0.00 SEC, REAL TIME:     0.00 SEC

 FILE SIZES:   FILE 1:    30.3 MBYTE,  FILE 4:     4.2 MBYTE,   TOTAL:     34.5 MBYTE

 OPERATOR DM      FOR CENTER  0  COORDINATES:    0.000000    0.000000    0.000000


 **********************************************************************************************************************************
 DATASETS  * FILE   NREC   LENGTH (MB)   RECORD NAMES
              1      19       30.03       500      610      700      900      950      970     1000      129      960     1100   
                                          VAR    BASINP    GEOM    SYMINP    ZMAT    AOBASIS   BASIS     P2S    ABASIS      S 
                                         1400     1410     1200     1210     1080     1600     1650     1300     1700   
                                           T        V       H0       H01     AOSYM     SMH    MOLCAS    ERIS     OPER   

 PROGRAMS   *        TOTAL       INT
 CPU TIMES  *         0.44      0.30
 REAL TIME  *         0.73 SEC
 DISK USED  *        34.86 MB      
 **********************************************************************************************************************************

 Density functional group PBE0=PBEX+PBEC
 Functional: PBEX(Automatically generated (new) PBEX)                          Gradient terms: 1
 Functional: PBEC(Automatically generated (new) PBEC)                          Gradient terms: 1

 dispersion correction activated
 Density functional: PBE0    
 functional not in list, set to default 


 Exact exchange will be calculated, factor:  0.2500

 Functional: PBEX                      Factor:  0.7500
 Functional: PBEC                      Factor:  1.0000

 Use grid at  1800.2


 Exact exchange will be calculated, factor:  0.2500

 Functional: PBEX                      Factor:  0.7500
 Functional: PBEC                      Factor:  1.0000

 Generated new metagrid on record  1800.2 with target accuracy 1.0D-06 and 17266 points in CPU time    0.4
 Computed new grid on record 1800.1 in CPU time    0.4
   11902 words reserved for DFT integration

 PROGRAM * RKS-SCF (Restricted open shell Kohn-Sham)     Authors: W. Meyer, H.-J. Werner, P.J. Knowles, 1993

 NUMBER OF ELECTRONS:       6+    5-    SPACE SYMMETRY=1    SPIN SYMMETRY: Doublet 
 CONVERGENCE THRESHOLDS:    1.00E-05 (Density)    1.00E-06 (Energy)
 MAX. NUMBER OF ITERATIONS:       60
 INTERPOLATION TYPE:            DIIS
 INTERPOLATION STEPS:              2 (START)      1 (STEP)
 LEVEL SHIFTS:                 -0.60 (CLOSED) -0.30 (OPEN) 



 Use fine grid record 1800.2 for energy threshold  1.0D-06
 Orbital guess generated from atomic densities. Full valence occupancy:    6

 Molecular orbital dump at record        2100.2

 Initial alpha occupancy:   6
 Initial beta  occupancy:   5
 Wave function symmetry:    1

 ITERATION    DDIFF          GRAD             ENERGY        2-EL.EN.            DIPOLE MOMENTS         DIIS   ORB.
    1      0.000D+00      0.000D+00       -40.37994896     69.176648    0.00007   -0.35261   -0.00000    0    start
    2      0.000D+00      0.328D-01       -40.42948817     66.427778   -0.00001    0.29211   -0.00000    1    diag,B
    3      0.724D-01      0.716D-02       -40.43208516     66.883230    0.00001    0.15884   -0.00000    2    diag,B
    4      0.142D-01      0.874D-03       -40.43221295     66.869768    0.00001    0.15931   -0.00000    3    diag,B
    5      0.268D-02      0.341D-03       -40.43224967     66.865112    0.00001    0.16548   -0.00000    4    diag,B
    6      0.151D-02      0.132D-03       -40.43225620     66.864569    0.00001    0.17014   -0.00000    5    diag,B
    7      0.792D-03      0.230D-04       -40.43225631     66.863994    0.00001    0.17061   -0.00000    6    fixocc
    8      0.129D-03      0.183D-05       -40.43225631     66.864013    0.00001    0.17055   -0.00000    7    diag,B
    9      0.928D-05      0.342D-06       -40.43225631     66.864016    0.00001    0.17055   -0.00000    0    orth

 Dispersion correction
 - - - - - - - - - - - 
  _________________________________
                                   
 |         DFTD3 V1.3 Rev 1        |
 | S.Grimme, University Muenster   |
 | Fri Jul  2 12:48:21 CEST 2010   |
  _________________________________

 Please cite DFT-D3 work done with this code as:
 S. Grimme, J. Antony, S. Ehrlich and H. Krieg,
 J. Chem. Phys, 132 (2010), 154104.
 For DFT-D2 the reference is
 S. Grimme, J. Comput. Chem., 27 (2006), 1787-1799

 C6 coefficients used:
                    2  C6 for element                     1
 Z=  1 CN=   0.912     C6(AA)=    3.03
 Z=  1 CN=   0.000     C6(AA)=    7.59
                    5  C6 for element                     6
 Z=  6 CN=   0.000     C6(AA)=   49.11
 Z=  6 CN=   0.987     C6(AA)=   43.25
 Z=  6 CN=   1.998     C6(AA)=   29.36
 Z=  6 CN=   2.999     C6(AA)=   25.78
 Z=  6 CN=   3.984     C6(AA)=   18.21

 #           XYZ [au]               R0(AA) [Ang.]   CN       C6(AA)     C8(AA)   C10(AA) [au]
  1   0.00000   0.50042   0.00000   c   1.455  3.609        20.2       583.5     20672.3
  2   1.99069   0.97636   0.00000   h   1.091  0.994         3.1        37.4       553.7
  3  -0.99519   0.97703   1.72390   h   1.091  0.994         3.1        37.4       553.7
  4  -0.99519   0.97703  -1.72390   h   1.091  0.994         3.1        37.4       553.7
  5  -0.00049  -2.11228   0.00000   h   1.091  0.915         3.1        38.0       562.9
  6   0.00015  -3.82070   0.00000   h   1.091  0.292         6.3        76.5      1132.7

 molecular C6(AA) [au] =       196.51

           DFT-D V3
 DF pbe                                               
 parameters
 s6       :    1.0000
 s8       :    0.7220
 rs6      :    1.2170
 alpha6   :   14.0000
 alpha8   :   16.0000
 k1-k3    :   16.0000    1.3333   -4.0000

 Edisp /kcal,au:    -0.3251 -0.00051803

 E6    /kcal :    -0.1018
 E8    /kcal :    -0.2233
 % E8        : 68.68
 normal termination of dftd3

 RKS STATE 1.1 ENERGY+DISP      -40.43277434

 Final alpha occupancy:   6
 Final beta  occupancy:   5

 !RKS STATE 1.1 Energy                -40.432774342457
 Nuclear energy                        15.32860217
 One-electron energy                  -83.71311143
 Two-electron energy                   33.43200814
 Density functional                    -5.47975519     PBEX=-6.87165513 PBEC=-0.32601384
 Virial quotient                       -1.00635896
 !RKS STATE 1.1 Dipole moment           0.00000758     0.17055429    -0.00000000
 Dipole moment /Debye                   0.00001926     0.43347737    -0.00000000

 Orbital energies:

         1.1          2.1          3.1          4.1          5.1          6.1          7.1          8.1
    -10.028133    -0.670898    -0.396774    -0.387003    -0.387001    -0.157186     0.443677     0.496044

 HOMO      6.1    -0.157186 =      -4.2773eV
 LUMO      7.1     0.443677 =      12.0731eV
 LUMO-HOMO         0.600863 =      16.3503eV


 **********************************************************************************************************************************
 DATASETS  * FILE   NREC   LENGTH (MB)   RECORD NAMES
              1      20       30.59       500      610      700      900      950      970     1000      129      960     1100   
                                          VAR    BASINP    GEOM    SYMINP    ZMAT    AOBASIS   BASIS     P2S    ABASIS      S 
                                         1400     1410     1200     1210     1080     1600     1650     1300     1700     1800   
                                           T        V       H0       H01     AOSYM     SMH    MOLCAS    ERIS     OPER     GRID   

              2       5        2.84       700     1000      520     1800     2100   
                                         GEOM     BASIS   MCVARS    GRID      RKS  

 PROGRAMS   *        TOTAL        KS       INT
 CPU TIMES  *         1.37      0.93      0.30
 REAL TIME  *         1.70 SEC
 DISK USED  *        34.86 MB      
 **********************************************************************************************************************************


 PROGRAM * Intrinsic Basis Bonding Analysis (IBBA)          Author: G. Knizia

 Molecular orbitals read from record     2100.2  Type=RKS/CANONICAL (state 1.1)
 Fock matrix read from record            2100.2  Type=RKS/TOTAL (state 1.1)
 Orbital energies read from record       2100.2  Type=RKS/CANONICAL (state 1.1)
 Density matrix read from record         2100.2  Type=RKS/CHARGE (state 1.1)

 Number of core orbitals:           1 (   1 )
 Number of closed-shell orbitals:   4 (   4 )
 Number of active  orbitals:        1 (   1 )

 Basis set MINAO-AUTO-PP generated.      Number of basis functions:   10 

 Polarized AO type:                A = (O Ot + (1-O)(1-Ot)) P12
 Orthogonalization method:         Symmetric (Loewdin)
 Localization functional:          L = sum[A,i] <i|n_A|i>^4 -> max

 Localization group 1:   5 orbitals, occupancy  2.000
 Iterative localization: IB/PM,    5 iter; Final gradient 0.21E-08

 Bond order analysis:       [THRPRINT= 0.020]

   CEN ATOM   CEN ATOM     WIBERG.BO      RENORM.BO
     1   C  -   2   H       0.974072       1.000000
     1   C  -   3   H       0.974070       1.000000
     1   C  -   4   H       0.974070       1.000000
     1   C  -   5   H       0.440766       1.000000
     1   C  -   6   H       0.280659       1.000000

     2   H  -   1   C       0.974072       1.000000

     3   H  -   1   C       0.974070       1.000000

     4   H  -   1   C       0.974070       1.000000

     5   H  -   6   H       0.554157       0.955447
     5   H  -   1   C       0.440766       1.000000

     6   H  -   5   H       0.554157       0.955447
     6   H  -   1   C       0.280659       1.000000


 Valency analysis:

   CEN ATOM   TOT.VALENCE
     1   C       3.643639
     2   H       0.981477
     3   H       0.981476
     4   H       0.981476
     5   H       0.997322
     6   H       0.849184
 Localization group 2:   1 orbitals, occupancy  1.000
 Iterative localization: IB/PM,    1 iter; Final gradient 0.00E+00

 Bond order analysis:       [THRPRINT= 0.020]

   CEN ATOM   CEN ATOM     WIBERG.BO      RENORM.BO
     1   C  -   6   H       0.477508       0.500000





     6   H  -   1   C       0.477508       0.500000


 Valency analysis:

   CEN ATOM   TOT.VALENCE
     1   C       0.482187
     2   H       0.002151
     3   H       0.002154
     4   H       0.002154
     5   H       0.001404
     6   H       0.480670

 Total charge composition:

   CEN ATOM         s          p       ELECTRONS ->P.CHARGE
     1   C       3.07402    3.36876      6.44278   -0.44278
     2   H       0.86498                 0.86498    0.13502
     3   H       0.86498                 0.86498    0.13502
     4   H       0.86498                 0.86498    0.13502
     5   H       0.94895                 0.94895    0.05105
     6   H       1.01334                 1.01334   -0.01334

 Total charge composition, AO contributions:

   CEN ATOM SHL      SPHERICAL COMPONENTS
     1   C  1s       1.99251
     1   C  2s       1.08151
     1   C  2p       1.16624    1.03628    1.16624

     2   H  1s       0.86498

     3   H  1s       0.86498

     4   H  1s       0.86498

     5   H  1s       0.94895

     6   H  1s       1.01334

 Active orbital charges:

   CEN ATOM         s          p       ELECTRONS ->SPIN.DEN
     1   C       0.04552    0.54885      0.59437    0.59437
     2   H       0.00108                 0.00108    0.00108
     3   H       0.00108                 0.00108    0.00108
     4   H       0.00108                 0.00108    0.00108
     5   H       0.00070                 0.00070    0.00070
     6   H       0.40169                 0.40169    0.40169

 Active orbital charges, AO contributions:

   CEN ATOM SHL      SPHERICAL COMPONENTS
     1   C  1s       0.00003
     1   C  2s       0.04549
     1   C  2p       0.00000    0.54885    0.00000

     2   H  1s       0.00108

     3   H  1s       0.00108

     4   H  1s       0.00108

     5   H  1s       0.00070

     6   H  1s       0.40169

 Summary of localized orbital composition:   [THRPRINT= 0.020]

   ORB  GRP  ORB.ENERGY      CENTERS/CHARGES
     1   1    -9.920059      C  1   2.000
     2   1    -0.506851      C  1   1.131   H  3   0.863
     3   1    -0.506851      C  1   1.131   H  4   0.863
     4   1    -0.506849      C  1   1.131   H  2   0.863
     5   1    -0.429197      H  5   0.944   H  6   0.599   C  1   0.457
     6   2    -0.064418      C  1   0.594   H  6   0.402

 Localized orbitals saved to record      2100.2  (orbital set 2)


 **********************************************************************************************************************************
 DATASETS  * FILE   NREC   LENGTH (MB)   RECORD NAMES
              1      20       30.59       500      610      700      900      950      970     1000      129      960     1100   
                                          VAR    BASINP    GEOM    SYMINP    ZMAT    AOBASIS   BASIS     P2S    ABASIS      S 
                                         1400     1410     1200     1210     1080     1600     1650     1300     1700     1800   
                                           T        V       H0       H01     AOSYM     SMH    MOLCAS    ERIS     OPER     GRID   

              2       5        2.84       700     1000      520     1800     2100   
                                         GEOM     BASIS   MCVARS    GRID      RKS  

 PROGRAMS   *        TOTAL      IBBA        KS       INT
 CPU TIMES  *         1.38      0.01      0.93      0.30
 REAL TIME  *         1.73 SEC
 DISK USED  *        34.86 MB      
 **********************************************************************************************************************************

 IBBA/STO-3G energy=      0.000000000000

        KS-SCF  
    -40.43277434
 **********************************************************************************************************************************
 Molpro calculation terminated
