
 Primary working directories    : /local
 Secondary working directories  : /local
 Wavefunction directory         : /local/
 Main file repository           : /local/

 SHA1      : b4a5b34a9e711420743f49e6833241d17c61fb3c
 NAME      : 2099.9.b4a5b34
 ARCHNAME  : linux/x86_64_openmp
 FC        : /cm/shared/languages/GCC-6.1/bin/gfortran
 BLASLIB   : -lblas
 id        : simonbennie

 Nodes     nprocs
 node32-040    1

 Using customized tuning parameters: mindgm=1; mindgv=20; mindgc=4; mindgr=1; noblas=0; minvec=7
 default implementation of scratch files=df  

 memory,500,m
 geomtyp=xyz
 nosym
 noorient
 geometry={
 C         -1.21149        0.00797        0.00041
 O          1.29397       -0.10869        0.00013
 H          0.00948       -0.11802        0.00280
 H         -1.52553       -0.23325        1.01007
 H         -1.43067        1.03323       -0.27808
 H         -1.55271       -0.71011       -0.73770
 H          1.41664        0.84989       -0.00059
 }
 basis={ default,SV(P) }
 {uks,PBE0MOL,direct;wf,19,1,1}
 {ibba,bonds=1}

 Variables initialized (895), CPU time= 0.00 sec
 Commands  initialized (725), CPU time= 0.01 sec, 591 directives.
 Default parameters read. Elapsed time= 0.12 sec

 Checking input...
 Passed
1


                                         ***  PROGRAM SYSTEM MOLPRO  ***
                                       Copyright, TTI GmbH Stuttgart, 2015
                                    Version 2099.9 linked May 26 2017 16:03:21


 **********************************************************************************************************************************
 LABEL *                                                                                 
  64 bit serial version                                                                  DATE: 24-Jun-17          TIME: 08:00:27  
 **********************************************************************************************************************************

 SHA1:             b4a5b34a9e711420743f49e6833241d17c61fb3c
 **********************************************************************************************************************************
 SETTING GEOMTYP        =    XYZ

 Variable memory set to  500000000 words,  buffer space 

 ZSYMEL=NOSYM

 SETTING BASIS          =    SV(P)


 Recomputing integrals since basis changed


 Using spherical harmonics

 Library entry C      S def2-SV(P)           selected for orbital group  1
 Library entry C      P def2-SV(P)           selected for orbital group  1
 Library entry C      D def2-SV(P)           selected for orbital group  1
 Library entry O      S def2-SV(P)           selected for orbital group  2
 Library entry O      P def2-SV(P)           selected for orbital group  2
 Library entry O      D def2-SV(P)           selected for orbital group  2
 Library entry H      S def2-SV(P)           selected for orbital group  3


 PROGRAM * SEWARD (Integral evaluation for generally contracted gaussian basis sets)     Author: Roland Lindh, 1990

 Geometry written to block  1 of record 700


 Point group  C1  



 ATOMIC COORDINATES

 NR  ATOM    CHARGE       X              Y              Z

   1  C       6.00   -2.289384303    0.015061117    0.000774788
   2  O       8.00    2.445248913   -0.205394332    0.000245664
   3  H       1.00    0.017914604   -0.223025477    0.005291233
   4  H       1.00   -2.882833895   -0.440778619    1.908755667
   5  H       1.00   -2.703574475    1.952521724   -0.525495041
   6  H       1.00   -2.934196651   -1.341913418   -1.394050962
   7  H       1.00    2.677061617    1.606059336   -0.001114938

 Bond lengths in Bohr (Angstrom)

 1-3  2.319554670  1-4  2.049478792  1-5  2.049943178  1-6  2.050049201  2-3  2.427403585
     ( 1.227455471)     ( 1.084537471)     ( 1.084783213)     ( 1.084839318)     ( 1.284526659)

 2-7  1.826226540
     ( 0.966397467)

 Bond angles

  1-3-2  173.68821167   3-1-4  105.27124604   3-1-5  107.36711084   3-1-6  104.25607416

  3-2-7   97.70877154   4-1-5  112.99849973   4-1-6  113.27293665   5-1-6  112.79152394

 NUCLEAR CHARGE:                   19
 NUMBER OF PRIMITIVE AOS:          70
 NUMBER OF SYMMETRY AOS:           68
 NUMBER OF CONTRACTIONS:           38   (  38A   )
 NUMBER OF CORE ORBITALS:           2   (   2A   )
 NUMBER OF VALENCE ORBITALS:       13   (  13A   )


 NUCLEAR REPULSION ENERGY   37.11882177


 Eigenvalues of metric

         1 0.829E-02 0.290E-01 0.655E-01 0.666E-01 0.775E-01 0.180E+00 0.217E+00 0.236E+00


 Contracted 2-electron integrals neglected if value below      1.0D-11
 AO integral compression algorithm  1   Integral accuracy      1.0D-11

     1.573 MB (compressed) written to integral file ( 49.1%)


 NUMBER OF SORTED TWO-ELECTRON INTEGRALS:     274911.     BUFFER LENGTH:  32768
 NUMBER OF SEGMENTS:   1  SEGMENT LENGTH:     274911      RECORD LENGTH: 524288

 Memory used in sort:       0.83 MW

 SORT1 READ      345687. AND WROTE      257072. INTEGRALS IN      1 RECORDS. CPU TIME:     0.01 SEC, REAL TIME:     0.01 SEC
 SORT2 READ      257072. AND WROTE      274911. INTEGRALS IN      6 RECORDS. CPU TIME:     0.02 SEC, REAL TIME:     0.03 SEC

 FILE SIZES:   FILE 1:    31.7 MBYTE,  FILE 4:     4.2 MBYTE,   TOTAL:     35.9 MBYTE

 OPERATOR DM      FOR CENTER  0  COORDINATES:    0.000000    0.000000    0.000000


 **********************************************************************************************************************************
 DATASETS  * FILE   NREC   LENGTH (MB)   RECORD NAMES
              1      19       31.17       500      610      700      900      950      970     1000      129      960     1100   
                                          VAR    BASINP    GEOM    SYMINP    ZMAT    AOBASIS   BASIS     P2S    ABASIS      S 
                                         1400     1410     1200     1210     1080     1600     1650     1300     1700   
                                           T        V       H0       H01     AOSYM     SMH    MOLCAS    ERIS     OPER   

 PROGRAMS   *        TOTAL       INT
 CPU TIMES  *         0.42      0.28
 REAL TIME  *         0.80 SEC
 DISK USED  *        36.28 MB      
 **********************************************************************************************************************************

 Density functional group PBE0MOL=PBEX+PW91C
 Functional: PBEX(Automatically generated (new) PBEX)                          Gradient terms: 1
 Functional: PW91C(Automatically generated (new) PW91C)                        Gradient terms: 1
 Use grid at  1800.2


 Exact exchange will be calculated, factor:  0.2500

 Functional: PBEX                      Factor:  0.7500
 Functional: PW91C                     Factor:  1.0000

 Generated new metagrid on record  1800.2 with target accuracy 1.0D-06 and 23318 points in CPU time    0.6
 Computed new grid on record 1800.1 in CPU time    0.6
   34198 words reserved for DFT integration

 PROGRAM * UKS-SCF (Unrestricted Kohn-Sham)     Authors: W. Meyer, H.-J. Werner, P.J. Knowles, 1993

 NUMBER OF ELECTRONS:      10+    9-    SPACE SYMMETRY=1    SPIN SYMMETRY: Doublet 
 CONVERGENCE THRESHOLDS:    1.00E-05 (Density)    1.00E-06 (Energy)
 MAX. NUMBER OF ITERATIONS:       60
 INTERPOLATION TYPE:            DIIS
 INTERPOLATION STEPS:              2 (START)      1 (STEP)
 LEVEL SHIFTS:                 -0.20 (ALPHA)  -0.20 (BETA) 



 Use fine grid record 1800.2 for energy threshold  1.0D-06
 Orbital guess generated from atomic densities. Full valence occupancy:   10

 Molecular orbital dump at record        2200.2

 Initial alpha occupation  10
 Initial beta  occupation   9

 ITERATION    DDIFF          GRAD             ENERGY        2-EL.EN.            DIPOLE MOMENTS         DIIS
    1      0.000D+00      0.000D+00      -115.95899614    184.394985   -0.94912    0.95135   -0.00231    0
    2      0.198D-01      0.104D-01      -116.01705597    177.919452   -0.63157    0.61715   -0.00148    1
    3      0.640D-02      0.527D-02      -116.02913112    179.769914   -0.68055    0.67059   -0.00137    2
    4      0.150D-02      0.979D-03      -116.03011863    179.674682   -0.61270    0.64859   -0.00129    3
    5      0.136D-02      0.500D-03      -116.03071685    179.648524   -0.55313    0.63556   -0.00114    4
    6      0.764D-03      0.232D-03      -116.03089159    179.624984   -0.50089    0.63346   -0.00110    5
    7      0.375D-03      0.109D-03      -116.03092492    179.617313   -0.48136    0.63407   -0.00110    6
    8      0.136D-03      0.312D-04      -116.03092918    179.617581   -0.47437    0.63432   -0.00110    7
    9      0.305D-04      0.104D-04      -116.03092956    179.617212   -0.47307    0.63420   -0.00111    7
   10      0.128D-04      0.403D-05      -116.03092961    179.617141   -0.47284    0.63412   -0.00111    7
   11      0.419D-05      0.134D-05      -116.03092962    179.617297   -0.47279    0.63408   -0.00111    8
   12      0.133D-05      0.449D-06      -116.03092962    179.617126   -0.47278    0.63407   -0.00111    7

 Final alpha occupancy:  10
 Final beta  occupancy:   9

 !UKS STATE 1.1 Energy               -116.030929620883
 Nuclear energy                        37.11882177
 One-electron energy                 -231.02445718
 Two-electron energy                   89.80856303
 Density functional                   -11.93385724     PBEX=-15.05343795 PW91C= -0.64377878
 Virial quotient                       -1.00641991
 !UKS STATE 1.1 Dipole moment          -0.47278047     0.63407048    -0.00110591
 Dipole moment /Debye                  -1.20160938     1.61154085    -0.00281077

 Orbital energies for positive spin:

         1.1          2.1          3.1          4.1          5.1          6.1          7.1          8.1          9.1         10.1
    -19.226718   -10.243189    -1.004328    -0.730853    -0.507356    -0.441480    -0.434393    -0.429134    -0.317163    -0.295753

        11.1         12.1
      0.066437     0.107842

 Orbital energies for negative spin:

         1.1          2.1          3.1          4.1          5.1          6.1          7.1          8.1          9.1         10.1
    -19.207870   -10.234548    -0.956096    -0.708160    -0.471767    -0.428870    -0.427859    -0.385551    -0.298958    -0.119331

        11.1         12.1
      0.071539     0.114265

 HOMO     10.1    -0.295753 =      -8.0478eV
 LUMO    -10.1    -0.119331 =      -3.2472eV
 LUMO-HOMO         0.176422 =       4.8007eV

 EXPECTATION VALUE OF S**2:             0.75803887

 Occupation number threshold for canonical orbitals:  1.999000 (occupied),  0.001000 (virtual)

 Number of pseudo-canonical orbitals per symmetry:    8
 Number of active natural orbitals per symmetry:      3

 Natural orbitals saved to record    2200.2 (Orbital set 3)

 Orbital spaces for UNO-CAS (Min. occupation: 0.020  Max. occupation: 1.980):

 Closed:        9
 Active:        1


 **********************************************************************************************************************************
 DATASETS  * FILE   NREC   LENGTH (MB)   RECORD NAMES
              1      20       31.91       500      610      700      900      950      970     1000      129      960     1100   
                                          VAR    BASINP    GEOM    SYMINP    ZMAT    AOBASIS   BASIS     P2S    ABASIS      S 
                                         1400     1410     1200     1210     1080     1600     1650     1300     1700     1800   
                                           T        V       H0       H01     AOSYM     SMH    MOLCAS    ERIS     OPER     GRID   

              2       5        2.92       700     1000      520     1800     2200   
                                         GEOM     BASIS   MCVARS    GRID      UKS  

 PROGRAMS   *        TOTAL       UKS       INT
 CPU TIMES  *         3.24      2.82      0.28
 REAL TIME  *         3.89 SEC
 DISK USED  *        36.28 MB      
 **********************************************************************************************************************************


 PROGRAM * Intrinsic Basis Bonding Analysis (IBBA)          Author: G. Knizia

 Molecular orbitals read from record     2200.2  Type=UKS/ALPHA (state 1.1)
 Fock matrix read from record            2200.2  Type=UKS/TOTAL (state 1.1)
 Orbital energies read from record       2200.2  Type=UKS/ALPHA (state 1.1)
 Density matrix read from record         2200.2  Type=UKS/CHARGE (state 1.1)

 Number of core orbitals:           2 (   2 )
 Number of closed-shell orbitals:   7 (   7 )
 Number of active  orbitals:        1 (   1 )

 Basis set MINAO-AUTO-PP generated.      Number of basis functions:   15 

 Polarized AO type:                A = (O Ot + (1-O)(1-Ot)) P12
 Orthogonalization method:         Symmetric (Loewdin)
 Localization functional:          L = sum[A,i] <i|n_A|i>^4 -> max

 Localization group 1:   9 orbitals, occupancy  2.000
 Iterative localization: IB/PM,    7 iter; Final gradient 0.56E-09

 Bond order analysis:       [THRPRINT= 0.020]

   CEN ATOM   CEN ATOM     WIBERG.BO      RENORM.BO
     1   C  -   5   H       0.952347       0.999571
     1   C  -   4   H       0.943456       0.999170
     1   C  -   6   H       0.940479       0.999476
     1   C  -   2   O       0.479518       1.003625
     1   C  -   3   H       0.315519       0.860080

     2   O  -   7   H       0.875173       0.999799
     2   O  -   3   H       0.551814       0.829201
     2   O  -   1   C       0.479518       1.003625

     3   H  -   2   O       0.551814       0.829201
     3   H  -   1   C       0.315519       0.860080

     4   H  -   1   C       0.943456       0.999170

     5   H  -   1   C       0.952347       0.999571

     6   H  -   1   C       0.940479       0.999476

     7   H  -   2   O       0.875173       0.999799


 Valency analysis:

   CEN ATOM   TOT.VALENCE
     1   C       3.632412
     2   O       1.956544
     3   H       0.886527
     4   H       0.967931
     5   H       0.972008
     6   H       0.966650
     7   H       0.876421
 Localization group 2:   1 orbitals, occupancy  1.000
 Iterative localization: IB/PM,    1 iter; Final gradient 0.00E+00

 Bond order analysis:       [THRPRINT= 0.020]

   CEN ATOM   CEN ATOM     WIBERG.BO      RENORM.BO
     1   C  -   2   O       0.432159       0.500000
     1   C  -   3   H       0.040930       0.500000

     2   O  -   1   C       0.432159       0.500000
     2   O  -   3   H       0.036926       0.500000

     3   H  -   1   C       0.040930       0.500000
     3   H  -   2   O       0.036926       0.500000






 Valency analysis:

   CEN ATOM   TOT.VALENCE
     1   C       0.499775
     2   O       0.493160
     3   H       0.080136
     4   H       0.017573
     5   H       0.013693
     6   H       0.018946
     7   H       0.003875

 Total charge composition:

   CEN ATOM         s          p       ELECTRONS ->P.CHARGE
     1   C       3.10124    3.32457      6.42582   -0.42582
     2   O       3.76158    4.96092      8.72251   -0.72251
     3   H       0.70496                 0.70496    0.29504
     4   H       0.82979                 0.82979    0.17021
     5   H       0.83959                 0.83959    0.16041
     6   H       0.82694                 0.82694    0.17306
     7   H       0.65040                 0.65040    0.34960

 Total charge composition, AO contributions:

   CEN ATOM SHL      SPHERICAL COMPONENTS
     1   C  1s       1.99117
     1   C  2s       1.11007
     1   C  2p       0.94664    1.18612    1.19182

     2   O  1s       1.99788
     2   O  2s       1.76370
     2   O  2p       1.42905    1.53246    1.99941

     3   H  1s       0.70496

     4   H  1s       0.82979

     5   H  1s       0.83959

     6   H  1s       0.82694

     7   H  1s       0.65040

 Active orbital charges:

   CEN ATOM         s          p       ELECTRONS ->SPIN.DEN
     1   C       0.01713    0.47227      0.48940    0.48940
     2   O       0.00719    0.43433      0.44152    0.44152
     3   H       0.04182                 0.04182    0.04182
     4   H       0.00887                 0.00887    0.00887
     5   H       0.00689                 0.00689    0.00689
     6   H       0.00956                 0.00956    0.00956
     7   H       0.00194                 0.00194    0.00194

 Active orbital charges, AO contributions:

   CEN ATOM SHL      SPHERICAL COMPONENTS
     1   C  1s       0.00003
     1   C  2s       0.01710
     1   C  2p       0.47057    0.00169    0.00001

     2   O  1s       0.00004
     2   O  2s       0.00715
     2   O  2p       0.43217    0.00216    0.00000

     3   H  1s       0.04182

     4   H  1s       0.00887

     5   H  1s       0.00689

     6   H  1s       0.00956

     7   H  1s       0.00194

 Summary of localized orbital composition:   [THRPRINT= 0.020]

   ORB  GRP  ORB.ENERGY      CENTERS/CHARGES
     1   1   -19.076011      O  2   2.000
     2   1   -10.121613      C  1   2.000
     3   1    -0.811469      O  2   1.351   H  7   0.647
     4   1    -0.701691      O  2   1.959   C  1   0.023
     5   1    -0.562043      C  1   1.151   H  5   0.827   (other: 0.022)
     6   1    -0.561563      C  1   1.160   H  6   0.810   H  3   0.027
     7   1    -0.561373      C  1   1.158   H  4   0.814   H  3   0.025
     8   1    -0.512379      O  2   0.963   H  3   0.574   C  1   0.443   (other: 0.020)
     9   1    -0.308463      O  2   1.999
    10   2    -0.211654      C  1   0.489   O  2   0.442   H  3   0.042   (other: 0.027)

 Localized orbitals saved to record      2200.2  (orbital set 4)


 **********************************************************************************************************************************
 DATASETS  * FILE   NREC   LENGTH (MB)   RECORD NAMES
              1      20       31.91       500      610      700      900      950      970     1000      129      960     1100   
                                          VAR    BASINP    GEOM    SYMINP    ZMAT    AOBASIS   BASIS     P2S    ABASIS      S 
                                         1400     1410     1200     1210     1080     1600     1650     1300     1700     1800   
                                           T        V       H0       H01     AOSYM     SMH    MOLCAS    ERIS     OPER     GRID   

              2       5        2.93       700     1000      520     1800     2200   
                                         GEOM     BASIS   MCVARS    GRID      UKS  

 PROGRAMS   *        TOTAL      IBBA       UKS       INT
 CPU TIMES  *         3.26      0.02      2.82      0.28
 REAL TIME  *         3.97 SEC
 DISK USED  *        36.28 MB      
 **********************************************************************************************************************************
 Molecular orbitals read from record     2200.2  Type=UKS/LOCAL(IBO)  
 Occupation numbers read from record     2200.2  Type=UKS/LOCAL(IBO)  
 Orbital energies read from record       2200.2  Type=UKS/LOCAL(IBO)  
 Redundancy group numbers read from rec  2200.2  Type=UKS/BETA (state 1.1)

 IBBA/SV(P) energy=      0.000000000000

        UKS-SCF 
   -116.03092962
 **********************************************************************************************************************************
 Molpro calculation terminated
