
 Primary working directories    : /local
 Secondary working directories  : /local
 Wavefunction directory         : /local/
 Main file repository           : /local/

 SHA1      : b4a5b34a9e711420743f49e6833241d17c61fb3c
 NAME      : 2099.9.b4a5b34
 ARCHNAME  : linux/x86_64_openmp
 FC        : /cm/shared/languages/GCC-6.1/bin/gfortran
 BLASLIB   : -lblas
 id        : simonbennie

 Nodes     nprocs
 node32-040    1

 Using customized tuning parameters: mindgm=1; mindgv=20; mindgc=4; mindgr=1; noblas=0; minvec=7
 default implementation of scratch files=df  

 memory,500,m
 geomtyp=xyz
 nosym
 noorient
 geometry={
 C         -1.21149        0.00797        0.00041
 O          1.29397       -0.10869        0.00013
 H          0.00948       -0.11802        0.00280
 H         -1.52553       -0.23325        1.01007
 H         -1.43067        1.03323       -0.27808
 H         -1.55271       -0.71011       -0.73770
 H          1.41664        0.84989       -0.00059
 }
 basis={ default,svp }
 {uks,B-LYP,direct;wf,19,1,1}
 {ibba,bonds=1}

 Variables initialized (895), CPU time= 0.00 sec
 Commands  initialized (725), CPU time= 0.02 sec, 591 directives.
 Default parameters read. Elapsed time= 0.10 sec

 Checking input...
 Passed
1


                                         ***  PROGRAM SYSTEM MOLPRO  ***
                                       Copyright, TTI GmbH Stuttgart, 2015
                                    Version 2099.9 linked May 26 2017 16:03:21


 **********************************************************************************************************************************
 LABEL *                                                                                 
  64 bit serial version                                                                  DATE: 24-Jun-17          TIME: 08:07:53  
 **********************************************************************************************************************************

 SHA1:             b4a5b34a9e711420743f49e6833241d17c61fb3c
 **********************************************************************************************************************************
 SETTING GEOMTYP        =    XYZ

 Variable memory set to  500000000 words,  buffer space 

 ZSYMEL=NOSYM

 SETTING BASIS          =    SVP


 Recomputing integrals since basis changed


 Using spherical harmonics

 Library entry C      S def2-SVP             selected for orbital group  1
 Library entry C      P def2-SVP             selected for orbital group  1
 Library entry C      D def2-SVP             selected for orbital group  1
 Library entry O      S def2-SVP             selected for orbital group  2
 Library entry O      P def2-SVP             selected for orbital group  2
 Library entry O      D def2-SVP             selected for orbital group  2
 Library entry H      S def2-SVP             selected for orbital group  3
 Library entry H      P def2-SVP             selected for orbital group  3


 PROGRAM * SEWARD (Integral evaluation for generally contracted gaussian basis sets)     Author: Roland Lindh, 1990

 Geometry written to block  1 of record 700


 Point group  C1  



 ATOMIC COORDINATES

 NR  ATOM    CHARGE       X              Y              Z

   1  C       6.00   -2.289384303    0.015061117    0.000774788
   2  O       8.00    2.445248913   -0.205394332    0.000245664
   3  H       1.00    0.017914604   -0.223025477    0.005291233
   4  H       1.00   -2.882833895   -0.440778619    1.908755667
   5  H       1.00   -2.703574475    1.952521724   -0.525495041
   6  H       1.00   -2.934196651   -1.341913418   -1.394050962
   7  H       1.00    2.677061617    1.606059336   -0.001114938

 Bond lengths in Bohr (Angstrom)

 1-3  2.319554670  1-4  2.049478792  1-5  2.049943178  1-6  2.050049201  2-3  2.427403585
     ( 1.227455471)     ( 1.084537471)     ( 1.084783213)     ( 1.084839318)     ( 1.284526659)

 2-7  1.826226540
     ( 0.966397467)

 Bond angles

  1-3-2  173.68821167   3-1-4  105.27124604   3-1-5  107.36711084   3-1-6  104.25607416

  3-2-7   97.70877154   4-1-5  112.99849973   4-1-6  113.27293665   5-1-6  112.79152394

 NUCLEAR CHARGE:                   19
 NUMBER OF PRIMITIVE AOS:          85
 NUMBER OF SYMMETRY AOS:           83
 NUMBER OF CONTRACTIONS:           53   (  53A   )
 NUMBER OF CORE ORBITALS:           2   (   2A   )
 NUMBER OF VALENCE ORBITALS:       13   (  13A   )


 NUCLEAR REPULSION ENERGY   37.11882177


 Eigenvalues of metric

         1 0.797E-02 0.263E-01 0.491E-01 0.533E-01 0.541E-01 0.100E+00 0.128E+00 0.128E+00


 Contracted 2-electron integrals neglected if value below      1.0D-11
 AO integral compression algorithm  1   Integral accuracy      1.0D-11

     4.719 MB (compressed) written to integral file ( 50.6%)


 NUMBER OF SORTED TWO-ELECTRON INTEGRALS:    1024596.     BUFFER LENGTH:  32768
 NUMBER OF SEGMENTS:   1  SEGMENT LENGTH:    1024596      RECORD LENGTH: 524288

 Memory used in sort:       1.58 MW

 SORT1 READ     1206159. AND WROTE      976627. INTEGRALS IN      3 RECORDS. CPU TIME:     0.01 SEC, REAL TIME:     0.03 SEC
 SORT2 READ      976627. AND WROTE     1024596. INTEGRALS IN     18 RECORDS. CPU TIME:     0.06 SEC, REAL TIME:     0.07 SEC

 FILE SIZES:   FILE 1:    34.9 MBYTE,  FILE 4:    12.6 MBYTE,   TOTAL:     47.5 MBYTE

 OPERATOR DM      FOR CENTER  0  COORDINATES:    0.000000    0.000000    0.000000


 **********************************************************************************************************************************
 DATASETS  * FILE   NREC   LENGTH (MB)   RECORD NAMES
              1      19       34.03       500      610      700      900      950      970     1000      129      960     1100   
                                          VAR    BASINP    GEOM    SYMINP    ZMAT    AOBASIS   BASIS     P2S    ABASIS      S 
                                         1400     1410     1200     1210     1080     1600     1650     1300     1700   
                                           T        V       H0       H01     AOSYM     SMH    MOLCAS    ERIS     OPER   

 PROGRAMS   *        TOTAL       INT
 CPU TIMES  *         0.56      0.42
 REAL TIME  *         0.93 SEC
 DISK USED  *        47.87 MB      
 **********************************************************************************************************************************

 Density functional group B-LYP=B88+LYP
 Functional: B88(Automatically generated (new) B88)                            Gradient terms: 1
 Functional: LYP(Automatically generated (new) LYP)                            Gradient terms: 1
 Use grid at  1800.2

 Functional: B88                       Factor:  1.0000
 Functional: LYP                       Factor:  1.0000

 Generated new metagrid on record  1800.2 with target accuracy 1.0D-06 and 23318 points in CPU time    0.6
 Computed new grid on record 1800.1 in CPU time    0.6
   46013 words reserved for DFT integration

 PROGRAM * UKS-SCF (Unrestricted Kohn-Sham)     Authors: W. Meyer, H.-J. Werner, P.J. Knowles, 1993

 NUMBER OF ELECTRONS:      10+    9-    SPACE SYMMETRY=1    SPIN SYMMETRY: Doublet 
 CONVERGENCE THRESHOLDS:    1.00E-05 (Density)    1.00E-06 (Energy)
 MAX. NUMBER OF ITERATIONS:       60
 INTERPOLATION TYPE:            DIIS
 INTERPOLATION STEPS:              2 (START)      1 (STEP)
 LEVEL SHIFTS:                 -0.20 (ALPHA)  -0.20 (BETA) 



 Use fine grid record 1800.2 for energy threshold  1.0D-06
 Orbital guess generated from atomic densities. Full valence occupancy:   10

 Molecular orbital dump at record        2200.2

 Initial alpha occupation  10
 Initial beta  occupation   9

 ITERATION    DDIFF          GRAD             ENERGY        2-EL.EN.            DIPOLE MOMENTS         DIIS
    1      0.000D+00      0.000D+00      -115.98502976    193.944603   -0.70822    0.89142   -0.00220    0
    2      0.199D-01      0.918D-02      -116.07303124    184.388658   -0.51614    0.48808   -0.00070    1
    3      0.711D-02      0.559D-02      -116.10151990    187.561717   -0.60657    0.60045   -0.00085    2
    4      0.127D-02      0.786D-03      -116.10233406    187.408544   -0.55134    0.57838   -0.00085    3
    5      0.105D-02      0.340D-03      -116.10263499    187.378985   -0.52530    0.56518   -0.00071    4
    6      0.471D-03      0.102D-03      -116.10269316    187.356394   -0.49823    0.55940   -0.00068    5
    7      0.111D-03      0.476D-04      -116.10269928    187.356183   -0.49475    0.55911   -0.00068    6
    8      0.463D-04      0.108D-04      -116.10270026    187.356203   -0.49211    0.55907   -0.00068    7
    9      0.114D-04      0.415D-05      -116.10270035    187.355397   -0.49158    0.55900   -0.00068    6
   10      0.355D-05      0.137D-05      -116.10270035    187.356177   -0.49153    0.55904   -0.00068    7
   11      0.155D-05      0.682D-06      -116.10270036    187.355778   -0.49153    0.55902   -0.00068    8

 Final alpha occupancy:  10
 Final beta  occupancy:   9

 !UKS STATE 1.1 Energy               -116.102700355628
 Nuclear energy                        37.11882177
 One-electron energy                 -231.13659253
 Two-electron energy                   93.67788896
 Density functional                   -15.76281855     B88=-15.15328280 LYP= -0.60953575
 Virial quotient                       -1.00800954
 !UKS STATE 1.1 Dipole moment          -0.49152742     0.55901806    -0.00068016
 Dipole moment /Debye                  -1.24925627     1.42078913    -0.00172868

 Orbital energies for positive spin:

         1.1          2.1          3.1          4.1          5.1          6.1          7.1          8.1          9.1         10.1
    -18.782813    -9.936991    -0.863466    -0.631872    -0.420185    -0.369597    -0.368108    -0.346412    -0.227878    -0.223004

        11.1         12.1
      0.033941     0.072733

 Orbital energies for negative spin:

         1.1          2.1          3.1          4.1          5.1          6.1          7.1          8.1          9.1         10.1
    -18.768270    -9.930403    -0.831817    -0.616259    -0.397795    -0.363456    -0.362742    -0.321460    -0.213510    -0.160540

        11.1         12.1
      0.038037     0.077700

 HOMO     -9.1    -0.213510 =      -5.8099eV
 LUMO    -10.1    -0.160540 =      -4.3685eV
 LUMO-HOMO         0.052970 =       1.4414eV

 EXPECTATION VALUE OF S**2:             0.75316295

 Occupation number threshold for canonical orbitals:  1.999000 (occupied),  0.001000 (virtual)

 Number of pseudo-canonical orbitals per symmetry:    8
 Number of active natural orbitals per symmetry:      3

 Natural orbitals saved to record    2200.2 (Orbital set 3)

 Orbital spaces for UNO-CAS (Min. occupation: 0.020  Max. occupation: 1.980):

 Closed:        9
 Active:        1


 **********************************************************************************************************************************
 DATASETS  * FILE   NREC   LENGTH (MB)   RECORD NAMES
              1      20       34.78       500      610      700      900      950      970     1000      129      960     1100   
                                          VAR    BASINP    GEOM    SYMINP    ZMAT    AOBASIS   BASIS     P2S    ABASIS      S 
                                         1400     1410     1200     1210     1080     1600     1650     1300     1700     1800   
                                           T        V       H0       H01     AOSYM     SMH    MOLCAS    ERIS     OPER     GRID   

              2       5        2.98       700     1000      520     1800     2200   
                                         GEOM     BASIS   MCVARS    GRID      UKS  

 PROGRAMS   *        TOTAL       UKS       INT
 CPU TIMES  *         3.95      3.39      0.42
 REAL TIME  *         4.41 SEC
 DISK USED  *        47.87 MB      
 **********************************************************************************************************************************


 PROGRAM * Intrinsic Basis Bonding Analysis (IBBA)          Author: G. Knizia

 Molecular orbitals read from record     2200.2  Type=UKS/ALPHA (state 1.1)
 Fock matrix read from record            2200.2  Type=UKS/TOTAL (state 1.1)
 Orbital energies read from record       2200.2  Type=UKS/ALPHA (state 1.1)
 Density matrix read from record         2200.2  Type=UKS/CHARGE (state 1.1)

 Number of core orbitals:           2 (   2 )
 Number of closed-shell orbitals:   7 (   7 )
 Number of active  orbitals:        1 (   1 )

 Basis set MINAO-AUTO-PP generated.      Number of basis functions:   15 

 Polarized AO type:                A = (O Ot + (1-O)(1-Ot)) P12
 Orthogonalization method:         Symmetric (Loewdin)
 Localization functional:          L = sum[A,i] <i|n_A|i>^4 -> max

 Localization group 1:   9 orbitals, occupancy  2.000
 Iterative localization: IB/PM,    7 iter; Final gradient 0.25E-09

 Bond order analysis:       [THRPRINT= 0.020]

   CEN ATOM   CEN ATOM     WIBERG.BO      RENORM.BO
     1   C  -   5   H       0.957595       0.999476
     1   C  -   4   H       0.949303       0.998904
     1   C  -   6   H       0.946596       0.999300
     1   C  -   2   O       0.502987       1.004012
     1   C  -   3   H       0.377618       0.847288

     2   O  -   7   H       0.881109       0.999733
     2   O  -   3   H       0.523423       0.850983
     2   O  -   1   C       0.502987       1.004012

     3   H  -   2   O       0.523423       0.850983
     3   H  -   1   C       0.377618       0.847288

     4   H  -   1   C       0.949303       0.998904

     5   H  -   1   C       0.957595       0.999476

     6   H  -   1   C       0.946596       0.999300

     7   H  -   2   O       0.881109       0.999733


 Valency analysis:

   CEN ATOM   TOT.VALENCE
     1   C       3.734632
     2   O       1.952648
     3   H       0.915181
     4   H       0.970658
     5   H       0.974044
     6   H       0.969542
     7   H       0.881856
 Localization group 2:   1 orbitals, occupancy  1.000
 Iterative localization: IB/PM,    1 iter; Final gradient 0.00E+00

 Bond order analysis:       [THRPRINT= 0.020]

   CEN ATOM   CEN ATOM     WIBERG.BO      RENORM.BO
     1   C  -   2   O       0.450552       0.500000
     1   C  -   3   H       0.023299       0.500000

     2   O  -   1   C       0.450552       0.500000
     2   O  -   3   H       0.026940       0.500000

     3   H  -   2   O       0.026940       0.500000
     3   H  -   1   C       0.023299       0.500000






 Valency analysis:

   CEN ATOM   TOT.VALENCE
     1   C       0.493132
     2   O       0.499785
     3   H       0.051392
     4   H       0.014078
     5   H       0.010179
     6   H       0.015521
     7   H       0.003622

 Total charge composition:

   CEN ATOM         s          p       ELECTRONS ->P.CHARGE
     1   C       3.09917    3.36872      6.46789   -0.46789
     2   O       3.76166    4.86410      8.62576   -0.62576
     3   H       0.73516                 0.73516    0.26484
     4   H       0.83579                 0.83579    0.16421
     5   H       0.84401                 0.84401    0.15599
     6   H       0.83330                 0.83330    0.16670
     7   H       0.65809                 0.65809    0.34191

 Total charge composition, AO contributions:

   CEN ATOM SHL      SPHERICAL COMPONENTS
     1   C  1s       1.99144
     1   C  2s       1.10773
     1   C  2p       0.99873    1.18297    1.18703

     2   O  1s       1.99794
     2   O  2s       1.76372
     2   O  2p       1.34261    1.52228    1.99921

     3   H  1s       0.73516

     4   H  1s       0.83579

     5   H  1s       0.84401

     6   H  1s       0.83330

     7   H  1s       0.65809

 Active orbital charges:

   CEN ATOM         s          p       ELECTRONS ->SPIN.DEN
     1   C       0.02014    0.42127      0.44140    0.44140
     2   O       0.00426    0.50611      0.51037    0.51037
     3   H       0.02639                 0.02639    0.02639
     4   H       0.00709                 0.00709    0.00709
     5   H       0.00512                 0.00512    0.00512
     6   H       0.00782                 0.00782    0.00782
     7   H       0.00181                 0.00181    0.00181

 Active orbital charges, AO contributions:

   CEN ATOM SHL      SPHERICAL COMPONENTS
     1   C  1s       0.00003
     1   C  2s       0.02011
     1   C  2p       0.41976    0.00150    0.00001

     2   O  1s       0.00003
     2   O  2s       0.00422
     2   O  2p       0.49981    0.00629    0.00000

     3   H  1s       0.02639

     4   H  1s       0.00709

     5   H  1s       0.00512

     6   H  1s       0.00782

     7   H  1s       0.00181

 Summary of localized orbital composition:   [THRPRINT= 0.020]

   ORB  GRP  ORB.ENERGY      CENTERS/CHARGES
     1   1   -18.646206      O  2   2.000
     2   1    -9.820705      C  1   2.000
     3   1    -0.695127      O  2   1.343   H  7   0.656
     4   1    -0.597614      O  2   1.949   C  1   0.028   H  3   0.023
     5   1    -0.483112      C  1   1.155   H  6   0.821   (other: 0.025)
     6   1    -0.482840      C  1   1.148   H  5   0.835
     7   1    -0.482802      C  1   1.154   H  4   0.824   (other: 0.022)
     8   1    -0.444692      O  2   0.810   H  3   0.636   C  1   0.541
     9   1    -0.220986      O  2   1.999
    10   2    -0.191973      O  2   0.510   C  1   0.441   H  3   0.026   (other: 0.022)

 Localized orbitals saved to record      2200.2  (orbital set 4)


 **********************************************************************************************************************************
 DATASETS  * FILE   NREC   LENGTH (MB)   RECORD NAMES
              1      20       34.78       500      610      700      900      950      970     1000      129      960     1100   
                                          VAR    BASINP    GEOM    SYMINP    ZMAT    AOBASIS   BASIS     P2S    ABASIS      S 
                                         1400     1410     1200     1210     1080     1600     1650     1300     1700     1800   
                                           T        V       H0       H01     AOSYM     SMH    MOLCAS    ERIS     OPER     GRID   

              2       5        3.00       700     1000      520     1800     2200   
                                         GEOM     BASIS   MCVARS    GRID      UKS  

 PROGRAMS   *        TOTAL      IBBA       UKS       INT
 CPU TIMES  *         3.97      0.02      3.39      0.42
 REAL TIME  *         4.48 SEC
 DISK USED  *        47.87 MB      
 **********************************************************************************************************************************
 Molecular orbitals read from record     2200.2  Type=UKS/LOCAL(IBO)  
 Occupation numbers read from record     2200.2  Type=UKS/LOCAL(IBO)  
 Orbital energies read from record       2200.2  Type=UKS/LOCAL(IBO)  
 Redundancy group numbers read from rec  2200.2  Type=UKS/BETA (state 1.1)

 IBBA/SVP energy=      0.000000000000

        UKS-SCF 
   -116.10270036
 **********************************************************************************************************************************
 Molpro calculation terminated
