
 Primary working directories    : /local
 Secondary working directories  : /local
 Wavefunction directory         : /local/
 Main file repository           : /local/

 SHA1      : b4a5b34a9e711420743f49e6833241d17c61fb3c
 NAME      : 2099.9.b4a5b34
 ARCHNAME  : linux/x86_64_openmp
 FC        : /cm/shared/languages/GCC-6.1/bin/gfortran
 BLASLIB   : -lblas
 id        : simonbennie

 Nodes     nprocs
 node34-017    1

 Using customized tuning parameters: mindgm=1; mindgv=20; mindgc=4; mindgr=1; noblas=0; minvec=7
 default implementation of scratch files=df  

 memory,500,m
 geomtyp=xyz
 nosym
 noorient
 geometry={
 C         -1.21149        0.00797        0.00041
 O          1.29397       -0.10869        0.00013
 H          0.00948       -0.11802        0.00280
 H         -1.52553       -0.23325        1.01007
 H         -1.43067        1.03323       -0.27808
 H         -1.55271       -0.71011       -0.73770
 H          1.41664        0.84989       -0.00059
 }
 basis={ default,svp }
 {uks,LSDC,direct;wf,19,1,1}
 {ibba,bonds=1}

 Variables initialized (895), CPU time= 0.00 sec
 Commands  initialized (725), CPU time= 0.02 sec, 591 directives.
 Default parameters read. Elapsed time= 0.08 sec

 Checking input...
 Passed
1


                                         ***  PROGRAM SYSTEM MOLPRO  ***
                                       Copyright, TTI GmbH Stuttgart, 2015
                                    Version 2099.9 linked May 26 2017 16:03:21


 **********************************************************************************************************************************
 LABEL *                                                                                 
  64 bit serial version                                                                  DATE: 24-Jun-17          TIME: 08:13:13  
 **********************************************************************************************************************************

 SHA1:             b4a5b34a9e711420743f49e6833241d17c61fb3c
 **********************************************************************************************************************************
 SETTING GEOMTYP        =    XYZ

 Variable memory set to  500000000 words,  buffer space 

 ZSYMEL=NOSYM

 SETTING BASIS          =    SVP


 Recomputing integrals since basis changed


 Using spherical harmonics

 Library entry C      S def2-SVP             selected for orbital group  1
 Library entry C      P def2-SVP             selected for orbital group  1
 Library entry C      D def2-SVP             selected for orbital group  1
 Library entry O      S def2-SVP             selected for orbital group  2
 Library entry O      P def2-SVP             selected for orbital group  2
 Library entry O      D def2-SVP             selected for orbital group  2
 Library entry H      S def2-SVP             selected for orbital group  3
 Library entry H      P def2-SVP             selected for orbital group  3


 PROGRAM * SEWARD (Integral evaluation for generally contracted gaussian basis sets)     Author: Roland Lindh, 1990

 Geometry written to block  1 of record 700


 Point group  C1  



 ATOMIC COORDINATES

 NR  ATOM    CHARGE       X              Y              Z

   1  C       6.00   -2.289384303    0.015061117    0.000774788
   2  O       8.00    2.445248913   -0.205394332    0.000245664
   3  H       1.00    0.017914604   -0.223025477    0.005291233
   4  H       1.00   -2.882833895   -0.440778619    1.908755667
   5  H       1.00   -2.703574475    1.952521724   -0.525495041
   6  H       1.00   -2.934196651   -1.341913418   -1.394050962
   7  H       1.00    2.677061617    1.606059336   -0.001114938

 Bond lengths in Bohr (Angstrom)

 1-3  2.319554670  1-4  2.049478792  1-5  2.049943178  1-6  2.050049201  2-3  2.427403585
     ( 1.227455471)     ( 1.084537471)     ( 1.084783213)     ( 1.084839318)     ( 1.284526659)

 2-7  1.826226540
     ( 0.966397467)

 Bond angles

  1-3-2  173.68821167   3-1-4  105.27124604   3-1-5  107.36711084   3-1-6  104.25607416

  3-2-7   97.70877154   4-1-5  112.99849973   4-1-6  113.27293665   5-1-6  112.79152394

 NUCLEAR CHARGE:                   19
 NUMBER OF PRIMITIVE AOS:          85
 NUMBER OF SYMMETRY AOS:           83
 NUMBER OF CONTRACTIONS:           53   (  53A   )
 NUMBER OF CORE ORBITALS:           2   (   2A   )
 NUMBER OF VALENCE ORBITALS:       13   (  13A   )


 NUCLEAR REPULSION ENERGY   37.11882177


 Eigenvalues of metric

         1 0.797E-02 0.263E-01 0.491E-01 0.533E-01 0.541E-01 0.100E+00 0.128E+00 0.128E+00


 Contracted 2-electron integrals neglected if value below      1.0D-11
 AO integral compression algorithm  1   Integral accuracy      1.0D-11

     4.719 MB (compressed) written to integral file ( 50.6%)


 NUMBER OF SORTED TWO-ELECTRON INTEGRALS:    1024596.     BUFFER LENGTH:  32768
 NUMBER OF SEGMENTS:   1  SEGMENT LENGTH:    1024596      RECORD LENGTH: 524288

 Memory used in sort:       1.58 MW

 SORT1 READ     1206159. AND WROTE      976627. INTEGRALS IN      3 RECORDS. CPU TIME:     0.01 SEC, REAL TIME:     0.02 SEC
 SORT2 READ      976627. AND WROTE     1024596. INTEGRALS IN     18 RECORDS. CPU TIME:     0.06 SEC, REAL TIME:     0.06 SEC

 FILE SIZES:   FILE 1:    34.9 MBYTE,  FILE 4:    12.6 MBYTE,   TOTAL:     47.5 MBYTE

 OPERATOR DM      FOR CENTER  0  COORDINATES:    0.000000    0.000000    0.000000


 **********************************************************************************************************************************
 DATASETS  * FILE   NREC   LENGTH (MB)   RECORD NAMES
              1      19       34.03       500      610      700      900      950      970     1000      129      960     1100   
                                          VAR    BASINP    GEOM    SYMINP    ZMAT    AOBASIS   BASIS     P2S    ABASIS      S 
                                         1400     1410     1200     1210     1080     1600     1650     1300     1700   
                                           T        V       H0       H01     AOSYM     SMH    MOLCAS    ERIS     OPER   

 PROGRAMS   *        TOTAL       INT
 CPU TIMES  *         0.55      0.41
 REAL TIME  *         0.88 SEC
 DISK USED  *        47.87 MB      
 **********************************************************************************************************************************

 Density functional group LSDC=PW92C
 Functional: PW92C(Automatically generated (new) PW92C)                        Gradient terms: 0
 Use grid at  1800.2

 Functional: PW92C                     Factor:  1.0000

 Generated new metagrid on record  1800.2 with target accuracy 1.0D-06 and 23318 points in CPU time    0.6
 Computed new grid on record 1800.1 in CPU time    0.6
   25820 words reserved for DFT integration

 PROGRAM * UKS-SCF (Unrestricted Kohn-Sham)     Authors: W. Meyer, H.-J. Werner, P.J. Knowles, 1993

 NUMBER OF ELECTRONS:      10+    9-    SPACE SYMMETRY=1    SPIN SYMMETRY: Doublet 
 CONVERGENCE THRESHOLDS:    1.00E-05 (Density)    1.00E-06 (Energy)
 MAX. NUMBER OF ITERATIONS:       60
 INTERPOLATION TYPE:            DIIS
 INTERPOLATION STEPS:              2 (START)      1 (STEP)
 LEVEL SHIFTS:                 -0.20 (ALPHA)  -0.20 (BETA) 



 Use fine grid record 1800.2 for energy threshold  1.0D-06
 Orbital guess generated from atomic densities. Full valence occupancy:   10

 Molecular orbital dump at record        2200.2

 Initial alpha occupation  10
 Initial beta  occupation   9

 ITERATION    DDIFF          GRAD             ENERGY        2-EL.EN.            DIPOLE MOMENTS         DIIS
    1      0.000D+00      0.000D+00      -100.05339283    153.845139    9.56670   -0.83198    0.03750    0
    2      0.863D+00      0.330D-01       -98.17160717    205.666916   -6.08516    0.86036    0.08560    1
    3      0.640D-01      0.552D-01      -101.75899930    182.051868   -1.29771    0.61540   -0.05871    2
    4      0.179D-01      0.136D-01      -101.91643323    177.270739   -0.75445    0.42238   -0.02067    3
    5      0.111D-01      0.604D-02      -101.96030955    175.948320   -0.18638    0.34251   -0.01046    4
    6      0.167D-01      0.171D-02      -101.97005795    174.843514    0.09595    0.31140   -0.00826    5
    7      0.131D-01      0.691D-03      -101.97248208    174.981664    0.02873    0.30041   -0.00285    6
    8      0.119D-01      0.415D-03      -101.97384385    175.060367   -0.04225    0.30094   -0.00414    7
    9      0.533D-02      0.187D-03      -101.97415103    175.085417   -0.06611    0.29378   -0.00360    8
   10      0.309D-02      0.689D-04      -101.97421212    175.087331   -0.09048    0.28883   -0.00293    9
   11      0.338D-03      0.164D-04      -101.97421407    175.089495   -0.09264    0.28931   -0.00317    8
   12      0.109D-03      0.684D-05      -101.97421447    175.088464   -0.09322    0.28882   -0.00298    8
   13      0.414D-04      0.410D-05      -101.97421475    175.087825   -0.09303    0.28889   -0.00284    8
   14      0.347D-04      0.282D-05      -101.97421491    175.088371   -0.09300    0.28888   -0.00268    8
   15      0.377D-04      0.185D-05      -101.97421500    175.088120   -0.09309    0.28891   -0.00250    9
   16      0.113D-04      0.852D-06      -101.97421501    175.088084   -0.09300    0.28891   -0.00245    9
   17      0.815D-05      0.486D-06      -101.97421502    175.088102   -0.09301    0.28891   -0.00240    9
   18      0.160D-05      0.110D-06      -101.97421502    175.088110   -0.09302    0.28891   -0.00239    9

 Final alpha occupancy:  10
 Final beta  occupancy:   9

 !UKS STATE 1.1 Energy               -101.974215018138
 Nuclear energy                        37.11882177
 One-electron energy                 -225.47842552
 Two-electron energy                   87.54405513
 Density functional                    -1.15866640     PW92C=-1.15866640
 Virial quotient                       -0.94199430
 !UKS STATE 1.1 Dipole moment          -0.09301845     0.28890924    -0.00239465
 Dipole moment /Debye                  -0.23641383     0.73428594    -0.00608619

 Orbital energies for positive spin:

         1.1          2.1          3.1          4.1          5.1          6.1          7.1          8.1          9.1         10.1
    -16.606485    -8.256710    -0.480853    -0.310274    -0.121098    -0.087685    -0.087249    -0.025587     0.096563     0.097571

        11.1         12.1
      0.184749     0.237817

 Orbital energies for negative spin:

         1.1          2.1          3.1          4.1          5.1          6.1          7.1          8.1          9.1         10.1
    -16.608041    -8.257575    -0.487144    -0.314071    -0.126305    -0.090172    -0.089442    -0.030889     0.092733     0.086646

        11.1         12.1
      0.182189     0.234256

 HOMO     10.1     0.097571 =       2.6550eV
 LUMO    -10.1     0.086646 =       2.3578eV
 LUMO-HOMO        -0.010924 =      -0.2973eV

 EXPECTATION VALUE OF S**2:             0.75005991

 Occupation number threshold for canonical orbitals:  1.999000 (occupied),  0.001000 (virtual)

 Number of pseudo-canonical orbitals per symmetry:    9
 Number of active natural orbitals per symmetry:      1

 Natural orbitals saved to record    2200.2 (Orbital set 3)

 Orbital spaces for UNO-CAS (Min. occupation: 0.020  Max. occupation: 1.980):

 Closed:        9
 Active:        1


 **********************************************************************************************************************************
 DATASETS  * FILE   NREC   LENGTH (MB)   RECORD NAMES
              1      20       34.78       500      610      700      900      950      970     1000      129      960     1100   
                                          VAR    BASINP    GEOM    SYMINP    ZMAT    AOBASIS   BASIS     P2S    ABASIS      S 
                                         1400     1410     1200     1210     1080     1600     1650     1300     1700     1800   
                                           T        V       H0       H01     AOSYM     SMH    MOLCAS    ERIS     OPER     GRID   

              2       5        2.98       700     1000      520     1800     2200   
                                         GEOM     BASIS   MCVARS    GRID      UKS  

 PROGRAMS   *        TOTAL       UKS       INT
 CPU TIMES  *         4.15      3.60      0.41
 REAL TIME  *         4.58 SEC
 DISK USED  *        47.87 MB      
 **********************************************************************************************************************************


 PROGRAM * Intrinsic Basis Bonding Analysis (IBBA)          Author: G. Knizia

 Molecular orbitals read from record     2200.2  Type=UKS/ALPHA (state 1.1)
 Fock matrix read from record            2200.2  Type=UKS/TOTAL (state 1.1)
 Orbital energies read from record       2200.2  Type=UKS/ALPHA (state 1.1)
 Density matrix read from record         2200.2  Type=UKS/CHARGE (state 1.1)

 Number of core orbitals:           2 (   2 )
 Number of closed-shell orbitals:   7 (   7 )
 Number of active  orbitals:        1 (   1 )

 Basis set MINAO-AUTO-PP generated.      Number of basis functions:   15 

 Polarized AO type:                A = (O Ot + (1-O)(1-Ot)) P12
 Orthogonalization method:         Symmetric (Loewdin)
 Localization functional:          L = sum[A,i] <i|n_A|i>^4 -> max

 Localization group 1:   9 orbitals, occupancy  2.000
 Iterative localization: IB/PM,    7 iter; Final gradient 0.58E-09

 Bond order analysis:       [THRPRINT= 0.020]

   CEN ATOM   CEN ATOM     WIBERG.BO      RENORM.BO
     1   C  -   5   H       0.978617       0.998583
     1   C  -   4   H       0.971892       0.995727
     1   C  -   6   H       0.970278       0.997269
     1   C  -   2   O       0.491442       1.008829
     1   C  -   3   H       0.481277       0.773652

     2   O  -   7   H       0.972651       0.998340
     2   O  -   1   C       0.491442       1.008829
     2   O  -   3   H       0.474214       0.874087

     3   H  -   1   C       0.481277       0.773652
     3   H  -   2   O       0.474214       0.874087

     4   H  -   1   C       0.971892       0.995727

     5   H  -   1   C       0.978617       0.998583

     6   H  -   1   C       0.970278       0.997269

     7   H  -   2   O       0.972651       0.998340


 Valency analysis:

   CEN ATOM   TOT.VALENCE
     1   C       3.894529
     2   O       1.971916
     3   H       0.974955
     4   H       0.995965
     5   H       0.996711
     6   H       0.995576
     7   H       0.975008
 Localization group 2:   1 orbitals, occupancy  1.000
 Iterative localization: IB/PM,    1 iter; Final gradient 0.00E+00

 Bond order analysis:       [THRPRINT= 0.020]

   CEN ATOM   CEN ATOM     WIBERG.BO      RENORM.BO
     1   C  -   2   O       0.445031       0.500000

     2   O  -   1   C       0.445031       0.500000







 Valency analysis:

   CEN ATOM   TOT.VALENCE
     1   C       0.462882
     2   O       0.475048
     3   H       0.011681
     4   H       0.008335
     5   H       0.004526
     6   H       0.009445
     7   H       0.014814

 Total charge composition:

   CEN ATOM         s          p       ELECTRONS ->P.CHARGE
     1   C       2.93231    3.30879      6.24110   -0.24110
     2   O       3.69576    4.54234      8.23810   -0.23810
     3   H       0.84762                 0.84762    0.15238
     4   H       0.94066                 0.94066    0.05934
     5   H       0.94492                 0.94492    0.05508
     6   H       0.93823                 0.93823    0.06177
     7   H       0.84938                 0.84938    0.15062

 Total charge composition, AO contributions:

   CEN ATOM SHL      SPHERICAL COMPONENTS
     1   C  1s       1.99786
     1   C  2s       0.93445
     1   C  2p       1.07971    1.11364    1.11543

     2   O  1s       1.99926
     2   O  2s       1.69650
     2   O  2p       1.16516    1.38054    1.99664

     3   H  1s       0.84762

     4   H  1s       0.94066

     5   H  1s       0.94492

     6   H  1s       0.93823

     7   H  1s       0.84938

 Active orbital charges:

   CEN ATOM         s          p       ELECTRONS ->SPIN.DEN
     1   C       0.03340    0.33037      0.36377    0.36377
     2   O       0.00326    0.60844      0.61170    0.61170
     3   H       0.00587                 0.00587    0.00587
     4   H       0.00419                 0.00419    0.00419
     5   H       0.00227                 0.00227    0.00227
     6   H       0.00475                 0.00475    0.00475
     7   H       0.00746                 0.00746    0.00746

 Active orbital charges, AO contributions:

   CEN ATOM SHL      SPHERICAL COMPONENTS
     1   C  1s       0.00000
     1   C  2s       0.03340
     1   C  2p       0.32875    0.00161    0.00001

     2   O  1s       0.00002
     2   O  2s       0.00324
     2   O  2p       0.57594    0.03249    0.00000

     3   H  1s       0.00587

     4   H  1s       0.00419

     5   H  1s       0.00227

     6   H  1s       0.00475

     7   H  1s       0.00746

 Summary of localized orbital composition:   [THRPRINT= 0.020]

   ORB  GRP  ORB.ENERGY      CENTERS/CHARGES
     1   1   -16.541022      O  2   2.000
     2   1    -8.180460      C  1   2.000
     3   1    -0.329804      O  2   1.159   H  7   0.840
     4   1    -0.218825      O  2   1.905   C  1   0.052   H  3   0.042
     5   1    -0.199415      H  3   0.787   C  1   0.680   O  2   0.531
     6   1    -0.173710      C  1   1.046   H  5   0.941
     7   1    -0.172930      C  1   1.049   H  6   0.931   (other: 0.020)
     8   1    -0.172749      C  1   1.048   H  4   0.934
     9   1     0.093816      O  2   1.997
    10   2     0.092105      O  2   0.612   C  1   0.364   (other: 0.025)

 Localized orbitals saved to record      2200.2  (orbital set 4)


 **********************************************************************************************************************************
 DATASETS  * FILE   NREC   LENGTH (MB)   RECORD NAMES
              1      20       34.78       500      610      700      900      950      970     1000      129      960     1100   
                                          VAR    BASINP    GEOM    SYMINP    ZMAT    AOBASIS   BASIS     P2S    ABASIS      S 
                                         1400     1410     1200     1210     1080     1600     1650     1300     1700     1800   
                                           T        V       H0       H01     AOSYM     SMH    MOLCAS    ERIS     OPER     GRID   

              2       5        3.00       700     1000      520     1800     2200   
                                         GEOM     BASIS   MCVARS    GRID      UKS  

 PROGRAMS   *        TOTAL      IBBA       UKS       INT
 CPU TIMES  *         4.17      0.02      3.60      0.41
 REAL TIME  *         4.65 SEC
 DISK USED  *        47.87 MB      
 **********************************************************************************************************************************
 Molecular orbitals read from record     2200.2  Type=UKS/LOCAL(IBO)  
 Occupation numbers read from record     2200.2  Type=UKS/LOCAL(IBO)  
 Orbital energies read from record       2200.2  Type=UKS/LOCAL(IBO)  
 Redundancy group numbers read from rec  2200.2  Type=UKS/BETA (state 1.1)

 IBBA/SVP energy=      0.000000000000

        UKS-SCF 
   -101.97421502
 **********************************************************************************************************************************
 Molpro calculation terminated
