
 Primary working directories    : /local/molpro.bwcvdLwAJM
 Secondary working directories  : /local/molpro.bwcvdLwAJM
 Wavefunction directory         : /local/
 Main file repository           : /local/molpro.bwcvdLwAJM/

 id        : simonbennie

 Nodes     nprocs
 node32-021    1

 Using customized tuning parameters: mindgm=1; mindgv=20; mindgc=4; mindgr=1; noblas=0; minvec=7
 default implementation of scratch files=df  

 memory,500,m
 geomtyp=xyz
 nosym
 noorient
 geometry={
 C         -1.21149        0.00797        0.00041
 O          1.29397       -0.10869        0.00013
 H          0.00948       -0.11802        0.00280
 H         -1.52553       -0.23325        1.01007
 H         -1.43067        1.03323       -0.27808
 H         -1.55271       -0.71011       -0.73770
 H          1.41664        0.84989       -0.00059
 }
 basis={default,sto-3g}
 {hf,direct;wf,19,1,1}
 
 basis={ default,6-31+G(d,p) }
 {ks,VS99,direct;wf,19,1,1}
 {ibba,bonds=1}

 Variables initialized (920), CPU time= 0.00 sec
 Commands  initialized (754), CPU time= 0.01 sec, 615 directives.
 Default parameters read. Elapsed time= 0.08 sec

 Checking input...
 Passed
1


                                         ***  PROGRAM SYSTEM MOLPRO  ***
                                       Copyright, TTI GmbH Stuttgart, 2015
                                    Version 2018.0 linked Jul  6 2018 18:07:13


 **********************************************************************************************************************************
 LABEL *                                                                                 
  64 bit serial version                                                                  DATE: 10-Oct-18          TIME: 14:39:22  
 **********************************************************************************************************************************

 SHA1:             b58f8fddb9d75525be9261ebe3faf0e4279c479b
 **********************************************************************************************************************************
 SETTING GEOMTYP        =    XYZ

 Variable memory set to  500000000 words,  buffer space 

 ZSYMEL=NOSYM

 SETTING BASIS          =    STO-3G


 Recomputing integrals since basis changed


 Using spherical harmonics

 Library entry C      S STO-3G               selected for orbital group  1
 Library entry C      P STO-3G               selected for orbital group  1
 Library entry O      S STO-3G               selected for orbital group  2
 Library entry O      P STO-3G               selected for orbital group  2
 Library entry H      S STO-3G               selected for orbital group  3


 PROGRAM * SEWARD (Integral evaluation for generally contracted gaussian basis sets)     Author: Roland Lindh, 1990

 Geometry written to block  1 of record 700


 Point group  C1  



 ATOMIC COORDINATES

 NR  ATOM    CHARGE       X              Y              Z

   1  C       6.00   -2.289384303    0.015061117    0.000774788
   2  O       8.00    2.445248913   -0.205394332    0.000245664
   3  H       1.00    0.017914604   -0.223025477    0.005291233
   4  H       1.00   -2.882833895   -0.440778619    1.908755667
   5  H       1.00   -2.703574475    1.952521724   -0.525495041
   6  H       1.00   -2.934196651   -1.341913418   -1.394050962
   7  H       1.00    2.677061617    1.606059336   -0.001114938

 Bond lengths in Bohr (Angstrom)

 1-3  2.319554670  1-4  2.049478792  1-5  2.049943178  1-6  2.050049201  2-3  2.427403585
     ( 1.227455471)     ( 1.084537471)     ( 1.084783213)     ( 1.084839318)     ( 1.284526659)

 2-7  1.826226540
     ( 0.966397467)

 Bond angles

  1-3-2  173.68821167   3-1-4  105.27124604   3-1-5  107.36711084   3-1-6  104.25607416

  3-2-7   97.70877154   4-1-5  112.99849973   4-1-6  113.27293665   5-1-6  112.79152394

 NUCLEAR CHARGE:                   19
 NUMBER OF PRIMITIVE AOS:          45
 NUMBER OF SYMMETRY AOS:           45
 NUMBER OF CONTRACTIONS:           15   (  15A   )
 NUMBER OF CORE ORBITALS:           2   (   2A   )
 NUMBER OF VALENCE ORBITALS:       13   (  13A   )


 NUCLEAR REPULSION ENERGY   37.11882177


 Eigenvalues of metric

         1 0.225E+00 0.352E+00 0.359E+00 0.361E+00 0.388E+00 0.832E+00 0.934E+00 0.993E+00


 Contracted 2-electron integrals neglected if value below      1.0D-11
 AO integral compression algorithm  1   Integral accuracy      1.0D-11

     0.262 MB (compressed) written to integral file (100.0%)


 NUMBER OF SORTED TWO-ELECTRON INTEGRALS:       7260.     BUFFER LENGTH:  32768
 NUMBER OF SEGMENTS:   1  SEGMENT LENGTH:       7260      RECORD LENGTH: 524288

 Memory used in sort:       0.56 MW

 SORT1 READ        9024. AND WROTE        6948. INTEGRALS IN      1 RECORDS. CPU TIME:     0.00 SEC, REAL TIME:     0.00 SEC
 SORT2 READ        6948. AND WROTE        7260. INTEGRALS IN      1 RECORDS. CPU TIME:     0.01 SEC, REAL TIME:     0.01 SEC

 FILE SIZES:   FILE 1:    30.3 MBYTE,  FILE 4:     4.2 MBYTE,   TOTAL:     34.5 MBYTE

 OPERATOR DM      FOR CENTER  0  COORDINATES:    0.000000    0.000000    0.000000


 **********************************************************************************************************************************
 DATASETS  * FILE   NREC   LENGTH (MB)   RECORD NAMES
              1      19       30.09       500      610      700      900      950      970     1000      129      960     1100   
                                          VAR    BASINP    GEOM    SYMINP    ZMAT    AOBASIS   BASIS     P2S    ABASIS      S 
                                         1400     1410     1200     1210     1080     1600     1650     1300     1700   
                                           T        V       H0       H01     AOSYM     SMH    MOLCAS    ERIS     OPER   

 PROGRAMS   *        TOTAL       INT
 CPU TIMES  *         0.51      0.37
 REAL TIME  *         0.76 SEC
 DISK USED  *        34.91 MB
 **********************************************************************************************************************************


 PROGRAM * RHF-SCF (OPEN SHELL)       Authors: W. Meyer, H.-J. Werner


 NUMBER OF ELECTRONS:      10+    9-    SPACE SYMMETRY=1    SPIN SYMMETRY: Doublet 
 CONVERGENCE THRESHOLDS:    1.00E-05 (Density)    1.00E-07 (Energy)
 INTEGRAL THRESHOLDS:       1.00E-11 (Initial)    1.00E-11 (Final)
 MAX. NUMBER OF ITERATIONS:       60
 INTERPOLATION TYPE:            DIIS
 INTERPOLATION STEPS:              2 (START)      1 (STEP)
 LEVEL SHIFTS:                 -0.60 (CLOSED) -0.30 (OPEN) 



 Orbital guess generated from atomic densities. Full valence occupancy:   10

 Molecular orbital dump at record        2100.2

 Initial alpha occupancy:  10
 Initial beta  occupancy:   9
 Wave function symmetry:    1

 Direct Fock-matrix evaluation.        Author: H.-J. Werner (1996)

 Integral Threshold:                  0.1D-10

 ITERATION   DDIFF            GRAD            ENERGY        2-EL.EN.            DIPOLE MOMENTS         DIIS   CPU(IT)  CPU(TOT)
    1      0.000D+00      0.000D+00      -113.90030639    162.008656   -1.36254    1.02565   -0.00137    0      0.9      1.8     start
    2      0.000D+00      0.303D-01      -114.00744677    159.051844   -0.49424    0.62886   -0.00053    1      0.5      2.2     diag,B
    3      0.444D-01      0.951D-02      -114.02431547    158.012024   -0.22947    0.50923   -0.00005    2      0.5      2.7     diag,B
    4      0.178D-01      0.419D-02      -114.03175413    157.789125   -0.09183    0.48858   -0.00002    3      0.5      3.2     diag,B
    5      0.977D-02      0.282D-02      -114.03768363    157.688008    0.08740    0.48951   -0.00007    4      0.5      3.7     diag,B
    6      0.133D-01      0.110D-02      -114.03818705    157.674304    0.14670    0.49185   -0.00003    5      0.5      4.2     diag,B
    7      0.292D-02      0.558D-03      -114.03837068    157.651007    0.19096    0.49367    0.00001    6      0.5      4.7     fixocc
    8      0.252D-02      0.255D-03      -114.03840922    157.654093    0.19786    0.49353    0.00002    7      0.5      5.2     diag,B
    9      0.904D-03      0.138D-03      -114.03842658    157.652862    0.20823    0.49336    0.00002    8      0.5      5.6     diag,B
   10      0.803D-03      0.438D-04      -114.03842766    157.652687    0.20742    0.49270    0.00002    9      0.5      6.1     orth
   11      0.200D-03      0.139D-04      -114.03842773    157.652715    0.20796    0.49277    0.00002    9      0.5      6.6     diag,B
   12      0.685D-04      0.428D-05      -114.03842774    157.652751    0.20772    0.49273    0.00002    9      0.5      7.1     diag,B
   13      0.192D-04      0.186D-05      -114.03842774    157.652736    0.20777    0.49274    0.00002    9      0.5      7.6     diag,B
   14      0.555D-05      0.135D-05      -114.03842774    157.652735    0.20778    0.49274    0.00002    0      0.5      8.0     orth

 Final alpha occupancy:  10
 Final beta  occupancy:   9

 !RHF STATE  1.1 Energy              -114.038427742814
 Nuclear energy                        37.11882177
 One-electron energy                 -229.98361689
 Two-electron energy                   78.82636738
 Virial quotient                       -1.00487329
 !RHF STATE  1.1 Dipole moment          0.20777827     0.49274251     0.00002186
 Dipole moment /Debye                   0.52808510     1.25234452     0.00005555

 Orbital energies:

         1.1          2.1          3.1          4.1          5.1          6.1          7.1          8.1          9.1         10.1
    -20.298396   -11.002885    -1.252743    -0.884429    -0.580260    -0.513733    -0.512298    -0.468189    -0.428007    -0.449001

        11.1         12.1
      0.607517     0.704155


 HOMO     10.1    -0.449001 =     -12.2179eV
 LUMO     11.1     0.607517 =      16.5314eV
 LUMO-HOMO         1.056518 =      28.7493eV


 **********************************************************************************************************************************
 DATASETS  * FILE   NREC   LENGTH (MB)   RECORD NAMES
              1      19       30.09       500      610      700      900      950      970     1000      129      960     1100   
                                          VAR    BASINP    GEOM    SYMINP    ZMAT    AOBASIS   BASIS     P2S    ABASIS      S 
                                         1400     1410     1200     1210     1080     1600     1650     1300     1700   
                                           T        V       H0       H01     AOSYM     SMH    MOLCAS    ERIS     OPER   

              2       4        2.85       700     1000      520     2100   
                                         GEOM     BASIS   MCVARS     RHF  

 PROGRAMS   *        TOTAL    HF-SCF       INT
 CPU TIMES  *         8.56      8.05      0.37
 REAL TIME  *        10.63 SEC
 DISK USED  *        34.91 MB
 **********************************************************************************************************************************
 SETTING BASIS          =    6-31+G(D,P)


 Recomputing integrals since basis changed


 Using spherical harmonics

 Library entry C      S 6-31G                selected for orbital group  1
 Library entry C      S 6-31++G              selected for orbital group  1
 Library entry C      P 6-31G                selected for orbital group  1
 Library entry C      P 6-31++G              selected for orbital group  1
 Library entry C      D 6-31G*               selected for orbital group  1
 Library entry O      S 6-31G                selected for orbital group  2
 Library entry O      S 6-31++G              selected for orbital group  2
 Library entry O      P 6-31G                selected for orbital group  2
 Library entry O      P 6-31++G              selected for orbital group  2
 Library entry O      D 6-31G*               selected for orbital group  2
 Library entry H      S 6-31G                selected for orbital group  3
 Library entry H      P 6-31G**              selected for orbital group  3


 PROGRAM * SEWARD (Integral evaluation for generally contracted gaussian basis sets)     Author: Roland Lindh, 1990

 Geometry written to block  1 of record 700


 Point group  C1  



 ATOMIC COORDINATES

 NR  ATOM    CHARGE       X              Y              Z

   1  C       6.00   -2.289384303    0.015061117    0.000774788
   2  O       8.00    2.445248913   -0.205394332    0.000245664
   3  H       1.00    0.017914604   -0.223025477    0.005291233
   4  H       1.00   -2.882833895   -0.440778619    1.908755667
   5  H       1.00   -2.703574475    1.952521724   -0.525495041
   6  H       1.00   -2.934196651   -1.341913418   -1.394050962
   7  H       1.00    2.677061617    1.606059336   -0.001114938

 Bond lengths in Bohr (Angstrom)

 1-3  2.319554670  1-4  2.049478792  1-5  2.049943178  1-6  2.050049201  2-3  2.427403585
     ( 1.227455471)     ( 1.084537471)     ( 1.084783213)     ( 1.084839318)     ( 1.284526659)

 2-7  1.826226540
     ( 0.966397467)

 Bond angles

  1-3-2  173.68821167   3-1-4  105.27124604   3-1-5  107.36711084   3-1-6  104.25607416

  3-2-7   97.70877154   4-1-5  112.99849973   4-1-6  113.27293665   5-1-6  112.79152394

 NUCLEAR CHARGE:                   19
 NUMBER OF PRIMITIVE AOS:          99
 NUMBER OF SYMMETRY AOS:           97
 NUMBER OF CONTRACTIONS:           61   (  61A   )
 NUMBER OF CORE ORBITALS:           2   (   2A   )
 NUMBER OF VALENCE ORBITALS:       13   (  13A   )


 NUCLEAR REPULSION ENERGY   37.11882177


 Eigenvalues of metric

         1 0.560E-02 0.117E-01 0.295E-01 0.378E-01 0.529E-01 0.545E-01 0.863E-01 0.108E+00


 Contracted 2-electron integrals neglected if value below      1.0D-11
 AO integral compression algorithm  1   Integral accuracy      1.0D-11

     8.126 MB (compressed) written to integral file ( 48.5%)


 NUMBER OF SORTED TWO-ELECTRON INTEGRALS:    1788886.     BUFFER LENGTH:  32768
 NUMBER OF SEGMENTS:   1  SEGMENT LENGTH:    1788886      RECORD LENGTH: 524288

 Memory used in sort:       2.35 MW

 SORT1 READ     2146807. AND WROTE     1690864. INTEGRALS IN      5 RECORDS. CPU TIME:     0.03 SEC, REAL TIME:     0.05 SEC
 SORT2 READ     1690864. AND WROTE     1788886. INTEGRALS IN     31 RECORDS. CPU TIME:     0.09 SEC, REAL TIME:     0.09 SEC

 FILE SIZES:   FILE 1:    38.3 MBYTE,  FILE 4:    21.0 MBYTE,   TOTAL:     59.3 MBYTE

 OPERATOR DM      FOR CENTER  0  COORDINATES:    0.000000    0.000000    0.000000


 **********************************************************************************************************************************
 DATASETS  * FILE   NREC   LENGTH (MB)   RECORD NAMES
              1      19       36.88       500      610      700      900      950      970     1001      129      960     1100   
                                          VAR    BASINP    GEOM    SYMINP    ZMAT    AOBASIS   BASIS     P2S    ABASIS      S 
                                         1400     1410     1200     1210     1080     1600     1650     1300     1700   
                                           T        V       H0       H01     AOSYM     SMH    MOLCAS    ERIS     OPER   

              2       5        2.87       700     1000      520     2100     1001   
                                         GEOM     BASIS   MCVARS     RHF     BASIS   

 PROGRAMS   *        TOTAL       INT    HF-SCF       INT
 CPU TIMES  *         9.09      0.53      8.05      0.37
 REAL TIME  *        11.26 SEC
 DISK USED  *        62.25 MB
 **********************************************************************************************************************************

 Density functional group VS99=VSXC
 Functional: VSXC(Automatically generated (new) VSXC)                          Gradient terms: 2
 Use libxcgrid:  F
 Use grid at  1800.2

 Functional: VSXC                      Factor:  1.0000

 Generated new metagrid on record  1800.2 with target accuracy 1.0D-06 and 23318 points in CPU time    0.6
 Computed new grid on record 1800.1 in CPU time    0.6
   98893 words reserved for DFT integration

 PROGRAM * RKS-SCF (Restricted open shell Kohn-Sham)     Authors: W. Meyer, H.-J. Werner, P.J. Knowles, 1993

 NUMBER OF ELECTRONS:      10+    9-    SPACE SYMMETRY=1    SPIN SYMMETRY: Doublet 
 CONVERGENCE THRESHOLDS:    1.00E-05 (Density)    1.00E-06 (Energy)
 MAX. NUMBER OF ITERATIONS:       60
 INTERPOLATION TYPE:            DIIS
 INTERPOLATION STEPS:              2 (START)      1 (STEP)
 LEVEL SHIFTS:                 -0.60 (CLOSED) -0.30 (OPEN) 



 Use fine grid record 1800.2 for energy threshold  1.0D-06
 Molecular orbitals read from record     2100.2  Type=RHF/CANONICAL (state 1.1)

 Present basis size:      61
 Previous basis size:     15
 Previous occupation:     10
 Previous closed-shells:   9
 Previous core-orbitals:   2
 Present occupation:      10
 Present closed-shells:    9
 Present core-orbitals:    2
 Wavefunction symmetry:    1   Doublet 

 Orbital overlap <old|new>:  < 1.1| 1.1> = 0.999845   < 2.1| 2.1> = 0.999833   < 3.1| 3.1> = 0.999652   < 4.1| 4.1> = 0.999904
                             < 5.1| 5.1> = 0.998640   < 6.1| 6.1> = 0.999566   < 7.1| 7.1> = 0.999575   < 8.1| 8.1> = 0.999011
                             < 9.1| 9.1> = 0.995895   <10.1|10.1> = 0.996583


 Molecular orbital dump at record        2101.2

 ITERATION    DDIFF          GRAD             ENERGY        2-EL.EN.            DIPOLE MOMENTS         DIIS   ORB.
    1      0.000D+00      0.000D+00      -115.61362534    190.188173    0.20412    0.48749   -0.00003    0    start
    2      0.000D+00      0.208D-01      -115.78508953    186.266979    0.06983    0.37201   -0.00090    1    diag,B
    3      0.134D-01      0.543D-02      -115.81262208    187.666667   -0.41699    0.57889   -0.00118    2    diag,B
    4      0.600D-02      0.343D-02      -115.82227193    186.802562   -0.39880    0.57325   -0.00146    3    diag,B
    5      0.282D-02      0.122D-02      -115.82613706    186.763617   -0.58443    0.61707   -0.00146    4    diag,B
    6      0.253D-02      0.517D-03      -115.82676871    186.720321   -0.63896    0.63182   -0.00136    5    diag,B
    7      0.119D-02      0.133D-03      -115.82682076    186.707386   -0.65854    0.63346   -0.00123    6    diag,B
    8      0.307D-03      0.552D-04      -115.82682985    186.707944   -0.66342    0.63354   -0.00115    7    orth
    9      0.142D-03      0.188D-04      -115.82683107    186.707711   -0.66515    0.63366   -0.00111    8    diag,B
   10      0.566D-04      0.564D-05      -115.82683116    186.707874   -0.66548    0.63372   -0.00110    9    diag,B
   11      0.167D-04      0.163D-05      -115.82683116    186.707816   -0.66545    0.63374   -0.00110    9    diag,B
   12      0.478D-05      0.572D-06      -115.82683116    186.707875   -0.66545    0.63374   -0.00110    0    orth

 Final alpha occupancy:  10
 Final beta  occupancy:   9

 !RKS STATE  1.1 Energy              -115.826831164601
 Nuclear energy                        37.11882177
 One-electron energy                 -230.94612331
 Two-electron energy                   93.35393729
 Density functional                   -15.35346691     VSXC=-15.35346691
 Virial quotient                       -1.00420777
 !RKS STATE  1.1 Dipole moment         -0.66545354     0.63374081    -0.00109667
 Dipole moment /Debye                  -1.69130340     1.61070297    -0.00278728

 Orbital energies:

         1.1          2.1          3.1          4.1          5.1          6.1          7.1          8.1          9.1         10.1
    -18.860635    -9.972830    -0.915440    -0.665472    -0.428146    -0.377154    -0.375730    -0.355465    -0.240677    -0.230887

        11.1         12.1
      0.010492     0.045258


 HOMO     10.1    -0.230887 =      -6.2828eV
 LUMO     11.1     0.010492 =       0.2855eV
 LUMO-HOMO         0.241380 =       6.5683eV


 **********************************************************************************************************************************
 DATASETS  * FILE   NREC   LENGTH (MB)   RECORD NAMES
              1      20       37.62       500      610      700      900      950      970     1001      129      960     1100   
                                          VAR    BASINP    GEOM    SYMINP    ZMAT    AOBASIS   BASIS     P2S    ABASIS      S 
                                         1400     1410     1200     1210     1080     1600     1650     1300     1700     1800   
                                           T        V       H0       H01     AOSYM     SMH    MOLCAS    ERIS     OPER     GRID   

              2       7        5.47       700     1000      520     2100     1001     1800     2101   
                                         GEOM     BASIS   MCVARS     RHF     BASIS    GRID      RKS  

 PROGRAMS   *        TOTAL    KS-SCF       INT    HF-SCF       INT
 CPU TIMES  *        13.40      4.31      0.53      8.05      0.37
 REAL TIME  *        16.04 SEC
 DISK USED  *        62.25 MB
 **********************************************************************************************************************************


 PROGRAM * Intrinsic Basis Bonding Analysis (IBBA)          Author: G. Knizia

 Molecular orbitals read from record     2101.2  Type=RKS/CANONICAL (state 1.1)
 Fock matrix read from record            2101.2  Type=RKS/TOTAL (state 1.1)
 Orbital energies read from record       2101.2  Type=RKS/CANONICAL (state 1.1)
 Density matrix read from record         2101.2  Type=RKS/CHARGE (state 1.1)

 Number of core orbitals:           2 (   2 )
 Number of closed-shell orbitals:   7 (   7 )
 Number of active  orbitals:        1 (   1 )

 Basis set MINAO-AUTO-PP generated.      Number of basis functions:   15 

 Polarized AO type:                A = (O Ot + (1-O)(1-Ot)) P12
 Orthogonalization method:         Symmetric (Loewdin)
 Localization functional:          L = sum[A,i] <i|n_A|i>^4 -> max

 Localization group 1:   9 orbitals, occupancy  2.000
 Iterative localization: IB/PM,    7 iter; Final gradient 0.34E-09

 Bond order analysis:       [THRPRINT= 0.020]

   CEN ATOM   CEN ATOM     WIBERG.BO      RENORM.BO
     1   C  -   5   H       0.958903       0.999381
     1   C  -   4   H       0.951176       0.998621
     1   C  -   6   H       0.949018       0.999142
     1   C  -   2   O       0.479812       1.003483
     1   C  -   3   H       0.432223       0.864618

     2   O  -   7   H       0.869055       0.999812
     2   O  -   3   H       0.497112       0.878239
     2   O  -   1   C       0.479812       1.003483

     3   H  -   2   O       0.497112       0.878239
     3   H  -   1   C       0.432223       0.864618

     4   H  -   1   C       0.951176       0.998621

     5   H  -   1   C       0.958903       0.999381

     6   H  -   1   C       0.949018       0.999142

     7   H  -   2   O       0.869055       0.999812


 Valency analysis:

   CEN ATOM   TOT.VALENCE
     1   C       3.771433
     2   O       1.883828
     3   H       0.937825
     4   H       0.967789
     5   H       0.971468
     6   H       0.966706
     7   H       0.869587
 Localization group 2:   1 orbitals, occupancy  1.000
 Iterative localization: IB/PM,    1 iter; Final gradient 0.00E+00

 Bond order analysis:       [THRPRINT= 0.020]

   CEN ATOM   CEN ATOM     WIBERG.BO      RENORM.BO
     1   C  -   2   O       0.450083       0.500000

     2   O  -   1   C       0.450083       0.500000
     2   O  -   3   H       0.022076       0.500000

     3   H  -   2   O       0.022076       0.500000






 Valency analysis:

   CEN ATOM   TOT.VALENCE
     1   C       0.480691
     2   O       0.492761
     3   H       0.038633
     4   H       0.011802
     5   H       0.008494
     6   H       0.013017
     7   H       0.003267

 Total charge composition:

   CEN ATOM         s          p       ELECTRONS ->P.CHARGE
     1   C       3.12738    3.39247      6.51985   -0.51985
     2   O       3.77616    4.80723      8.58339   -0.58339
     3   H       0.77035                 0.77035    0.22965
     4   H       0.82646                 0.82646    0.17354
     5   H       0.83535                 0.83535    0.16465
     6   H       0.82408                 0.82408    0.17592
     7   H       0.64051                 0.64051    0.35949

 Total charge composition, AO contributions:

   CEN ATOM SHL      SPHERICAL COMPONENTS
     1   C  1s       1.99134
     1   C  2s       1.13604
     1   C  2p       1.01672    1.18528    1.19047

     2   O  1s       1.99800
     2   O  2s       1.77817
     2   O  2p       1.27829    1.52995    1.99899

     3   H  1s       0.77035

     4   H  1s       0.82646

     5   H  1s       0.83535

     6   H  1s       0.82408

     7   H  1s       0.64051

 Active orbital charges:

   CEN ATOM         s          p       ELECTRONS ->SPIN.DEN
     1   C       0.02278    0.37896      0.40174    0.40174
     2   O       0.00331    0.55685      0.56016    0.56016
     3   H       0.01970                 0.01970    0.01970
     4   H       0.00594                 0.00594    0.00594
     5   H       0.00427                 0.00427    0.00427
     6   H       0.00655                 0.00655    0.00655
     7   H       0.00164                 0.00164    0.00164

 Active orbital charges, AO contributions:

   CEN ATOM SHL      SPHERICAL COMPONENTS
     1   C  1s       0.00003
     1   C  2s       0.02275
     1   C  2p       0.37747    0.00149    0.00000

     2   O  1s       0.00003
     2   O  2s       0.00328
     2   O  2p       0.54918    0.00768    0.00000

     3   H  1s       0.01970

     4   H  1s       0.00594

     5   H  1s       0.00427

     6   H  1s       0.00655

     7   H  1s       0.00164

 Summary of localized orbital composition:   [THRPRINT= 0.020]

   ORB  GRP  ORB.ENERGY      CENTERS/CHARGES
     1   1   -18.724602      O  2   2.000
     2   1    -9.856188      C  1   2.000
     3   1    -0.727241      O  2   1.361   H  7   0.639
     4   1    -0.663900      O  2   1.951   C  1   0.026   H  3   0.022
     5   1    -0.501579      C  1   1.159   H  5   0.829
     6   1    -0.501415      C  1   1.167   H  6   0.815
     7   1    -0.501158      C  1   1.166   H  4   0.817
     8   1    -0.474365      H  3   0.698   O  2   0.695   C  1   0.600
     9   1    -0.241089      O  2   1.999
    10   2    -0.201003      O  2   0.560   C  1   0.402   (other: 0.038)

 Localized orbitals saved to record      2101.2  (orbital set 2)


 **********************************************************************************************************************************
 DATASETS  * FILE   NREC   LENGTH (MB)   RECORD NAMES
              1      20       37.62       500      610      700      900      950      970     1001      129      960     1100   
                                          VAR    BASINP    GEOM    SYMINP    ZMAT    AOBASIS   BASIS     P2S    ABASIS      S 
                                         1400     1410     1200     1210     1080     1600     1650     1300     1700     1800   
                                           T        V       H0       H01     AOSYM     SMH    MOLCAS    ERIS     OPER     GRID   

              2       7        5.51       700     1000      520     2100     1001     1800     2101   
                                         GEOM     BASIS   MCVARS     RHF     BASIS    GRID      RKS  

 PROGRAMS   *        TOTAL      IBBA    KS-SCF       INT    HF-SCF       INT
 CPU TIMES  *        13.43      0.02      4.31      0.53      8.05      0.37
 REAL TIME  *        16.07 SEC
 DISK USED  *        62.25 MB
 **********************************************************************************************************************************

 IBBA/6-31+G(D,P) energy=      0.000000000000

          KS-SCF          HF-SCF
   -115.82683116   -114.03842774
 **********************************************************************************************************************************
 Molpro calculation terminated
