
 Primary working directories    : /local
 Secondary working directories  : /local
 Wavefunction directory         : /local/
 Main file repository           : /local/

 SHA1      : b9319c725c8a29ac6166ac31fc2b6d7de1ab7ce4
 NAME      : 2012.1.57
 ARCHNAME  : Linux/x86_64
 FC        : /cm/shared/languages/GCC-7.1.0/bin/gfortran
 FCVERSION : 7.1.0
 BLASLIB   : -L/usr/lib64 -lblas
 id        : simonbennie

 Nodes     nprocs
 node32-044    1

 Using customized tuning parameters: mindgm=1; mindgv=20; mindgc=4; mindgr=1; noblas=0; minvec=7
 default implementation of scratch files=df  

 memory,500,m
 geomtyp=xyz
 nosym
 noorient
 geometry={
 C         -1.21149        0.00797        0.00041
 O          1.29397       -0.10869        0.00013
 H          0.00948       -0.11802        0.00280
 H         -1.52553       -0.23325        1.01007
 H         -1.43067        1.03323       -0.27808
 H         -1.55271       -0.71011       -0.73770
 H          1.41664        0.84989       -0.00059
 }
 basis={default,sto-3g}
 {hf,direct;wf,19,1,1}
 
 basis={ default,6-31+G(d,p) }
 {ks,M06-2X,direct;disp;wf,19,1,1}
 

 Variables initialized (782), CPU time= 0.00 sec
 Commands  initialized (547), CPU time= 0.01 sec, 517 directives.
 Default parameters read. Elapsed time= 0.09 sec

 Checking input...
 Passed
1


                                         ***  PROGRAM SYSTEM MOLPRO  ***
                         Copyright, University College Cardiff Consultants Limited, 2008

                                    Version 2012.1 linked Aug  7 2018 17:05:12


 **********************************************************************************************************************************
 LABEL *                                                                                 
 Linux-2.6.32-642.6.2.el6.x86_64/node32-044(x86_64) 64 bit serial version                DATE: 12-Oct-18          TIME: 12:41:52  
 **********************************************************************************************************************************

 SHA1:             b9319c725c8a29ac6166ac31fc2b6d7de1ab7ce4
 **********************************************************************************************************************************
 SETTING GEOMTYP        =    XYZ

 Variable memory set to  500000000 words,  buffer space   230000 words

 ZSYMEL=NOSYM

 SETTING BASIS          =    STO-3G


 Recomputing integrals since basis changed


 Using spherical harmonics

 Library entry C      S STO-3G               selected for orbital group  1
 Library entry C      P STO-3G               selected for orbital group  1
 Library entry O      S STO-3G               selected for orbital group  2
 Library entry O      P STO-3G               selected for orbital group  2
 Library entry H      S STO-3G               selected for orbital group  3

1PROGRAM * SEWARD (Integral evaluation for generally contracted gaussian basis sets)     Author: Roland Lindh, 1990

 Geometry written to block  1 of record 700


 Point group  C1  



 ATOMIC COORDINATES

 NR  ATOM    CHARGE       X              Y              Z

   1  C       6.00   -2.289384311    0.015061117    0.000774788
   2  O       8.00    2.445248922   -0.205394333    0.000245664
   3  H       1.00    0.017914604   -0.223025478    0.005291233
   4  H       1.00   -2.882833905   -0.440778620    1.908755674
   5  H       1.00   -2.703574484    1.952521731   -0.525495043
   6  H       1.00   -2.934196662   -1.341913423   -1.394050967
   7  H       1.00    2.677061627    1.606059342   -0.001114938

 Bond lengths in Bohr (Angstrom)

 1-3  2.319554679  1-4  2.049478799  1-5  2.049943185  1-6  2.050049209  2-3  2.427403594
     ( 1.227455471)     ( 1.084537471)     ( 1.084783213)     ( 1.084839318)     ( 1.284526659)

 2-7  1.826226546
     ( 0.966397467)

 Bond angles

  1-3-2  173.68821167   3-1-4  105.27124604   3-1-5  107.36711084   3-1-6  104.25607416

  3-2-7   97.70877154   4-1-5  112.99849973   4-1-6  113.27293665   5-1-6  112.79152394

 NUCLEAR CHARGE:                   19
 NUMBER OF PRIMITIVE AOS:          45
 NUMBER OF SYMMETRY AOS:           45
 NUMBER OF CONTRACTIONS:           15   (  15A   )
 NUMBER OF CORE ORBITALS:           2   (   2A   )
 NUMBER OF VALENCE ORBITALS:       13   (  13A   )


 NUCLEAR REPULSION ENERGY   37.11882163


 Eigenvalues of metric

         1 0.225E+00 0.352E+00 0.359E+00 0.361E+00 0.388E+00 0.832E+00 0.934E+00 0.993E+00


 Contracted 2-electron integrals neglected if value below      1.0D-11
 AO integral compression algorithm  1   Integral accuracy      1.0D-11

     0.262 MB (compressed) written to integral file (100.0%)


 NUMBER OF SORTED TWO-ELECTRON INTEGRALS:       7260.     BUFFER LENGTH:  32768
 NUMBER OF SEGMENTS:   1  SEGMENT LENGTH:       7260      RECORD LENGTH: 524288

 Memory used in sort:       0.56 MW

 SORT1 READ        9024. AND WROTE        6948. INTEGRALS IN      1 RECORDS. CPU TIME:     0.00 SEC, REAL TIME:     0.01 SEC
 SORT2 READ        6948. AND WROTE        7260. INTEGRALS IN      1 RECORDS. CPU TIME:     0.00 SEC, REAL TIME:     0.00 SEC

 FILE SIZES:   FILE 1:     7.9 MBYTE,  FILE 4:     4.2 MBYTE,   TOTAL:     12.1 MBYTE

 OPERATOR DM      FOR CENTER  0  COORDINATES:    0.000000    0.000000    0.000000


 **********************************************************************************************************************************
 DATASETS  * FILE   NREC   LENGTH (MB)   RECORD NAMES
              1      19        7.66       500      610      700      900      950      970     1000      129      960     1100   
                                          VAR    BASINP    GEOM    SYMINP    ZMAT    AOBASIS   BASIS     P2S    ABASIS      S 
                                         1400     1410     1200     1210     1080     1600     1650     1300     1700   
                                           T        V       H0       H01     AOSYM     SMH    MOLCAS    ERIS     OPER   

 PROGRAMS   *        TOTAL       INT
 CPU TIMES  *         0.41      0.32
 REAL TIME  *         0.73 SEC
 DISK USED  *        12.47 MB      
 **********************************************************************************************************************************

1PROGRAM * RHF-SCF (OPEN SHELL)       Authors: W. Meyer, H.-J. Werner


 NUMBER OF ELECTRONS:      10+    9-    SPACE SYMMETRY=1    SPIN SYMMETRY: Doublet 
 CONVERGENCE THRESHOLDS:    1.00E-05 (Density)    1.00E-07 (Energy)
 INTEGRAL THRESHOLDS:       1.00E-11 (Initial)    1.00E-11 (Final)
 MAX. NUMBER OF ITERATIONS:       60
 INTERPOLATION TYPE:            DIIS
 INTERPOLATION STEPS:              2 (START)      1 (STEP)
 LEVEL SHIFTS:                 -0.30 (CLOSED) -0.00 (OPEN) 



 Orbital guess generated from atomic densities. Full valence occupancy:   10

 Molecular orbital dump at record        2100.2

 Direct Fock-matrix evaluation.        Author: H.-J. Werner (1996)

 Integral Threshold:                  0.1D-10

 ITERATION   DDIFF            GRAD            ENERGY        2-EL.EN.            DIPOLE MOMENTS         DIIS   CPU(IT)  CPU(TOT)
    1      0.000D+00      0.000D+00      -113.90030639    162.008655   -1.36254    1.02565   -0.00137    0      1.1      2.1     start
    2      0.000D+00      0.303D-01      -114.00993244    158.619206   -0.44759    0.54912   -0.00033    1      0.6      2.6     diag,B
    3      0.521D-01      0.738D-02      -114.02252233    157.980940   -0.30269    0.49400    0.00001    2      0.6      3.2     diag,B
    4      0.147D-01      0.401D-02      -114.02999408    157.830637   -0.15873    0.48148   -0.00004    3      0.5      3.8     diag,B
    5      0.855D-02      0.306D-02      -114.03742137    157.697775    0.05659    0.48916   -0.00009    4      0.5      4.3     diag,B
    6      0.149D-01      0.128D-02      -114.03811118    157.676602    0.13686    0.49133   -0.00003    5      0.5      4.8     diag,B
    7      0.345D-02      0.628D-03      -114.03833880    157.652321    0.18486    0.49410    0.00001    6      0.5      5.3     fixocc
    8      0.253D-02      0.298D-03      -114.03840622    157.654770    0.19813    0.49358    0.00002    7      0.5      5.9     diag,B
    9      0.122D-02      0.157D-03      -114.03842488    157.652101    0.20964    0.49360    0.00002    8      0.5      6.4     diag,B
   10      0.103D-02      0.772D-04      -114.03842754    157.652958    0.20696    0.49259    0.00002    9      0.5      6.9     orth
   11      0.352D-03      0.216D-04      -114.03842770    157.652649    0.20817    0.49279    0.00002    9      0.5      7.4     diag,B
   12      0.125D-03      0.942D-05      -114.03842774    157.652748    0.20778    0.49274    0.00002    9      0.5      7.9     diag,B
   13      0.364D-04      0.182D-05      -114.03842774    157.652738    0.20778    0.49274    0.00002    9      0.5      8.4     diag,B
   14      0.533D-05      0.133D-05      -114.03842774    157.652737    0.20778    0.49274    0.00002    0      0.5      8.9     orth

 Final alpha occupancy:  10
 Final beta  occupancy:   9

 !RHF STATE 1.1 Energy               -114.038427742424
 Nuclear energy                        37.11882163
 One-electron energy                 -229.98361783
 Two-electron energy                   78.82636846
 Virial quotient                       -1.00487329
 !RHF STATE 1.1 Dipole moment           0.20777743     0.49274393     0.00002137
 Dipole moment /Debye                   0.52808296     1.25234812     0.00005430

 Orbital energies:

         1.1          2.1          3.1          4.1          5.1          6.1          7.1          8.1          9.1         10.1
    -20.298396   -11.002885    -1.252743    -0.884429    -0.580260    -0.513733    -0.512298    -0.468189    -0.428007    -0.449001

        11.1         12.1
      0.607516     0.704155

 HOMO     10.1    -0.449001 =     -12.2180eV
 LUMO     11.1     0.607516 =      16.5314eV
 LUMO-HOMO         1.056518 =      28.7493eV


 **********************************************************************************************************************************
 DATASETS  * FILE   NREC   LENGTH (MB)   RECORD NAMES
              1      19        7.66       500      610      700      900      950      970     1000      129      960     1100   
                                          VAR    BASINP    GEOM    SYMINP    ZMAT    AOBASIS   BASIS     P2S    ABASIS      S 
                                         1400     1410     1200     1210     1080     1600     1650     1300     1700   
                                           T        V       H0       H01     AOSYM     SMH    MOLCAS    ERIS     OPER   

              2       4        2.85       700     1000      520     2100   
                                         GEOM     BASIS   MCVARS     RHF  

 PROGRAMS   *        TOTAL        HF       INT
 CPU TIMES  *         9.33      8.92      0.32
 REAL TIME  *        10.74 SEC
 DISK USED  *        12.47 MB      
 **********************************************************************************************************************************
 SETTING BASIS          =    6-31+G(D,P)


 Recomputing integrals since basis changed


 Using spherical harmonics

 Library entry C      S 6-31G                selected for orbital group  1
 Library entry C      S 6-31++G              selected for orbital group  1
 Library entry C      P 6-31G                selected for orbital group  1
 Library entry C      P 6-31++G              selected for orbital group  1
 Library entry C      D 6-31G*               selected for orbital group  1
 Library entry O      S 6-31G                selected for orbital group  2
 Library entry O      S 6-31++G              selected for orbital group  2
 Library entry O      P 6-31G                selected for orbital group  2
 Library entry O      P 6-31++G              selected for orbital group  2
 Library entry O      D 6-31G*               selected for orbital group  2
 Library entry H      S 6-31G                selected for orbital group  3
 Library entry H      P 6-31G**              selected for orbital group  3

1PROGRAM * SEWARD (Integral evaluation for generally contracted gaussian basis sets)     Author: Roland Lindh, 1990

 Geometry written to block  1 of record 700


 Point group  C1  



 ATOMIC COORDINATES

 NR  ATOM    CHARGE       X              Y              Z

   1  C       6.00   -2.289384311    0.015061117    0.000774788
   2  O       8.00    2.445248922   -0.205394333    0.000245664
   3  H       1.00    0.017914604   -0.223025478    0.005291233
   4  H       1.00   -2.882833905   -0.440778620    1.908755674
   5  H       1.00   -2.703574484    1.952521731   -0.525495043
   6  H       1.00   -2.934196662   -1.341913423   -1.394050967
   7  H       1.00    2.677061627    1.606059342   -0.001114938

 Bond lengths in Bohr (Angstrom)

 1-3  2.319554679  1-4  2.049478799  1-5  2.049943185  1-6  2.050049209  2-3  2.427403594
     ( 1.227455471)     ( 1.084537471)     ( 1.084783213)     ( 1.084839318)     ( 1.284526659)

 2-7  1.826226546
     ( 0.966397467)

 Bond angles

  1-3-2  173.68821167   3-1-4  105.27124604   3-1-5  107.36711084   3-1-6  104.25607416

  3-2-7   97.70877154   4-1-5  112.99849973   4-1-6  113.27293665   5-1-6  112.79152394

 NUCLEAR CHARGE:                   19
 NUMBER OF PRIMITIVE AOS:          99
 NUMBER OF SYMMETRY AOS:           97
 NUMBER OF CONTRACTIONS:           61   (  61A   )
 NUMBER OF CORE ORBITALS:           2   (   2A   )
 NUMBER OF VALENCE ORBITALS:       13   (  13A   )


 NUCLEAR REPULSION ENERGY   37.11882163


 Eigenvalues of metric

         1 0.560E-02 0.117E-01 0.295E-01 0.378E-01 0.529E-01 0.545E-01 0.863E-01 0.108E+00


 Contracted 2-electron integrals neglected if value below      1.0D-11
 AO integral compression algorithm  1   Integral accuracy      1.0D-11

     8.126 MB (compressed) written to integral file ( 48.5%)


 NUMBER OF SORTED TWO-ELECTRON INTEGRALS:    1788886.     BUFFER LENGTH:  32768
 NUMBER OF SEGMENTS:   1  SEGMENT LENGTH:    1788886      RECORD LENGTH: 524288

 Memory used in sort:       2.35 MW

 SORT1 READ     2146807. AND WROTE     1690864. INTEGRALS IN      5 RECORDS. CPU TIME:     0.02 SEC, REAL TIME:     0.05 SEC
 SORT2 READ     1690864. AND WROTE     1788886. INTEGRALS IN     31 RECORDS. CPU TIME:     0.07 SEC, REAL TIME:     0.14 SEC

 FILE SIZES:   FILE 1:    15.9 MBYTE,  FILE 4:    21.0 MBYTE,   TOTAL:     36.9 MBYTE

 OPERATOR DM      FOR CENTER  0  COORDINATES:    0.000000    0.000000    0.000000


 **********************************************************************************************************************************
 DATASETS  * FILE   NREC   LENGTH (MB)   RECORD NAMES
              1      19       14.44       500      610      700      900      950      970     1001      129      960     1100   
                                          VAR    BASINP    GEOM    SYMINP    ZMAT    AOBASIS   BASIS     P2S    ABASIS      S 
                                         1400     1410     1200     1210     1080     1600     1650     1300     1700   
                                           T        V       H0       H01     AOSYM     SMH    MOLCAS    ERIS     OPER   

              2       5        2.87       700     1000      520     2100     1001   
                                         GEOM     BASIS   MCVARS     RHF     BASIS   

 PROGRAMS   *        TOTAL       INT        HF       INT
 CPU TIMES  *         9.82      0.49      8.92      0.32
 REAL TIME  *        11.66 SEC
 DISK USED  *        39.81 MB      
 **********************************************************************************************************************************

 Density functional group M06-2X=XC-M06-2X
 Functional: XC-M06-2X(via MFM 1.6)                                            Gradient terms: 1

 dispersion correction activated
 Density functional: M06-2X  
 functional not in list, set to default 


 Exact exchange will be calculated, factor:  0.5400

 Functional: XC-M06-2X                 Factor:  1.0000

 Use grid at  1800.2


 Exact exchange will be calculated, factor:  0.5400

 Functional: XC-M06-2X                 Factor:  1.0000

 Generated new metagrid on record  1800.2 with target accuracy 1.0D-06 and 22606 points in CPU time    0.3
 Computed new grid on record 1800.1 in CPU time    0.4
   52411 words reserved for DFT integration

 PROGRAM * RKS-SCF (Restricted open shell Kohn-Sham)     Authors: W. Meyer, H.-J. Werner, P.J. Knowles, 1993

 NUMBER OF ELECTRONS:      10+    9-    SPACE SYMMETRY=1    SPIN SYMMETRY: Doublet 
 CONVERGENCE THRESHOLDS:    1.00E-05 (Density)    1.00E-06 (Energy)
 MAX. NUMBER OF ITERATIONS:       60
 INTERPOLATION TYPE:            DIIS
 INTERPOLATION STEPS:              2 (START)      1 (STEP)
 LEVEL SHIFTS:                 -0.30 (CLOSED) -0.00 (OPEN) 



 Use fine grid record 1800.2 for energy threshold  1.0D-06
 Molecular orbitals read from record     2100.2  Type=RHF/CANONICAL (state 1.1)

 Present basis size:      61
 Previous basis size:     15
 Previous occupation:     10
 Previous closed-shells:   9
 Previous core-orbitals:   2
 Present occupation:      10
 Present closed-shells:    9
 Present core-orbitals:    2
 Wavefunction symmetry:    1   Doublet 

 Orbital overlap <old|new>:  < 1.1| 1.1> = 0.999845   < 2.1| 2.1> = 0.999833   < 3.1| 3.1> = 0.999652   < 4.1| 4.1> = 0.999904
                             < 5.1| 5.1> = 0.998640   < 6.1| 6.1> = 0.999566   < 7.1| 7.1> = 0.999575   < 8.1| 8.1> = 0.999011
                             < 9.1| 9.1> = 0.995895   <10.1|10.1> = 0.996583

 Molecular orbital dump at record        2101.2

 ITERATION    DDIFF          GRAD             ENERGY        2-EL.EN.            DIPOLE MOMENTS         DIIS   ORB.
    1      0.000D+00      0.000D+00      -115.97822163    173.562819    0.20411    0.48749   -0.00003    0    start
    2      0.000D+00      0.196D-01      -116.13937761    169.410244    0.18312    0.38856   -0.00110    1    diag,B
    3      0.143D-01      0.584D-02      -116.16243976    171.187285   -0.14495    0.61455   -0.00117    2    diag,B
    4      0.602D-02      0.329D-02      -116.17100386    170.405891   -0.17774    0.61004   -0.00117    3    diag,B
    5      0.254D-02      0.953D-03      -116.17445910    170.417434   -0.35545    0.64486   -0.00097    4    diag,B
    6      0.186D-02      0.590D-03      -116.17562979    170.453892   -0.44910    0.65592   -0.00081    5    diag,B
    7      0.102D-02      0.311D-03      -116.17624775    170.436753   -0.55160    0.65989   -0.00066    6    diag,B
    8      0.891D-03      0.139D-03      -116.17638310    170.452671   -0.60958    0.66006   -0.00060    7    orth
    9      0.537D-03      0.320D-04      -116.17638962    170.454242   -0.61900    0.66047   -0.00062    8    diag,B
   10      0.995D-04      0.128D-04      -116.17639074    170.454098   -0.62056    0.66074   -0.00064    9    diag,B
   11      0.307D-04      0.544D-05      -116.17639097    170.453780   -0.62035    0.66091   -0.00065    9    diag,B
   12      0.129D-04      0.199D-05      -116.17639100    170.453893   -0.62032    0.66099   -0.00065    9    diag,B
   13      0.519D-05      0.420D-06      -116.17639100    170.453886   -0.62028    0.66099   -0.00065    0    orth

 Dispersion correction
 - - - - - - - - - - - 
  _________________________________
                                   
 |         DFTD3 V1.3 Rev 1        |
 | S.Grimme, University Muenster   |
 | Fri Jul  2 12:48:21 CEST 2010   |
  _________________________________

 Please cite DFT-D3 work done with this code as:
 S. Grimme, J. Antony, S. Ehrlich and H. Krieg,
 J. Chem. Phys, 132 (2010), 154104.
 For DFT-D2 the reference is
 S. Grimme, J. Comput. Chem., 27 (2006), 1787-1799

 C6 coefficients used:
                    2  C6 for element                     1
 Z=  1 CN=   0.912     C6(AA)=    3.03
 Z=  1 CN=   0.000     C6(AA)=    7.59
                    5  C6 for element                     6
 Z=  6 CN=   0.000     C6(AA)=   49.11
 Z=  6 CN=   0.987     C6(AA)=   43.25
 Z=  6 CN=   1.998     C6(AA)=   29.36
 Z=  6 CN=   2.999     C6(AA)=   25.78
 Z=  6 CN=   3.984     C6(AA)=   18.21
                    3  C6 for element                     8
 Z=  8 CN=   0.000     C6(AA)=   15.51
 Z=  8 CN=   0.993     C6(AA)=   12.82
 Z=  8 CN=   1.989     C6(AA)=   10.37

 #           XYZ [au]               R0(AA) [Ang.]   CN       C6(AA)     C8(AA)   C10(AA) [au]
  1  -2.28938   0.01506   0.00077   c   1.455  3.926        18.4       532.7     18872.2
  2   2.44525  -0.20539   0.00025   o   1.241  1.452        11.7       236.8      5855.1
  3   0.01791  -0.22303   0.00529   h   1.091  1.376         3.0        36.6       542.5
  4  -2.88283  -0.44078   1.90876   h   1.091  0.994         3.1        37.4       553.7
  5  -2.70357   1.95252  -0.52550   h   1.091  0.994         3.1        37.4       553.7
  6  -2.93420  -1.34191  -1.39405   h   1.091  0.994         3.1        37.4       553.7
  7   2.67706   1.60606  -0.00111   h   1.091  0.994         3.1        37.4       553.7

 molecular C6(AA) [au] =       269.19

           DFT-D V3
 DF pbe                                               
 parameters
 s6       :    1.0000
 s8       :    0.7220
 rs6      :    1.2170
 alpha6   :   14.0000
 alpha8   :   16.0000
 k1-k3    :   16.0000    1.3333   -4.0000

 Edisp /kcal,au:    -0.5876 -0.00093636

 E6    /kcal :    -0.2587
 E8    /kcal :    -0.3289
 % E8        : 55.97
 normal termination of dftd3

 RKS STATE 1.1 ENERGY+DISP     -116.17732736

 Final alpha occupancy:  10
 Final beta  occupancy:   9

 !RKS STATE 1.1 Energy               -116.177327363823
 Nuclear energy                        37.11882163
 One-electron energy                 -230.94952428
 Two-electron energy                   85.22694319
 Density functional                    -7.57263155     XC-M06-2X=-7.57263155
 Virial quotient                       -1.00665692
 !RKS STATE 1.1 Dipole moment          -0.62028310     0.66098931    -0.00065118
 Dipole moment /Debye                  -1.57649913     1.67995720    -0.00165503

 Orbital energies:

         1.1          2.1          3.1          4.1          5.1          6.1          7.1          8.1          9.1         10.1
    -19.664418   -10.560796    -1.099099    -0.803632    -0.550291    -0.490326    -0.489079    -0.477239    -0.389513    -0.352705

        11.1         12.1
      0.030112     0.054684

 HOMO     10.1    -0.352705 =      -9.5976eV
 LUMO     11.1     0.030112 =       0.8194eV
 LUMO-HOMO         0.382817 =      10.4170eV


 **********************************************************************************************************************************
 DATASETS  * FILE   NREC   LENGTH (MB)   RECORD NAMES
              1      20       15.17       500      610      700      900      950      970     1001      129      960     1100   
                                          VAR    BASINP    GEOM    SYMINP    ZMAT    AOBASIS   BASIS     P2S    ABASIS      S 
                                         1400     1410     1200     1210     1080     1600     1650     1300     1700     1800   
                                           T        V       H0       H01     AOSYM     SMH    MOLCAS    ERIS     OPER     GRID   

              2       7        5.47       700     1000      520     2100     1001     1800     2101   
                                         GEOM     BASIS   MCVARS     RHF     BASIS    GRID      RKS  

 PROGRAMS   *        TOTAL        KS       INT        HF       INT
 CPU TIMES  *        21.23     11.41      0.49      8.92      0.32
 REAL TIME  *        24.59 SEC
 DISK USED  *        39.81 MB      
 **********************************************************************************************************************************

        KS-SCF          HF-SCF  
   -116.17732736   -114.03842774
 **********************************************************************************************************************************
 Variable memory released
