
 Primary working directories    : /local
 Secondary working directories  : /local
 Wavefunction directory         : /local/
 Main file repository           : /local/

 SHA1      : b4a5b34a9e711420743f49e6833241d17c61fb3c
 NAME      : 2099.9.b4a5b34
 ARCHNAME  : linux/x86_64_openmp
 FC        : /cm/shared/languages/GCC-6.1/bin/gfortran
 BLASLIB   : -lblas
 id        : simonbennie

 Nodes     nprocs
 node34-030    1

 Using customized tuning parameters: mindgm=1; mindgv=20; mindgc=4; mindgr=1; noblas=0; minvec=7
 default implementation of scratch files=df  

 memory,500,m
 geomtyp=xyz
 nosym
 noorient
 geometry={
 C         -1.21149        0.00797        0.00041
 O          1.29397       -0.10869        0.00013
 H          0.00948       -0.11802        0.00280
 H         -1.52553       -0.23325        1.01007
 H         -1.43067        1.03323       -0.27808
 H         -1.55271       -0.71011       -0.73770
 H          1.41664        0.84989       -0.00059
 }
 basis={ default,sto-3g }
 {ks,SLATER,direct;wf,19,1,1}
 {ibba,bonds=1}

 Variables initialized (895), CPU time= 0.00 sec
 Commands  initialized (725), CPU time= 0.02 sec, 591 directives.
 Default parameters read. Elapsed time= 0.08 sec

 Checking input...
 Passed
1


                                         ***  PROGRAM SYSTEM MOLPRO  ***
                                       Copyright, TTI GmbH Stuttgart, 2015
                                    Version 2099.9 linked May 26 2017 16:03:21


 **********************************************************************************************************************************
 LABEL *                                                                                 
  64 bit serial version                                                                  DATE: 24-Jun-17          TIME: 07:43:58  
 **********************************************************************************************************************************

 SHA1:             b4a5b34a9e711420743f49e6833241d17c61fb3c
 **********************************************************************************************************************************
 SETTING GEOMTYP        =    XYZ

 Variable memory set to  500000000 words,  buffer space 

 ZSYMEL=NOSYM

 SETTING BASIS          =    STO-3G


 Recomputing integrals since basis changed


 Using spherical harmonics

 Library entry C      S STO-3G               selected for orbital group  1
 Library entry C      P STO-3G               selected for orbital group  1
 Library entry O      S STO-3G               selected for orbital group  2
 Library entry O      P STO-3G               selected for orbital group  2
 Library entry H      S STO-3G               selected for orbital group  3


 PROGRAM * SEWARD (Integral evaluation for generally contracted gaussian basis sets)     Author: Roland Lindh, 1990

 Geometry written to block  1 of record 700


 Point group  C1  



 ATOMIC COORDINATES

 NR  ATOM    CHARGE       X              Y              Z

   1  C       6.00   -2.289384303    0.015061117    0.000774788
   2  O       8.00    2.445248913   -0.205394332    0.000245664
   3  H       1.00    0.017914604   -0.223025477    0.005291233
   4  H       1.00   -2.882833895   -0.440778619    1.908755667
   5  H       1.00   -2.703574475    1.952521724   -0.525495041
   6  H       1.00   -2.934196651   -1.341913418   -1.394050962
   7  H       1.00    2.677061617    1.606059336   -0.001114938

 Bond lengths in Bohr (Angstrom)

 1-3  2.319554670  1-4  2.049478792  1-5  2.049943178  1-6  2.050049201  2-3  2.427403585
     ( 1.227455471)     ( 1.084537471)     ( 1.084783213)     ( 1.084839318)     ( 1.284526659)

 2-7  1.826226540
     ( 0.966397467)

 Bond angles

  1-3-2  173.68821167   3-1-4  105.27124604   3-1-5  107.36711084   3-1-6  104.25607416

  3-2-7   97.70877154   4-1-5  112.99849973   4-1-6  113.27293665   5-1-6  112.79152394

 NUCLEAR CHARGE:                   19
 NUMBER OF PRIMITIVE AOS:          45
 NUMBER OF SYMMETRY AOS:           45
 NUMBER OF CONTRACTIONS:           15   (  15A   )
 NUMBER OF CORE ORBITALS:           2   (   2A   )
 NUMBER OF VALENCE ORBITALS:       13   (  13A   )


 NUCLEAR REPULSION ENERGY   37.11882177


 Eigenvalues of metric

         1 0.225E+00 0.352E+00 0.359E+00 0.361E+00 0.388E+00 0.832E+00 0.934E+00 0.993E+00


 Contracted 2-electron integrals neglected if value below      1.0D-11
 AO integral compression algorithm  1   Integral accuracy      1.0D-11

     0.262 MB (compressed) written to integral file (100.0%)


 NUMBER OF SORTED TWO-ELECTRON INTEGRALS:       7260.     BUFFER LENGTH:  32768
 NUMBER OF SEGMENTS:   1  SEGMENT LENGTH:       7260      RECORD LENGTH: 524288

 Memory used in sort:       0.56 MW

 SORT1 READ        9024. AND WROTE        6948. INTEGRALS IN      1 RECORDS. CPU TIME:     0.00 SEC, REAL TIME:     0.00 SEC
 SORT2 READ        6948. AND WROTE        7260. INTEGRALS IN      1 RECORDS. CPU TIME:     0.00 SEC, REAL TIME:     0.00 SEC

 FILE SIZES:   FILE 1:    30.3 MBYTE,  FILE 4:     4.2 MBYTE,   TOTAL:     34.5 MBYTE

 OPERATOR DM      FOR CENTER  0  COORDINATES:    0.000000    0.000000    0.000000


 **********************************************************************************************************************************
 DATASETS  * FILE   NREC   LENGTH (MB)   RECORD NAMES
              1      19       30.09       500      610      700      900      950      970     1000      129      960     1100   
                                          VAR    BASINP    GEOM    SYMINP    ZMAT    AOBASIS   BASIS     P2S    ABASIS      S 
                                         1400     1410     1200     1210     1080     1600     1650     1300     1700   
                                           T        V       H0       H01     AOSYM     SMH    MOLCAS    ERIS     OPER   

 PROGRAMS   *        TOTAL       INT
 CPU TIMES  *         0.36      0.21
 REAL TIME  *         0.67 SEC
 DISK USED  *        34.91 MB      
 **********************************************************************************************************************************

 Density functional group SLATER=DIRAC
 Functional: DIRAC(Automatically generated (new) DIRAC)                        Gradient terms: 0
 Use grid at  1800.2

 Functional: DIRAC                     Factor:  1.0000

 Generated new metagrid on record  1800.2 with target accuracy 1.0D-06 and 23318 points in CPU time    0.5
 Computed new grid on record 1800.1 in CPU time    0.6
   10270 words reserved for DFT integration

 PROGRAM * RKS-SCF (Restricted open shell Kohn-Sham)     Authors: W. Meyer, H.-J. Werner, P.J. Knowles, 1993

 NUMBER OF ELECTRONS:      10+    9-    SPACE SYMMETRY=1    SPIN SYMMETRY: Doublet 
 CONVERGENCE THRESHOLDS:    1.00E-05 (Density)    1.00E-06 (Energy)
 MAX. NUMBER OF ITERATIONS:       60
 INTERPOLATION TYPE:            DIIS
 INTERPOLATION STEPS:              2 (START)      1 (STEP)
 LEVEL SHIFTS:                 -0.60 (CLOSED) -0.30 (OPEN) 



 Use fine grid record 1800.2 for energy threshold  1.0D-06
 Orbital guess generated from atomic densities. Full valence occupancy:   10

 Molecular orbital dump at record        2100.2

 Initial alpha occupancy:  10
 Initial beta  occupancy:   9
 Wave function symmetry:    1

 ITERATION    DDIFF          GRAD             ENERGY        2-EL.EN.            DIPOLE MOMENTS         DIIS   ORB.
    1      0.000D+00      0.000D+00      -112.40409844    193.014384   -0.62679    0.94978   -0.00255    0    start
    2      0.000D+00      0.322D-01      -112.49376872    188.369065   -0.08453    0.44838   -0.00008    1    diag,B
    3      0.643D-01      0.370D-02      -112.49500453    188.669289   -0.12561    0.46530   -0.00037    2    diag,B
    4      0.586D-02      0.814D-03      -112.49515988    188.643578   -0.09068    0.45187   -0.00044    3    diag,B
    5      0.239D-02      0.391D-03      -112.49518424    188.645311   -0.09389    0.45330   -0.00043    4    diag,B
    6      0.749D-03      0.109D-03      -112.49519106    188.643783   -0.08833    0.45341   -0.00043    5    diag,B
    7      0.433D-03      0.366D-04      -112.49519178    188.643149   -0.08656    0.45362   -0.00041    6    fixocc
    8      0.176D-03      0.608D-05      -112.49519181    188.643140   -0.08640    0.45362   -0.00040    7    diag,B
    9      0.316D-04      0.261D-05      -112.49519182    188.643130   -0.08638    0.45361   -0.00039    8    diag,B
   10      0.192D-04      0.226D-05      -112.49519184    188.643140   -0.08637    0.45362   -0.00038    9    orth
   11      0.216D-04      0.218D-05      -112.49519189    188.643133   -0.08637    0.45361   -0.00033    9    diag,B
   12      0.797D-04      0.193D-05      -112.49519204    188.643104   -0.08632    0.45362   -0.00008    9    diag,B
   13      0.402D-03      0.630D-06      -112.49519205    188.643093   -0.08631    0.45362    0.00001    9    diag,B
   14      0.154D-03      0.108D-06      -112.49519205    188.643098   -0.08632    0.45362    0.00001    9    diag,B
   15      0.437D-05      0.546D-07      -112.49519205    188.643095   -0.08632    0.45362    0.00001    0    orth

 Final alpha occupancy:  10
 Final beta  occupancy:   9

 !RKS STATE 1.1 Energy               -112.495192052395
 Nuclear energy                        37.11882177
 One-electron energy                 -230.19359984
 Two-electron energy                   94.32154755
 Density functional                   -13.74196152     DIRAC=-13.74196152
 Virial quotient                       -0.99253802
 !RKS STATE 1.1 Dipole moment          -0.08631580     0.45362037     0.00001370
 Dipole moment /Debye                  -0.21937851     1.15291245     0.00003481

 Orbital energies:

         1.1          2.1          3.1          4.1          5.1          6.1          7.1          8.1          9.1         10.1
    -18.204750    -9.474150    -0.738549    -0.517113    -0.281194    -0.254173    -0.253165    -0.174871    -0.005867    -0.065455

        11.1         12.1
      0.393872     0.471564

 HOMO     10.1    -0.065455 =      -1.7811eV
 LUMO     11.1     0.393872 =      10.7178eV
 LUMO-HOMO         0.459328 =      12.4989eV


 **********************************************************************************************************************************
 DATASETS  * FILE   NREC   LENGTH (MB)   RECORD NAMES
              1      20       30.83       500      610      700      900      950      970     1000      129      960     1100   
                                          VAR    BASINP    GEOM    SYMINP    ZMAT    AOBASIS   BASIS     P2S    ABASIS      S 
                                         1400     1410     1200     1210     1080     1600     1650     1300     1700     1800   
                                           T        V       H0       H01     AOSYM     SMH    MOLCAS    ERIS     OPER     GRID   

              2       5        2.86       700     1000      520     1800     2100   
                                         GEOM     BASIS   MCVARS    GRID      RKS  

 PROGRAMS   *        TOTAL        KS       INT
 CPU TIMES  *         1.56      1.20      0.21
 REAL TIME  *         1.93 SEC
 DISK USED  *        34.91 MB      
 **********************************************************************************************************************************


 PROGRAM * Intrinsic Basis Bonding Analysis (IBBA)          Author: G. Knizia

 Molecular orbitals read from record     2100.2  Type=RKS/CANONICAL (state 1.1)
 Fock matrix read from record            2100.2  Type=RKS/TOTAL (state 1.1)
 Orbital energies read from record       2100.2  Type=RKS/CANONICAL (state 1.1)
 Density matrix read from record         2100.2  Type=RKS/CHARGE (state 1.1)

 Number of core orbitals:           2 (   2 )
 Number of closed-shell orbitals:   7 (   7 )
 Number of active  orbitals:        1 (   1 )

 Basis set MINAO-AUTO-PP generated.      Number of basis functions:   15 

 Polarized AO type:                A = (O Ot + (1-O)(1-Ot)) P12
 Orthogonalization method:         Symmetric (Loewdin)
 Localization functional:          L = sum[A,i] <i|n_A|i>^4 -> max

 Localization group 1:   9 orbitals, occupancy  2.000
 Iterative localization: IB/PM,    6 iter; Final gradient 0.39E-08

 Bond order analysis:       [THRPRINT= 0.020]

   CEN ATOM   CEN ATOM     WIBERG.BO      RENORM.BO
     1   C  -   5   H       0.970046       0.999845
     1   C  -   4   H       0.966305       0.999761
     1   C  -   6   H       0.965033       0.999793
     1   C  -   3   H       0.573928       0.839638
     1   C  -   2   O       0.424227       1.003537

     2   O  -   7   H       0.948128       0.999884
     2   O  -   1   C       0.424227       1.003537
     2   O  -   3   H       0.387428       0.900919

     3   H  -   1   C       0.573928       0.839638
     3   H  -   2   O       0.387428       0.900919

     4   H  -   1   C       0.966305       0.999761

     5   H  -   1   C       0.970046       0.999845

     6   H  -   1   C       0.965033       0.999793

     7   H  -   2   O       0.948128       0.999884


 Valency analysis:

   CEN ATOM   TOT.VALENCE
     1   C       3.900054
     2   O       1.780228
     3   H       0.970617
     4   H       0.979145
     5   H       0.980656
     6   H       0.978722
     7   H       0.949711
 Localization group 2:   1 orbitals, occupancy  1.000
 Iterative localization: IB/PM,    1 iter; Final gradient 0.00E+00

 Bond order analysis:       [THRPRINT= 0.020]

   CEN ATOM   CEN ATOM     WIBERG.BO      RENORM.BO
     1   C  -   2   O       0.414482       0.500000

     2   O  -   1   C       0.414482       0.500000







 Valency analysis:

   CEN ATOM   TOT.VALENCE
     1   C       0.419218
     2   O       0.425460
     3   H       0.008163
     4   H       0.002772
     5   H       0.001778
     6   H       0.003050
     7   H       0.000033

 Total charge composition:

   CEN ATOM         s          p       ELECTRONS ->P.CHARGE
     1   C       3.04111    3.47592      6.51703   -0.51703
     2   O       3.78152    4.51857      8.30009   -0.30009
     3   H       0.83268                 0.83268    0.16732
     4   H       0.85698                 0.85698    0.14302
     5   H       0.86181                 0.86181    0.13819
     6   H       0.85566                 0.85566    0.14434
     7   H       0.77576                 0.77576    0.22424

 Total charge composition, AO contributions:

   CEN ATOM SHL      SPHERICAL COMPONENTS
     1   C  1s       1.99313
     1   C  2s       1.04798
     1   C  2p       1.11504    1.17857    1.18231

     2   O  1s       1.99823
     2   O  2s       1.78329
     2   O  2p       1.14672    1.37202    1.99983

     3   H  1s       0.83268

     4   H  1s       0.85698

     5   H  1s       0.86181

     6   H  1s       0.85566

     7   H  1s       0.77576

 Active orbital charges:

   CEN ATOM         s          p       ELECTRONS ->SPIN.DEN
     1   C       0.02264    0.27639      0.29903    0.29903
     2   O       0.00004    0.69301      0.69305    0.69305
     3   H       0.00410                 0.00410    0.00410
     4   H       0.00139                 0.00139    0.00139
     5   H       0.00089                 0.00089    0.00089
     6   H       0.00153                 0.00153    0.00153
     7   H       0.00002                 0.00002    0.00002

 Active orbital charges, AO contributions:

   CEN ATOM SHL      SPHERICAL COMPONENTS
     1   C  1s       0.00000
     1   C  2s       0.02264
     1   C  2p       0.27536    0.00102    0.00000

     2   O  1s       0.00001
     2   O  2s       0.00004
     2   O  2p       0.66976    0.02320    0.00006

     3   H  1s       0.00410

     4   H  1s       0.00139

     5   H  1s       0.00089

     6   H  1s       0.00153

     7   H  1s       0.00002

 Summary of localized orbital composition:   [THRPRINT= 0.020]

   ORB  GRP  ORB.ENERGY      CENTERS/CHARGES
     1   1   -18.085207      O  2   2.000
     2   1    -9.369204      C  1   2.000
     3   1    -0.541660      O  2   1.226   H  7   0.774
     4   1    -0.482315      O  2   1.931   C  1   0.035   H  3   0.034
     5   1    -0.361182      C  1   1.131   H  5   0.860
     6   1    -0.358585      C  1   1.134   H  4   0.855
     7   1    -0.357462      C  1   1.134   H  6   0.853
     8   1    -0.342052      H  3   0.788   C  1   0.785   O  2   0.426
     9   1    -0.006165      O  2   2.000
    10   2    -0.026152      O  2   0.693   C  1   0.299

 Localized orbitals saved to record      2100.2  (orbital set 2)


 **********************************************************************************************************************************
 DATASETS  * FILE   NREC   LENGTH (MB)   RECORD NAMES
              1      20       30.83       500      610      700      900      950      970     1000      129      960     1100   
                                          VAR    BASINP    GEOM    SYMINP    ZMAT    AOBASIS   BASIS     P2S    ABASIS      S 
                                         1400     1410     1200     1210     1080     1600     1650     1300     1700     1800   
                                           T        V       H0       H01     AOSYM     SMH    MOLCAS    ERIS     OPER     GRID   

              2       5        2.86       700     1000      520     1800     2100   
                                         GEOM     BASIS   MCVARS    GRID      RKS  

 PROGRAMS   *        TOTAL      IBBA        KS       INT
 CPU TIMES  *         1.58      0.02      1.20      0.21
 REAL TIME  *         2.00 SEC
 DISK USED  *        34.91 MB      
 **********************************************************************************************************************************
 Molecular orbitals read from record     2100.2  Type=RKS/LOCAL(IBO)  
 Occupation numbers read from record     2100.2  Type=RKS/LOCAL(IBO)  
 Orbital energies read from record       2100.2  Type=RKS/LOCAL(IBO)  
 Redundancy group numbers read from rec  2100.2  Type=RKS/LOCAL(IBO)  

 IBBA/STO-3G energy=      0.000000000000

        KS-SCF  
   -112.49519205
 **********************************************************************************************************************************
 Molpro calculation terminated
