
 Primary working directories    : /scratch/12403479
 Secondary working directories  : /scratch/12403479
 Wavefunction directory         : /groups/kemi/lab/nonconverged/htbh38/
 Main file repository           : /groups/kemi/lab/nonconverged/htbh38/

 SHA1      : 2c68d29c09da70e1723824271fadde4bcd5f07a0
 ARCHNAME  : Linux/x86_64
 FC        : /users/software/kemi/intel/Compiler/composer_xe_2011_sp1.13.367/bin/intel64/ifort
 FCVERSION : 12.1.6
 BLASLIB   : /users/software/kemi/intel/Compiler/composer_xe_2011_sp1.13.367/mkl/lib/intel64/libmkl_blas95_ilp64.a /users/software/kemi/intel/Compiler/composer_xe_2011_sp1.13.367/mkl/lib/intel64/libmkl_lapack95_ilp64.a -Wl,--start-group /users/software/kemi/intel/Compiler/composer_xe_2011_sp1.13.367/mkl/lib/intel64/libmkl_intel_ilp64.a /users/software/kemi/intel/Compiler/composer_xe_2011_sp1.13.367/mkl/lib/intel64/libmkl_intel_thread.a /users/software/kemi/intel/Compiler/composer_xe_2011_sp1.13.367/mkl/lib/intel64/libmkl_core.a -Wl,--end-group -openmp -lpthread -lm
 id        : kiku

 Nodes          nprocs
 node315.cluster    1

 Using customized tuning parameters: mindgm=16; mindgv=24; mindgc=8; mindgr=1; noblas=0; minvec=7
 default implementation of scratch files=df  

 memory,500,m
 geomtyp=xyz
 nosym
 noorient
 geometry={
 H          0.00000        0.00000        0.00000
 H          0.00000        0.00000        0.92947
 H          0.00000        0.00000       -0.92947
 }
 basis={ default,qzvp }
 {uks,PBE0,direct;wf,3,1,1}
 {uks,MM06-HF,direct,nitord=1;wf,3,1,1;shift,-1.0,-0.5}
 

 Variables initialized (766), CPU time= 0.01 sec
 Commands  initialized (545), CPU time= 0.00 sec, 513 directives.
 Default parameters read. Elapsed time= 0.09 sec

 Checking input...
 Passed
1


                                         ***  PROGRAM SYSTEM MOLPRO  ***
                         Copyright, University College Cardiff Consultants Limited, 2008

                                    Version 2012.1 linked 22 Jun 2017 13:51:13


 **********************************************************************************************************************************
 LABEL *                                                                                 
 Linux-2.6.32-754.6.3.el6.x86_64/node315.cluster(x86_64) 64 bit serial version           DATE: 04-Mar-19          TIME: 15:41:09  
 **********************************************************************************************************************************

 SHA1:             2c68d29c09da70e1723824271fadde4bcd5f07a0
 **********************************************************************************************************************************
 SETTING GEOMTYP        =    XYZ

 Variable memory set to  500000000 words,  buffer space   230000 words

 ZSYMEL=NOSYM
 
 SETTING BASIS          =    QZVP


 Recomputing integrals since basis changed


 Using spherical harmonics

 Library entry H      S def2-QZVP            selected for orbital group  1
 Library entry H      P def2-QZVP            selected for orbital group  1
 Library entry H      D def2-QZVP            selected for orbital group  1
 Library entry H      F def2-QZVP            selected for orbital group  1

1PROGRAM * SEWARD (Integral evaluation for generally contracted gaussian basis sets)     Author: Roland Lindh, 1990

 Geometry written to block  1 of record 700


 Point group  C1  



 ATOMIC COORDINATES

 NR  ATOM    CHARGE       X              Y              Z

   1  H       1.00    0.000000000    0.000000000    0.000000000
   2  H       1.00    0.000000000    0.000000000    1.756443747
   3  H       1.00    0.000000000    0.000000000   -1.756443747

 NUCLEAR CHARGE:                    3
 NUMBER OF PRIMITIVE AOS:         114
 NUMBER OF SYMMETRY AOS:           99
 NUMBER OF CONTRACTIONS:           90   (  90A   )
 NUMBER OF CORE ORBITALS:           0   (   0A   )
 NUMBER OF VALENCE ORBITALS:        3   (   3A   )


 NUCLEAR REPULSION ENERGY    1.42333052

 EXTRA SYMMETRY OF AOS IN SYMMETRY 1:   1 1 1 1 2 3 1 2 3 1   2 3 1 1 4 2 5 3 1 4   2 5 3 2 3 1 6 4 7 5   1 1 1 1 2 3 1 2 3 1
                                        2 3 1 1 4 2 5 3 1 4   2 5 3 2 3 1 6 4 7 5   1 1 1 1 2 3 1 2 3 1   2 3 1 1 4 2 5 3 1 4
                                        2 5 3 2 3 1 6 4 7 5

 Eigenvalues of metric

         1 0.575E-03 0.581E-03 0.170E-02 0.224E-02 0.536E-02 0.172E-01 0.172E-01 0.190E-01


 Contracted 2-electron integrals neglected if value below      1.0D-11
 AO integral compression algorithm  1   Integral accuracy      1.0D-11

     12.845 MB (compressed) written to integral file ( 15.1%)


 NUMBER OF SORTED TWO-ELECTRON INTEGRALS:    8386560.     BUFFER LENGTH:  32768
 NUMBER OF SEGMENTS:   1  SEGMENT LENGTH:    8386560      RECORD LENGTH: 524288

 Memory used in sort:       8.94 MW

 SORT1 READ    10601556. AND WROTE     1755088. INTEGRALS IN      6 RECORDS. CPU TIME:     0.06 SEC, REAL TIME:     0.07 SEC
 SORT2 READ     1755088. AND WROTE     8386560. INTEGRALS IN     49 RECORDS. CPU TIME:     0.11 SEC, REAL TIME:     0.15 SEC

 FILE SIZES:   FILE 1:    20.7 MBYTE,  FILE 4:    25.2 MBYTE,   TOTAL:     45.9 MBYTE

 OPERATOR DM      FOR CENTER  0  COORDINATES:    0.000000    0.000000    0.000000


 **********************************************************************************************************************************
 DATASETS  * FILE   NREC   LENGTH (MB)   RECORD NAMES
              1      19       17.28       500      610      700      900      950      970     1000      129      960     1100   
                                          VAR    BASINP    GEOM    SYMINP    ZMAT    AOBASIS   BASIS     P2S    ABASIS      S 
                                         1400     1410     1200     1210     1080     1600     1650     1300     1700   
                                           T        V       H0       H01     AOSYM     SMH    MOLCAS    ERIS     OPER   

 PROGRAMS   *        TOTAL       INT
 CPU TIMES  *         0.56      0.50
 REAL TIME  *         0.76 SEC
 DISK USED  *        46.21 MB      
 **********************************************************************************************************************************

 Density functional group PBE0=PBEX+PBEC
 Functional: PBEX(Automatically generated (new) PBEX)                          Gradient terms: 1
 Functional: PBEC(Automatically generated (new) PBEC)                          Gradient terms: 1
 Use grid at  1800.2
 

 Exact exchange will be calculated, factor:  0.2500

 Functional: PBEX                      Factor:  0.7500
 Functional: PBEC                      Factor:  1.0000
 
 Generated new metagrid on record  1800.2 with target accuracy 1.0D-06 and 6854 points in CPU time    0.0
 Computed new grid on record 1800.1 in CPU time    0.0
   75078 words reserved for DFT integration

 PROGRAM * UKS-SCF (Unrestricted Kohn-Sham)     Authors: W. Meyer, H.-J. Werner, P.J. Knowles, 1993

 NUMBER OF ELECTRONS:       2+    1-    SPACE SYMMETRY=1    SPIN SYMMETRY: Doublet 
 CONVERGENCE THRESHOLDS:    1.00E-05 (Density)    1.00E-06 (Energy)
 MAX. NUMBER OF ITERATIONS:       60
 INTERPOLATION TYPE:            DIIS
 INTERPOLATION STEPS:              2 (START)      1 (STEP)
 LEVEL SHIFTS:                  0.20 (ALPHA)   0.20 (BETA) 



 Use fine grid record 1800.2 for energy threshold  1.0D-06
 Orbital guess generated from atomic densities. Full valence occupancy:    2

 Molecular orbital dump at record        2200.2

 Initial alpha occupation   2
 Initial beta  occupation   1

 ITERATION    DDIFF          GRAD             ENERGY        2-EL.EN.            DIPOLE MOMENTS         DIIS
    1      0.000D+00      0.000D+00        -1.65744673      4.091433    0.00000    0.00000    0.00000    0
    2      0.353D-03      0.714D-03        -1.66006575      4.083661    0.00000    0.00000    0.00000    1
    3      0.325D-03      0.318D-03        -1.66114024      4.085868    0.00000    0.00000    0.00000    2
    4      0.180D-03      0.866D-04        -1.66123577      4.089210    0.00000    0.00000    0.00000    3
    5      0.946D-04      0.183D-04        -1.66124005      4.089840    0.00000    0.00000    0.00000    4
    6      0.294D-04      0.373D-05        -1.66124023      4.089977    0.00000    0.00000    0.00000    5
    7      0.223D-05      0.393D-06        -1.66124023      4.089994    0.00000    0.00000    0.00000    5
    8      0.191D-06      0.666D-07        -1.66124023      4.089995    0.00000    0.00000    0.00000    5
 
 Final alpha occupancy:   2
 Final beta  occupancy:   1

 !UKS STATE 1.1 Energy                 -1.661240226844
 Nuclear energy                         1.42333052
 One-electron energy                   -4.36735233
 Two-electron energy                    2.04499759
 Density functional                    -0.76221601     PBEX=-0.93466392 PBEC=-0.06121807
 Virial quotient                       -1.02962990
 !UKS STATE 1.1 Dipole moment           0.00000000     0.00000000     0.00000000
 Dipole moment /Debye                   0.00000000     0.00000000     0.00000000

 Orbital energies for positive spin:

         1.1          2.1          3.1          4.1
     -0.523617    -0.268726     0.061069     0.149132

 Orbital energies for negative spin:

         1.1          2.1          3.1          4.1
     -0.466872    -0.087699     0.091553     0.194872

 HOMO      2.1    -0.268726 =      -7.3124eV
 LUMO     -2.1    -0.087699 =      -2.3864eV
 LUMO-HOMO         0.181026 =       4.9260eV

 EXPECTATION VALUE OF S**2:             0.76139565

 Occupation number threshold for canonical orbitals:  1.999000 (occupied),  0.001000 (virtual)

 Number of pseudo-canonical orbitals per symmetry:    0
 Number of active natural orbitals per symmetry:      3

 Natural orbitals saved to record    2200.2 (Orbital set 3)

 Orbital spaces for UNO-CAS (Min. occupation: 0.020  Max. occupation: 1.980):

 Closed:        1
 Active:        1


 **********************************************************************************************************************************
 DATASETS  * FILE   NREC   LENGTH (MB)   RECORD NAMES
              1      20       17.50       500      610      700      900      950      970     1000      129      960     1100   
                                          VAR    BASINP    GEOM    SYMINP    ZMAT    AOBASIS   BASIS     P2S    ABASIS      S 
                                         1400     1410     1200     1210     1080     1600     1650     1300     1700     1800   
                                           T        V       H0       H01     AOSYM     SMH    MOLCAS    ERIS     OPER     GRID   

              2       5        0.66       700     1000      520     1800     2200   
                                         GEOM     BASIS   MCVARS    GRID      UKS  

 PROGRAMS   *        TOTAL       UKS       INT
 CPU TIMES  *         1.60      1.04      0.50
 REAL TIME  *         2.74 SEC
 DISK USED  *        46.21 MB      
 **********************************************************************************************************************************

 Density functional group MM06-HF=M06HFX+M06HFC
 Functional: M06HFX(Automatically generated (new) M06HFX)                      Gradient terms: 2
 Functional: M06HFC(Automatically generated (new) M06HFC)                      Gradient terms: 2
 Use grid at  1800.2
 

 Exact exchange will be calculated, factor:  1.0000

 Functional: M06HFX                    Factor:  1.0000
 Functional: M06HFC                    Factor:  1.0000
 
  143658 words reserved for DFT integration

 PROGRAM * UKS-SCF (Unrestricted Kohn-Sham)     Authors: W. Meyer, H.-J. Werner, P.J. Knowles, 1993

 NUMBER OF ELECTRONS:       2+    1-    SPACE SYMMETRY=1    SPIN SYMMETRY: Doublet 
 CONVERGENCE THRESHOLDS:    1.00E-05 (Density)    1.00E-06 (Energy)
 MAX. NUMBER OF ITERATIONS:       60
 INTERPOLATION TYPE:            DIIS
 INTERPOLATION STEPS:              2 (START)      1 (STEP)
 LEVEL SHIFTS:                 -1.00 (ALPHA)  -0.50 (BETA) 



 Use fine grid record 1800.2 for energy threshold  1.0D-06
 Molecular orbitals read from record     2200.2  Type=UKS/ALPHA (state 1.1)
 Molecular orbitals read from record     2200.2  Type=UKS/BETA (state 1.1)

 Molecular orbital dump at record        2201.2

 Initial alpha occupation   2
 Initial beta  occupation   1

 ITERATION    DDIFF          GRAD             ENERGY        2-EL.EN.            DIPOLE MOMENTS         DIIS
    1      0.000D+00      0.000D+00        -1.63887344      2.682672    0.00000    0.00000    0.00000    0
    2      0.307D+00      0.189D-02        -1.35353757      2.129761    0.00000    0.00000    0.00000    1
    3      0.306D+00      0.227D-02        -1.63457575      2.712732    0.00000    0.00000    0.00000    2
    4      0.136D+00      0.134D-02        -1.50283996      2.726140    0.00000    0.00000    0.00000    3
    5      0.134D+00      0.291D-02        -1.63916503      2.632810    0.00000    0.00000    0.00000    4
    6      0.543D-02      0.823D-03        -1.64238138      2.689000    0.00000    0.00000    0.00000    5
    7      0.107D-02      0.453D-03        -1.64319415      2.677694    0.00000    0.00000    0.00000    6
    8      0.558D-03      0.226D-03        -1.64335201      2.671264    0.00000    0.00000    0.00000    7
    9      0.273D+00      0.114D-03        -1.35676167      2.143780    0.00000    0.00000    0.00000    8
   10      0.273D+00      0.206D-02        -1.64338785      2.667390    0.00000    0.00000    0.00000    9
   11      0.187D-03      0.676D-04        -1.64340048      2.664514    0.00000    0.00000    0.00000    9
   12      0.299D-04      0.296D-04        -1.64340085      2.664348    0.00000    0.00000    0.00000    9
   13      0.138D-04      0.104D-04        -1.64340090      2.664581    0.00000    0.00000    0.00000    9
   14      0.144D-04      0.391D-05        -1.64340093      2.664455    0.00000    0.00000    0.00000    9
   15      0.228D-05      0.133D-05        -1.64340094      2.664461    0.00000    0.00000    0.00000    5
   16      0.230D-05      0.497D-06        -1.64340094      2.664477    0.00000    0.00000    0.00000    6
 
 Final alpha occupancy:   2
 Final beta  occupancy:   1

 !UKS STATE 1.1 Energy                 -1.643400936955
 Nuclear energy                         1.42333052
 One-electron energy                   -4.35353259
 Two-electron energy                    1.33223837
 Density functional                    -0.04543725     M06HFX= 0.00481104 M06HFC=-0.05024829
 Virial quotient                       -1.01649518
 !UKS STATE 1.1 Dipole moment           0.00000000     0.00000000     0.00000000
 Dipole moment /Debye                   0.00000000     0.00000000     0.00000000

 Orbital energies for positive spin:

         1.1          2.1          3.1          4.1
     -0.661806    -0.371669     0.120969     0.208371

 Orbital energies for negative spin:

         1.1          2.1          3.1          4.1
     -0.597819    -0.064528    -0.063921     0.053113

 HOMO      2.1    -0.371669 =     -10.1136eV
 LUMO     -2.1    -0.064528 =      -1.7559eV
 LUMO-HOMO         0.307142 =       8.3578eV

 EXPECTATION VALUE OF S**2:             0.76140530

 Occupation number threshold for canonical orbitals:  1.999000 (occupied),  0.001000 (virtual)

 Number of pseudo-canonical orbitals per symmetry:    0
 Number of active natural orbitals per symmetry:      3

 Natural orbitals saved to record    2201.2 (Orbital set 3)

 Orbital spaces for UNO-CAS (Min. occupation: 0.020  Max. occupation: 1.980):

 Closed:        1
 Active:        1


 **********************************************************************************************************************************
 DATASETS  * FILE   NREC   LENGTH (MB)   RECORD NAMES
              1      20       17.50       500      610      700      900      950      970     1000      129      960     1100   
                                          VAR    BASINP    GEOM    SYMINP    ZMAT    AOBASIS   BASIS     P2S    ABASIS      S 
                                         1400     1410     1200     1210     1080     1600     1650     1300     1700     1800   
                                           T        V       H0       H01     AOSYM     SMH    MOLCAS    ERIS     OPER     GRID   

              2       6        1.03       700     1000      520     1800     2200     2201   
                                         GEOM     BASIS   MCVARS    GRID      UKS      UKS  

 PROGRAMS   *        TOTAL       UKS       UKS       INT
 CPU TIMES  *         4.85      3.24      1.04      0.50
 REAL TIME  *         7.22 SEC
 DISK USED  *        46.21 MB      
 **********************************************************************************************************************************

        UKS-SCF         UKS-SCF 
     -1.64340094     -1.66124023
 **********************************************************************************************************************************
 Variable memory released
