
 Primary working directories    : /local
 Secondary working directories  : /local
 Wavefunction directory         : /local/
 Main file repository           : /local/

 SHA1      : b4a5b34a9e711420743f49e6833241d17c61fb3c
 NAME      : 2099.9.b4a5b34
 ARCHNAME  : linux/x86_64_openmp
 FC        : /cm/shared/languages/GCC-6.1/bin/gfortran
 BLASLIB   : -lblas
 id        : simonbennie

 Nodes     nprocs
 node32-034    1

 Using customized tuning parameters: mindgm=1; mindgv=20; mindgc=4; mindgr=1; noblas=0; minvec=7
 default implementation of scratch files=df  

 memory,500,m
 geomtyp=xyz
 nosym
 noorient
 geometry={
 N         -1.15082       -0.04393       -0.10256
 O          1.17919       -0.09270       -0.01029
 H         -1.30319       -0.54764        0.76657
 H         -1.33891        0.93581        0.09185
 H         -0.03069       -0.15383       -0.35318
 H          1.29501        0.81475        0.29499
 }
 basis={ default,avtz }
 {hf;wf,19,1,1}
 {uCCSD(T)-f12,df_basis=avtz/mp2fit,df_basis_exch=avtz/jkfit,ri_basis=avtz/optri,direct;wf,19,1,1}
 {ibba,bonds=1}

 Variables initialized (895), CPU time= 0.00 sec
 Commands  initialized (725), CPU time= 0.02 sec, 591 directives.
 Default parameters read. Elapsed time= 0.08 sec

 Checking input...
 Passed
1


                                         ***  PROGRAM SYSTEM MOLPRO  ***
                                       Copyright, TTI GmbH Stuttgart, 2015
                                    Version 2099.9 linked May 26 2017 16:03:21


 **********************************************************************************************************************************
 LABEL *                                                                                 
  64 bit serial version                                                                  DATE: 24-Jun-17          TIME: 18:45:43  
 **********************************************************************************************************************************

 SHA1:             b4a5b34a9e711420743f49e6833241d17c61fb3c
 **********************************************************************************************************************************
 SETTING GEOMTYP        =    XYZ

 Variable memory set to  500000000 words,  buffer space 

 ZSYMEL=NOSYM

 SETTING BASIS          =    AVTZ


 Recomputing integrals since basis changed


 Using spherical harmonics

 Library entry N      S aug-cc-pVTZ          selected for orbital group  1
 Library entry N      P aug-cc-pVTZ          selected for orbital group  1
 Library entry N      D aug-cc-pVTZ          selected for orbital group  1
 Library entry N      F aug-cc-pVTZ          selected for orbital group  1
 Library entry O      S aug-cc-pVTZ          selected for orbital group  2
 Library entry O      P aug-cc-pVTZ          selected for orbital group  2
 Library entry O      D aug-cc-pVTZ          selected for orbital group  2
 Library entry O      F aug-cc-pVTZ          selected for orbital group  2
 Library entry H      S aug-cc-pVTZ          selected for orbital group  3
 Library entry H      P aug-cc-pVTZ          selected for orbital group  3
 Library entry H      D aug-cc-pVTZ          selected for orbital group  3


 PROGRAM * SEWARD (Integral evaluation for generally contracted gaussian basis sets)     Author: Roland Lindh, 1990

 Geometry written to block  1 of record 700


 Point group  C1  



 ATOMIC COORDINATES

 NR  ATOM    CHARGE       X              Y              Z

   1  N       7.00   -2.174734619   -0.083015669   -0.193810311
   2  O       8.00    2.228346149   -0.175177612   -0.019445282
   3  H       1.00   -2.462672188   -1.034889615    1.448607355
   4  H       1.00   -2.530173205    1.768424605    0.173571345
   5  H       1.00   -0.057995695   -0.290696570   -0.667413473
   6  H       1.00    2.447214229    1.539654360    0.557450309

 Bond lengths in Bohr (Angstrom)

 1-3  1.920028084  1-4  1.920712617  1-5  2.178994030  2-5  2.379194492  2-6  1.822460000
     ( 1.016035107)     ( 1.016397345)     ( 1.153073983)     ( 1.259015506)     ( 0.964404300)

 Bond angles

  1-5-2  150.42324021   3-1-4  106.64915541   3-1-5  106.52018847   4-1-5  108.25306682

  5-2-6  104.31811532

 NUCLEAR CHARGE:                   19
 NUMBER OF PRIMITIVE AOS:         242
 NUMBER OF SYMMETRY AOS:          216
 NUMBER OF CONTRACTIONS:          184   ( 184A   )
 NUMBER OF CORE ORBITALS:           2   (   2A   )
 NUMBER OF VALENCE ORBITALS:       12   (  12A   )


 NUCLEAR REPULSION ENERGY   37.13893784

 Eigenvalues of metric

         1 0.196E-03 0.253E-03 0.304E-03 0.338E-03 0.557E-03 0.994E-03 0.115E-02 0.173E-02


 Contracted 2-electron integrals neglected if value below      1.0D-11
 AO integral compression algorithm  1   Integral accuracy      1.0D-11

     696.254 MB (compressed) written to integral file ( 51.3%)


 NUMBER OF SORTED TWO-ELECTRON INTEGRALS:  144848710.     BUFFER LENGTH:  32768
 NUMBER OF SEGMENTS:  10  SEGMENT LENGTH:   15999503      RECORD LENGTH: 524288

 Memory used in sort:      16.56 MW

 SORT1 READ   169623812. AND WROTE   143057491. INTEGRALS IN    414 RECORDS. CPU TIME:     1.80 SEC, REAL TIME:     3.97 SEC
 SORT2 READ   143057491. AND WROTE   144848710. INTEGRALS IN   2656 RECORDS. CPU TIME:     3.19 SEC, REAL TIME:     4.30 SEC

 FILE SIZES:   FILE 1:   727.6 MBYTE,  FILE 4:  1736.5 MBYTE,   TOTAL:   2464.0 MBYTE

 OPERATOR DM      FOR CENTER  0  COORDINATES:    0.000000    0.000000    0.000000


 **********************************************************************************************************************************
 DATASETS  * FILE   NREC   LENGTH (MB)   RECORD NAMES
              1      19      638.97       500      610      700      900      950      970     1000      129      960     1100   
                                          VAR    BASINP    GEOM    SYMINP    ZMAT    AOBASIS   BASIS     P2S    ABASIS      S 
                                         1400     1410     1200     1210     1080     1600     1650     1300     1700   
                                           T        V       H0       H01     AOSYM     SMH    MOLCAS    ERIS     OPER   

 PROGRAMS   *        TOTAL       INT
 CPU TIMES  *        10.99     10.84
 REAL TIME  *        27.80 SEC
 DISK USED  *         2.46 GB      
 **********************************************************************************************************************************


 PROGRAM * RHF-SCF (OPEN SHELL)       Authors: W. Meyer, H.-J. Werner


 NUMBER OF ELECTRONS:      10+    9-    SPACE SYMMETRY=1    SPIN SYMMETRY: Doublet 
 CONVERGENCE THRESHOLDS:    1.00E-05 (Density)    1.00E-07 (Energy)
 MAX. NUMBER OF ITERATIONS:       60
 INTERPOLATION TYPE:            DIIS
 INTERPOLATION STEPS:              2 (START)      1 (STEP)
 LEVEL SHIFTS:                 -0.60 (CLOSED) -0.30 (OPEN) 



 Orbital guess generated from atomic densities. Full valence occupancy:   14

 Molecular orbital dump at record        2100.2

 Initial alpha occupancy:  10
 Initial beta  occupancy:   9
 Wave function symmetry:    1

 ITERATION    DDIFF          GRAD             ENERGY        2-EL.EN.            DIPOLE MOMENTS         DIIS   ORB.
    1      0.000D+00      0.000D+00      -131.51194589    172.487199   -1.81596    1.15039    0.75528    0    start
    2      0.000D+00      0.608D-02      -131.56694626    169.943889   -1.21785    0.81975    0.62838    1    diag,B
    3      0.514D-02      0.245D-02      -131.57387434    170.475989   -1.30107    0.80516    0.59061    2    diag,B
    4      0.156D-02      0.667D-03      -131.57566099    170.452464   -1.26643    0.77187    0.56916    3    diag,B
    5      0.700D-03      0.251D-03      -131.57618680    170.440970   -1.27011    0.76491    0.56426    4    diag,B
    6      0.287D-03      0.119D-03      -131.57640329    170.436190   -1.28009    0.76513    0.56565    5    diag,B
    7      0.183D-03      0.733D-04      -131.57653592    170.432210   -1.29384    0.76636    0.56810    6    fixocc
    8      0.153D-03      0.433D-04      -131.57658990    170.433136   -1.30549    0.76733    0.57059    7    diag,B
    9      0.115D-03      0.210D-04      -131.57660009    170.434638   -1.31124    0.76737    0.57164    8    diag,B
   10      0.632D-04      0.107D-04      -131.57660272    170.435940   -1.31431    0.76710    0.57188    9    orth
   11      0.266D-04      0.642D-05      -131.57660395    170.436771   -1.31699    0.76685    0.57189    9    diag,B
   12      0.168D-04      0.467D-05      -131.57660464    170.437529   -1.31938    0.76669    0.57178    9    diag,B
   13      0.979D-05      0.428D-05      -131.57660508    170.437990   -1.32119    0.76659    0.57168    9    diag,B
   14      0.642D-05      0.409D-05      -131.57660580    170.439012   -1.32420    0.76643    0.57143    9    diag,B
   15      0.106D-04      0.405D-05      -131.57660644    170.439869   -1.32695    0.76629    0.57120    9    diag,B
   16      0.952D-05      0.393D-05      -131.57660975    170.444951   -1.34278    0.76548    0.56976    9    diag,B
   17      0.543D-04      0.333D-05      -131.57661459    170.458837   -1.38743    0.76310    0.56560    9    diag,B
   18      0.155D-03      0.235D-05      -131.57661452    170.457978   -1.38390    0.76331    0.56593    9    diag,B
   19      0.128D-04      0.135D-05      -131.57661464    170.460211   -1.39108    0.76295    0.56528    9    diag,B
   20      0.247D-04      0.714D-06      -131.57661464    170.460064   -1.39045    0.76300    0.56534    9    orth
   21      0.260D-05      0.239D-06      -131.57661464    170.460075   -1.39044    0.76300    0.56533    0    orth

 Final alpha occupancy:  10
 Final beta  occupancy:   9

 !RHF STATE 1.1 Energy               -131.576614643274
 Nuclear energy                        37.13893784
 One-electron energy                 -253.94559016
 Two-electron energy                   85.23003767
 Virial quotient                       -1.00121499
 !RHF STATE 1.1 Dipole moment          -1.39044035     0.76300086     0.56533409
 Dipole moment /Debye                  -3.53391538     1.93922772     1.43684180

 Orbital energies:

         1.1          2.1          3.1          4.1          5.1          6.1          7.1          8.1          9.1         10.1
    -20.519775   -15.636847    -1.270335    -1.179018    -0.705565    -0.688534    -0.571588    -0.470250    -0.451273    -0.499149

        11.1         12.1
      0.018832     0.041623

 HOMO     10.1    -0.499149 =     -13.5825eV
 LUMO     11.1     0.018832 =       0.5124eV
 LUMO-HOMO         0.517981 =      14.0950eV


 **********************************************************************************************************************************
 DATASETS  * FILE   NREC   LENGTH (MB)   RECORD NAMES
              1      19      638.97       500      610      700      900      950      970     1000      129      960     1100   
                                          VAR    BASINP    GEOM    SYMINP    ZMAT    AOBASIS   BASIS     P2S    ABASIS      S 
                                         1400     1410     1200     1210     1080     1600     1650     1300     1700   
                                           T        V       H0       H01     AOSYM     SMH    MOLCAS    ERIS     OPER   

              2       4        3.81       700     1000      520     2100   
                                         GEOM     BASIS   MCVARS     RHF  

 PROGRAMS   *        TOTAL        HF       INT
 CPU TIMES  *        65.09     54.10     10.84
 REAL TIME  *        85.81 SEC
 DISK USED  *         2.46 GB      
 **********************************************************************************************************************************


 PROGRAM * CCSD (Unrestricted open-shell coupled cluster)     Authors: C. Hampel, H.-J. Werner, 1991, M. Deegan, P.J. Knowles, 1992

                           UCCSD-F12 implementation by G. Knizia and H.-J. Werner, 2008

                   Density fitting integral evaluation by F.R. Manby, 2003,2007, G. Knizia, 2010


 Basis set AUG-CC-PVTZ/JKFIT generated.  Number of basis functions:   392 
 Basis set AUG-CC-PVTZ/OPTRI generated.  Number of basis functions:   272 
 Basis set AUG-CC-PVTZ/MP2FIT generated. Number of basis functions:   396 

 Convergence thresholds:  THRVAR = 1.00D-08  THRDEN = 1.00D-06

 CCSD(T)     terms to be evaluated (factor= 1.000)


 Number of core orbitals:           2 (   2 )
 Number of closed-shell orbitals:   7 (   7 )
 Number of active  orbitals:        1 (   1 )
 Number of external orbitals:     174 ( 174 )

 Memory could be reduced to 84.93 Mwords without degradation in triples

 Number of N-1 electron functions:              15
 Number of N-2 electron functions:             105
 Number of singly external CSFs:              2625
 Number of doubly external CSFs:           2461025
 Total number of CSFs:                     2463650

 Molecular orbitals read from record     2100.2  Type=RHF/CANONICAL (state 1.1)

 Integral transformation finished. Total CPU:  22.74 sec, npass=  1  Memory used:  30.97 MW

 Geminal basis:    OPTFULL  GEM_TYPE=SLATER  BETA=1.0  NGEM=6

 Optimizing Gaussian exponents for each gem_beta

 Geminal optimization for beta= 1.0000
 Weight function:   m=0, omega= 1.4646

 Augmented Hessian optimization of geminal fit. Trust ratio= 0.40000
 Convergence reached after   2 iterations. Final gradient= 8.78D-16, Step= 4.09D-06, Delta= 1.28D-09

 Alpha:                 0.19532     0.81920     2.85917     9.50073    35.69989   197.79328
 Coeff:                 0.27070     0.30552     0.18297     0.10986     0.06810     0.04224


 WFN_F12=FIX,EG    DECOUPLE_EXPL=F   HYBRID=0    NOX=F   SEMIINT_F12=T   CORE_SINGLES=F

 AO(A)-basis ORBITAL           loaded. Number of functions:     184
 RI(R)-basis AUG-CC-PVTZ/OPTRI loaded. Number of functions:     272
 DF-basis AUG-CC-PVTZ/JKFIT    loaded. Number of functions:     392

 Screening thresholds:   THRAO=  1.00D-10  THRMO=  1.00D-09  THRPROD=  1.00D-09
                         THRSW=  1.00D-05  THROV=  1.00D-12  THRAOF12= 1.00D-08

 CPU time for one-electron matrices               4.87 sec

 Construction of ABS:
 Pseudo-inverse stability          2.22E-12
 Smallest eigenvalue of S          8.65E-04  (threshold= 1.00E-08)
 Ratio eigmin/eigmax               1.42E-04  (threshold= 1.00E-09)
 Smallest eigenvalue of S kept     8.65E-04  (threshold= 8.65E-04, 0 functions deleted, 272 kept)

 Construction of CABS:
 Pseudo-inverse stability          1.87E-10
 Smallest eigenvalue of S          1.38E-06  (threshold= 1.00E-08)
 Ratio eigmin/eigmax               1.38E-06  (threshold= 1.00E-09)
 Smallest eigenvalue of S kept     1.38E-06  (threshold= 1.38E-06, 0 functions deleted, 272 kept)

 CPU time for basis constructions                 0.26 sec
 Fock operators(MO) rebuilt from dump record.
 CPU time for fock operators                      0.85 sec

                                      TOTAL          ALPHA          BETA    
  Singles Contributions MO        -0.006454498   -0.003175398   -0.003279100
  Singles Contributions CABS      -0.002009908   -0.001079737   -0.000930172
  Pure DF-RHF relaxation          -0.001987121

 CPU time for singles                             1.42 sec

 AO(A)-basis ORBITAL           loaded. Number of functions:     184
 RI(R)-basis AUG-CC-PVTZ/OPTRI loaded. Number of functions:     272
 DF-basis AUG-CC-PVTZ/MP2FIT   loaded. Number of functions:     396

 Screening thresholds:   THRAO=  1.00D-10  THRMO=  1.00D-09  THRPROD=  1.00D-09
                         THRSW=  1.00D-05  THROV=  1.00D-12  THRAOF12= 1.00D-08

 CPU time for transformed integrals              65.46 sec
 CPU time for F12 matrices                        0.89 sec

 Diagonal F12 ansatz with fixed amplitudes:   TS= 0.5000  TT= 0.2500  TN= 0.3750

 ITER.     SQ.NORM      CORR.ENERGY   TOTAL ENERGY  ENERGY CHANGE      VAR         CPU   MICRO    DIIS
   1      1.14371555    -0.55600486  -132.13460662    -5.5799E-01   1.39E-01      0.06  1  1  1   0  0
   2      1.14321413    -0.55472919  -132.13333096     1.2757E-03   1.61E-04      1.14  0  0  0   1  1
   3      1.14358583    -0.55509269  -132.13369445    -3.6349E-04   1.56E-06      2.23  0  0  0   2  2
   4      1.14359416    -0.55509530  -132.13369707    -2.6141E-06   1.06E-08      3.33  0  0  0   3  3
   5      1.14359549    -0.55509532  -132.13369708    -1.7168E-08   8.01E-11      4.45  0  0  0   4  4

 - - Continuing with F12/conv. amplitude coupling turned on.

   6      1.14352907    -0.55529918  -132.13390094    -2.0388E-04   6.73E-05      5.56  1  1  1   1  1
   7      1.14352610    -0.55529863  -132.13390040     5.4645E-07   5.79E-09      6.67  1  1  1   2  2

 CPU time for iterative RMP2-F12                  6.67 sec


 DF-RMP2-F12 doubles corrections:
 - - - - - - - - - - - - - - - - 
  Approx.                             TOTAL           A-B            A-A            B-B    
  RMP2-F12/3C(FIX)                -0.047665303   -0.043440397   -0.002505275   -0.001719630
  RMP2-F12/3*C(FIX)               -0.047461989   -0.043228946   -0.002511102   -0.001721941
  RMP2-F12/3*C(DX)                -0.049107007   -0.044655215   -0.002630139   -0.001821653
  RMP2-F12/3*C(FIX,DX)            -0.057021585   -0.051736119   -0.003098355   -0.002187110

 DF-RMP2-F12 doubles energies:
 - - - - - - - - - - - - - - -
  Approx.                             TOTAL           A-B            A-A            B-B    
  RMP2                            -0.501178831   -0.378796489   -0.065118420   -0.057263922
  RMP2-F12/3C(FIX)                -0.548844134   -0.422236886   -0.067623696   -0.058983552
  RMP2-F12/3*C(FIX)               -0.548640821   -0.422025435   -0.067629522   -0.058985864
  RMP2-F12/3*C(DX)                -0.550285838   -0.423451704   -0.067748559   -0.059085576
  RMP2-F12/3*C(FIX,DX)            -0.558200416   -0.430532608   -0.068216776   -0.059451033


  Reference energy                   -131.576614643275
  CABS relaxation correction to RHF    -0.001987120514
  New reference energy               -131.578601763789

  RMP2-F12 singles (MO) energy         -0.006454498043
  RMP2-F12 pair energy                 -0.548844134277
  RMP2-F12 correlation energy          -0.555298632320

 !RMP2-F12/3C(FIX) energy            -132.133900396109

 Starting RMP2 calculation, locsing= 0

 ITER.      SQ.NORM     CORR.ENERGY   TOTAL ENERGY   ENERGY CHANGE        DEN1      VAR(S)    VAR(P)  DIIS     TIME
   1      1.14172147    -0.50587689  -132.08249153    -0.50587689    -0.00159421  0.64D-04  0.63D-03  1  1   106.20
   2      1.14346802    -0.50761132  -132.08422596    -0.00173443    -0.00000899  0.33D-05  0.35D-05  2  2   107.16
   3      1.14358870    -0.50766889  -132.08428353    -0.00005757    -0.00000016  0.19D-06  0.17D-07  3  3   108.14
   4      1.14359733    -0.50767062  -132.08428527    -0.00000173    -0.00000000  0.54D-08  0.39D-09  4  4   109.13
   5      1.14359839    -0.50767084  -132.08428549    -0.00000022    -0.00000000  0.41D-10  0.15D-10  5  5   110.13

 Norm of t1 vector:      0.06890769      S-energy:    -0.00645446      T1 diagnostic:  0.00178812
 Norm of t2 vector:      0.37262598      P-energy:    -0.50121638
                                         Alpha-Beta:  -0.37886795
                                         Alpha-Alpha: -0.06509785
                                         Beta-Beta:   -0.05725058

 Spin contamination <S**2-Sz**2-Sz>     0.00524584
  Reference energy                   -131.578601763790
  RHF-RMP2 correlation energy          -0.507670843882
 !RHF-RMP2 energy                    -132.086272607672

 Starting UCCSD calculation

 ITER.      SQ.NORM     CORR.ENERGY   TOTAL ENERGY   ENERGY CHANGE        DEN1      VAR(S)    VAR(P)  DIIS     TIME
   1      1.13705840    -0.49195604  -132.06857068    -0.49195604    -0.01527884  0.50D-02  0.24D-02  1  1   259.35
   2      1.15139298    -0.50483456  -132.08144920    -0.01287852    -0.00213640  0.63D-03  0.58D-03  2  2   407.67
   3      1.16289007    -0.50774610  -132.08436074    -0.00291154    -0.00067360  0.78D-03  0.61D-04  3  3   555.99
   4      1.17243574    -0.50948309  -132.08609773    -0.00173699    -0.00035971  0.41D-03  0.31D-04  4  4   704.29
   5      1.19031261    -0.51122873  -132.08784337    -0.00174564    -0.00016119  0.20D-03  0.11D-04  5  5   852.62
   6      1.20983587    -0.51240346  -132.08901811    -0.00117473    -0.00005287  0.56D-04  0.62D-05  6  6  1000.95
   7      1.22252950    -0.51298301  -132.08959766    -0.00057955    -0.00001925  0.17D-04  0.29D-05  6  1  1149.27
   8      1.22606225    -0.51302137  -132.08963601    -0.00003836    -0.00000744  0.67D-05  0.10D-05  6  3  1297.60
   9      1.23124822    -0.51331857  -132.08993322    -0.00029720    -0.00000218  0.16D-05  0.35D-06  6  2  1445.96
  10      1.23196216    -0.51328514  -132.08989978     0.00003344    -0.00000066  0.47D-06  0.12D-06  6  5  1594.57
  11      1.23315665    -0.51335513  -132.08996977    -0.00006999    -0.00000019  0.15D-06  0.30D-07  6  4  1745.16
  12      1.23326629    -0.51334140  -132.08995605     0.00001372    -0.00000007  0.57D-07  0.10D-07  6  6  1894.27
  13      1.23329118    -0.51334062  -132.08995526     0.00000078    -0.00000003  0.28D-07  0.37D-08  6  1  2044.69
  14      1.23321175    -0.51333521  -132.08994986     0.00000541    -0.00000001  0.14D-07  0.18D-08  6  2  2194.92
  15      1.23319202    -0.51333447  -132.08994911     0.00000075    -0.00000001  0.89D-08  0.93D-09  6  3  2344.94

 Norm of t1 vector:      0.28050607      S-energy:    -0.00785278      T1 diagnostic:  0.04859165
                                                                       D1 diagnostic:  0.18132703
 Norm of t2 vector:      0.39307552      P-energy:    -0.50548169
                                         Alpha-Beta:  -0.39639883
                                         Alpha-Alpha: -0.05765494
                                         Beta-Beta:   -0.05142791

 Singles amplitudes (print threshold =  0.500E-01):

         I         SYM. A    A   T(IA) [Beta-Beta]

         6         1         1      0.24760706

 Spin contamination <S**2-Sz**2-Sz>     0.00779128

 Memory could be reduced to 89.41 Mwords without degradation in triples


 RESULTS
 =======

  Reference energy                   -131.576614643276
  CABS relaxation correction to RHF    -0.001987120514
  New reference energy               -131.578601763790

  F12 corrections for ansatz 3C(FIX) added to UCCSD energy. Coupling mode: 15

  UCCSD-F12a singles energy            -0.007852776232
  UCCSD-F12a pair energy               -0.553406085041
  UCCSD-F12a correlation energy        -0.561258861273
  Triples (T) contribution             -0.020874819825
  Total correlation energy             -0.582133681098

  RHF-UCCSD-F12a energy              -132.139860625063
  RHF-UCCSD[T]-F12a energy           -132.162886974273
  RHF-UCCSD-T-F12a energy            -132.161096370241
 !RHF-UCCSD(T)-F12a energy           -132.160735444888

  F12 corrections for ansatz 3C(FIX) added to UCCSD energy. Coupling mode: 15

  UCCSD-F12b singles energy            -0.007852776232
  UCCSD-F12b pair energy               -0.544589641435
  UCCSD-F12b correlation energy        -0.552442417667
  Triples (T) contribution             -0.020874819825
  Total correlation energy             -0.573317237492

  RHF-UCCSD-F12b energy              -132.131044181457
  RHF-UCCSD[T]-F12b energy           -132.154070530667
  RHF-UCCSD-T-F12b energy            -132.152279926635
 !RHF-UCCSD(T)-F12b energy           -132.151919001282

 Program statistics:

 Available memory in ccsd:               499999398
 Min. memory needed in ccsd:               7572684
 Max. memory used in ccsd:                10520261
 Max. memory used in cckext:               7799739 (16 integral passes)
 Max. memory used in cckint:              30971210 ( 1 integral passes)



 **********************************************************************************************************************************
 DATASETS  * FILE   NREC   LENGTH (MB)   RECORD NAMES
              1      19      638.97       500      610      700      900      950      970     1000      129      960     1100   
                                          VAR    BASINP    GEOM    SYMINP    ZMAT    AOBASIS   BASIS     P2S    ABASIS      S 
                                         1400     1410     1200     1210     1080     1600     1650     1300     1700   
                                           T        V       H0       H01     AOSYM     SMH    MOLCAS    ERIS     OPER   

              2       5        4.22       700     1000      520     2100     7360   
                                         GEOM     BASIS   MCVARS     RHF    F12ABS    

 PROGRAMS   *        TOTALUCCSD(T)-F        HF       INT
 CPU TIMES  *      4531.47   4466.38     54.10     10.84
 REAL TIME  *      5101.18 SEC
 DISK USED  *         3.18 GB      
 **********************************************************************************************************************************


 PROGRAM * Intrinsic Basis Bonding Analysis (IBBA)          Author: G. Knizia

 Molecular orbitals read from record     2100.2  Type=RHF/CANONICAL (state 1.1)
 Fock matrix read from record            2100.2  Type=RHF/TOTAL (state 1.1)
 Orbital energies read from record       2100.2  Type=RHF/CANONICAL (state 1.1)
 Density matrix read from record         2100.2  Type=RHF/CHARGE (state 1.1)

 Number of core orbitals:           2 (   2 )
 Number of closed-shell orbitals:   7 (   7 )
 Number of active  orbitals:        1 (   1 )

 Basis set MINAO-AUTO-PP generated.      Number of basis functions:   14 

 Polarized AO type:                A = (O Ot + (1-O)(1-Ot)) P12
 Orthogonalization method:         Symmetric (Loewdin)
 Localization functional:          L = sum[A,i] <i|n_A|i>^4 -> max

 Localization group 1:   9 orbitals, occupancy  2.000
 Iterative localization: IB/PM,    7 iter; Final gradient 0.16E-09

 Bond order analysis:       [THRPRINT= 0.020]

   CEN ATOM   CEN ATOM     WIBERG.BO      RENORM.BO
     1   N  -   4   H       0.918944       0.999941
     1   N  -   3   H       0.912476       0.999725
     1   N  -   2   O       0.570454       1.010277
     1   N  -   5   H       0.435931       0.814612

     2   O  -   6   H       0.884761       0.999904
     2   O  -   1   N       0.570454       1.010277
     2   O  -   5   H       0.454409       0.513665

     3   H  -   1   N       0.912476       0.999725

     4   H  -   1   N       0.918944       0.999941

     5   H  -   2   O       0.454409       0.513665
     5   H  -   1   N       0.435931       0.814612

     6   H  -   2   O       0.884761       0.999904


 Valency analysis:

   CEN ATOM   TOT.VALENCE
     1   N       2.837997
     2   O       1.910147
     3   H       0.913698
     4   H       0.920162
     5   H       0.891962
     6   H       0.884985
 Localization group 2:   1 orbitals, occupancy  1.000
 Iterative localization: IB/PM,    1 iter; Final gradient 0.00E+00

 Bond order analysis:       [THRPRINT= 0.020]

   CEN ATOM   CEN ATOM     WIBERG.BO      RENORM.BO
     1   N  -   2   O       0.355671       0.500000

     2   O  -   1   N       0.355671       0.500000






 Valency analysis:

   CEN ATOM   TOT.VALENCE
     1   N       0.359866
     2   O       0.356947
     3   H       0.000123
     4   H       0.000285
     5   H       0.003712
     6   H       0.001357

 Total charge composition:

   CEN ATOM         s          p       ELECTRONS ->P.CHARGE
     1   N       3.48131    3.96299      7.44430   -0.44430
     2   O       3.73279    5.06432      8.79711   -0.79711
     3   H       0.70629                 0.70629    0.29371
     4   H       0.71759                 0.71759    0.28241
     5   H       0.67317                 0.67317    0.32683
     6   H       0.66154                 0.66154    0.33846

 Total charge composition, AO contributions:

   CEN ATOM SHL      SPHERICAL COMPONENTS
     1   N  1s       1.99440
     1   N  2s       1.48691
     1   N  2p       1.11603    1.33856    1.50840

     2   O  1s       1.99762
     2   O  2s       1.73517
     2   O  2p       1.55850    1.58260    1.92323

     3   H  1s       0.70629

     4   H  1s       0.71759

     5   H  1s       0.67317

     6   H  1s       0.66154

 Active orbital charges:

   CEN ATOM         s          p       ELECTRONS ->SPIN.DEN
     1   N       0.00171    0.76299      0.76470    0.76470
     2   O       0.00443    0.22812      0.23256    0.23256
     3   H       0.00006                 0.00006    0.00006
     4   H       0.00014                 0.00014    0.00014
     5   H       0.00186                 0.00186    0.00186
     6   H       0.00068                 0.00068    0.00068

 Active orbital charges, AO contributions:

   CEN ATOM SHL      SPHERICAL COMPONENTS
     1   N  1s       0.00000
     1   N  2s       0.00171
     1   N  2p       0.62929    0.02635    0.10735

     2   O  1s       0.00001
     2   O  2s       0.00442
     2   O  2p       0.22731    0.00081    0.00001

     3   H  1s       0.00006

     4   H  1s       0.00014

     5   H  1s       0.00186

     6   H  1s       0.00068

 Summary of localized orbital composition:   [THRPRINT= 0.020]

   ORB  GRP  ORB.ENERGY      CENTERS/CHARGES
     1   1   -20.356419      O  2   2.000
     2   1   -15.476329      N  1   2.000
     3   1    -0.984366      O  2   1.339   H  6   0.661
     4   1    -0.930083      N  1   1.282   H  4   0.717
     5   1    -0.928263      N  1   1.293   H  3   0.705
     6   1    -0.827303      O  2   1.947   N  1   0.032   H  5   0.021
     7   1    -0.770288      N  1   1.751   H  5   0.207   O  2   0.042
     8   1    -0.678913      O  2   1.236   H  5   0.441   N  1   0.321
     9   1    -0.541221      O  2   2.000
    10   2    -0.227710      N  1   0.765   O  2   0.233

 Localized orbitals saved to record      2100.2  (orbital set 2)


 **********************************************************************************************************************************
 DATASETS  * FILE   NREC   LENGTH (MB)   RECORD NAMES
              1      19      638.97       500      610      700      900      950      970     1000      129      960     1100   
                                          VAR    BASINP    GEOM    SYMINP    ZMAT    AOBASIS   BASIS     P2S    ABASIS      S 
                                         1400     1410     1200     1210     1080     1600     1650     1300     1700   
                                           T        V       H0       H01     AOSYM     SMH    MOLCAS    ERIS     OPER   

              2       5        4.22       700     1000      520     2100     7360   
                                         GEOM     BASIS   MCVARS     RHF    F12ABS    

 PROGRAMS   *        TOTAL      IBBAUCCSD(T)-F        HF       INT
 CPU TIMES  *      4531.51      0.04   4466.38     54.10     10.84
 REAL TIME  *      5101.27 SEC
 DISK USED  *         3.18 GB      
 **********************************************************************************************************************************
 Molecular orbitals read from record     2100.2  Type=RHF/LOCAL(IBO)  
 Occupation numbers read from record     2100.2  Type=RHF/LOCAL(IBO)  
 Orbital energies read from record       2100.2  Type=RHF/LOCAL(IBO)  
 Redundancy group numbers read from rec  2100.2  Type=RHF/LOCAL(IBO)  

 IBBA/aug-cc-pVTZ energy=      0.000000000000

    UCCSD(T)-F12        HF-SCF  
   -132.15191900   -131.57661464
 **********************************************************************************************************************************
 Molpro calculation terminated
