
 Primary working directories    : /local
 Secondary working directories  : /local
 Wavefunction directory         : /local/
 Main file repository           : /local/

 SHA1      : b4a5b34a9e711420743f49e6833241d17c61fb3c
 NAME      : 2099.9.b4a5b34
 ARCHNAME  : linux/x86_64_openmp
 FC        : /cm/shared/languages/GCC-6.1/bin/gfortran
 BLASLIB   : -lblas
 id        : simonbennie

 Nodes     nprocs
 node32-017    1

 Using customized tuning parameters: mindgm=1; mindgv=20; mindgc=4; mindgr=1; noblas=0; minvec=7
 default implementation of scratch files=df  

 memory,500,m
 geomtyp=xyz
 nosym
 noorient
 geometry={
 N         -1.15082       -0.04393       -0.10256
 O          1.17919       -0.09270       -0.01029
 H         -1.30319       -0.54764        0.76657
 H         -1.33891        0.93581        0.09185
 H         -0.03069       -0.15383       -0.35318
 H          1.29501        0.81475        0.29499
 }
 basis={ default,qzvp }
 {ks,PW91,direct;wf,19,1,1}
 {ibba,bonds=1}

 Variables initialized (895), CPU time= 0.01 sec
 Commands  initialized (725), CPU time= 0.01 sec, 591 directives.
 Default parameters read. Elapsed time= 0.20 sec

 Checking input...
 Passed
1


                                         ***  PROGRAM SYSTEM MOLPRO  ***
                                       Copyright, TTI GmbH Stuttgart, 2015
                                    Version 2099.9 linked May 26 2017 16:03:21


 **********************************************************************************************************************************
 LABEL *                                                                                 
  64 bit serial version                                                                  DATE: 24-Jun-17          TIME: 16:28:55  
 **********************************************************************************************************************************

 SHA1:             b4a5b34a9e711420743f49e6833241d17c61fb3c
 **********************************************************************************************************************************
 SETTING GEOMTYP        =    XYZ

 Variable memory set to  500000000 words,  buffer space 

 ZSYMEL=NOSYM

 SETTING BASIS          =    QZVP


 Recomputing integrals since basis changed


 Using spherical harmonics

 Library entry N      S def2-QZVP            selected for orbital group  1
 Library entry N      P def2-QZVP            selected for orbital group  1
 Library entry N      D def2-QZVP            selected for orbital group  1
 Library entry N      F def2-QZVP            selected for orbital group  1
 Library entry N      G def2-QZVP            selected for orbital group  1
 Library entry O      S def2-QZVP            selected for orbital group  2
 Library entry O      P def2-QZVP            selected for orbital group  2
 Library entry O      D def2-QZVP            selected for orbital group  2
 Library entry O      F def2-QZVP            selected for orbital group  2
 Library entry O      G def2-QZVP            selected for orbital group  2
 Library entry H      S def2-QZVP            selected for orbital group  3
 Library entry H      P def2-QZVP            selected for orbital group  3
 Library entry H      D def2-QZVP            selected for orbital group  3
 Library entry H      F def2-QZVP            selected for orbital group  3


 PROGRAM * SEWARD (Integral evaluation for generally contracted gaussian basis sets)     Author: Roland Lindh, 1990

 Geometry written to block  1 of record 700


 Point group  C1  



 ATOMIC COORDINATES

 NR  ATOM    CHARGE       X              Y              Z

   1  N       7.00   -2.174734619   -0.083015669   -0.193810311
   2  O       8.00    2.228346149   -0.175177612   -0.019445282
   3  H       1.00   -2.462672188   -1.034889615    1.448607355
   4  H       1.00   -2.530173205    1.768424605    0.173571345
   5  H       1.00   -0.057995695   -0.290696570   -0.667413473
   6  H       1.00    2.447214229    1.539654360    0.557450309

 Bond lengths in Bohr (Angstrom)

 1-3  1.920028084  1-4  1.920712617  1-5  2.178994030  2-5  2.379194492  2-6  1.822460000
     ( 1.016035107)     ( 1.016397345)     ( 1.153073983)     ( 1.259015506)     ( 0.964404300)

 Bond angles

  1-5-2  150.42324021   3-1-4  106.64915541   3-1-5  106.52018847   4-1-5  108.25306682

  5-2-6  104.31811532

 NUCLEAR CHARGE:                   19
 NUMBER OF PRIMITIVE AOS:         336
 NUMBER OF SYMMETRY AOS:          286
 NUMBER OF CONTRACTIONS:          234   ( 234A   )
 NUMBER OF CORE ORBITALS:           2   (   2A   )
 NUMBER OF VALENCE ORBITALS:       12   (  12A   )


 NUCLEAR REPULSION ENERGY   37.13893784


 Eigenvalues of metric

         1 0.170E-03 0.348E-03 0.376E-03 0.472E-03 0.883E-03 0.102E-02 0.172E-02 0.202E-02


 Contracted 2-electron integrals neglected if value below      1.0D-11
 AO integral compression algorithm  1   Integral accuracy      1.0D-11

     1398.014 MB (compressed) written to integral file ( 41.1%)


 NUMBER OF SORTED TWO-ELECTRON INTEGRALS:  378001260.     BUFFER LENGTH:  32768
 NUMBER OF SEGMENTS:  24  SEGMENT LENGTH:   15999762      RECORD LENGTH: 524288

 Memory used in sort:      16.56 MW

 SORT1 READ   424943239. AND WROTE   330266460. INTEGRALS IN    956 RECORDS. CPU TIME:     4.91 SEC, REAL TIME:    16.03 SEC
 SORT2 READ   330266460. AND WROTE   378001260. INTEGRALS IN   5333 RECORDS. CPU TIME:     9.16 SEC, REAL TIME:    13.60 SEC

 FILE SIZES:   FILE 1:  1430.1 MBYTE,  FILE 4:  4009.8 MBYTE,   TOTAL:   5439.9 MBYTE

 OPERATOR DM      FOR CENTER  0  COORDINATES:    0.000000    0.000000    0.000000


 **********************************************************************************************************************************
 DATASETS  * FILE   NREC   LENGTH (MB)   RECORD NAMES
              1      19     1264.17       500      610      700      900      950      970     1000      129      960     1100   
                                          VAR    BASINP    GEOM    SYMINP    ZMAT    AOBASIS   BASIS     P2S    ABASIS      S 
                                         1400     1410     1200     1210     1080     1600     1650     1300     1700   
                                           T        V       H0       H01     AOSYM     SMH    MOLCAS    ERIS     OPER   

 PROGRAMS   *        TOTAL       INT
 CPU TIMES  *        32.28     32.14
 REAL TIME  *        78.20 SEC
 DISK USED  *         5.44 GB      
 **********************************************************************************************************************************

 Density functional group PW91=PW91X+PW91C
 Functional: PW91X(Automatically generated (new) PW91X)                        Gradient terms: 1
 Functional: PW91C(Automatically generated (new) PW91C)                        Gradient terms: 1
 Use grid at  1800.2

 Functional: PW91X                     Factor:  1.0000
 Functional: PW91C                     Factor:  1.0000

 Generated new metagrid on record  1800.2 with target accuracy 1.0D-06 and 24008 points in CPU time    0.5
 Computed new grid on record 1800.1 in CPU time    0.5
  189868 words reserved for DFT integration

 PROGRAM * RKS-SCF (Restricted open shell Kohn-Sham)     Authors: W. Meyer, H.-J. Werner, P.J. Knowles, 1993

 NUMBER OF ELECTRONS:      10+    9-    SPACE SYMMETRY=1    SPIN SYMMETRY: Doublet 
 CONVERGENCE THRESHOLDS:    1.00E-05 (Density)    1.00E-06 (Energy)
 MAX. NUMBER OF ITERATIONS:       60
 INTERPOLATION TYPE:            DIIS
 INTERPOLATION STEPS:              2 (START)      1 (STEP)
 LEVEL SHIFTS:                 -0.60 (CLOSED) -0.30 (OPEN) 



 Use fine grid record 1800.2 for energy threshold  1.0D-06
 Orbital guess generated from atomic densities. Full valence occupancy:   10

 Molecular orbital dump at record        2100.2

 Initial alpha occupancy:  10
 Initial beta  occupancy:   9
 Wave function symmetry:    1

 ITERATION    DDIFF          GRAD             ENERGY        2-EL.EN.            DIPOLE MOMENTS         DIIS   ORB.
    1      0.000D+00      0.000D+00      -132.21967219    209.940932   -1.33741    1.13689    0.82077    0    start
    2      0.000D+00      0.754D-02      -132.27027471    198.991062   -0.28434    0.59071    0.52821    1    diag,B
    3      0.263D-02      0.636D-02      -132.32428765    202.851038   -0.85703    0.75020    0.55063    2    diag,B
    4      0.103D-02      0.105D-02      -132.32646241    202.882616   -0.64729    0.74091    0.57120    3    diag,B
    5      0.274D-03      0.466D-03      -132.32701868    202.888317   -0.65284    0.73327    0.55767    4    diag,B
    6      0.214D-03      0.115D-03      -132.32715942    202.868131   -0.62285    0.72743    0.55243    5    diag,B
    7      0.174D-03      0.517D-04      -132.32720183    202.857214   -0.60457    0.72578    0.55074    6    fixocc
    8      0.973D-04      0.245D-04      -132.32721263    202.856291   -0.59470    0.72572    0.55038    7    diag,B
    9      0.446D-04      0.939D-05      -132.32721464    202.856215   -0.59083    0.72604    0.55040    8    diag,B
   10      0.182D-04      0.371D-05      -132.32721513    202.856454   -0.58935    0.72627    0.55039    9    orth
   11      0.874D-05      0.173D-05      -132.32721523    202.856520   -0.58932    0.72632    0.55035    0    orth

 Final alpha occupancy:  10
 Final beta  occupancy:   9

 !RKS STATE 1.1 Energy               -132.327215234309
 Nuclear energy                        37.13893784
 One-electron energy                 -254.02540645
 Two-electron energy                  101.42825999
 Density functional                   -16.86900662     PW91X=-16.21538898 PW91C= -0.65361764
 Virial quotient                       -1.00356198
 !RKS STATE 1.1 Dipole moment          -0.58931533     0.72631873     0.55035209
 Dipole moment /Debye                  -1.49779205     1.84599717     1.39876388

 Orbital energies:

         1.1          2.1          3.1          4.1          5.1          6.1          7.1          8.1          9.1         10.1
    -18.765719   -14.027355    -0.889410    -0.794140    -0.466893    -0.450399    -0.369521    -0.291622    -0.251715    -0.249860

        11.1         12.1
     -0.027026     0.025065

 HOMO     10.1    -0.249860 =      -6.7990eV
 LUMO     11.1    -0.027026 =      -0.7354eV
 LUMO-HOMO         0.222834 =       6.0636eV


 **********************************************************************************************************************************
 DATASETS  * FILE   NREC   LENGTH (MB)   RECORD NAMES
              1      20     1264.94       500      610      700      900      950      970     1000      129      960     1100   
                                          VAR    BASINP    GEOM    SYMINP    ZMAT    AOBASIS   BASIS     P2S    ABASIS      S 
                                         1400     1410     1200     1210     1080     1600     1650     1300     1700     1800   
                                           T        V       H0       H01     AOSYM     SMH    MOLCAS    ERIS     OPER     GRID   

              2       5        4.41       700     1000      520     1800     2100   
                                         GEOM     BASIS   MCVARS    GRID      RKS  

 PROGRAMS   *        TOTAL        KS       INT
 CPU TIMES  *        84.34     52.06     32.14
 REAL TIME  *       134.07 SEC
 DISK USED  *         5.44 GB      
 **********************************************************************************************************************************


 PROGRAM * Intrinsic Basis Bonding Analysis (IBBA)          Author: G. Knizia

 Molecular orbitals read from record     2100.2  Type=RKS/CANONICAL (state 1.1)
 Fock matrix read from record            2100.2  Type=RKS/TOTAL (state 1.1)
 Orbital energies read from record       2100.2  Type=RKS/CANONICAL (state 1.1)
 Density matrix read from record         2100.2  Type=RKS/CHARGE (state 1.1)

 Number of core orbitals:           2 (   2 )
 Number of closed-shell orbitals:   7 (   7 )
 Number of active  orbitals:        1 (   1 )

 Basis set MINAO-AUTO-PP generated.      Number of basis functions:   14 

 Polarized AO type:                A = (O Ot + (1-O)(1-Ot)) P12
 Orthogonalization method:         Symmetric (Loewdin)
 Localization functional:          L = sum[A,i] <i|n_A|i>^4 -> max

 Localization group 1:   9 orbitals, occupancy  2.000
 Iterative localization: IB/PM,    7 iter; Final gradient 0.41E-08

 Bond order analysis:       [THRPRINT= 0.020]

   CEN ATOM   CEN ATOM     WIBERG.BO      RENORM.BO
     1   N  -   4   H       0.927121       0.999821
     1   N  -   3   H       0.921615       0.999710
     1   N  -   2   O       0.859845       1.019087
     1   N  -   5   H       0.554426       0.723431

     2   O  -   6   H       0.875241       0.999755
     2   O  -   1   N       0.859845       1.019087
     2   O  -   5   H       0.358066       0.450460

     3   H  -   1   N       0.921615       0.999710

     4   H  -   1   N       0.927121       0.999821

     5   H  -   1   N       0.554426       0.723431
     5   H  -   2   O       0.358066       0.450460

     6   H  -   2   O       0.875241       0.999755


 Valency analysis:

   CEN ATOM   TOT.VALENCE
     1   N       3.263219
     2   O       2.093394
     3   H       0.922280
     4   H       0.927690
     5   H       0.913405
     6   H       0.875600
 Localization group 2:   1 orbitals, occupancy  1.000
 Iterative localization: IB/PM,    1 iter; Final gradient 0.00E+00

 Bond order analysis:       [THRPRINT= 0.020]

   CEN ATOM   CEN ATOM     WIBERG.BO      RENORM.BO
     1   N  -   2   O       0.496425       0.500000

     2   O  -   1   N       0.496425       0.500000






 Valency analysis:

   CEN ATOM   TOT.VALENCE
     1   N       0.498762
     2   O       0.498531
     3   H       0.000326
     4   H       0.000760
     5   H       0.000948
     6   H       0.002416

 Total charge composition:

   CEN ATOM         s          p       ELECTRONS ->P.CHARGE
     1   N       3.46615    4.10182      7.56796   -0.56796
     2   O       3.75092    4.87355      8.62447   -0.62447
     3   H       0.72138                 0.72138    0.27862
     4   H       0.73147                 0.73147    0.26853
     5   H       0.70620                 0.70620    0.29380
     6   H       0.64851                 0.64851    0.35149

 Total charge composition, AO contributions:

   CEN ATOM SHL      SPHERICAL COMPONENTS
     1   N  1s       1.99501
     1   N  2s       1.47114
     1   N  2p       1.25368    1.32976    1.51838

     2   O  1s       1.99787
     2   O  2s       1.75305
     2   O  2p       1.38883    1.58341    1.90131

     3   H  1s       0.72138

     4   H  1s       0.73147

     5   H  1s       0.70620

     6   H  1s       0.64851

 Active orbital charges:

   CEN ATOM         s          p       ELECTRONS ->SPIN.DEN
     1   N       0.00071    0.52417      0.52488    0.52488
     2   O       0.00065    0.47224      0.47290    0.47290
     3   H       0.00016                 0.00016    0.00016
     4   H       0.00038                 0.00038    0.00038
     5   H       0.00047                 0.00047    0.00047
     6   H       0.00121                 0.00121    0.00121

 Active orbital charges, AO contributions:

   CEN ATOM SHL      SPHERICAL COMPONENTS
     1   N  1s       0.00000
     1   N  2s       0.00071
     1   N  2p       0.43741    0.01671    0.07004

     2   O  1s       0.00001
     2   O  2s       0.00064
     2   O  2p       0.44865    0.00345    0.02014

     3   H  1s       0.00016

     4   H  1s       0.00038

     5   H  1s       0.00047

     6   H  1s       0.00121

 Summary of localized orbital composition:   [THRPRINT= 0.020]

   ORB  GRP  ORB.ENERGY      CENTERS/CHARGES
     1   1   -18.648261      O  2   2.000
     2   1   -13.893186      N  1   2.000
     3   1    -0.707670      O  2   1.353   H  6   0.647
     4   1    -0.618237      N  1   1.269   H  4   0.731
     5   1    -0.614493      N  1   1.279   H  3   0.720
     6   1    -0.560564      O  2   1.879   H  5   0.076   N  1   0.045
     7   1    -0.464380      O  2   0.835   N  1   0.724   H  5   0.439
     8   1    -0.457294      N  1   1.726   H  5   0.191   O  2   0.084
     9   1    -0.342674      O  2   2.000
    10   2    -0.221814      N  1   0.525   O  2   0.473

 Localized orbitals saved to record      2100.2  (orbital set 2)


 **********************************************************************************************************************************
 DATASETS  * FILE   NREC   LENGTH (MB)   RECORD NAMES
              1      20     1264.94       500      610      700      900      950      970     1000      129      960     1100   
                                          VAR    BASINP    GEOM    SYMINP    ZMAT    AOBASIS   BASIS     P2S    ABASIS      S 
                                         1400     1410     1200     1210     1080     1600     1650     1300     1700     1800   
                                           T        V       H0       H01     AOSYM     SMH    MOLCAS    ERIS     OPER     GRID   

              2       5        4.85       700     1000      520     1800     2100   
                                         GEOM     BASIS   MCVARS    GRID      RKS  

 PROGRAMS   *        TOTAL      IBBA        KS       INT
 CPU TIMES  *        84.39      0.05     52.06     32.14
 REAL TIME  *       134.17 SEC
 DISK USED  *         5.44 GB      
 **********************************************************************************************************************************
 Molecular orbitals read from record     2100.2  Type=RKS/LOCAL(IBO)  
 Occupation numbers read from record     2100.2  Type=RKS/LOCAL(IBO)  
 Orbital energies read from record       2100.2  Type=RKS/LOCAL(IBO)  
 Redundancy group numbers read from rec  2100.2  Type=RKS/LOCAL(IBO)  

 IBBA/QZVP energy=      0.000000000000

        KS-SCF  
   -132.32721523
 **********************************************************************************************************************************
 Molpro calculation terminated
