
 Primary working directories    : /local/molpro.SiGwzKA375
 Secondary working directories  : /local/molpro.SiGwzKA375
 Wavefunction directory         : /local/
 Main file repository           : /local/molpro.SiGwzKA375/

 id        : simonbennie

 Nodes     nprocs
 node35-048    1

 Using customized tuning parameters: mindgm=1; mindgv=20; mindgc=4; mindgr=1; noblas=0; minvec=7
 default implementation of scratch files=df  

 memory,500,m
 geomtyp=xyz
 nosym
 noorient
 geometry={
 N         -1.15082       -0.04393       -0.10256
 O          1.17919       -0.09270       -0.01029
 H         -1.30319       -0.54764        0.76657
 H         -1.33891        0.93581        0.09185
 H         -0.03069       -0.15383       -0.35318
 H          1.29501        0.81475        0.29499
 }
 basis={default,sto-3g}
 {uhf,direct;wf,19,1,1}
 
 basis={ default,6-31+G(d,p) }
 {uks,B97,direct;wf,19,1,1}
 {ibba,bonds=1}

 Variables initialized (920), CPU time= 0.01 sec
 Commands  initialized (754), CPU time= 0.01 sec, 615 directives.
 Default parameters read. Elapsed time= 0.11 sec

 Checking input...
 Passed
1


                                         ***  PROGRAM SYSTEM MOLPRO  ***
                                       Copyright, TTI GmbH Stuttgart, 2015
                                    Version 2018.0 linked Jul  6 2018 18:07:13


 **********************************************************************************************************************************
 LABEL *                                                                                 
  64 bit serial version                                                                  DATE: 10-Oct-18          TIME: 13:57:41  
 **********************************************************************************************************************************

 SHA1:             b58f8fddb9d75525be9261ebe3faf0e4279c479b
 **********************************************************************************************************************************
 SETTING GEOMTYP        =    XYZ

 Variable memory set to  500000000 words,  buffer space 

 ZSYMEL=NOSYM

 SETTING BASIS          =    STO-3G


 Recomputing integrals since basis changed


 Using spherical harmonics

 Library entry N      S STO-3G               selected for orbital group  1
 Library entry N      P STO-3G               selected for orbital group  1
 Library entry O      S STO-3G               selected for orbital group  2
 Library entry O      P STO-3G               selected for orbital group  2
 Library entry H      S STO-3G               selected for orbital group  3


 PROGRAM * SEWARD (Integral evaluation for generally contracted gaussian basis sets)     Author: Roland Lindh, 1990

 Geometry written to block  1 of record 700


 Point group  C1  



 ATOMIC COORDINATES

 NR  ATOM    CHARGE       X              Y              Z

   1  N       7.00   -2.174734619   -0.083015669   -0.193810311
   2  O       8.00    2.228346149   -0.175177612   -0.019445282
   3  H       1.00   -2.462672188   -1.034889615    1.448607355
   4  H       1.00   -2.530173205    1.768424605    0.173571345
   5  H       1.00   -0.057995695   -0.290696570   -0.667413473
   6  H       1.00    2.447214229    1.539654360    0.557450309

 Bond lengths in Bohr (Angstrom)

 1-3  1.920028084  1-4  1.920712617  1-5  2.178994030  2-5  2.379194492  2-6  1.822460000
     ( 1.016035107)     ( 1.016397345)     ( 1.153073983)     ( 1.259015506)     ( 0.964404300)

 Bond angles

  1-5-2  150.42324021   3-1-4  106.64915541   3-1-5  106.52018847   4-1-5  108.25306682

  5-2-6  104.31811532

 NUCLEAR CHARGE:                   19
 NUMBER OF PRIMITIVE AOS:          42
 NUMBER OF SYMMETRY AOS:           42
 NUMBER OF CONTRACTIONS:           14   (  14A   )
 NUMBER OF CORE ORBITALS:           2   (   2A   )
 NUMBER OF VALENCE ORBITALS:       12   (  12A   )


 NUCLEAR REPULSION ENERGY   37.13893784


 Eigenvalues of metric

         1 0.275E+00 0.351E+00 0.385E+00 0.390E+00 0.830E+00 0.912E+00 0.949E+00 0.100E+01


 Contracted 2-electron integrals neglected if value below      1.0D-11
 AO integral compression algorithm  1   Integral accuracy      1.0D-11

     0.262 MB (compressed) written to integral file (100.0%)


 NUMBER OF SORTED TWO-ELECTRON INTEGRALS:       5565.     BUFFER LENGTH:  32768
 NUMBER OF SEGMENTS:   1  SEGMENT LENGTH:       5565      RECORD LENGTH: 524288

 Memory used in sort:       0.56 MW

 SORT1 READ        7104. AND WROTE        5286. INTEGRALS IN      1 RECORDS. CPU TIME:     0.00 SEC, REAL TIME:     0.00 SEC
 SORT2 READ        5286. AND WROTE        5565. INTEGRALS IN      1 RECORDS. CPU TIME:     0.00 SEC, REAL TIME:     0.01 SEC

 FILE SIZES:   FILE 1:    30.3 MBYTE,  FILE 4:     4.2 MBYTE,   TOTAL:     34.5 MBYTE

 OPERATOR DM      FOR CENTER  0  COORDINATES:    0.000000    0.000000    0.000000


 **********************************************************************************************************************************
 DATASETS  * FILE   NREC   LENGTH (MB)   RECORD NAMES
              1      19       30.06       500      610      700      900      950      970     1000      129      960     1100   
                                          VAR    BASINP    GEOM    SYMINP    ZMAT    AOBASIS   BASIS     P2S    ABASIS      S 
                                         1400     1410     1200     1210     1080     1600     1650     1300     1700   
                                           T        V       H0       H01     AOSYM     SMH    MOLCAS    ERIS     OPER   

 PROGRAMS   *        TOTAL       INT
 CPU TIMES  *         0.45      0.31
 REAL TIME  *         0.80 SEC
 DISK USED  *        34.87 MB
 **********************************************************************************************************************************


 PROGRAM * UHF-SCF       Authors: W. Meyer, H.-J. Werner


 NUMBER OF ELECTRONS:      10+    9-    SPACE SYMMETRY=1    SPIN SYMMETRY: Doublet 
 CONVERGENCE THRESHOLDS:    1.00E-05 (Density)    1.00E-07 (Energy)
 INTEGRAL THRESHOLDS:       1.00E-11 (Initial)    1.00E-11 (Final)
 MAX. NUMBER OF ITERATIONS:       60
 INTERPOLATION TYPE:            DIIS
 INTERPOLATION STEPS:              2 (START)      1 (STEP)
 LEVEL SHIFTS:                 -0.20 (ALPHA)  -0.20 (BETA) 



 Orbital guess generated from atomic densities. Full valence occupancy:   10

 Molecular orbital dump at record        2200.2

 Initial alpha occupation  10
 Initial beta  occupation   9

 Direct Fock-matrix evaluation.        Author: H.-J. Werner (1996)

 Integral Threshold:                  0.1D-10

 ITERATION   DDIFF            GRAD            ENERGY        2-EL.EN.            DIPOLE MOMENTS         DIIS   CPU(IT)  CPU(TOT)
    1      0.000D+00      0.000D+00      -129.57245633    176.872227   -2.23074    1.29224    0.84854    0      1.7      2.7
    2      0.611D-01      0.304D-01      -129.71162370    173.688089   -1.44535    0.79972    0.69129    1      0.9      3.6
    3      0.213D-01      0.105D-01      -129.73014859    172.486974   -1.14670    0.63763    0.59639    2      1.0      4.5
    4      0.106D-01      0.556D-02      -129.73910884    172.175883   -0.93760    0.62620    0.58733    3      0.9      5.5
    5      0.117D-01      0.473D-02      -129.74816850    172.004843   -0.70502    0.64796    0.60858    4      0.9      6.4
    6      0.290D-01      0.436D-02      -129.76622945    171.647163   -0.17285    0.69642    0.65522    5      0.9      7.4
    7      0.262D-01      0.322D-02      -129.77589369    171.414036    0.30567    0.70488    0.65632    6      0.9      8.3
    8      0.149D-01      0.187D-02      -129.77742304    171.350294    0.44382    0.72769    0.64932    7      0.9      9.2
    9      0.702D-02      0.993D-03      -129.77734018    171.382046    0.41705    0.71296    0.64911    8      0.9     10.1
   10      0.549D-02      0.914D-03      -129.77769565    171.358855    0.46893    0.71971    0.64596    9      0.9     11.0
   11      0.144D-02      0.262D-03      -129.77770854    171.365622    0.46874    0.71673    0.64615    9      0.8     11.8
   12      0.122D-02      0.275D-03      -129.77773701    171.361257    0.48152    0.71813    0.64549    9      0.7     12.5
   13      0.392D-03      0.150D-03      -129.77774696    171.361197    0.48218    0.71849    0.64533    9      0.7     13.1
   14      0.852D-03      0.130D-03      -129.77776466    171.359288    0.48801    0.71888    0.64489    9      0.7     13.8
   15      0.164D-02      0.107D-03      -129.77778969    171.360298    0.48910    0.71839    0.64457    9      0.6     14.4
   16      0.196D-02      0.914D-04      -129.77780655    171.357195    0.49897    0.71944    0.64363    9      0.7     15.1
   17      0.567D-03      0.200D-04      -129.77780762    171.356847    0.50092    0.71953    0.64341    9      0.6     15.7
   18      0.680D-04      0.891D-05      -129.77780765    171.356679    0.50129    0.71954    0.64336    9      0.7     16.4
   19      0.142D-04      0.278D-05      -129.77780766    171.356703    0.50123    0.71952    0.64336    9      0.7     17.1
   20      0.678D-05      0.135D-05      -129.77780766    171.356683    0.50127    0.71952    0.64335    9      0.5     17.6
   21      0.106D-05      0.448D-06      -129.77780766    171.356682    0.50129    0.71952    0.64335    9      1.0     18.6

 Final alpha occupancy:  10
 Final beta  occupancy:   9

 !UHF STATE  1.1 Energy              -129.777807657742
 Nuclear energy                        37.13893784
 One-electron energy                 -252.59508657
 Two-electron energy                   85.67834107
 Virial quotient                       -1.00489708
 !UHF STATE  1.1 Dipole moment          0.50128596     0.71951866     0.64335096
 Dipole moment /Debye                   1.27405838     1.82871424     1.63512794

 Orbital energies for positive spin:

         1.1          2.1          3.1          4.1          5.1          6.1          7.1          8.1          9.1         10.1
    -20.326898   -15.281454    -1.339091    -1.075845    -0.670651    -0.580383    -0.559533    -0.470358    -0.423975    -0.336935

        11.1         12.1
      0.582988     0.665446

 Orbital energies for negative spin:

         1.1          2.1          3.1          4.1          5.1          6.1          7.1          8.1          9.1         10.1
    -20.303120   -15.271731    -1.210428    -1.029807    -0.605764    -0.553771    -0.474867    -0.412606    -0.311195     0.239324

        11.1         12.1
      0.616619     0.684383


 HOMO     -9.1    -0.311195 =      -8.4680eV
 LUMO    -10.1     0.239324 =       6.5123eV
 LUMO-HOMO         0.550519 =      14.9804eV

 EXPECTATION VALUE OF S**2:             0.77625772

 Occupation number threshold for pseudo-canonical orbitals: 1.9990 (occupied), 0.0010 (virtual)

 Number of pseudo-canonical occupied orbitals per symmetry:    7
 Number of active natural orbitals per symmetry:               5

 Natural orbitals saved to record    2200.2 (Orbital set 3)

 Orbital spaces for UNO-CAS (Min. occupation: 0.020  Max. occupation: 1.980):

 Closed:        9
 Active:        1


 **********************************************************************************************************************************
 DATASETS  * FILE   NREC   LENGTH (MB)   RECORD NAMES
              1      19       30.06       500      610      700      900      950      970     1000      129      960     1100   
                                          VAR    BASINP    GEOM    SYMINP    ZMAT    AOBASIS   BASIS     P2S    ABASIS      S 
                                         1400     1410     1200     1210     1080     1600     1650     1300     1700   
                                           T        V       H0       H01     AOSYM     SMH    MOLCAS    ERIS     OPER   

              2       4        2.84       700     1000      520     2200   
                                         GEOM     BASIS   MCVARS     UHF  

 PROGRAMS   *        TOTAL   UHF-SCF       INT
 CPU TIMES  *        19.03     18.58      0.31
 REAL TIME  *        21.66 SEC
 DISK USED  *        34.87 MB
 **********************************************************************************************************************************
 SETTING BASIS          =    6-31+G(D,P)


 Recomputing integrals since basis changed


 Using spherical harmonics

 Library entry N      S 6-31G                selected for orbital group  1
 Library entry N      S 6-31++G              selected for orbital group  1
 Library entry N      P 6-31G                selected for orbital group  1
 Library entry N      P 6-31++G              selected for orbital group  1
 Library entry N      D 6-31G*               selected for orbital group  1
 Library entry O      S 6-31G                selected for orbital group  2
 Library entry O      S 6-31++G              selected for orbital group  2
 Library entry O      P 6-31G                selected for orbital group  2
 Library entry O      P 6-31++G              selected for orbital group  2
 Library entry O      D 6-31G*               selected for orbital group  2
 Library entry H      S 6-31G                selected for orbital group  3
 Library entry H      P 6-31G**              selected for orbital group  3


 PROGRAM * SEWARD (Integral evaluation for generally contracted gaussian basis sets)     Author: Roland Lindh, 1990

 Geometry written to block  1 of record 700


 Point group  C1  



 ATOMIC COORDINATES

 NR  ATOM    CHARGE       X              Y              Z

   1  N       7.00   -2.174734619   -0.083015669   -0.193810311
   2  O       8.00    2.228346149   -0.175177612   -0.019445282
   3  H       1.00   -2.462672188   -1.034889615    1.448607355
   4  H       1.00   -2.530173205    1.768424605    0.173571345
   5  H       1.00   -0.057995695   -0.290696570   -0.667413473
   6  H       1.00    2.447214229    1.539654360    0.557450309

 Bond lengths in Bohr (Angstrom)

 1-3  1.920028084  1-4  1.920712617  1-5  2.178994030  2-5  2.379194492  2-6  1.822460000
     ( 1.016035107)     ( 1.016397345)     ( 1.153073983)     ( 1.259015506)     ( 0.964404300)

 Bond angles

  1-5-2  150.42324021   3-1-4  106.64915541   3-1-5  106.52018847   4-1-5  108.25306682

  5-2-6  104.31811532

 NUCLEAR CHARGE:                   19
 NUMBER OF PRIMITIVE AOS:          92
 NUMBER OF SYMMETRY AOS:           90
 NUMBER OF CONTRACTIONS:           56   (  56A   )
 NUMBER OF CORE ORBITALS:           2   (   2A   )
 NUMBER OF VALENCE ORBITALS:       12   (  12A   )


 NUCLEAR REPULSION ENERGY   37.13893784


 Eigenvalues of metric

         1 0.780E-02 0.124E-01 0.277E-01 0.344E-01 0.563E-01 0.715E-01 0.873E-01 0.110E+00


 Contracted 2-electron integrals neglected if value below      1.0D-11
 AO integral compression algorithm  1   Integral accuracy      1.0D-11

     6.554 MB (compressed) written to integral file ( 52.2%)


 NUMBER OF SORTED TWO-ELECTRON INTEGRALS:    1274406.     BUFFER LENGTH:  32768
 NUMBER OF SEGMENTS:   1  SEGMENT LENGTH:    1274406      RECORD LENGTH: 524288

 Memory used in sort:       1.83 MW

 SORT1 READ     1567923. AND WROTE     1227821. INTEGRALS IN      4 RECORDS. CPU TIME:     0.02 SEC, REAL TIME:     0.04 SEC
 SORT2 READ     1227821. AND WROTE     1274406. INTEGRALS IN     25 RECORDS. CPU TIME:     0.08 SEC, REAL TIME:     0.08 SEC

 FILE SIZES:   FILE 1:    36.7 MBYTE,  FILE 4:    16.8 MBYTE,   TOTAL:     53.5 MBYTE

 OPERATOR DM      FOR CENTER  0  COORDINATES:    0.000000    0.000000    0.000000


 **********************************************************************************************************************************
 DATASETS  * FILE   NREC   LENGTH (MB)   RECORD NAMES
              1      19       35.41       500      610      700      900      950      970     1001      129      960     1100   
                                          VAR    BASINP    GEOM    SYMINP    ZMAT    AOBASIS   BASIS     P2S    ABASIS      S 
                                         1400     1410     1200     1210     1080     1600     1650     1300     1700   
                                           T        V       H0       H01     AOSYM     SMH    MOLCAS    ERIS     OPER   

              2       5        2.86       700     1000      520     2200     1001   
                                         GEOM     BASIS   MCVARS     UHF     BASIS   

 PROGRAMS   *        TOTAL       INT   UHF-SCF       INT
 CPU TIMES  *        19.64      0.60     18.58      0.31
 REAL TIME  *        22.38 SEC
 DISK USED  *        56.42 MB
 **********************************************************************************************************************************

 Density functional group B97=B97DF
 Functional: B97DF(Automatically generated (new) B97DF)                        Gradient terms: 1
 Use libxcgrid:  F
 Use grid at  1800.2


 Exact exchange will be calculated, factor:  0.1943

 Functional: B97DF                     Factor:  1.0000

 Generated new metagrid on record  1800.2 with target accuracy 1.0D-06 and 21844 points in CPU time    0.5
 Computed new grid on record 1800.1 in CPU time    0.5
   48424 words reserved for DFT integration

 PROGRAM * UKS-SCF (Unrestricted Kohn-Sham)     Authors: W. Meyer, H.-J. Werner, P.J. Knowles, 1993

 NUMBER OF ELECTRONS:      10+    9-    SPACE SYMMETRY=1    SPIN SYMMETRY: Doublet 
 CONVERGENCE THRESHOLDS:    1.00E-05 (Density)    1.00E-06 (Energy)
 MAX. NUMBER OF ITERATIONS:       60
 INTERPOLATION TYPE:            DIIS
 INTERPOLATION STEPS:              2 (START)      1 (STEP)
 LEVEL SHIFTS:                 -0.20 (ALPHA)  -0.20 (BETA) 



 Use fine grid record 1800.2 for energy threshold  1.0D-06
 Molecular orbitals read from record     2200.2  Type=UHF/ALPHA (state 1.1)

 Present basis size:      56
 Previous basis size:     14
 Previous occupation:     10
 Previous closed-shells:   9
 Previous core-orbitals:   2
 Present occupation:      10
 Present closed-shells:    9
 Present core-orbitals:    2
 Wavefunction symmetry:    1   Doublet 

 Orbital overlap <old|new>:  < 1.1| 1.1> = 0.999845   < 2.1| 2.1> = 0.999840   < 3.1| 3.1> = 0.999611   < 4.1| 4.1> = 0.999774
                             < 5.1| 5.1> = 0.998267   < 6.1| 6.1> = 0.997818   < 7.1| 7.1> = 0.998986   < 8.1| 8.1> = 0.996095
                             < 9.1| 9.1> = 0.997598   <10.1|10.1> = 0.997259

 Molecular orbitals read from record     2200.2  Type=UHF/BETA (state 1.1)

 Present basis size:      56
 Previous basis size:     14
 Previous occupation:     10
 Previous closed-shells:   9
 Previous core-orbitals:   2
 Present occupation:      10
 Present closed-shells:    9
 Present core-orbitals:    2
 Wavefunction symmetry:    1   Doublet 

 Orbital overlap <old|new>:  < 1.1| 1.1> = 0.999845   < 2.1| 2.1> = 0.999840   < 3.1| 3.1> = 0.999656   < 4.1| 4.1> = 0.999795
                             < 5.1| 5.1> = 0.998802   < 6.1| 6.1> = 0.999200   < 7.1| 7.1> = 0.998291   < 8.1| 8.1> = 0.996294
                             < 9.1| 9.1> = 0.997633   <10.1|10.1> = 0.996596


 Molecular orbital dump at record        2201.2

 Initial alpha occupation  10
 Initial beta  occupation   9

 ITERATION    DDIFF          GRAD             ENERGY        2-EL.EN.            DIPOLE MOMENTS         DIIS
    1      0.000D+00      0.000D+00      -131.98044808    200.272993    0.49860    0.70833    0.63074    0
    2      0.165D-01      0.135D-01      -132.20335261    195.598763    0.34578    0.56053    0.50174    1
    3      0.728D-02      0.386D-02      -132.23722418    197.053799    0.11671    0.78261    0.62443    2
    4      0.457D-02      0.176D-02      -132.25156622    195.904466   -0.07624    0.81833    0.65561    3
    5      0.248D-02      0.907D-03      -132.25579540    196.180184   -0.30950    0.85517    0.66304    4
    6      0.117D-02      0.527D-03      -132.25717679    196.209238   -0.38220    0.86146    0.66751    5
    7      0.977D-03      0.308D-03      -132.25801033    196.153227   -0.49335    0.85911    0.65497    6
    8      0.113D-02      0.216D-03      -132.25851402    196.196364   -0.58591    0.85355    0.64355    7
    9      0.368D-03      0.703D-04      -132.25858352    196.199691   -0.60783    0.85255    0.63876    8
   10      0.179D-03      0.423D-04      -132.25861069    196.202188   -0.60804    0.85249    0.63657    8
   11      0.174D-03      0.280D-04      -132.25862772    196.202294   -0.60639    0.85248    0.63449    9
   12      0.123D-03      0.162D-04      -132.25863415    196.202602   -0.60362    0.85283    0.63365    9
   13      0.711D-04      0.807D-05      -132.25863564    196.202220   -0.60253    0.85289    0.63295    9
   14      0.188D-04      0.301D-05      -132.25863576    196.202964   -0.60220    0.85307    0.63288    9
   15      0.363D-05      0.124D-05      -132.25863576    196.202356   -0.60238    0.85303    0.63284    9
   16      0.234D-05      0.609D-06      -132.25863577    196.202531   -0.60232    0.85307    0.63285    9

 Final alpha occupancy:  10
 Final beta  occupancy:   9

 !UKS STATE  1.1 Energy              -132.258635767594
 Nuclear energy                        37.13893784
 One-electron energy                 -253.77606706
 Two-electron energy                   98.10126547
 Density functional                   -13.72277202     B97DF=-13.72277202
 Virial quotient                       -1.00652564
 !UKS STATE  1.1 Dipole moment         -0.60232136     0.85306523     0.63285201
 Dipole moment /Debye                  -1.53084793     2.16813353     1.60844401

 Orbital energies for positive spin:

         1.1          2.1          3.1          4.1          5.1          6.1          7.1          8.1          9.1         10.1
    -19.148410   -14.359377    -1.000056    -0.890395    -0.532462    -0.505008    -0.431422    -0.355105    -0.310861    -0.299516

        11.1         12.1
      0.012009     0.073066

 Orbital energies for negative spin:

         1.1          2.1          3.1          4.1          5.1          6.1          7.1          8.1          9.1         10.1
    -19.136252   -14.349614    -0.964805    -0.858547    -0.507906    -0.493906    -0.408601    -0.302518    -0.293520    -0.157896

        11.1         12.1
      0.017488     0.080682


 HOMO     -9.1    -0.293520 =      -7.9871eV
 LUMO    -10.1    -0.157896 =      -4.2966eV
 LUMO-HOMO         0.135624 =       3.6905eV

 EXPECTATION VALUE OF S**2:             0.75757674

 Occupation number threshold for pseudo-canonical orbitals: 1.9990 (occupied), 0.0010 (virtual)

 Number of pseudo-canonical occupied orbitals per symmetry:    8
 Number of active natural orbitals per symmetry:               3

 Natural orbitals saved to record    2201.2 (Orbital set 3)

 Orbital spaces for UNO-CAS (Min. occupation: 0.020  Max. occupation: 1.980):

 Closed:        9
 Active:        1


 **********************************************************************************************************************************
 DATASETS  * FILE   NREC   LENGTH (MB)   RECORD NAMES
              1      20       36.10       500      610      700      900      950      970     1001      129      960     1100   
                                          VAR    BASINP    GEOM    SYMINP    ZMAT    AOBASIS   BASIS     P2S    ABASIS      S 
                                         1400     1410     1200     1210     1080     1600     1650     1300     1700     1800   
                                           T        V       H0       H01     AOSYM     SMH    MOLCAS    ERIS     OPER     GRID   

              2       7        5.48       700     1000      520     2200     1001     1800     2201   
                                         GEOM     BASIS   MCVARS     UHF     BASIS    GRID      UKS  

 PROGRAMS   *        TOTAL   UKS-SCF       INT   UHF-SCF       INT
 CPU TIMES  *        22.53      2.89      0.60     18.58      0.31
 REAL TIME  *        25.84 SEC
 DISK USED  *        56.42 MB
 **********************************************************************************************************************************


 PROGRAM * Intrinsic Basis Bonding Analysis (IBBA)          Author: G. Knizia

 Molecular orbitals read from record     2201.2  Type=UKS/ALPHA (state 1.1)
 Fock matrix read from record            2201.2  Type=UKS/TOTAL (state 1.1)
 Orbital energies read from record       2201.2  Type=UKS/ALPHA (state 1.1)
 Density matrix read from record         2201.2  Type=UKS/CHARGE (state 1.1)

 Number of core orbitals:           2 (   2 )
 Number of closed-shell orbitals:   7 (   7 )
 Number of active  orbitals:        1 (   1 )

 Basis set MINAO-AUTO-PP generated.      Number of basis functions:   14 

 Polarized AO type:                A = (O Ot + (1-O)(1-Ot)) P12
 Orthogonalization method:         Symmetric (Loewdin)
 Localization functional:          L = sum[A,i] <i|n_A|i>^4 -> max

 Localization group 1:   9 orbitals, occupancy  2.000
 Iterative localization: IB/PM,    7 iter; Final gradient 0.58E-08

 Bond order analysis:       [THRPRINT= 0.020]

   CEN ATOM   CEN ATOM     WIBERG.BO      RENORM.BO
     1   N  -   4   H       0.919687       0.999835
     1   N  -   3   H       0.912420       0.999735
     1   N  -   2   O       0.879049       1.019507
     1   N  -   5   H       0.551197       0.715470

     2   O  -   1   N       0.879049       1.019507
     2   O  -   6   H       0.863582       0.999669
     2   O  -   5   H       0.338812       0.391905

     3   H  -   1   N       0.912420       0.999735

     4   H  -   1   N       0.919687       0.999835

     5   H  -   1   N       0.551197       0.715470
     5   H  -   2   O       0.338812       0.391905

     6   H  -   2   O       0.863582       0.999669


 Valency analysis:

   CEN ATOM   TOT.VALENCE
     1   N       3.262488
     2   O       2.082534
     3   H       0.913438
     4   H       0.920446
     5   H       0.890656
     6   H       0.863813
 Localization group 2:   1 orbitals, occupancy  1.000
 Iterative localization: IB/PM,    1 iter; Final gradient 0.00E+00

 Bond order analysis:       [THRPRINT= 0.020]

   CEN ATOM   CEN ATOM     WIBERG.BO      RENORM.BO
     1   N  -   2   O       0.480613       0.500000

     2   O  -   1   N       0.480613       0.500000






 Valency analysis:

   CEN ATOM   TOT.VALENCE
     1   N       0.482841
     2   O       0.482137
     3   H       0.000002
     4   H       0.000086
     5   H       0.001507
     6   H       0.002161

 Total charge composition:

   CEN ATOM         s          p       ELECTRONS ->P.CHARGE
     1   N       3.47507    4.06743      7.54250   -0.54250
     2   O       3.75774    4.97386      8.73160   -0.73160
     3   H       0.70579                 0.70579    0.29421
     4   H       0.71799                 0.71799    0.28201
     5   H       0.67008                 0.67008    0.32992
     6   H       0.63205                 0.63205    0.36795

 Total charge composition, AO contributions:

   CEN ATOM SHL      SPHERICAL COMPONENTS
     1   N  1s       1.99483
     1   N  2s       1.48024
     1   N  2p       1.25177    1.33128    1.48438

     2   O  1s       1.99780
     2   O  2s       1.75994
     2   O  2p       1.48070    1.59485    1.89831

     3   H  1s       0.70579

     4   H  1s       0.71799

     5   H  1s       0.67008

     6   H  1s       0.63205

 Active orbital charges:

   CEN ATOM         s          p       ELECTRONS ->SPIN.DEN
     1   N       0.00390    0.58872      0.59263    0.59263
     2   O       0.00062    0.40487      0.40549    0.40549
     3   H       0.00000                 0.00000    0.00000
     4   H       0.00004                 0.00004    0.00004
     5   H       0.00075                 0.00075    0.00075
     6   H       0.00108                 0.00108    0.00108

 Active orbital charges, AO contributions:

   CEN ATOM SHL      SPHERICAL COMPONENTS
     1   N  1s       0.00000
     1   N  2s       0.00390
     1   N  2p       0.45524    0.02475    0.10874

     2   O  1s       0.00001
     2   O  2s       0.00062
     2   O  2p       0.37735    0.00160    0.02592

     3   H  1s       0.00000

     4   H  1s       0.00004

     5   H  1s       0.00075

     6   H  1s       0.00108

 Summary of localized orbital composition:   [THRPRINT= 0.020]

   ORB  GRP  ORB.ENERGY      CENTERS/CHARGES
     1   1   -19.019077      O  2   2.000
     2   1   -14.215123      N  1   2.000
     3   1    -0.782043      O  2   1.369   H  6   0.631
     4   1    -0.675922      N  1   1.283   H  4   0.717
     5   1    -0.671579      N  1   1.295   H  3   0.704
     6   1    -0.620924      O  2   1.879   H  5   0.079   N  1   0.042
     7   1    -0.546737      N  1   1.680   H  5   0.263   O  2   0.057
     8   1    -0.479027      O  2   1.021   N  1   0.650   H  5   0.327
     9   1    -0.409125      O  2   2.000
    10   2    -0.228321      N  1   0.593   O  2   0.405

 Localized orbitals saved to record      2201.2  (orbital set 4)


 **********************************************************************************************************************************
 DATASETS  * FILE   NREC   LENGTH (MB)   RECORD NAMES
              1      20       36.10       500      610      700      900      950      970     1001      129      960     1100   
                                          VAR    BASINP    GEOM    SYMINP    ZMAT    AOBASIS   BASIS     P2S    ABASIS      S 
                                         1400     1410     1200     1210     1080     1600     1650     1300     1700     1800   
                                           T        V       H0       H01     AOSYM     SMH    MOLCAS    ERIS     OPER     GRID   

              2       7        5.51       700     1000      520     2200     1001     1800     2201   
                                         GEOM     BASIS   MCVARS     UHF     BASIS    GRID      UKS  

 PROGRAMS   *        TOTAL      IBBA   UKS-SCF       INT   UHF-SCF       INT
 CPU TIMES  *        22.55      0.02      2.89      0.60     18.58      0.31
 REAL TIME  *        25.88 SEC
 DISK USED  *        56.42 MB
 **********************************************************************************************************************************

 IBBA/6-31+G(D,P) energy=      0.000000000000

         UKS-SCF         UHF-SCF
   -132.25863577   -129.77780766
 **********************************************************************************************************************************
 Molpro calculation terminated
