
 Primary working directories    : /local
 Secondary working directories  : /local
 Wavefunction directory         : /local/
 Main file repository           : /local/

 SHA1      : b4a5b34a9e711420743f49e6833241d17c61fb3c
 NAME      : 2099.9.b4a5b34
 ARCHNAME  : linux/x86_64_openmp
 FC        : /cm/shared/languages/GCC-6.1/bin/gfortran
 BLASLIB   : -lblas
 id        : simonbennie

 Nodes     nprocs
 node32-029    1

 Using customized tuning parameters: mindgm=1; mindgv=20; mindgc=4; mindgr=1; noblas=0; minvec=7
 default implementation of scratch files=df  

 memory,500,m
 geomtyp=xyz
 nosym
 noorient
 geometry={
 N         -1.15082       -0.04393       -0.10256
 O          1.17919       -0.09270       -0.01029
 H         -1.30319       -0.54764        0.76657
 H         -1.33891        0.93581        0.09185
 H         -0.03069       -0.15383       -0.35318
 H          1.29501        0.81475        0.29499
 }
 basis={ default,sto-3g }
 {ks,PBEREV,direct;wf,19,1,1}
 {ibba,bonds=1}

 Variables initialized (895), CPU time= 0.00 sec
 Commands  initialized (725), CPU time= 0.02 sec, 591 directives.
 Default parameters read. Elapsed time= 0.07 sec

 Checking input...
 Passed
1


                                         ***  PROGRAM SYSTEM MOLPRO  ***
                                       Copyright, TTI GmbH Stuttgart, 2015
                                    Version 2099.9 linked May 26 2017 16:03:21


 **********************************************************************************************************************************
 LABEL *                                                                                 
  64 bit serial version                                                                  DATE: 24-Jun-17          TIME: 13:12:52  
 **********************************************************************************************************************************

 SHA1:             b4a5b34a9e711420743f49e6833241d17c61fb3c
 **********************************************************************************************************************************
 SETTING GEOMTYP        =    XYZ

 Variable memory set to  500000000 words,  buffer space 

 ZSYMEL=NOSYM

 SETTING BASIS          =    STO-3G


 Recomputing integrals since basis changed


 Using spherical harmonics

 Library entry N      S STO-3G               selected for orbital group  1
 Library entry N      P STO-3G               selected for orbital group  1
 Library entry O      S STO-3G               selected for orbital group  2
 Library entry O      P STO-3G               selected for orbital group  2
 Library entry H      S STO-3G               selected for orbital group  3


 PROGRAM * SEWARD (Integral evaluation for generally contracted gaussian basis sets)     Author: Roland Lindh, 1990

 Geometry written to block  1 of record 700


 Point group  C1  



 ATOMIC COORDINATES

 NR  ATOM    CHARGE       X              Y              Z

   1  N       7.00   -2.174734619   -0.083015669   -0.193810311
   2  O       8.00    2.228346149   -0.175177612   -0.019445282
   3  H       1.00   -2.462672188   -1.034889615    1.448607355
   4  H       1.00   -2.530173205    1.768424605    0.173571345
   5  H       1.00   -0.057995695   -0.290696570   -0.667413473
   6  H       1.00    2.447214229    1.539654360    0.557450309

 Bond lengths in Bohr (Angstrom)

 1-3  1.920028084  1-4  1.920712617  1-5  2.178994030  2-5  2.379194492  2-6  1.822460000
     ( 1.016035107)     ( 1.016397345)     ( 1.153073983)     ( 1.259015506)     ( 0.964404300)

 Bond angles

  1-5-2  150.42324021   3-1-4  106.64915541   3-1-5  106.52018847   4-1-5  108.25306682

  5-2-6  104.31811532

 NUCLEAR CHARGE:                   19
 NUMBER OF PRIMITIVE AOS:          42
 NUMBER OF SYMMETRY AOS:           42
 NUMBER OF CONTRACTIONS:           14   (  14A   )
 NUMBER OF CORE ORBITALS:           2   (   2A   )
 NUMBER OF VALENCE ORBITALS:       12   (  12A   )


 NUCLEAR REPULSION ENERGY   37.13893784


 Eigenvalues of metric

         1 0.275E+00 0.351E+00 0.385E+00 0.390E+00 0.830E+00 0.912E+00 0.949E+00 0.100E+01


 Contracted 2-electron integrals neglected if value below      1.0D-11
 AO integral compression algorithm  1   Integral accuracy      1.0D-11

     0.262 MB (compressed) written to integral file (100.0%)


 NUMBER OF SORTED TWO-ELECTRON INTEGRALS:       5565.     BUFFER LENGTH:  32768
 NUMBER OF SEGMENTS:   1  SEGMENT LENGTH:       5565      RECORD LENGTH: 524288

 Memory used in sort:       0.56 MW

 SORT1 READ        7104. AND WROTE        5286. INTEGRALS IN      1 RECORDS. CPU TIME:     0.00 SEC, REAL TIME:     0.01 SEC
 SORT2 READ        5286. AND WROTE        5565. INTEGRALS IN      1 RECORDS. CPU TIME:     0.01 SEC, REAL TIME:     0.00 SEC

 FILE SIZES:   FILE 1:    30.3 MBYTE,  FILE 4:     4.2 MBYTE,   TOTAL:     34.5 MBYTE

 OPERATOR DM      FOR CENTER  0  COORDINATES:    0.000000    0.000000    0.000000


 **********************************************************************************************************************************
 DATASETS  * FILE   NREC   LENGTH (MB)   RECORD NAMES
              1      19       30.06       500      610      700      900      950      970     1000      129      960     1100   
                                          VAR    BASINP    GEOM    SYMINP    ZMAT    AOBASIS   BASIS     P2S    ABASIS      S 
                                         1400     1410     1200     1210     1080     1600     1650     1300     1700   
                                           T        V       H0       H01     AOSYM     SMH    MOLCAS    ERIS     OPER   

 PROGRAMS   *        TOTAL       INT
 CPU TIMES  *         0.35      0.21
 REAL TIME  *         0.64 SEC
 DISK USED  *        34.87 MB      
 **********************************************************************************************************************************

 Density functional group PBEREV=PBEXREV+PBEC
 Functional: PBEXREV(Automatically generated (new) PBEXREV)                    Gradient terms: 1
 Functional: PBEC(Automatically generated (new) PBEC)                          Gradient terms: 1
 Use grid at  1800.2

 Functional: PBEXREV                   Factor:  1.0000
 Functional: PBEC                      Factor:  1.0000

 Generated new metagrid on record  1800.2 with target accuracy 1.0D-06 and 21844 points in CPU time    0.5
 Computed new grid on record 1800.1 in CPU time    0.5
   15158 words reserved for DFT integration

 PROGRAM * RKS-SCF (Restricted open shell Kohn-Sham)     Authors: W. Meyer, H.-J. Werner, P.J. Knowles, 1993

 NUMBER OF ELECTRONS:      10+    9-    SPACE SYMMETRY=1    SPIN SYMMETRY: Doublet 
 CONVERGENCE THRESHOLDS:    1.00E-05 (Density)    1.00E-06 (Energy)
 MAX. NUMBER OF ITERATIONS:       60
 INTERPOLATION TYPE:            DIIS
 INTERPOLATION STEPS:              2 (START)      1 (STEP)
 LEVEL SHIFTS:                 -0.60 (CLOSED) -0.30 (OPEN) 



 Use fine grid record 1800.2 for energy threshold  1.0D-06
 Orbital guess generated from atomic densities. Full valence occupancy:   10

 Molecular orbital dump at record        2100.2

 Initial alpha occupancy:  10
 Initial beta  occupancy:   9
 Wave function symmetry:    1

 ITERATION    DDIFF          GRAD             ENERGY        2-EL.EN.            DIPOLE MOMENTS         DIIS   ORB.
    1      0.000D+00      0.000D+00      -130.28250858    210.016802   -1.69696    1.27514    0.93692    0    start
    2      0.000D+00      0.403D-01      -130.39772066    204.292757    0.52311    0.56913    0.67189    1    diag,B
    3      0.924D-01      0.228D-01      -130.43152789    204.741651   -0.50092    0.66051    0.55289    2    diag,B
    4      0.396D-01      0.566D-02      -130.43548008    204.643214   -0.15347    0.64166    0.58013    3    diag,B
    5      0.112D-01      0.211D-02      -130.43627559    204.618057   -0.12889    0.64461    0.57144    4    diag,B
    6      0.505D-02      0.762D-03      -130.43663902    204.599462   -0.09955    0.64908    0.57150    5    diag,B
    7      0.394D-02      0.369D-03      -130.43681715    204.594577   -0.09057    0.65092    0.57104    6    fixocc
    8      0.252D-02      0.267D-03      -130.43715573    204.589594   -0.06951    0.65224    0.56810    7    diag,B
    9      0.706D-02      0.164D-03      -130.43725196    204.594241   -0.06788    0.65250    0.56519    8    diag,B
   10      0.445D-02      0.569D-04      -130.43726338    204.594115   -0.06018    0.65222    0.56402    9    orth
   11      0.243D-02      0.388D-04      -130.43726362    204.595734   -0.06457    0.65219    0.56387    9    diag,B
   12      0.489D-03      0.208D-04      -130.43726377    204.595236   -0.06284    0.65214    0.56385    9    diag,B
   13      0.223D-03      0.310D-05      -130.43726377    204.595295   -0.06291    0.65215    0.56384    9    diag,B
   14      0.831D-05      0.954D-06      -130.43726377    204.595331   -0.06299    0.65216    0.56383    0    orth

 Final alpha occupancy:  10
 Final beta  occupancy:   9

 !RKS STATE 1.1 Energy               -130.437263774651
 Nuclear energy                        37.13893784
 One-electron energy                 -252.81667307
 Two-electron energy                  102.29766571
 Density functional                   -17.05719426     PBEXREV=-16.41718593 PBEC= -0.64000832
 Virial quotient                       -1.00976623
 !RKS STATE 1.1 Dipole moment          -0.06299155     0.65215533     0.56383234
 Dipole moment /Debye                  -0.16009806     1.65750495     1.43302500

 Orbital energies:

         1.1          2.1          3.1          4.1          5.1          6.1          7.1          8.1          9.1         10.1
    -18.463748   -13.767973    -0.814216    -0.720027    -0.378642    -0.368240    -0.245380    -0.133196    -0.077518    -0.107946

        11.1         12.1
      0.318999     0.356435

 HOMO     10.1    -0.107946 =      -2.9374eV
 LUMO     11.1     0.318999 =       8.6804eV
 LUMO-HOMO         0.426945 =      11.6178eV


 **********************************************************************************************************************************
 DATASETS  * FILE   NREC   LENGTH (MB)   RECORD NAMES
              1      20       30.76       500      610      700      900      950      970     1000      129      960     1100   
                                          VAR    BASINP    GEOM    SYMINP    ZMAT    AOBASIS   BASIS     P2S    ABASIS      S 
                                         1400     1410     1200     1210     1080     1600     1650     1300     1700     1800   
                                           T        V       H0       H01     AOSYM     SMH    MOLCAS    ERIS     OPER     GRID   

              2       5        2.84       700     1000      520     1800     2100   
                                         GEOM     BASIS   MCVARS    GRID      RKS  

 PROGRAMS   *        TOTAL        KS       INT
 CPU TIMES  *         1.95      1.60      0.21
 REAL TIME  *         2.44 SEC
 DISK USED  *        34.87 MB      
 **********************************************************************************************************************************


 PROGRAM * Intrinsic Basis Bonding Analysis (IBBA)          Author: G. Knizia

 Molecular orbitals read from record     2100.2  Type=RKS/CANONICAL (state 1.1)
 Fock matrix read from record            2100.2  Type=RKS/TOTAL (state 1.1)
 Orbital energies read from record       2100.2  Type=RKS/CANONICAL (state 1.1)
 Density matrix read from record         2100.2  Type=RKS/CHARGE (state 1.1)

 Number of core orbitals:           2 (   2 )
 Number of closed-shell orbitals:   7 (   7 )
 Number of active  orbitals:        1 (   1 )

 Basis set MINAO-AUTO-PP generated.      Number of basis functions:   14 

 Polarized AO type:                A = (O Ot + (1-O)(1-Ot)) P12
 Orthogonalization method:         Symmetric (Loewdin)
 Localization functional:          L = sum[A,i] <i|n_A|i>^4 -> max

 Localization group 1:   9 orbitals, occupancy  2.000
 Iterative localization: IB/PM,    7 iter; Final gradient 0.81E-09

 Bond order analysis:       [THRPRINT= 0.020]

   CEN ATOM   CEN ATOM     WIBERG.BO      RENORM.BO
     1   N  -   4   H       0.963788       0.999414
     1   N  -   3   H       0.961435       0.999478
     1   N  -   2   O       0.865505       1.030155
     1   N  -   5   H       0.598485       0.653435

     2   O  -   6   H       0.950956       0.999264
     2   O  -   1   N       0.865505       1.030155
     2   O  -   5   H       0.352288       0.435712

     3   H  -   1   N       0.961435       0.999478

     4   H  -   1   N       0.963788       0.999414

     5   H  -   1   N       0.598485       0.653435
     5   H  -   2   O       0.352288       0.435712

     6   H  -   2   O       0.950956       0.999264


 Valency analysis:

   CEN ATOM   TOT.VALENCE
     1   N       3.390718
     2   O       2.169363
     3   H       0.962312
     4   H       0.964457
     5   H       0.951930
     6   H       0.952779
 Localization group 2:   1 orbitals, occupancy  1.000
 Iterative localization: IB/PM,    1 iter; Final gradient 0.00E+00

 Bond order analysis:       [THRPRINT= 0.020]

   CEN ATOM   CEN ATOM     WIBERG.BO      RENORM.BO
     1   N  -   2   O       0.480485       0.500000

     2   O  -   1   N       0.480485       0.500000






 Valency analysis:

   CEN ATOM   TOT.VALENCE
     1   N       0.480603
     2   O       0.480661
     3   H       0.000092
     4   H       0.000021
     5   H       0.000167
     6   H       0.000014

 Total charge composition:

   CEN ATOM         s          p       ELECTRONS ->P.CHARGE
     1   N       3.44182    4.04884      7.49067   -0.49067
     2   O       3.77316    4.55524      8.32840   -0.32840
     3   H       0.80591                 0.80591    0.19409
     4   H       0.81148                 0.81148    0.18852
     5   H       0.78084                 0.78084    0.21916
     6   H       0.78270                 0.78270    0.21730

 Total charge composition, AO contributions:

   CEN ATOM SHL      SPHERICAL COMPONENTS
     1   N  1s       1.99527
     1   N  2s       1.44655
     1   N  2p       1.32380    1.25413    1.47091

     2   O  1s       1.99800
     2   O  2s       1.77517
     2   O  2p       1.32929    1.44665    1.77931

     3   H  1s       0.80591

     4   H  1s       0.81148

     5   H  1s       0.78084

     6   H  1s       0.78270

 Active orbital charges:

   CEN ATOM         s          p       ELECTRONS ->SPIN.DEN
     1   N       0.00256    0.39896      0.40152    0.40152
     2   O       0.00008    0.59826      0.59833    0.59833
     3   H       0.00005                 0.00005    0.00005
     4   H       0.00001                 0.00001    0.00001
     5   H       0.00008                 0.00008    0.00008
     6   H       0.00001                 0.00001    0.00001

 Active orbital charges, AO contributions:

   CEN ATOM SHL      SPHERICAL COMPONENTS
     1   N  1s       0.00000
     1   N  2s       0.00256
     1   N  2p       0.32102    0.01437    0.06357

     2   O  1s       0.00000
     2   O  2s       0.00008
     2   O  2p       0.47074    0.00016    0.12736

     3   H  1s       0.00005

     4   H  1s       0.00001

     5   H  1s       0.00008

     6   H  1s       0.00001

 Summary of localized orbital composition:   [THRPRINT= 0.020]

   ORB  GRP  ORB.ENERGY      CENTERS/CHARGES
     1   1   -18.317286      O  2   2.000
     2   1   -13.641828      N  1   2.000
     3   1    -0.598069      O  2   1.219   H  6   0.780
     4   1    -0.534958      N  1   1.189   H  4   0.811
     5   1    -0.528943      N  1   1.195   H  3   0.805
     6   1    -0.386310      O  2   1.824   H  5   0.118   N  1   0.058
     7   1    -0.356377      N  1   0.919   O  2   0.554   H  5   0.523
     8   1    -0.310361      O  2   2.000
     9   1    -0.294799      N  1   1.728   H  5   0.140   O  2   0.133
    10   2    -0.073082      O  2   0.598   N  1   0.402

 Localized orbitals saved to record      2100.2  (orbital set 2)


 **********************************************************************************************************************************
 DATASETS  * FILE   NREC   LENGTH (MB)   RECORD NAMES
              1      20       30.76       500      610      700      900      950      970     1000      129      960     1100   
                                          VAR    BASINP    GEOM    SYMINP    ZMAT    AOBASIS   BASIS     P2S    ABASIS      S 
                                         1400     1410     1200     1210     1080     1600     1650     1300     1700     1800   
                                           T        V       H0       H01     AOSYM     SMH    MOLCAS    ERIS     OPER     GRID   

              2       5        2.84       700     1000      520     1800     2100   
                                         GEOM     BASIS   MCVARS    GRID      RKS  

 PROGRAMS   *        TOTAL      IBBA        KS       INT
 CPU TIMES  *         1.97      0.02      1.60      0.21
 REAL TIME  *         2.50 SEC
 DISK USED  *        34.87 MB      
 **********************************************************************************************************************************
 Molecular orbitals read from record     2100.2  Type=RKS/LOCAL(IBO)  
 Occupation numbers read from record     2100.2  Type=RKS/LOCAL(IBO)  
 Orbital energies read from record       2100.2  Type=RKS/LOCAL(IBO)  
 Redundancy group numbers read from rec  2100.2  Type=RKS/LOCAL(IBO)  

 IBBA/STO-3G energy=      0.000000000000

        KS-SCF  
   -130.43726377
 **********************************************************************************************************************************
 Molpro calculation terminated
