
 Primary working directories    : /local/molpro.BFwcCCKFdq
 Secondary working directories  : /local/molpro.BFwcCCKFdq
 Wavefunction directory         : /local/
 Main file repository           : /local/molpro.BFwcCCKFdq/

 id        : simonbennie

 Nodes     nprocs
 node35-048    1

 Using customized tuning parameters: mindgm=1; mindgv=20; mindgc=4; mindgr=1; noblas=0; minvec=7
 default implementation of scratch files=df  

 memory,500,m
 geomtyp=xyz
 nosym
 noorient
 geometry={
 N         -1.15082       -0.04393       -0.10256
 O          1.17919       -0.09270       -0.01029
 H         -1.30319       -0.54764        0.76657
 H         -1.33891        0.93581        0.09185
 H         -0.03069       -0.15383       -0.35318
 H          1.29501        0.81475        0.29499
 }
 basis={default,sto-3g}
 {uhf,direct;wf,19,1,1}
 
 basis={ default,6-31+G(d,p) }
 {uks,LDA,direct;wf,19,1,1}
 {ibba,bonds=1}

 Variables initialized (920), CPU time= 0.01 sec
 Commands  initialized (754), CPU time= 0.01 sec, 615 directives.
 Default parameters read. Elapsed time= 0.09 sec

 Checking input...
 Passed
1


                                         ***  PROGRAM SYSTEM MOLPRO  ***
                                       Copyright, TTI GmbH Stuttgart, 2015
                                    Version 2018.0 linked Jul  6 2018 18:07:13


 **********************************************************************************************************************************
 LABEL *                                                                                 
  64 bit serial version                                                                  DATE: 10-Oct-18          TIME: 13:56:05  
 **********************************************************************************************************************************

 SHA1:             b58f8fddb9d75525be9261ebe3faf0e4279c479b
 **********************************************************************************************************************************
 SETTING GEOMTYP        =    XYZ

 Variable memory set to  500000000 words,  buffer space 

 ZSYMEL=NOSYM

 SETTING BASIS          =    STO-3G


 Recomputing integrals since basis changed


 Using spherical harmonics

 Library entry N      S STO-3G               selected for orbital group  1
 Library entry N      P STO-3G               selected for orbital group  1
 Library entry O      S STO-3G               selected for orbital group  2
 Library entry O      P STO-3G               selected for orbital group  2
 Library entry H      S STO-3G               selected for orbital group  3


 PROGRAM * SEWARD (Integral evaluation for generally contracted gaussian basis sets)     Author: Roland Lindh, 1990

 Geometry written to block  1 of record 700


 Point group  C1  



 ATOMIC COORDINATES

 NR  ATOM    CHARGE       X              Y              Z

   1  N       7.00   -2.174734619   -0.083015669   -0.193810311
   2  O       8.00    2.228346149   -0.175177612   -0.019445282
   3  H       1.00   -2.462672188   -1.034889615    1.448607355
   4  H       1.00   -2.530173205    1.768424605    0.173571345
   5  H       1.00   -0.057995695   -0.290696570   -0.667413473
   6  H       1.00    2.447214229    1.539654360    0.557450309

 Bond lengths in Bohr (Angstrom)

 1-3  1.920028084  1-4  1.920712617  1-5  2.178994030  2-5  2.379194492  2-6  1.822460000
     ( 1.016035107)     ( 1.016397345)     ( 1.153073983)     ( 1.259015506)     ( 0.964404300)

 Bond angles

  1-5-2  150.42324021   3-1-4  106.64915541   3-1-5  106.52018847   4-1-5  108.25306682

  5-2-6  104.31811532

 NUCLEAR CHARGE:                   19
 NUMBER OF PRIMITIVE AOS:          42
 NUMBER OF SYMMETRY AOS:           42
 NUMBER OF CONTRACTIONS:           14   (  14A   )
 NUMBER OF CORE ORBITALS:           2   (   2A   )
 NUMBER OF VALENCE ORBITALS:       12   (  12A   )


 NUCLEAR REPULSION ENERGY   37.13893784


 Eigenvalues of metric

         1 0.275E+00 0.351E+00 0.385E+00 0.390E+00 0.830E+00 0.912E+00 0.949E+00 0.100E+01


 Contracted 2-electron integrals neglected if value below      1.0D-11
 AO integral compression algorithm  1   Integral accuracy      1.0D-11

     0.262 MB (compressed) written to integral file (100.0%)


 NUMBER OF SORTED TWO-ELECTRON INTEGRALS:       5565.     BUFFER LENGTH:  32768
 NUMBER OF SEGMENTS:   1  SEGMENT LENGTH:       5565      RECORD LENGTH: 524288

 Memory used in sort:       0.56 MW

 SORT1 READ        7104. AND WROTE        5286. INTEGRALS IN      1 RECORDS. CPU TIME:     0.00 SEC, REAL TIME:     0.00 SEC
 SORT2 READ        5286. AND WROTE        5565. INTEGRALS IN      1 RECORDS. CPU TIME:     0.01 SEC, REAL TIME:     0.01 SEC

 FILE SIZES:   FILE 1:    30.3 MBYTE,  FILE 4:     4.2 MBYTE,   TOTAL:     34.5 MBYTE

 OPERATOR DM      FOR CENTER  0  COORDINATES:    0.000000    0.000000    0.000000


 **********************************************************************************************************************************
 DATASETS  * FILE   NREC   LENGTH (MB)   RECORD NAMES
              1      19       30.06       500      610      700      900      950      970     1000      129      960     1100   
                                          VAR    BASINP    GEOM    SYMINP    ZMAT    AOBASIS   BASIS     P2S    ABASIS      S 
                                         1400     1410     1200     1210     1080     1600     1650     1300     1700   
                                           T        V       H0       H01     AOSYM     SMH    MOLCAS    ERIS     OPER   

 PROGRAMS   *        TOTAL       INT
 CPU TIMES  *         0.72      0.56
 REAL TIME  *         1.12 SEC
 DISK USED  *        34.87 MB
 **********************************************************************************************************************************


 PROGRAM * UHF-SCF       Authors: W. Meyer, H.-J. Werner


 NUMBER OF ELECTRONS:      10+    9-    SPACE SYMMETRY=1    SPIN SYMMETRY: Doublet 
 CONVERGENCE THRESHOLDS:    1.00E-05 (Density)    1.00E-07 (Energy)
 INTEGRAL THRESHOLDS:       1.00E-11 (Initial)    1.00E-11 (Final)
 MAX. NUMBER OF ITERATIONS:       60
 INTERPOLATION TYPE:            DIIS
 INTERPOLATION STEPS:              2 (START)      1 (STEP)
 LEVEL SHIFTS:                 -0.20 (ALPHA)  -0.20 (BETA) 



 Orbital guess generated from atomic densities. Full valence occupancy:   10

 Molecular orbital dump at record        2200.2

 Initial alpha occupation  10
 Initial beta  occupation   9

 Direct Fock-matrix evaluation.        Author: H.-J. Werner (1996)

 Integral Threshold:                  0.1D-10

 ITERATION   DDIFF            GRAD            ENERGY        2-EL.EN.            DIPOLE MOMENTS         DIIS   CPU(IT)  CPU(TOT)
    1      0.000D+00      0.000D+00      -129.57245633    176.872227   -2.23074    1.29224    0.84854    0      1.2      2.4
    2      0.611D-01      0.304D-01      -129.71162370    173.688089   -1.44535    0.79972    0.69129    1      0.6      3.0
    3      0.213D-01      0.105D-01      -129.73014859    172.486974   -1.14670    0.63763    0.59639    2      0.6      3.7
    4      0.106D-01      0.556D-02      -129.73910884    172.175883   -0.93760    0.62620    0.58733    3      0.6      4.2
    5      0.117D-01      0.473D-02      -129.74816850    172.004843   -0.70502    0.64796    0.60858    4      0.6      4.8
    6      0.290D-01      0.436D-02      -129.76622945    171.647163   -0.17285    0.69642    0.65522    5      0.6      5.5
    7      0.262D-01      0.322D-02      -129.77589369    171.414036    0.30567    0.70488    0.65632    6      0.6      6.0
    8      0.149D-01      0.187D-02      -129.77742304    171.350294    0.44382    0.72769    0.64932    7      0.6      6.7
    9      0.702D-02      0.993D-03      -129.77734018    171.382046    0.41705    0.71296    0.64911    8      0.6      7.3
   10      0.549D-02      0.914D-03      -129.77769565    171.358855    0.46893    0.71971    0.64596    9      0.7      7.9
   11      0.144D-02      0.262D-03      -129.77770854    171.365622    0.46874    0.71673    0.64615    9      0.6      8.6
   12      0.122D-02      0.275D-03      -129.77773701    171.361257    0.48152    0.71813    0.64549    9      0.4      9.0
   13      0.392D-03      0.150D-03      -129.77774696    171.361197    0.48218    0.71849    0.64533    9      0.4      9.4
   14      0.852D-03      0.130D-03      -129.77776466    171.359288    0.48801    0.71888    0.64489    9      0.4      9.8
   15      0.164D-02      0.107D-03      -129.77778969    171.360298    0.48910    0.71839    0.64457    9      0.4     10.3
   16      0.196D-02      0.914D-04      -129.77780655    171.357195    0.49897    0.71944    0.64363    9      0.4     10.7
   17      0.567D-03      0.200D-04      -129.77780762    171.356847    0.50092    0.71953    0.64341    9      0.4     11.1
   18      0.680D-04      0.891D-05      -129.77780765    171.356679    0.50129    0.71954    0.64336    9      0.4     11.6
   19      0.142D-04      0.278D-05      -129.77780766    171.356703    0.50123    0.71952    0.64336    9      0.4     12.0
   20      0.678D-05      0.135D-05      -129.77780766    171.356683    0.50127    0.71952    0.64335    9      0.4     12.4
   21      0.106D-05      0.448D-06      -129.77780766    171.356682    0.50129    0.71952    0.64335    9      0.4     12.8

 Final alpha occupancy:  10
 Final beta  occupancy:   9

 !UHF STATE  1.1 Energy              -129.777807657742
 Nuclear energy                        37.13893784
 One-electron energy                 -252.59508657
 Two-electron energy                   85.67834107
 Virial quotient                       -1.00489708
 !UHF STATE  1.1 Dipole moment          0.50128596     0.71951866     0.64335096
 Dipole moment /Debye                   1.27405838     1.82871424     1.63512794

 Orbital energies for positive spin:

         1.1          2.1          3.1          4.1          5.1          6.1          7.1          8.1          9.1         10.1
    -20.326898   -15.281454    -1.339091    -1.075845    -0.670651    -0.580383    -0.559533    -0.470358    -0.423975    -0.336935

        11.1         12.1
      0.582988     0.665446

 Orbital energies for negative spin:

         1.1          2.1          3.1          4.1          5.1          6.1          7.1          8.1          9.1         10.1
    -20.303120   -15.271731    -1.210428    -1.029807    -0.605764    -0.553771    -0.474867    -0.412606    -0.311195     0.239324

        11.1         12.1
      0.616619     0.684383


 HOMO     -9.1    -0.311195 =      -8.4680eV
 LUMO    -10.1     0.239324 =       6.5123eV
 LUMO-HOMO         0.550519 =      14.9804eV

 EXPECTATION VALUE OF S**2:             0.77625772

 Occupation number threshold for pseudo-canonical orbitals: 1.9990 (occupied), 0.0010 (virtual)

 Number of pseudo-canonical occupied orbitals per symmetry:    7
 Number of active natural orbitals per symmetry:               5

 Natural orbitals saved to record    2200.2 (Orbital set 3)

 Orbital spaces for UNO-CAS (Min. occupation: 0.020  Max. occupation: 1.980):

 Closed:        9
 Active:        1


 **********************************************************************************************************************************
 DATASETS  * FILE   NREC   LENGTH (MB)   RECORD NAMES
              1      19       30.06       500      610      700      900      950      970     1000      129      960     1100   
                                          VAR    BASINP    GEOM    SYMINP    ZMAT    AOBASIS   BASIS     P2S    ABASIS      S 
                                         1400     1410     1200     1210     1080     1600     1650     1300     1700   
                                           T        V       H0       H01     AOSYM     SMH    MOLCAS    ERIS     OPER   

              2       4        2.84       700     1000      520     2200   
                                         GEOM     BASIS   MCVARS     UHF  

 PROGRAMS   *        TOTAL   UHF-SCF       INT
 CPU TIMES  *        13.57     12.85      0.56
 REAL TIME  *        15.20 SEC
 DISK USED  *        34.87 MB
 **********************************************************************************************************************************
 SETTING BASIS          =    6-31+G(D,P)


 Recomputing integrals since basis changed


 Using spherical harmonics

 Library entry N      S 6-31G                selected for orbital group  1
 Library entry N      S 6-31++G              selected for orbital group  1
 Library entry N      P 6-31G                selected for orbital group  1
 Library entry N      P 6-31++G              selected for orbital group  1
 Library entry N      D 6-31G*               selected for orbital group  1
 Library entry O      S 6-31G                selected for orbital group  2
 Library entry O      S 6-31++G              selected for orbital group  2
 Library entry O      P 6-31G                selected for orbital group  2
 Library entry O      P 6-31++G              selected for orbital group  2
 Library entry O      D 6-31G*               selected for orbital group  2
 Library entry H      S 6-31G                selected for orbital group  3
 Library entry H      P 6-31G**              selected for orbital group  3


 PROGRAM * SEWARD (Integral evaluation for generally contracted gaussian basis sets)     Author: Roland Lindh, 1990

 Geometry written to block  1 of record 700


 Point group  C1  



 ATOMIC COORDINATES

 NR  ATOM    CHARGE       X              Y              Z

   1  N       7.00   -2.174734619   -0.083015669   -0.193810311
   2  O       8.00    2.228346149   -0.175177612   -0.019445282
   3  H       1.00   -2.462672188   -1.034889615    1.448607355
   4  H       1.00   -2.530173205    1.768424605    0.173571345
   5  H       1.00   -0.057995695   -0.290696570   -0.667413473
   6  H       1.00    2.447214229    1.539654360    0.557450309

 Bond lengths in Bohr (Angstrom)

 1-3  1.920028084  1-4  1.920712617  1-5  2.178994030  2-5  2.379194492  2-6  1.822460000
     ( 1.016035107)     ( 1.016397345)     ( 1.153073983)     ( 1.259015506)     ( 0.964404300)

 Bond angles

  1-5-2  150.42324021   3-1-4  106.64915541   3-1-5  106.52018847   4-1-5  108.25306682

  5-2-6  104.31811532

 NUCLEAR CHARGE:                   19
 NUMBER OF PRIMITIVE AOS:          92
 NUMBER OF SYMMETRY AOS:           90
 NUMBER OF CONTRACTIONS:           56   (  56A   )
 NUMBER OF CORE ORBITALS:           2   (   2A   )
 NUMBER OF VALENCE ORBITALS:       12   (  12A   )


 NUCLEAR REPULSION ENERGY   37.13893784


 Eigenvalues of metric

         1 0.780E-02 0.124E-01 0.277E-01 0.344E-01 0.563E-01 0.715E-01 0.873E-01 0.110E+00


 Contracted 2-electron integrals neglected if value below      1.0D-11
 AO integral compression algorithm  1   Integral accuracy      1.0D-11

     6.554 MB (compressed) written to integral file ( 52.2%)


 NUMBER OF SORTED TWO-ELECTRON INTEGRALS:    1274406.     BUFFER LENGTH:  32768
 NUMBER OF SEGMENTS:   1  SEGMENT LENGTH:    1274406      RECORD LENGTH: 524288

 Memory used in sort:       1.83 MW

 SORT1 READ     1567923. AND WROTE     1227821. INTEGRALS IN      4 RECORDS. CPU TIME:     0.02 SEC, REAL TIME:     0.04 SEC
 SORT2 READ     1227821. AND WROTE     1274406. INTEGRALS IN     25 RECORDS. CPU TIME:     0.06 SEC, REAL TIME:     0.08 SEC

 FILE SIZES:   FILE 1:    36.7 MBYTE,  FILE 4:    16.8 MBYTE,   TOTAL:     53.5 MBYTE

 OPERATOR DM      FOR CENTER  0  COORDINATES:    0.000000    0.000000    0.000000


 **********************************************************************************************************************************
 DATASETS  * FILE   NREC   LENGTH (MB)   RECORD NAMES
              1      19       35.41       500      610      700      900      950      970     1001      129      960     1100   
                                          VAR    BASINP    GEOM    SYMINP    ZMAT    AOBASIS   BASIS     P2S    ABASIS      S 
                                         1400     1410     1200     1210     1080     1600     1650     1300     1700   
                                           T        V       H0       H01     AOSYM     SMH    MOLCAS    ERIS     OPER   

              2       5        2.86       700     1000      520     2200     1001   
                                         GEOM     BASIS   MCVARS     UHF     BASIS   

 PROGRAMS   *        TOTAL       INT   UHF-SCF       INT
 CPU TIMES  *        13.99      0.41     12.85      0.56
 REAL TIME  *        15.73 SEC
 DISK USED  *        56.42 MB
 **********************************************************************************************************************************

 Density functional group LDA=DIRAC+VWN5
 Functional: DIRAC(Automatically generated (new) DIRAC)                        Gradient terms: 0
 Functional: VWN5(Automatically generated (new) VWN5)                          Gradient terms: 0
 Use libxcgrid:  F
 Use grid at  1800.2

 Functional: DIRAC                     Factor:  1.0000
 Functional: VWN5                      Factor:  1.0000

 Generated new metagrid on record  1800.2 with target accuracy 1.0D-06 and 21844 points in CPU time    0.5
 Computed new grid on record 1800.1 in CPU time    0.5
   27088 words reserved for DFT integration

 PROGRAM * UKS-SCF (Unrestricted Kohn-Sham)     Authors: W. Meyer, H.-J. Werner, P.J. Knowles, 1993

 NUMBER OF ELECTRONS:      10+    9-    SPACE SYMMETRY=1    SPIN SYMMETRY: Doublet 
 CONVERGENCE THRESHOLDS:    1.00E-05 (Density)    1.00E-06 (Energy)
 MAX. NUMBER OF ITERATIONS:       60
 INTERPOLATION TYPE:            DIIS
 INTERPOLATION STEPS:              2 (START)      1 (STEP)
 LEVEL SHIFTS:                 -0.20 (ALPHA)  -0.20 (BETA) 



 Use fine grid record 1800.2 for energy threshold  1.0D-06
 Molecular orbitals read from record     2200.2  Type=UHF/ALPHA (state 1.1)

 Present basis size:      56
 Previous basis size:     14
 Previous occupation:     10
 Previous closed-shells:   9
 Previous core-orbitals:   2
 Present occupation:      10
 Present closed-shells:    9
 Present core-orbitals:    2
 Wavefunction symmetry:    1   Doublet 

 Orbital overlap <old|new>:  < 1.1| 1.1> = 0.999845   < 2.1| 2.1> = 0.999840   < 3.1| 3.1> = 0.999611   < 4.1| 4.1> = 0.999774
                             < 5.1| 5.1> = 0.998267   < 6.1| 6.1> = 0.997818   < 7.1| 7.1> = 0.998986   < 8.1| 8.1> = 0.996095
                             < 9.1| 9.1> = 0.997598   <10.1|10.1> = 0.997259

 Molecular orbitals read from record     2200.2  Type=UHF/BETA (state 1.1)

 Present basis size:      56
 Previous basis size:     14
 Previous occupation:     10
 Previous closed-shells:   9
 Previous core-orbitals:   2
 Present occupation:      10
 Present closed-shells:    9
 Present core-orbitals:    2
 Wavefunction symmetry:    1   Doublet 

 Orbital overlap <old|new>:  < 1.1| 1.1> = 0.999845   < 2.1| 2.1> = 0.999840   < 3.1| 3.1> = 0.999656   < 4.1| 4.1> = 0.999795
                             < 5.1| 5.1> = 0.998802   < 6.1| 6.1> = 0.999200   < 7.1| 7.1> = 0.998291   < 8.1| 8.1> = 0.996294
                             < 9.1| 9.1> = 0.997633   <10.1|10.1> = 0.996596


 Molecular orbital dump at record        2201.2

 Initial alpha occupation  10
 Initial beta  occupation   9

 ITERATION    DDIFF          GRAD             ENERGY        2-EL.EN.            DIPOLE MOMENTS         DIIS
    1      0.000D+00      0.000D+00      -130.96690080    206.701886    0.49860    0.70833    0.63074    0
    2      0.186D-01      0.148D-01      -131.22256054    201.151841    0.27671    0.57800    0.51703    1
    3      0.840D-02      0.432D-02      -131.25924117    203.444055   -0.06262    0.83694    0.65501    2
    4      0.513D-02      0.238D-02      -131.27698943    201.828266   -0.28378    0.84402    0.66882    3
    5      0.260D-02      0.948D-03      -131.28092668    202.131081   -0.53159    0.86979    0.65826    4
    6      0.121D-02      0.625D-03      -131.28199263    202.174270   -0.53614    0.87749    0.66687    5
    7      0.811D-03      0.312D-03      -131.28254592    202.093208   -0.61898    0.87698    0.65478    6
    8      0.708D-03      0.159D-03      -131.28282210    202.124962   -0.64950    0.87339    0.64690    7
    9      0.414D-03      0.703D-04      -131.28291211    202.123036   -0.65636    0.87287    0.64206    8
   10      0.252D-03      0.431D-04      -131.28295143    202.128328   -0.65479    0.87327    0.63983    8
   11      0.277D-03      0.264D-04      -131.28297340    202.128385   -0.65107    0.87361    0.63700    9
   12      0.101D-03      0.101D-04      -131.28297595    202.129209   -0.64958    0.87404    0.63642    9
   13      0.222D-04      0.276D-05      -131.28297609    202.129059   -0.64951    0.87404    0.63623    9
   14      0.335D-05      0.781D-06      -131.28297609    202.129277   -0.64946    0.87410    0.63623    9
   15      0.111D-05      0.277D-06      -131.28297609    202.129124   -0.64949    0.87409    0.63623    9

 Final alpha occupancy:  10
 Final beta  occupancy:   9

 !UKS STATE  1.1 Energy              -131.282976093227
 Nuclear energy                        37.13893784
 One-electron energy                 -253.64688382
 Two-electron energy                  101.06456203
 Density functional                   -15.83959215     DIRAC=-14.60850057 VWN5= -1.23109157
 Virial quotient                       -1.00134980
 !UKS STATE  1.1 Dipole moment         -0.64949368     0.87409056     0.63622821
 Dipole moment /Debye                  -1.65074014     2.22157109     1.61702489

 Orbital energies for positive spin:

         1.1          2.1          3.1          4.1          5.1          6.1          7.1          8.1          9.1         10.1
    -18.630617   -13.907182    -0.901857    -0.806562    -0.481204    -0.460455    -0.379864    -0.310406    -0.262674    -0.253825

        11.1         12.1
     -0.016150     0.046261

 Orbital energies for negative spin:

         1.1          2.1          3.1          4.1          5.1          6.1          7.1          8.1          9.1         10.1
    -18.617514   -13.895406    -0.878156    -0.784311    -0.464848    -0.449249    -0.362885    -0.281299    -0.247345    -0.206442

        11.1         12.1
     -0.011917     0.051969


 HOMO     -9.1    -0.247345 =      -6.7306eV
 LUMO    -10.1    -0.206442 =      -5.6176eV
 LUMO-HOMO         0.040903 =       1.1130eV

 EXPECTATION VALUE OF S**2:             0.75263098

 Occupation number threshold for pseudo-canonical orbitals: 1.9990 (occupied), 0.0010 (virtual)

 Number of pseudo-canonical occupied orbitals per symmetry:    9
 Number of active natural orbitals per symmetry:               1

 Natural orbitals saved to record    2201.2 (Orbital set 3)

 Orbital spaces for UNO-CAS (Min. occupation: 0.020  Max. occupation: 1.980):

 Closed:        9
 Active:        1


 **********************************************************************************************************************************
 DATASETS  * FILE   NREC   LENGTH (MB)   RECORD NAMES
              1      20       36.10       500      610      700      900      950      970     1001      129      960     1100   
                                          VAR    BASINP    GEOM    SYMINP    ZMAT    AOBASIS   BASIS     P2S    ABASIS      S 
                                         1400     1410     1200     1210     1080     1600     1650     1300     1700     1800   
                                           T        V       H0       H01     AOSYM     SMH    MOLCAS    ERIS     OPER     GRID   

              2       7        5.48       700     1000      520     2200     1001     1800     2201   
                                         GEOM     BASIS   MCVARS     UHF     BASIS    GRID      UKS  

 PROGRAMS   *        TOTAL   UKS-SCF       INT   UHF-SCF       INT
 CPU TIMES  *        15.90      1.91      0.41     12.85      0.56
 REAL TIME  *        17.75 SEC
 DISK USED  *        56.42 MB
 **********************************************************************************************************************************


 PROGRAM * Intrinsic Basis Bonding Analysis (IBBA)          Author: G. Knizia

 Molecular orbitals read from record     2201.2  Type=UKS/ALPHA (state 1.1)
 Fock matrix read from record            2201.2  Type=UKS/TOTAL (state 1.1)
 Orbital energies read from record       2201.2  Type=UKS/ALPHA (state 1.1)
 Density matrix read from record         2201.2  Type=UKS/CHARGE (state 1.1)

 Number of core orbitals:           2 (   2 )
 Number of closed-shell orbitals:   7 (   7 )
 Number of active  orbitals:        1 (   1 )

 Basis set MINAO-AUTO-PP generated.      Number of basis functions:   14 

 Polarized AO type:                A = (O Ot + (1-O)(1-Ot)) P12
 Orthogonalization method:         Symmetric (Loewdin)
 Localization functional:          L = sum[A,i] <i|n_A|i>^4 -> max

 Localization group 1:   9 orbitals, occupancy  2.000
 Iterative localization: IB/PM,    7 iter; Final gradient 0.68E-08

 Bond order analysis:       [THRPRINT= 0.020]

   CEN ATOM   CEN ATOM     WIBERG.BO      RENORM.BO
     1   N  -   4   H       0.916388       0.999781
     1   N  -   3   H       0.909089       0.999676
     1   N  -   2   O       0.906815       1.022029
     1   N  -   5   H       0.552569       0.686686

     2   O  -   1   N       0.906815       1.022029
     2   O  -   6   H       0.863301       0.999649
     2   O  -   5   H       0.349744       0.413591

     3   H  -   1   N       0.909089       0.999676

     4   H  -   1   N       0.916388       0.999781

     5   H  -   1   N       0.552569       0.686686
     5   H  -   2   O       0.349744       0.413591

     6   H  -   2   O       0.863301       0.999649


 Valency analysis:

   CEN ATOM   TOT.VALENCE
     1   N       3.285141
     2   O       2.120507
     3   H       0.910283
     4   H       0.917298
     5   H       0.903557
     6   H       0.863791
 Localization group 2:   1 orbitals, occupancy  1.000
 Iterative localization: IB/PM,    1 iter; Final gradient 0.00E+00

 Bond order analysis:       [THRPRINT= 0.020]

   CEN ATOM   CEN ATOM     WIBERG.BO      RENORM.BO
     1   N  -   2   O       0.495651       0.500000

     2   O  -   1   N       0.495651       0.500000






 Valency analysis:

   CEN ATOM   TOT.VALENCE
     1   N       0.497636
     2   O       0.497373
     3   H       0.000066
     4   H       0.000421
     5   H       0.000897
     6   H       0.002325

 Total charge composition:

   CEN ATOM         s          p       ELECTRONS ->P.CHARGE
     1   N       3.46510    4.14315      7.60825   -0.60825
     2   O       3.74909    4.90753      8.65662   -0.65662
     3   H       0.70051                 0.70051    0.29949
     4   H       0.71263                 0.71263    0.28737
     5   H       0.68990                 0.68990    0.31010
     6   H       0.63210                 0.63210    0.36790

 Total charge composition, AO contributions:

   CEN ATOM SHL      SPHERICAL COMPONENTS
     1   N  1s       1.99532
     1   N  2s       1.46977
     1   N  2p       1.28278    1.34702    1.51335

     2   O  1s       1.99799
     2   O  2s       1.75110
     2   O  2p       1.42806    1.59977    1.87970

     3   H  1s       0.70051

     4   H  1s       0.71263

     5   H  1s       0.68990

     6   H  1s       0.63210

 Active orbital charges:

   CEN ATOM         s          p       ELECTRONS ->SPIN.DEN
     1   N       0.00193    0.53246      0.53438    0.53438
     2   O       0.00039    0.46337      0.46376    0.46376
     3   H       0.00003                 0.00003    0.00003
     4   H       0.00021                 0.00021    0.00021
     5   H       0.00045                 0.00045    0.00045
     6   H       0.00116                 0.00116    0.00116

 Active orbital charges, AO contributions:

   CEN ATOM SHL      SPHERICAL COMPONENTS
     1   N  1s       0.00000
     1   N  2s       0.00193
     1   N  2p       0.42474    0.01979    0.08793

     2   O  1s       0.00001
     2   O  2s       0.00038
     2   O  2p       0.41931    0.00157    0.04249

     3   H  1s       0.00003

     4   H  1s       0.00021

     5   H  1s       0.00045

     6   H  1s       0.00116

 Summary of localized orbital composition:   [THRPRINT= 0.020]

   ORB  GRP  ORB.ENERGY      CENTERS/CHARGES
     1   1   -18.513732      O  2   2.000
     2   1   -13.769997      N  1   2.000
     3   1    -0.717322      O  2   1.370   H  6   0.630
     4   1    -0.624388      N  1   1.288   H  4   0.711
     5   1    -0.618206      N  1   1.301   H  3   0.699
     6   1    -0.540311      O  2   1.859   H  5   0.095   N  1   0.046
     7   1    -0.464688      N  1   1.697   H  5   0.229   O  2   0.073
     8   1    -0.454166      O  2   0.890   N  1   0.741   H  5   0.366
     9   1    -0.357031      O  2   2.000
    10   2    -0.229864      N  1   0.534   O  2   0.464

 Localized orbitals saved to record      2201.2  (orbital set 4)


 **********************************************************************************************************************************
 DATASETS  * FILE   NREC   LENGTH (MB)   RECORD NAMES
              1      20       36.10       500      610      700      900      950      970     1001      129      960     1100   
                                          VAR    BASINP    GEOM    SYMINP    ZMAT    AOBASIS   BASIS     P2S    ABASIS      S 
                                         1400     1410     1200     1210     1080     1600     1650     1300     1700     1800   
                                           T        V       H0       H01     AOSYM     SMH    MOLCAS    ERIS     OPER     GRID   

              2       7        5.51       700     1000      520     2200     1001     1800     2201   
                                         GEOM     BASIS   MCVARS     UHF     BASIS    GRID      UKS  

 PROGRAMS   *        TOTAL      IBBA   UKS-SCF       INT   UHF-SCF       INT
 CPU TIMES  *        15.93      0.03      1.91      0.41     12.85      0.56
 REAL TIME  *        17.79 SEC
 DISK USED  *        56.42 MB
 **********************************************************************************************************************************

 IBBA/6-31+G(D,P) energy=      0.000000000000

         UKS-SCF         UHF-SCF
   -131.28297609   -129.77780766
 **********************************************************************************************************************************
 Molpro calculation terminated
