
 Primary working directories    : /local
 Secondary working directories  : /local
 Wavefunction directory         : /local/
 Main file repository           : /local/

 SHA1      : b4a5b34a9e711420743f49e6833241d17c61fb3c
 NAME      : 2099.9.b4a5b34
 ARCHNAME  : linux/x86_64_openmp
 FC        : /cm/shared/languages/GCC-6.1/bin/gfortran
 BLASLIB   : -lblas
 id        : simonbennie

 Nodes     nprocs
 node34-030    1

 Using customized tuning parameters: mindgm=1; mindgv=20; mindgc=4; mindgr=1; noblas=0; minvec=7
 default implementation of scratch files=df  

 memory,500,m
 geomtyp=xyz
 nosym
 noorient
 geometry={
 N         -1.15082       -0.04393       -0.10256
 O          1.17919       -0.09270       -0.01029
 H         -1.30319       -0.54764        0.76657
 H         -1.33891        0.93581        0.09185
 H         -0.03069       -0.15383       -0.35318
 H          1.29501        0.81475        0.29499
 }
 basis={ default,svp }
 {ks,B-LYP,direct;wf,19,1,1}
 {ibba,bonds=1}

 Variables initialized (895), CPU time= 0.00 sec
 Commands  initialized (725), CPU time= 0.02 sec, 591 directives.
 Default parameters read. Elapsed time= 0.08 sec

 Checking input...
 Passed
1


                                         ***  PROGRAM SYSTEM MOLPRO  ***
                                       Copyright, TTI GmbH Stuttgart, 2015
                                    Version 2099.9 linked May 26 2017 16:03:21


 **********************************************************************************************************************************
 LABEL *                                                                                 
  64 bit serial version                                                                  DATE: 24-Jun-17          TIME: 14:36:55  
 **********************************************************************************************************************************

 SHA1:             b4a5b34a9e711420743f49e6833241d17c61fb3c
 **********************************************************************************************************************************
 SETTING GEOMTYP        =    XYZ

 Variable memory set to  500000000 words,  buffer space 

 ZSYMEL=NOSYM

 SETTING BASIS          =    SVP


 Recomputing integrals since basis changed


 Using spherical harmonics

 Library entry N      S def2-SVP             selected for orbital group  1
 Library entry N      P def2-SVP             selected for orbital group  1
 Library entry N      D def2-SVP             selected for orbital group  1
 Library entry O      S def2-SVP             selected for orbital group  2
 Library entry O      P def2-SVP             selected for orbital group  2
 Library entry O      D def2-SVP             selected for orbital group  2
 Library entry H      S def2-SVP             selected for orbital group  3
 Library entry H      P def2-SVP             selected for orbital group  3


 PROGRAM * SEWARD (Integral evaluation for generally contracted gaussian basis sets)     Author: Roland Lindh, 1990

 Geometry written to block  1 of record 700


 Point group  C1  



 ATOMIC COORDINATES

 NR  ATOM    CHARGE       X              Y              Z

   1  N       7.00   -2.174734619   -0.083015669   -0.193810311
   2  O       8.00    2.228346149   -0.175177612   -0.019445282
   3  H       1.00   -2.462672188   -1.034889615    1.448607355
   4  H       1.00   -2.530173205    1.768424605    0.173571345
   5  H       1.00   -0.057995695   -0.290696570   -0.667413473
   6  H       1.00    2.447214229    1.539654360    0.557450309

 Bond lengths in Bohr (Angstrom)

 1-3  1.920028084  1-4  1.920712617  1-5  2.178994030  2-5  2.379194492  2-6  1.822460000
     ( 1.016035107)     ( 1.016397345)     ( 1.153073983)     ( 1.259015506)     ( 0.964404300)

 Bond angles

  1-5-2  150.42324021   3-1-4  106.64915541   3-1-5  106.52018847   4-1-5  108.25306682

  5-2-6  104.31811532

 NUCLEAR CHARGE:                   19
 NUMBER OF PRIMITIVE AOS:          78
 NUMBER OF SYMMETRY AOS:           76
 NUMBER OF CONTRACTIONS:           48   (  48A   )
 NUMBER OF CORE ORBITALS:           2   (   2A   )
 NUMBER OF VALENCE ORBITALS:       12   (  12A   )


 NUCLEAR REPULSION ENERGY   37.13893784


 Eigenvalues of metric

         1 0.234E-01 0.366E-01 0.559E-01 0.732E-01 0.121E+00 0.138E+00 0.149E+00 0.165E+00


 Contracted 2-electron integrals neglected if value below      1.0D-11
 AO integral compression algorithm  1   Integral accuracy      1.0D-11

     3.670 MB (compressed) written to integral file ( 52.7%)


 NUMBER OF SORTED TWO-ELECTRON INTEGRALS:     692076.     BUFFER LENGTH:  32768
 NUMBER OF SEGMENTS:   1  SEGMENT LENGTH:     692076      RECORD LENGTH: 524288

 Memory used in sort:       1.25 MW

 SORT1 READ      832256. AND WROTE      671571. INTEGRALS IN      2 RECORDS. CPU TIME:     0.01 SEC, REAL TIME:     0.03 SEC
 SORT2 READ      671571. AND WROTE      692076. INTEGRALS IN     14 RECORDS. CPU TIME:     0.05 SEC, REAL TIME:     0.05 SEC

 FILE SIZES:   FILE 1:    33.8 MBYTE,  FILE 4:     8.4 MBYTE,   TOTAL:     42.2 MBYTE

 OPERATOR DM      FOR CENTER  0  COORDINATES:    0.000000    0.000000    0.000000


 **********************************************************************************************************************************
 DATASETS  * FILE   NREC   LENGTH (MB)   RECORD NAMES
              1      19       32.97       500      610      700      900      950      970     1000      129      960     1100   
                                          VAR    BASINP    GEOM    SYMINP    ZMAT    AOBASIS   BASIS     P2S    ABASIS      S 
                                         1400     1410     1200     1210     1080     1600     1650     1300     1700   
                                           T        V       H0       H01     AOSYM     SMH    MOLCAS    ERIS     OPER   

 PROGRAMS   *        TOTAL       INT
 CPU TIMES  *         0.48      0.35
 REAL TIME  *         0.83 SEC
 DISK USED  *        42.57 MB      
 **********************************************************************************************************************************

 Density functional group B-LYP=B88+LYP
 Functional: B88(Automatically generated (new) B88)                            Gradient terms: 1
 Functional: LYP(Automatically generated (new) LYP)                            Gradient terms: 1
 Use grid at  1800.2

 Functional: B88                       Factor:  1.0000
 Functional: LYP                       Factor:  1.0000

 Generated new metagrid on record  1800.2 with target accuracy 1.0D-06 and 21844 points in CPU time    0.5
 Computed new grid on record 1800.1 in CPU time    0.5
   42026 words reserved for DFT integration

 PROGRAM * RKS-SCF (Restricted open shell Kohn-Sham)     Authors: W. Meyer, H.-J. Werner, P.J. Knowles, 1993

 NUMBER OF ELECTRONS:      10+    9-    SPACE SYMMETRY=1    SPIN SYMMETRY: Doublet 
 CONVERGENCE THRESHOLDS:    1.00E-05 (Density)    1.00E-06 (Energy)
 MAX. NUMBER OF ITERATIONS:       60
 INTERPOLATION TYPE:            DIIS
 INTERPOLATION STEPS:              2 (START)      1 (STEP)
 LEVEL SHIFTS:                 -0.60 (CLOSED) -0.30 (OPEN) 



 Use fine grid record 1800.2 for energy threshold  1.0D-06
 Orbital guess generated from atomic densities. Full valence occupancy:   10

 Molecular orbital dump at record        2100.2

 Initial alpha occupancy:  10
 Initial beta  occupancy:   9
 Wave function symmetry:    1

 ITERATION    DDIFF          GRAD             ENERGY        2-EL.EN.            DIPOLE MOMENTS         DIIS   ORB.
    1      0.000D+00      0.000D+00      -132.02939984    210.407976   -1.40631    1.17544    0.84531    0    start
    2      0.000D+00      0.185D-01      -132.08930852    199.605132   -0.20416    0.65335    0.59423    1    diag,B
    3      0.217D-01      0.142D-01      -132.14513830    203.315915   -0.83337    0.78862    0.59228    2    diag,B
    4      0.958D-02      0.256D-02      -132.14813181    203.336859   -0.58657    0.77198    0.61082    3    diag,B
    5      0.221D-02      0.108D-02      -132.14887091    203.293219   -0.56109    0.75212    0.58974    4    diag,B
    6      0.131D-02      0.295D-03      -132.14902615    203.276878   -0.53001    0.74457    0.58231    5    diag,B
    7      0.714D-03      0.115D-03      -132.14906240    203.267877   -0.51526    0.74339    0.58015    6    fixocc
    8      0.337D-03      0.520D-04      -132.14907188    203.267360   -0.50857    0.74379    0.57970    7    diag,B
    9      0.161D-03      0.216D-04      -132.14907498    203.267147   -0.50584    0.74430    0.57964    8    diag,B
   10      0.854D-04      0.105D-04      -132.14907653    203.267127   -0.50490    0.74453    0.57954    9    orth
   11      0.545D-04      0.715D-05      -132.14907757    203.267227   -0.50460    0.74461    0.57938    9    diag,B
   12      0.521D-04      0.464D-05      -132.14907821    203.267426   -0.50425    0.74461    0.57908    9    diag,B
   13      0.631D-04      0.192D-05      -132.14907828    203.267540   -0.50426    0.74458    0.57894    9    diag,B
   14      0.229D-04      0.779D-06      -132.14907828    203.267618   -0.50430    0.74457    0.57891    9    diag,B
   15      0.405D-05      0.401D-06      -132.14907828    203.267604   -0.50433    0.74457    0.57890    0    orth

 Final alpha occupancy:  10
 Final beta  occupancy:   9

 !RKS STATE 1.1 Energy               -132.149078281163
 Nuclear energy                        37.13893784
 One-electron energy                 -254.02050864
 Two-electron energy                  101.63380193
 Density functional                   -16.90130941     B88=-16.26710958 LYP= -0.63419983
 Virial quotient                       -1.00658528
 !RKS STATE 1.1 Dipole moment          -0.50432965     0.74457278     0.57889917
 Dipole moment /Debye                  -1.28179416     1.89239129     1.47131855

 Orbital energies:

         1.1          2.1          3.1          4.1          5.1          6.1          7.1          8.1          9.1         10.1
    -18.763494   -14.032955    -0.848303    -0.760333    -0.442759    -0.429544    -0.338456    -0.260576    -0.217708    -0.221422

        11.1         12.1
      0.015481     0.070406

 HOMO     10.1    -0.221422 =      -6.0252eV
 LUMO     11.1     0.015481 =       0.4213eV
 LUMO-HOMO         0.236904 =       6.4465eV


 **********************************************************************************************************************************
 DATASETS  * FILE   NREC   LENGTH (MB)   RECORD NAMES
              1      20       33.67       500      610      700      900      950      970     1000      129      960     1100   
                                          VAR    BASINP    GEOM    SYMINP    ZMAT    AOBASIS   BASIS     P2S    ABASIS      S 
                                         1400     1410     1200     1210     1080     1600     1650     1300     1700     1800   
                                           T        V       H0       H01     AOSYM     SMH    MOLCAS    ERIS     OPER     GRID   

              2       5        2.90       700     1000      520     1800     2100   
                                         GEOM     BASIS   MCVARS    GRID      RKS  

 PROGRAMS   *        TOTAL        KS       INT
 CPU TIMES  *         3.86      3.38      0.35
 REAL TIME  *         4.31 SEC
 DISK USED  *        42.57 MB      
 **********************************************************************************************************************************


 PROGRAM * Intrinsic Basis Bonding Analysis (IBBA)          Author: G. Knizia

 Molecular orbitals read from record     2100.2  Type=RKS/CANONICAL (state 1.1)
 Fock matrix read from record            2100.2  Type=RKS/TOTAL (state 1.1)
 Orbital energies read from record       2100.2  Type=RKS/CANONICAL (state 1.1)
 Density matrix read from record         2100.2  Type=RKS/CHARGE (state 1.1)

 Number of core orbitals:           2 (   2 )
 Number of closed-shell orbitals:   7 (   7 )
 Number of active  orbitals:        1 (   1 )

 Basis set MINAO-AUTO-PP generated.      Number of basis functions:   14 

 Polarized AO type:                A = (O Ot + (1-O)(1-Ot)) P12
 Orthogonalization method:         Symmetric (Loewdin)
 Localization functional:          L = sum[A,i] <i|n_A|i>^4 -> max

 Localization group 1:   9 orbitals, occupancy  2.000
 Iterative localization: IB/PM,    7 iter; Final gradient 0.42E-08

 Bond order analysis:       [THRPRINT= 0.020]

   CEN ATOM   CEN ATOM     WIBERG.BO      RENORM.BO
     1   N  -   4   H       0.941762       0.999800
     1   N  -   3   H       0.936538       0.999555
     1   N  -   2   O       0.870218       1.021329
     1   N  -   5   H       0.563560       0.707570

     2   O  -   6   H       0.897395       0.999748
     2   O  -   1   N       0.870218       1.021329
     2   O  -   5   H       0.358640       0.447342

     3   H  -   1   N       0.936538       0.999555

     4   H  -   1   N       0.941762       0.999800

     5   H  -   1   N       0.563560       0.707570
     5   H  -   2   O       0.358640       0.447342

     6   H  -   2   O       0.897395       0.999748


 Valency analysis:

   CEN ATOM   TOT.VALENCE
     1   N       3.312367
     2   O       2.126569
     3   H       0.937361
     4   H       0.942394
     5   H       0.923262
     6   H       0.897842
 Localization group 2:   1 orbitals, occupancy  1.000
 Iterative localization: IB/PM,    1 iter; Final gradient 0.00E+00

 Bond order analysis:       [THRPRINT= 0.020]

   CEN ATOM   CEN ATOM     WIBERG.BO      RENORM.BO
     1   N  -   2   O       0.497973       0.500000

     2   O  -   1   N       0.497973       0.500000






 Valency analysis:

   CEN ATOM   TOT.VALENCE
     1   N       0.499982
     2   O       0.499949
     3   H       0.000355
     4   H       0.000872
     5   H       0.000613
     6   H       0.002150

 Total charge composition:

   CEN ATOM         s          p       ELECTRONS ->P.CHARGE
     1   N       3.44707    4.07717      7.52424   -0.52424
     2   O       3.73959    4.82110      8.56069   -0.56069
     3   H       0.74990                 0.74990    0.25010
     4   H       0.76042                 0.76042    0.23958
     5   H       0.72329                 0.72329    0.27671
     6   H       0.68145                 0.68145    0.31855

 Total charge composition, AO contributions:

   CEN ATOM SHL      SPHERICAL COMPONENTS
     1   N  1s       1.99497
     1   N  2s       1.45210
     1   N  2p       1.26525    1.30451    1.50741

     2   O  1s       1.99785
     2   O  2s       1.74173
     2   O  2p       1.36797    1.56115    1.89198

     3   H  1s       0.74990

     4   H  1s       0.76042

     5   H  1s       0.72329

     6   H  1s       0.68145

 Active orbital charges:

   CEN ATOM         s          p       ELECTRONS ->SPIN.DEN
     1   N       0.00066    0.50238      0.50304    0.50304
     2   O       0.00037    0.49460      0.49497    0.49497
     3   H       0.00018                 0.00018    0.00018
     4   H       0.00044                 0.00044    0.00044
     5   H       0.00031                 0.00031    0.00031
     6   H       0.00108                 0.00108    0.00108

 Active orbital charges, AO contributions:

   CEN ATOM SHL      SPHERICAL COMPONENTS
     1   N  1s       0.00000
     1   N  2s       0.00065
     1   N  2p       0.41764    0.01626    0.06849

     2   O  1s       0.00001
     2   O  2s       0.00036
     2   O  2p       0.46369    0.00400    0.02691

     3   H  1s       0.00018

     4   H  1s       0.00044

     5   H  1s       0.00031

     6   H  1s       0.00108

 Summary of localized orbital composition:   [THRPRINT= 0.020]

   ORB  GRP  ORB.ENERGY      CENTERS/CHARGES
     1   1   -18.650884      O  2   2.000
     2   1   -13.902381      N  1   2.000
     3   1    -0.677090      O  2   1.320   H  6   0.679
     4   1    -0.594258      N  1   1.240   H  4   0.759
     5   1    -0.589861      N  1   1.251   H  3   0.749
     6   1    -0.520335      O  2   1.868   H  5   0.084   N  1   0.048
     7   1    -0.438852      O  2   0.785   N  1   0.758   H  5   0.455
     8   1    -0.416392      N  1   1.724   H  5   0.184   O  2   0.092
     9   1    -0.304078      O  2   2.000
    10   2    -0.193268      N  1   0.503   O  2   0.495

 Localized orbitals saved to record      2100.2  (orbital set 2)


 **********************************************************************************************************************************
 DATASETS  * FILE   NREC   LENGTH (MB)   RECORD NAMES
              1      20       33.67       500      610      700      900      950      970     1000      129      960     1100   
                                          VAR    BASINP    GEOM    SYMINP    ZMAT    AOBASIS   BASIS     P2S    ABASIS      S 
                                         1400     1410     1200     1210     1080     1600     1650     1300     1700     1800   
                                           T        V       H0       H01     AOSYM     SMH    MOLCAS    ERIS     OPER     GRID   

              2       5        2.93       700     1000      520     1800     2100   
                                         GEOM     BASIS   MCVARS    GRID      RKS  

 PROGRAMS   *        TOTAL      IBBA        KS       INT
 CPU TIMES  *         3.88      0.02      3.38      0.35
 REAL TIME  *         4.37 SEC
 DISK USED  *        42.57 MB      
 **********************************************************************************************************************************
 Molecular orbitals read from record     2100.2  Type=RKS/LOCAL(IBO)  
 Occupation numbers read from record     2100.2  Type=RKS/LOCAL(IBO)  
 Orbital energies read from record       2100.2  Type=RKS/LOCAL(IBO)  
 Redundancy group numbers read from rec  2100.2  Type=RKS/LOCAL(IBO)  

 IBBA/SVP energy=      0.000000000000

        KS-SCF  
   -132.14907828
 **********************************************************************************************************************************
 Molpro calculation terminated
