
 Primary working directories    : /local
 Secondary working directories  : /local
 Wavefunction directory         : /local/
 Main file repository           : /local/

 SHA1      : b4a5b34a9e711420743f49e6833241d17c61fb3c
 NAME      : 2099.9.b4a5b34
 ARCHNAME  : linux/x86_64_openmp
 FC        : /cm/shared/languages/GCC-6.1/bin/gfortran
 BLASLIB   : -lblas
 id        : simonbennie

 Nodes     nprocs
 node32-028    1

 Using customized tuning parameters: mindgm=1; mindgv=20; mindgc=4; mindgr=1; noblas=0; minvec=7
 default implementation of scratch files=df  

 memory,500,m
 geomtyp=xyz
 nosym
 noorient
 geometry={
 N         -1.15082       -0.04393       -0.10256
 O          1.17919       -0.09270       -0.01029
 H         -1.30319       -0.54764        0.76657
 H         -1.33891        0.93581        0.09185
 H         -0.03069       -0.15383       -0.35318
 H          1.29501        0.81475        0.29499
 }
 basis={ default,svp }
 {uks,MM05,direct;wf,19,1,1}
 {ibba,bonds=1}

 Variables initialized (895), CPU time= 0.00 sec
 Commands  initialized (725), CPU time= 0.02 sec, 591 directives.
 Default parameters read. Elapsed time= 0.06 sec

 Checking input...
 Passed
1


                                         ***  PROGRAM SYSTEM MOLPRO  ***
                                       Copyright, TTI GmbH Stuttgart, 2015
                                    Version 2099.9 linked May 26 2017 16:03:21


 **********************************************************************************************************************************
 LABEL *                                                                                 
  64 bit serial version                                                                  DATE: 24-Jun-17          TIME: 14:54:19  
 **********************************************************************************************************************************

 SHA1:             b4a5b34a9e711420743f49e6833241d17c61fb3c
 **********************************************************************************************************************************
 SETTING GEOMTYP        =    XYZ

 Variable memory set to  500000000 words,  buffer space 

 ZSYMEL=NOSYM

 SETTING BASIS          =    SVP


 Recomputing integrals since basis changed


 Using spherical harmonics

 Library entry N      S def2-SVP             selected for orbital group  1
 Library entry N      P def2-SVP             selected for orbital group  1
 Library entry N      D def2-SVP             selected for orbital group  1
 Library entry O      S def2-SVP             selected for orbital group  2
 Library entry O      P def2-SVP             selected for orbital group  2
 Library entry O      D def2-SVP             selected for orbital group  2
 Library entry H      S def2-SVP             selected for orbital group  3
 Library entry H      P def2-SVP             selected for orbital group  3


 PROGRAM * SEWARD (Integral evaluation for generally contracted gaussian basis sets)     Author: Roland Lindh, 1990

 Geometry written to block  1 of record 700


 Point group  C1  



 ATOMIC COORDINATES

 NR  ATOM    CHARGE       X              Y              Z

   1  N       7.00   -2.174734619   -0.083015669   -0.193810311
   2  O       8.00    2.228346149   -0.175177612   -0.019445282
   3  H       1.00   -2.462672188   -1.034889615    1.448607355
   4  H       1.00   -2.530173205    1.768424605    0.173571345
   5  H       1.00   -0.057995695   -0.290696570   -0.667413473
   6  H       1.00    2.447214229    1.539654360    0.557450309

 Bond lengths in Bohr (Angstrom)

 1-3  1.920028084  1-4  1.920712617  1-5  2.178994030  2-5  2.379194492  2-6  1.822460000
     ( 1.016035107)     ( 1.016397345)     ( 1.153073983)     ( 1.259015506)     ( 0.964404300)

 Bond angles

  1-5-2  150.42324021   3-1-4  106.64915541   3-1-5  106.52018847   4-1-5  108.25306682

  5-2-6  104.31811532

 NUCLEAR CHARGE:                   19
 NUMBER OF PRIMITIVE AOS:          78
 NUMBER OF SYMMETRY AOS:           76
 NUMBER OF CONTRACTIONS:           48   (  48A   )
 NUMBER OF CORE ORBITALS:           2   (   2A   )
 NUMBER OF VALENCE ORBITALS:       12   (  12A   )


 NUCLEAR REPULSION ENERGY   37.13893784


 Eigenvalues of metric

         1 0.234E-01 0.366E-01 0.559E-01 0.732E-01 0.121E+00 0.138E+00 0.149E+00 0.165E+00


 Contracted 2-electron integrals neglected if value below      1.0D-11
 AO integral compression algorithm  1   Integral accuracy      1.0D-11

     3.670 MB (compressed) written to integral file ( 52.7%)


 NUMBER OF SORTED TWO-ELECTRON INTEGRALS:     692076.     BUFFER LENGTH:  32768
 NUMBER OF SEGMENTS:   1  SEGMENT LENGTH:     692076      RECORD LENGTH: 524288

 Memory used in sort:       1.25 MW

 SORT1 READ      832256. AND WROTE      671571. INTEGRALS IN      2 RECORDS. CPU TIME:     0.01 SEC, REAL TIME:     0.02 SEC
 SORT2 READ      671571. AND WROTE      692076. INTEGRALS IN     14 RECORDS. CPU TIME:     0.04 SEC, REAL TIME:     0.05 SEC

 FILE SIZES:   FILE 1:    33.8 MBYTE,  FILE 4:     8.4 MBYTE,   TOTAL:     42.2 MBYTE

 OPERATOR DM      FOR CENTER  0  COORDINATES:    0.000000    0.000000    0.000000


 **********************************************************************************************************************************
 DATASETS  * FILE   NREC   LENGTH (MB)   RECORD NAMES
              1      19       32.97       500      610      700      900      950      970     1000      129      960     1100   
                                          VAR    BASINP    GEOM    SYMINP    ZMAT    AOBASIS   BASIS     P2S    ABASIS      S 
                                         1400     1410     1200     1210     1080     1600     1650     1300     1700   
                                           T        V       H0       H01     AOSYM     SMH    MOLCAS    ERIS     OPER   

 PROGRAMS   *        TOTAL       INT
 CPU TIMES  *         0.50      0.35
 REAL TIME  *         0.82 SEC
 DISK USED  *        42.57 MB      
 **********************************************************************************************************************************

 Density functional group MM05=M05X+M05C
 Functional: M05X(Automatically generated (new) M05X)                          Gradient terms: 2
 Functional: M05C(Automatically generated (new) M05C)                          Gradient terms: 2
 Use grid at  1800.2


 Exact exchange will be calculated, factor:  0.2800

 Functional: M05X                      Factor:  0.7200
 Functional: M05C                      Factor:  1.0000

 Generated new metagrid on record  1800.2 with target accuracy 1.0D-06 and 21844 points in CPU time    0.5
 Computed new grid on record 1800.1 in CPU time    0.5
   78602 words reserved for DFT integration

 PROGRAM * UKS-SCF (Unrestricted Kohn-Sham)     Authors: W. Meyer, H.-J. Werner, P.J. Knowles, 1993

 NUMBER OF ELECTRONS:      10+    9-    SPACE SYMMETRY=1    SPIN SYMMETRY: Doublet 
 CONVERGENCE THRESHOLDS:    1.00E-05 (Density)    1.00E-06 (Energy)
 MAX. NUMBER OF ITERATIONS:       60
 INTERPOLATION TYPE:            DIIS
 INTERPOLATION STEPS:              2 (START)      1 (STEP)
 LEVEL SHIFTS:                 -0.20 (ALPHA)  -0.20 (BETA) 



 Use fine grid record 1800.2 for energy threshold  1.0D-06
 Orbital guess generated from atomic densities. Full valence occupancy:   10

 Molecular orbital dump at record        2200.2

 Initial alpha occupation  10
 Initial beta  occupation   9

 ITERATION    DDIFF          GRAD             ENERGY        2-EL.EN.            DIPOLE MOMENTS         DIIS
    1      0.000D+00      0.000D+00      -131.99919944    199.966051   -1.63866    1.18538    0.82348    0
    2      0.181D-01      0.101D-01      -132.06276073    191.873406   -0.82045    0.70281    0.60104    1
    3      0.694D-02      0.675D-02      -132.09432166    194.379977   -1.01053    0.79833    0.60546    2
    4      0.123D-02      0.829D-03      -132.09584683    194.424102   -0.88399    0.78391    0.60919    3
    5      0.114D-02      0.571D-03      -132.09697333    194.357944   -0.79852    0.76934    0.59732    4
    6      0.116D-02      0.352D-03      -132.09787388    194.310505   -0.67477    0.76841    0.60024    5
    7      0.126D-02      0.256D-03      -132.09838697    194.269458   -0.57701    0.77410    0.60419    6
    8      0.661D-03      0.883D-04      -132.09847711    194.255900   -0.52520    0.77816    0.60805    7
    9      0.160D-03      0.273D-04      -132.09848206    194.252368   -0.51423    0.77932    0.60922    8
   10      0.247D-04      0.722D-05      -132.09848235    194.251960   -0.51301    0.77940    0.60935    8
   11      0.915D-05      0.333D-05      -132.09848242    194.251991   -0.51285    0.77940    0.60940    8
   12      0.562D-05      0.214D-05      -132.09848246    194.251958   -0.51295    0.77939    0.60942    8

 Final alpha occupancy:  10
 Final beta  occupancy:   9

 !UKS STATE 1.1 Energy               -132.098482455549
 Nuclear energy                        37.13893784
 One-electron energy                 -254.03232940
 Two-electron energy                   97.12597883
 Density functional                   -12.33106973     M05X=-16.27172915 M05C= -0.61542475
 Virial quotient                       -1.00623210
 !UKS STATE 1.1 Dipole moment          -0.51295468     0.77938745     0.60942333
 Dipole moment /Debye                  -1.30371536     1.98087555     1.54889816

 Orbital energies for positive spin:

         1.1          2.1          3.1          4.1          5.1          6.1          7.1          8.1          9.1         10.1
    -19.172037   -14.389751    -0.993381    -0.885090    -0.530725    -0.507211    -0.429599    -0.353806    -0.310927    -0.296068

        11.1         12.1
      0.044759     0.104071

 Orbital energies for negative spin:

         1.1          2.1          3.1          4.1          5.1          6.1          7.1          8.1          9.1         10.1
    -19.163297   -14.382216    -0.949051    -0.848397    -0.504038    -0.492521    -0.401056    -0.294609    -0.283584    -0.127420

        11.1         12.1
      0.050861     0.111054

 HOMO     -9.1    -0.283584 =      -7.7167eV
 LUMO    -10.1    -0.127420 =      -3.4673eV
 LUMO-HOMO         0.156164 =       4.2495eV

 EXPECTATION VALUE OF S**2:             0.75744708

 Occupation number threshold for canonical orbitals:  1.999000 (occupied),  0.001000 (virtual)

 Number of pseudo-canonical orbitals per symmetry:    8
 Number of active natural orbitals per symmetry:      3

 Natural orbitals saved to record    2200.2 (Orbital set 3)

 Orbital spaces for UNO-CAS (Min. occupation: 0.020  Max. occupation: 1.980):

 Closed:        9
 Active:        1


 **********************************************************************************************************************************
 DATASETS  * FILE   NREC   LENGTH (MB)   RECORD NAMES
              1      20       33.67       500      610      700      900      950      970     1000      129      960     1100   
                                          VAR    BASINP    GEOM    SYMINP    ZMAT    AOBASIS   BASIS     P2S    ABASIS      S 
                                         1400     1410     1200     1210     1080     1600     1650     1300     1700     1800   
                                           T        V       H0       H01     AOSYM     SMH    MOLCAS    ERIS     OPER     GRID   

              2       5        2.94       700     1000      520     1800     2200   
                                         GEOM     BASIS   MCVARS    GRID      UKS  

 PROGRAMS   *        TOTAL       UKS       INT
 CPU TIMES  *        10.86     10.36      0.35
 REAL TIME  *        11.52 SEC
 DISK USED  *        42.57 MB      
 **********************************************************************************************************************************


 PROGRAM * Intrinsic Basis Bonding Analysis (IBBA)          Author: G. Knizia

 Molecular orbitals read from record     2200.2  Type=UKS/ALPHA (state 1.1)
 Fock matrix read from record            2200.2  Type=UKS/TOTAL (state 1.1)
 Orbital energies read from record       2200.2  Type=UKS/ALPHA (state 1.1)
 Density matrix read from record         2200.2  Type=UKS/CHARGE (state 1.1)

 Number of core orbitals:           2 (   2 )
 Number of closed-shell orbitals:   7 (   7 )
 Number of active  orbitals:        1 (   1 )

 Basis set MINAO-AUTO-PP generated.      Number of basis functions:   14 

 Polarized AO type:                A = (O Ot + (1-O)(1-Ot)) P12
 Orthogonalization method:         Symmetric (Loewdin)
 Localization functional:          L = sum[A,i] <i|n_A|i>^4 -> max

 Localization group 1:   9 orbitals, occupancy  2.000
 Iterative localization: IB/PM,    7 iter; Final gradient 0.55E-08

 Bond order analysis:       [THRPRINT= 0.020]

   CEN ATOM   CEN ATOM     WIBERG.BO      RENORM.BO
     1   N  -   4   H       0.925784       0.999861
     1   N  -   3   H       0.919395       0.999683
     1   N  -   2   O       0.870570       1.019499
     1   N  -   5   H       0.538621       0.708883

     2   O  -   6   H       0.874081       0.999707
     2   O  -   1   N       0.870570       1.019499
     2   O  -   5   H       0.351463       0.408995

     3   H  -   1   N       0.919395       0.999683

     4   H  -   1   N       0.925784       0.999861

     5   H  -   1   N       0.538621       0.708883
     5   H  -   2   O       0.351463       0.408995

     6   H  -   2   O       0.874081       0.999707


 Valency analysis:

   CEN ATOM   TOT.VALENCE
     1   N       3.254451
     2   O       2.096597
     3   H       0.920369
     4   H       0.926533
     5   H       0.891188
     6   H       0.874305
 Localization group 2:   1 orbitals, occupancy  1.000
 Iterative localization: IB/PM,    1 iter; Final gradient 0.00E+00

 Bond order analysis:       [THRPRINT= 0.020]

   CEN ATOM   CEN ATOM     WIBERG.BO      RENORM.BO
     1   N  -   2   O       0.479305       0.500000

     2   O  -   1   N       0.479305       0.500000






 Valency analysis:

   CEN ATOM   TOT.VALENCE
     1   N       0.481635
     2   O       0.480878
     3   H       0.000024
     4   H       0.000218
     5   H       0.001686
     6   H       0.001979

 Total charge composition:

   CEN ATOM         s          p       ELECTRONS ->P.CHARGE
     1   N       3.45692    4.06752      7.52445   -0.52445
     2   O       3.74456    4.96668      8.71124   -0.71124
     3   H       0.71782                 0.71782    0.28218
     4   H       0.72906                 0.72906    0.27094
     5   H       0.67098                 0.67098    0.32902
     6   H       0.64646                 0.64646    0.35354

 Total charge composition, AO contributions:

   CEN ATOM SHL      SPHERICAL COMPONENTS
     1   N  1s       1.99476
     1   N  2s       1.46217
     1   N  2p       1.24415    1.32760    1.49577

     2   O  1s       1.99776
     2   O  2s       1.74680
     2   O  2p       1.47753    1.59007    1.89909

     3   H  1s       0.71782

     4   H  1s       0.72906

     5   H  1s       0.67098

     6   H  1s       0.64646

 Active orbital charges:

   CEN ATOM         s          p       ELECTRONS ->SPIN.DEN
     1   N       0.00322    0.59260      0.59583    0.59583
     2   O       0.00069    0.40153      0.40222    0.40222
     3   H       0.00001                 0.00001    0.00001
     4   H       0.00011                 0.00011    0.00011
     5   H       0.00084                 0.00084    0.00084
     6   H       0.00099                 0.00099    0.00099

 Active orbital charges, AO contributions:

   CEN ATOM SHL      SPHERICAL COMPONENTS
     1   N  1s       0.00000
     1   N  2s       0.00322
     1   N  2p       0.46698    0.02351    0.10212

     2   O  1s       0.00001
     2   O  2s       0.00068
     2   O  2p       0.37426    0.00155    0.02572

     3   H  1s       0.00001

     4   H  1s       0.00011

     5   H  1s       0.00084

     6   H  1s       0.00099

 Summary of localized orbital composition:   [THRPRINT= 0.020]

   ORB  GRP  ORB.ENERGY      CENTERS/CHARGES
     1   1   -19.047145      O  2   2.000
     2   1   -14.248666      N  1   2.000
     3   1    -0.781261      O  2   1.355   H  6   0.645
     4   1    -0.681868      N  1   1.271   H  4   0.728
     5   1    -0.677151      N  1   1.283   H  3   0.717
     6   1    -0.608084      O  2   1.877   H  5   0.079   N  1   0.044
     7   1    -0.521092      N  1   1.692   H  5   0.250   O  2   0.057
     8   1    -0.476854      O  2   1.020   N  1   0.639   H  5   0.340
     9   1    -0.397684      O  2   2.000
    10   2    -0.212464      N  1   0.596   O  2   0.402

 Localized orbitals saved to record      2200.2  (orbital set 4)


 **********************************************************************************************************************************
 DATASETS  * FILE   NREC   LENGTH (MB)   RECORD NAMES
              1      20       33.67       500      610      700      900      950      970     1000      129      960     1100   
                                          VAR    BASINP    GEOM    SYMINP    ZMAT    AOBASIS   BASIS     P2S    ABASIS      S 
                                         1400     1410     1200     1210     1080     1600     1650     1300     1700     1800   
                                           T        V       H0       H01     AOSYM     SMH    MOLCAS    ERIS     OPER     GRID   

              2       5        2.96       700     1000      520     1800     2200   
                                         GEOM     BASIS   MCVARS    GRID      UKS  

 PROGRAMS   *        TOTAL      IBBA       UKS       INT
 CPU TIMES  *        10.88      0.02     10.36      0.35
 REAL TIME  *        11.58 SEC
 DISK USED  *        42.57 MB      
 **********************************************************************************************************************************
 Molecular orbitals read from record     2200.2  Type=UKS/LOCAL(IBO)  
 Occupation numbers read from record     2200.2  Type=UKS/LOCAL(IBO)  
 Orbital energies read from record       2200.2  Type=UKS/LOCAL(IBO)  
 Redundancy group numbers read from rec  2200.2  Type=UKS/BETA (state 1.1)

 IBBA/SVP energy=      0.000000000000

        UKS-SCF 
   -132.09848246
 **********************************************************************************************************************************
 Molpro calculation terminated
