
 Primary working directories    : /local
 Secondary working directories  : /local
 Wavefunction directory         : /local/
 Main file repository           : /local/

 SHA1      : b4a5b34a9e711420743f49e6833241d17c61fb3c
 NAME      : 2099.9.b4a5b34
 ARCHNAME  : linux/x86_64_openmp
 FC        : /cm/shared/languages/GCC-6.1/bin/gfortran
 BLASLIB   : -lblas
 id        : simonbennie

 Nodes     nprocs
 node34-001    1

 Using customized tuning parameters: mindgm=1; mindgv=20; mindgc=4; mindgr=1; noblas=0; minvec=7
 default implementation of scratch files=df  

 memory,500,m
 geomtyp=xyz
 nosym
 noorient
 geometry={
 N         -1.15082       -0.04393       -0.10256
 O          1.17919       -0.09270       -0.01029
 H         -1.30319       -0.54764        0.76657
 H         -1.33891        0.93581        0.09185
 H         -0.03069       -0.15383       -0.35318
 H          1.29501        0.81475        0.29499
 }
 basis={ default,svp }
 {uks,LSDC,direct;wf,19,1,1}
 {ibba,bonds=1}

 Variables initialized (895), CPU time= 0.00 sec
 Commands  initialized (725), CPU time= 0.01 sec, 591 directives.
 Default parameters read. Elapsed time= 0.07 sec

 Checking input...
 Passed
1


                                         ***  PROGRAM SYSTEM MOLPRO  ***
                                       Copyright, TTI GmbH Stuttgart, 2015
                                    Version 2099.9 linked May 26 2017 16:03:21


 **********************************************************************************************************************************
 LABEL *                                                                                 
  64 bit serial version                                                                  DATE: 24-Jun-17          TIME: 14:57:27  
 **********************************************************************************************************************************

 SHA1:             b4a5b34a9e711420743f49e6833241d17c61fb3c
 **********************************************************************************************************************************
 SETTING GEOMTYP        =    XYZ

 Variable memory set to  500000000 words,  buffer space 

 ZSYMEL=NOSYM

 SETTING BASIS          =    SVP


 Recomputing integrals since basis changed


 Using spherical harmonics

 Library entry N      S def2-SVP             selected for orbital group  1
 Library entry N      P def2-SVP             selected for orbital group  1
 Library entry N      D def2-SVP             selected for orbital group  1
 Library entry O      S def2-SVP             selected for orbital group  2
 Library entry O      P def2-SVP             selected for orbital group  2
 Library entry O      D def2-SVP             selected for orbital group  2
 Library entry H      S def2-SVP             selected for orbital group  3
 Library entry H      P def2-SVP             selected for orbital group  3


 PROGRAM * SEWARD (Integral evaluation for generally contracted gaussian basis sets)     Author: Roland Lindh, 1990

 Geometry written to block  1 of record 700


 Point group  C1  



 ATOMIC COORDINATES

 NR  ATOM    CHARGE       X              Y              Z

   1  N       7.00   -2.174734619   -0.083015669   -0.193810311
   2  O       8.00    2.228346149   -0.175177612   -0.019445282
   3  H       1.00   -2.462672188   -1.034889615    1.448607355
   4  H       1.00   -2.530173205    1.768424605    0.173571345
   5  H       1.00   -0.057995695   -0.290696570   -0.667413473
   6  H       1.00    2.447214229    1.539654360    0.557450309

 Bond lengths in Bohr (Angstrom)

 1-3  1.920028084  1-4  1.920712617  1-5  2.178994030  2-5  2.379194492  2-6  1.822460000
     ( 1.016035107)     ( 1.016397345)     ( 1.153073983)     ( 1.259015506)     ( 0.964404300)

 Bond angles

  1-5-2  150.42324021   3-1-4  106.64915541   3-1-5  106.52018847   4-1-5  108.25306682

  5-2-6  104.31811532

 NUCLEAR CHARGE:                   19
 NUMBER OF PRIMITIVE AOS:          78
 NUMBER OF SYMMETRY AOS:           76
 NUMBER OF CONTRACTIONS:           48   (  48A   )
 NUMBER OF CORE ORBITALS:           2   (   2A   )
 NUMBER OF VALENCE ORBITALS:       12   (  12A   )


 NUCLEAR REPULSION ENERGY   37.13893784


 Eigenvalues of metric

         1 0.234E-01 0.366E-01 0.559E-01 0.732E-01 0.121E+00 0.138E+00 0.149E+00 0.165E+00


 Contracted 2-electron integrals neglected if value below      1.0D-11
 AO integral compression algorithm  1   Integral accuracy      1.0D-11

     3.670 MB (compressed) written to integral file ( 52.7%)


 NUMBER OF SORTED TWO-ELECTRON INTEGRALS:     692076.     BUFFER LENGTH:  32768
 NUMBER OF SEGMENTS:   1  SEGMENT LENGTH:     692076      RECORD LENGTH: 524288

 Memory used in sort:       1.25 MW

 SORT1 READ      832256. AND WROTE      671571. INTEGRALS IN      2 RECORDS. CPU TIME:     0.01 SEC, REAL TIME:     0.02 SEC
 SORT2 READ      671571. AND WROTE      692076. INTEGRALS IN     14 RECORDS. CPU TIME:     0.04 SEC, REAL TIME:     0.05 SEC

 FILE SIZES:   FILE 1:    33.8 MBYTE,  FILE 4:     8.4 MBYTE,   TOTAL:     42.2 MBYTE

 OPERATOR DM      FOR CENTER  0  COORDINATES:    0.000000    0.000000    0.000000


 **********************************************************************************************************************************
 DATASETS  * FILE   NREC   LENGTH (MB)   RECORD NAMES
              1      19       32.97       500      610      700      900      950      970     1000      129      960     1100   
                                          VAR    BASINP    GEOM    SYMINP    ZMAT    AOBASIS   BASIS     P2S    ABASIS      S 
                                         1400     1410     1200     1210     1080     1600     1650     1300     1700   
                                           T        V       H0       H01     AOSYM     SMH    MOLCAS    ERIS     OPER   

 PROGRAMS   *        TOTAL       INT
 CPU TIMES  *         0.48      0.34
 REAL TIME  *         0.80 SEC
 DISK USED  *        42.57 MB      
 **********************************************************************************************************************************

 Density functional group LSDC=PW92C
 Functional: PW92C(Automatically generated (new) PW92C)                        Gradient terms: 0
 Use grid at  1800.2

 Functional: PW92C                     Factor:  1.0000

 Generated new metagrid on record  1800.2 with target accuracy 1.0D-06 and 21844 points in CPU time    0.5
 Computed new grid on record 1800.1 in CPU time    0.5
   23738 words reserved for DFT integration

 PROGRAM * UKS-SCF (Unrestricted Kohn-Sham)     Authors: W. Meyer, H.-J. Werner, P.J. Knowles, 1993

 NUMBER OF ELECTRONS:      10+    9-    SPACE SYMMETRY=1    SPIN SYMMETRY: Doublet 
 CONVERGENCE THRESHOLDS:    1.00E-05 (Density)    1.00E-06 (Energy)
 MAX. NUMBER OF ITERATIONS:       60
 INTERPOLATION TYPE:            DIIS
 INTERPOLATION STEPS:              2 (START)      1 (STEP)
 LEVEL SHIFTS:                 -0.20 (ALPHA)  -0.20 (BETA) 



 Use fine grid record 1800.2 for energy threshold  1.0D-06
 Orbital guess generated from atomic densities. Full valence occupancy:   10

 Molecular orbital dump at record        2200.2

 Initial alpha occupation  10
 Initial beta  occupation   9

 ITERATION    DDIFF          GRAD             ENERGY        2-EL.EN.            DIPOLE MOMENTS         DIIS
    1      0.000D+00      0.000D+00      -115.90413401    169.872606    3.72495   -0.93486   -0.75653    0
    2      0.182D+00      0.301D-01      -115.57355297    209.837156   -2.27893    1.24285    0.70580    1
    3      0.511D-01      0.416D-01      -116.88409823    191.216488    0.44423    0.40740    0.34403    2
    4      0.873D-02      0.553D-02      -116.90675733    189.337176    0.11025    0.40173    0.24888    3
    5      0.821D-02      0.332D-02      -116.91949393    189.400515    0.24633    0.40758    0.30569    4
    6      0.168D-01      0.118D-02      -116.92974039    189.672114    0.04817    0.45290    0.37292    5
    7      0.124D-01      0.736D-03      -116.93490996    189.505714   -0.04662    0.43034    0.37286    6
    8      0.482D-02      0.361D-03      -116.93585323    189.585480   -0.11936    0.42958    0.38093    7
    9      0.188D-02      0.156D-03      -116.93601247    189.648506   -0.14847    0.42991    0.38439    8
   10      0.816D-03      0.489D-04      -116.93603378    189.655666   -0.16009    0.43026    0.38627    9
   11      0.136D-03      0.126D-04      -116.93603543    189.655056   -0.15992    0.43062    0.38738    8
   12      0.106D-03      0.687D-05      -116.93603599    189.657008   -0.15986    0.43079    0.38789    9
   13      0.488D-04      0.349D-05      -116.93603611    189.654617   -0.15974    0.43039    0.38792    8
   14      0.279D-04      0.185D-05      -116.93603614    189.655898   -0.15971    0.43045    0.38809    8
   15      0.147D-04      0.126D-05      -116.93603615    189.655667   -0.15980    0.43037    0.38809    9
   16      0.774D-05      0.965D-06      -116.93603615    189.655396   -0.15976    0.43029    0.38808    9
   17      0.375D-05      0.403D-06      -116.93603615    189.655343   -0.15977    0.43028    0.38808    9

 Final alpha occupancy:  10
 Final beta  occupancy:   9

 !UKS STATE 1.1 Energy               -116.936036151920
 Nuclear energy                        37.13893784
 One-electron energy                 -247.71085279
 Two-electron energy                   94.82767130
 Density functional                    -1.19179250     PW92C=-1.19179250
 Virial quotient                       -0.94516210
 !UKS STATE 1.1 Dipole moment          -0.15976519     0.43028106     0.38807653
 Dipole moment /Debye                  -0.40605602     1.09359375     0.98632754

 Orbital energies for positive spin:

         1.1          2.1          3.1          4.1          5.1          6.1          7.1          8.1          9.1         10.1
    -16.595444   -12.090309    -0.488063    -0.401995    -0.145572    -0.124606    -0.021434     0.034638     0.097533     0.110105

        11.1         12.1
      0.176124     0.244193

 Orbital energies for negative spin:

         1.1          2.1          3.1          4.1          5.1          6.1          7.1          8.1          9.1         10.1
    -16.596770   -12.091398    -0.493213    -0.406566    -0.149243    -0.127243    -0.025877     0.028498     0.094152     0.099858

        11.1         12.1
      0.173189     0.240822

 HOMO     10.1     0.110105 =       2.9961eV
 LUMO    -10.1     0.099858 =       2.7173eV
 LUMO-HOMO        -0.010247 =      -0.2788eV

 EXPECTATION VALUE OF S**2:             0.75007886

 Occupation number threshold for canonical orbitals:  1.999000 (occupied),  0.001000 (virtual)

 Number of pseudo-canonical orbitals per symmetry:    9
 Number of active natural orbitals per symmetry:      1

 Natural orbitals saved to record    2200.2 (Orbital set 3)

 Orbital spaces for UNO-CAS (Min. occupation: 0.020  Max. occupation: 1.980):

 Closed:        9
 Active:        1


 **********************************************************************************************************************************
 DATASETS  * FILE   NREC   LENGTH (MB)   RECORD NAMES
              1      20       33.67       500      610      700      900      950      970     1000      129      960     1100   
                                          VAR    BASINP    GEOM    SYMINP    ZMAT    AOBASIS   BASIS     P2S    ABASIS      S 
                                         1400     1410     1200     1210     1080     1600     1650     1300     1700     1800   
                                           T        V       H0       H01     AOSYM     SMH    MOLCAS    ERIS     OPER     GRID   

              2       5        2.94       700     1000      520     1800     2200   
                                         GEOM     BASIS   MCVARS    GRID      UKS  

 PROGRAMS   *        TOTAL       UKS       INT
 CPU TIMES  *         3.35      2.87      0.34
 REAL TIME  *         3.76 SEC
 DISK USED  *        42.57 MB      
 **********************************************************************************************************************************


 PROGRAM * Intrinsic Basis Bonding Analysis (IBBA)          Author: G. Knizia

 Molecular orbitals read from record     2200.2  Type=UKS/ALPHA (state 1.1)
 Fock matrix read from record            2200.2  Type=UKS/TOTAL (state 1.1)
 Orbital energies read from record       2200.2  Type=UKS/ALPHA (state 1.1)
 Density matrix read from record         2200.2  Type=UKS/CHARGE (state 1.1)

 Number of core orbitals:           2 (   2 )
 Number of closed-shell orbitals:   7 (   7 )
 Number of active  orbitals:        1 (   1 )

 Basis set MINAO-AUTO-PP generated.      Number of basis functions:   14 

 Polarized AO type:                A = (O Ot + (1-O)(1-Ot)) P12
 Orthogonalization method:         Symmetric (Loewdin)
 Localization functional:          L = sum[A,i] <i|n_A|i>^4 -> max

 Localization group 1:   9 orbitals, occupancy  2.000
 Iterative localization: IB/PM,    8 iter; Final gradient 0.31E-08

 Bond order analysis:       [THRPRINT= 0.020]

   CEN ATOM   CEN ATOM     WIBERG.BO      RENORM.BO
     1   N  -   4   H       0.987464       0.998120
     1   N  -   3   H       0.986107       0.997884
     1   N  -   2   O       0.894711       1.038197
     1   N  -   5   H       0.575123       0.628261

     2   O  -   6   H       0.975300       0.999118
     2   O  -   1   N       0.894711       1.038197
     2   O  -   5   H       0.397608       0.444242

     3   H  -   1   N       0.986107       0.997884

     4   H  -   1   N       0.987464       0.998120

     5   H  -   1   N       0.575123       0.628261
     5   H  -   2   O       0.397608       0.444242

     6   H  -   2   O       0.975300       0.999118


 Valency analysis:

   CEN ATOM   TOT.VALENCE
     1   N       3.444969
     2   O       2.269447
     3   H       0.989311
     4   H       0.990637
     5   H       0.975614
     6   H       0.977511
 Localization group 2:   1 orbitals, occupancy  1.000
 Iterative localization: IB/PM,    1 iter; Final gradient 0.00E+00

 Bond order analysis:       [THRPRINT= 0.020]

   CEN ATOM   CEN ATOM     WIBERG.BO      RENORM.BO
     1   N  -   2   O       0.483596       0.500000

     2   O  -   1   N       0.483596       0.500000






 Valency analysis:

   CEN ATOM   TOT.VALENCE
     1   N       0.496110
     2   O       0.498155
     3   H       0.005988
     4   H       0.008462
     5   H       0.000204
     6   H       0.012661

 Total charge composition:

   CEN ATOM         s          p       ELECTRONS ->P.CHARGE
     1   N       3.33692    3.87786      7.21478   -0.21478
     2   O       3.67429    4.60347      8.27777   -0.27777
     3   H       0.89962                 0.89962    0.10038
     4   H       0.90749                 0.90749    0.09251
     5   H       0.84394                 0.84394    0.15606
     6   H       0.85641                 0.85641    0.14359

 Total charge composition, AO contributions:

   CEN ATOM SHL      SPHERICAL COMPONENTS
     1   N  1s       1.99836
     1   N  2s       1.33856
     1   N  2p       1.24906    1.19258    1.43623

     2   O  1s       1.99922
     2   O  2s       1.67507
     2   O  2p       1.29621    1.45285    1.85442

     3   H  1s       0.89962

     4   H  1s       0.90749

     5   H  1s       0.84394

     6   H  1s       0.85641

 Active orbital charges:

   CEN ATOM         s          p       ELECTRONS ->SPIN.DEN
     1   N       0.00198    0.45392      0.45590    0.45590
     2   O       0.00177    0.52861      0.53037    0.53037
     3   H       0.00300                 0.00300    0.00300
     4   H       0.00425                 0.00425    0.00425
     5   H       0.00010                 0.00010    0.00010
     6   H       0.00637                 0.00637    0.00637

 Active orbital charges, AO contributions:

   CEN ATOM SHL      SPHERICAL COMPONENTS
     1   N  1s       0.00002
     1   N  2s       0.00196
     1   N  2p       0.37541    0.01395    0.06457

     2   O  1s       0.00001
     2   O  2s       0.00176
     2   O  2p       0.47749    0.01294    0.03817

     3   H  1s       0.00300

     4   H  1s       0.00425

     5   H  1s       0.00010

     6   H  1s       0.00637

 Summary of localized orbital composition:   [THRPRINT= 0.020]

   ORB  GRP  ORB.ENERGY      CENTERS/CHARGES
     1   1   -16.530521      O  2   2.000
     2   1   -12.004645      N  1   2.000
     3   1    -0.320465      O  2   1.152   H  6   0.847
     4   1    -0.259713      N  1   1.096   H  4   0.902
     5   1    -0.255306      N  1   1.104   H  3   0.895
     6   1    -0.183131      N  1   0.770   O  2   0.649   H  5   0.577
     7   1    -0.152587      O  2   1.811   H  5   0.110   N  1   0.079
     8   1    -0.063140      N  1   1.709   H  5   0.156   O  2   0.135
     9   1     0.018076      O  2   1.999
    10   2     0.104986      O  2   0.530   N  1   0.456

 Localized orbitals saved to record      2200.2  (orbital set 4)


 **********************************************************************************************************************************
 DATASETS  * FILE   NREC   LENGTH (MB)   RECORD NAMES
              1      20       33.67       500      610      700      900      950      970     1000      129      960     1100   
                                          VAR    BASINP    GEOM    SYMINP    ZMAT    AOBASIS   BASIS     P2S    ABASIS      S 
                                         1400     1410     1200     1210     1080     1600     1650     1300     1700     1800   
                                           T        V       H0       H01     AOSYM     SMH    MOLCAS    ERIS     OPER     GRID   

              2       5        2.96       700     1000      520     1800     2200   
                                         GEOM     BASIS   MCVARS    GRID      UKS  

 PROGRAMS   *        TOTAL      IBBA       UKS       INT
 CPU TIMES  *         3.37      0.02      2.87      0.34
 REAL TIME  *         3.82 SEC
 DISK USED  *        42.57 MB      
 **********************************************************************************************************************************
 Molecular orbitals read from record     2200.2  Type=UKS/LOCAL(IBO)  
 Occupation numbers read from record     2200.2  Type=UKS/LOCAL(IBO)  
 Orbital energies read from record       2200.2  Type=UKS/LOCAL(IBO)  
 Redundancy group numbers read from rec  2200.2  Type=UKS/BETA (state 1.1)

 IBBA/SVP energy=      0.000000000000

        UKS-SCF 
   -116.93603615
 **********************************************************************************************************************************
 Molpro calculation terminated
