
 Primary working directories    : /local
 Secondary working directories  : /local
 Wavefunction directory         : /local/
 Main file repository           : /local/

 SHA1      : b4a5b34a9e711420743f49e6833241d17c61fb3c
 NAME      : 2099.9.b4a5b34
 ARCHNAME  : linux/x86_64_openmp
 FC        : /cm/shared/languages/GCC-6.1/bin/gfortran
 BLASLIB   : -lblas
 id        : simonbennie

 Nodes     nprocs
 node47-007    1

 Using customized tuning parameters: mindgm=1; mindgv=20; mindgc=4; mindgr=1; noblas=0; minvec=7
 default implementation of scratch files=df  

 memory,500,m
 geomtyp=xyz
 nosym
 noorient
 geometry={
 C          0.24412        0.59992        1.70242
 H         -0.67560        0.27848        2.17294
 H          0.35191        1.66379        1.53767
 H          1.14069        0.06579        1.98782
 H          0.05716        0.13997        0.39711
 Cl        -0.13758       -0.33809       -0.95942
 }
 basis={ default,avtz }
 {hf,direct;wf,27,1,1}
 {df-ks,PBE0,direct;maxit,0;wf,27,1,1}
 {ibba,bonds=1}

 Variables initialized (895), CPU time= 0.00 sec
 Commands  initialized (725), CPU time= 0.01 sec, 591 directives.
 Default parameters read. Elapsed time= 0.08 sec

 Checking input...
 Passed
1


                                         ***  PROGRAM SYSTEM MOLPRO  ***
                                       Copyright, TTI GmbH Stuttgart, 2015
                                    Version 2099.9 linked May 26 2017 16:03:21


 **********************************************************************************************************************************
 LABEL *                                                                                 
  64 bit serial version                                                                  DATE: 18-Mar-18          TIME: 02:39:04  
 **********************************************************************************************************************************

 SHA1:             b4a5b34a9e711420743f49e6833241d17c61fb3c
 **********************************************************************************************************************************
 SETTING GEOMTYP        =    XYZ

 Variable memory set to  500000000 words,  buffer space 

 ZSYMEL=NOSYM

 SETTING BASIS          =    AVTZ


 Recomputing integrals since basis changed


 Using spherical harmonics

 Library entry C      S aug-cc-pVTZ          selected for orbital group  1
 Library entry C      P aug-cc-pVTZ          selected for orbital group  1
 Library entry C      D aug-cc-pVTZ          selected for orbital group  1
 Library entry C      F aug-cc-pVTZ          selected for orbital group  1
 Library entry H      S aug-cc-pVTZ          selected for orbital group  2
 Library entry H      P aug-cc-pVTZ          selected for orbital group  2
 Library entry H      D aug-cc-pVTZ          selected for orbital group  2
 Library entry CL     S aug-cc-pVTZ          selected for orbital group  3
 Library entry CL     P aug-cc-pVTZ          selected for orbital group  3
 Library entry CL     D aug-cc-pVTZ          selected for orbital group  3
 Library entry CL     F aug-cc-pVTZ          selected for orbital group  3


 PROGRAM * SEWARD (Integral evaluation for generally contracted gaussian basis sets)     Author: Roland Lindh, 1990

 Geometry written to block  1 of record 700


 Point group  C1  



 ATOMIC COORDINATES

 NR  ATOM    CHARGE       X              Y              Z

   1  C       6.00    0.461319942    1.133684497    3.217107549
   2  H       1.00   -1.276698970    0.526250931    4.106261485
   3  H       1.00    0.665013520    3.144107429    2.905775170
   4  H       1.00    2.155591693    0.124325082    3.756435385
   5  H       1.00    0.108016745    0.264504966    0.750429141
   6  CL     17.00   -0.259988520   -0.638897505   -1.813041038

 Bond lengths in Bohr (Angstrom)

 1-2  2.044573304  1-3  2.044558459  1-4  2.044562963  1-5  2.639090482  5-6  2.742798436
     ( 1.081941598)     ( 1.081933743)     ( 1.081936126)     ( 1.396546541)     ( 1.451426427)

 Bond angles

  1-5-6  179.98259687   2-1-3  116.29840821   2-1-4  116.29785683   2-1-5  101.23451056

  3-1-4  116.29844720   3-1-5  101.23661595   4-1-5  101.23873676

 NUCLEAR CHARGE:                   27
 NUMBER OF PRIMITIVE AOS:         259
 NUMBER OF SYMMETRY AOS:          233
 NUMBER OF CONTRACTIONS:          188   ( 188A   )
 NUMBER OF CORE ORBITALS:           6   (   6A   )
 NUMBER OF VALENCE ORBITALS:       12   (  12A   )


 NUCLEAR REPULSION ENERGY   46.25145461

 Eigenvalues of metric

         1 0.576E-04 0.838E-04 0.981E-04 0.981E-04 0.335E-03 0.580E-03 0.581E-03 0.896E-03


 Contracted 2-electron integrals neglected if value below      1.0D-11
 AO integral compression algorithm  1   Integral accuracy      1.0D-11

     758.120 MB (compressed) written to integral file ( 50.5%)


 NUMBER OF SORTED TWO-ELECTRON INTEGRALS:  157824261.     BUFFER LENGTH:  32768
 NUMBER OF SEGMENTS:  10  SEGMENT LENGTH:   15999503      RECORD LENGTH: 524288

 Memory used in sort:      16.56 MW

 SORT1 READ   187741974. AND WROTE   155124950. INTEGRALS IN    448 RECORDS. CPU TIME:     1.94 SEC, REAL TIME:     3.63 SEC
 SORT2 READ   155124950. AND WROTE   157824261. INTEGRALS IN   2892 RECORDS. CPU TIME:     3.52 SEC, REAL TIME:    20.90 SEC

 FILE SIZES:   FILE 1:   789.5 MBYTE,  FILE 4:  1879.1 MBYTE,   TOTAL:   2668.6 MBYTE

 OPERATOR DM      FOR CENTER  0  COORDINATES:    0.000000    0.000000    0.000000


 **********************************************************************************************************************************
 DATASETS  * FILE   NREC   LENGTH (MB)   RECORD NAMES
              1      19      682.78       500      610      700      900      950      970     1000      129      960     1100   
                                          VAR    BASINP    GEOM    SYMINP    ZMAT    AOBASIS   BASIS     P2S    ABASIS      S 
                                         1400     1410     1200     1210     1080     1600     1650     1300     1700   
                                           T        V       H0       H01     AOSYM     SMH    MOLCAS    ERIS     OPER   

 PROGRAMS   *        TOTAL       INT
 CPU TIMES  *        12.75     12.60
 REAL TIME  *        35.87 SEC
 DISK USED  *         2.67 GB      
 **********************************************************************************************************************************


 PROGRAM * RHF-SCF (OPEN SHELL)       Authors: W. Meyer, H.-J. Werner


 NUMBER OF ELECTRONS:      14+   13-    SPACE SYMMETRY=1    SPIN SYMMETRY: Doublet 
 CONVERGENCE THRESHOLDS:    1.00E-05 (Density)    1.00E-07 (Energy)
 INTEGRAL THRESHOLDS:       1.00E-11 (Initial)    1.00E-11 (Final)
 MAX. NUMBER OF ITERATIONS:       60
 INTERPOLATION TYPE:            DIIS
 INTERPOLATION STEPS:              2 (START)      1 (STEP)
 LEVEL SHIFTS:                 -0.60 (CLOSED) -0.30 (OPEN) 



 Orbital guess generated from atomic densities. Full valence occupancy:   18

 Molecular orbital dump at record        2100.2

 Initial alpha occupancy:  14
 Initial beta  occupancy:  13
 Wave function symmetry:    1

 Direct Fock-matrix evaluation.        Author: H.-J. Werner (1996)

 Integral Threshold:                  0.1D-10

 ITERATION   DDIFF            GRAD            ENERGY        2-EL.EN.            DIPOLE MOMENTS         DIIS   CPU(IT)  CPU(TOT)
    1      0.000D+00      0.000D+00      -499.63165657    470.173884    0.20457    0.50253    1.42604    0      7.5      9.4     start
    2      0.000D+00      0.233D-02      -499.65079881    469.340687    0.17043    0.41878    1.18837    1      7.3     16.7     diag,B
    3      0.278D-02      0.891D-03      -499.65487500    469.428464    0.16895    0.41515    1.17808    2      7.1     23.9     diag,B
    4      0.123D-02      0.394D-03      -499.65619114    469.434254    0.17059    0.41917    1.18949    3      7.2     31.1     diag,B
    5      0.549D-03      0.153D-03      -499.65654827    469.451417    0.17397    0.42748    1.21306    4      7.2     38.3     diag,B
    6      0.225D-03      0.705D-04      -499.65667105    469.454328    0.17644    0.43354    1.23027    5      7.2     45.5     diag,B
    7      0.148D-03      0.416D-04      -499.65673485    469.460231    0.17866    0.43900    1.24577    6      7.4     52.8     fixocc
    8      0.132D-03      0.182D-04      -499.65674604    469.465709    0.17963    0.44140    1.25257    7      7.3     60.1     diag,B
    9      0.912D-04      0.481D-05      -499.65674646    469.466933    0.17979    0.44178    1.25366    8      7.5     67.6     diag,B
   10      0.154D-04      0.129D-05      -499.65674648    469.467324    0.17981    0.44184    1.25381    9      7.2     74.8     orth
   11      0.108D-04      0.464D-06      -499.65674649    469.467393    0.17983    0.44187    1.25390    9      7.1     81.9     diag,B
   12      0.392D-05      0.137D-06      -499.65674649    469.467409    0.17983    0.44187    1.25392    0      7.6     89.5     orth

 Final alpha occupancy:  14
 Final beta  occupancy:  13

 !RHF STATE 1.1 Energy               -499.656746485615
 Nuclear energy                        46.25145461
 One-electron energy                 -780.64190559
 Two-electron energy                  234.73370449
 Virial quotient                       -1.00013056
 !RHF STATE 1.1 Dipole moment           0.17982820     0.44187330     1.25391807
 Dipole moment /Debye                   0.45704777     1.12305633     3.18693308

 Orbital energies:

         1.1          2.1          3.1          4.1          5.1          6.1          7.1          8.1          9.1         10.1
   -104.813481   -11.281077   -10.537297    -8.003919    -8.002190    -8.002190    -1.068383    -0.964855    -0.617664    -0.617661

        11.1         12.1         13.1         14.1         15.1         16.1
     -0.584025    -0.442042    -0.442042    -0.420856     0.024912     0.043800

 HOMO     14.1    -0.420856 =     -11.4521eV
 LUMO     15.1     0.024912 =       0.6779eV
 LUMO-HOMO         0.445768 =      12.1300eV


 **********************************************************************************************************************************
 DATASETS  * FILE   NREC   LENGTH (MB)   RECORD NAMES
              1      19      682.78       500      610      700      900      950      970     1000      129      960     1100   
                                          VAR    BASINP    GEOM    SYMINP    ZMAT    AOBASIS   BASIS     P2S    ABASIS      S 
                                         1400     1410     1200     1210     1080     1600     1650     1300     1700   
                                           T        V       H0       H01     AOSYM     SMH    MOLCAS    ERIS     OPER   

              2       4        3.85       700     1000      520     2100   
                                         GEOM     BASIS   MCVARS     RHF  

 PROGRAMS   *        TOTAL        HF       INT
 CPU TIMES  *       102.29     89.54     12.60
 REAL TIME  *       181.18 SEC
 DISK USED  *         2.67 GB      
 **********************************************************************************************************************************

 Density functional group PBE0=PBEX+PBEC
 Functional: PBEX(Automatically generated (new) PBEX)                          Gradient terms: 1
 Functional: PBEC(Automatically generated (new) PBEC)                          Gradient terms: 1
 Use grid at  1800.2


 Exact exchange will be calculated, factor:  0.2500

 Functional: PBEX                      Factor:  0.7500
 Functional: PBEC                      Factor:  1.0000

 Generated new metagrid on record  1800.2 with target accuracy 1.0D-06 and 23454 points in CPU time    0.5
 Computed new grid on record 1800.1 in CPU time    0.5
  154068 words reserved for DFT integration

 PROGRAM * RKS-SCF (Restricted open shell Kohn-Sham)     Authors: W. Meyer, H.-J. Werner, P.J. Knowles, 1993

 NUMBER OF ELECTRONS:      14+   13-    SPACE SYMMETRY=1    SPIN SYMMETRY: Doublet 
 CONVERGENCE THRESHOLDS:    1.00E-05 (Density)    1.00E-06 (Energy)
 INTEGRAL THRESHOLDS:       1.00E-11 (Initial)    1.00E-11 (Final)
 MAX. NUMBER OF ITERATIONS:        0
 INTERPOLATION TYPE:            DIIS
 INTERPOLATION STEPS:              2 (START)      1 (STEP)
 LEVEL SHIFTS:                 -0.60 (CLOSED) -0.30 (OPEN) 



 Use fine grid record 1800.2 for energy threshold  1.0D-06

 Basis set CC-PVTZ/JKFIT generated.      Number of basis functions:   320 

 Molecular orbitals read from record     2100.2  Type=RHF/CANONICAL (state 1.1)
 Coulomb and exchange fitting
 Thresholds for fitting:       THRAO_COUL= 1.0D-14    THRAO_EXCH= 1.0D-12    THRMO= 1.0D-11    THRPROD= 1.0D-11    THRASM= 1.0D-11
                               THR2HLF=    1.0D-11

 Molecular orbital dump at record        2101.2

 ITERATION   DDIFF            GRAD            ENERGY        2-EL.EN.            DIPOLE MOMENTS         DIIS   CPU(IT)  CPU(TOT)  ORB.
    1      0.000D+00      0.000D+00      -500.46309760    520.605689    0.17983    0.44187    1.25392    0      2.5      2.5     start

 Final alpha occupancy:  14
 Final beta  occupancy:  13

 !RKS STATE 1.1 Energy               -500.463097599729
 Nuclear energy                        46.25145461
 One-electron energy                 -780.64190559
 Two-electron energy                  260.30284448
 Density functional                   -26.37549110     PBEX=-33.88520430 PBEC= -0.96158787
 Virial quotient                       -1.00174458
 !RKS STATE 1.1 Dipole moment           0.17982820     0.44187330     1.25391807
 Dipole moment /Debye                   0.45704777     1.12305633     3.18693308

 Orbital energies:

         1.1          2.1          3.1          4.1          5.1          6.1          7.1          8.1          9.1         10.1
   -104.813481   -11.281077   -10.537297    -8.003919    -8.002190    -8.002190    -1.068383    -0.964855    -0.617664    -0.617661

        11.1         12.1         13.1         14.1         15.1         16.1
     -0.584025    -0.442042    -0.442042    -0.420856     0.024912     0.043800

 HOMO     14.1    -0.420856 =     -11.4521eV
 LUMO     15.1     0.024912 =       0.6779eV
 LUMO-HOMO         0.445768 =      12.1300eV


 **********************************************************************************************************************************
 DATASETS  * FILE   NREC   LENGTH (MB)   RECORD NAMES
              1      20      683.53       500      610      700      900      950      970     1000      129      960     1100   
                                          VAR    BASINP    GEOM    SYMINP    ZMAT    AOBASIS   BASIS     P2S    ABASIS      S 
                                         1400     1410     1200     1210     1080     1600     1650     1300     1700     1800   
                                           T        V       H0       H01     AOSYM     SMH    MOLCAS    ERIS     OPER     GRID   

              2       6        7.91       700     1000      520     2100     1800     2101   
                                         GEOM     BASIS   MCVARS     RHF     GRID      RKS  

 PROGRAMS   *        TOTAL        KS        HF       INT
 CPU TIMES  *       105.40      3.11     89.54     12.60
 REAL TIME  *       184.34 SEC
 DISK USED  *         2.67 GB      
 **********************************************************************************************************************************


 PROGRAM * Intrinsic Basis Bonding Analysis (IBBA)          Author: G. Knizia

 Molecular orbitals read from record     2101.2  Type=RKS/CANONICAL (state 1.1)
 Fock matrix read from record            2101.2  Type=RKS/TOTAL (state 1.1)
 Orbital energies read from record       2101.2  Type=RKS/CANONICAL (state 1.1)
 Density matrix read from record         2101.2  Type=RKS/CHARGE (state 1.1)

 Number of core orbitals:           6 (   6 )
 Number of closed-shell orbitals:   7 (   7 )
 Number of active  orbitals:        1 (   1 )

 Basis set MINAO-AUTO-PP generated.      Number of basis functions:   18 

 Polarized AO type:                A = (O Ot + (1-O)(1-Ot)) P12
 Orthogonalization method:         Symmetric (Loewdin)
 Localization functional:          L = sum[A,i] <i|n_A|i>^4 -> max

 Localization group 1:  13 orbitals, occupancy  2.000
 Iterative localization: IB/PM,    6 iter; Final gradient 0.45E-10

 Bond order analysis:       [THRPRINT= 0.020]

   CEN ATOM   CEN ATOM     WIBERG.BO      RENORM.BO
     1   C  -   4   H       0.961027       0.999598
     1   C  -   2   H       0.961027       0.999599
     1   C  -   3   H       0.961026       0.999598
     1   C  -   6  CL       0.227164       1.001549
     1   C  -   5   H       0.159498       0.897618

     2   H  -   1   C       0.961027       0.999599

     3   H  -   1   C       0.961026       0.999598

     4   H  -   1   C       0.961027       0.999598

     5   H  -   6  CL       0.785959       0.944357
     5   H  -   1   C       0.159498       0.897618

     6  CL  -   5   H       0.785959       0.944357
     6  CL  -   1   C       0.227164       1.001549


 Valency analysis:

   CEN ATOM   TOT.VALENCE
     1   C       3.269741
     2   H       0.969957
     3   H       0.969957
     4   H       0.969958
     5   H       0.952388
     6  CL       1.031313
 Localization group 2:   1 orbitals, occupancy  1.000
 Iterative localization: IB/PM,    1 iter; Final gradient 0.00E+00

 Bond order analysis:       [THRPRINT= 0.020]

   CEN ATOM   CEN ATOM     WIBERG.BO      RENORM.BO
     1   C  -   6  CL       0.366986       0.500000
     1   C  -   5   H       0.048945       0.500000




     5   H  -   1   C       0.048945       0.500000

     6  CL  -   1   C       0.366986       0.500000


 Valency analysis:

   CEN ATOM   TOT.VALENCE
     1   C       0.436128
     2   H       0.009868
     3   H       0.009871
     4   H       0.009871
     5   H       0.069514
     6  CL       0.394528

 Total charge composition:

   CEN ATOM         s          p       ELECTRONS ->P.CHARGE
     1   C       3.12651    3.24762      6.37414   -0.37414
     2   H       0.83163                 0.83163    0.16837
     3   H       0.83163                 0.83163    0.16837
     4   H       0.83163                 0.83163    0.16837
     5   H       0.81786                 0.81786    0.18214
     6  CL       5.90072   11.41240     17.31311   -0.31311

 Total charge composition, AO contributions:

   CEN ATOM SHL      SPHERICAL COMPONENTS
     1   C  1s       1.99097
     1   C  2s       1.13555
     1   C  2p       1.18444    1.15518    0.90800

     2   H  1s       0.83163

     3   H  1s       0.83163

     4   H  1s       0.83163

     5   H  1s       0.81786

     6  CL  1s       1.99997
     6  CL  2s       1.99818
     6  CL  3s       1.90257
     6  CL  2p       1.99999    1.99996    1.99972
     6  CL  3p       1.98923    1.93615    1.48733

 Active orbital charges:

   CEN ATOM         s          p       ELECTRONS ->SPIN.DEN
     1   C       0.03081    0.64790      0.67871    0.67871
     2   H       0.00496                 0.00496    0.00496
     3   H       0.00496                 0.00496    0.00496
     4   H       0.00496                 0.00496    0.00496
     5   H       0.03606                 0.03606    0.03606
     6  CL       0.01112    0.25924      0.27036    0.27036

 Active orbital charges, AO contributions:

   CEN ATOM SHL      SPHERICAL COMPONENTS
     1   C  1s       0.00005
     1   C  2s       0.03076
     1   C  2p       0.01161    0.07028    0.56601

     2   H  1s       0.00496

     3   H  1s       0.00496

     4   H  1s       0.00496

     5   H  1s       0.03606

     6  CL  1s       0.00000
     6  CL  2s       0.00010
     6  CL  3s       0.01102
     6  CL  2p       0.00000    0.00000    0.00002
     6  CL  3p       0.00466    0.02812    0.22643

 Summary of localized orbital composition:   [THRPRINT= 0.020]

   ORB  GRP  ORB.ENERGY      CENTERS/CHARGES
     1   1  -101.647578     CL  6   2.000
     2   1   -10.189294      C  1   2.000
     3   1    -9.240965     CL  6   2.000
     4   1    -7.242454     CL  6   2.000
     5   1    -7.242454     CL  6   2.000
     6   1    -7.221278     CL  6   2.000
     7   1    -1.054251     CL  6   1.983
     8   1    -0.606198      C  1   1.166   H  3   0.825
     9   1    -0.606197      C  1   1.166   H  4   0.825
    10   1    -0.606191      C  1   1.166   H  2   0.825
    11   1    -0.597698     CL  6   1.055   H  5   0.757   C  1   0.184
    12   1    -0.320861     CL  6   2.000
    13   1    -0.320861     CL  6   2.000
    14   2    -0.236633      C  1   0.679  CL  6   0.270   H  5   0.036

 Localized orbitals saved to record      2101.2  (orbital set 2)


 **********************************************************************************************************************************
 DATASETS  * FILE   NREC   LENGTH (MB)   RECORD NAMES
              1      20      683.53       500      610      700      900      950      970     1000      129      960     1100   
                                          VAR    BASINP    GEOM    SYMINP    ZMAT    AOBASIS   BASIS     P2S    ABASIS      S 
                                         1400     1410     1200     1210     1080     1600     1650     1300     1700     1800   
                                           T        V       H0       H01     AOSYM     SMH    MOLCAS    ERIS     OPER     GRID   

              2       6        8.20       700     1000      520     2100     1800     2101   
                                         GEOM     BASIS   MCVARS     RHF     GRID      RKS  

 PROGRAMS   *        TOTAL      IBBA        KS        HF       INT
 CPU TIMES  *       105.45      0.04      3.11     89.54     12.60
 REAL TIME  *       184.39 SEC
 DISK USED  *         2.67 GB      
 **********************************************************************************************************************************

 IBBA/aug-cc-pVTZ energy=      0.000000000000

        DF-KS           HF-SCF  
   -500.46309760   -499.65674649
 **********************************************************************************************************************************
 Molpro calculation terminated
