
 Primary working directories    : /local
 Secondary working directories  : /local
 Wavefunction directory         : /local/
 Main file repository           : /local/

 SHA1      : b4a5b34a9e711420743f49e6833241d17c61fb3c
 NAME      : 2099.9.b4a5b34
 ARCHNAME  : linux/x86_64_openmp
 FC        : /cm/shared/languages/GCC-6.1/bin/gfortran
 BLASLIB   : -lblas
 id        : simonbennie

 Nodes     nprocs
 node44-015    1

 Using customized tuning parameters: mindgm=1; mindgv=20; mindgc=4; mindgr=1; noblas=0; minvec=7
 default implementation of scratch files=df  

 memory,500,m
 geomtyp=xyz
 nosym
 noorient
 geometry={
 C          0.24412        0.59992        1.70242
 H         -0.67560        0.27848        2.17294
 H          0.35191        1.66379        1.53767
 H          1.14069        0.06579        1.98782
 H          0.05716        0.13997        0.39711
 Cl        -0.13758       -0.33809       -0.95942
 }
 basis={ default,qzvp }
 {uks,M06-L,direct;wf,27,1,1}
 {ibba,bonds=1}

 Variables initialized (895), CPU time= 0.01 sec
 Commands  initialized (725), CPU time= 0.01 sec, 591 directives.
 Default parameters read. Elapsed time= 0.10 sec

 Checking input...
 Passed
1


                                         ***  PROGRAM SYSTEM MOLPRO  ***
                                       Copyright, TTI GmbH Stuttgart, 2015
                                    Version 2099.9 linked May 26 2017 16:03:21


 **********************************************************************************************************************************
 LABEL *                                                                                 
  64 bit serial version                                                                  DATE: 30-Jun-17          TIME: 12:22:07  
 **********************************************************************************************************************************

 SHA1:             b4a5b34a9e711420743f49e6833241d17c61fb3c
 **********************************************************************************************************************************
 SETTING GEOMTYP        =    XYZ

 Variable memory set to  500000000 words,  buffer space 

 ZSYMEL=NOSYM

 SETTING BASIS          =    QZVP


 Recomputing integrals since basis changed


 Using spherical harmonics

 Library entry C      S def2-QZVP            selected for orbital group  1
 Library entry C      P def2-QZVP            selected for orbital group  1
 Library entry C      D def2-QZVP            selected for orbital group  1
 Library entry C      F def2-QZVP            selected for orbital group  1
 Library entry C      G def2-QZVP            selected for orbital group  1
 Library entry H      S def2-QZVP            selected for orbital group  2
 Library entry H      P def2-QZVP            selected for orbital group  2
 Library entry H      D def2-QZVP            selected for orbital group  2
 Library entry H      F def2-QZVP            selected for orbital group  2
 Library entry CL     S def2-QZVP            selected for orbital group  3
 Library entry CL     P def2-QZVP            selected for orbital group  3
 Library entry CL     D def2-QZVP            selected for orbital group  3
 Library entry CL     F def2-QZVP            selected for orbital group  3
 Library entry CL     G def2-QZVP            selected for orbital group  3


 PROGRAM * SEWARD (Integral evaluation for generally contracted gaussian basis sets)     Author: Roland Lindh, 1990

 Geometry written to block  1 of record 700


 Point group  C1  



 ATOMIC COORDINATES

 NR  ATOM    CHARGE       X              Y              Z

   1  C       6.00    0.461319942    1.133684497    3.217107549
   2  H       1.00   -1.276698970    0.526250931    4.106261485
   3  H       1.00    0.665013520    3.144107429    2.905775170
   4  H       1.00    2.155591693    0.124325082    3.756435385
   5  H       1.00    0.108016745    0.264504966    0.750429141
   6  CL     17.00   -0.259988520   -0.638897505   -1.813041038

 Bond lengths in Bohr (Angstrom)

 1-2  2.044573304  1-3  2.044558459  1-4  2.044562963  1-5  2.639090482  5-6  2.742798436
     ( 1.081941598)     ( 1.081933743)     ( 1.081936126)     ( 1.396546541)     ( 1.451426427)

 Bond angles

  1-5-6  179.98259687   2-1-3  116.29840821   2-1-4  116.29785683   2-1-5  101.23451056

  3-1-4  116.29844720   3-1-5  101.23661595   4-1-5  101.23873676

 NUCLEAR CHARGE:                   27
 NUMBER OF PRIMITIVE AOS:         365
 NUMBER OF SYMMETRY AOS:          314
 NUMBER OF CONTRACTIONS:          247   ( 247A   )
 NUMBER OF CORE ORBITALS:           6   (   6A   )
 NUMBER OF VALENCE ORBITALS:       12   (  12A   )


 NUCLEAR REPULSION ENERGY   46.25145461


 Eigenvalues of metric

         1 0.138E-03 0.149E-03 0.149E-03 0.243E-03 0.380E-03 0.794E-03 0.794E-03 0.117E-02


 Contracted 2-electron integrals neglected if value below      1.0D-11
 AO integral compression algorithm  1   Integral accuracy      1.0D-11

     1649.410 MB (compressed) written to integral file ( 38.3%)


 NUMBER OF SORTED TWO-ELECTRON INTEGRALS:  469052506.     BUFFER LENGTH:  32768
 NUMBER OF SEGMENTS:  30  SEGMENT LENGTH:   15999762      RECORD LENGTH: 524288

 Memory used in sort:      16.56 MW

 SORT1 READ   538411651. AND WROTE   385763498. INTEGRALS IN   1117 RECORDS. CPU TIME:     6.27 SEC, REAL TIME:    21.81 SEC
 SORT2 READ   385763498. AND WROTE   469052506. INTEGRALS IN   6292 RECORDS. CPU TIME:     9.48 SEC, REAL TIME:    25.00 SEC

 FILE SIZES:   FILE 1:  1681.7 MBYTE,  FILE 4:  4685.1 MBYTE,   TOTAL:   6366.8 MBYTE

 OPERATOR DM      FOR CENTER  0  COORDINATES:    0.000000    0.000000    0.000000


 **********************************************************************************************************************************
 DATASETS  * FILE   NREC   LENGTH (MB)   RECORD NAMES
              1      19     1461.36       500      610      700      900      950      970     1000      129      960     1100   
                                          VAR    BASINP    GEOM    SYMINP    ZMAT    AOBASIS   BASIS     P2S    ABASIS      S 
                                         1400     1410     1200     1210     1080     1600     1650     1300     1700   
                                           T        V       H0       H01     AOSYM     SMH    MOLCAS    ERIS     OPER   

 PROGRAMS   *        TOTAL       INT
 CPU TIMES  *        40.95     40.81
 REAL TIME  *       120.77 SEC
 DISK USED  *         6.37 GB      
 **********************************************************************************************************************************

 Density functional group M06-L=XC-M06-L
 Functional: XC-M06-L(via MFM 1.6)                                             Gradient terms: 1
 Use grid at  1800.2

 Functional: XC-M06-L                  Factor:  1.0000

 Generated new metagrid on record  1800.2 with target accuracy 1.0D-06 and 24738 points in CPU time    0.5
 Computed new grid on record 1800.1 in CPU time    0.5
  200321 words reserved for DFT integration

 PROGRAM * UKS-SCF (Unrestricted Kohn-Sham)     Authors: W. Meyer, H.-J. Werner, P.J. Knowles, 1993

 NUMBER OF ELECTRONS:      14+   13-    SPACE SYMMETRY=1    SPIN SYMMETRY: Doublet 
 CONVERGENCE THRESHOLDS:    1.00E-05 (Density)    1.00E-06 (Energy)
 MAX. NUMBER OF ITERATIONS:       60
 INTERPOLATION TYPE:            DIIS
 INTERPOLATION STEPS:              2 (START)      1 (STEP)
 LEVEL SHIFTS:                 -0.20 (ALPHA)  -0.20 (BETA) 



 Use fine grid record 1800.2 for energy threshold  1.0D-06
 Orbital guess generated from atomic densities. Full valence occupancy:   14

 Molecular orbital dump at record        2200.2

 Initial alpha occupation  14
 Initial beta  occupation  13

 ITERATION    DDIFF          GRAD             ENERGY        2-EL.EN.            DIPOLE MOMENTS         DIIS
    1      0.000D+00      0.000D+00      -500.62399974    542.339444    0.09908    0.24320    0.69016    0
    2      0.359D-02      0.142D-02      -500.67032138    537.832234    0.14942    0.36524    1.02549    1
    3      0.954D-03      0.667D-03      -500.67822993    538.390784    0.13781    0.33695    0.95432    2
    4      0.357D-03      0.128D-03      -500.67885512    538.466712    0.14248    0.34760    0.98295    3
    5      0.182D-03      0.649D-04      -500.67912435    538.393797    0.14517    0.35424    1.00261    4
    6      0.129D-03      0.334D-04      -500.67924613    538.380380    0.14855    0.36216    1.02445    5
    7      0.641D-04      0.137D-04      -500.67926498    538.391429    0.14994    0.36580    1.03540    6
    8      0.161D-04      0.433D-05      -500.67926646    538.383943    0.15033    0.36650    1.03682    7
    9      0.364D-05      0.193D-05      -500.67926663    538.388103    0.15042    0.36682    1.03795    8
   10      0.147D-05      0.626D-06      -500.67926665    538.387653    0.15041    0.36680    1.03790    8

 Final alpha occupancy:  14
 Final beta  occupancy:  13

 !UKS STATE 1.1 Energy               -500.679266648100
 Nuclear energy                        46.25145461
 One-electron energy                 -780.99638292
 Two-electron energy                  269.19382672
 Density functional                   -35.12816506     XC-M06-L=-35.12816506
 Virial quotient                       -1.00164597
 !UKS STATE 1.1 Dipole moment           0.15041388     0.36680268     1.03790050
 Dipole moment /Debye                   0.38228892     0.93225836     2.63790716

 Orbital energies for positive spin:

         1.1          2.1          3.1          4.1          5.1          6.1          7.1          8.1          9.1         10.1
   -101.164027   -10.100880    -9.389221    -7.099989    -7.087503    -7.087503    -0.782645    -0.703223    -0.437534    -0.421658

        11.1         12.1         13.1         14.1         15.1         16.1
     -0.421486    -0.281797    -0.281794    -0.250628     0.022428     0.078909

 Orbital energies for negative spin:

         1.1          2.1          3.1          4.1          5.1          6.1          7.1          8.1          9.1         10.1
   -101.160688   -10.091384    -9.387448    -7.092698    -7.085510    -7.085509    -0.758979    -0.664838    -0.410657    -0.409976

        11.1         12.1         13.1         14.1         15.1         16.1
     -0.407762    -0.271117    -0.271108    -0.178576     0.027460     0.079381

 HOMO     14.1    -0.250628 =      -6.8199eV
 LUMO    -14.1    -0.178576 =      -4.8593eV
 LUMO-HOMO         0.072052 =       1.9606eV

 EXPECTATION VALUE OF S**2:             0.75644351

 Occupation number threshold for canonical orbitals:  1.999000 (occupied),  0.001000 (virtual)

 Number of pseudo-canonical orbitals per symmetry:   12
 Number of active natural orbitals per symmetry:      3

 Natural orbitals saved to record    2200.2 (Orbital set 3)

 Orbital spaces for UNO-CAS (Min. occupation: 0.020  Max. occupation: 1.980):

 Closed:       13
 Active:        1


 **********************************************************************************************************************************
 DATASETS  * FILE   NREC   LENGTH (MB)   RECORD NAMES
              1      20     1462.15       500      610      700      900      950      970     1000      129      960     1100   
                                          VAR    BASINP    GEOM    SYMINP    ZMAT    AOBASIS   BASIS     P2S    ABASIS      S 
                                         1400     1410     1200     1210     1080     1600     1650     1300     1700     1800   
                                           T        V       H0       H01     AOSYM     SMH    MOLCAS    ERIS     OPER     GRID   

              2       5        5.33       700     1000      520     1800     2200   
                                         GEOM     BASIS   MCVARS    GRID      UKS  

 PROGRAMS   *        TOTAL       UKS       INT
 CPU TIMES  *       161.07    120.12     40.81
 REAL TIME  *       393.67 SEC
 DISK USED  *         6.37 GB      
 **********************************************************************************************************************************


 PROGRAM * Intrinsic Basis Bonding Analysis (IBBA)          Author: G. Knizia

 Molecular orbitals read from record     2200.2  Type=UKS/ALPHA (state 1.1)
 Fock matrix read from record            2200.2  Type=UKS/TOTAL (state 1.1)
 Orbital energies read from record       2200.2  Type=UKS/ALPHA (state 1.1)
 Density matrix read from record         2200.2  Type=UKS/CHARGE (state 1.1)

 Number of core orbitals:           6 (   6 )
 Number of closed-shell orbitals:   7 (   7 )
 Number of active  orbitals:        1 (   1 )

 Basis set MINAO-AUTO-PP generated.      Number of basis functions:   18 

 Polarized AO type:                A = (O Ot + (1-O)(1-Ot)) P12
 Orthogonalization method:         Symmetric (Loewdin)
 Localization functional:          L = sum[A,i] <i|n_A|i>^4 -> max

 Localization group 1:  13 orbitals, occupancy  2.000
 Iterative localization: IB/PM,    6 iter; Final gradient 0.41E-09

 Bond order analysis:       [THRPRINT= 0.020]

   CEN ATOM   CEN ATOM     WIBERG.BO      RENORM.BO
     1   C  -   4   H       0.945222       0.999506
     1   C  -   3   H       0.945084       0.999507
     1   C  -   2   H       0.944949       0.999508
     1   C  -   6  CL       0.413038       1.002812
     1   C  -   5   H       0.334962       0.851764

     2   H  -   1   C       0.944949       0.999508

     3   H  -   1   C       0.945084       0.999507

     4   H  -   1   C       0.945222       0.999506

     5   H  -   6  CL       0.616000       0.913771
     5   H  -   1   C       0.334962       0.851764

     6  CL  -   5   H       0.616000       0.913771
     6  CL  -   1   C       0.413038       1.002812


 Valency analysis:

   CEN ATOM   TOT.VALENCE
     1   C       3.583255
     2   H       0.957327
     3   H       0.957433
     4   H       0.957541
     5   H       0.955699
     6  CL       1.061161
 Localization group 2:   1 orbitals, occupancy  1.000
 Iterative localization: IB/PM,    1 iter; Final gradient 0.00E+00

 Bond order analysis:       [THRPRINT= 0.020]

   CEN ATOM   CEN ATOM     WIBERG.BO      RENORM.BO
     1   C  -   6  CL       0.468257       0.500000





     6  CL  -   1   C       0.468257       0.500000


 Valency analysis:

   CEN ATOM   TOT.VALENCE
     1   C       0.496819
     2   H       0.009534
     3   H       0.009516
     4   H       0.009482
     5   H       0.023942
     6  CL       0.491200

 Total charge composition:

   CEN ATOM         s          p       ELECTRONS ->P.CHARGE
     1   C       3.17724    3.41073      6.58797   -0.58797
     2   H       0.79821                 0.79821    0.20179
     3   H       0.79846                 0.79846    0.20154
     4   H       0.79871                 0.79871    0.20129
     5   H       0.80164                 0.80164    0.19836
     6  CL       5.91125   11.30375     17.21500   -0.21500

 Total charge composition, AO contributions:

   CEN ATOM SHL      SPHERICAL COMPONENTS
     1   C  1s       1.99155
     1   C  2s       1.18569
     1   C  2p       1.20815    1.18764    1.01494

     2   H  1s       0.79821

     3   H  1s       0.79846

     4   H  1s       0.79871

     5   H  1s       0.80164

     6  CL  1s       1.99997
     6  CL  2s       1.99832
     6  CL  3s       1.91296
     6  CL  2p       2.00000    1.99997    1.99980
     6  CL  3p       1.98724    1.92420    1.39254

 Active orbital charges:

   CEN ATOM         s          p       ELECTRONS ->SPIN.DEN
     1   C       0.01482    0.52506      0.53988    0.53988
     2   H       0.00479                 0.00479    0.00479
     3   H       0.00478                 0.00478    0.00478
     4   H       0.00476                 0.00476    0.00476
     5   H       0.01212                 0.01212    0.01212
     6  CL       0.00291    0.43076      0.43367    0.43367

 Active orbital charges, AO contributions:

   CEN ATOM SHL      SPHERICAL COMPONENTS
     1   C  1s       0.00004
     1   C  2s       0.01477
     1   C  2p       0.00938    0.05697    0.45872

     2   H  1s       0.00479

     3   H  1s       0.00478

     4   H  1s       0.00476

     5   H  1s       0.01212

     6  CL  1s       0.00000
     6  CL  2s       0.00005
     6  CL  3s       0.00285
     6  CL  2p       0.00000    0.00000    0.00000
     6  CL  3p       0.00772    0.04679    0.37624

 Summary of localized orbital composition:   [THRPRINT= 0.020]

   ORB  GRP  ORB.ENERGY      CENTERS/CHARGES
     1   1  -101.129624     CL  6   2.000
     2   1    -9.977360      C  1   2.000
     3   1    -9.210978     CL  6   2.000
     4   1    -7.086524     CL  6   2.000
     5   1    -7.086524     CL  6   2.000
     6   1    -7.076466     CL  6   2.000
     7   1    -0.919110     CL  6   1.954   C  1   0.030
     8   1    -0.541655      C  1   1.197   H  3   0.790
     9   1    -0.541535      C  1   1.197   H  4   0.791
    10   1    -0.541143      C  1   1.197   H  2   0.790
    11   1    -0.509430     CL  6   0.818   H  5   0.746   C  1   0.427
    12   1    -0.276646     CL  6   2.000
    13   1    -0.276641     CL  6   2.000
    14   2    -0.213341      C  1   0.540  CL  6   0.434   (other: 0.026)

 Localized orbitals saved to record      2200.2  (orbital set 4)


 **********************************************************************************************************************************
 DATASETS  * FILE   NREC   LENGTH (MB)   RECORD NAMES
              1      20     1462.15       500      610      700      900      950      970     1000      129      960     1100   
                                          VAR    BASINP    GEOM    SYMINP    ZMAT    AOBASIS   BASIS     P2S    ABASIS      S 
                                         1400     1410     1200     1210     1080     1600     1650     1300     1700     1800   
                                           T        V       H0       H01     AOSYM     SMH    MOLCAS    ERIS     OPER     GRID   

              2       5        5.82       700     1000      520     1800     2200   
                                         GEOM     BASIS   MCVARS    GRID      UKS  

 PROGRAMS   *        TOTAL      IBBA       UKS       INT
 CPU TIMES  *       161.13      0.05    120.12     40.81
 REAL TIME  *       393.90 SEC
 DISK USED  *         6.37 GB      
 **********************************************************************************************************************************
 Molecular orbitals read from record     2200.2  Type=UKS/LOCAL(IBO)  
 Occupation numbers read from record     2200.2  Type=UKS/LOCAL(IBO)  
 Orbital energies read from record       2200.2  Type=UKS/LOCAL(IBO)  
 Redundancy group numbers read from rec  2200.2  Type=UKS/BETA (state 1.1)

 IBBA/QZVP energy=      0.000000000000

        UKS-SCF 
   -500.67926665
 **********************************************************************************************************************************
 Molpro calculation terminated
