
 Primary working directories    : /local
 Secondary working directories  : /local
 Wavefunction directory         : /local/
 Main file repository           : /local/

 SHA1      : b4a5b34a9e711420743f49e6833241d17c61fb3c
 NAME      : 2099.9.b4a5b34
 ARCHNAME  : linux/x86_64_openmp
 FC        : /cm/shared/languages/GCC-6.1/bin/gfortran
 BLASLIB   : -lblas
 id        : simonbennie

 Nodes     nprocs
 node32-014    1

 Using customized tuning parameters: mindgm=1; mindgv=20; mindgc=4; mindgr=1; noblas=0; minvec=7
 default implementation of scratch files=df  

 memory,500,m
 geomtyp=xyz
 nosym
 noorient
 geometry={
 C          0.24412        0.59992        1.70242
 H         -0.67560        0.27848        2.17294
 H          0.35191        1.66379        1.53767
 H          1.14069        0.06579        1.98782
 H          0.05716        0.13997        0.39711
 Cl        -0.13758       -0.33809       -0.95942
 }
 basis={ default,tzvp }
 {df-ks,B3LYP3,direct;disp;wf,27,1,1}
 {ibba,bonds=1}

 Variables initialized (895), CPU time= 0.00 sec
 Commands  initialized (725), CPU time= 0.01 sec, 591 directives.
 Default parameters read. Elapsed time= 0.07 sec

 Checking input...
 Passed
1


                                         ***  PROGRAM SYSTEM MOLPRO  ***
                                       Copyright, TTI GmbH Stuttgart, 2015
                                    Version 2099.9 linked May 26 2017 16:03:21


 **********************************************************************************************************************************
 LABEL *                                                                                 
  64 bit serial version                                                                  DATE: 18-Mar-18          TIME: 01:49:48  
 **********************************************************************************************************************************

 SHA1:             b4a5b34a9e711420743f49e6833241d17c61fb3c
 **********************************************************************************************************************************
 SETTING GEOMTYP        =    XYZ

 Variable memory set to  500000000 words,  buffer space 

 ZSYMEL=NOSYM

 SETTING BASIS          =    TZVP


 Recomputing integrals since basis changed


 Using spherical harmonics

 Library entry C      S def2-TZVP            selected for orbital group  1
 Library entry C      P def2-TZVP            selected for orbital group  1
 Library entry C      D def2-TZVP            selected for orbital group  1
 Library entry C      F def2-TZVP            selected for orbital group  1
 Library entry H      S def2-TZVP            selected for orbital group  2
 Library entry H      P def2-TZVP            selected for orbital group  2
 Library entry CL     S def2-TZVP            selected for orbital group  3
 Library entry CL     P def2-TZVP            selected for orbital group  3
 Library entry CL     D def2-TZVP            selected for orbital group  3
 Library entry CL     F def2-TZVP            selected for orbital group  3


 PROGRAM * SEWARD (Integral evaluation for generally contracted gaussian basis sets)     Author: Roland Lindh, 1990

 Geometry written to block  1 of record 700


 Point group  C1  



 ATOMIC COORDINATES

 NR  ATOM    CHARGE       X              Y              Z

   1  C       6.00    0.461319942    1.133684497    3.217107549
   2  H       1.00   -1.276698970    0.526250931    4.106261485
   3  H       1.00    0.665013520    3.144107429    2.905775170
   4  H       1.00    2.155591693    0.124325082    3.756435385
   5  H       1.00    0.108016745    0.264504966    0.750429141
   6  CL     17.00   -0.259988520   -0.638897505   -1.813041038

 Bond lengths in Bohr (Angstrom)

 1-2  2.044573304  1-3  2.044558459  1-4  2.044562963  1-5  2.639090482  5-6  2.742798436
     ( 1.081941598)     ( 1.081933743)     ( 1.081936126)     ( 1.396546541)     ( 1.451426427)

 Bond angles

  1-5-6  179.98259687   2-1-3  116.29840821   2-1-4  116.29785683   2-1-5  101.23451056

  3-1-4  116.29844720   3-1-5  101.23661595   4-1-5  101.23873676

 NUCLEAR CHARGE:                   27
 NUMBER OF PRIMITIVE AOS:         152
 NUMBER OF SYMMETRY AOS:          141
 NUMBER OF CONTRACTIONS:           92   (  92A   )
 NUMBER OF CORE ORBITALS:           6   (   6A   )
 NUMBER OF VALENCE ORBITALS:       12   (  12A   )


 NUCLEAR REPULSION ENERGY   46.25145461


 Eigenvalues of metric

         1 0.126E-02 0.552E-02 0.695E-02 0.695E-02 0.127E-01 0.166E-01 0.237E-01 0.237E-01


 OPERATOR DM      FOR CENTER  0  COORDINATES:    0.000000    0.000000    0.000000


 **********************************************************************************************************************************
 DATASETS  * FILE   NREC   LENGTH (MB)   RECORD NAMES
              1      18       30.37       500      610      700      900      950      970     1000      129      960     1100   
                                          VAR    BASINP    GEOM    SYMINP    ZMAT    AOBASIS   BASIS     P2S    ABASIS      S 
                                         1400     1410     1200     1210     1080     1600     1650     1700   
                                           T        V       H0       H01     AOSYM     SMH    MOLCAS    OPER   

 PROGRAMS   *        TOTAL       INT
 CPU TIMES  *         0.31      0.17
 REAL TIME  *         0.55 SEC
 DISK USED  *        30.74 MB      
 **********************************************************************************************************************************

 Density functional group B3LYP3=B88+DIRAC+LYP+VWN3
 Functional: B88(Automatically generated (new) B88)                            Gradient terms: 1
 Functional: DIRAC(Automatically generated (new) DIRAC)                        Gradient terms: 0
 Functional: LYP(Automatically generated (new) LYP)                            Gradient terms: 1
 Functional: VWN3(Automatically generated (new) VWN3)                          Gradient terms: 0

 dispersion correction activated
 Density functional: B3LYP3  
 functional not in list, set to default 


 Exact exchange will be calculated, factor:  0.2000

 Functional: B88                       Factor:  0.7200
 Functional: DIRAC                     Factor:  0.0800
 Functional: LYP                       Factor:  0.8100
 Functional: VWN3                      Factor:  0.1900

 Use grid at  1800.2


 Exact exchange will be calculated, factor:  0.2000

 Functional: B88                       Factor:  0.7200
 Functional: DIRAC                     Factor:  0.0800
 Functional: LYP                       Factor:  0.8100
 Functional: VWN3                      Factor:  0.1900

 Generated new metagrid on record  1800.2 with target accuracy 1.0D-06 and 23054 points in CPU time    0.5
 Computed new grid on record 1800.1 in CPU time    0.5
   77170 words reserved for DFT integration

 PROGRAM * RKS-SCF (Restricted open shell Kohn-Sham)     Authors: W. Meyer, H.-J. Werner, P.J. Knowles, 1993

 NUMBER OF ELECTRONS:      14+   13-    SPACE SYMMETRY=1    SPIN SYMMETRY: Doublet 
 CONVERGENCE THRESHOLDS:    1.00E-05 (Density)    1.00E-06 (Energy)
 INTEGRAL THRESHOLDS:       1.00E-11 (Initial)    1.00E-11 (Final)
 MAX. NUMBER OF ITERATIONS:       60
 INTERPOLATION TYPE:            DIIS
 INTERPOLATION STEPS:              2 (START)      1 (STEP)
 LEVEL SHIFTS:                 -0.60 (CLOSED) -0.30 (OPEN) 



 Use fine grid record 1800.2 for energy threshold  1.0D-06

 Basis set DEF2-TZVPP/JKFIT generated.   Number of basis functions:   275 

 Orbital guess generated from atomic densities. Full valence occupancy:   14
 Using density fitting in orbital guess

 Coulomb and exchange fitting
 Thresholds for fitting:       THRAO_COUL= 1.0D-14    THRAO_EXCH= 1.0D-12    THRMO= 1.0D-11    THRPROD= 1.0D-11    THRASM= 1.0D-11
                               THR2HLF=    1.0D-11

 Molecular orbital dump at record        2100.2

 Initial alpha occupancy:  14
 Initial beta  occupancy:  13
 Wave function symmetry:    1

 ITERATION   DDIFF            GRAD            ENERGY        2-EL.EN.            DIPOLE MOMENTS         DIIS   CPU(IT)  CPU(TOT)  ORB.
    1      0.000D+00      0.000D+00      -500.65030520    528.300388    0.11770    0.28903    0.82029    0      0.7      1.1     start
    2      0.000D+00      0.598D-02      -500.68908045    524.394300    0.16641    0.40882    1.16022    1      0.7      1.8     diag,B
    3      0.402D-02      0.224D-02      -500.69396665    524.545078    0.14370    0.35302    1.00187    2      0.7      2.5     diag,B
    4      0.129D-02      0.377D-03      -500.69425312    524.656885    0.14683    0.36071    1.02370    3      0.6      3.1     diag,B
    5      0.553D-03      0.179D-03      -500.69433594    524.580743    0.14585    0.35831    1.01688    4      0.7      3.8     diag,B
    6      0.235D-03      0.666D-04      -500.69436325    524.573616    0.14613    0.35900    1.01884    5      0.6      4.4     diag,B
    7      0.170D-03      0.236D-04      -500.69436907    524.575860    0.14655    0.36002    1.02174    6      0.6      5.0     fixocc
    8      0.823D-04      0.895D-05      -500.69436999    524.576403    0.14675    0.36051    1.02313    7      0.6      5.7     diag,B
    9      0.272D-04      0.309D-05      -500.69437011    524.576787    0.14686    0.36079    1.02393    8      0.6      6.3     diag,B
   10      0.101D-04      0.951D-06      -500.69437012    524.576921    0.14689    0.36086    1.02415    9      0.6      6.9     orth
   11      0.382D-05      0.244D-06      -500.69437012    524.576900    0.14690    0.36087    1.02417    0      0.7      7.6     orth

 Dispersion correction
 - - - - - - - - - - - 
  _________________________________
                                   
 |         DFTD3 V1.3 Rev 1        |
 | S.Grimme, University Muenster   |
 | Fri Jul  2 12:48:21 CEST 2010   |
  _________________________________

 Please cite DFT-D3 work done with this code as:
 S. Grimme, J. Antony, S. Ehrlich and H. Krieg,
 J. Chem. Phys, 132 (2010), 154104.
 For DFT-D2 the reference is
 S. Grimme, J. Comput. Chem., 27 (2006), 1787-1799

 C6 coefficients used:
                    2  C6 for element                     1
 Z=  1 CN=   0.912     C6(AA)=    3.03
 Z=  1 CN=   0.000     C6(AA)=    7.59
                    5  C6 for element                     6
 Z=  6 CN=   0.000     C6(AA)=   49.11
 Z=  6 CN=   0.987     C6(AA)=   43.25
 Z=  6 CN=   1.998     C6(AA)=   29.36
 Z=  6 CN=   2.999     C6(AA)=   25.78
 Z=  6 CN=   3.984     C6(AA)=   18.21
                    2  C6 for element                    17
 Z= 17 CN=   0.000     C6(AA)=   92.35
 Z= 17 CN=   0.997     C6(AA)=   90.40

 #           XYZ [au]               R0(AA) [Ang.]   CN       C6(AA)     C8(AA)   C10(AA) [au]
  1   0.46132   1.13368   3.21711   c   1.455  3.616        20.1       581.0     20584.5
  2  -1.27670   0.52625   4.10626   h   1.091  0.995         3.1        37.4       553.6
  3   0.66501   3.14411   2.90578   h   1.091  0.995         3.1        37.4       553.6
  4   2.15559   0.12433   3.75644   h   1.091  0.995         3.1        37.4       553.6
  5   0.10802   0.26450   0.75043   h   1.091  1.549         3.0        36.6       542.0
  6  -0.25999  -0.63890  -1.81304   cl  1.552  1.014        90.4      3773.1    192845.9

 molecular C6(AA) [au] =       440.76

           DFT-D V3
 DF pbe                                               
 parameters
 s6       :    1.0000
 s8       :    0.7220
 rs6      :    1.2170
 alpha6   :   14.0000
 alpha8   :   16.0000
 k1-k3    :   16.0000    1.3333   -4.0000

 Edisp /kcal,au:    -0.6233 -0.00099326

 E6    /kcal :    -0.2056
 E8    /kcal :    -0.4177
 % E8        : 67.02
 normal termination of dftd3

 RKS STATE 1.1 ENERGY+DISP     -500.69536338

 Final alpha occupancy:  14
 Final beta  occupancy:  13

 !RKS STATE 1.1 Energy               -500.695363381031
 Nuclear energy                        46.25145461
 One-electron energy                 -780.91988483
 Two-electron energy                  262.28844991
 Density functional                   -28.31438981     B88=-34.07750533 DIRAC=-31.28256603 LYP= -0.99840490 VWN3= -2.45933014
 Virial quotient                       -1.00179364
 !RKS STATE 1.1 Dipole moment           0.14689588     0.36087457     1.02417348
 Dipole moment /Debye                   0.37334762     0.91719158     2.60301883

 Orbital energies:

         1.1          2.1          3.1          4.1          5.1          6.1          7.1          8.1          9.1         10.1
   -101.506845   -10.219949    -9.438773    -7.200191    -7.191690    -7.191690    -0.809885    -0.721903    -0.453886    -0.453883

        11.1         12.1         13.1         14.1         15.1         16.1
     -0.452729    -0.310126    -0.310126    -0.279791     0.032082     0.097702

 HOMO     14.1    -0.279791 =      -7.6135eV
 LUMO     15.1     0.032082 =       0.8730eV
 LUMO-HOMO         0.311874 =       8.4865eV


 **********************************************************************************************************************************
 DATASETS  * FILE   NREC   LENGTH (MB)   RECORD NAMES
              1      19       31.10       500      610      700      900      950      970     1000      129      960     1100   
                                          VAR    BASINP    GEOM    SYMINP    ZMAT    AOBASIS   BASIS     P2S    ABASIS      S 
                                         1400     1410     1200     1210     1080     1600     1650     1700     1800   
                                           T        V       H0       H01     AOSYM     SMH    MOLCAS    OPER     GRID   

              2       5        3.12       700     1000      520     1800     2100   
                                         GEOM     BASIS   MCVARS    GRID      RKS  

 PROGRAMS   *        TOTAL        KS       INT
 CPU TIMES  *         8.44      8.13      0.17
 REAL TIME  *         9.18 SEC
 DISK USED  *        38.97 MB      
 **********************************************************************************************************************************


 PROGRAM * Intrinsic Basis Bonding Analysis (IBBA)          Author: G. Knizia

 Molecular orbitals read from record     2100.2  Type=RKS/CANONICAL (state 1.1)
 Fock matrix read from record            2100.2  Type=RKS/TOTAL (state 1.1)
 Orbital energies read from record       2100.2  Type=RKS/CANONICAL (state 1.1)
 Density matrix read from record         2100.2  Type=RKS/CHARGE (state 1.1)

 Number of core orbitals:           6 (   6 )
 Number of closed-shell orbitals:   7 (   7 )
 Number of active  orbitals:        1 (   1 )

 Basis set MINAO-AUTO-PP generated.      Number of basis functions:   18 

 Polarized AO type:                A = (O Ot + (1-O)(1-Ot)) P12
 Orthogonalization method:         Symmetric (Loewdin)
 Localization functional:          L = sum[A,i] <i|n_A|i>^4 -> max

 Localization group 1:  13 orbitals, occupancy  2.000
 Iterative localization: IB/PM,    6 iter; Final gradient 0.13E-09

 Bond order analysis:       [THRPRINT= 0.020]

   CEN ATOM   CEN ATOM     WIBERG.BO      RENORM.BO
     1   C  -   4   H       0.956067       0.999527
     1   C  -   2   H       0.956065       0.999528
     1   C  -   3   H       0.956064       0.999527
     1   C  -   6  CL       0.331694       1.002329
     1   C  -   5   H       0.257858       0.871817

     2   H  -   1   C       0.956065       0.999528

     3   H  -   1   C       0.956064       0.999527

     4   H  -   1   C       0.956067       0.999527

     5   H  -   6  CL       0.700366       0.929334
     5   H  -   1   C       0.257858       0.871817

     6  CL  -   5   H       0.700366       0.929334
     6  CL  -   1   C       0.331694       1.002329


 Valency analysis:

   CEN ATOM   TOT.VALENCE
     1   C       3.457748
     2   H       0.967116
     3   H       0.967116
     4   H       0.967116
     5   H       0.964653
     6  CL       1.057003
 Localization group 2:   1 orbitals, occupancy  1.000
 Iterative localization: IB/PM,    1 iter; Final gradient 0.00E+00

 Bond order analysis:       [THRPRINT= 0.020]

   CEN ATOM   CEN ATOM     WIBERG.BO      RENORM.BO
     1   C  -   6  CL       0.438874       0.500000
     1   C  -   5   H       0.028764       0.500000




     5   H  -   1   C       0.028764       0.500000

     6  CL  -   1   C       0.438874       0.500000


 Valency analysis:

   CEN ATOM   TOT.VALENCE
     1   C       0.483506
     2   H       0.008911
     3   H       0.008914
     4   H       0.008914
     5   H       0.047500
     6  CL       0.466932

 Total charge composition:

   CEN ATOM         s          p       ELECTRONS ->P.CHARGE
     1   C       3.12693    3.31300      6.43994   -0.43994
     2   H       0.82314                 0.82314    0.17686
     3   H       0.82314                 0.82314    0.17686
     4   H       0.82314                 0.82314    0.17686
     5   H       0.83633                 0.83633    0.16367
     6  CL       5.91121   11.34311     17.25432   -0.25432

 Total charge composition, AO contributions:

   CEN ATOM SHL      SPHERICAL COMPONENTS
     1   C  1s       1.99193
     1   C  2s       1.13500
     1   C  2p       1.19374    1.16807    0.95119

     2   H  1s       0.82314

     3   H  1s       0.82314

     4   H  1s       0.82314

     5   H  1s       0.83633

     6  CL  1s       1.99997
     6  CL  2s       1.99849
     6  CL  3s       1.91274
     6  CL  2p       2.00000    1.99998    1.99983
     6  CL  3p       1.98794    1.92858    1.42679

 Active orbital charges:

   CEN ATOM         s          p       ELECTRONS ->SPIN.DEN
     1   C       0.02113    0.56968      0.59081    0.59081
     2   H       0.00448                 0.00448    0.00448
     3   H       0.00448                 0.00448    0.00448
     4   H       0.00448                 0.00448    0.00448
     5   H       0.02434                 0.02434    0.02434
     6  CL       0.00598    0.36544      0.37142    0.37142

 Active orbital charges, AO contributions:

   CEN ATOM SHL      SPHERICAL COMPONENTS
     1   C  1s       0.00004
     1   C  2s       0.02110
     1   C  2p       0.01020    0.06180    0.49768

     2   H  1s       0.00448

     3   H  1s       0.00448

     4   H  1s       0.00448

     5   H  1s       0.02434

     6  CL  1s       0.00000
     6  CL  2s       0.00007
     6  CL  3s       0.00591
     6  CL  2p       0.00000    0.00000    0.00000
     6  CL  3p       0.00657    0.03965    0.31922

 Summary of localized orbital composition:   [THRPRINT= 0.020]

   ORB  GRP  ORB.ENERGY      CENTERS/CHARGES
     1   1  -101.470542     CL  6   2.000
     2   1   -10.106498      C  1   2.000
     3   1    -9.247076     CL  6   2.000
     4   1    -7.191687     CL  6   2.000
     5   1    -7.191687     CL  6   2.000
     6   1    -7.178906     CL  6   2.000
     7   1    -0.962744     CL  6   1.968   C  1   0.023
     8   1    -0.577606      C  1   1.172   H  3   0.817
     9   1    -0.577605      C  1   1.172   H  4   0.817
    10   1    -0.577599      C  1   1.172   H  2   0.817
    11   1    -0.558817     CL  6   0.907   H  5   0.780   C  1   0.308
    12   1    -0.310459     CL  6   2.000
    13   1    -0.310454     CL  6   2.000
    14   2    -0.221635      C  1   0.591  CL  6   0.371   H  5   0.024

 Localized orbitals saved to record      2100.2  (orbital set 2)


 **********************************************************************************************************************************
 DATASETS  * FILE   NREC   LENGTH (MB)   RECORD NAMES
              1      19       31.10       500      610      700      900      950      970     1000      129      960     1100   
                                          VAR    BASINP    GEOM    SYMINP    ZMAT    AOBASIS   BASIS     P2S    ABASIS      S 
                                         1400     1410     1200     1210     1080     1600     1650     1700     1800   
                                           T        V       H0       H01     AOSYM     SMH    MOLCAS    OPER     GRID   

              2       5        3.19       700     1000      520     1800     2100   
                                         GEOM     BASIS   MCVARS    GRID      RKS  

 PROGRAMS   *        TOTAL      IBBA        KS       INT
 CPU TIMES  *         8.46      0.02      8.13      0.17
 REAL TIME  *         9.22 SEC
 DISK USED  *        38.97 MB      
 **********************************************************************************************************************************

 IBBA/TZVP energy=      0.000000000000

        DF-KS   
   -500.69536338
 **********************************************************************************************************************************
 Molpro calculation terminated
