
 Primary working directories    : /local
 Secondary working directories  : /local
 Wavefunction directory         : /local/
 Main file repository           : /local/

 SHA1      : b4a5b34a9e711420743f49e6833241d17c61fb3c
 NAME      : 2099.9.b4a5b34
 ARCHNAME  : linux/x86_64_openmp
 FC        : /cm/shared/languages/GCC-6.1/bin/gfortran
 BLASLIB   : -lblas
 id        : simonbennie

 Nodes     nprocs
 node36-003    1

 Using customized tuning parameters: mindgm=1; mindgv=20; mindgc=4; mindgr=1; noblas=0; minvec=7
 default implementation of scratch files=df  

 memory,500,m
 geomtyp=xyz
 nosym
 noorient
 geometry={
 C          0.24412        0.59992        1.70242
 H         -0.67560        0.27848        2.17294
 H          0.35191        1.66379        1.53767
 H          1.14069        0.06579        1.98782
 H          0.05716        0.13997        0.39711
 Cl        -0.13758       -0.33809       -0.95942
 }
 basis={ default,avtz }
 {ks,BH-LYP,direct;wf,27,1,1}
 {ibba,bonds=1}

 Variables initialized (895), CPU time= 0.00 sec
 Commands  initialized (725), CPU time= 0.01 sec, 591 directives.
 Default parameters read. Elapsed time= 0.08 sec

 Checking input...
 Passed
1


                                         ***  PROGRAM SYSTEM MOLPRO  ***
                                       Copyright, TTI GmbH Stuttgart, 2015
                                    Version 2099.9 linked May 26 2017 16:03:21


 **********************************************************************************************************************************
 LABEL *                                                                                 
  64 bit serial version                                                                  DATE: 24-Jun-17          TIME: 23:52:39  
 **********************************************************************************************************************************

 SHA1:             b4a5b34a9e711420743f49e6833241d17c61fb3c
 **********************************************************************************************************************************
 SETTING GEOMTYP        =    XYZ

 Variable memory set to  500000000 words,  buffer space 

 ZSYMEL=NOSYM

 SETTING BASIS          =    AVTZ


 Recomputing integrals since basis changed


 Using spherical harmonics

 Library entry C      S aug-cc-pVTZ          selected for orbital group  1
 Library entry C      P aug-cc-pVTZ          selected for orbital group  1
 Library entry C      D aug-cc-pVTZ          selected for orbital group  1
 Library entry C      F aug-cc-pVTZ          selected for orbital group  1
 Library entry H      S aug-cc-pVTZ          selected for orbital group  2
 Library entry H      P aug-cc-pVTZ          selected for orbital group  2
 Library entry H      D aug-cc-pVTZ          selected for orbital group  2
 Library entry CL     S aug-cc-pVTZ          selected for orbital group  3
 Library entry CL     P aug-cc-pVTZ          selected for orbital group  3
 Library entry CL     D aug-cc-pVTZ          selected for orbital group  3
 Library entry CL     F aug-cc-pVTZ          selected for orbital group  3


 PROGRAM * SEWARD (Integral evaluation for generally contracted gaussian basis sets)     Author: Roland Lindh, 1990

 Geometry written to block  1 of record 700


 Point group  C1  



 ATOMIC COORDINATES

 NR  ATOM    CHARGE       X              Y              Z

   1  C       6.00    0.461319942    1.133684497    3.217107549
   2  H       1.00   -1.276698970    0.526250931    4.106261485
   3  H       1.00    0.665013520    3.144107429    2.905775170
   4  H       1.00    2.155591693    0.124325082    3.756435385
   5  H       1.00    0.108016745    0.264504966    0.750429141
   6  CL     17.00   -0.259988520   -0.638897505   -1.813041038

 Bond lengths in Bohr (Angstrom)

 1-2  2.044573304  1-3  2.044558459  1-4  2.044562963  1-5  2.639090482  5-6  2.742798436
     ( 1.081941598)     ( 1.081933743)     ( 1.081936126)     ( 1.396546541)     ( 1.451426427)

 Bond angles

  1-5-6  179.98259687   2-1-3  116.29840821   2-1-4  116.29785683   2-1-5  101.23451056

  3-1-4  116.29844720   3-1-5  101.23661595   4-1-5  101.23873676

 NUCLEAR CHARGE:                   27
 NUMBER OF PRIMITIVE AOS:         259
 NUMBER OF SYMMETRY AOS:          233
 NUMBER OF CONTRACTIONS:          188   ( 188A   )
 NUMBER OF CORE ORBITALS:           6   (   6A   )
 NUMBER OF VALENCE ORBITALS:       12   (  12A   )


 NUCLEAR REPULSION ENERGY   46.25145461

 Eigenvalues of metric

         1 0.576E-04 0.838E-04 0.981E-04 0.981E-04 0.335E-03 0.580E-03 0.581E-03 0.896E-03


 Contracted 2-electron integrals neglected if value below      1.0D-11
 AO integral compression algorithm  1   Integral accuracy      1.0D-11

     758.120 MB (compressed) written to integral file ( 50.5%)


 NUMBER OF SORTED TWO-ELECTRON INTEGRALS:  157824261.     BUFFER LENGTH:  32768
 NUMBER OF SEGMENTS:  10  SEGMENT LENGTH:   15999503      RECORD LENGTH: 524288

 Memory used in sort:      16.56 MW

 SORT1 READ   187741974. AND WROTE   155124950. INTEGRALS IN    448 RECORDS. CPU TIME:     2.03 SEC, REAL TIME:     5.13 SEC
 SORT2 READ   155124950. AND WROTE   157824261. INTEGRALS IN   2892 RECORDS. CPU TIME:     3.48 SEC, REAL TIME:     4.75 SEC

 FILE SIZES:   FILE 1:   789.5 MBYTE,  FILE 4:  1879.1 MBYTE,   TOTAL:   2668.6 MBYTE

 OPERATOR DM      FOR CENTER  0  COORDINATES:    0.000000    0.000000    0.000000


 **********************************************************************************************************************************
 DATASETS  * FILE   NREC   LENGTH (MB)   RECORD NAMES
              1      19      682.78       500      610      700      900      950      970     1000      129      960     1100   
                                          VAR    BASINP    GEOM    SYMINP    ZMAT    AOBASIS   BASIS     P2S    ABASIS      S 
                                         1400     1410     1200     1210     1080     1600     1650     1300     1700   
                                           T        V       H0       H01     AOSYM     SMH    MOLCAS    ERIS     OPER   

 PROGRAMS   *        TOTAL       INT
 CPU TIMES  *        13.20     13.06
 REAL TIME  *        54.51 SEC
 DISK USED  *         2.67 GB      
 **********************************************************************************************************************************

 Density functional group BH-LYP=B88+LYP
 Functional: B88(Automatically generated (new) B88)                            Gradient terms: 1
 Functional: LYP(Automatically generated (new) LYP)                            Gradient terms: 1
 Use grid at  1800.2


 Exact exchange will be calculated, factor:  0.5000

 Functional: B88                       Factor:  0.5000
 Functional: LYP                       Factor:  1.0000

 Generated new metagrid on record  1800.2 with target accuracy 1.0D-06 and 23454 points in CPU time    0.5
 Computed new grid on record 1800.1 in CPU time    0.5
  154068 words reserved for DFT integration

 PROGRAM * RKS-SCF (Restricted open shell Kohn-Sham)     Authors: W. Meyer, H.-J. Werner, P.J. Knowles, 1993

 NUMBER OF ELECTRONS:      14+   13-    SPACE SYMMETRY=1    SPIN SYMMETRY: Doublet 
 CONVERGENCE THRESHOLDS:    1.00E-05 (Density)    1.00E-06 (Energy)
 MAX. NUMBER OF ITERATIONS:       60
 INTERPOLATION TYPE:            DIIS
 INTERPOLATION STEPS:              2 (START)      1 (STEP)
 LEVEL SHIFTS:                 -0.60 (CLOSED) -0.30 (OPEN) 



 Use fine grid record 1800.2 for energy threshold  1.0D-06
 Orbital guess generated from atomic densities. Full valence occupancy:   18

 Molecular orbital dump at record        2100.2

 Initial alpha occupancy:  14
 Initial beta  occupancy:  13
 Wave function symmetry:    1

 ITERATION    DDIFF          GRAD             ENERGY        2-EL.EN.            DIPOLE MOMENTS         DIIS   ORB.
    1      0.000D+00      0.000D+00      -500.62723416    506.293824    0.16216    0.39831    1.13036    0    start
    2      0.000D+00      0.258D-02      -500.64584006    503.831409    0.15973    0.39243    1.11370    1    diag,B
    3      0.354D-02      0.694D-03      -500.64718980    503.902756    0.15409    0.37858    1.07439    2    diag,B
    4      0.745D-03      0.254D-03      -500.64767686    503.884793    0.15498    0.38077    1.08061    3    diag,B
    5      0.388D-03      0.103D-03      -500.64778547    503.848341    0.15538    0.38175    1.08339    4    diag,B
    6      0.171D-03      0.390D-04      -500.64781195    503.853737    0.15646    0.38442    1.09096    5    diag,B
    7      0.683D-04      0.198D-04      -500.64782224    503.853186    0.15732    0.38653    1.09695    6    fixocc
    8      0.526D-04      0.879D-05      -500.64782489    503.853919    0.15786    0.38784    1.10067    7    diag,B
    9      0.451D-04      0.283D-05      -500.64782512    503.854375    0.15801    0.38821    1.10171    8    diag,B
   10      0.107D-04      0.869D-06      -500.64782514    503.854655    0.15804    0.38828    1.10191    9    orth
   11      0.758D-05      0.227D-06      -500.64782514    503.854709    0.15804    0.38829    1.10194    0    orth

 Final alpha occupancy:  14
 Final beta  occupancy:  13

 !RKS STATE 1.1 Energy               -500.647825136029
 Nuclear energy                        46.25145461
 One-electron energy                 -780.79729947
 Two-electron energy                  251.92735466
 Density functional                   -18.02933494     B88=-34.06305486 LYP= -0.99780751
 Virial quotient                       -1.00249423
 !RKS STATE 1.1 Dipole moment           0.15803849     0.38829036     1.10193796
 Dipole moment /Debye                   0.40166747     0.98687102     2.80066348

 Orbital energies:

         1.1          2.1          3.1          4.1          5.1          6.1          7.1          8.1          9.1         10.1
   -102.801365   -10.632918    -9.869492    -7.520632    -7.514756    -7.514756    -0.917363    -0.821649    -0.522396    -0.522393

        11.1         12.1         13.1         14.1         15.1         16.1
     -0.510678    -0.369568    -0.369568    -0.335047     0.001008     0.028831

 HOMO     14.1    -0.335047 =      -9.1171eV
 LUMO     15.1     0.001008 =       0.0274eV
 LUMO-HOMO         0.336055 =       9.1445eV


 **********************************************************************************************************************************
 DATASETS  * FILE   NREC   LENGTH (MB)   RECORD NAMES
              1      20      683.53       500      610      700      900      950      970     1000      129      960     1100   
                                          VAR    BASINP    GEOM    SYMINP    ZMAT    AOBASIS   BASIS     P2S    ABASIS      S 
                                         1400     1410     1200     1210     1080     1600     1650     1300     1700     1800   
                                           T        V       H0       H01     AOSYM     SMH    MOLCAS    ERIS     OPER     GRID   

              2       5        3.86       700     1000      520     1800     2100   
                                         GEOM     BASIS   MCVARS    GRID      RKS  

 PROGRAMS   *        TOTAL        KS       INT
 CPU TIMES  *        63.59     50.39     13.06
 REAL TIME  *       106.27 SEC
 DISK USED  *         2.67 GB      
 **********************************************************************************************************************************


 PROGRAM * Intrinsic Basis Bonding Analysis (IBBA)          Author: G. Knizia

 Molecular orbitals read from record     2100.2  Type=RKS/CANONICAL (state 1.1)
 Fock matrix read from record            2100.2  Type=RKS/TOTAL (state 1.1)
 Orbital energies read from record       2100.2  Type=RKS/CANONICAL (state 1.1)
 Density matrix read from record         2100.2  Type=RKS/CHARGE (state 1.1)

 Number of core orbitals:           6 (   6 )
 Number of closed-shell orbitals:   7 (   7 )
 Number of active  orbitals:        1 (   1 )

 Basis set MINAO-AUTO-PP generated.      Number of basis functions:   18 

 Polarized AO type:                A = (O Ot + (1-O)(1-Ot)) P12
 Orthogonalization method:         Symmetric (Loewdin)
 Localization functional:          L = sum[A,i] <i|n_A|i>^4 -> max

 Localization group 1:  13 orbitals, occupancy  2.000
 Iterative localization: IB/PM,    6 iter; Final gradient 0.93E-10

 Bond order analysis:       [THRPRINT= 0.020]

   CEN ATOM   CEN ATOM     WIBERG.BO      RENORM.BO
     1   C  -   4   H       0.956674       0.999572
     1   C  -   2   H       0.956674       0.999573
     1   C  -   3   H       0.956672       0.999572
     1   C  -   6  CL       0.299665       1.001983
     1   C  -   5   H       0.224992       0.882712

     2   H  -   1   C       0.956674       0.999573

     3   H  -   1   C       0.956672       0.999572

     4   H  -   1   C       0.956674       0.999572

     5   H  -   6  CL       0.729183       0.935142
     5   H  -   1   C       0.224992       0.882712

     6  CL  -   5   H       0.729183       0.935142
     6  CL  -   1   C       0.299665       1.001983


 Valency analysis:

   CEN ATOM   TOT.VALENCE
     1   C       3.394678
     2   H       0.966951
     3   H       0.966950
     4   H       0.966950
     5   H       0.960610
     6  CL       1.051463
 Localization group 2:   1 orbitals, occupancy  1.000
 Iterative localization: IB/PM,    1 iter; Final gradient 0.00E+00

 Bond order analysis:       [THRPRINT= 0.020]

   CEN ATOM   CEN ATOM     WIBERG.BO      RENORM.BO
     1   C  -   6  CL       0.419855       0.500000
     1   C  -   5   H       0.035434       0.500000




     5   H  -   1   C       0.035434       0.500000

     6  CL  -   1   C       0.419855       0.500000


 Valency analysis:

   CEN ATOM   TOT.VALENCE
     1   C       0.472392
     2   H       0.009188
     3   H       0.009191
     4   H       0.009191
     5   H       0.055738
     6  CL       0.448780

 Total charge composition:

   CEN ATOM         s          p       ELECTRONS ->P.CHARGE
     1   C       3.12940    3.29489      6.42429   -0.42429
     2   H       0.82282                 0.82282    0.17718
     3   H       0.82282                 0.82282    0.17718
     4   H       0.82282                 0.82282    0.17718
     5   H       0.83022                 0.83022    0.16978
     6  CL       5.90877   11.36826     17.27703   -0.27703

 Total charge composition, AO contributions:

   CEN ATOM SHL      SPHERICAL COMPONENTS
     1   C  1s       1.99154
     1   C  2s       1.13786
     1   C  2p       1.19383    1.16640    0.93466

     2   H  1s       0.82282

     3   H  1s       0.82282

     4   H  1s       0.82282

     5   H  1s       0.83022

     6  CL  1s       1.99997
     6  CL  2s       1.99837
     6  CL  3s       1.91043
     6  CL  2p       2.00000    1.99997    1.99979
     6  CL  3p       1.98842    1.93134    1.44874

 Active orbital charges:

   CEN ATOM         s          p       ELECTRONS ->SPIN.DEN
     1   C       0.02387    0.59362      0.61749    0.61749
     2   H       0.00462                 0.00462    0.00462
     3   H       0.00462                 0.00462    0.00462
     4   H       0.00462                 0.00462    0.00462
     5   H       0.02869                 0.02869    0.02869
     6  CL       0.00802    0.33195      0.33997    0.33997

 Active orbital charges, AO contributions:

   CEN ATOM SHL      SPHERICAL COMPONENTS
     1   C  1s       0.00004
     1   C  2s       0.02383
     1   C  2p       0.01063    0.06439    0.51859

     2   H  1s       0.00462

     3   H  1s       0.00462

     4   H  1s       0.00462

     5   H  1s       0.02869

     6  CL  1s       0.00000
     6  CL  2s       0.00008
     6  CL  3s       0.00794
     6  CL  2p       0.00000    0.00000    0.00001
     6  CL  3p       0.00597    0.03601    0.28996

 Summary of localized orbital composition:   [THRPRINT= 0.020]

   ORB  GRP  ORB.ENERGY      CENTERS/CHARGES
     1   1  -102.761209     CL  6   2.000
     2   1   -10.514372      C  1   2.000
     3   1    -9.645841     CL  6   2.000
     4   1    -7.514749     CL  6   2.000
     5   1    -7.514749     CL  6   2.000
     6   1    -7.495318     CL  6   2.000
     7   1    -1.093878     CL  6   1.974   (other: 0.026)
     8   1    -0.658257      C  1   1.173   H  3   0.816
     9   1    -0.658257      C  1   1.173   H  4   0.816
    10   1    -0.658251      C  1   1.173   H  2   0.816
    11   1    -0.632808     CL  6   0.957   H  5   0.772   C  1   0.266
    12   1    -0.369916     CL  6   2.000
    13   1    -0.369914     CL  6   2.000
    14   2    -0.221060      C  1   0.617  CL  6   0.340   H  5   0.029

 Localized orbitals saved to record      2100.2  (orbital set 2)


 **********************************************************************************************************************************
 DATASETS  * FILE   NREC   LENGTH (MB)   RECORD NAMES
              1      20      683.53       500      610      700      900      950      970     1000      129      960     1100   
                                          VAR    BASINP    GEOM    SYMINP    ZMAT    AOBASIS   BASIS     P2S    ABASIS      S 
                                         1400     1410     1200     1210     1080     1600     1650     1300     1700     1800   
                                           T        V       H0       H01     AOSYM     SMH    MOLCAS    ERIS     OPER     GRID   

              2       5        4.14       700     1000      520     1800     2100   
                                         GEOM     BASIS   MCVARS    GRID      RKS  

 PROGRAMS   *        TOTAL      IBBA        KS       INT
 CPU TIMES  *        63.63      0.04     50.39     13.06
 REAL TIME  *       106.36 SEC
 DISK USED  *         2.67 GB      
 **********************************************************************************************************************************
 Molecular orbitals read from record     2100.2  Type=RKS/LOCAL(IBO)  
 Occupation numbers read from record     2100.2  Type=RKS/LOCAL(IBO)  
 Orbital energies read from record       2100.2  Type=RKS/LOCAL(IBO)  
 Redundancy group numbers read from rec  2100.2  Type=RKS/LOCAL(IBO)  

 IBBA/aug-cc-pVTZ energy=      0.000000000000

        KS-SCF  
   -500.64782514
 **********************************************************************************************************************************
 Molpro calculation terminated
