
 Primary working directories    : /local
 Secondary working directories  : /local
 Wavefunction directory         : /local/
 Main file repository           : /local/

 SHA1      : b4a5b34a9e711420743f49e6833241d17c61fb3c
 NAME      : 2099.9.b4a5b34
 ARCHNAME  : linux/x86_64_openmp
 FC        : /cm/shared/languages/GCC-6.1/bin/gfortran
 BLASLIB   : -lblas
 id        : simonbennie

 Nodes     nprocs
 node33-027    1

 Using customized tuning parameters: mindgm=1; mindgv=20; mindgc=4; mindgr=1; noblas=0; minvec=7
 default implementation of scratch files=df  

 memory,500,m
 geomtyp=xyz
 nosym
 noorient
 geometry={
 C          0.24412        0.59992        1.70242
 H         -0.67560        0.27848        2.17294
 H          0.35191        1.66379        1.53767
 H          1.14069        0.06579        1.98782
 H          0.05716        0.13997        0.39711
 Cl        -0.13758       -0.33809       -0.95942
 }
 basis={ default,SV(P) }
 {uks,BH-LYP,direct;wf,27,1,1}
 {ibba,bonds=1}

 Variables initialized (895), CPU time= 0.01 sec
 Commands  initialized (725), CPU time= 0.01 sec, 591 directives.
 Default parameters read. Elapsed time= 0.08 sec

 Checking input...
 Passed
1


                                         ***  PROGRAM SYSTEM MOLPRO  ***
                                       Copyright, TTI GmbH Stuttgart, 2015
                                    Version 2099.9 linked May 26 2017 16:03:21


 **********************************************************************************************************************************
 LABEL *                                                                                 
  64 bit serial version                                                                  DATE: 24-Jun-17          TIME: 17:35:27  
 **********************************************************************************************************************************

 SHA1:             b4a5b34a9e711420743f49e6833241d17c61fb3c
 **********************************************************************************************************************************
 SETTING GEOMTYP        =    XYZ

 Variable memory set to  500000000 words,  buffer space 

 ZSYMEL=NOSYM

 SETTING BASIS          =    SV(P)


 Recomputing integrals since basis changed


 Using spherical harmonics

 Library entry C      S def2-SV(P)           selected for orbital group  1
 Library entry C      P def2-SV(P)           selected for orbital group  1
 Library entry C      D def2-SV(P)           selected for orbital group  1
 Library entry H      S def2-SV(P)           selected for orbital group  2
 Library entry CL     S def2-SV(P)           selected for orbital group  3
 Library entry CL     P def2-SV(P)           selected for orbital group  3
 Library entry CL     D def2-SV(P)           selected for orbital group  3


 PROGRAM * SEWARD (Integral evaluation for generally contracted gaussian basis sets)     Author: Roland Lindh, 1990

 Geometry written to block  1 of record 700


 Point group  C1  



 ATOMIC COORDINATES

 NR  ATOM    CHARGE       X              Y              Z

   1  C       6.00    0.461319942    1.133684497    3.217107549
   2  H       1.00   -1.276698970    0.526250931    4.106261485
   3  H       1.00    0.665013520    3.144107429    2.905775170
   4  H       1.00    2.155591693    0.124325082    3.756435385
   5  H       1.00    0.108016745    0.264504966    0.750429141
   6  CL     17.00   -0.259988520   -0.638897505   -1.813041038

 Bond lengths in Bohr (Angstrom)

 1-2  2.044573304  1-3  2.044558459  1-4  2.044562963  1-5  2.639090482  5-6  2.742798436
     ( 1.081941598)     ( 1.081933743)     ( 1.081936126)     ( 1.396546541)     ( 1.451426427)

 Bond angles

  1-5-6  179.98259687   2-1-3  116.29840821   2-1-4  116.29785683   2-1-5  101.23451056

  3-1-4  116.29844720   3-1-5  101.23661595   4-1-5  101.23873676

 NUCLEAR CHARGE:                   27
 NUMBER OF PRIMITIVE AOS:          78
 NUMBER OF SYMMETRY AOS:           76
 NUMBER OF CONTRACTIONS:           40   (  40A   )
 NUMBER OF CORE ORBITALS:           6   (   6A   )
 NUMBER OF VALENCE ORBITALS:       12   (  12A   )


 NUCLEAR REPULSION ENERGY   46.25145461


 Eigenvalues of metric

         1 0.742E-02 0.255E-01 0.650E-01 0.650E-01 0.115E+00 0.233E+00 0.233E+00 0.238E+00


 Contracted 2-electron integrals neglected if value below      1.0D-11
 AO integral compression algorithm  1   Integral accuracy      1.0D-11

     1.835 MB (compressed) written to integral file ( 50.9%)


 NUMBER OF SORTED TWO-ELECTRON INTEGRALS:     336610.     BUFFER LENGTH:  32768
 NUMBER OF SEGMENTS:   1  SEGMENT LENGTH:     336610      RECORD LENGTH: 524288

 Memory used in sort:       0.89 MW

 SORT1 READ      467679. AND WROTE      303766. INTEGRALS IN      1 RECORDS. CPU TIME:     0.00 SEC, REAL TIME:     0.01 SEC
 SORT2 READ      303766. AND WROTE      336610. INTEGRALS IN      7 RECORDS. CPU TIME:     0.04 SEC, REAL TIME:     0.04 SEC

 FILE SIZES:   FILE 1:    31.9 MBYTE,  FILE 4:     4.2 MBYTE,   TOTAL:     36.2 MBYTE

 OPERATOR DM      FOR CENTER  0  COORDINATES:    0.000000    0.000000    0.000000


 **********************************************************************************************************************************
 DATASETS  * FILE   NREC   LENGTH (MB)   RECORD NAMES
              1      19       31.36       500      610      700      900      950      970     1000      129      960     1100   
                                          VAR    BASINP    GEOM    SYMINP    ZMAT    AOBASIS   BASIS     P2S    ABASIS      S 
                                         1400     1410     1200     1210     1080     1600     1650     1300     1700   
                                           T        V       H0       H01     AOSYM     SMH    MOLCAS    ERIS     OPER   

 PROGRAMS   *        TOTAL       INT
 CPU TIMES  *         0.45      0.31
 REAL TIME  *         0.81 SEC
 DISK USED  *        36.51 MB      
 **********************************************************************************************************************************

 Density functional group BH-LYP=B88+LYP
 Functional: B88(Automatically generated (new) B88)                            Gradient terms: 1
 Functional: LYP(Automatically generated (new) LYP)                            Gradient terms: 1
 Use grid at  1800.2


 Exact exchange will be calculated, factor:  0.5000

 Functional: B88                       Factor:  0.5000
 Functional: LYP                       Factor:  1.0000

 Generated new metagrid on record  1800.2 with target accuracy 1.0D-06 and 22338 points in CPU time    0.5
 Computed new grid on record 1800.1 in CPU time    0.5
   35830 words reserved for DFT integration

 PROGRAM * UKS-SCF (Unrestricted Kohn-Sham)     Authors: W. Meyer, H.-J. Werner, P.J. Knowles, 1993

 NUMBER OF ELECTRONS:      14+   13-    SPACE SYMMETRY=1    SPIN SYMMETRY: Doublet 
 CONVERGENCE THRESHOLDS:    1.00E-05 (Density)    1.00E-06 (Energy)
 MAX. NUMBER OF ITERATIONS:       60
 INTERPOLATION TYPE:            DIIS
 INTERPOLATION STEPS:              2 (START)      1 (STEP)
 LEVEL SHIFTS:                 -0.20 (ALPHA)  -0.20 (BETA) 



 Use fine grid record 1800.2 for energy threshold  1.0D-06
 Orbital guess generated from atomic densities. Full valence occupancy:   14

 Molecular orbital dump at record        2200.2

 Initial alpha occupation  14
 Initial beta  occupation  13

 ITERATION    DDIFF          GRAD             ENERGY        2-EL.EN.            DIPOLE MOMENTS         DIIS
    1      0.000D+00      0.000D+00      -500.39343777    506.934242    0.17294    0.42478    1.20541    0
    2      0.961D-02      0.514D-02      -500.41575640    503.944938    0.15575    0.38265    1.08585    1
    3      0.195D-02      0.125D-02      -500.41755950    504.191120    0.15034    0.36938    1.04820    2
    4      0.132D-02      0.668D-03      -500.41829877    504.183675    0.14627    0.35938    1.01983    3
    5      0.508D-03      0.216D-03      -500.41841701    504.155012    0.14383    0.35337    1.00278    4
    6      0.171D-03      0.853D-04      -500.41843690    504.148093    0.14270    0.35061    0.99493    5
    7      0.579D-04      0.264D-04      -500.41843901    504.144301    0.14214    0.34923    0.99102    6
    8      0.229D-04      0.753D-05      -500.41843918    504.143926    0.14200    0.34889    0.99006    7
    9      0.131D-04      0.254D-05      -500.41843921    504.143536    0.14196    0.34878    0.98974    7
   10      0.415D-05      0.738D-06      -500.41843921    504.143619    0.14195    0.34874    0.98965    7
   11      0.114D-05      0.317D-06      -500.41843921    504.143542    0.14194    0.34874    0.98963    7

 Final alpha occupancy:  14
 Final beta  occupancy:  13

 !UKS STATE 1.1 Energy               -500.418439212268
 Nuclear energy                        46.25145461
 One-electron energy                 -780.70502454
 Two-electron energy                  252.07177118
 Density functional                   -18.03664046     B88=-34.08041725 LYP= -0.99643183
 Virial quotient                       -1.00229150
 !UKS STATE 1.1 Dipole moment           0.14194319     0.34873793     0.98963202
 Dipole moment /Debye                   0.36075997     0.88634536     2.51522894

 Orbital energies for positive spin:

         1.1          2.1          3.1          4.1          5.1          6.1          7.1          8.1          9.1         10.1
   -102.741270   -10.634486    -9.854645    -7.518320    -7.503754    -7.503754    -0.921696    -0.827712    -0.536178    -0.521992

        11.1         12.1         13.1         14.1         15.1         16.1
     -0.521988    -0.360424    -0.360424    -0.327515     0.092837     0.159380

 Orbital energies for negative spin:

         1.1          2.1          3.1          4.1          5.1          6.1          7.1          8.1          9.1         10.1
   -102.737090   -10.621337    -9.850724    -7.503182    -7.501574    -7.501573    -0.890027    -0.788411    -0.514067    -0.514064

        11.1         12.1         13.1         14.1         15.1         16.1
     -0.479259    -0.352285    -0.352285    -0.097593     0.099540     0.163745

 HOMO     14.1    -0.327515 =      -8.9121eV
 LUMO    -14.1    -0.097593 =      -2.6556eV
 LUMO-HOMO         0.229922 =       6.2565eV

 EXPECTATION VALUE OF S**2:             0.76368499

 Occupation number threshold for canonical orbitals:  1.999000 (occupied),  0.001000 (virtual)

 Number of pseudo-canonical orbitals per symmetry:   12
 Number of active natural orbitals per symmetry:      3

 Natural orbitals saved to record    2200.2 (Orbital set 3)

 Orbital spaces for UNO-CAS (Min. occupation: 0.020  Max. occupation: 1.980):

 Closed:       13
 Active:        1


 **********************************************************************************************************************************
 DATASETS  * FILE   NREC   LENGTH (MB)   RECORD NAMES
              1      20       32.07       500      610      700      900      950      970     1000      129      960     1100   
                                          VAR    BASINP    GEOM    SYMINP    ZMAT    AOBASIS   BASIS     P2S    ABASIS      S 
                                         1400     1410     1200     1210     1080     1600     1650     1300     1700     1800   
                                           T        V       H0       H01     AOSYM     SMH    MOLCAS    ERIS     OPER     GRID   

              2       5        2.91       700     1000      520     1800     2200   
                                         GEOM     BASIS   MCVARS    GRID      UKS  

 PROGRAMS   *        TOTAL       UKS       INT
 CPU TIMES  *         2.88      2.43      0.31
 REAL TIME  *         3.32 SEC
 DISK USED  *        36.51 MB      
 **********************************************************************************************************************************


 PROGRAM * Intrinsic Basis Bonding Analysis (IBBA)          Author: G. Knizia

 Molecular orbitals read from record     2200.2  Type=UKS/ALPHA (state 1.1)
 Fock matrix read from record            2200.2  Type=UKS/TOTAL (state 1.1)
 Orbital energies read from record       2200.2  Type=UKS/ALPHA (state 1.1)
 Density matrix read from record         2200.2  Type=UKS/CHARGE (state 1.1)

 Number of core orbitals:           6 (   6 )
 Number of closed-shell orbitals:   7 (   7 )
 Number of active  orbitals:        1 (   1 )

 Basis set MINAO-AUTO-PP generated.      Number of basis functions:   18 

 Polarized AO type:                A = (O Ot + (1-O)(1-Ot)) P12
 Orthogonalization method:         Symmetric (Loewdin)
 Localization functional:          L = sum[A,i] <i|n_A|i>^4 -> max

 Localization group 1:  13 orbitals, occupancy  2.000
 Iterative localization: IB/PM,    6 iter; Final gradient 0.11E-08

 Bond order analysis:       [THRPRINT= 0.020]

   CEN ATOM   CEN ATOM     WIBERG.BO      RENORM.BO
     1   C  -   2   H       0.952891       0.999717
     1   C  -   4   H       0.952889       0.999716
     1   C  -   3   H       0.952888       0.999716
     1   C  -   6  CL       0.440866       1.003011
     1   C  -   5   H       0.350688       0.839680

     2   H  -   1   C       0.952891       0.999717

     3   H  -   1   C       0.952888       0.999716

     4   H  -   1   C       0.952889       0.999716

     5   H  -   6  CL       0.592303       0.908926
     5   H  -   1   C       0.350688       0.839680

     6  CL  -   5   H       0.592303       0.908926
     6  CL  -   1   C       0.440866       1.003011


 Valency analysis:

   CEN ATOM   TOT.VALENCE
     1   C       3.650222
     2   H       0.966247
     3   H       0.966247
     4   H       0.966248
     5   H       0.949189
     6  CL       1.065277
 Localization group 2:   1 orbitals, occupancy  1.000
 Iterative localization: IB/PM,    1 iter; Final gradient 0.00E+00

 Bond order analysis:       [THRPRINT= 0.020]

   CEN ATOM   CEN ATOM     WIBERG.BO      RENORM.BO
     1   C  -   6  CL       0.473553       0.500000





     6  CL  -   1   C       0.473553       0.500000


 Valency analysis:

   CEN ATOM   TOT.VALENCE
     1   C       0.498239
     2   H       0.008909
     3   H       0.008912
     4   H       0.008914
     5   H       0.019556
     6  CL       0.494387

 Total charge composition:

   CEN ATOM         s          p       ELECTRONS ->P.CHARGE
     1   C       3.13187    3.41828      6.55015   -0.55015
     2   H       0.82076                 0.82076    0.17924
     3   H       0.82076                 0.82076    0.17924
     4   H       0.82076                 0.82076    0.17924
     5   H       0.78446                 0.78446    0.21554
     6  CL       5.90936   11.29376     17.20312   -0.20312

 Total charge composition, AO contributions:

   CEN ATOM SHL      SPHERICAL COMPONENTS
     1   C  1s       1.99140
     1   C  2s       1.14047
     1   C  2p       1.19770    1.18098    1.03960

     2   H  1s       0.82076

     3   H  1s       0.82076

     4   H  1s       0.82076

     5   H  1s       0.78446

     6  CL  1s       1.99997
     6  CL  2s       1.99833
     6  CL  3s       1.91106
     6  CL  2p       2.00000    1.99997    1.99978
     6  CL  3p       1.98718    1.92332    1.38351

 Active orbital charges:

   CEN ATOM         s          p       ELECTRONS ->SPIN.DEN
     1   C       0.01556    0.51411      0.52967    0.52967
     2   H       0.00447                 0.00447    0.00447
     3   H       0.00448                 0.00448    0.00448
     4   H       0.00448                 0.00448    0.00448
     5   H       0.00988                 0.00988    0.00988
     6  CL       0.00200    0.44503      0.44702    0.44702

 Active orbital charges, AO contributions:

   CEN ATOM SHL      SPHERICAL COMPONENTS
     1   C  1s       0.00005
     1   C  2s       0.01551
     1   C  2p       0.00921    0.05577    0.44913

     2   H  1s       0.00447

     3   H  1s       0.00448

     4   H  1s       0.00448

     5   H  1s       0.00988

     6  CL  1s       0.00000
     6  CL  2s       0.00005
     6  CL  3s       0.00195
     6  CL  2p       0.00000    0.00000    0.00000
     6  CL  3p       0.00800    0.04828    0.38875

 Summary of localized orbital composition:   [THRPRINT= 0.020]

   ORB  GRP  ORB.ENERGY      CENTERS/CHARGES
     1   1  -102.707523     CL  6   2.000
     2   1   -10.508355      C  1   2.000
     3   1    -9.678148     CL  6   2.000
     4   1    -7.502665     CL  6   2.000
     5   1    -7.502664     CL  6   2.000
     6   1    -7.490853     CL  6   2.000
     7   1    -1.042177     CL  6   1.948   C  1   0.032
     8   1    -0.650551      C  1   1.174   H  3   0.813
     9   1    -0.650550      C  1   1.174   H  4   0.813
    10   1    -0.650543      C  1   1.174   H  2   0.813
    11   1    -0.600308     CL  6   0.798   H  5   0.727   C  1   0.467
    12   1    -0.356607     CL  6   2.000
    13   1    -0.356607     CL  6   2.000
    14   2    -0.211713      C  1   0.530  CL  6   0.447   (other: 0.023)

 Localized orbitals saved to record      2200.2  (orbital set 4)


 **********************************************************************************************************************************
 DATASETS  * FILE   NREC   LENGTH (MB)   RECORD NAMES
              1      20       32.07       500      610      700      900      950      970     1000      129      960     1100   
                                          VAR    BASINP    GEOM    SYMINP    ZMAT    AOBASIS   BASIS     P2S    ABASIS      S 
                                         1400     1410     1200     1210     1080     1600     1650     1300     1700     1800   
                                           T        V       H0       H01     AOSYM     SMH    MOLCAS    ERIS     OPER     GRID   

              2       5        2.92       700     1000      520     1800     2200   
                                         GEOM     BASIS   MCVARS    GRID      UKS  

 PROGRAMS   *        TOTAL      IBBA       UKS       INT
 CPU TIMES  *         2.90      0.02      2.43      0.31
 REAL TIME  *         3.40 SEC
 DISK USED  *        36.51 MB      
 **********************************************************************************************************************************
 Molecular orbitals read from record     2200.2  Type=UKS/LOCAL(IBO)  
 Occupation numbers read from record     2200.2  Type=UKS/LOCAL(IBO)  
 Orbital energies read from record       2200.2  Type=UKS/LOCAL(IBO)  
 Redundancy group numbers read from rec  2200.2  Type=UKS/BETA (state 1.1)

 IBBA/SV(P) energy=      0.000000000000

        UKS-SCF 
   -500.41843921
 **********************************************************************************************************************************
 Molpro calculation terminated
