
 Primary working directories    : /local
 Secondary working directories  : /local
 Wavefunction directory         : /local/
 Main file repository           : /local/

 SHA1      : b4a5b34a9e711420743f49e6833241d17c61fb3c
 NAME      : 2099.9.b4a5b34
 ARCHNAME  : linux/x86_64_openmp
 FC        : /cm/shared/languages/GCC-6.1/bin/gfortran
 BLASLIB   : -lblas
 id        : simonbennie

 Nodes     nprocs
 node32-026    1

 Using customized tuning parameters: mindgm=1; mindgv=20; mindgc=4; mindgr=1; noblas=0; minvec=7
 default implementation of scratch files=df  

 memory,500,m
 geomtyp=xyz
 nosym
 noorient
 geometry={
 C          0.24412        0.59992        1.70242
 H         -0.67560        0.27848        2.17294
 H          0.35191        1.66379        1.53767
 H          1.14069        0.06579        1.98782
 H          0.05716        0.13997        0.39711
 Cl        -0.13758       -0.33809       -0.95942
 }
 basis={ default,avdz }
 {ks,B97,direct;wf,27,1,1}
 {ibba,bonds=1}

 Variables initialized (895), CPU time= 0.00 sec
 Commands  initialized (725), CPU time= 0.02 sec, 591 directives.
 Default parameters read. Elapsed time= 0.07 sec

 Checking input...
 Passed
1


                                         ***  PROGRAM SYSTEM MOLPRO  ***
                                       Copyright, TTI GmbH Stuttgart, 2015
                                    Version 2099.9 linked May 26 2017 16:03:21


 **********************************************************************************************************************************
 LABEL *                                                                                 
  64 bit serial version                                                                  DATE: 24-Jun-17          TIME: 22:37:08  
 **********************************************************************************************************************************

 SHA1:             b4a5b34a9e711420743f49e6833241d17c61fb3c
 **********************************************************************************************************************************
 SETTING GEOMTYP        =    XYZ

 Variable memory set to  500000000 words,  buffer space 

 ZSYMEL=NOSYM

 SETTING BASIS          =    AVDZ


 Recomputing integrals since basis changed


 Using spherical harmonics

 Library entry C      S aug-cc-pVDZ          selected for orbital group  1
 Library entry C      P aug-cc-pVDZ          selected for orbital group  1
 Library entry C      D aug-cc-pVDZ          selected for orbital group  1
 Library entry H      S aug-cc-pVDZ          selected for orbital group  2
 Library entry H      P aug-cc-pVDZ          selected for orbital group  2
 Library entry CL     S aug-cc-pVDZ          selected for orbital group  3
 Library entry CL     P aug-cc-pVDZ          selected for orbital group  3
 Library entry CL     D aug-cc-pVDZ          selected for orbital group  3


 PROGRAM * SEWARD (Integral evaluation for generally contracted gaussian basis sets)     Author: Roland Lindh, 1990

 Geometry written to block  1 of record 700


 Point group  C1  



 ATOMIC COORDINATES

 NR  ATOM    CHARGE       X              Y              Z

   1  C       6.00    0.461319942    1.133684497    3.217107549
   2  H       1.00   -1.276698970    0.526250931    4.106261485
   3  H       1.00    0.665013520    3.144107429    2.905775170
   4  H       1.00    2.155591693    0.124325082    3.756435385
   5  H       1.00    0.108016745    0.264504966    0.750429141
   6  CL     17.00   -0.259988520   -0.638897505   -1.813041038

 Bond lengths in Bohr (Angstrom)

 1-2  2.044573304  1-3  2.044558459  1-4  2.044562963  1-5  2.639090482  5-6  2.742798436
     ( 1.081941598)     ( 1.081933743)     ( 1.081936126)     ( 1.396546541)     ( 1.451426427)

 Bond angles

  1-5-6  179.98259687   2-1-3  116.29840821   2-1-4  116.29785683   2-1-5  101.23451056

  3-1-4  116.29844720   3-1-5  101.23661595   4-1-5  101.23873676

 NUCLEAR CHARGE:                   27
 NUMBER OF PRIMITIVE AOS:         133
 NUMBER OF SYMMETRY AOS:          129
 NUMBER OF CONTRACTIONS:           86   (  86A   )
 NUMBER OF CORE ORBITALS:           6   (   6A   )
 NUMBER OF VALENCE ORBITALS:       12   (  12A   )


 NUCLEAR REPULSION ENERGY   46.25145461

 Eigenvalues of metric

         1 0.299E-03 0.726E-03 0.729E-03 0.729E-03 0.141E-02 0.433E-02 0.616E-02 0.628E-02


 Contracted 2-electron integrals neglected if value below      1.0D-11
 AO integral compression algorithm  1   Integral accuracy      1.0D-11

     38.535 MB (compressed) written to integral file ( 53.6%)


 NUMBER OF SORTED TWO-ELECTRON INTEGRALS:    6999411.     BUFFER LENGTH:  32768
 NUMBER OF SEGMENTS:   1  SEGMENT LENGTH:    6999411      RECORD LENGTH: 524288

 Memory used in sort:       7.56 MW

 SORT1 READ     9003610. AND WROTE     6897270. INTEGRALS IN     20 RECORDS. CPU TIME:     0.08 SEC, REAL TIME:     0.18 SEC
 SORT2 READ     6897270. AND WROTE     6999411. INTEGRALS IN    147 RECORDS. CPU TIME:     0.26 SEC, REAL TIME:     0.31 SEC

 FILE SIZES:   FILE 1:    68.9 MBYTE,  FILE 4:    83.9 MBYTE,   TOTAL:    152.8 MBYTE

 OPERATOR DM      FOR CENTER  0  COORDINATES:    0.000000    0.000000    0.000000


 **********************************************************************************************************************************
 DATASETS  * FILE   NREC   LENGTH (MB)   RECORD NAMES
              1      19       61.03       500      610      700      900      950      970     1000      129      960     1100   
                                          VAR    BASINP    GEOM    SYMINP    ZMAT    AOBASIS   BASIS     P2S    ABASIS      S 
                                         1400     1410     1200     1210     1080     1600     1650     1300     1700   
                                           T        V       H0       H01     AOSYM     SMH    MOLCAS    ERIS     OPER   

 PROGRAMS   *        TOTAL       INT
 CPU TIMES  *         1.24      1.11
 REAL TIME  *         1.76 SEC
 DISK USED  *       153.15 MB      
 **********************************************************************************************************************************

 Density functional group B97=B97DF
 Functional: B97DF(Automatically generated (new) B97DF)                        Gradient terms: 1
 Use grid at  1800.2


 Exact exchange will be calculated, factor:  0.1943

 Functional: B97DF                     Factor:  1.0000

 Generated new metagrid on record  1800.2 with target accuracy 1.0D-06 and 22338 points in CPU time    0.5
 Computed new grid on record 1800.1 in CPU time    0.5
   72648 words reserved for DFT integration

 PROGRAM * RKS-SCF (Restricted open shell Kohn-Sham)     Authors: W. Meyer, H.-J. Werner, P.J. Knowles, 1993

 NUMBER OF ELECTRONS:      14+   13-    SPACE SYMMETRY=1    SPIN SYMMETRY: Doublet 
 CONVERGENCE THRESHOLDS:    1.00E-05 (Density)    1.00E-06 (Energy)
 MAX. NUMBER OF ITERATIONS:       60
 INTERPOLATION TYPE:            DIIS
 INTERPOLATION STEPS:              2 (START)      1 (STEP)
 LEVEL SHIFTS:                 -0.60 (CLOSED) -0.30 (OPEN) 



 Use fine grid record 1800.2 for energy threshold  1.0D-06
 Orbital guess generated from atomic densities. Full valence occupancy:   18

 Molecular orbital dump at record        2100.2

 Initial alpha occupancy:  14
 Initial beta  occupancy:  13
 Wave function symmetry:    1

 ITERATION    DDIFF          GRAD             ENERGY        2-EL.EN.            DIPOLE MOMENTS         DIIS   ORB.
    1      0.000D+00      0.000D+00      -500.54641418    527.824559    0.11932    0.29306    0.83178    0    start
    2      0.000D+00      0.523D-02      -500.57755410    524.683578    0.16451    0.40413    1.14715    1    diag,B
    3      0.135D-01      0.174D-02      -500.58086480    524.600481    0.14456    0.35514    1.00809    2    diag,B
    4      0.470D-02      0.346D-03      -500.58118626    524.661138    0.14835    0.36443    1.03445    3    diag,B
    5      0.123D-02      0.175D-03      -500.58130767    524.585014    0.14790    0.36331    1.03129    4    diag,B
    6      0.625D-03      0.620D-04      -500.58133487    524.570447    0.14878    0.36548    1.03746    5    diag,B
    7      0.257D-03      0.198D-04      -500.58133828    524.569364    0.14932    0.36681    1.04123    6    fixocc
    8      0.131D-03      0.665D-05      -500.58133866    524.568631    0.14956    0.36739    1.04286    7    diag,B
    9      0.408D-04      0.191D-05      -500.58133869    524.568770    0.14961    0.36751    1.04321    8    diag,B
   10      0.111D-04      0.643D-06      -500.58133869    524.568832    0.14962    0.36754    1.04329    9    orth
   11      0.570D-05      0.181D-06      -500.58133869    524.568839    0.14962    0.36754    1.04329    0    orth

 Final alpha occupancy:  14
 Final beta  occupancy:  13

 !RKS STATE 1.1 Energy               -500.581338690409
 Nuclear energy                        46.25145461
 One-electron energy                 -780.71751164
 Two-electron energy                  262.28441968
 Density functional                   -28.39970134     B97DF=-28.39970134
 Virial quotient                       -1.00239714
 !RKS STATE 1.1 Dipole moment           0.14961805     0.36753601     1.04329057
 Dipole moment /Debye                   0.38026624     0.93412218     2.65160645

 Orbital energies:

         1.1          2.1          3.1          4.1          5.1          6.1          7.1          8.1          9.1         10.1
   -101.472142   -10.220902    -9.447671    -7.203689    -7.194306    -7.194306    -0.809866    -0.721428    -0.451610    -0.449323

        11.1         12.1         13.1         14.1         15.1         16.1
     -0.449307    -0.308868    -0.308866    -0.277795    -0.009556     0.027742

 HOMO     14.1    -0.277795 =      -7.5592eV
 LUMO     15.1    -0.009556 =      -0.2600eV
 LUMO-HOMO         0.268238 =       7.2991eV


 **********************************************************************************************************************************
 DATASETS  * FILE   NREC   LENGTH (MB)   RECORD NAMES
              1      20       61.74       500      610      700      900      950      970     1000      129      960     1100   
                                          VAR    BASINP    GEOM    SYMINP    ZMAT    AOBASIS   BASIS     P2S    ABASIS      S 
                                         1400     1410     1200     1210     1080     1600     1650     1300     1700     1800   
                                           T        V       H0       H01     AOSYM     SMH    MOLCAS    ERIS     OPER     GRID   

              2       5        3.06       700     1000      520     1800     2100   
                                         GEOM     BASIS   MCVARS    GRID      RKS  

 PROGRAMS   *        TOTAL        KS       INT
 CPU TIMES  *         8.99      7.75      1.11
 REAL TIME  *        10.27 SEC
 DISK USED  *       153.15 MB      
 **********************************************************************************************************************************


 PROGRAM * Intrinsic Basis Bonding Analysis (IBBA)          Author: G. Knizia

 Molecular orbitals read from record     2100.2  Type=RKS/CANONICAL (state 1.1)
 Fock matrix read from record            2100.2  Type=RKS/TOTAL (state 1.1)
 Orbital energies read from record       2100.2  Type=RKS/CANONICAL (state 1.1)
 Density matrix read from record         2100.2  Type=RKS/CHARGE (state 1.1)

 Number of core orbitals:           6 (   6 )
 Number of closed-shell orbitals:   7 (   7 )
 Number of active  orbitals:        1 (   1 )

 Basis set MINAO-AUTO-PP generated.      Number of basis functions:   18 

 Polarized AO type:                A = (O Ot + (1-O)(1-Ot)) P12
 Orthogonalization method:         Symmetric (Loewdin)
 Localization functional:          L = sum[A,i] <i|n_A|i>^4 -> max

 Localization group 1:  13 orbitals, occupancy  2.000
 Iterative localization: IB/PM,    6 iter; Final gradient 0.68E-09

 Bond order analysis:       [THRPRINT= 0.020]

   CEN ATOM   CEN ATOM     WIBERG.BO      RENORM.BO
     1   C  -   2   H       0.955313       0.999527
     1   C  -   3   H       0.955304       0.999526
     1   C  -   4   H       0.955299       0.999526
     1   C  -   6  CL       0.329259       1.002349
     1   C  -   5   H       0.251672       0.870574

     2   H  -   1   C       0.955313       0.999527

     3   H  -   1   C       0.955304       0.999526

     4   H  -   1   C       0.955299       0.999526

     5   H  -   6  CL       0.704148       0.928047
     5   H  -   1   C       0.251672       0.870574

     6  CL  -   5   H       0.704148       0.928047
     6  CL  -   1   C       0.329259       1.002349


 Valency analysis:

   CEN ATOM   TOT.VALENCE
     1   C       3.446847
     2   H       0.966382
     3   H       0.966390
     4   H       0.966383
     5   H       0.962419
     6  CL       1.058685
 Localization group 2:   1 orbitals, occupancy  1.000
 Iterative localization: IB/PM,    1 iter; Final gradient 0.00E+00

 Bond order analysis:       [THRPRINT= 0.020]

   CEN ATOM   CEN ATOM     WIBERG.BO      RENORM.BO
     1   C  -   6  CL       0.435435       0.500000
     1   C  -   5   H       0.031454       0.500000




     5   H  -   1   C       0.031454       0.500000

     6  CL  -   1   C       0.435435       0.500000


 Valency analysis:

   CEN ATOM   TOT.VALENCE
     1   C       0.483219
     2   H       0.009142
     3   H       0.009168
     4   H       0.009165
     5   H       0.051755
     6  CL       0.465160

 Total charge composition:

   CEN ATOM         s          p       ELECTRONS ->P.CHARGE
     1   C       3.13239    3.30665      6.43903   -0.43903
     2   H       0.82124                 0.82124    0.17876
     3   H       0.82128                 0.82128    0.17872
     4   H       0.82125                 0.82125    0.17875
     5   H       0.83273                 0.83273    0.16727
     6  CL       5.91111   11.35336     17.26447   -0.26447

 Total charge composition, AO contributions:

   CEN ATOM SHL      SPHERICAL COMPONENTS
     1   C  1s       1.99178
     1   C  2s       1.14060
     1   C  2p       1.19345    1.16727    0.94593

     2   H  1s       0.82124

     3   H  1s       0.82128

     4   H  1s       0.82125

     5   H  1s       0.83273

     6  CL  1s       1.99997
     6  CL  2s       1.99846
     6  CL  3s       1.91268
     6  CL  2p       2.00000    1.99998    1.99982
     6  CL  3p       1.98813    1.92969    1.43575

 Active orbital charges:

   CEN ATOM         s          p       ELECTRONS ->SPIN.DEN
     1   C       0.02049    0.57111      0.59160    0.59160
     2   H       0.00459                 0.00459    0.00459
     3   H       0.00461                 0.00461    0.00461
     4   H       0.00460                 0.00460    0.00460
     5   H       0.02658                 0.02658    0.02658
     6  CL       0.00618    0.36183      0.36801    0.36801

 Active orbital charges, AO contributions:

   CEN ATOM SHL      SPHERICAL COMPONENTS
     1   C  1s       0.00004
     1   C  2s       0.02046
     1   C  2p       0.01025    0.06196    0.49891

     2   H  1s       0.00459

     3   H  1s       0.00461

     4   H  1s       0.00460

     5   H  1s       0.02658

     6  CL  1s       0.00000
     6  CL  2s       0.00007
     6  CL  3s       0.00611
     6  CL  2p       0.00000    0.00000    0.00000
     6  CL  3p       0.00650    0.03926    0.31607

 Summary of localized orbital composition:   [THRPRINT= 0.020]

   ORB  GRP  ORB.ENERGY      CENTERS/CHARGES
     1   1  -101.435979     CL  6   2.000
     2   1   -10.106603      C  1   2.000
     3   1    -9.255564     CL  6   2.000
     4   1    -7.194302     CL  6   2.000
     5   1    -7.194302     CL  6   2.000
     6   1    -7.182481     CL  6   2.000
     7   1    -0.961638     CL  6   1.968   C  1   0.023
     8   1    -0.574813      C  1   1.174   H  4   0.815
     9   1    -0.574802      C  1   1.174   H  3   0.815
    10   1    -0.574791      C  1   1.174   H  2   0.815
    11   1    -0.558610     CL  6   0.920   H  5   0.774   C  1   0.301
    12   1    -0.309199     CL  6   2.000
    13   1    -0.309197     CL  6   2.000
    14   2    -0.221442      C  1   0.592  CL  6   0.368   H  5   0.027

 Localized orbitals saved to record      2100.2  (orbital set 2)


 **********************************************************************************************************************************
 DATASETS  * FILE   NREC   LENGTH (MB)   RECORD NAMES
              1      20       61.74       500      610      700      900      950      970     1000      129      960     1100   
                                          VAR    BASINP    GEOM    SYMINP    ZMAT    AOBASIS   BASIS     P2S    ABASIS      S 
                                         1400     1410     1200     1210     1080     1600     1650     1300     1700     1800   
                                           T        V       H0       H01     AOSYM     SMH    MOLCAS    ERIS     OPER     GRID   

              2       5        3.12       700     1000      520     1800     2100   
                                         GEOM     BASIS   MCVARS    GRID      RKS  

 PROGRAMS   *        TOTAL      IBBA        KS       INT
 CPU TIMES  *         9.02      0.02      7.75      1.11
 REAL TIME  *        10.33 SEC
 DISK USED  *       153.15 MB      
 **********************************************************************************************************************************
 Molecular orbitals read from record     2100.2  Type=RKS/LOCAL(IBO)  
 Occupation numbers read from record     2100.2  Type=RKS/LOCAL(IBO)  
 Orbital energies read from record       2100.2  Type=RKS/LOCAL(IBO)  
 Redundancy group numbers read from rec  2100.2  Type=RKS/LOCAL(IBO)  

 IBBA/aug-cc-pVDZ energy=      0.000000000000

        KS-SCF  
   -500.58133869
 **********************************************************************************************************************************
 Molpro calculation terminated
