
 Primary working directories    : /local
 Secondary working directories  : /local
 Wavefunction directory         : /local/
 Main file repository           : /local/

 SHA1      : b4a5b34a9e711420743f49e6833241d17c61fb3c
 NAME      : 2099.9.b4a5b34
 ARCHNAME  : linux/x86_64_openmp
 FC        : /cm/shared/languages/GCC-6.1/bin/gfortran
 BLASLIB   : -lblas
 id        : simonbennie

 Nodes     nprocs
 node32-008    1

 Using customized tuning parameters: mindgm=1; mindgv=20; mindgc=4; mindgr=1; noblas=0; minvec=7
 default implementation of scratch files=df  

 memory,500,m
 geomtyp=xyz
 nosym
 noorient
 geometry={
 C          0.24412        0.59992        1.70242
 H         -0.67560        0.27848        2.17294
 H          0.35191        1.66379        1.53767
 H          1.14069        0.06579        1.98782
 H          0.05716        0.13997        0.39711
 Cl        -0.13758       -0.33809       -0.95942
 }
 basis={ default,avdz }
 {uhf,direct;wf,27,1,1}
 {uks,PBE0,direct;maxit,0;wf,27,1,1}
 {ibba,bonds=1}

 Variables initialized (895), CPU time= 0.00 sec
 Commands  initialized (725), CPU time= 0.02 sec, 591 directives.
 Default parameters read. Elapsed time= 0.08 sec

 Checking input...
 Passed
1


                                         ***  PROGRAM SYSTEM MOLPRO  ***
                                       Copyright, TTI GmbH Stuttgart, 2015
                                    Version 2099.9 linked May 26 2017 16:03:21


 **********************************************************************************************************************************
 LABEL *                                                                                 
  64 bit serial version                                                                  DATE: 18-Mar-18          TIME: 02:29:15  
 **********************************************************************************************************************************

 SHA1:             b4a5b34a9e711420743f49e6833241d17c61fb3c
 **********************************************************************************************************************************
 SETTING GEOMTYP        =    XYZ

 Variable memory set to  500000000 words,  buffer space 

 ZSYMEL=NOSYM

 SETTING BASIS          =    AVDZ


 Recomputing integrals since basis changed


 Using spherical harmonics

 Library entry C      S aug-cc-pVDZ          selected for orbital group  1
 Library entry C      P aug-cc-pVDZ          selected for orbital group  1
 Library entry C      D aug-cc-pVDZ          selected for orbital group  1
 Library entry H      S aug-cc-pVDZ          selected for orbital group  2
 Library entry H      P aug-cc-pVDZ          selected for orbital group  2
 Library entry CL     S aug-cc-pVDZ          selected for orbital group  3
 Library entry CL     P aug-cc-pVDZ          selected for orbital group  3
 Library entry CL     D aug-cc-pVDZ          selected for orbital group  3


 PROGRAM * SEWARD (Integral evaluation for generally contracted gaussian basis sets)     Author: Roland Lindh, 1990

 Geometry written to block  1 of record 700


 Point group  C1  



 ATOMIC COORDINATES

 NR  ATOM    CHARGE       X              Y              Z

   1  C       6.00    0.461319942    1.133684497    3.217107549
   2  H       1.00   -1.276698970    0.526250931    4.106261485
   3  H       1.00    0.665013520    3.144107429    2.905775170
   4  H       1.00    2.155591693    0.124325082    3.756435385
   5  H       1.00    0.108016745    0.264504966    0.750429141
   6  CL     17.00   -0.259988520   -0.638897505   -1.813041038

 Bond lengths in Bohr (Angstrom)

 1-2  2.044573304  1-3  2.044558459  1-4  2.044562963  1-5  2.639090482  5-6  2.742798436
     ( 1.081941598)     ( 1.081933743)     ( 1.081936126)     ( 1.396546541)     ( 1.451426427)

 Bond angles

  1-5-6  179.98259687   2-1-3  116.29840821   2-1-4  116.29785683   2-1-5  101.23451056

  3-1-4  116.29844720   3-1-5  101.23661595   4-1-5  101.23873676

 NUCLEAR CHARGE:                   27
 NUMBER OF PRIMITIVE AOS:         133
 NUMBER OF SYMMETRY AOS:          129
 NUMBER OF CONTRACTIONS:           86   (  86A   )
 NUMBER OF CORE ORBITALS:           6   (   6A   )
 NUMBER OF VALENCE ORBITALS:       12   (  12A   )


 NUCLEAR REPULSION ENERGY   46.25145461

 Eigenvalues of metric

         1 0.299E-03 0.726E-03 0.729E-03 0.729E-03 0.141E-02 0.433E-02 0.616E-02 0.628E-02


 Contracted 2-electron integrals neglected if value below      1.0D-11
 AO integral compression algorithm  1   Integral accuracy      1.0D-11

     38.535 MB (compressed) written to integral file ( 53.6%)


 NUMBER OF SORTED TWO-ELECTRON INTEGRALS:    6999411.     BUFFER LENGTH:  32768
 NUMBER OF SEGMENTS:   1  SEGMENT LENGTH:    6999411      RECORD LENGTH: 524288

 Memory used in sort:       7.56 MW

 SORT1 READ     9003610. AND WROTE     6897270. INTEGRALS IN     20 RECORDS. CPU TIME:     0.08 SEC, REAL TIME:     0.19 SEC
 SORT2 READ     6897270. AND WROTE     6999411. INTEGRALS IN    147 RECORDS. CPU TIME:     0.24 SEC, REAL TIME:     0.29 SEC

 FILE SIZES:   FILE 1:    68.9 MBYTE,  FILE 4:    83.9 MBYTE,   TOTAL:    152.8 MBYTE

 OPERATOR DM      FOR CENTER  0  COORDINATES:    0.000000    0.000000    0.000000


 **********************************************************************************************************************************
 DATASETS  * FILE   NREC   LENGTH (MB)   RECORD NAMES
              1      19       61.03       500      610      700      900      950      970     1000      129      960     1100   
                                          VAR    BASINP    GEOM    SYMINP    ZMAT    AOBASIS   BASIS     P2S    ABASIS      S 
                                         1400     1410     1200     1210     1080     1600     1650     1300     1700   
                                           T        V       H0       H01     AOSYM     SMH    MOLCAS    ERIS     OPER   

 PROGRAMS   *        TOTAL       INT
 CPU TIMES  *         1.31      1.16
 REAL TIME  *         1.82 SEC
 DISK USED  *       153.15 MB      
 **********************************************************************************************************************************


 PROGRAM * UHF-SCF       Authors: W. Meyer, H.-J. Werner


 NUMBER OF ELECTRONS:      14+   13-    SPACE SYMMETRY=1    SPIN SYMMETRY: Doublet 
 CONVERGENCE THRESHOLDS:    1.00E-05 (Density)    1.00E-07 (Energy)
 INTEGRAL THRESHOLDS:       1.00E-11 (Initial)    1.00E-11 (Final)
 MAX. NUMBER OF ITERATIONS:       60
 INTERPOLATION TYPE:            DIIS
 INTERPOLATION STEPS:              2 (START)      1 (STEP)
 LEVEL SHIFTS:                 -0.20 (ALPHA)  -0.20 (BETA) 



 Orbital guess generated from atomic densities. Full valence occupancy:   18

 Molecular orbital dump at record        2200.2

 Initial alpha occupation  14
 Initial beta  occupation  13

 Direct Fock-matrix evaluation.        Author: H.-J. Werner (1996)

 Integral Threshold:                  0.1D-10

 ITERATION   DDIFF            GRAD            ENERGY        2-EL.EN.            DIPOLE MOMENTS         DIIS   CPU(IT)  CPU(TOT)
    1      0.000D+00      0.000D+00      -499.60715177    470.069401    0.20581    0.50557    1.43466    0      1.5      2.5
    2      0.649D-02      0.229D-02      -499.63201788    469.254310    0.17277    0.42452    1.20469    1      1.0      3.5
    3      0.314D-02      0.103D-02      -499.63829759    469.275211    0.16721    0.41089    1.16599    2      1.0      4.6
    4      0.145D-02      0.465D-03      -499.64012754    469.277778    0.16580    0.40741    1.15612    3      1.0      5.6
    5      0.469D-03      0.160D-03      -499.64042979    469.264335    0.16612    0.40821    1.15838    4      1.0      6.6
    6      0.237D-03      0.629D-04      -499.64048208    469.253180    0.16566    0.40705    1.15510    5      1.0      7.6
    7      0.724D-04      0.210D-04      -499.64048867    469.251329    0.16506    0.40558    1.15093    6      1.0      8.7
    8      0.271D-04      0.871D-05      -499.64048987    469.250387    0.16468    0.40465    1.14830    7      1.0      9.7
    9      0.152D-04      0.391D-05      -499.64049009    469.250181    0.16453    0.40429    1.14725    7      1.0     10.7
   10      0.509D-05      0.112D-05      -499.64049011    469.249995    0.16451    0.40423    1.14710    7      1.0     11.7
   11      0.241D-05      0.458D-06      -499.64049012    469.249951    0.16450    0.40422    1.14707    7      1.0     12.8

 Final alpha occupancy:  14
 Final beta  occupancy:  13

 !UHF STATE 1.1 Energy               -499.640490116575
 Nuclear energy                        46.25145461
 One-electron energy                 -780.51692043
 Two-electron energy                  234.62497570
 Virial quotient                       -1.00011521
 !UHF STATE 1.1 Dipole moment           0.16450240     0.40422004     1.14706861
 Dipole moment /Debye                   0.41809600     1.02735756     2.91536664

 Orbital energies for positive spin:

         1.1          2.1          3.1          4.1          5.1          6.1          7.1          8.1          9.1         10.1
   -104.821801   -11.291254   -10.546831    -8.022760    -8.009832    -8.009832    -1.097942    -1.002191    -0.639900    -0.618591

        11.1         12.1         13.1         14.1         15.1         16.1
     -0.618588    -0.452045    -0.452045    -0.418318     0.031609     0.055299

 Orbital energies for negative spin:

         1.1          2.1          3.1          4.1          5.1          6.1          7.1          8.1          9.1         10.1
   -104.816179   -11.271830   -10.540932    -8.006496    -8.006496    -7.999886    -1.049722    -0.928360    -0.605746    -0.605743

        11.1         12.1         13.1         14.1         15.1         16.1
     -0.551007    -0.441320    -0.441320     0.007434     0.036869     0.055728

 HOMO     14.1    -0.418318 =     -11.3830eV
 LUMO    -14.1     0.007434 =       0.2023eV
 LUMO-HOMO         0.425753 =      11.5853eV

 EXPECTATION VALUE OF S**2:             0.78352918

 Occupation number threshold for canonical orbitals:  1.999000 (occupied),  0.001000 (virtual)

 Number of pseudo-canonical orbitals per symmetry:   11
 Number of active natural orbitals per symmetry:      5

 Natural orbitals saved to record    2200.2 (Orbital set 3)

 Orbital spaces for UNO-CAS (Min. occupation: 0.020  Max. occupation: 1.980):

 Closed:       13
 Active:        1


 **********************************************************************************************************************************
 DATASETS  * FILE   NREC   LENGTH (MB)   RECORD NAMES
              1      19       61.03       500      610      700      900      950      970     1000      129      960     1100   
                                          VAR    BASINP    GEOM    SYMINP    ZMAT    AOBASIS   BASIS     P2S    ABASIS      S 
                                         1400     1410     1200     1210     1080     1600     1650     1300     1700   
                                           T        V       H0       H01     AOSYM     SMH    MOLCAS    ERIS     OPER   

              2       4        3.14       700     1000      520     2200   
                                         GEOM     BASIS   MCVARS     UHF  

 PROGRAMS   *        TOTAL       UHF       INT
 CPU TIMES  *        14.08     12.77      1.16
 REAL TIME  *        15.38 SEC
 DISK USED  *       153.15 MB      
 **********************************************************************************************************************************

 Density functional group PBE0=PBEX+PBEC
 Functional: PBEX(Automatically generated (new) PBEX)                          Gradient terms: 1
 Functional: PBEC(Automatically generated (new) PBEC)                          Gradient terms: 1
 Use grid at  1800.2


 Exact exchange will be calculated, factor:  0.2500

 Functional: PBEX                      Factor:  0.7500
 Functional: PBEC                      Factor:  1.0000

 Generated new metagrid on record  1800.2 with target accuracy 1.0D-06 and 22338 points in CPU time    0.5
 Computed new grid on record 1800.1 in CPU time    0.5
   72648 words reserved for DFT integration

 PROGRAM * UKS-SCF (Unrestricted Kohn-Sham)     Authors: W. Meyer, H.-J. Werner, P.J. Knowles, 1993

 NUMBER OF ELECTRONS:      14+   13-    SPACE SYMMETRY=1    SPIN SYMMETRY: Doublet 
 CONVERGENCE THRESHOLDS:    1.00E-05 (Density)    1.00E-06 (Energy)
 MAX. NUMBER OF ITERATIONS:        0
 INTERPOLATION TYPE:            DIIS
 INTERPOLATION STEPS:              2 (START)      1 (STEP)
 LEVEL SHIFTS:                 -0.20 (ALPHA)  -0.20 (BETA) 



 Use fine grid record 1800.2 for energy threshold  1.0D-06
 Molecular orbitals read from record     2200.2  Type=UHF/ALPHA (state 1.1)
 Molecular orbitals read from record     2200.2  Type=UHF/BETA (state 1.1)

 Molecular orbital dump at record        2201.2

 Initial alpha occupation  14
 Initial beta  occupation  13

 ITERATION    DDIFF          GRAD             ENERGY        2-EL.EN.            DIPOLE MOMENTS         DIIS
    1      0.000D+00      0.000D+00      -500.44036269    520.403335    0.16450    0.40422    1.14707    0

 Final alpha occupancy:  14
 Final beta  occupancy:  13

 !UKS STATE 1.1 Energy               -500.440362691903
 Nuclear energy                        46.25145461
 One-electron energy                 -780.51692043
 Two-electron energy                  260.20166761
 Density functional                   -26.37656449     PBEX=-33.88663129 PBEC= -0.96159102
 Virial quotient                       -1.00171629
 !UKS STATE 1.1 Dipole moment           0.16450240     0.40422004     1.14706861
 Dipole moment /Debye                   0.41809600     1.02735756     2.91536664

 Orbital energies for positive spin:

         1.1          2.1          3.1          4.1          5.1          6.1          7.1          8.1          9.1         10.1
   -104.818989   -11.277133   -10.543857    -8.011284    -8.008164    -8.008164    -1.061277    -0.611892    -0.611889    -0.446632

        11.1         12.1         13.1         14.1         15.1         16.1
     -0.446632    -0.966408    -0.597063    -0.193149     0.456455     0.642720

 Orbital energies for negative spin:

         1.1          2.1          3.1          4.1          5.1          6.1          7.1          8.1          9.1         10.1
   -104.818989   -11.277133   -10.543857    -8.011284    -8.008164    -8.008164    -1.061277    -0.611892    -0.611889    -0.446632

        11.1         12.1         13.1         14.1         15.1         16.1
     -0.446632    -0.966408    -0.597063    -0.193149     0.456455     0.642720

 HOMO     14.1    -0.193149 =      -5.2559eV
 LUMO    -14.1    -0.193149 =      -5.2559eV
 LUMO-HOMO         0.000000 =       0.0000eV

 EXPECTATION VALUE OF S**2:             0.78352918

 Occupation number threshold for canonical orbitals:  1.999000 (occupied),  0.001000 (virtual)

 Number of pseudo-canonical orbitals per symmetry:   11
 Number of active natural orbitals per symmetry:      5

 Natural orbitals saved to record    2201.2 (Orbital set 3)

 Orbital spaces for UNO-CAS (Min. occupation: 0.020  Max. occupation: 1.980):

 Closed:       13
 Active:        1

 No convergence



 **********************************************************************************************************************************
 DATASETS  * FILE   NREC   LENGTH (MB)   RECORD NAMES
              1      20       61.74       500      610      700      900      950      970     1000      129      960     1100   
                                          VAR    BASINP    GEOM    SYMINP    ZMAT    AOBASIS   BASIS     P2S    ABASIS      S 
                                         1400     1410     1200     1210     1080     1600     1650     1300     1700     1800   
                                           T        V       H0       H01     AOSYM     SMH    MOLCAS    ERIS     OPER     GRID   

              2       6        5.94       700     1000      520     2200     1800     2201   
                                         GEOM     BASIS   MCVARS     UHF     GRID      UKS  

 PROGRAMS   *        TOTAL       UKS       UHF       INT
 CPU TIMES  *        15.33      1.24     12.77      1.16
 REAL TIME  *        16.66 SEC
 DISK USED  *       153.15 MB      
 **********************************************************************************************************************************


 PROGRAM * Intrinsic Basis Bonding Analysis (IBBA)          Author: G. Knizia

 Molecular orbitals read from record     2201.2  Type=UKS/ALPHA (state 1.1)
 Fock matrix read from record            2201.2  Type=UKS/TOTAL (state 1.1)
 Orbital energies read from record       2201.2  Type=UKS/ALPHA (state 1.1)
 Density matrix read from record         2201.2  Type=UKS/CHARGE (state 1.1)

 Number of core orbitals:           6 (   6 )
 Number of closed-shell orbitals:   7 (   7 )
 Number of active  orbitals:        1 (   1 )

 Basis set MINAO-AUTO-PP generated.      Number of basis functions:   18 

 Polarized AO type:                A = (O Ot + (1-O)(1-Ot)) P12
 Orthogonalization method:         Symmetric (Loewdin)
 Localization functional:          L = sum[A,i] <i|n_A|i>^4 -> max

 Localization group 1:  13 orbitals, occupancy  2.000
 Iterative localization: IB/PM,    6 iter; Final gradient 0.98E-09

 Bond order analysis:       [THRPRINT= 0.020]

   CEN ATOM   CEN ATOM     WIBERG.BO      RENORM.BO
     1   C  -   2   H       0.943551       0.999609
     1   C  -   4   H       0.943548       0.999608
     1   C  -   3   H       0.943548       0.999608
     1   C  -   6  CL       0.484460       1.003100
     1   C  -   5   H       0.359824       0.831522

     2   H  -   1   C       0.943551       0.999609

     3   H  -   1   C       0.943548       0.999608

     4   H  -   1   C       0.943548       0.999608

     5   H  -   6  CL       0.556330       0.899268
     5   H  -   1   C       0.359824       0.831522

     6  CL  -   5   H       0.556330       0.899268
     6  CL  -   1   C       0.484460       1.003100


 Valency analysis:

   CEN ATOM   TOT.VALENCE
     1   C       3.674930
     2   H       0.957615
     3   H       0.957615
     4   H       0.957615
     5   H       0.921765
     6  CL       1.076987
 Localization group 2:   1 orbitals, occupancy  1.000
 Iterative localization: IB/PM,    1 iter; Final gradient 0.00E+00

 Bond order analysis:       [THRPRINT= 0.020]

   CEN ATOM   CEN ATOM     WIBERG.BO      RENORM.BO
     1   C  -   6  CL       0.474484       0.500000





     6  CL  -   1   C       0.474484       0.500000


 Valency analysis:

   CEN ATOM   TOT.VALENCE
     1   C       0.499573
     2   H       0.010909
     3   H       0.010913
     4   H       0.010915
     5   H       0.015711
     6  CL       0.496960

 Total charge composition:

   CEN ATOM         s          p       ELECTRONS ->P.CHARGE
     1   C       3.17566    3.47747      6.65314   -0.65314
     2   H       0.79961                 0.79961    0.20039
     3   H       0.79961                 0.79961    0.20039
     4   H       0.79961                 0.79961    0.20039
     5   H       0.72821                 0.72821    0.27179
     6  CL       5.90807   11.31175     17.21982   -0.21982

 Total charge composition, AO contributions:

   CEN ATOM SHL      SPHERICAL COMPONENTS
     1   C  1s       1.99086
     1   C  2s       1.18481
     1   C  2p       1.21119    1.19625    1.07003

     2   H  1s       0.79961

     3   H  1s       0.79961

     4   H  1s       0.79961

     5   H  1s       0.72821

     6  CL  1s       1.99997
     6  CL  2s       1.99810
     6  CL  3s       1.91000
     6  CL  2p       1.99999    1.99996    1.99970
     6  CL  3p       1.98745    1.92525    1.39940

 Active orbital charges:

   CEN ATOM         s          p       ELECTRONS ->SPIN.DEN
     1   C       0.01397    0.50064      0.51461    0.51461
     2   H       0.00548                 0.00548    0.00548
     3   H       0.00549                 0.00549    0.00549
     4   H       0.00549                 0.00549    0.00549
     5   H       0.00792                 0.00792    0.00792
     6  CL       0.00170    0.45931      0.46101    0.46101

 Active orbital charges, AO contributions:

   CEN ATOM SHL      SPHERICAL COMPONENTS
     1   C  1s       0.00006
     1   C  2s       0.01390
     1   C  2p       0.00897    0.05431    0.43736

     2   H  1s       0.00548

     3   H  1s       0.00549

     4   H  1s       0.00549

     5   H  1s       0.00792

     6  CL  1s       0.00000
     6  CL  2s       0.00004
     6  CL  3s       0.00166
     6  CL  2p       0.00000    0.00000    0.00001
     6  CL  3p       0.00825    0.04982    0.40122

 Summary of localized orbital composition:   [THRPRINT= 0.020]

   ORB  GRP  ORB.ENERGY      CENTERS/CHARGES
     1   1  -101.667626     CL  6   2.000
     2   1   -10.182898      C  1   2.000
     3   1    -9.330730     CL  6   2.000
     4   1    -7.248418     CL  6   2.000
     5   1    -7.248417     CL  6   2.000
     6   1    -7.237107     CL  6   2.000
     7   1    -1.002359     CL  6   1.943   C  1   0.032   H  5   0.024
     8   1    -0.604521      C  1   1.196   H  3   0.789
     9   1    -0.604520      C  1   1.196   H  4   0.789
    10   1    -0.604514      C  1   1.196   H  2   0.789
    11   1    -0.548263     CL  6   0.808   H  5   0.660   C  1   0.518
    12   1    -0.325152     CL  6   2.000
    13   1    -0.325151     CL  6   2.000
    14   2    -0.232658      C  1   0.515  CL  6   0.461   (other: 0.024)

 Localized orbitals saved to record      2201.2  (orbital set 4)


 **********************************************************************************************************************************
 DATASETS  * FILE   NREC   LENGTH (MB)   RECORD NAMES
              1      20       61.74       500      610      700      900      950      970     1000      129      960     1100   
                                          VAR    BASINP    GEOM    SYMINP    ZMAT    AOBASIS   BASIS     P2S    ABASIS      S 
                                         1400     1410     1200     1210     1080     1600     1650     1300     1700     1800   
                                           T        V       H0       H01     AOSYM     SMH    MOLCAS    ERIS     OPER     GRID   

              2       6        6.00       700     1000      520     2200     1800     2201   
                                         GEOM     BASIS   MCVARS     UHF     GRID      UKS  

 PROGRAMS   *        TOTAL      IBBA       UKS       UHF       INT
 CPU TIMES  *        15.35      0.02      1.24     12.77      1.16
 REAL TIME  *        16.69 SEC
 DISK USED  *       153.15 MB      
 **********************************************************************************************************************************

 IBBA/aug-cc-pVDZ energy=      0.000000000000

        UKS-SCF         UHF-SCF 
   -500.44036269   -499.64049012
 **********************************************************************************************************************************
 Molpro calculation terminated
