
 Primary working directories    : /local/molpro.pOTVUFogSs
 Secondary working directories  : /local/molpro.pOTVUFogSs
 Wavefunction directory         : /local/
 Main file repository           : /local/molpro.pOTVUFogSs/

 id        : simonbennie

 Nodes     nprocs
 node32-018    1

 Using customized tuning parameters: mindgm=1; mindgv=20; mindgc=4; mindgr=1; noblas=0; minvec=7
 default implementation of scratch files=df  

 memory,500,m
 geomtyp=xyz
 nosym
 noorient
 geometry={
 C          1.45833       -0.44637        0.02548
 C          0.46942        0.69742       -0.02749
 O         -1.85304       -0.31466       -0.05305
 H          1.30176       -1.06108        0.91074
 H          1.36658       -1.08619       -0.85112
 H          2.48224       -0.06688        0.05715
 H          0.47107        1.32544        0.86104
 H          0.53352        1.30350       -0.92856
 H         -0.63023        0.20782       -0.07846
 H         -2.26721        0.38832        0.46575
 }
 basis={default,sto-3g}
 {uhf,direct;wf,27,1,1}
 
 basis={ default,6-31+G(d,p) }
 {uks,PW91,direct;wf,27,1,1}
 {ibba,bonds=1}

 Variables initialized (920), CPU time= 0.00 sec
 Commands  initialized (754), CPU time= 0.01 sec, 615 directives.
 Default parameters read. Elapsed time= 0.11 sec

 Checking input...
 Passed
1


                                         ***  PROGRAM SYSTEM MOLPRO  ***
                                       Copyright, TTI GmbH Stuttgart, 2015
                                    Version 2018.0 linked Jul  6 2018 18:07:13


 **********************************************************************************************************************************
 LABEL *                                                                                 
  64 bit serial version                                                                  DATE: 10-Oct-18          TIME: 13:03:12  
 **********************************************************************************************************************************

 SHA1:             b58f8fddb9d75525be9261ebe3faf0e4279c479b
 **********************************************************************************************************************************
 SETTING GEOMTYP        =    XYZ

 Variable memory set to  500000000 words,  buffer space 

 ZSYMEL=NOSYM

 SETTING BASIS          =    STO-3G


 Recomputing integrals since basis changed


 Using spherical harmonics

 Library entry C      S STO-3G               selected for orbital group  1
 Library entry C      P STO-3G               selected for orbital group  1
 Library entry O      S STO-3G               selected for orbital group  2
 Library entry O      P STO-3G               selected for orbital group  2
 Library entry H      S STO-3G               selected for orbital group  3


 PROGRAM * SEWARD (Integral evaluation for generally contracted gaussian basis sets)     Author: Roland Lindh, 1990

 Geometry written to block  1 of record 700


 Point group  C1  



 ATOMIC COORDINATES

 NR  ATOM    CHARGE       X              Y              Z

   1  C       6.00    2.755844299   -0.843517050    0.048150222
   2  C       6.00    0.887075237    1.317932794   -0.051948571
   3  O       8.00   -3.501738098   -0.594621222   -0.100249971
   4  H       1.00    2.459969880   -2.005150596    1.721049171
   5  H       1.00    2.582461927   -2.052601619   -1.608383699
   6  H       1.00    4.690753775   -0.126384883    0.107997848
   7  H       1.00    0.890193285    2.504718595    1.627129782
   8  H       1.00    1.008206682    2.463258003   -1.754724090
   9  H       1.00   -1.190962095    0.392722883   -0.148267912
  10  H       1.00   -4.284405967    0.733818449    0.880139943

 Bond lengths in Bohr (Angstrom)

 1-2  2.859052816  1-4  2.058039130  1-5  2.058167042  1-6  2.064396998  2-7  2.056155241
     ( 1.512945595)     ( 1.089067407)     ( 1.089135095)     ( 1.092431846)     ( 1.088070496)

  2- 8  2.055696264   2- 9  2.276736689   3- 9  2.513332417   3-10  1.827152247
       ( 1.087827616)       ( 1.204797171)       ( 1.329998239)       ( 0.966887330)

 Bond angles

  1-2-7  114.00226578   1-2-8  114.31102346   1-2-9  106.90871836   2-1-4  111.17423075

  2-1-5  111.15405898   2-1-6  110.55020437   2-9-3  176.37609848   4-1-5  108.09205460

  4-1-6  107.89401437   5-1-6  107.84010630   7-2-8  110.77800657   7-2-9  105.69319509

  8- 2- 9  104.19071435   9- 3-10   96.80351572

 NUCLEAR CHARGE:                   27
 NUMBER OF PRIMITIVE AOS:          66
 NUMBER OF SYMMETRY AOS:           66
 NUMBER OF CONTRACTIONS:           22   (  22A   )
 NUMBER OF CORE ORBITALS:           3   (   3A   )
 NUMBER OF VALENCE ORBITALS:       19   (  19A   )


 NUCLEAR REPULSION ENERGY   76.62128239


 Eigenvalues of metric

         1 0.207E+00 0.251E+00 0.342E+00 0.347E+00 0.372E+00 0.388E+00 0.389E+00 0.406E+00


 Contracted 2-electron integrals neglected if value below      1.0D-11
 AO integral compression algorithm  1   Integral accuracy      1.0D-11

     0.262 MB (compressed) written to integral file (100.0%)


 NUMBER OF SORTED TWO-ELECTRON INTEGRALS:      32131.     BUFFER LENGTH:  32768
 NUMBER OF SEGMENTS:   1  SEGMENT LENGTH:      32131      RECORD LENGTH: 524288

 Memory used in sort:       0.59 MW

 SORT1 READ       37963. AND WROTE       31156. INTEGRALS IN      1 RECORDS. CPU TIME:     0.00 SEC, REAL TIME:     0.01 SEC
 SORT2 READ       31156. AND WROTE       32131. INTEGRALS IN      1 RECORDS. CPU TIME:     0.01 SEC, REAL TIME:     0.01 SEC

 FILE SIZES:   FILE 1:    30.4 MBYTE,  FILE 4:     4.2 MBYTE,   TOTAL:     34.6 MBYTE

 OPERATOR DM      FOR CENTER  0  COORDINATES:    0.000000    0.000000    0.000000


 **********************************************************************************************************************************
 DATASETS  * FILE   NREC   LENGTH (MB)   RECORD NAMES
              1      19       30.27       500      610      700      900      950      970     1000      129      960     1100   
                                          VAR    BASINP    GEOM    SYMINP    ZMAT    AOBASIS   BASIS     P2S    ABASIS      S 
                                         1400     1410     1200     1210     1080     1600     1650     1300     1700   
                                           T        V       H0       H01     AOSYM     SMH    MOLCAS    ERIS     OPER   

 PROGRAMS   *        TOTAL       INT
 CPU TIMES  *         0.64      0.49
 REAL TIME  *         0.98 SEC
 DISK USED  *        35.03 MB
 **********************************************************************************************************************************


 PROGRAM * UHF-SCF       Authors: W. Meyer, H.-J. Werner


 NUMBER OF ELECTRONS:      14+   13-    SPACE SYMMETRY=1    SPIN SYMMETRY: Doublet 
 CONVERGENCE THRESHOLDS:    1.00E-05 (Density)    1.00E-07 (Energy)
 INTEGRAL THRESHOLDS:       1.00E-11 (Initial)    1.00E-11 (Final)
 MAX. NUMBER OF ITERATIONS:       60
 INTERPOLATION TYPE:            DIIS
 INTERPOLATION STEPS:              2 (START)      1 (STEP)
 LEVEL SHIFTS:                 -0.20 (ALPHA)  -0.20 (BETA) 



 Orbital guess generated from atomic densities. Full valence occupancy:   14

 Molecular orbital dump at record        2200.2

 Initial alpha occupation  14
 Initial beta  occupation  13

 Direct Fock-matrix evaluation.        Author: H.-J. Werner (1996)

 Integral Threshold:                  0.1D-10

 ITERATION   DDIFF            GRAD            ENERGY        2-EL.EN.            DIPOLE MOMENTS         DIIS   CPU(IT)  CPU(TOT)
    1      0.000D+00      0.000D+00      -152.44552085    268.281631    1.24842    1.17778    0.55315    0      1.0      1.8
    2      0.347D-01      0.208D-01      -152.58851067    263.969862    0.54704    0.63018    0.32341    1      0.5      2.3
    3      0.138D-01      0.829D-02      -152.61672188    262.509515    0.19071    0.43655    0.24948    2      0.5      2.8
    4      0.885D-02      0.388D-02      -152.62758675    262.324066   -0.05919    0.38318    0.25121    3      0.5      3.3
    5      0.387D-02      0.157D-02      -152.62948130    262.330753   -0.16311    0.36829    0.26010    4      0.5      3.8
    6      0.240D-02      0.830D-03      -152.63013373    262.324005   -0.23130    0.35164    0.26323    5      0.5      4.3
    7      0.147D-02      0.387D-03      -152.63030753    262.317809   -0.26719    0.34251    0.26409    6      0.5      4.9
    8      0.429D-03      0.168D-03      -152.63033159    262.319988   -0.27205    0.34006    0.26348    7      0.5      5.4
    9      0.264D-03      0.791D-04      -152.63033763    262.320476   -0.27450    0.33901    0.26334    8      0.5      5.9
   10      0.842D-04      0.305D-04      -152.63033861    262.320878   -0.27486    0.33860    0.26327    8      0.5      6.4
   11      0.452D-04      0.169D-04      -152.63033891    262.320905   -0.27554    0.33843    0.26329    8      0.5      6.9
   12      0.354D-04      0.140D-04      -152.63033912    262.320899   -0.27568    0.33843    0.26328    8      0.5      7.4
   13      0.777D-04      0.131D-04      -152.63033955    262.320888   -0.27583    0.33843    0.26327    7      0.5      7.8
   14      0.229D-03      0.116D-04      -152.63034049    262.320898   -0.27580    0.33843    0.26321    8      0.5      8.3
   15      0.212D-03      0.732D-05      -152.63034093    262.320824   -0.27578    0.33843    0.26317    8      0.5      8.8
   16      0.104D-03      0.317D-05      -152.63034100    262.320761   -0.27585    0.33846    0.26316    9      0.5      9.3
   17      0.152D-04      0.774D-06      -152.63034100    262.320759   -0.27591    0.33846    0.26316    9      0.5      9.8
   18      0.119D-05      0.244D-06      -152.63034100    262.320758   -0.27591    0.33846    0.26316    9      0.5     10.3
   19      0.364D-06      0.124D-06      -152.63034100    262.320758   -0.27590    0.33846    0.26316    9      0.5     10.8

 Final alpha occupancy:  14
 Final beta  occupancy:  13

 !UHF STATE  1.1 Energy              -152.630341004474
 Nuclear energy                        76.62128239
 One-electron energy                 -360.41200246
 Two-electron energy                  131.16037907
 Virial quotient                       -1.00603507
 !UHF STATE  1.1 Dipole moment         -0.27590363     0.33846331     0.26315611
 Dipole moment /Debye                  -0.70123114     0.86023157     0.66883230

 Orbital energies for positive spin:

         1.1          2.1          3.1          4.1          5.1          6.1          7.1          8.1          9.1         10.1
    -20.301001   -11.029631   -11.020613    -1.312164    -0.979436    -0.806279    -0.629995    -0.571089    -0.558748    -0.523329

        11.1         12.1         13.1         14.1         15.1         16.1
     -0.475709    -0.456504    -0.441306    -0.350949     0.611070     0.654108

 Orbital energies for negative spin:

         1.1          2.1          3.1          4.1          5.1          6.1          7.1          8.1          9.1         10.1
    -20.276092   -11.030577   -11.010625    -1.175113    -0.965213    -0.789313    -0.570143    -0.564746    -0.518804    -0.471308

        11.1         12.1         13.1         14.1         15.1         16.1
     -0.453805    -0.411820    -0.396935     0.267639     0.644386     0.657751


 HOMO     14.1    -0.350949 =      -9.5498eV
 LUMO    -14.1     0.267639 =       7.2828eV
 LUMO-HOMO         0.618588 =      16.8326eV

 EXPECTATION VALUE OF S**2:             0.77042873

 Occupation number threshold for pseudo-canonical orbitals: 1.9990 (occupied), 0.0010 (virtual)

 Number of pseudo-canonical occupied orbitals per symmetry:   11
 Number of active natural orbitals per symmetry:               5

 Natural orbitals saved to record    2200.2 (Orbital set 3)

 Orbital spaces for UNO-CAS (Min. occupation: 0.020  Max. occupation: 1.980):

 Closed:       13
 Active:        1


 **********************************************************************************************************************************
 DATASETS  * FILE   NREC   LENGTH (MB)   RECORD NAMES
              1      19       30.27       500      610      700      900      950      970     1000      129      960     1100   
                                          VAR    BASINP    GEOM    SYMINP    ZMAT    AOBASIS   BASIS     P2S    ABASIS      S 
                                         1400     1410     1200     1210     1080     1600     1650     1300     1700   
                                           T        V       H0       H01     AOSYM     SMH    MOLCAS    ERIS     OPER   

              2       4        2.92       700     1000      520     2200   
                                         GEOM     BASIS   MCVARS     UHF  

 PROGRAMS   *        TOTAL   UHF-SCF       INT
 CPU TIMES  *        11.49     10.85      0.49
 REAL TIME  *        14.24 SEC
 DISK USED  *        35.03 MB
 **********************************************************************************************************************************
 SETTING BASIS          =    6-31+G(D,P)


 Recomputing integrals since basis changed


 Using spherical harmonics

 Library entry C      S 6-31G                selected for orbital group  1
 Library entry C      S 6-31++G              selected for orbital group  1
 Library entry C      P 6-31G                selected for orbital group  1
 Library entry C      P 6-31++G              selected for orbital group  1
 Library entry C      D 6-31G*               selected for orbital group  1
 Library entry O      S 6-31G                selected for orbital group  2
 Library entry O      S 6-31++G              selected for orbital group  2
 Library entry O      P 6-31G                selected for orbital group  2
 Library entry O      P 6-31++G              selected for orbital group  2
 Library entry O      D 6-31G*               selected for orbital group  2
 Library entry H      S 6-31G                selected for orbital group  3
 Library entry H      P 6-31G**              selected for orbital group  3


 PROGRAM * SEWARD (Integral evaluation for generally contracted gaussian basis sets)     Author: Roland Lindh, 1990

 Geometry written to block  1 of record 700


 Point group  C1  



 ATOMIC COORDINATES

 NR  ATOM    CHARGE       X              Y              Z

   1  C       6.00    2.755844299   -0.843517050    0.048150222
   2  C       6.00    0.887075237    1.317932794   -0.051948571
   3  O       8.00   -3.501738098   -0.594621222   -0.100249971
   4  H       1.00    2.459969880   -2.005150596    1.721049171
   5  H       1.00    2.582461927   -2.052601619   -1.608383699
   6  H       1.00    4.690753775   -0.126384883    0.107997848
   7  H       1.00    0.890193285    2.504718595    1.627129782
   8  H       1.00    1.008206682    2.463258003   -1.754724090
   9  H       1.00   -1.190962095    0.392722883   -0.148267912
  10  H       1.00   -4.284405967    0.733818449    0.880139943

 Bond lengths in Bohr (Angstrom)

 1-2  2.859052816  1-4  2.058039130  1-5  2.058167042  1-6  2.064396998  2-7  2.056155241
     ( 1.512945595)     ( 1.089067407)     ( 1.089135095)     ( 1.092431846)     ( 1.088070496)

  2- 8  2.055696264   2- 9  2.276736689   3- 9  2.513332417   3-10  1.827152247
       ( 1.087827616)       ( 1.204797171)       ( 1.329998239)       ( 0.966887330)

 Bond angles

  1-2-7  114.00226578   1-2-8  114.31102346   1-2-9  106.90871836   2-1-4  111.17423075

  2-1-5  111.15405898   2-1-6  110.55020437   2-9-3  176.37609848   4-1-5  108.09205460

  4-1-6  107.89401437   5-1-6  107.84010630   7-2-8  110.77800657   7-2-9  105.69319509

  8- 2- 9  104.19071435   9- 3-10   96.80351572

 NUCLEAR CHARGE:                   27
 NUMBER OF PRIMITIVE AOS:         145
 NUMBER OF SYMMETRY AOS:          142
 NUMBER OF CONTRACTIONS:           89   (  89A   )
 NUMBER OF CORE ORBITALS:           3   (   3A   )
 NUMBER OF VALENCE ORBITALS:       19   (  19A   )


 NUCLEAR REPULSION ENERGY   76.62128239


 Eigenvalues of metric

         1 0.296E-03 0.443E-02 0.835E-02 0.110E-01 0.252E-01 0.301E-01 0.336E-01 0.412E-01


 Contracted 2-electron integrals neglected if value below      1.0D-11
 AO integral compression algorithm  1   Integral accuracy      1.0D-11

     33.292 MB (compressed) written to integral file ( 46.3%)


 NUMBER OF SORTED TWO-ELECTRON INTEGRALS:    8022015.     BUFFER LENGTH:  32768
 NUMBER OF SEGMENTS:   1  SEGMENT LENGTH:    8022015      RECORD LENGTH: 524288

 Memory used in sort:       8.58 MW

 SORT1 READ     8982405. AND WROTE     7217379. INTEGRALS IN     21 RECORDS. CPU TIME:     0.11 SEC, REAL TIME:     0.21 SEC
 SORT2 READ     7217379. AND WROTE     8022015. INTEGRALS IN    127 RECORDS. CPU TIME:     0.22 SEC, REAL TIME:     0.30 SEC

 FILE SIZES:   FILE 1:    63.7 MBYTE,  FILE 4:    88.1 MBYTE,   TOTAL:    151.8 MBYTE

 OPERATOR DM      FOR CENTER  0  COORDINATES:    0.000000    0.000000    0.000000


 **********************************************************************************************************************************
 DATASETS  * FILE   NREC   LENGTH (MB)   RECORD NAMES
              1      19       58.72       500      610      700      900      950      970     1001      129      960     1100   
                                          VAR    BASINP    GEOM    SYMINP    ZMAT    AOBASIS   BASIS     P2S    ABASIS      S 
                                         1400     1410     1200     1210     1080     1600     1650     1300     1700   
                                           T        V       H0       H01     AOSYM     SMH    MOLCAS    ERIS     OPER   

              2       5        2.94       700     1000      520     2200     1001   
                                         GEOM     BASIS   MCVARS     UHF     BASIS   

 PROGRAMS   *        TOTAL       INT   UHF-SCF       INT
 CPU TIMES  *        12.80      1.31     10.85      0.49
 REAL TIME  *        16.12 SEC
 DISK USED  *       154.81 MB
 **********************************************************************************************************************************

 Density functional group PW91=PW91X+PW91C
 Functional: PW91X(Automatically generated (new) PW91X)                        Gradient terms: 1
 Functional: PW91C(Automatically generated (new) PW91C)                        Gradient terms: 1
 Use libxcgrid:  F
 Use grid at  1800.2

 Functional: PW91X                     Factor:  1.0000
 Functional: PW91C                     Factor:  1.0000

 Generated new metagrid on record  1800.2 with target accuracy 1.0D-06 and 36074 points in CPU time    0.8
 Computed new grid on record 1800.1 in CPU time    0.9
   74781 words reserved for DFT integration

 PROGRAM * UKS-SCF (Unrestricted Kohn-Sham)     Authors: W. Meyer, H.-J. Werner, P.J. Knowles, 1993

 NUMBER OF ELECTRONS:      14+   13-    SPACE SYMMETRY=1    SPIN SYMMETRY: Doublet 
 CONVERGENCE THRESHOLDS:    1.00E-05 (Density)    1.00E-06 (Energy)
 MAX. NUMBER OF ITERATIONS:       60
 INTERPOLATION TYPE:            DIIS
 INTERPOLATION STEPS:              2 (START)      1 (STEP)
 LEVEL SHIFTS:                 -0.20 (ALPHA)  -0.20 (BETA) 



 Use fine grid record 1800.2 for energy threshold  1.0D-06
 Molecular orbitals read from record     2200.2  Type=UHF/ALPHA (state 1.1)

 Present basis size:      89
 Previous basis size:     22
 Previous occupation:     14
 Previous closed-shells:  13
 Previous core-orbitals:   3
 Present occupation:      14
 Present closed-shells:   13
 Present core-orbitals:    3
 Wavefunction symmetry:    1   Doublet 

 Orbital overlap <old|new>:  < 1.1| 1.1> = 0.999845   < 2.1| 2.1> = 0.999833   < 3.1| 3.1> = 0.999833   < 4.1| 4.1> = 0.999649
                             < 5.1| 5.1> = 0.999908   < 6.1| 6.1> = 0.999831   < 7.1| 7.1> = 0.998410   < 8.1| 8.1> = 0.999445
                             < 9.1| 9.1> = 0.998065   <10.1|10.1> = 0.998975   <11.1|11.1> = 0.999213   <12.1|12.1> = 0.999434
                             <13.1|13.1> = 0.996097   <14.1|14.1> = 0.998420

 Molecular orbitals read from record     2200.2  Type=UHF/BETA (state 1.1)

 Present basis size:      89
 Previous basis size:     22
 Previous occupation:     14
 Previous closed-shells:  13
 Previous core-orbitals:   3
 Present occupation:      14
 Present closed-shells:   13
 Present core-orbitals:    3
 Wavefunction symmetry:    1   Doublet 

 Orbital overlap <old|new>:  < 1.1| 1.1> = 0.999845   < 2.1| 2.1> = 0.999833   < 3.1| 3.1> = 0.999833   < 4.1| 4.1> = 0.999686
                             < 5.1| 5.1> = 0.999909   < 6.1| 6.1> = 0.999873   < 7.1| 7.1> = 0.999287   < 8.1| 8.1> = 0.999454
                             < 9.1| 9.1> = 0.998964   <10.1|10.1> = 0.999225   <11.1|11.1> = 0.999600   <12.1|12.1> = 0.999167
                             <13.1|13.1> = 0.996003   <14.1|14.1> = 0.997078


 Molecular orbital dump at record        2201.2

 Initial alpha occupation  14
 Initial beta  occupation  13

 ITERATION    DDIFF          GRAD             ENERGY        2-EL.EN.            DIPOLE MOMENTS         DIIS
    1      0.000D+00      0.000D+00      -155.26491861    306.936439   -0.27155    0.33396    0.25970    0
    2      0.130D-01      0.838D-02      -155.45989193    303.026577   -0.15880    0.26078    0.19125    1
    3      0.504D-02      0.250D-02      -155.48950715    304.361693    0.12849    0.56940    0.31944    2
    4      0.324D-02      0.152D-02      -155.50291413    303.223037    0.27859    0.58210    0.31091    3
    5      0.281D-02      0.519D-03      -155.50678854    303.295437    0.53666    0.66990    0.32539    4
    6      0.101D-02      0.236D-03      -155.50726959    303.213890    0.59855    0.67712    0.33160    5
    7      0.421D-03      0.895D-04      -155.50735918    303.198496    0.62693    0.68592    0.33081    6
    8      0.175D-03      0.362D-04      -155.50737449    303.207875    0.63981    0.68541    0.33034    7
    9      0.449D-04      0.894D-05      -155.50737636    303.201857    0.64219    0.68578    0.33087    8
   10      0.149D-04      0.397D-05      -155.50737674    303.205337    0.64237    0.68580    0.33093    8
   11      0.103D-04      0.299D-05      -155.50737698    303.203477    0.64253    0.68575    0.33103    8
   12      0.162D-04      0.208D-05      -155.50737723    303.204029    0.64255    0.68569    0.33128    8
   13      0.120D-04      0.118D-05      -155.50737732    303.203538    0.64263    0.68560    0.33133    8
   14      0.695D-05      0.602D-06      -155.50737734    303.203910    0.64260    0.68557    0.33143    9
   15      0.165D-05      0.255D-06      -155.50737734    303.203779    0.64263    0.68554    0.33144    9

 Final alpha occupancy:  14
 Final beta  occupancy:  13

 !UKS STATE  1.1 Energy              -155.507377344809
 Nuclear energy                        76.62128239
 One-electron energy                 -361.82638914
 Two-electron energy                  151.60188972
 Density functional                   -21.90416031     PW91X=-20.98954980 PW91C= -0.91461052
 Virial quotient                       -1.00685121
 !UKS STATE  1.1 Dipole moment          0.64262729     0.68554157     0.33144390
 Dipole moment /Debye                   1.63328866     1.74235875     0.84239118

 Orbital energies for positive spin:

         1.1          2.1          3.1          4.1          5.1          6.1          7.1          8.1          9.1         10.1
    -18.801665    -9.930559    -9.912256    -0.895646    -0.709945    -0.578511    -0.441613    -0.414845    -0.382057    -0.361479

        11.1         12.1         13.1         14.1         15.1         16.1
     -0.344495    -0.324736    -0.249851    -0.234225    -0.012917     0.003134

 Orbital energies for negative spin:

         1.1          2.1          3.1          4.1          5.1          6.1          7.1          8.1          9.1         10.1
    -18.787131    -9.923868    -9.912238    -0.864563    -0.700949    -0.568776    -0.422144    -0.411169    -0.371740    -0.351631

        11.1         12.1         13.1         14.1         15.1         16.1
     -0.326536    -0.322296    -0.236206    -0.177309    -0.010149     0.004793


 HOMO     14.1    -0.234225 =      -6.3736eV
 LUMO    -14.1    -0.177309 =      -4.8248eV
 LUMO-HOMO         0.056916 =       1.5488eV

 EXPECTATION VALUE OF S**2:             0.75324509

 Occupation number threshold for pseudo-canonical orbitals: 1.9990 (occupied), 0.0010 (virtual)

 Number of pseudo-canonical occupied orbitals per symmetry:   12
 Number of active natural orbitals per symmetry:               3

 Natural orbitals saved to record    2201.2 (Orbital set 3)

 Orbital spaces for UNO-CAS (Min. occupation: 0.020  Max. occupation: 1.980):

 Closed:       13
 Active:        1


 **********************************************************************************************************************************
 DATASETS  * FILE   NREC   LENGTH (MB)   RECORD NAMES
              1      20       59.87       500      610      700      900      950      970     1001      129      960     1100   
                                          VAR    BASINP    GEOM    SYMINP    ZMAT    AOBASIS   BASIS     P2S    ABASIS      S 
                                         1400     1410     1200     1210     1080     1600     1650     1300     1700     1800   
                                           T        V       H0       H01     AOSYM     SMH    MOLCAS    ERIS     OPER     GRID   

              2       7        5.76       700     1000      520     2200     1001     1800     2201   
                                         GEOM     BASIS   MCVARS     UHF     BASIS    GRID      UKS  

 PROGRAMS   *        TOTAL   UKS-SCF       INT   UHF-SCF       INT
 CPU TIMES  *        18.69      5.89      1.31     10.85      0.49
 REAL TIME  *        22.53 SEC
 DISK USED  *       154.81 MB
 **********************************************************************************************************************************


 PROGRAM * Intrinsic Basis Bonding Analysis (IBBA)          Author: G. Knizia

 Molecular orbitals read from record     2201.2  Type=UKS/ALPHA (state 1.1)
 Fock matrix read from record            2201.2  Type=UKS/TOTAL (state 1.1)
 Orbital energies read from record       2201.2  Type=UKS/ALPHA (state 1.1)
 Density matrix read from record         2201.2  Type=UKS/CHARGE (state 1.1)

 Number of core orbitals:           3 (   3 )
 Number of closed-shell orbitals:  10 (  10 )
 Number of active  orbitals:        1 (   1 )

 Basis set MINAO-AUTO-PP generated.      Number of basis functions:   22 

 Polarized AO type:                A = (O Ot + (1-O)(1-Ot)) P12
 Orthogonalization method:         Symmetric (Loewdin)
 Localization functional:          L = sum[A,i] <i|n_A|i>^4 -> max

 Localization group 1:  13 orbitals, occupancy  2.000
 Iterative localization: IB/PM,    9 iter; Final gradient 0.21E-08

 Bond order analysis:       [THRPRINT= 0.020]

   CEN ATOM   CEN ATOM     WIBERG.BO      RENORM.BO
     1   C  -   2   C       1.129510       1.200097
     1   C  -   5   H       0.941918       0.985549
     1   C  -   4   H       0.940990       0.985246
     1   C  -   6   H       0.842204       0.991652
     1   C  -   3   O       0.073410       0.073236

     2   C  -   1   C       1.129510       1.200097
     2   C  -   7   H       0.932163       0.980939
     2   C  -   8   H       0.924367       0.980778
     2   C  -   3   O       0.382904       0.614553
     2   C  -   9   H       0.379527       0.783768
     2   C  -   6   H       0.042025       0.086581

     3   O  -  10   H       0.864101       0.999487
     3   O  -   9   H       0.506017       0.751089
     3   O  -   2   C       0.382904       0.614553
     3   O  -   1   C       0.073410       0.073236
     3   O  -   6   H       0.059778       0.080816
     3   O  -   8   H       0.020187       0.025944

     4   H  -   1   C       0.940990       0.985246

     5   H  -   1   C       0.941918       0.985549

     6   H  -   1   C       0.842204       0.991652
     6   H  -   3   O       0.059778       0.080816
     6   H  -   2   C       0.042025       0.086581

     7   H  -   2   C       0.932163       0.980939

     8   H  -   2   C       0.924367       0.980778
     8   H  -   3   O       0.020187       0.025944

     9   H  -   3   O       0.506017       0.751089
     9   H  -   2   C       0.379527       0.783768

    10   H  -   3   O       0.864101       0.999487


 Valency analysis:

   CEN ATOM   TOT.VALENCE
     1   C       3.938733
     2   C       3.801371
     3   O       1.938962
     4   H       0.971756
     5   H       0.971843
     6   H       0.951490
     7   H       0.969085
     8   H       0.965676
     9   H       0.905702
    10   H       0.865068
 Localization group 2:   1 orbitals, occupancy  1.000
 Iterative localization: IB/PM,    1 iter; Final gradient 0.00E+00

 Bond order analysis:       [THRPRINT= 0.020]

   CEN ATOM   CEN ATOM     WIBERG.BO      RENORM.BO
     1   C  -   3   O       0.033786       0.500000
     1   C  -   2   C       0.028370       0.500000

     2   C  -   3   O       0.356182       0.500000
     2   C  -   6   H       0.035115       0.500000
     2   C  -   9   H       0.028482       0.500000
     2   C  -   1   C       0.028370       0.500000

     3   O  -   2   C       0.356182       0.500000
     3   O  -   6   H       0.041818       0.500000
     3   O  -   9   H       0.033919       0.500000
     3   O  -   1   C       0.033786       0.500000



     6   H  -   3   O       0.041818       0.500000
     6   H  -   2   C       0.035115       0.500000



     9   H  -   3   O       0.033919       0.500000
     9   H  -   2   C       0.028482       0.500000



 Valency analysis:

   CEN ATOM   TOT.VALENCE
     1   C       0.070672
     2   C       0.474330
     3   O       0.496884
     4   H       0.013541
     5   H       0.012518
     6   H       0.086682
     7   H       0.016989
     8   H       0.020939
     9   H       0.070940
    10   H       0.003168

 Total charge composition:

   CEN ATOM         s          p       ELECTRONS ->P.CHARGE
     1   C       3.03269    3.35776      6.39045   -0.39045
     2   C       3.08424    3.27324      6.35748   -0.35748
     3   O       3.78222    4.94538      8.72760   -0.72760
     4   H       0.83876                 0.83876    0.16124
     5   H       0.83850                 0.83850    0.16150
     6   H       0.82515                 0.82515    0.17485
     7   H       0.83274                 0.83274    0.16726
     8   H       0.82531                 0.82531    0.17469
     9   H       0.72975                 0.72975    0.27025
    10   H       0.63426                 0.63426    0.36574

 Total charge composition, AO contributions:

   CEN ATOM SHL      SPHERICAL COMPONENTS
     1   C  1s       1.99111
     1   C  2s       1.04158
     1   C  2p       1.07463    1.09826    1.18486

     2   C  1s       1.99169
     2   C  2s       1.09255
     2   C  2p       0.99619    1.08885    1.18820

     3   O  1s       1.99803
     3   O  2s       1.78419
     3   O  2p       1.41412    1.66709    1.86417

     4   H  1s       0.83876

     5   H  1s       0.83850

     6   H  1s       0.82515

     7   H  1s       0.83274

     8   H  1s       0.82531

     9   H  1s       0.72975

    10   H  1s       0.63426

 Active orbital charges:

   CEN ATOM         s          p       ELECTRONS ->SPIN.DEN
     1   C       0.00037    0.03631      0.03668    0.03668
     2   C       0.01522    0.37149      0.38671    0.38671
     3   O       0.00473    0.45580      0.46053    0.46053
     4   H       0.00682                 0.00682    0.00682
     5   H       0.00630                 0.00630    0.00630
     6   H       0.04540                 0.04540    0.04540
     7   H       0.00857                 0.00857    0.00857
     8   H       0.01058                 0.01058    0.01058
     9   H       0.03683                 0.03683    0.03683
    10   H       0.00159                 0.00159    0.00159

 Active orbital charges, AO contributions:

   CEN ATOM SHL      SPHERICAL COMPONENTS
     1   C  1s       0.00000
     1   C  2s       0.00037
     1   C  2p       0.03500    0.00128    0.00003

     2   C  1s       0.00003
     2   C  2s       0.01519
     2   C  2p       0.30081    0.07055    0.00013

     3   O  1s       0.00003
     3   O  2s       0.00469
     3   O  2p       0.35721    0.09841    0.00018

     4   H  1s       0.00682

     5   H  1s       0.00630

     6   H  1s       0.04540

     7   H  1s       0.00857

     8   H  1s       0.01058

     9   H  1s       0.03683

    10   H  1s       0.00159

 Summary of localized orbital composition:   [THRPRINT= 0.020]

   ORB  GRP  ORB.ENERGY      CENTERS/CHARGES
     1   1   -18.663694      O  3   2.000
     2   1    -9.816375      C  2   2.000
     3   1    -9.797294      C  1   2.000
     4   1    -0.718349      O  3   1.367   H 10   0.632
     5   1    -0.632175      O  3   1.962   C  2   0.020
     6   1    -0.555598      C  2   1.022   C  1   0.954   (other: 0.023)
     7   1    -0.500527      C  2   1.160   H  8   0.802   H  9   0.026
     8   1    -0.499798      C  2   1.155   H  7   0.813   H  9   0.021
     9   1    -0.479799      C  1   1.090   H  6   0.767   C  2   0.105   O  3   0.031
    10   1    -0.458955      C  1   1.148   H  4   0.825   (other: 0.026)
    11   1    -0.458757      C  1   1.149   H  5   0.826   (other: 0.025)
    12   1    -0.445775      O  3   0.887   H  9   0.606   C  2   0.476   (other: 0.031)
    13   1    -0.243369      O  3   1.998
    14   2    -0.206622      O  3   0.461   C  2   0.387   H  6   0.045   H  9   0.037   C  1   0.037   (other: 0.034)

 Localized orbitals saved to record      2201.2  (orbital set 4)


 **********************************************************************************************************************************
 DATASETS  * FILE   NREC   LENGTH (MB)   RECORD NAMES
              1      20       59.87       500      610      700      900      950      970     1001      129      960     1100   
                                          VAR    BASINP    GEOM    SYMINP    ZMAT    AOBASIS   BASIS     P2S    ABASIS      S 
                                         1400     1410     1200     1210     1080     1600     1650     1300     1700     1800   
                                           T        V       H0       H01     AOSYM     SMH    MOLCAS    ERIS     OPER     GRID   

              2       7        5.83       700     1000      520     2200     1001     1800     2201   
                                         GEOM     BASIS   MCVARS     UHF     BASIS    GRID      UKS  

 PROGRAMS   *        TOTAL      IBBA   UKS-SCF       INT   UHF-SCF       INT
 CPU TIMES  *        18.72      0.03      5.89      1.31     10.85      0.49
 REAL TIME  *        22.57 SEC
 DISK USED  *       154.81 MB
 **********************************************************************************************************************************

 IBBA/6-31+G(D,P) energy=      0.000000000000

         UKS-SCF         UHF-SCF
   -155.50737734   -152.63034100
 **********************************************************************************************************************************
 Molpro calculation terminated
