
 Primary working directories    : /local
 Secondary working directories  : /local
 Wavefunction directory         : /local/
 Main file repository           : /local/

 SHA1      : b4a5b34a9e711420743f49e6833241d17c61fb3c
 NAME      : 2099.9.b4a5b34
 ARCHNAME  : linux/x86_64_openmp
 FC        : /cm/shared/languages/GCC-6.1/bin/gfortran
 BLASLIB   : -lblas
 id        : simonbennie

 Nodes     nprocs
 node35-033    1

 Using customized tuning parameters: mindgm=1; mindgv=20; mindgc=4; mindgr=1; noblas=0; minvec=7
 default implementation of scratch files=df  

 memory,500,m
 geomtyp=xyz
 nosym
 noorient
 geometry={
 C          1.45833       -0.44637        0.02548
 C          0.46942        0.69742       -0.02749
 O         -1.85304       -0.31466       -0.05305
 H          1.30176       -1.06108        0.91074
 H          1.36658       -1.08619       -0.85112
 H          2.48224       -0.06688        0.05715
 H          0.47107        1.32544        0.86104
 H          0.53352        1.30350       -0.92856
 H         -0.63023        0.20782       -0.07846
 H         -2.26721        0.38832        0.46575
 }
 basis={ default,svp }
 {ks,PBEREV,direct;wf,27,1,1}
 {ibba,bonds=1}

 Variables initialized (895), CPU time= 0.00 sec
 Commands  initialized (725), CPU time= 0.02 sec, 591 directives.
 Default parameters read. Elapsed time= 0.09 sec

 Checking input...
 Passed
1


                                         ***  PROGRAM SYSTEM MOLPRO  ***
                                       Copyright, TTI GmbH Stuttgart, 2015
                                    Version 2099.9 linked May 26 2017 16:03:21


 **********************************************************************************************************************************
 LABEL *                                                                                 
  64 bit serial version                                                                  DATE: 24-Jun-17          TIME: 23:25:43  
 **********************************************************************************************************************************

 SHA1:             b4a5b34a9e711420743f49e6833241d17c61fb3c
 **********************************************************************************************************************************
 SETTING GEOMTYP        =    XYZ

 Variable memory set to  500000000 words,  buffer space 

 ZSYMEL=NOSYM

 SETTING BASIS          =    SVP


 Recomputing integrals since basis changed


 Using spherical harmonics

 Library entry C      S def2-SVP             selected for orbital group  1
 Library entry C      P def2-SVP             selected for orbital group  1
 Library entry C      D def2-SVP             selected for orbital group  1
 Library entry O      S def2-SVP             selected for orbital group  2
 Library entry O      P def2-SVP             selected for orbital group  2
 Library entry O      D def2-SVP             selected for orbital group  2
 Library entry H      S def2-SVP             selected for orbital group  3
 Library entry H      P def2-SVP             selected for orbital group  3


 PROGRAM * SEWARD (Integral evaluation for generally contracted gaussian basis sets)     Author: Roland Lindh, 1990

 Geometry written to block  1 of record 700


 Point group  C1  



 ATOMIC COORDINATES

 NR  ATOM    CHARGE       X              Y              Z

   1  C       6.00    2.755844299   -0.843517050    0.048150222
   2  C       6.00    0.887075237    1.317932794   -0.051948571
   3  O       8.00   -3.501738098   -0.594621222   -0.100249971
   4  H       1.00    2.459969880   -2.005150596    1.721049171
   5  H       1.00    2.582461927   -2.052601619   -1.608383699
   6  H       1.00    4.690753775   -0.126384883    0.107997848
   7  H       1.00    0.890193285    2.504718595    1.627129782
   8  H       1.00    1.008206682    2.463258003   -1.754724090
   9  H       1.00   -1.190962095    0.392722883   -0.148267912
  10  H       1.00   -4.284405967    0.733818449    0.880139943

 Bond lengths in Bohr (Angstrom)

 1-2  2.859052816  1-4  2.058039130  1-5  2.058167042  1-6  2.064396998  2-7  2.056155241
     ( 1.512945595)     ( 1.089067407)     ( 1.089135095)     ( 1.092431846)     ( 1.088070496)

  2- 8  2.055696264   2- 9  2.276736689   3- 9  2.513332417   3-10  1.827152247
       ( 1.087827616)       ( 1.204797171)       ( 1.329998239)       ( 0.966887330)

 Bond angles

  1-2-7  114.00226578   1-2-8  114.31102346   1-2-9  106.90871836   2-1-4  111.17423075

  2-1-5  111.15405898   2-1-6  110.55020437   2-9-3  176.37609848   4-1-5  108.09205460

  4-1-6  107.89401437   5-1-6  107.84010630   7-2-8  110.77800657   7-2-9  105.69319509

  8- 2- 9  104.19071435   9- 3-10   96.80351572

 NUCLEAR CHARGE:                   27
 NUMBER OF PRIMITIVE AOS:         124
 NUMBER OF SYMMETRY AOS:          121
 NUMBER OF CONTRACTIONS:           77   (  77A   )
 NUMBER OF CORE ORBITALS:           3   (   3A   )
 NUMBER OF VALENCE ORBITALS:       19   (  19A   )


 NUCLEAR REPULSION ENERGY   76.62128239


 Eigenvalues of metric

         1 0.379E-02 0.109E-01 0.249E-01 0.353E-01 0.413E-01 0.454E-01 0.500E-01 0.576E-01


 Contracted 2-electron integrals neglected if value below      1.0D-11
 AO integral compression algorithm  1   Integral accuracy      1.0D-11

     18.612 MB (compressed) written to integral file ( 46.4%)


 NUMBER OF SORTED TWO-ELECTRON INTEGRALS:    4510506.     BUFFER LENGTH:  32768
 NUMBER OF SEGMENTS:   1  SEGMENT LENGTH:    4510506      RECORD LENGTH: 524288

 Memory used in sort:       5.07 MW

 SORT1 READ     4982532. AND WROTE     4054900. INTEGRALS IN     12 RECORDS. CPU TIME:     0.06 SEC, REAL TIME:     0.14 SEC
 SORT2 READ     4054900. AND WROTE     4510506. INTEGRALS IN     71 RECORDS. CPU TIME:     0.15 SEC, REAL TIME:     0.19 SEC

 FILE SIZES:   FILE 1:    48.9 MBYTE,  FILE 4:    50.4 MBYTE,   TOTAL:     99.3 MBYTE

 OPERATOR DM      FOR CENTER  0  COORDINATES:    0.000000    0.000000    0.000000


 **********************************************************************************************************************************
 DATASETS  * FILE   NREC   LENGTH (MB)   RECORD NAMES
              1      19       45.97       500      610      700      900      950      970     1000      129      960     1100   
                                          VAR    BASINP    GEOM    SYMINP    ZMAT    AOBASIS   BASIS     P2S    ABASIS      S 
                                         1400     1410     1200     1210     1080     1600     1650     1300     1700   
                                           T        V       H0       H01     AOSYM     SMH    MOLCAS    ERIS     OPER   

 PROGRAMS   *        TOTAL       INT
 CPU TIMES  *         1.05      0.91
 REAL TIME  *         1.53 SEC
 DISK USED  *        99.74 MB      
 **********************************************************************************************************************************

 Density functional group PBEREV=PBEXREV+PBEC
 Functional: PBEXREV(Automatically generated (new) PBEXREV)                    Gradient terms: 1
 Functional: PBEC(Automatically generated (new) PBEC)                          Gradient terms: 1
 Use grid at  1800.2

 Functional: PBEXREV                   Factor:  1.0000
 Functional: PBEC                      Factor:  1.0000

 Generated new metagrid on record  1800.2 with target accuracy 1.0D-06 and 36074 points in CPU time    0.8
 Computed new grid on record 1800.1 in CPU time    0.9
   65184 words reserved for DFT integration

 PROGRAM * RKS-SCF (Restricted open shell Kohn-Sham)     Authors: W. Meyer, H.-J. Werner, P.J. Knowles, 1993

 NUMBER OF ELECTRONS:      14+   13-    SPACE SYMMETRY=1    SPIN SYMMETRY: Doublet 
 CONVERGENCE THRESHOLDS:    1.00E-05 (Density)    1.00E-06 (Energy)
 MAX. NUMBER OF ITERATIONS:       60
 INTERPOLATION TYPE:            DIIS
 INTERPOLATION STEPS:              2 (START)      1 (STEP)
 LEVEL SHIFTS:                 -0.60 (CLOSED) -0.30 (OPEN) 



 Use fine grid record 1800.2 for energy threshold  1.0D-06
 Orbital guess generated from atomic densities. Full valence occupancy:   14

 Molecular orbital dump at record        2100.2

 Initial alpha occupancy:  14
 Initial beta  occupancy:  13
 Wave function symmetry:    1

 ITERATION    DDIFF          GRAD             ENERGY        2-EL.EN.            DIPOLE MOMENTS         DIIS   ORB.
    1      0.000D+00      0.000D+00      -155.23355154    313.173275    0.60861    0.91704    0.46656    0    start
    2      0.000D+00      0.128D-01      -155.36337780    300.633228    0.50100    0.53569    0.27074    1    diag,B
    3      0.146D-01      0.583D-02      -155.38713099    303.978467    0.58664    0.65421    0.31821    2    diag,B
    4      0.475D-02      0.963D-03      -155.38818209    303.699883    0.47134    0.58586    0.30206    3    diag,B
    5      0.128D-02      0.568D-03      -155.38860370    303.671343    0.46893    0.58646    0.29862    4    diag,B
    6      0.886D-03      0.129D-03      -155.38866207    303.648750    0.45127    0.57851    0.29589    5    diag,B
    7      0.490D-03      0.450D-04      -155.38866912    303.641524    0.44643    0.57747    0.29516    6    fixocc
    8      0.159D-03      0.154D-04      -155.38867025    303.641147    0.44433    0.57678    0.29503    7    diag,B
    9      0.593D-04      0.598D-05      -155.38867047    303.641250    0.44343    0.57664    0.29501    8    diag,B
   10      0.246D-04      0.210D-05      -155.38867050    303.641241    0.44315    0.57660    0.29503    9    orth
   11      0.756D-05      0.899D-06      -155.38867051    303.641289    0.44312    0.57660    0.29504    0    orth

 Final alpha occupancy:  14
 Final beta  occupancy:  13

 !RKS STATE 1.1 Energy               -155.388670512065
 Nuclear energy                        76.62128239
 One-electron energy                 -361.89441038
 Two-electron energy                  151.82064435
 Density functional                   -21.93618687     PBEXREV=-21.07000444 PBEC= -0.86618243
 Virial quotient                       -1.00949984
 !RKS STATE 1.1 Dipole moment           0.44312102     0.57660479     0.29504209
 Dipole moment /Debye                   1.12622751     1.46548721     0.74987309

 Orbital energies:

         1.1          2.1          3.1          4.1          5.1          6.1          7.1          8.1          9.1         10.1
    -18.754153    -9.917974    -9.907994    -0.845752    -0.689069    -0.557600    -0.415708    -0.402163    -0.360308    -0.344047

        11.1         12.1         13.1         14.1         15.1         16.1
     -0.319479    -0.313719    -0.215578    -0.217465     0.039166     0.064638

 HOMO     14.1    -0.217465 =      -5.9175eV
 LUMO     15.1     0.039166 =       1.0658eV
 LUMO-HOMO         0.256631 =       6.9833eV


 **********************************************************************************************************************************
 DATASETS  * FILE   NREC   LENGTH (MB)   RECORD NAMES
              1      20       47.12       500      610      700      900      950      970     1000      129      960     1100   
                                          VAR    BASINP    GEOM    SYMINP    ZMAT    AOBASIS   BASIS     P2S    ABASIS      S 
                                         1400     1410     1200     1210     1080     1600     1650     1300     1700     1800   
                                           T        V       H0       H01     AOSYM     SMH    MOLCAS    ERIS     OPER     GRID   

              2       5        3.08       700     1000      520     1800     2100   
                                         GEOM     BASIS   MCVARS    GRID      RKS  

 PROGRAMS   *        TOTAL        KS       INT
 CPU TIMES  *         8.38      7.33      0.91
 REAL TIME  *        10.25 SEC
 DISK USED  *        99.74 MB      
 **********************************************************************************************************************************


 PROGRAM * Intrinsic Basis Bonding Analysis (IBBA)          Author: G. Knizia

 Molecular orbitals read from record     2100.2  Type=RKS/CANONICAL (state 1.1)
 Fock matrix read from record            2100.2  Type=RKS/TOTAL (state 1.1)
 Orbital energies read from record       2100.2  Type=RKS/CANONICAL (state 1.1)
 Density matrix read from record         2100.2  Type=RKS/CHARGE (state 1.1)

 Number of core orbitals:           3 (   3 )
 Number of closed-shell orbitals:  10 (  10 )
 Number of active  orbitals:        1 (   1 )

 Basis set MINAO-AUTO-PP generated.      Number of basis functions:   22 

 Polarized AO type:                A = (O Ot + (1-O)(1-Ot)) P12
 Orthogonalization method:         Symmetric (Loewdin)
 Localization functional:          L = sum[A,i] <i|n_A|i>^4 -> max

 Localization group 1:  13 orbitals, occupancy  2.000
 Iterative localization: IB/PM,    8 iter; Final gradient 0.54E-09

 Bond order analysis:       [THRPRINT= 0.020]

   CEN ATOM   CEN ATOM     WIBERG.BO      RENORM.BO
     1   C  -   2   C       1.075142       1.097856
     1   C  -   5   H       0.953931       0.984714
     1   C  -   4   H       0.953906       0.984498
     1   C  -   6   H       0.914615       0.988771
     1   C  -   3   O       0.035802       0.049180

     2   C  -   1   C       1.075142       1.097856
     2   C  -   7   H       0.948467       0.980759
     2   C  -   8   H       0.943257       0.980563
     2   C  -   9   H       0.478744       0.823528
     2   C  -   3   O       0.415329       0.809314

     3   O  -  10   H       0.892982       0.999744
     3   O  -   9   H       0.456246       0.839043
     3   O  -   2   C       0.415329       0.809314
     3   O  -   1   C       0.035802       0.049180
     3   O  -   6   H       0.035629       0.063908

     4   H  -   1   C       0.953906       0.984498

     5   H  -   1   C       0.953931       0.984714

     6   H  -   1   C       0.914615       0.988771
     6   H  -   3   O       0.035629       0.063908

     7   H  -   2   C       0.948467       0.980759

     8   H  -   2   C       0.943257       0.980563

     9   H  -   2   C       0.478744       0.823528
     9   H  -   3   O       0.456246       0.839043

    10   H  -   3   O       0.892982       0.999744


 Valency analysis:

   CEN ATOM   TOT.VALENCE
     1   C       3.938418
     2   C       3.878485
     3   O       1.872386
     4   H       0.978194
     5   H       0.978018
     6   H       0.971566
     7   H       0.979518
     8   H       0.977272
     9   H       0.949247
    10   H       0.893643
 Localization group 2:   1 orbitals, occupancy  1.000
 Iterative localization: IB/PM,    1 iter; Final gradient 0.00E+00

 Bond order analysis:       [THRPRINT= 0.020]

   CEN ATOM   CEN ATOM     WIBERG.BO      RENORM.BO

     2   C  -   3   O       0.394592       0.500000

     3   O  -   2   C       0.394592       0.500000
     3   O  -   6   H       0.027917       0.500000
     3   O  -   9   H       0.021343       0.500000



     6   H  -   3   O       0.027917       0.500000



     9   H  -   3   O       0.021343       0.500000



 Valency analysis:

   CEN ATOM   TOT.VALENCE
     1   C       0.025904
     2   C       0.442614
     3   O       0.481274
     4   H       0.007179
     5   H       0.006724
     6   H       0.045686
     7   H       0.008840
     8   H       0.011267
     9   H       0.035125
    10   H       0.002295

 Total charge composition:

   CEN ATOM         s          p       ELECTRONS ->P.CHARGE
     1   C       3.01594    3.37708      6.39302   -0.39302
     2   C       3.04747    3.27874      6.32622   -0.32622
     3   O       3.76892    4.76219      8.53110   -0.53110
     4   H       0.85593                 0.85593    0.14407
     5   H       0.85511                 0.85511    0.14489
     6   H       0.85477                 0.85477    0.14523
     7   H       0.86132                 0.86132    0.13868
     8   H       0.85491                 0.85491    0.14509
     9   H       0.79260                 0.79260    0.20740
    10   H       0.67502                 0.67502    0.32498

 Total charge composition, AO contributions:

   CEN ATOM SHL      SPHERICAL COMPONENTS
     1   C  1s       1.99081
     1   C  2s       1.02513
     1   C  2p       1.09970    1.10380    1.17358

     2   C  1s       1.99147
     2   C  2s       1.05600
     2   C  2p       1.02631    1.08566    1.16678

     3   O  1s       1.99801
     3   O  2s       1.77090
     3   O  2p       1.29278    1.61481    1.85459

     4   H  1s       0.85593

     5   H  1s       0.85511

     6   H  1s       0.85477

     7   H  1s       0.86132

     8   H  1s       0.85491

     9   H  1s       0.79260

    10   H  1s       0.67502

 Active orbital charges:

   CEN ATOM         s          p       ELECTRONS ->SPIN.DEN
     1   C       0.00026    0.01286      0.01312    0.01312
     2   C       0.02041    0.31020      0.33061    0.33061
     3   O       0.00242    0.59434      0.59676    0.59676
     4   H       0.00360                 0.00360    0.00360
     5   H       0.00337                 0.00337    0.00337
     6   H       0.02339                 0.02339    0.02339
     7   H       0.00444                 0.00444    0.00444
     8   H       0.00567                 0.00567    0.00567
     9   H       0.01788                 0.01788    0.01788
    10   H       0.00115                 0.00115    0.00115

 Active orbital charges, AO contributions:

   CEN ATOM SHL      SPHERICAL COMPONENTS
     1   C  1s       0.00000
     1   C  2s       0.00026
     1   C  2p       0.01284    0.00001    0.00002

     2   C  1s       0.00003
     2   C  2s       0.02038
     2   C  2p       0.25333    0.05674    0.00014

     3   O  1s       0.00002
     3   O  2s       0.00240
     3   O  2p       0.45589    0.13688    0.00157

     4   H  1s       0.00360

     5   H  1s       0.00337

     6   H  1s       0.02339

     7   H  1s       0.00444

     8   H  1s       0.00567

     9   H  1s       0.01788

    10   H  1s       0.00115

 Summary of localized orbital composition:   [THRPRINT= 0.020]

   ORB  GRP  ORB.ENERGY      CENTERS/CHARGES
     1   1   -18.631612      O  3   2.000
     2   1    -9.810481      C  2   2.000
     3   1    -9.793808      C  1   2.000
     4   1    -0.688667      O  3   1.325   H 10   0.674
     5   1    -0.602099      O  3   1.952   C  2   0.025   H  9   0.022
     6   1    -0.540443      C  2   1.003   C  1   0.981
     7   1    -0.476533      C  2   1.128   H  7   0.851   (other: 0.022)
     8   1    -0.476304      C  2   1.132   H  8   0.843   (other: 0.025)
     9   1    -0.458912      C  1   1.115   H  6   0.825   C  2   0.035   O  3   0.024
    10   1    -0.451073      H  9   0.732   C  2   0.657   O  3   0.603
    11   1    -0.448979      C  1   1.138   H  4   0.846
    12   1    -0.448612      C  1   1.139   H  5   0.846
    13   1    -0.216010      O  3   1.999
    14   2    -0.187310      O  3   0.597   C  2   0.331   H  6   0.023   (other: 0.049)

 Localized orbitals saved to record      2100.2  (orbital set 2)


 **********************************************************************************************************************************
 DATASETS  * FILE   NREC   LENGTH (MB)   RECORD NAMES
              1      20       47.12       500      610      700      900      950      970     1000      129      960     1100   
                                          VAR    BASINP    GEOM    SYMINP    ZMAT    AOBASIS   BASIS     P2S    ABASIS      S 
                                         1400     1410     1200     1210     1080     1600     1650     1300     1700     1800   
                                           T        V       H0       H01     AOSYM     SMH    MOLCAS    ERIS     OPER     GRID   

              2       5        3.13       700     1000      520     1800     2100   
                                         GEOM     BASIS   MCVARS    GRID      RKS  

 PROGRAMS   *        TOTAL      IBBA        KS       INT
 CPU TIMES  *         8.41      0.02      7.33      0.91
 REAL TIME  *        10.35 SEC
 DISK USED  *        99.74 MB      
 **********************************************************************************************************************************
 Molecular orbitals read from record     2100.2  Type=RKS/LOCAL(IBO)  
 Occupation numbers read from record     2100.2  Type=RKS/LOCAL(IBO)  
 Orbital energies read from record       2100.2  Type=RKS/LOCAL(IBO)  
 Redundancy group numbers read from rec  2100.2  Type=RKS/LOCAL(IBO)  

 IBBA/SVP energy=      0.000000000000

        KS-SCF  
   -155.38867051
 **********************************************************************************************************************************
 Molpro calculation terminated
