
 Primary working directories    : /local
 Secondary working directories  : /local
 Wavefunction directory         : /local/
 Main file repository           : /local/

 SHA1      : b4a5b34a9e711420743f49e6833241d17c61fb3c
 NAME      : 2099.9.b4a5b34
 ARCHNAME  : linux/x86_64_openmp
 FC        : /cm/shared/languages/GCC-6.1/bin/gfortran
 BLASLIB   : -lblas
 id        : simonbennie

 Nodes     nprocs
 node34-005    1

 Using customized tuning parameters: mindgm=1; mindgv=20; mindgc=4; mindgr=1; noblas=0; minvec=7
 default implementation of scratch files=df  

 memory,500,m
 geomtyp=xyz
 nosym
 noorient
 geometry={
 C          1.45833       -0.44637        0.02548
 C          0.46942        0.69742       -0.02749
 O         -1.85304       -0.31466       -0.05305
 H          1.30176       -1.06108        0.91074
 H          1.36658       -1.08619       -0.85112
 H          2.48224       -0.06688        0.05715
 H          0.47107        1.32544        0.86104
 H          0.53352        1.30350       -0.92856
 H         -0.63023        0.20782       -0.07846
 H         -2.26721        0.38832        0.46575
 }
 basis={ default,qzvp }
 {hf,direct;wf,27,1,1}
 {df-ks,B-LYP,direct;maxit,0;wf,27,1,1}
 {ibba,bonds=1}

 Variables initialized (895), CPU time= 0.01 sec
 Commands  initialized (725), CPU time= 0.01 sec, 591 directives.
 Default parameters read. Elapsed time= 0.08 sec

 Checking input...
 Passed
1


                                         ***  PROGRAM SYSTEM MOLPRO  ***
                                       Copyright, TTI GmbH Stuttgart, 2015
                                    Version 2099.9 linked May 26 2017 16:03:21


 **********************************************************************************************************************************
 LABEL *                                                                                 
  64 bit serial version                                                                  DATE: 18-Mar-18          TIME: 04:00:34  
 **********************************************************************************************************************************

 SHA1:             b4a5b34a9e711420743f49e6833241d17c61fb3c
 **********************************************************************************************************************************
 SETTING GEOMTYP        =    XYZ

 Variable memory set to  500000000 words,  buffer space 

 ZSYMEL=NOSYM

 SETTING BASIS          =    QZVP


 Recomputing integrals since basis changed


 Using spherical harmonics

 Library entry C      S def2-QZVP            selected for orbital group  1
 Library entry C      P def2-QZVP            selected for orbital group  1
 Library entry C      D def2-QZVP            selected for orbital group  1
 Library entry C      F def2-QZVP            selected for orbital group  1
 Library entry C      G def2-QZVP            selected for orbital group  1
 Library entry O      S def2-QZVP            selected for orbital group  2
 Library entry O      P def2-QZVP            selected for orbital group  2
 Library entry O      D def2-QZVP            selected for orbital group  2
 Library entry O      F def2-QZVP            selected for orbital group  2
 Library entry O      G def2-QZVP            selected for orbital group  2
 Library entry H      S def2-QZVP            selected for orbital group  3
 Library entry H      P def2-QZVP            selected for orbital group  3
 Library entry H      D def2-QZVP            selected for orbital group  3
 Library entry H      F def2-QZVP            selected for orbital group  3


 PROGRAM * SEWARD (Integral evaluation for generally contracted gaussian basis sets)     Author: Roland Lindh, 1990

 Geometry written to block  1 of record 700


 Point group  C1  



 ATOMIC COORDINATES

 NR  ATOM    CHARGE       X              Y              Z

   1  C       6.00    2.755844299   -0.843517050    0.048150222
   2  C       6.00    0.887075237    1.317932794   -0.051948571
   3  O       8.00   -3.501738098   -0.594621222   -0.100249971
   4  H       1.00    2.459969880   -2.005150596    1.721049171
   5  H       1.00    2.582461927   -2.052601619   -1.608383699
   6  H       1.00    4.690753775   -0.126384883    0.107997848
   7  H       1.00    0.890193285    2.504718595    1.627129782
   8  H       1.00    1.008206682    2.463258003   -1.754724090
   9  H       1.00   -1.190962095    0.392722883   -0.148267912
  10  H       1.00   -4.284405967    0.733818449    0.880139943

 Bond lengths in Bohr (Angstrom)

 1-2  2.859052816  1-4  2.058039130  1-5  2.058167042  1-6  2.064396998  2-7  2.056155241
     ( 1.512945595)     ( 1.089067407)     ( 1.089135095)     ( 1.092431846)     ( 1.088070496)

  2- 8  2.055696264   2- 9  2.276736689   3- 9  2.513332417   3-10  1.827152247
       ( 1.087827616)       ( 1.204797171)       ( 1.329998239)       ( 0.966887330)

 Bond angles

  1-2-7  114.00226578   1-2-8  114.31102346   1-2-9  106.90871836   2-1-4  111.17423075

  2-1-5  111.15405898   2-1-6  110.55020437   2-9-3  176.37609848   4-1-5  108.09205460

  4-1-6  107.89401437   5-1-6  107.84010630   7-2-8  110.77800657   7-2-9  105.69319509

  8- 2- 9  104.19071435   9- 3-10   96.80351572

 NUCLEAR CHARGE:                   27
 NUMBER OF PRIMITIVE AOS:         542
 NUMBER OF SYMMETRY AOS:          462
 NUMBER OF CONTRACTIONS:          381   ( 381A   )
 NUMBER OF CORE ORBITALS:           3   (   3A   )
 NUMBER OF VALENCE ORBITALS:       19   (  19A   )


 NUCLEAR REPULSION ENERGY   76.62128239


 Eigenvalues of metric

         1 0.876E-04 0.105E-03 0.108E-03 0.116E-03 0.119E-03 0.134E-03 0.136E-03 0.345E-03


 Contracted 2-electron integrals neglected if value below      1.0D-11
 AO integral compression algorithm  1   Integral accuracy      1.0D-11

     7416.578 MB (compressed) written to integral file ( 33.3%)


 NUMBER OF SORTED TWO-ELECTRON INTEGRALS: 2647845606.     BUFFER LENGTH:  32768
 NUMBER OF SEGMENTS:  83  SEGMENT LENGTH:   31999951      RECORD LENGTH: 262144

 Memory used in sort:      32.29 MW

 SORT1 READ  2786418261. AND WROTE  1911104876. INTEGRALS IN  10977 RECORDS. CPU TIME:    31.25 SEC, REAL TIME:   149.14 SEC
 SORT2 READ  1911104876. AND WROTE  2647845606. INTEGRALS IN  28292 RECORDS. CPU TIME:    50.63 SEC, REAL TIME:   153.01 SEC

 FILE SIZES:   FILE 1:  7452.0 MBYTE,  FILE 4: 23020.5 MBYTE,   TOTAL:  30472.5 MBYTE

 OPERATOR DM      FOR CENTER  0  COORDINATES:    0.000000    0.000000    0.000000


 **********************************************************************************************************************************
 DATASETS  * FILE   NREC   LENGTH (MB)   RECORD NAMES
              1      19     6729.85       500      610      700      900      950      970     1000      129      960     1100   
                                          VAR    BASINP    GEOM    SYMINP    ZMAT    AOBASIS   BASIS     P2S    ABASIS      S 
                                         1400     1410     1200     1210     1080     1600     1650     1300     1700   
                                           T        V       H0       H01     AOSYM     SMH    MOLCAS    ERIS     OPER   

 PROGRAMS   *        TOTAL       INT
 CPU TIMES  *       190.47    190.33
 REAL TIME  *       427.05 SEC
 DISK USED  *        30.47 GB      
 **********************************************************************************************************************************


 PROGRAM * RHF-SCF (OPEN SHELL)       Authors: W. Meyer, H.-J. Werner


 NUMBER OF ELECTRONS:      14+   13-    SPACE SYMMETRY=1    SPIN SYMMETRY: Doublet 
 CONVERGENCE THRESHOLDS:    1.00E-05 (Density)    1.00E-07 (Energy)
 INTEGRAL THRESHOLDS:       1.00E-11 (Initial)    1.00E-11 (Final)
 MAX. NUMBER OF ITERATIONS:       60
 INTERPOLATION TYPE:            DIIS
 INTERPOLATION STEPS:              2 (START)      1 (STEP)
 LEVEL SHIFTS:                 -0.60 (CLOSED) -0.30 (OPEN) 



 Orbital guess generated from atomic densities. Full valence occupancy:   14

 Molecular orbital dump at record        2100.2

 Initial alpha occupancy:  14
 Initial beta  occupancy:  13
 Wave function symmetry:    1

 Direct Fock-matrix evaluation.        Author: H.-J. Werner (1996)

 Integral Threshold:                  0.1D-10

 ITERATION   DDIFF            GRAD            ENERGY        2-EL.EN.            DIPOLE MOMENTS         DIIS   CPU(IT)  CPU(TOT)
    1      0.000D+00      0.000D+00      -154.54793839    263.677574    1.55539    1.17448    0.49221    0    120.9    127.8     start
    2      0.000D+00      0.332D-02      -154.61330179    260.583827    0.91360    0.74038    0.33407    1    120.1    247.9     diag,B
    3      0.742D-03      0.147D-02      -154.62525640    261.089480    0.83349    0.75192    0.33388    2    116.3    364.2     diag,B
    4      0.221D-03      0.596D-03      -154.63316331    261.040654    0.63582    0.69284    0.32201    3    116.4    480.6     diag,B
    5      0.226D-03      0.310D-03      -154.63705404    261.029957    0.48719    0.65671    0.32282    4    115.5    596.1     diag,B
    6      0.166D-03      0.221D-03      -154.64029764    261.016882    0.32679    0.61403    0.32576    5    115.6    711.8     diag,B
    7      0.181D-03      0.179D-03      -154.64373632    261.015069    0.08122    0.54524    0.32908    6    116.0    827.8     fixocc
    8      0.271D-03      0.962D-04      -154.64428195    261.021720   -0.00508    0.51739    0.32852    7    113.9    941.7     diag,B
    9      0.862D-04      0.562D-04      -154.64448305    261.020620   -0.08208    0.49612    0.32855    8    113.5   1055.2     diag,B
   10      0.722D-04      0.270D-04      -154.64450074    261.019105   -0.07726    0.49647    0.32775    9    111.7   1166.9     orth
   11      0.316D-04      0.181D-04      -154.64451664    261.019757   -0.09723    0.49098    0.32765    9    111.3   1278.1     diag,B
   12      0.279D-04      0.101D-04      -154.64452177    261.019707   -0.09263    0.49143    0.32720    9    108.9   1387.0     diag,B
   13      0.118D-04      0.541D-05      -154.64452357    261.020297   -0.09686    0.48988    0.32703    9    111.6   1498.6     diag,B
   14      0.878D-05      0.169D-05      -154.64452370    261.020416   -0.09617    0.48989    0.32695    9    104.9   1603.5     diag,B
   15      0.251D-05      0.647D-06      -154.64452372    261.020455   -0.09625    0.48985    0.32692    9    101.3   1704.8     diag,B
   16      0.108D-05      0.441D-06      -154.64452374    261.020450   -0.09627    0.48986    0.32691    0     94.3   1799.1     orth

 Final alpha occupancy:  14
 Final beta  occupancy:  13

 !RHF STATE 1.1 Energy               -154.644523741503
 Nuclear energy                        76.62128239
 One-electron energy                 -361.77603129
 Two-electron energy                  130.51022516
 Virial quotient                       -1.00026578
 !RHF STATE 1.1 Dipole moment          -0.09627056     0.48985512     0.32690849
 Dipole moment /Debye                  -0.24467934     1.24500597     0.83086407

 Orbital energies:

         1.1          2.1          3.1          4.1          5.1          6.1          7.1          8.1          9.1         10.1
    -20.604798   -11.219078   -11.210505    -1.320803    -1.017872    -0.837585    -0.669198    -0.604194    -0.590106    -0.533282

        11.1         12.1         13.1         14.1         15.1         16.1
     -0.518325    -0.496868    -0.492570    -0.525207     0.098162     0.121345

 HOMO     14.1    -0.525207 =     -14.2916eV
 LUMO     15.1     0.098162 =       2.6711eV
 LUMO-HOMO         0.623370 =      16.9628eV


 **********************************************************************************************************************************
 DATASETS  * FILE   NREC   LENGTH (MB)   RECORD NAMES
              1      19     6729.85       500      610      700      900      950      970     1000      129      960     1100   
                                          VAR    BASINP    GEOM    SYMINP    ZMAT    AOBASIS   BASIS     P2S    ABASIS      S 
                                         1400     1410     1200     1210     1080     1600     1650     1300     1700   
                                           T        V       H0       H01     AOSYM     SMH    MOLCAS    ERIS     OPER   

              2       4        7.04       700     1000      520     2100   
                                         GEOM     BASIS   MCVARS     RHF  

 PROGRAMS   *        TOTAL        HF       INT
 CPU TIMES  *      1989.72   1799.25    190.33
 REAL TIME  *      2420.23 SEC
 DISK USED  *        30.47 GB      
 **********************************************************************************************************************************

 Density functional group B-LYP=B88+LYP
 Functional: B88(Automatically generated (new) B88)                            Gradient terms: 1
 Functional: LYP(Automatically generated (new) LYP)                            Gradient terms: 1
 Use grid at  1800.2

 Functional: B88                       Factor:  1.0000
 Functional: LYP                       Factor:  1.0000

 Generated new metagrid on record  1800.2 with target accuracy 1.0D-06 and 39386 points in CPU time    0.8
 Computed new grid on record 1800.1 in CPU time    0.9
  306758 words reserved for DFT integration

 PROGRAM * RKS-SCF (Restricted open shell Kohn-Sham)     Authors: W. Meyer, H.-J. Werner, P.J. Knowles, 1993

 NUMBER OF ELECTRONS:      14+   13-    SPACE SYMMETRY=1    SPIN SYMMETRY: Doublet 
 CONVERGENCE THRESHOLDS:    1.00E-05 (Density)    1.00E-06 (Energy)
 INTEGRAL THRESHOLDS:       1.00E-11 (Initial)    1.00E-11 (Final)
 MAX. NUMBER OF ITERATIONS:        0
 INTERPOLATION TYPE:            DIIS
 INTERPOLATION STEPS:              2 (START)      1 (STEP)
 LEVEL SHIFTS:                 -0.60 (CLOSED) -0.30 (OPEN) 



 Use fine grid record 1800.2 for energy threshold  1.0D-06

 Basis set DEF2-QZVPP/JFIT generated.    Number of basis functions:   224 
 Coulomb fitting
 Screening thresholds:    THRAO_COUL= 1.0D-14    THRAO= 1.0D-12    THROV= 1.0D-12

 Reserved 17 MW to cache 100.0% of significant integrals. CPU: 0.5 sec

 Molecular orbitals read from record     2100.2  Type=RHF/CANONICAL (state 1.1)

 Molecular orbital dump at record        2101.2

 ITERATION   DDIFF            GRAD            ENERGY        2-EL.EN.            DIPOLE MOMENTS         DIIS   CPU(IT)  CPU(TOT)  ORB.
    1      0.000D+00      0.000D+00      -155.52595707    303.129165   -0.09627    0.48986    0.32691    0      6.9      7.6     start

 Final alpha occupancy:  14
 Final beta  occupancy:  13

 !RKS STATE 1.1 Energy               -155.525957072186
 Nuclear energy                        76.62128239
 One-electron energy                 -361.77603129
 Two-electron energy                  151.56458260
 Density functional                   -21.93579077     B88=-21.07062739 LYP= -0.86516339
 Virial quotient                       -1.00596703
 !RKS STATE 1.1 Dipole moment          -0.09627056     0.48985512     0.32690849
 Dipole moment /Debye                  -0.24467934     1.24500597     0.83086407

 Orbital energies:

         1.1          2.1          3.1          4.1          5.1          6.1          7.1          8.1          9.1         10.1
    -20.604798   -11.219078   -11.210505    -1.320803    -1.017872    -0.837585    -0.669198    -0.604194    -0.590106    -0.533282

        11.1         12.1         13.1         14.1         15.1         16.1
     -0.518325    -0.496868    -0.492570    -0.525207     0.098162     0.121345

 HOMO     14.1    -0.525207 =     -14.2916eV
 LUMO     15.1     0.098162 =       2.6711eV
 LUMO-HOMO         0.623370 =      16.9628eV


 **********************************************************************************************************************************
 DATASETS  * FILE   NREC   LENGTH (MB)   RECORD NAMES
              1      20     6731.11       500      610      700      900      950      970     1000      129      960     1100   
                                          VAR    BASINP    GEOM    SYMINP    ZMAT    AOBASIS   BASIS     P2S    ABASIS      S 
                                         1400     1410     1200     1210     1080     1600     1650     1300     1700     1800   
                                           T        V       H0       H01     AOSYM     SMH    MOLCAS    ERIS     OPER     GRID   

              2       6       15.36       700     1000      520     2100     1800     2101   
                                         GEOM     BASIS   MCVARS     RHF     GRID      RKS  

 PROGRAMS   *        TOTAL        KS        HF       INT
 CPU TIMES  *      1998.35      8.63   1799.25    190.33
 REAL TIME  *      2428.94 SEC
 DISK USED  *        30.47 GB      
 **********************************************************************************************************************************


 PROGRAM * Intrinsic Basis Bonding Analysis (IBBA)          Author: G. Knizia

 Molecular orbitals read from record     2101.2  Type=RKS/CANONICAL (state 1.1)
 Fock matrix read from record            2101.2  Type=RKS/TOTAL (state 1.1)
 Orbital energies read from record       2101.2  Type=RKS/CANONICAL (state 1.1)
 Density matrix read from record         2101.2  Type=RKS/CHARGE (state 1.1)

 Number of core orbitals:           3 (   3 )
 Number of closed-shell orbitals:  10 (  10 )
 Number of active  orbitals:        1 (   1 )

 Basis set MINAO-AUTO-PP generated.      Number of basis functions:   22 

 Polarized AO type:                A = (O Ot + (1-O)(1-Ot)) P12
 Orthogonalization method:         Symmetric (Loewdin)
 Localization functional:          L = sum[A,i] <i|n_A|i>^4 -> max

 Localization group 1:  13 orbitals, occupancy  2.000
 Iterative localization: IB/PM,    7 iter; Final gradient 0.28E-09

 Bond order analysis:       [THRPRINT= 0.020]

   CEN ATOM   CEN ATOM     WIBERG.BO      RENORM.BO
     1   C  -   2   C       1.041074       1.041497
     1   C  -   4   H       0.968142       0.987145
     1   C  -   5   H       0.967834       0.987130
     1   C  -   6   H       0.962703       0.986841

     2   C  -   1   C       1.041074       1.041497
     2   C  -   7   H       0.966569       0.984743
     2   C  -   8   H       0.963663       0.984719
     2   C  -   9   H       0.697585       0.902784
     2   C  -   3   O       0.290728       0.943699

     3   O  -  10   H       0.855613       0.999885
     3   O  -   2   C       0.290728       0.943699
     3   O  -   9   H       0.264311       0.915605

     4   H  -   1   C       0.968142       0.987145

     5   H  -   1   C       0.967834       0.987130

     6   H  -   1   C       0.962703       0.986841

     7   H  -   2   C       0.966569       0.984743

     8   H  -   2   C       0.963663       0.984719

     9   H  -   2   C       0.697585       0.902784
     9   H  -   3   O       0.264311       0.915605

    10   H  -   3   O       0.855613       0.999885


 Valency analysis:

   CEN ATOM   TOT.VALENCE
     1   C       3.950047
     2   C       3.961399
     3   O       1.441770
     4   H       0.984179
     5   H       0.983925
     6   H       0.984354
     7   H       0.985775
     8   H       0.984006
     9   H       0.975041
    10   H       0.856553
 Localization group 2:   1 orbitals, occupancy  1.000
 Iterative localization: IB/PM,    1 iter; Final gradient 0.00E+00

 Bond order analysis:       [THRPRINT= 0.020]

   CEN ATOM   CEN ATOM     WIBERG.BO      RENORM.BO

     2   C  -   3   O       0.275103       0.500000

     3   O  -   2   C       0.275103       0.500000









 Valency analysis:

   CEN ATOM   TOT.VALENCE
     1   C       0.005136
     2   C       0.282927
     3   O       0.312100
     4   H       0.001449
     5   H       0.001354
     6   H       0.011204
     7   H       0.002698
     8   H       0.003573
     9   H       0.017457
    10   H       0.002753

 Total charge composition:

   CEN ATOM         s          p       ELECTRONS ->P.CHARGE
     1   C       3.02478    3.33352      6.35830   -0.35830
     2   C       3.04312    3.28355      6.32667   -0.32667
     3   O       3.78298    4.67180      8.45479   -0.45479
     4   H       0.87494                 0.87494    0.12506
     5   H       0.87389                 0.87389    0.12611
     6   H       0.88055                 0.88055    0.11945
     7   H       0.88208                 0.88208    0.11792
     8   H       0.87532                 0.87532    0.12468
     9   H       0.85082                 0.85082    0.14918
    10   H       0.62263                 0.62263    0.37737

 Total charge composition, AO contributions:

   CEN ATOM SHL      SPHERICAL COMPONENTS
     1   C  1s       1.98987
     1   C  2s       1.03491
     1   C  2p       1.09592    1.08828    1.14932

     2   C  1s       1.99056
     2   C  2s       1.05256
     2   C  2p       1.05655    1.08246    1.14454

     3   O  1s       1.99785
     3   O  2s       1.78513
     3   O  2p       1.19331    1.60724    1.87126

     4   H  1s       0.87494

     5   H  1s       0.87389

     6   H  1s       0.88055

     7   H  1s       0.88208

     8   H  1s       0.87532

     9   H  1s       0.85082

    10   H  1s       0.62263

 Active orbital charges:

   CEN ATOM         s          p       ELECTRONS ->SPIN.DEN
     1   C       0.00024    0.00234      0.00257    0.00257
     2   C       0.01620    0.15435      0.17055    0.17055
     3   O       0.00363    0.80288      0.80651    0.80651
     4   H       0.00072                 0.00072    0.00072
     5   H       0.00068                 0.00068    0.00068
     6   H       0.00563                 0.00563    0.00563
     7   H       0.00135                 0.00135    0.00135
     8   H       0.00179                 0.00179    0.00179
     9   H       0.00881                 0.00881    0.00881
    10   H       0.00138                 0.00138    0.00138

 Active orbital charges, AO contributions:

   CEN ATOM SHL      SPHERICAL COMPONENTS
     1   C  1s       0.00000
     1   C  2s       0.00024
     1   C  2p       0.00210    0.00023    0.00001

     2   C  1s       0.00001
     2   C  2s       0.01619
     2   C  2p       0.12712    0.02713    0.00009

     3   O  1s       0.00002
     3   O  2s       0.00361
     3   O  2p       0.62611    0.17558    0.00120

     4   H  1s       0.00072

     5   H  1s       0.00068

     6   H  1s       0.00563

     7   H  1s       0.00135

     8   H  1s       0.00179

     9   H  1s       0.00881

    10   H  1s       0.00138

 Summary of localized orbital composition:   [THRPRINT= 0.020]

   ORB  GRP  ORB.ENERGY      CENTERS/CHARGES
     1   1   -18.666548      O  3   2.000
     2   1    -9.826886      C  2   2.000
     3   1    -9.810226      C  1   2.000
     4   1    -0.750838      O  3   1.378   H 10   0.621
     5   1    -0.686052      O  3   1.966   (other: 0.034)
     6   1    -0.527100      C  2   1.004   C  1   0.989
     7   1    -0.458377      C  2   1.112   H  7   0.876
     8   1    -0.457601      C  2   0.891   H  9   0.820   O  3   0.282
     9   1    -0.456818      C  2   1.118   H  8   0.869
    10   1    -0.443976      C  1   1.114   H  6   0.870
    11   1    -0.443598      C  1   1.121   H  4   0.870
    12   1    -0.443232      C  1   1.122   H  5   0.869
    13   1    -0.265383      O  3   1.999
    14   2    -0.229556      O  3   0.807   C  2   0.171   (other: 0.023)

 Localized orbitals saved to record      2101.2  (orbital set 2)


 **********************************************************************************************************************************
 DATASETS  * FILE   NREC   LENGTH (MB)   RECORD NAMES
              1      20     6731.11       500      610      700      900      950      970     1000      129      960     1100   
                                          VAR    BASINP    GEOM    SYMINP    ZMAT    AOBASIS   BASIS     P2S    ABASIS      S 
                                         1400     1410     1200     1210     1080     1600     1650     1300     1700     1800   
                                           T        V       H0       H01     AOSYM     SMH    MOLCAS    ERIS     OPER     GRID   

              2       6       16.53       700     1000      520     2100     1800     2101   
                                         GEOM     BASIS   MCVARS     RHF     GRID      RKS  

 PROGRAMS   *        TOTAL      IBBA        KS        HF       INT
 CPU TIMES  *      1998.51      0.16      8.63   1799.25    190.33
 REAL TIME  *      2429.12 SEC
 DISK USED  *        30.47 GB      
 **********************************************************************************************************************************

 IBBA/QZVP energy=      0.000000000000

        DF-KS           HF-SCF  
   -155.52595707   -154.64452374
 **********************************************************************************************************************************
 Molpro calculation terminated
