
 Primary working directories    : /local
 Secondary working directories  : /local
 Wavefunction directory         : /local/
 Main file repository           : /local/

 SHA1      : b4a5b34a9e711420743f49e6833241d17c61fb3c
 NAME      : 2099.9.b4a5b34
 ARCHNAME  : linux/x86_64_openmp
 FC        : /cm/shared/languages/GCC-6.1/bin/gfortran
 BLASLIB   : -lblas
 id        : simonbennie

 Nodes     nprocs
 node32-044    1

 Using customized tuning parameters: mindgm=1; mindgv=20; mindgc=4; mindgr=1; noblas=0; minvec=7
 default implementation of scratch files=df  

 memory,500,m
 geomtyp=xyz
 nosym
 noorient
 geometry={
 C          1.45833       -0.44637        0.02548
 C          0.46942        0.69742       -0.02749
 O         -1.85304       -0.31466       -0.05305
 H          1.30176       -1.06108        0.91074
 H          1.36658       -1.08619       -0.85112
 H          2.48224       -0.06688        0.05715
 H          0.47107        1.32544        0.86104
 H          0.53352        1.30350       -0.92856
 H         -0.63023        0.20782       -0.07846
 H         -2.26721        0.38832        0.46575
 }
 basis={ default,sto-3g }
 {uks,MM05,direct;wf,27,1,1}
 {ibba,bonds=1}

 Variables initialized (895), CPU time= 0.00 sec
 Commands  initialized (725), CPU time= 0.01 sec, 591 directives.
 Default parameters read. Elapsed time= 0.07 sec

 Checking input...
 Passed
1


                                         ***  PROGRAM SYSTEM MOLPRO  ***
                                       Copyright, TTI GmbH Stuttgart, 2015
                                    Version 2099.9 linked May 26 2017 16:03:21


 **********************************************************************************************************************************
 LABEL *                                                                                 
  64 bit serial version                                                                  DATE: 24-Jun-17          TIME: 22:03:22  
 **********************************************************************************************************************************

 SHA1:             b4a5b34a9e711420743f49e6833241d17c61fb3c
 **********************************************************************************************************************************
 SETTING GEOMTYP        =    XYZ

 Variable memory set to  500000000 words,  buffer space 

 ZSYMEL=NOSYM

 SETTING BASIS          =    STO-3G


 Recomputing integrals since basis changed


 Using spherical harmonics

 Library entry C      S STO-3G               selected for orbital group  1
 Library entry C      P STO-3G               selected for orbital group  1
 Library entry O      S STO-3G               selected for orbital group  2
 Library entry O      P STO-3G               selected for orbital group  2
 Library entry H      S STO-3G               selected for orbital group  3


 PROGRAM * SEWARD (Integral evaluation for generally contracted gaussian basis sets)     Author: Roland Lindh, 1990

 Geometry written to block  1 of record 700


 Point group  C1  



 ATOMIC COORDINATES

 NR  ATOM    CHARGE       X              Y              Z

   1  C       6.00    2.755844299   -0.843517050    0.048150222
   2  C       6.00    0.887075237    1.317932794   -0.051948571
   3  O       8.00   -3.501738098   -0.594621222   -0.100249971
   4  H       1.00    2.459969880   -2.005150596    1.721049171
   5  H       1.00    2.582461927   -2.052601619   -1.608383699
   6  H       1.00    4.690753775   -0.126384883    0.107997848
   7  H       1.00    0.890193285    2.504718595    1.627129782
   8  H       1.00    1.008206682    2.463258003   -1.754724090
   9  H       1.00   -1.190962095    0.392722883   -0.148267912
  10  H       1.00   -4.284405967    0.733818449    0.880139943

 Bond lengths in Bohr (Angstrom)

 1-2  2.859052816  1-4  2.058039130  1-5  2.058167042  1-6  2.064396998  2-7  2.056155241
     ( 1.512945595)     ( 1.089067407)     ( 1.089135095)     ( 1.092431846)     ( 1.088070496)

  2- 8  2.055696264   2- 9  2.276736689   3- 9  2.513332417   3-10  1.827152247
       ( 1.087827616)       ( 1.204797171)       ( 1.329998239)       ( 0.966887330)

 Bond angles

  1-2-7  114.00226578   1-2-8  114.31102346   1-2-9  106.90871836   2-1-4  111.17423075

  2-1-5  111.15405898   2-1-6  110.55020437   2-9-3  176.37609848   4-1-5  108.09205460

  4-1-6  107.89401437   5-1-6  107.84010630   7-2-8  110.77800657   7-2-9  105.69319509

  8- 2- 9  104.19071435   9- 3-10   96.80351572

 NUCLEAR CHARGE:                   27
 NUMBER OF PRIMITIVE AOS:          66
 NUMBER OF SYMMETRY AOS:           66
 NUMBER OF CONTRACTIONS:           22   (  22A   )
 NUMBER OF CORE ORBITALS:           3   (   3A   )
 NUMBER OF VALENCE ORBITALS:       19   (  19A   )


 NUCLEAR REPULSION ENERGY   76.62128239


 Eigenvalues of metric

         1 0.207E+00 0.251E+00 0.342E+00 0.347E+00 0.372E+00 0.388E+00 0.389E+00 0.406E+00


 Contracted 2-electron integrals neglected if value below      1.0D-11
 AO integral compression algorithm  1   Integral accuracy      1.0D-11

     0.262 MB (compressed) written to integral file (100.0%)


 NUMBER OF SORTED TWO-ELECTRON INTEGRALS:      32131.     BUFFER LENGTH:  32768
 NUMBER OF SEGMENTS:   1  SEGMENT LENGTH:      32131      RECORD LENGTH: 524288

 Memory used in sort:       0.59 MW

 SORT1 READ       37963. AND WROTE       31156. INTEGRALS IN      1 RECORDS. CPU TIME:     0.00 SEC, REAL TIME:     0.00 SEC
 SORT2 READ       31156. AND WROTE       32131. INTEGRALS IN      1 RECORDS. CPU TIME:     0.01 SEC, REAL TIME:     0.01 SEC

 FILE SIZES:   FILE 1:    30.4 MBYTE,  FILE 4:     4.2 MBYTE,   TOTAL:     34.6 MBYTE

 OPERATOR DM      FOR CENTER  0  COORDINATES:    0.000000    0.000000    0.000000


 **********************************************************************************************************************************
 DATASETS  * FILE   NREC   LENGTH (MB)   RECORD NAMES
              1      19       30.27       500      610      700      900      950      970     1000      129      960     1100   
                                          VAR    BASINP    GEOM    SYMINP    ZMAT    AOBASIS   BASIS     P2S    ABASIS      S 
                                         1400     1410     1200     1210     1080     1600     1650     1300     1700   
                                           T        V       H0       H01     AOSYM     SMH    MOLCAS    ERIS     OPER   

 PROGRAMS   *        TOTAL       INT
 CPU TIMES  *         0.39      0.24
 REAL TIME  *         0.71 SEC
 DISK USED  *        35.03 MB      
 **********************************************************************************************************************************

 Density functional group MM05=M05X+M05C
 Functional: M05X(Automatically generated (new) M05X)                          Gradient terms: 2
 Functional: M05C(Automatically generated (new) M05C)                          Gradient terms: 2
 Use grid at  1800.2


 Exact exchange will be calculated, factor:  0.2800

 Functional: M05X                      Factor:  0.7200
 Functional: M05C                      Factor:  1.0000

 Generated new metagrid on record  1800.2 with target accuracy 1.0D-06 and 36074 points in CPU time    0.8
 Computed new grid on record 1800.1 in CPU time    0.9
   38486 words reserved for DFT integration

 PROGRAM * UKS-SCF (Unrestricted Kohn-Sham)     Authors: W. Meyer, H.-J. Werner, P.J. Knowles, 1993

 NUMBER OF ELECTRONS:      14+   13-    SPACE SYMMETRY=1    SPIN SYMMETRY: Doublet 
 CONVERGENCE THRESHOLDS:    1.00E-05 (Density)    1.00E-06 (Energy)
 MAX. NUMBER OF ITERATIONS:       60
 INTERPOLATION TYPE:            DIIS
 INTERPOLATION STEPS:              2 (START)      1 (STEP)
 LEVEL SHIFTS:                 -0.20 (ALPHA)  -0.20 (BETA) 



 Use fine grid record 1800.2 for energy threshold  1.0D-06
 Orbital guess generated from atomic densities. Full valence occupancy:   14

 Molecular orbital dump at record        2200.2

 Initial alpha occupation  14
 Initial beta  occupation  13

 ITERATION    DDIFF          GRAD             ENERGY        2-EL.EN.            DIPOLE MOMENTS         DIIS
    1      0.000D+00      0.000D+00      -153.37265353    300.353548    0.63327    0.97984    0.54056    0
    2      0.521D-01      0.203D-01      -153.51220911    293.433173    0.21954    0.42138    0.25726    1
    3      0.480D-02      0.287D-02      -153.51583305    293.622061    0.10160    0.40644    0.25325    2
    4      0.294D-02      0.146D-02      -153.51743057    293.542664    0.02133    0.40133    0.25456    3
    5      0.260D-02      0.809D-03      -153.51811880    293.517015   -0.04749    0.39285    0.25562    4
    6      0.128D-02      0.282D-03      -153.51823434    293.502002   -0.07686    0.38580    0.25619    5
    7      0.639D-03      0.124D-03      -153.51826518    293.500870   -0.08415    0.38468    0.25631    6
    8      0.383D-03      0.918D-04      -153.51827971    293.501247   -0.08608    0.38379    0.25598    7
    9      0.554D-03      0.773D-04      -153.51829708    293.499835   -0.08716    0.38374    0.25575    7
   10      0.138D-02      0.613D-04      -153.51832254    293.500467   -0.08899    0.38361    0.25517    8
   11      0.540D-03      0.242D-04      -153.51832557    293.499044   -0.08901    0.38369    0.25487    9
   12      0.109D-03      0.642D-05      -153.51832570    293.499321   -0.08880    0.38389    0.25486    9
   13      0.183D-04      0.218D-05      -153.51832571    293.499279   -0.08880    0.38386    0.25484    9
   14      0.271D-05      0.778D-06      -153.51832571    293.499219   -0.08878    0.38387    0.25484    9
   15      0.114D-05      0.331D-06      -153.51832571    293.499232   -0.08878    0.38387    0.25485    9

 Final alpha occupancy:  14
 Final beta  occupancy:  13

 !UKS STATE 1.1 Energy               -153.518325705637
 Nuclear energy                        76.62128239
 One-electron energy                 -360.70896352
 Two-electron energy                  146.74961588
 Density functional                   -16.18026045     M05X=-21.25528121 M05C= -0.87645798
 Virial quotient                       -1.01184055
 !UKS STATE 1.1 Dipole moment          -0.08877811     0.38387452     0.25484585
 Dipole moment /Debye                  -0.22563667     0.97564781     0.64771110

 Orbital energies for positive spin:

         1.1          2.1          3.1          4.1          5.1          6.1          7.1          8.1          9.1         10.1
    -18.972580   -10.075083   -10.066240    -0.946165    -0.740113    -0.601946    -0.438218    -0.420677    -0.372006    -0.346368

        11.1         12.1         13.1         14.1         15.1         16.1
     -0.328543    -0.323617    -0.187506    -0.171864     0.387810     0.430591

 Orbital energies for negative spin:

         1.1          2.1          3.1          4.1          5.1          6.1          7.1          8.1          9.1         10.1
    -18.963315   -10.075245   -10.062616    -0.885020    -0.732865    -0.593652    -0.417494    -0.412792    -0.351207    -0.340547

        11.1         12.1         13.1         14.1         15.1         16.1
     -0.321731    -0.278762    -0.144762     0.020386     0.414981     0.434319

 HOMO    -13.1    -0.144762 =      -3.9392eV
 LUMO    -14.1     0.020386 =       0.5547eV
 LUMO-HOMO         0.165148 =       4.4939eV

 EXPECTATION VALUE OF S**2:             0.75630859

 Occupation number threshold for canonical orbitals:  1.999000 (occupied),  0.001000 (virtual)

 Number of pseudo-canonical orbitals per symmetry:   11
 Number of active natural orbitals per symmetry:      5

 Natural orbitals saved to record    2200.2 (Orbital set 3)

 Orbital spaces for UNO-CAS (Min. occupation: 0.020  Max. occupation: 1.980):

 Closed:       13
 Active:        1


 **********************************************************************************************************************************
 DATASETS  * FILE   NREC   LENGTH (MB)   RECORD NAMES
              1      20       31.42       500      610      700      900      950      970     1000      129      960     1100   
                                          VAR    BASINP    GEOM    SYMINP    ZMAT    AOBASIS   BASIS     P2S    ABASIS      S 
                                         1400     1410     1200     1210     1080     1600     1650     1300     1700     1800   
                                           T        V       H0       H01     AOSYM     SMH    MOLCAS    ERIS     OPER     GRID   

              2       5        2.93       700     1000      520     1800     2200   
                                         GEOM     BASIS   MCVARS    GRID      UKS  

 PROGRAMS   *        TOTAL       UKS       INT
 CPU TIMES  *         9.08      8.69      0.24
 REAL TIME  *         9.91 SEC
 DISK USED  *        35.03 MB      
 **********************************************************************************************************************************


 PROGRAM * Intrinsic Basis Bonding Analysis (IBBA)          Author: G. Knizia

 Molecular orbitals read from record     2200.2  Type=UKS/ALPHA (state 1.1)
 Fock matrix read from record            2200.2  Type=UKS/TOTAL (state 1.1)
 Orbital energies read from record       2200.2  Type=UKS/ALPHA (state 1.1)
 Density matrix read from record         2200.2  Type=UKS/CHARGE (state 1.1)

 Number of core orbitals:           3 (   3 )
 Number of closed-shell orbitals:  10 (  10 )
 Number of active  orbitals:        1 (   1 )

 Basis set MINAO-AUTO-PP generated.      Number of basis functions:   22 

 Polarized AO type:                A = (O Ot + (1-O)(1-Ot)) P12
 Orthogonalization method:         Symmetric (Loewdin)
 Localization functional:          L = sum[A,i] <i|n_A|i>^4 -> max

 Localization group 1:  13 orbitals, occupancy  2.000
 Iterative localization: IB/PM,    7 iter; Final gradient 0.69E-09

 Bond order analysis:       [THRPRINT= 0.020]

   CEN ATOM   CEN ATOM     WIBERG.BO      RENORM.BO
     1   C  -   2   C       1.035610       1.030445
     1   C  -   4   H       0.963398       0.985722
     1   C  -   5   H       0.962766       0.985938
     1   C  -   6   H       0.960512       0.978007

     2   C  -   1   C       1.035610       1.030445
     2   C  -   8   H       0.961266       0.985406
     2   C  -   7   H       0.960619       0.985430
     2   C  -   9   H       0.720071       0.686465
     2   C  -   3   O       0.152062       0.875661

     3   O  -  10   H       0.921127       0.999856
     3   O  -   9   H       0.219836       0.793752
     3   O  -   2   C       0.152062       0.875661

     4   H  -   1   C       0.963398       0.985722

     5   H  -   1   C       0.962766       0.985938

     6   H  -   1   C       0.960512       0.978007

     7   H  -   2   C       0.960619       0.985430

     8   H  -   2   C       0.961266       0.985406

     9   H  -   2   C       0.720071       0.686465
     9   H  -   3   O       0.219836       0.793752

    10   H  -   3   O       0.921127       0.999856


 Valency analysis:

   CEN ATOM   TOT.VALENCE
     1   C       3.932541
     2   C       3.836377
     3   O       1.311184
     4   H       0.981942
     5   H       0.981476
     6   H       0.984121
     7   H       0.980194
     8   H       0.979385
     9   H       0.957082
    10   H       0.922332
 Localization group 2:   1 orbitals, occupancy  1.000
 Iterative localization: IB/PM,    1 iter; Final gradient 0.00E+00

 Bond order analysis:       [THRPRINT= 0.020]

   CEN ATOM   CEN ATOM     WIBERG.BO      RENORM.BO

     2   C  -   3   O       0.038785       0.500000

     3   O  -   2   C       0.038785       0.500000









 Valency analysis:

   CEN ATOM   TOT.VALENCE
     1   C       0.003716
     2   C       0.039031
     3   O       0.050791
     4   H       0.000321
     5   H       0.000561
     6   H       0.003849
     7   H       0.001193
     8   H       0.000007
     9   H       0.002651
    10   H       0.000011

 Total charge composition:

   CEN ATOM         s          p       ELECTRONS ->P.CHARGE
     1   C       2.99172    3.39643      6.38815   -0.38815
     2   C       3.04625    3.59686      6.64311   -0.64311
     3   O       3.79885    4.33225      8.13110   -0.13110
     4   H       0.86578                 0.86578    0.13422
     5   H       0.86418                 0.86418    0.13582
     6   H       0.87592                 0.87592    0.12408
     7   H       0.85986                 0.85986    0.14014
     8   H       0.85643                 0.85643    0.14357
     9   H       0.79416                 0.79416    0.20584
    10   H       0.72132                 0.72132    0.27868

 Total charge composition, AO contributions:

   CEN ATOM SHL      SPHERICAL COMPONENTS
     1   C  1s       1.99118
     1   C  2s       1.00054
     1   C  2p       1.11681    1.10493    1.17469

     2   C  1s       1.99181
     2   C  2s       1.05444
     2   C  2p       1.27046    1.14966    1.17674

     3   O  1s       1.99806
     3   O  2s       1.80079
     3   O  2p       1.77079    1.38563    1.17583

     4   H  1s       0.86578

     5   H  1s       0.86418

     6   H  1s       0.87592

     7   H  1s       0.85986

     8   H  1s       0.85643

     9   H  1s       0.79416

    10   H  1s       0.72132

 Active orbital charges:

   CEN ATOM         s          p       ELECTRONS ->SPIN.DEN
     1   C       0.00007    0.00179      0.00186    0.00186
     2   C       0.00097    0.01894      0.01991    0.01991
     3   O       0.00010    0.97383      0.97392    0.97392
     4   H       0.00016                 0.00016    0.00016
     5   H       0.00028                 0.00028    0.00028
     6   H       0.00193                 0.00193    0.00193
     7   H       0.00060                 0.00060    0.00060
     8   H       0.00000                 0.00000    0.00000
     9   H       0.00133                 0.00133    0.00133
    10   H       0.00001                 0.00001    0.00001

 Active orbital charges, AO contributions:

   CEN ATOM SHL      SPHERICAL COMPONENTS
     1   C  1s       0.00000
     1   C  2s       0.00007
     1   C  2p       0.00179    0.00000    0.00000

     2   C  1s       0.00000
     2   C  2s       0.00097
     2   C  2p       0.01599    0.00251    0.00044

     3   O  1s       0.00000
     3   O  2s       0.00010
     3   O  2p       0.00405    0.31372    0.65606

     4   H  1s       0.00016

     5   H  1s       0.00028

     6   H  1s       0.00193

     7   H  1s       0.00060

     8   H  1s       0.00000

     9   H  1s       0.00133

    10   H  1s       0.00001

 Summary of localized orbital composition:   [THRPRINT= 0.020]

   ORB  GRP  ORB.ENERGY      CENTERS/CHARGES
     1   1   -18.818097      O  3   2.000
     2   1    -9.959026      C  1   2.000
     3   1    -9.951485      C  2   2.000
     4   1    -0.713681      O  3   1.278   H 10   0.721
     5   1    -0.546206      C  2   1.006   C  1   0.986
     6   1    -0.491909      C  2   1.134   H  7   0.854
     7   1    -0.489380      C  2   1.138   H  8   0.851
     8   1    -0.488697      O  3   2.000
     9   1    -0.475011      C  1   1.132   H  4   0.860
    10   1    -0.473993      C  1   1.133   H  5   0.858
    11   1    -0.473044      C  1   1.123   H  6   0.867
    12   1    -0.373561      C  2   1.300   H  9   0.649   O  3   0.037
    13   1    -0.360426      O  3   1.833   H  9   0.128   C  2   0.038
    14   2    -0.156354      O  3   0.974   (other: 0.026)

 Localized orbitals saved to record      2200.2  (orbital set 4)


 **********************************************************************************************************************************
 DATASETS  * FILE   NREC   LENGTH (MB)   RECORD NAMES
              1      20       31.42       500      610      700      900      950      970     1000      129      960     1100   
                                          VAR    BASINP    GEOM    SYMINP    ZMAT    AOBASIS   BASIS     P2S    ABASIS      S 
                                         1400     1410     1200     1210     1080     1600     1650     1300     1700     1800   
                                           T        V       H0       H01     AOSYM     SMH    MOLCAS    ERIS     OPER     GRID   

              2       5        2.94       700     1000      520     1800     2200   
                                         GEOM     BASIS   MCVARS    GRID      UKS  

 PROGRAMS   *        TOTAL      IBBA       UKS       INT
 CPU TIMES  *         9.10      0.02      8.69      0.24
 REAL TIME  *         9.99 SEC
 DISK USED  *        35.03 MB      
 **********************************************************************************************************************************
 Molecular orbitals read from record     2200.2  Type=UKS/LOCAL(IBO)  
 Occupation numbers read from record     2200.2  Type=UKS/LOCAL(IBO)  
 Orbital energies read from record       2200.2  Type=UKS/LOCAL(IBO)  
 Redundancy group numbers read from rec  2200.2  Type=UKS/BETA (state 1.1)

 IBBA/STO-3G energy=      0.000000000000

        UKS-SCF 
   -153.51832571
 **********************************************************************************************************************************
 Molpro calculation terminated
