
 Primary working directories    : /local/molpro.LbXK1TJftB
 Secondary working directories  : /local/molpro.LbXK1TJftB
 Wavefunction directory         : /local/
 Main file repository           : /local/molpro.LbXK1TJftB/

 id        : simonbennie

 Nodes     nprocs
 node32-010    1

 Using customized tuning parameters: mindgm=1; mindgv=20; mindgc=4; mindgr=1; noblas=0; minvec=7
 default implementation of scratch files=df  

 memory,500,m
 geomtyp=xyz
 nosym
 noorient
 geometry={
 C          1.45833       -0.44637        0.02548
 C          0.46942        0.69742       -0.02749
 O         -1.85304       -0.31466       -0.05305
 H          1.30176       -1.06108        0.91074
 H          1.36658       -1.08619       -0.85112
 H          2.48224       -0.06688        0.05715
 H          0.47107        1.32544        0.86104
 H          0.53352        1.30350       -0.92856
 H         -0.63023        0.20782       -0.07846
 H         -2.26721        0.38832        0.46575
 }
 basis={default,sto-3g}
 {uhf,direct;wf,27,1,1}
 
 basis={ default,6-31+G(d,p) }
 {uhf,direct;wf,27,1,1}
 {uks,LDA,direct;maxit,0;wf,27,1,1}
 {ibba,bonds=1}

 Variables initialized (920), CPU time= 0.00 sec
 Commands  initialized (754), CPU time= 0.01 sec, 615 directives.
 Default parameters read. Elapsed time= 0.08 sec

 Checking input...
 Passed
1


                                         ***  PROGRAM SYSTEM MOLPRO  ***
                                       Copyright, TTI GmbH Stuttgart, 2015
                                    Version 2018.0 linked Jul  6 2018 18:07:13


 **********************************************************************************************************************************
 LABEL *                                                                                 
  64 bit serial version                                                                  DATE: 10-Oct-18          TIME: 12:06:27  
 **********************************************************************************************************************************

 SHA1:             b58f8fddb9d75525be9261ebe3faf0e4279c479b
 **********************************************************************************************************************************
 SETTING GEOMTYP        =    XYZ

 Variable memory set to  500000000 words,  buffer space 

 ZSYMEL=NOSYM

 SETTING BASIS          =    STO-3G


 Recomputing integrals since basis changed


 Using spherical harmonics

 Library entry C      S STO-3G               selected for orbital group  1
 Library entry C      P STO-3G               selected for orbital group  1
 Library entry O      S STO-3G               selected for orbital group  2
 Library entry O      P STO-3G               selected for orbital group  2
 Library entry H      S STO-3G               selected for orbital group  3


 PROGRAM * SEWARD (Integral evaluation for generally contracted gaussian basis sets)     Author: Roland Lindh, 1990

 Geometry written to block  1 of record 700


 Point group  C1  



 ATOMIC COORDINATES

 NR  ATOM    CHARGE       X              Y              Z

   1  C       6.00    2.755844299   -0.843517050    0.048150222
   2  C       6.00    0.887075237    1.317932794   -0.051948571
   3  O       8.00   -3.501738098   -0.594621222   -0.100249971
   4  H       1.00    2.459969880   -2.005150596    1.721049171
   5  H       1.00    2.582461927   -2.052601619   -1.608383699
   6  H       1.00    4.690753775   -0.126384883    0.107997848
   7  H       1.00    0.890193285    2.504718595    1.627129782
   8  H       1.00    1.008206682    2.463258003   -1.754724090
   9  H       1.00   -1.190962095    0.392722883   -0.148267912
  10  H       1.00   -4.284405967    0.733818449    0.880139943

 Bond lengths in Bohr (Angstrom)

 1-2  2.859052816  1-4  2.058039130  1-5  2.058167042  1-6  2.064396998  2-7  2.056155241
     ( 1.512945595)     ( 1.089067407)     ( 1.089135095)     ( 1.092431846)     ( 1.088070496)

  2- 8  2.055696264   2- 9  2.276736689   3- 9  2.513332417   3-10  1.827152247
       ( 1.087827616)       ( 1.204797171)       ( 1.329998239)       ( 0.966887330)

 Bond angles

  1-2-7  114.00226578   1-2-8  114.31102346   1-2-9  106.90871836   2-1-4  111.17423075

  2-1-5  111.15405898   2-1-6  110.55020437   2-9-3  176.37609848   4-1-5  108.09205460

  4-1-6  107.89401437   5-1-6  107.84010630   7-2-8  110.77800657   7-2-9  105.69319509

  8- 2- 9  104.19071435   9- 3-10   96.80351572

 NUCLEAR CHARGE:                   27
 NUMBER OF PRIMITIVE AOS:          66
 NUMBER OF SYMMETRY AOS:           66
 NUMBER OF CONTRACTIONS:           22   (  22A   )
 NUMBER OF CORE ORBITALS:           3   (   3A   )
 NUMBER OF VALENCE ORBITALS:       19   (  19A   )


 NUCLEAR REPULSION ENERGY   76.62128239


 Eigenvalues of metric

         1 0.207E+00 0.251E+00 0.342E+00 0.347E+00 0.372E+00 0.388E+00 0.389E+00 0.406E+00


 Contracted 2-electron integrals neglected if value below      1.0D-11
 AO integral compression algorithm  1   Integral accuracy      1.0D-11

     0.262 MB (compressed) written to integral file (100.0%)


 NUMBER OF SORTED TWO-ELECTRON INTEGRALS:      32131.     BUFFER LENGTH:  32768
 NUMBER OF SEGMENTS:   1  SEGMENT LENGTH:      32131      RECORD LENGTH: 524288

 Memory used in sort:       0.59 MW

 SORT1 READ       37963. AND WROTE       31156. INTEGRALS IN      1 RECORDS. CPU TIME:     0.00 SEC, REAL TIME:     0.00 SEC
 SORT2 READ       31156. AND WROTE       32131. INTEGRALS IN      1 RECORDS. CPU TIME:     0.01 SEC, REAL TIME:     0.01 SEC

 FILE SIZES:   FILE 1:    30.4 MBYTE,  FILE 4:     4.2 MBYTE,   TOTAL:     34.6 MBYTE

 OPERATOR DM      FOR CENTER  0  COORDINATES:    0.000000    0.000000    0.000000


 **********************************************************************************************************************************
 DATASETS  * FILE   NREC   LENGTH (MB)   RECORD NAMES
              1      19       30.27       500      610      700      900      950      970     1000      129      960     1100   
                                          VAR    BASINP    GEOM    SYMINP    ZMAT    AOBASIS   BASIS     P2S    ABASIS      S 
                                         1400     1410     1200     1210     1080     1600     1650     1300     1700   
                                           T        V       H0       H01     AOSYM     SMH    MOLCAS    ERIS     OPER   

 PROGRAMS   *        TOTAL       INT
 CPU TIMES  *         0.54      0.41
 REAL TIME  *         0.83 SEC
 DISK USED  *        35.03 MB
 **********************************************************************************************************************************


 PROGRAM * UHF-SCF       Authors: W. Meyer, H.-J. Werner


 NUMBER OF ELECTRONS:      14+   13-    SPACE SYMMETRY=1    SPIN SYMMETRY: Doublet 
 CONVERGENCE THRESHOLDS:    1.00E-05 (Density)    1.00E-07 (Energy)
 INTEGRAL THRESHOLDS:       1.00E-11 (Initial)    1.00E-11 (Final)
 MAX. NUMBER OF ITERATIONS:       60
 INTERPOLATION TYPE:            DIIS
 INTERPOLATION STEPS:              2 (START)      1 (STEP)
 LEVEL SHIFTS:                 -0.20 (ALPHA)  -0.20 (BETA) 



 Orbital guess generated from atomic densities. Full valence occupancy:   14

 Molecular orbital dump at record        2200.2

 Initial alpha occupation  14
 Initial beta  occupation  13

 Direct Fock-matrix evaluation.        Author: H.-J. Werner (1996)

 Integral Threshold:                  0.1D-10

 ITERATION   DDIFF            GRAD            ENERGY        2-EL.EN.            DIPOLE MOMENTS         DIIS   CPU(IT)  CPU(TOT)
    1      0.000D+00      0.000D+00      -152.44552085    268.281631    1.24842    1.17778    0.55315    0      1.0      1.8
    2      0.347D-01      0.208D-01      -152.58851067    263.969862    0.54704    0.63018    0.32341    1      0.5      2.4
    3      0.138D-01      0.829D-02      -152.61672188    262.509515    0.19071    0.43655    0.24948    2      0.5      2.9
    4      0.885D-02      0.388D-02      -152.62758675    262.324066   -0.05919    0.38318    0.25121    3      0.5      3.4
    5      0.387D-02      0.157D-02      -152.62948130    262.330753   -0.16311    0.36829    0.26010    4      0.5      4.0
    6      0.240D-02      0.830D-03      -152.63013373    262.324005   -0.23130    0.35164    0.26323    5      0.5      4.5
    7      0.147D-02      0.387D-03      -152.63030753    262.317809   -0.26719    0.34251    0.26409    6      0.5      5.0
    8      0.429D-03      0.168D-03      -152.63033159    262.319988   -0.27205    0.34006    0.26348    7      0.6      5.6
    9      0.264D-03      0.791D-04      -152.63033763    262.320476   -0.27450    0.33901    0.26334    8      0.5      6.1
   10      0.842D-04      0.305D-04      -152.63033861    262.320878   -0.27486    0.33860    0.26327    8      0.6      6.7
   11      0.452D-04      0.169D-04      -152.63033891    262.320905   -0.27554    0.33843    0.26329    8      0.5      7.2
   12      0.354D-04      0.140D-04      -152.63033912    262.320899   -0.27568    0.33843    0.26328    8      0.4      7.7
   13      0.777D-04      0.131D-04      -152.63033955    262.320888   -0.27583    0.33843    0.26327    7      0.4      8.1
   14      0.229D-03      0.116D-04      -152.63034049    262.320898   -0.27580    0.33843    0.26321    8      0.6      8.7
   15      0.212D-03      0.732D-05      -152.63034093    262.320824   -0.27578    0.33843    0.26317    8      0.6      9.3
   16      0.104D-03      0.317D-05      -152.63034100    262.320761   -0.27585    0.33846    0.26316    9      0.6      9.8
   17      0.152D-04      0.774D-06      -152.63034100    262.320759   -0.27591    0.33846    0.26316    9      0.6     10.4
   18      0.119D-05      0.244D-06      -152.63034100    262.320758   -0.27591    0.33846    0.26316    9      0.6     11.0
   19      0.364D-06      0.124D-06      -152.63034100    262.320758   -0.27590    0.33846    0.26316    9      0.6     11.5

 Final alpha occupancy:  14
 Final beta  occupancy:  13

 !UHF STATE  1.1 Energy              -152.630341004474
 Nuclear energy                        76.62128239
 One-electron energy                 -360.41200246
 Two-electron energy                  131.16037907
 Virial quotient                       -1.00603507
 !UHF STATE  1.1 Dipole moment         -0.27590363     0.33846331     0.26315611
 Dipole moment /Debye                  -0.70123114     0.86023157     0.66883230

 Orbital energies for positive spin:

         1.1          2.1          3.1          4.1          5.1          6.1          7.1          8.1          9.1         10.1
    -20.301001   -11.029631   -11.020613    -1.312164    -0.979436    -0.806279    -0.629995    -0.571089    -0.558748    -0.523329

        11.1         12.1         13.1         14.1         15.1         16.1
     -0.475709    -0.456504    -0.441306    -0.350949     0.611070     0.654108

 Orbital energies for negative spin:

         1.1          2.1          3.1          4.1          5.1          6.1          7.1          8.1          9.1         10.1
    -20.276092   -11.030577   -11.010625    -1.175113    -0.965213    -0.789313    -0.570143    -0.564746    -0.518804    -0.471308

        11.1         12.1         13.1         14.1         15.1         16.1
     -0.453805    -0.411820    -0.396935     0.267639     0.644386     0.657751


 HOMO     14.1    -0.350949 =      -9.5498eV
 LUMO    -14.1     0.267639 =       7.2828eV
 LUMO-HOMO         0.618588 =      16.8326eV

 EXPECTATION VALUE OF S**2:             0.77042873

 Occupation number threshold for pseudo-canonical orbitals: 1.9990 (occupied), 0.0010 (virtual)

 Number of pseudo-canonical occupied orbitals per symmetry:   11
 Number of active natural orbitals per symmetry:               5

 Natural orbitals saved to record    2200.2 (Orbital set 3)

 Orbital spaces for UNO-CAS (Min. occupation: 0.020  Max. occupation: 1.980):

 Closed:       13
 Active:        1


 **********************************************************************************************************************************
 DATASETS  * FILE   NREC   LENGTH (MB)   RECORD NAMES
              1      19       30.27       500      610      700      900      950      970     1000      129      960     1100   
                                          VAR    BASINP    GEOM    SYMINP    ZMAT    AOBASIS   BASIS     P2S    ABASIS      S 
                                         1400     1410     1200     1210     1080     1600     1650     1300     1700   
                                           T        V       H0       H01     AOSYM     SMH    MOLCAS    ERIS     OPER   

              2       4        2.92       700     1000      520     2200   
                                         GEOM     BASIS   MCVARS     UHF  

 PROGRAMS   *        TOTAL   UHF-SCF       INT
 CPU TIMES  *        12.08     11.54      0.41
 REAL TIME  *        13.40 SEC
 DISK USED  *        35.03 MB
 **********************************************************************************************************************************
 SETTING BASIS          =    6-31+G(D,P)


 Recomputing integrals since basis changed


 Using spherical harmonics

 Library entry C      S 6-31G                selected for orbital group  1
 Library entry C      S 6-31++G              selected for orbital group  1
 Library entry C      P 6-31G                selected for orbital group  1
 Library entry C      P 6-31++G              selected for orbital group  1
 Library entry C      D 6-31G*               selected for orbital group  1
 Library entry O      S 6-31G                selected for orbital group  2
 Library entry O      S 6-31++G              selected for orbital group  2
 Library entry O      P 6-31G                selected for orbital group  2
 Library entry O      P 6-31++G              selected for orbital group  2
 Library entry O      D 6-31G*               selected for orbital group  2
 Library entry H      S 6-31G                selected for orbital group  3
 Library entry H      P 6-31G**              selected for orbital group  3


 PROGRAM * SEWARD (Integral evaluation for generally contracted gaussian basis sets)     Author: Roland Lindh, 1990

 Geometry written to block  1 of record 700


 Point group  C1  



 ATOMIC COORDINATES

 NR  ATOM    CHARGE       X              Y              Z

   1  C       6.00    2.755844299   -0.843517050    0.048150222
   2  C       6.00    0.887075237    1.317932794   -0.051948571
   3  O       8.00   -3.501738098   -0.594621222   -0.100249971
   4  H       1.00    2.459969880   -2.005150596    1.721049171
   5  H       1.00    2.582461927   -2.052601619   -1.608383699
   6  H       1.00    4.690753775   -0.126384883    0.107997848
   7  H       1.00    0.890193285    2.504718595    1.627129782
   8  H       1.00    1.008206682    2.463258003   -1.754724090
   9  H       1.00   -1.190962095    0.392722883   -0.148267912
  10  H       1.00   -4.284405967    0.733818449    0.880139943

 Bond lengths in Bohr (Angstrom)

 1-2  2.859052816  1-4  2.058039130  1-5  2.058167042  1-6  2.064396998  2-7  2.056155241
     ( 1.512945595)     ( 1.089067407)     ( 1.089135095)     ( 1.092431846)     ( 1.088070496)

  2- 8  2.055696264   2- 9  2.276736689   3- 9  2.513332417   3-10  1.827152247
       ( 1.087827616)       ( 1.204797171)       ( 1.329998239)       ( 0.966887330)

 Bond angles

  1-2-7  114.00226578   1-2-8  114.31102346   1-2-9  106.90871836   2-1-4  111.17423075

  2-1-5  111.15405898   2-1-6  110.55020437   2-9-3  176.37609848   4-1-5  108.09205460

  4-1-6  107.89401437   5-1-6  107.84010630   7-2-8  110.77800657   7-2-9  105.69319509

  8- 2- 9  104.19071435   9- 3-10   96.80351572

 NUCLEAR CHARGE:                   27
 NUMBER OF PRIMITIVE AOS:         145
 NUMBER OF SYMMETRY AOS:          142
 NUMBER OF CONTRACTIONS:           89   (  89A   )
 NUMBER OF CORE ORBITALS:           3   (   3A   )
 NUMBER OF VALENCE ORBITALS:       19   (  19A   )


 NUCLEAR REPULSION ENERGY   76.62128239


 Eigenvalues of metric

         1 0.296E-03 0.443E-02 0.835E-02 0.110E-01 0.252E-01 0.301E-01 0.336E-01 0.412E-01


 Contracted 2-electron integrals neglected if value below      1.0D-11
 AO integral compression algorithm  1   Integral accuracy      1.0D-11

     33.292 MB (compressed) written to integral file ( 46.3%)


 NUMBER OF SORTED TWO-ELECTRON INTEGRALS:    8022015.     BUFFER LENGTH:  32768
 NUMBER OF SEGMENTS:   1  SEGMENT LENGTH:    8022015      RECORD LENGTH: 524288

 Memory used in sort:       8.58 MW

 SORT1 READ     8982405. AND WROTE     7217379. INTEGRALS IN     21 RECORDS. CPU TIME:     0.10 SEC, REAL TIME:     0.22 SEC
 SORT2 READ     7217379. AND WROTE     8022015. INTEGRALS IN    127 RECORDS. CPU TIME:     0.25 SEC, REAL TIME:     1.59 SEC

 FILE SIZES:   FILE 1:    63.7 MBYTE,  FILE 4:    88.1 MBYTE,   TOTAL:    151.8 MBYTE

 OPERATOR DM      FOR CENTER  0  COORDINATES:    0.000000    0.000000    0.000000


 **********************************************************************************************************************************
 DATASETS  * FILE   NREC   LENGTH (MB)   RECORD NAMES
              1      19       58.72       500      610      700      900      950      970     1001      129      960     1100   
                                          VAR    BASINP    GEOM    SYMINP    ZMAT    AOBASIS   BASIS     P2S    ABASIS      S 
                                         1400     1410     1200     1210     1080     1600     1650     1300     1700   
                                           T        V       H0       H01     AOSYM     SMH    MOLCAS    ERIS     OPER   

              2       5        2.94       700     1000      520     2200     1001   
                                         GEOM     BASIS   MCVARS     UHF     BASIS   

 PROGRAMS   *        TOTAL       INT   UHF-SCF       INT
 CPU TIMES  *        13.44      1.36     11.54      0.41
 REAL TIME  *        16.36 SEC
 DISK USED  *       154.81 MB
 **********************************************************************************************************************************


 PROGRAM * UHF-SCF       Authors: W. Meyer, H.-J. Werner


 NUMBER OF ELECTRONS:      14+   13-    SPACE SYMMETRY=1    SPIN SYMMETRY: Doublet 
 CONVERGENCE THRESHOLDS:    1.00E-05 (Density)    1.00E-07 (Energy)
 INTEGRAL THRESHOLDS:       1.00E-11 (Initial)    1.00E-11 (Final)
 MAX. NUMBER OF ITERATIONS:       60
 INTERPOLATION TYPE:            DIIS
 INTERPOLATION STEPS:              2 (START)      1 (STEP)
 LEVEL SHIFTS:                 -0.20 (ALPHA)  -0.20 (BETA) 



 Molecular orbitals read from record     2200.2  Type=UHF/ALPHA (state 1.1)

 Present basis size:      89
 Previous basis size:     22
 Previous occupation:     14
 Previous closed-shells:  13
 Previous core-orbitals:   3
 Present occupation:      14
 Present closed-shells:   13
 Present core-orbitals:    3
 Wavefunction symmetry:    1   Doublet 

 Orbital overlap <old|new>:  < 1.1| 1.1> = 0.999845   < 2.1| 2.1> = 0.999833   < 3.1| 3.1> = 0.999833   < 4.1| 4.1> = 0.999649
                             < 5.1| 5.1> = 0.999908   < 6.1| 6.1> = 0.999831   < 7.1| 7.1> = 0.998410   < 8.1| 8.1> = 0.999445
                             < 9.1| 9.1> = 0.998065   <10.1|10.1> = 0.998975   <11.1|11.1> = 0.999213   <12.1|12.1> = 0.999434
                             <13.1|13.1> = 0.996097   <14.1|14.1> = 0.998420

 Molecular orbitals read from record     2200.2  Type=UHF/BETA (state 1.1)

 Present basis size:      89
 Previous basis size:     22
 Previous occupation:     14
 Previous closed-shells:  13
 Previous core-orbitals:   3
 Present occupation:      14
 Present closed-shells:   13
 Present core-orbitals:    3
 Wavefunction symmetry:    1   Doublet 

 Orbital overlap <old|new>:  < 1.1| 1.1> = 0.999845   < 2.1| 2.1> = 0.999833   < 3.1| 3.1> = 0.999833   < 4.1| 4.1> = 0.999686
                             < 5.1| 5.1> = 0.999909   < 6.1| 6.1> = 0.999873   < 7.1| 7.1> = 0.999287   < 8.1| 8.1> = 0.999454
                             < 9.1| 9.1> = 0.998964   <10.1|10.1> = 0.999225   <11.1|11.1> = 0.999600   <12.1|12.1> = 0.999167
                             <13.1|13.1> = 0.996003   <14.1|14.1> = 0.997078


 Molecular orbital dump at record        2201.2

 Initial alpha occupation  14
 Initial beta  occupation  13

 Direct Fock-matrix evaluation.        Author: H.-J. Werner (1996)

 Integral Threshold:                  0.1D-10

 ITERATION   DDIFF            GRAD            ENERGY        2-EL.EN.            DIPOLE MOMENTS         DIIS   CPU(IT)  CPU(TOT)
    1      0.000D+00      0.000D+00      -154.36113716    264.253924   -0.27155    0.33396    0.25970    0      1.8      1.8
    2      0.960D-02      0.851D-02      -154.55477462    261.140743   -0.25579    0.27284    0.22051    1      1.3      3.1
    3      0.412D-02      0.222D-02      -154.58326851    261.053777   -0.21727    0.40085    0.29001    2      1.3      4.4
    4      0.239D-02      0.898D-03      -154.59107012    260.758667   -0.17210    0.48015    0.33016    3      1.3      5.6
    5      0.160D-02      0.421D-03      -154.59312587    260.739475   -0.10485    0.54373    0.35618    4      1.3      6.9
    6      0.620D-03      0.195D-03      -154.59356452    260.725131   -0.05394    0.56640    0.36167    5      1.3      8.2
    7      0.461D-03      0.121D-03      -154.59385165    260.727460    0.00828    0.58535    0.36244    6      1.3      9.5
    8      0.283D-03      0.609D-04      -154.59394352    260.731977    0.04745    0.59690    0.36261    7      1.3     10.7
    9      0.131D-03      0.279D-04      -154.59395883    260.725686    0.06162    0.60171    0.36275    8      1.2     12.0
   10      0.325D-04      0.120D-04      -154.59396099    260.726398    0.06355    0.60272    0.36302    8      1.2     13.2
   11      0.184D-04      0.713D-05      -154.59396190    260.725860    0.06354    0.60294    0.36326    8      1.2     14.4
   12      0.960D-05      0.460D-05      -154.59396227    260.726171    0.06337    0.60290    0.36339    8      1.2     15.7
   13      0.107D-04      0.378D-05      -154.59396262    260.725963    0.06336    0.60283    0.36350    8      1.1     16.8
   14      0.200D-04      0.308D-05      -154.59396309    260.726094    0.06324    0.60266    0.36368    9      1.1     17.9
   15      0.143D-04      0.199D-05      -154.59396328    260.725997    0.06327    0.60255    0.36380    9      1.1     19.1
   16      0.115D-04      0.115D-05      -154.59396335    260.726023    0.06327    0.60248    0.36392    9      1.1     20.2
   17      0.334D-05      0.398D-06      -154.59396336    260.726017    0.06333    0.60248    0.36395    9      1.1     21.3
   18      0.723D-06      0.162D-06      -154.59396336    260.726011    0.06339    0.60249    0.36396    9      1.1     22.4

 Final alpha occupancy:  14
 Final beta  occupancy:  13

 !UHF STATE  1.1 Energy              -154.593963361558
 Nuclear energy                        76.62128239
 One-electron energy                 -361.57825138
 Two-electron energy                  130.36300562
 Virial quotient                       -1.00070865
 !UHF STATE  1.1 Dipole moment          0.06338824     0.60248710     0.36395780
 Dipole moment /Debye                   0.16110629     1.53126915     0.92502787

 Orbital energies for positive spin:

         1.1          2.1          3.1          4.1          5.1          6.1          7.1          8.1          9.1         10.1
    -20.628443   -11.234045   -11.217227    -1.382125    -1.035409    -0.856829    -0.708733    -0.655636    -0.611784    -0.574839

        11.1         12.1         13.1         14.1         15.1         16.1
     -0.543714    -0.524322    -0.498447    -0.429973     0.086699     0.095460

 Orbital energies for negative spin:

         1.1          2.1          3.1          4.1          5.1          6.1          7.1          8.1          9.1         10.1
    -20.592344   -11.222129   -11.218004    -1.255901    -1.015508    -0.832517    -0.645235    -0.607125    -0.575048    -0.521403

        11.1         12.1         13.1         14.1         15.1         16.1
     -0.502596    -0.493017    -0.469898     0.064430     0.088235     0.095912


 HOMO     14.1    -0.429973 =     -11.7002eV
 LUMO    -14.1     0.064430 =       1.7532eV
 LUMO-HOMO         0.494403 =      13.4534eV

 EXPECTATION VALUE OF S**2:             0.78413104

 Occupation number threshold for pseudo-canonical orbitals: 1.9990 (occupied), 0.0010 (virtual)

 Number of pseudo-canonical occupied orbitals per symmetry:   11
 Number of active natural orbitals per symmetry:               5

 Natural orbitals saved to record    2201.2 (Orbital set 3)

 Orbital spaces for UNO-CAS (Min. occupation: 0.020  Max. occupation: 1.980):

 Closed:       13
 Active:        1


 **********************************************************************************************************************************
 DATASETS  * FILE   NREC   LENGTH (MB)   RECORD NAMES
              1      19       58.72       500      610      700      900      950      970     1001      129      960     1100   
                                          VAR    BASINP    GEOM    SYMINP    ZMAT    AOBASIS   BASIS     P2S    ABASIS      S 
                                         1400     1410     1200     1210     1080     1600     1650     1300     1700   
                                           T        V       H0       H01     AOSYM     SMH    MOLCAS    ERIS     OPER   

              2       6        5.75       700     1000      520     2200     1001     2201   
                                         GEOM     BASIS   MCVARS     UHF     BASIS     UHF  

 PROGRAMS   *        TOTAL   UHF-SCF       INT   UHF-SCF       INT
 CPU TIMES  *        35.84     22.40      1.36     11.54      0.41
 REAL TIME  *        39.65 SEC
 DISK USED  *       154.81 MB
 **********************************************************************************************************************************

 Density functional group LDA=DIRAC+VWN5
 Functional: DIRAC(Automatically generated (new) DIRAC)                        Gradient terms: 0
 Functional: VWN5(Automatically generated (new) VWN5)                          Gradient terms: 0
 Use libxcgrid:  F
 Use grid at  1800.2

 Functional: DIRAC                     Factor:  1.0000
 Functional: VWN5                      Factor:  1.0000

 Generated new metagrid on record  1800.2 with target accuracy 1.0D-06 and 36074 points in CPU time    0.8
 Computed new grid on record 1800.1 in CPU time    0.9
   40872 words reserved for DFT integration

 PROGRAM * UKS-SCF (Unrestricted Kohn-Sham)     Authors: W. Meyer, H.-J. Werner, P.J. Knowles, 1993

 NUMBER OF ELECTRONS:      14+   13-    SPACE SYMMETRY=1    SPIN SYMMETRY: Doublet 
 CONVERGENCE THRESHOLDS:    1.00E-05 (Density)    1.00E-06 (Energy)
 MAX. NUMBER OF ITERATIONS:        0
 INTERPOLATION TYPE:            DIIS
 INTERPOLATION STEPS:              2 (START)      1 (STEP)
 LEVEL SHIFTS:                 -0.20 (ALPHA)  -0.20 (BETA) 



 Use fine grid record 1800.2 for energy threshold  1.0D-06
 Molecular orbitals read from record     2201.2  Type=UHF/ALPHA (state 1.1)
 Molecular orbitals read from record     2201.2  Type=UHF/BETA (state 1.1)

 Molecular orbital dump at record        2202.2

 Initial alpha occupation  14
 Initial beta  occupation  13

 ITERATION    DDIFF          GRAD             ENERGY        2-EL.EN.            DIPOLE MOMENTS         DIIS
    1      0.000D+00      0.000D+00      -154.19294320    302.817126    0.06339    0.60249    0.36396    0

 Final alpha occupancy:  14
 Final beta  occupancy:  13

 !UKS STATE  1.1 Energy              -154.192943202555
 Nuclear energy                        76.62128239
 One-electron energy                 -361.57825138
 Two-electron energy                  151.40856312
 Density functional                   -20.64453733     DIRAC=-18.94821062 VWN5= -1.69632672
 Virial quotient                       -0.99811279
 !UKS STATE  1.1 Dipole moment          0.06338824     0.60248710     0.36395780
 Dipole moment /Debye                   0.16110629     1.53126915     0.92502787

 Orbital energies for positive spin:

         1.1          2.1          3.1          4.1          5.1          6.1          7.1          8.1          9.1         10.1
    -20.601425   -11.228054   -11.217616    -1.020258    -0.832322    -0.654846    -0.609355    -0.563580    -0.524788    -0.518780

        11.1         12.1         13.1         14.1         15.1         16.1
     -0.496715    -1.312197    -0.574083    -0.199542     0.664277     1.207745

 Orbital energies for negative spin:

         1.1          2.1          3.1          4.1          5.1          6.1          7.1          8.1          9.1         10.1
    -20.601425   -11.228054   -11.217616    -1.020258    -0.832322    -0.654846    -0.609355    -0.563580    -0.524788    -0.518780

        11.1         12.1         13.1         14.1         15.1         16.1
     -0.496715    -1.312197    -0.574083    -0.199542     0.664277     1.207745


 HOMO     14.1    -0.199542 =      -5.4298eV
 LUMO    -14.1    -0.199542 =      -5.4298eV
 LUMO-HOMO         0.000000 =       0.0000eV

 EXPECTATION VALUE OF S**2:             0.78413104

 Occupation number threshold for pseudo-canonical orbitals: 1.9990 (occupied), 0.0010 (virtual)

 Number of pseudo-canonical occupied orbitals per symmetry:   11
 Number of active natural orbitals per symmetry:               5

 Natural orbitals saved to record    2202.2 (Orbital set 3)

 Orbital spaces for UNO-CAS (Min. occupation: 0.020  Max. occupation: 1.980):

 Closed:       13
 Active:        1

 No convergence



 **********************************************************************************************************************************
 DATASETS  * FILE   NREC   LENGTH (MB)   RECORD NAMES
              1      20       59.87       500      610      700      900      950      970     1001      129      960     1100   
                                          VAR    BASINP    GEOM    SYMINP    ZMAT    AOBASIS   BASIS     P2S    ABASIS      S 
                                         1400     1410     1200     1210     1080     1600     1650     1300     1700     1800   
                                           T        V       H0       H01     AOSYM     SMH    MOLCAS    ERIS     OPER     GRID   

              2       8        8.57       700     1000      520     2200     1001     2201     1800     2202   
                                         GEOM     BASIS   MCVARS     UHF     BASIS     UHF     GRID      UKS  

 PROGRAMS   *        TOTAL   UKS-SCF   UHF-SCF       INT   UHF-SCF       INT
 CPU TIMES  *        36.99      1.15     22.40      1.36     11.54      0.41
 REAL TIME  *        40.82 SEC
 DISK USED  *       154.81 MB
 **********************************************************************************************************************************


 PROGRAM * Intrinsic Basis Bonding Analysis (IBBA)          Author: G. Knizia

 Molecular orbitals read from record     2202.2  Type=UKS/ALPHA (state 1.1)
 Fock matrix read from record            2202.2  Type=UKS/TOTAL (state 1.1)
 Orbital energies read from record       2202.2  Type=UKS/ALPHA (state 1.1)
 Density matrix read from record         2202.2  Type=UKS/CHARGE (state 1.1)

 Number of core orbitals:           3 (   3 )
 Number of closed-shell orbitals:  10 (  10 )
 Number of active  orbitals:        1 (   1 )

 Basis set MINAO-AUTO-PP generated.      Number of basis functions:   22 

 Polarized AO type:                A = (O Ot + (1-O)(1-Ot)) P12
 Orthogonalization method:         Symmetric (Loewdin)
 Localization functional:          L = sum[A,i] <i|n_A|i>^4 -> max

 Localization group 1:  13 orbitals, occupancy  2.000
 Iterative localization: IB/PM,    8 iter; Final gradient 0.22E-08

 Bond order analysis:       [THRPRINT= 0.020]

   CEN ATOM   CEN ATOM     WIBERG.BO      RENORM.BO
     1   C  -   2   C       1.261839       1.642286
     1   C  -   5   H       0.936490       0.989179
     1   C  -   4   H       0.934726       0.989254
     1   C  -   6   H       0.689879       0.997114
     1   C  -   3   O       0.072420       0.050917
     1   C  -   9   H       0.047215       0.105059

     2   C  -   1   C       1.261839       1.642286
     2   C  -   7   H       0.923940       0.986262
     2   C  -   8   H       0.913297       0.986355
     2   C  -   9   H       0.240477       0.697055
     2   C  -   3   O       0.148961       0.199826
     2   C  -   6   H       0.135128       0.422767

     3   O  -  10   H       0.830088       0.999616
     3   O  -   9   H       0.414498       0.531180
     3   O  -   2   C       0.148961       0.199826
     3   O  -   1   C       0.072420       0.050917
     3   O  -   6   H       0.051106       0.046777

     4   H  -   1   C       0.934726       0.989254

     5   H  -   1   C       0.936490       0.989179

     6   H  -   1   C       0.689879       0.997114
     6   H  -   2   C       0.135128       0.422767
     6   H  -   3   O       0.051106       0.046777

     7   H  -   2   C       0.923940       0.986262

     8   H  -   2   C       0.913297       0.986355

     9   H  -   3   O       0.414498       0.531180
     9   H  -   2   C       0.240477       0.697055
     9   H  -   1   C       0.047215       0.105059

    10   H  -   3   O       0.830088       0.999616


 Valency analysis:

   CEN ATOM   TOT.VALENCE
     1   C       3.954759
     2   C       3.655890
     3   O       1.556306
     4   H       0.977125
     5   H       0.977175
     6   H       0.911481
     7   H       0.969655
     8   H       0.964879
     9   H       0.750296
    10   H       0.831363
 Localization group 2:   1 orbitals, occupancy  1.000
 Iterative localization: IB/PM,    1 iter; Final gradient 0.00E+00

 Bond order analysis:       [THRPRINT= 0.020]

   CEN ATOM   CEN ATOM     WIBERG.BO      RENORM.BO
     1   C  -   2   C       0.091964       0.500000
     1   C  -   3   O       0.035255       0.500000
     1   C  -   9   H       0.021461       0.500000

     2   C  -   3   O       0.160788       0.500000
     2   C  -   9   H       0.097879       0.500000
     2   C  -   1   C       0.091964       0.500000
     2   C  -   6   H       0.087449       0.500000

     3   O  -   2   C       0.160788       0.500000
     3   O  -   9   H       0.037522       0.500000
     3   O  -   1   C       0.035255       0.500000
     3   O  -   6   H       0.033524       0.500000



     6   H  -   2   C       0.087449       0.500000
     6   H  -   3   O       0.033524       0.500000
     6   H  -   9   H       0.020408       0.500000



     9   H  -   2   C       0.097879       0.500000
     9   H  -   3   O       0.037522       0.500000
     9   H  -   1   C       0.021461       0.500000
     9   H  -   6   H       0.020408       0.500000



 Valency analysis:

   CEN ATOM   TOT.VALENCE
     1   C       0.180655
     2   C       0.496462
     3   O       0.289470
     4   H       0.025263
     5   H       0.023578
     6   H       0.172728
     7   H       0.034328
     8   H       0.040448
     9   H       0.190895
    10   H       0.001794

 Total charge composition:

   CEN ATOM         s          p       ELECTRONS ->P.CHARGE
     1   C       3.02145    3.21847      6.23992   -0.23992
     2   C       3.08880    3.15451      6.24331   -0.24331
     3   O       3.78518    5.33731      9.12249   -1.12249
     4   H       0.86155                 0.86155    0.13845
     5   H       0.86085                 0.86085    0.13915
     6   H       0.79796                 0.79796    0.20204
     7   H       0.84327                 0.84327    0.15673
     8   H       0.83324                 0.83324    0.16676
     9   H       0.60716                 0.60716    0.39284
    10   H       0.59024                 0.59024    0.40976

 Total charge composition, AO contributions:

   CEN ATOM SHL      SPHERICAL COMPONENTS
     1   C  1s       1.98989
     1   C  2s       1.03156
     1   C  2p       0.99552    1.07054    1.15240

     2   C  1s       1.99047
     2   C  2s       1.09833
     2   C  2p       0.92614    1.06129    1.16708

     3   O  1s       1.99778
     3   O  2s       1.78740
     3   O  2p       1.69271    1.76748    1.87712

     4   H  1s       0.86155

     5   H  1s       0.86085

     6   H  1s       0.79796

     7   H  1s       0.84327

     8   H  1s       0.83324

     9   H  1s       0.60716

    10   H  1s       0.59024

 Active orbital charges:

   CEN ATOM         s          p       ELECTRONS ->SPIN.DEN
     1   C       0.00040    0.10001      0.10041    0.10041
     2   C       0.00651    0.45144      0.45794    0.45794
     3   O       0.01070    0.16486      0.17555    0.17555
     4   H       0.01280                 0.01280    0.01280
     5   H       0.01193                 0.01193    0.01193
     6   H       0.09548                 0.09548    0.09548
     7   H       0.01747                 0.01747    0.01747
     8   H       0.02065                 0.02065    0.02065
     9   H       0.10687                 0.10687    0.10687
    10   H       0.00090                 0.00090    0.00090

 Active orbital charges, AO contributions:

   CEN ATOM SHL      SPHERICAL COMPONENTS
     1   C  1s       0.00000
     1   C  2s       0.00040
     1   C  2p       0.09216    0.00779    0.00006

     2   C  1s       0.00003
     2   C  2s       0.00647
     2   C  2p       0.36395    0.08736    0.00012

     3   O  1s       0.00006
     3   O  2s       0.01064
     3   O  2p       0.14046    0.02413    0.00026

     4   H  1s       0.01280

     5   H  1s       0.01193

     6   H  1s       0.09548

     7   H  1s       0.01747

     8   H  1s       0.02065

     9   H  1s       0.10687

    10   H  1s       0.00090

 Summary of localized orbital composition:   [THRPRINT= 0.020]

   ORB  GRP  ORB.ENERGY      CENTERS/CHARGES
     1   1   -18.450623      O  3   2.000
     2   1    -9.681024      C  2   2.000
     3   1    -9.669505      C  1   2.000
     4   1    -0.737129      O  3   1.408   H 10   0.588
     5   1    -0.630374      O  3   1.986
     6   1    -0.562619      C  2   1.037   C  1   0.917   H  9   0.044
     7   1    -0.496119      C  2   1.147   H  8   0.794   H  9   0.053
     8   1    -0.495071      C  2   1.140   H  7   0.809   H  9   0.044
     9   1    -0.478311      C  1   0.958   H  6   0.660   C  2   0.303   H  9   0.064
    10   1    -0.469027      O  3   1.551   H  9   0.280   C  2   0.091   C  1   0.033   H  6   0.025
    11   1    -0.455319      C  1   1.111   H  4   0.843   C  2   0.029
    12   1    -0.454522      C  1   1.114   H  5   0.843   C  2   0.027
    13   1    -0.258100      O  3   2.000
    14   2    -0.225138      C  2   0.458   O  3   0.176   H  9   0.107   C  1   0.100   H  6   0.095   H  8   0.021   (other: 0.043)

 Localized orbitals saved to record      2202.2  (orbital set 4)


 **********************************************************************************************************************************
 DATASETS  * FILE   NREC   LENGTH (MB)   RECORD NAMES
              1      20       59.87       500      610      700      900      950      970     1001      129      960     1100   
                                          VAR    BASINP    GEOM    SYMINP    ZMAT    AOBASIS   BASIS     P2S    ABASIS      S 
                                         1400     1410     1200     1210     1080     1600     1650     1300     1700     1800   
                                           T        V       H0       H01     AOSYM     SMH    MOLCAS    ERIS     OPER     GRID   

              2       8        8.64       700     1000      520     2200     1001     2201     1800     2202   
                                         GEOM     BASIS   MCVARS     UHF     BASIS     UHF     GRID      UKS  

 PROGRAMS   *        TOTAL      IBBA   UKS-SCF   UHF-SCF       INT   UHF-SCF       INT
 CPU TIMES  *        37.01      0.01      1.15     22.40      1.36     11.54      0.41
 REAL TIME  *        40.86 SEC
 DISK USED  *       154.81 MB
 **********************************************************************************************************************************

 IBBA/6-31+G(D,P) energy=      0.000000000000

         UKS-SCF         UHF-SCF         UHF-SCF
   -154.19294320   -154.59396336   -152.63034100
 **********************************************************************************************************************************
 Molpro calculation terminated
