
 Primary working directories    : /local
 Secondary working directories  : /local
 Wavefunction directory         : /local/
 Main file repository           : /local/

 SHA1      : b4a5b34a9e711420743f49e6833241d17c61fb3c
 NAME      : 2099.9.b4a5b34
 ARCHNAME  : linux/x86_64_openmp
 FC        : /cm/shared/languages/GCC-6.1/bin/gfortran
 BLASLIB   : -lblas
 id        : simonbennie

 Nodes     nprocs
 node32-032    1

 Using customized tuning parameters: mindgm=1; mindgv=20; mindgc=4; mindgr=1; noblas=0; minvec=7
 default implementation of scratch files=df  

 memory,500,m
 geomtyp=xyz
 nosym
 noorient
 geometry={
 C          1.45833       -0.44637        0.02548
 C          0.46942        0.69742       -0.02749
 O         -1.85304       -0.31466       -0.05305
 H          1.30176       -1.06108        0.91074
 H          1.36658       -1.08619       -0.85112
 H          2.48224       -0.06688        0.05715
 H          0.47107        1.32544        0.86104
 H          0.53352        1.30350       -0.92856
 H         -0.63023        0.20782       -0.07846
 H         -2.26721        0.38832        0.46575
 }
 basis={ default,sto-3g }
 {ks,CS,direct;wf,27,1,1}
 {ibba,bonds=1}

 Variables initialized (895), CPU time= 0.00 sec
 Commands  initialized (725), CPU time= 0.01 sec, 591 directives.
 Default parameters read. Elapsed time= 0.07 sec

 Checking input...
 Passed
1


                                         ***  PROGRAM SYSTEM MOLPRO  ***
                                       Copyright, TTI GmbH Stuttgart, 2015
                                    Version 2099.9 linked May 26 2017 16:03:21


 **********************************************************************************************************************************
 LABEL *                                                                                 
  64 bit serial version                                                                  DATE: 24-Jun-17          TIME: 21:44:50  
 **********************************************************************************************************************************

 SHA1:             b4a5b34a9e711420743f49e6833241d17c61fb3c
 **********************************************************************************************************************************
 SETTING GEOMTYP        =    XYZ

 Variable memory set to  500000000 words,  buffer space 

 ZSYMEL=NOSYM

 SETTING BASIS          =    STO-3G


 Recomputing integrals since basis changed


 Using spherical harmonics

 Library entry C      S STO-3G               selected for orbital group  1
 Library entry C      P STO-3G               selected for orbital group  1
 Library entry O      S STO-3G               selected for orbital group  2
 Library entry O      P STO-3G               selected for orbital group  2
 Library entry H      S STO-3G               selected for orbital group  3


 PROGRAM * SEWARD (Integral evaluation for generally contracted gaussian basis sets)     Author: Roland Lindh, 1990

 Geometry written to block  1 of record 700


 Point group  C1  



 ATOMIC COORDINATES

 NR  ATOM    CHARGE       X              Y              Z

   1  C       6.00    2.755844299   -0.843517050    0.048150222
   2  C       6.00    0.887075237    1.317932794   -0.051948571
   3  O       8.00   -3.501738098   -0.594621222   -0.100249971
   4  H       1.00    2.459969880   -2.005150596    1.721049171
   5  H       1.00    2.582461927   -2.052601619   -1.608383699
   6  H       1.00    4.690753775   -0.126384883    0.107997848
   7  H       1.00    0.890193285    2.504718595    1.627129782
   8  H       1.00    1.008206682    2.463258003   -1.754724090
   9  H       1.00   -1.190962095    0.392722883   -0.148267912
  10  H       1.00   -4.284405967    0.733818449    0.880139943

 Bond lengths in Bohr (Angstrom)

 1-2  2.859052816  1-4  2.058039130  1-5  2.058167042  1-6  2.064396998  2-7  2.056155241
     ( 1.512945595)     ( 1.089067407)     ( 1.089135095)     ( 1.092431846)     ( 1.088070496)

  2- 8  2.055696264   2- 9  2.276736689   3- 9  2.513332417   3-10  1.827152247
       ( 1.087827616)       ( 1.204797171)       ( 1.329998239)       ( 0.966887330)

 Bond angles

  1-2-7  114.00226578   1-2-8  114.31102346   1-2-9  106.90871836   2-1-4  111.17423075

  2-1-5  111.15405898   2-1-6  110.55020437   2-9-3  176.37609848   4-1-5  108.09205460

  4-1-6  107.89401437   5-1-6  107.84010630   7-2-8  110.77800657   7-2-9  105.69319509

  8- 2- 9  104.19071435   9- 3-10   96.80351572

 NUCLEAR CHARGE:                   27
 NUMBER OF PRIMITIVE AOS:          66
 NUMBER OF SYMMETRY AOS:           66
 NUMBER OF CONTRACTIONS:           22   (  22A   )
 NUMBER OF CORE ORBITALS:           3   (   3A   )
 NUMBER OF VALENCE ORBITALS:       19   (  19A   )


 NUCLEAR REPULSION ENERGY   76.62128239


 Eigenvalues of metric

         1 0.207E+00 0.251E+00 0.342E+00 0.347E+00 0.372E+00 0.388E+00 0.389E+00 0.406E+00


 Contracted 2-electron integrals neglected if value below      1.0D-11
 AO integral compression algorithm  1   Integral accuracy      1.0D-11

     0.262 MB (compressed) written to integral file (100.0%)


 NUMBER OF SORTED TWO-ELECTRON INTEGRALS:      32131.     BUFFER LENGTH:  32768
 NUMBER OF SEGMENTS:   1  SEGMENT LENGTH:      32131      RECORD LENGTH: 524288

 Memory used in sort:       0.59 MW

 SORT1 READ       37963. AND WROTE       31156. INTEGRALS IN      1 RECORDS. CPU TIME:     0.00 SEC, REAL TIME:     0.00 SEC
 SORT2 READ       31156. AND WROTE       32131. INTEGRALS IN      1 RECORDS. CPU TIME:     0.01 SEC, REAL TIME:     0.00 SEC

 FILE SIZES:   FILE 1:    30.4 MBYTE,  FILE 4:     4.2 MBYTE,   TOTAL:     34.6 MBYTE

 OPERATOR DM      FOR CENTER  0  COORDINATES:    0.000000    0.000000    0.000000


 **********************************************************************************************************************************
 DATASETS  * FILE   NREC   LENGTH (MB)   RECORD NAMES
              1      19       30.27       500      610      700      900      950      970     1000      129      960     1100   
                                          VAR    BASINP    GEOM    SYMINP    ZMAT    AOBASIS   BASIS     P2S    ABASIS      S 
                                         1400     1410     1200     1210     1080     1600     1650     1300     1700   
                                           T        V       H0       H01     AOSYM     SMH    MOLCAS    ERIS     OPER   

 PROGRAMS   *        TOTAL       INT
 CPU TIMES  *         0.38      0.23
 REAL TIME  *         0.71 SEC
 DISK USED  *        35.03 MB      
 **********************************************************************************************************************************

 Density functional group CS=CS1
 Functional: CS1(Colle-Salvetti (Gradient form))                               Gradient terms: 1
 Use grid at  1800.2

 Functional: CS1                       Factor:  1.0000

 Generated new metagrid on record  1800.2 with target accuracy 1.0D-06 and 36074 points in CPU time    0.8
 Computed new grid on record 1800.1 in CPU time    0.9
   21722 words reserved for DFT integration

 PROGRAM * RKS-SCF (Restricted open shell Kohn-Sham)     Authors: W. Meyer, H.-J. Werner, P.J. Knowles, 1993

 NUMBER OF ELECTRONS:      14+   13-    SPACE SYMMETRY=1    SPIN SYMMETRY: Doublet 
 CONVERGENCE THRESHOLDS:    1.00E-05 (Density)    1.00E-06 (Energy)
 MAX. NUMBER OF ITERATIONS:       60
 INTERPOLATION TYPE:            DIIS
 INTERPOLATION STEPS:              2 (START)      1 (STEP)
 LEVEL SHIFTS:                 -0.60 (CLOSED) -0.30 (OPEN) 



 Use fine grid record 1800.2 for energy threshold  1.0D-06
 Orbital guess generated from atomic densities. Full valence occupancy:   14

 Molecular orbital dump at record        2100.2

 Initial alpha occupancy:  14
 Initial beta  occupancy:  13
 Wave function symmetry:    1

 ITERATION    DDIFF          GRAD             ENERGY        2-EL.EN.            DIPOLE MOMENTS         DIIS   ORB.
    1      0.000D+00      0.000D+00      -132.25321977    302.262895   -1.89515   -0.53755    0.10986    0    start
    2      0.000D+00      0.288D-01      -132.13769688    301.138015    1.41877    0.93125    0.20780    1    diag,B
    3      0.918D-01      0.322D-01      -132.36601388    300.103887   -1.32059   -0.36540    0.05284    2    diag,B
    4      0.668D-01      0.942D-02      -132.38646273    300.544907   -0.84423   -0.12803    0.07987    3    diag,B
    5      0.175D-01      0.167D-02      -132.38930286    300.492433   -0.67979   -0.06766    0.07655    4    diag,B
    6      0.709D-02      0.935D-03      -132.39059640    300.507257   -0.63359   -0.05759    0.07202    5    diag,B
    7      0.416D-02      0.867D-03      -132.39244837    300.517468   -0.56709   -0.04405    0.06469    6    fixocc
    8      0.793D-02      0.487D-03      -132.39349880    300.520819   -0.50737   -0.03377    0.05746    7    diag,B
    9      0.838D-02      0.157D-03      -132.39370124    300.529688   -0.47291   -0.02418    0.05602    8    diag,B
   10      0.370D-02      0.882D-04      -132.39376634    300.537075   -0.44836   -0.01868    0.05463    9    orth
   11      0.318D-02      0.347D-04      -132.39376807    300.537285   -0.44524   -0.01761    0.05468    9    diag,B
   12      0.336D-03      0.121D-04      -132.39376859    300.537808   -0.44434   -0.01764    0.05454    9    diag,B
   13      0.239D-03      0.120D-04      -132.39376869    300.538159   -0.44291   -0.01715    0.05455    9    diag,B
   14      0.122D-03      0.188D-05      -132.39376869    300.538249   -0.44270   -0.01712    0.05454    9    diag,B
   15      0.285D-04      0.991D-06      -132.39376869    300.538212   -0.44283   -0.01717    0.05454    9    diag,B
   16      0.142D-04      0.994D-07      -132.39376869    300.538212   -0.44284   -0.01717    0.05454    9    diag,B
   17      0.125D-05      0.256D-07      -132.39376869    300.538210   -0.44284   -0.01717    0.05454    0    orth

 Final alpha occupancy:  14
 Final beta  occupancy:  13

 !RKS STATE 1.1 Energy               -132.393768693141
 Nuclear energy                        76.62128239
 One-electron energy                 -358.43607737
 Two-electron energy                  150.26910522
 Density functional                    -0.84807894     CS1=-0.84807894
 Virial quotient                       -0.88810148
 !RKS STATE 1.1 Dipole moment          -0.44284078    -0.01716899     0.05453964
 Dipole moment /Debye                  -1.12551526    -0.04363636     0.13861685

 Orbital energies:

         1.1          2.1          3.1          4.1          5.1          6.1          7.1          8.1          9.1         10.1
    -15.727249    -7.672327    -7.622672    -0.224291    -0.129718    -0.005570     0.113030     0.115303     0.202555     0.206001

        11.1         12.1         13.1         14.1         15.1         16.1
      0.225062     0.327670     0.531901     0.477063     0.854729     0.870498

 HOMO     14.1     0.477063 =      12.9816eV
 LUMO     15.1     0.854729 =      23.2583eV
 LUMO-HOMO         0.377665 =      10.2768eV


 **********************************************************************************************************************************
 DATASETS  * FILE   NREC   LENGTH (MB)   RECORD NAMES
              1      20       31.42       500      610      700      900      950      970     1000      129      960     1100   
                                          VAR    BASINP    GEOM    SYMINP    ZMAT    AOBASIS   BASIS     P2S    ABASIS      S 
                                         1400     1410     1200     1210     1080     1600     1650     1300     1700     1800   
                                           T        V       H0       H01     AOSYM     SMH    MOLCAS    ERIS     OPER     GRID   

              2       5        2.92       700     1000      520     1800     2100   
                                         GEOM     BASIS   MCVARS    GRID      RKS  

 PROGRAMS   *        TOTAL        KS       INT
 CPU TIMES  *         4.90      4.52      0.23
 REAL TIME  *         5.52 SEC
 DISK USED  *        35.03 MB      
 **********************************************************************************************************************************


 PROGRAM * Intrinsic Basis Bonding Analysis (IBBA)          Author: G. Knizia

 Molecular orbitals read from record     2100.2  Type=RKS/CANONICAL (state 1.1)
 Fock matrix read from record            2100.2  Type=RKS/TOTAL (state 1.1)
 Orbital energies read from record       2100.2  Type=RKS/CANONICAL (state 1.1)
 Density matrix read from record         2100.2  Type=RKS/CHARGE (state 1.1)

 Number of core orbitals:           3 (   3 )
 Number of closed-shell orbitals:  10 (  10 )
 Number of active  orbitals:        1 (   1 )

 Basis set MINAO-AUTO-PP generated.      Number of basis functions:   22 

 Polarized AO type:                A = (O Ot + (1-O)(1-Ot)) P12
 Orthogonalization method:         Symmetric (Loewdin)
 Localization functional:          L = sum[A,i] <i|n_A|i>^4 -> max

 Localization group 1:  13 orbitals, occupancy  2.000
 Iterative localization: IB/PM,    8 iter; Final gradient 0.38E-09

 Bond order analysis:       [THRPRINT= 0.020]

   CEN ATOM   CEN ATOM     WIBERG.BO      RENORM.BO
     1   C  -   2   C       1.045703       1.061471
     1   C  -   4   H       0.964672       0.983798
     1   C  -   5   H       0.964450       0.983040
     1   C  -   6   H       0.946702       0.978889

     2   C  -   1   C       1.045703       1.061471
     2   C  -   7   H       0.967569       0.983133
     2   C  -   8   H       0.963587       0.982747
     2   C  -   9   H       0.576944       0.669830
     2   C  -   3   O       0.402722       0.895234

     3   O  -  10   H       0.995395       0.999726
     3   O  -   2   C       0.402722       0.895234
     3   O  -   9   H       0.396198       0.876315
     3   O  -   6   H       0.025289       0.065503

     4   H  -   1   C       0.964672       0.983798

     5   H  -   1   C       0.964450       0.983040

     6   H  -   1   C       0.946702       0.978889
     6   H  -   3   O       0.025289       0.065503

     7   H  -   2   C       0.967569       0.983133

     8   H  -   2   C       0.963587       0.982747

     9   H  -   2   C       0.576944       0.669830
     9   H  -   3   O       0.396198       0.876315

    10   H  -   3   O       0.995395       0.999726


 Valency analysis:

   CEN ATOM   TOT.VALENCE
     1   C       3.944737
     2   C       3.967686
     3   O       1.856079
     4   H       0.995302
     5   H       0.995282
     6   H       0.993737
     7   H       0.997337
     8   H       0.997005
     9   H       0.995361
    10   H       0.997770
 Localization group 2:   1 orbitals, occupancy  1.000
 Iterative localization: IB/PM,    1 iter; Final gradient 0.00E+00

 Bond order analysis:       [THRPRINT= 0.020]

   CEN ATOM   CEN ATOM     WIBERG.BO      RENORM.BO

     2   C  -   3   O       0.340746       0.500000

     3   O  -   2   C       0.340746       0.500000
     3   O  -   6   H       0.021841       0.500000



     6   H  -   3   O       0.021841       0.500000






 Valency analysis:

   CEN ATOM   TOT.VALENCE
     1   C       0.004031
     2   C       0.352014
     3   O       0.377681
     4   H       0.005503
     5   H       0.005008
     6   H       0.028799
     7   H       0.000413
     8   H       0.002180
     9   H       0.002973
    10   H       0.000049

 Total charge composition:

   CEN ATOM         s          p       ELECTRONS ->P.CHARGE
     1   C       2.87444    3.34101      6.21545   -0.21545
     2   C       2.90077    3.32525      6.22602   -0.22602
     3   O       3.74253    4.23134      7.97386    0.02614
     4   H       0.93421                 0.93421    0.06579
     5   H       0.93382                 0.93382    0.06618
     6   H       0.93548                 0.93548    0.06452
     7   H       0.94860                 0.94860    0.05140
     8   H       0.94637                 0.94637    0.05363
     9   H       0.93338                 0.93338    0.06662
    10   H       0.95280                 0.95280    0.04720

 Total charge composition, AO contributions:

   CEN ATOM SHL      SPHERICAL COMPONENTS
     1   C  1s       1.99805
     1   C  2s       0.87639
     1   C  2p       1.10896    1.10502    1.12703

     2   C  1s       1.99832
     2   C  2s       0.90246
     2   C  2p       1.13237    1.08407    1.10882

     3   O  1s       1.99927
     3   O  2s       1.74325
     3   O  2p       1.11359    1.55705    1.56070

     4   H  1s       0.93421

     5   H  1s       0.93382

     6   H  1s       0.93548

     7   H  1s       0.94860

     8   H  1s       0.94637

     9   H  1s       0.93338

    10   H  1s       0.95280

 Active orbital charges:

   CEN ATOM         s          p       ELECTRONS ->SPIN.DEN
     1   C       0.00001    0.00201      0.00202    0.00202
     2   C       0.01863    0.20935      0.22798    0.22798
     3   O       0.00004    0.74727      0.74730    0.74730
     4   H       0.00276                 0.00276    0.00276
     5   H       0.00251                 0.00251    0.00251
     6   H       0.01461                 0.01461    0.01461
     7   H       0.00021                 0.00021    0.00021
     8   H       0.00109                 0.00109    0.00109
     9   H       0.00149                 0.00149    0.00149
    10   H       0.00002                 0.00002    0.00002

 Active orbital charges, AO contributions:

   CEN ATOM SHL      SPHERICAL COMPONENTS
     1   C  1s       0.00000
     1   C  2s       0.00001
     1   C  2p       0.00198    0.00002    0.00001

     2   C  1s       0.00001
     2   C  2s       0.01862
     2   C  2p       0.17225    0.03708    0.00002

     3   O  1s       0.00000
     3   O  2s       0.00003
     3   O  2p       0.51597    0.02262    0.20868

     4   H  1s       0.00276

     5   H  1s       0.00251

     6   H  1s       0.01461

     7   H  1s       0.00021

     8   H  1s       0.00109

     9   H  1s       0.00149

    10   H  1s       0.00002

 Summary of localized orbital composition:   [THRPRINT= 0.020]

   ORB  GRP  ORB.ENERGY      CENTERS/CHARGES
     1   1   -15.670145      O  3   2.000
     2   1    -7.586989      C  1   2.000
     3   1    -7.543960      C  2   2.000
     4   1    -0.061564      O  3   1.048   H 10   0.951
     5   1     0.052426      C  1   1.014   C  2   0.972
     6   1     0.077253      C  1   1.062   H  4   0.923
     7   1     0.078152      C  1   1.063   H  5   0.923
     8   1     0.080979      C  1   1.061   H  6   0.909   (other: 0.030)
     9   1     0.088249      C  2   1.043   H  7   0.941
    10   1     0.088706      C  2   1.043   H  8   0.937   (other: 0.020)
    11   1     0.091078      H  9   0.846   C  2   0.840   O  3   0.300
    12   1     0.288263      O  3   1.839   H  9   0.079   C  2   0.077
    13   1     0.357249      O  3   1.999
    14   2     0.466240      O  3   0.747   C  2   0.228   (other: 0.025)

 Localized orbitals saved to record      2100.2  (orbital set 2)


 **********************************************************************************************************************************
 DATASETS  * FILE   NREC   LENGTH (MB)   RECORD NAMES
              1      20       31.42       500      610      700      900      950      970     1000      129      960     1100   
                                          VAR    BASINP    GEOM    SYMINP    ZMAT    AOBASIS   BASIS     P2S    ABASIS      S 
                                         1400     1410     1200     1210     1080     1600     1650     1300     1700     1800   
                                           T        V       H0       H01     AOSYM     SMH    MOLCAS    ERIS     OPER     GRID   

              2       5        2.92       700     1000      520     1800     2100   
                                         GEOM     BASIS   MCVARS    GRID      RKS  

 PROGRAMS   *        TOTAL      IBBA        KS       INT
 CPU TIMES  *         4.93      0.03      4.52      0.23
 REAL TIME  *         5.60 SEC
 DISK USED  *        35.03 MB      
 **********************************************************************************************************************************
 Molecular orbitals read from record     2100.2  Type=RKS/LOCAL(IBO)  
 Occupation numbers read from record     2100.2  Type=RKS/LOCAL(IBO)  
 Orbital energies read from record       2100.2  Type=RKS/LOCAL(IBO)  
 Redundancy group numbers read from rec  2100.2  Type=RKS/LOCAL(IBO)  

 IBBA/STO-3G energy=      0.000000000000

        KS-SCF  
   -132.39376869
 **********************************************************************************************************************************
 Molpro calculation terminated
