
 Primary working directories    : /local
 Secondary working directories  : /local
 Wavefunction directory         : /local/
 Main file repository           : /local/

 SHA1      : b4a5b34a9e711420743f49e6833241d17c61fb3c
 NAME      : 2099.9.b4a5b34
 ARCHNAME  : linux/x86_64_openmp
 FC        : /cm/shared/languages/GCC-6.1/bin/gfortran
 BLASLIB   : -lblas
 id        : simonbennie

 Nodes     nprocs
 node32-016    1

 Using customized tuning parameters: mindgm=1; mindgv=20; mindgc=4; mindgr=1; noblas=0; minvec=7
 default implementation of scratch files=df  

 memory,500,m
 geomtyp=xyz
 nosym
 noorient
 geometry={
 H          0.14657       -1.12839        0.00000
 F          0.00000        0.33042        0.00000
 H         -0.14657       -1.84541        0.00000
 }
 basis={ default,avdz }
 {uks,B97,direct;wf,11,1,1}
 {ibba,bonds=1}

 Variables initialized (895), CPU time= 0.00 sec
 Commands  initialized (725), CPU time= 0.01 sec, 591 directives.
 Default parameters read. Elapsed time= 0.09 sec

 Checking input...
 Passed
1


                                         ***  PROGRAM SYSTEM MOLPRO  ***
                                       Copyright, TTI GmbH Stuttgart, 2015
                                    Version 2099.9 linked May 26 2017 16:03:21


 **********************************************************************************************************************************
 LABEL *                                                                                 
  64 bit serial version                                                                  DATE: 19-Jun-17          TIME: 12:07:00  
 **********************************************************************************************************************************

 SHA1:             b4a5b34a9e711420743f49e6833241d17c61fb3c
 **********************************************************************************************************************************
 SETTING GEOMTYP        =    XYZ

 Variable memory set to  500000000 words,  buffer space 

 ZSYMEL=NOSYM

 SETTING BASIS          =    AVDZ


 Recomputing integrals since basis changed


 Using spherical harmonics

 Library entry H      S aug-cc-pVDZ          selected for orbital group  1
 Library entry H      P aug-cc-pVDZ          selected for orbital group  1
 Library entry F      S aug-cc-pVDZ          selected for orbital group  2
 Library entry F      P aug-cc-pVDZ          selected for orbital group  2
 Library entry F      D aug-cc-pVDZ          selected for orbital group  2


 PROGRAM * SEWARD (Integral evaluation for generally contracted gaussian basis sets)     Author: Roland Lindh, 1990

 Geometry written to block  1 of record 700


 Point group  C1  



 ATOMIC COORDINATES

 NR  ATOM    CHARGE       X              Y              Z

   1  H       1.00    0.276977158   -2.132348062    0.000000000
   2  F       9.00    0.000000000    0.624403306    0.000000000
   3  H       1.00   -0.276977158   -3.487319488    0.000000000

 Bond lengths in Bohr (Angstrom)

 1-3  1.463835014
     ( 0.774628130)

 NUCLEAR CHARGE:                   11
 NUMBER OF PRIMITIVE AOS:          59
 NUMBER OF SYMMETRY AOS:           57
 NUMBER OF CONTRACTIONS:           41   (  41A   )
 NUMBER OF CORE ORBITALS:           1   (   1A   )
 NUMBER OF VALENCE ORBITALS:        6   (   6A   )


 NUCLEAR REPULSION ENERGY    6.11540905

 EXTRA SYMMETRY OF AOS IN SYMMETRY 1:   1 1 1 1 1 2 1 1 2 1   1 1 1 1 1 2 1 1 2 1   1 2 1 1 2 1 2 1 1 2   1 2 1 1 1 1 1 2 1 1
                                        2

 Eigenvalues of metric

         1 0.201E-03 0.678E-02 0.144E-01 0.213E-01 0.275E-01 0.663E-01 0.665E-01 0.697E-01


 Contracted 2-electron integrals neglected if value below      1.0D-11
 AO integral compression algorithm  1   Integral accuracy      1.0D-11

     1.573 MB (compressed) written to integral file ( 32.2%)


 NUMBER OF SORTED TWO-ELECTRON INTEGRALS:     371091.     BUFFER LENGTH:  32768
 NUMBER OF SEGMENTS:   1  SEGMENT LENGTH:     371091      RECORD LENGTH: 524288

 Memory used in sort:       0.93 MW

 SORT1 READ      544617. AND WROTE      179325. INTEGRALS IN      1 RECORDS. CPU TIME:     0.00 SEC, REAL TIME:     0.01 SEC
 SORT2 READ      179325. AND WROTE      371091. INTEGRALS IN      6 RECORDS. CPU TIME:     0.03 SEC, REAL TIME:     0.03 SEC

 FILE SIZES:   FILE 1:    31.6 MBYTE,  FILE 4:     4.2 MBYTE,   TOTAL:     35.8 MBYTE

 OPERATOR DM      FOR CENTER  0  COORDINATES:    0.000000    0.000000    0.000000


 **********************************************************************************************************************************
 DATASETS  * FILE   NREC   LENGTH (MB)   RECORD NAMES
              1      19       30.99       500      610      700      900      950      970     1000      129      960     1100   
                                          VAR    BASINP    GEOM    SYMINP    ZMAT    AOBASIS   BASIS     P2S    ABASIS      S 
                                         1400     1410     1200     1210     1080     1600     1650     1300     1700   
                                           T        V       H0       H01     AOSYM     SMH    MOLCAS    ERIS     OPER   

 PROGRAMS   *        TOTAL       INT
 CPU TIMES  *         0.41      0.27
 REAL TIME  *         0.73 SEC
 DISK USED  *        36.14 MB      
 **********************************************************************************************************************************

 Density functional group B97=B97DF
 Functional: B97DF(Automatically generated (new) B97DF)                        Gradient terms: 1
 Use grid at  1800.2


 Exact exchange will be calculated, factor:  0.1943

 Functional: B97DF                     Factor:  1.0000

 Generated new metagrid on record  1800.2 with target accuracy 1.0D-06 and 9144 points in CPU time    0.2
 Computed new grid on record 1800.1 in CPU time    0.2
   36405 words reserved for DFT integration

 PROGRAM * UKS-SCF (Unrestricted Kohn-Sham)     Authors: W. Meyer, H.-J. Werner, P.J. Knowles, 1993

 NUMBER OF ELECTRONS:       6+    5-    SPACE SYMMETRY=1    SPIN SYMMETRY: Doublet 
 CONVERGENCE THRESHOLDS:    1.00E-05 (Density)    1.00E-06 (Energy)
 MAX. NUMBER OF ITERATIONS:       60
 INTERPOLATION TYPE:            DIIS
 INTERPOLATION STEPS:              2 (START)      1 (STEP)
 LEVEL SHIFTS:                 -0.20 (ALPHA)  -0.20 (BETA) 



 Use fine grid record 1800.2 for energy threshold  1.0D-06
 Orbital guess generated from atomic densities. Full valence occupancy:    7

 Molecular orbital dump at record        2200.2

 Initial alpha occupation   6
 Initial beta  occupation   5

 ITERATION    DDIFF          GRAD             ENERGY        2-EL.EN.            DIPOLE MOMENTS         DIIS
    1      0.000D+00      0.000D+00      -100.86242745    111.443488   -0.00773   -1.28221    0.00000    0
    2      0.143D-01      0.477D-02      -100.87661895    108.239612   -0.00743   -0.75824   -0.00000    1
    3      0.609D-02      0.401D-02      -100.88302400    109.398516   -0.00637   -0.79390   -0.00000    2
    4      0.237D-02      0.845D-03      -100.88489762    109.341162   -0.00520   -0.68925   -0.00000    3
    5      0.182D-02      0.379D-03      -100.88554261    109.294495   -0.00482   -0.62374   -0.00000    4
    6      0.107D-02      0.170D-03      -100.88569217    109.240716   -0.00420   -0.58345   -0.00000    5
    7      0.388D-03      0.733D-04      -100.88571153    109.244857   -0.00390   -0.57294   -0.00000    6
    8      0.102D-03      0.259D-04      -100.88571545    109.243454   -0.00355   -0.57140   -0.00000    7
    9      0.106D-03      0.195D-04      -100.88571844    109.244020   -0.00321   -0.57110   -0.00000    6
   10      0.287D-03      0.164D-04      -100.88572417    109.242103   -0.00215   -0.57045   -0.00000    7
   11      0.212D-03      0.771D-05      -100.88572565    109.242019   -0.00136   -0.56991   -0.00000    8
   12      0.191D-04      0.922D-06      -100.88572566    109.241920   -0.00128   -0.56987    0.00000    8
   13      0.215D-05      0.225D-06      -100.88572566    109.241926   -0.00128   -0.56986   -0.00000    8
   14      0.209D-06      0.524D-07      -100.88572566    109.241914   -0.00127   -0.56986   -0.00000    8

 Final alpha occupancy:   6
 Final beta  occupancy:   5

 !UKS STATE 1.1 Energy               -100.885725657002
 Nuclear energy                         6.11540905
 One-electron energy                 -152.65466429
 Two-electron energy                   54.62095701
 Density functional                    -8.96742743     B97DF=-8.96742743
 Virial quotient                       -1.00568760
 !UKS STATE 1.1 Dipole moment          -0.00127435    -0.56985669    -0.00000000
 Dipole moment /Debye                  -0.00323886    -1.44833638    -0.00000000

 Orbital energies for positive spin:

         1.1          2.1          3.1          4.1          5.1          6.1          7.1          8.1
    -24.733219    -1.194867    -0.564842    -0.433246    -0.432512    -0.421705     0.017275     0.031753

 Orbital energies for negative spin:

         1.1          2.1          3.1          4.1          5.1          6.1          7.1          8.1
    -24.711621    -1.126507    -0.481045    -0.405468    -0.405466    -0.242875     0.030267     0.035592

 HOMO     -5.1    -0.405466 =     -11.0333eV
 LUMO     -6.1    -0.242875 =      -6.6090eV
 LUMO-HOMO         0.162592 =       4.4243eV

 EXPECTATION VALUE OF S**2:             0.75600320

 Occupation number threshold for canonical orbitals:  1.999000 (occupied),  0.001000 (virtual)

 Number of pseudo-canonical orbitals per symmetry:    4
 Number of active natural orbitals per symmetry:      3

 Natural orbitals saved to record    2200.2 (Orbital set 3)

 Orbital spaces for UNO-CAS (Min. occupation: 0.020  Max. occupation: 1.980):

 Closed:        5
 Active:        1


 **********************************************************************************************************************************
 DATASETS  * FILE   NREC   LENGTH (MB)   RECORD NAMES
              1      20       31.28       500      610      700      900      950      970     1000      129      960     1100   
                                          VAR    BASINP    GEOM    SYMINP    ZMAT    AOBASIS   BASIS     P2S    ABASIS      S 
                                         1400     1410     1200     1210     1080     1600     1650     1300     1700     1800   
                                           T        V       H0       H01     AOSYM     SMH    MOLCAS    ERIS     OPER     GRID   

              2       5        2.86       700     1000      520     1800     2200   
                                         GEOM     BASIS   MCVARS    GRID      UKS  

 PROGRAMS   *        TOTAL       UKS       INT
 CPU TIMES  *         1.80      1.39      0.27
 REAL TIME  *         2.16 SEC
 DISK USED  *        36.14 MB      
 **********************************************************************************************************************************


 PROGRAM * Intrinsic Basis Bonding Analysis (IBBA)          Author: G. Knizia

 Molecular orbitals read from record     2200.2  Type=UKS/ALPHA (state 1.1)
 Fock matrix read from record            2200.2  Type=UKS/TOTAL (state 1.1)
 Orbital energies read from record       2200.2  Type=UKS/ALPHA (state 1.1)
 Density matrix read from record         2200.2  Type=UKS/CHARGE (state 1.1)

 Number of core orbitals:           1 (   1 )
 Number of closed-shell orbitals:   4 (   4 )
 Number of active  orbitals:        1 (   1 )

 Basis set MINAO-AUTO-PP generated.      Number of basis functions:   7 

 Polarized AO type:                A = (O Ot + (1-O)(1-Ot)) P12
 Orthogonalization method:         Symmetric (Loewdin)
 Localization functional:          L = sum[A,i] <i|n_A|i>^4 -> max

 Localization group 1:   5 orbitals, occupancy  2.000
 Iterative localization: IB/PM,    4 iter; Final gradient 0.73E-10

 Bond order analysis:       [THRPRINT= 0.020]

   CEN ATOM   CEN ATOM     WIBERG.BO      RENORM.BO
     1   H  -   2   F       0.616311       1.000000
     1   H  -   3   H       0.174160       0.940057

     2   F  -   1   H       0.616311       1.000000
     2   F  -   3   H       0.392423       1.000000

     3   H  -   2   F       0.392423       1.000000
     3   H  -   1   H       0.174160       0.940057


 Valency analysis:

   CEN ATOM   TOT.VALENCE
     1   H       0.790471
     2   F       1.008735
     3   H       0.566584
 Localization group 2:   1 orbitals, occupancy  1.000
 Iterative localization: IB/PM,    1 iter; Final gradient 0.00E+00

 Bond order analysis:       [THRPRINT= 0.020]

   CEN ATOM   CEN ATOM     WIBERG.BO      RENORM.BO
     1   H  -   2   F       0.143629       0.500000
     1   H  -   3   H       0.137158       0.500000

     2   F  -   3   H       0.345154       0.500000
     2   F  -   1   H       0.143629       0.500000

     3   H  -   2   F       0.345154       0.500000
     3   H  -   1   H       0.137158       0.500000


 Valency analysis:

   CEN ATOM   TOT.VALENCE
     1   H       0.280788
     2   F       0.488783
     3   H       0.482312

 Total charge composition:

   CEN ATOM         s          p       ELECTRONS ->P.CHARGE
     1   H       0.71119                 0.71119    0.28881
     2   F       3.97503    5.56616      9.54120   -0.54120
     3   H       0.74761                 0.74761    0.25239

 Total charge composition, AO contributions:

   CEN ATOM SHL      SPHERICAL COMPONENTS
     1   H  1s       0.71119

     2   F  1s       1.99986
     2   F  2s       1.97517
     2   F  2p       1.96859    1.59758    2.00000

     3   H  1s       0.74761

 Active orbital charges:

   CEN ATOM         s          p       ELECTRONS ->SPIN.DEN
     1   H       0.16893                 0.16893    0.16893
     2   F       0.00501    0.42010      0.42511    0.42511
     3   H       0.40596                 0.40596    0.40596

 Active orbital charges, AO contributions:

   CEN ATOM SHL      SPHERICAL COMPONENTS
     1   H  1s       0.16893

     2   F  1s       0.00003
     2   F  2s       0.00498
     2   F  2p       0.03036    0.38974    0.00000

     3   H  1s       0.40596

 Summary of localized orbital composition:   [THRPRINT= 0.020]

   ORB  GRP  ORB.ENERGY      CENTERS/CHARGES
     1   1   -24.584054      F  2   2.000
     2   1    -1.261618      F  2   1.987
     3   1    -0.540917      F  2   1.129   H  1   0.537   H  3   0.334
     4   1    -0.418844      F  2   2.000
     5   1    -0.417169      F  2   2.000
     6   2    -0.347650      F  2   0.425   H  3   0.406   H  1   0.169

 Localized orbitals saved to record      2200.2  (orbital set 4)


 **********************************************************************************************************************************
 DATASETS  * FILE   NREC   LENGTH (MB)   RECORD NAMES
              1      20       31.28       500      610      700      900      950      970     1000      129      960     1100   
                                          VAR    BASINP    GEOM    SYMINP    ZMAT    AOBASIS   BASIS     P2S    ABASIS      S 
                                         1400     1410     1200     1210     1080     1600     1650     1300     1700     1800   
                                           T        V       H0       H01     AOSYM     SMH    MOLCAS    ERIS     OPER     GRID   

              2       5        2.87       700     1000      520     1800     2200   
                                         GEOM     BASIS   MCVARS    GRID      UKS  

 PROGRAMS   *        TOTAL      IBBA       UKS       INT
 CPU TIMES  *         1.83      0.02      1.39      0.27
 REAL TIME  *         2.21 SEC
 DISK USED  *        36.14 MB      
 **********************************************************************************************************************************
 Molecular orbitals read from record     2200.2  Type=UKS/LOCAL(IBO)  
 Occupation numbers read from record     2200.2  Type=UKS/LOCAL(IBO)  
 Orbital energies read from record       2200.2  Type=UKS/LOCAL(IBO)  
 Redundancy group numbers read from rec  2200.2  Type=UKS/BETA (state 1.1)

 IBBA/aug-cc-pVDZ energy=      0.000000000000

        UKS-SCF 
   -100.88572566
 **********************************************************************************************************************************
 Molpro calculation terminated
