
 Primary working directories    : /scratch/12445124
 Secondary working directories  : /scratch/12445124
 Wavefunction directory         : /groups/kemi/lab/nonconverged/htbh38/
 Main file repository           : /groups/kemi/lab/nonconverged/htbh38/

 SHA1      : 2c68d29c09da70e1723824271fadde4bcd5f07a0
 ARCHNAME  : Linux/x86_64
 FC        : /users/software/kemi/intel/Compiler/composer_xe_2011_sp1.13.367/bin/intel64/ifort
 FCVERSION : 12.1.6
 BLASLIB   : -L/users/software/kemi/intel/Compiler/composer_xe_2011_sp1.13.367/mkl/lib/intel64 -lmkl_intel_ilp64 -lmkl_sequential -lmkl_core /software/kemi/intel/Compiler/composer_xe_2011_sp1.13.367/compiler/lib/intel64/libimf.a /software/kemi/intel/Compiler/composer_xe_2011_sp1.13.367/compiler/lib/intel64/libirc.a
 id        : kiku

 Nodes          nprocs
 node319.cluster   11
 Number of processes for MPI-2 version of Molpro:   nprocs(total)=   12   nprocs(compute)=   11   nprocs(helper)=    1
 ga_uses_ma=false, calling ma_init with nominal heap.
 GA-space will be limited to   8.0 MW (determined by -G option)

 Using customized tuning parameters: mindgm=20; mindgv=24; mindgc=8; mindgr=1; noblas=0; minvec=7
 default implementation of scratch files=sf  

 memory,500,m
 geomtyp=xyz
 nosym
 noorient
 geometry={
 H          0.14657       -1.12839        0.00000
 F          0.00000        0.33042        0.00000
 H         -0.14657       -1.84541        0.00000
 }
 basis={ default,sto-3g }
 {hf,direct;wf,11,1,1}
 basis={ default,sto-3g }
 {ks,B3LYP5,direct;disp;wf,11,1,1;shift,-1.0,-0.5}
 

 Variables initialized (766), CPU time= 0.01 sec
 Commands  initialized (545), CPU time= 0.01 sec, 513 directives.
 Default parameters read. Elapsed time= 0.08 sec

 Checking input...
 Passed
1


                                         ***  PROGRAM SYSTEM MOLPRO  ***
                         Copyright, University College Cardiff Consultants Limited, 2008

                                    Version 2012.1 linked 21 Jun 2017 17:33:37


 **********************************************************************************************************************************
 LABEL *                                                                                 
 Linux-2.6.32-754.6.3.el6.x86_64/node319.cluster(x86_64) 64 bit mpp version              DATE: 08-Mar-19          TIME: 14:52:11  
 **********************************************************************************************************************************

 SHA1:             2c68d29c09da70e1723824271fadde4bcd5f07a0
 **********************************************************************************************************************************
 SETTING GEOMTYP        =    XYZ

 Variable memory set to  500000000 words,  buffer space   230000 words

 ZSYMEL=NOSYM
 
 SETTING BASIS          =    STO-3G


 Recomputing integrals since basis changed


 Using spherical harmonics

 Library entry H      S STO-3G               selected for orbital group  1
 Library entry F      S STO-3G               selected for orbital group  2
 Library entry F      P STO-3G               selected for orbital group  2

1PROGRAM * SEWARD (Integral evaluation for generally contracted gaussian basis sets)     Author: Roland Lindh, 1990

 Geometry written to block  1 of record 700


 Point group  C1  



 ATOMIC COORDINATES

 NR  ATOM    CHARGE       X              Y              Z

   1  H       1.00    0.276977159   -2.132348069    0.000000000
   2  F       9.00    0.000000000    0.624403308    0.000000000
   3  H       1.00   -0.276977159   -3.487319500    0.000000000

 Bond lengths in Bohr (Angstrom)

 1-3  1.463835020
     ( 0.774628130)

 NUCLEAR CHARGE:                   11
 NUMBER OF PRIMITIVE AOS:          21
 NUMBER OF SYMMETRY AOS:           21
 NUMBER OF CONTRACTIONS:            7   (   7A   )
 NUMBER OF CORE ORBITALS:           1   (   1A   )
 NUMBER OF VALENCE ORBITALS:        6   (   6A   )


 NUCLEAR REPULSION ENERGY    6.11540903

 EXTRA SYMMETRY OF AOS IN SYMMETRY 1:   1 1 1 1 1 2 1

 Eigenvalues of metric

         1 0.336E+00 0.760E+00 0.980E+00 0.100E+01 0.100E+01 0.122E+01 0.171E+01


 Contracted 2-electron integrals neglected if value below      1.0D-11
 AO integral compression algorithm  1   Integral accuracy      1.0D-11

     2.884 MB (compressed) written to integral file (100.0%)

     Node minimum: 0.262 MB, node maximum: 0.262 MB


 NUMBER OF SORTED TWO-ELECTRON INTEGRALS:         33.     BUFFER LENGTH:  32768
 NUMBER OF SEGMENTS:   1  SEGMENT LENGTH:         33      RECORD LENGTH: 524288

 Memory used in sort:       0.56 MW

 SORT1 READ         585. AND WROTE          28. INTEGRALS IN      1 RECORDS. CPU TIME:     0.01 SEC, REAL TIME:     0.03 SEC
 SORT2 READ         231. AND WROTE         406. INTEGRALS IN     11 RECORDS. CPU TIME:     0.00 SEC, REAL TIME:     0.01 SEC

 Node minimum:          25.  Node maximum:          51. integrals

 OPERATOR DM      FOR CENTER  0  COORDINATES:    0.000000    0.000000    0.000000


 **********************************************************************************************************************************
 DATASETS  * FILE   NREC   LENGTH (MB)   RECORD NAMES
              1      18       12.78       500      610      700      900      950      970     1000      129      960     1100   
                                          VAR    BASINP    GEOM    SYMINP    ZMAT    AOBASIS   BASIS     P2S    ABASIS      S 
                                         1400     1410     1200     1210     1080     1600     1650     1700   
                                           T        V       H0       H01     AOSYM     SMH    MOLCAS    OPER   

 PROGRAMS   *        TOTAL       INT
 CPU TIMES  *         0.15      0.05
 REAL TIME  *        33.70 SEC
 DISK USED  *        46.15 MB      
 GA USED    *         0.00 MB       (max)       0.00 MB       (current)
 **********************************************************************************************************************************

1PROGRAM * RHF-SCF (OPEN SHELL)       Authors: W. Meyer, H.-J. Werner


 NUMBER OF ELECTRONS:       6+    5-    SPACE SYMMETRY=1    SPIN SYMMETRY: Doublet 
 CONVERGENCE THRESHOLDS:    1.00E-05 (Density)    1.00E-07 (Energy)
 INTEGRAL THRESHOLDS:       1.00E-11 (Initial)    1.00E-11 (Final)
 MAX. NUMBER OF ITERATIONS:       60
 INTERPOLATION TYPE:            DIIS
 INTERPOLATION STEPS:              2 (START)      1 (STEP)
 LEVEL SHIFTS:                 -0.30 (CLOSED)  0.00 (OPEN) 



 Orbital guess generated from atomic densities. Full valence occupancy:    6

 Molecular orbital dump at record        2100.2

 Direct Fock-matrix evaluation.        Author: H.-J. Werner (1996)

 Integral Threshold:                  0.1D-10

 ITERATION   DDIFF            GRAD            ENERGY        2-EL.EN.            DIPOLE MOMENTS         DIIS   CPU(IT)  CPU(TOT)
    1      0.000D+00      0.000D+00       -98.87779302     98.337292   -0.01470   -1.69832    0.00000    0      1.7      2.4     start
    2      0.000D+00      0.468D-01       -99.01941386     94.562186    0.01594   -0.46748    0.00000    1      0.7      3.1     diag,B
    3      0.811D-01      0.234D-01       -99.06087727     93.656329    0.00047   -0.16376    0.00000    2      0.7      3.9     diag,B
    4      0.331D-01      0.148D-01       -99.07978097     93.258549   -0.00491   -0.00010    0.00000    3      0.6      4.5     diag,B
    5      0.383D-01      0.395D-02       -99.08003091     93.162113    0.01173    0.05265    0.00000    4      0.6      5.1     diag,B
    6      0.946D-02      0.182D-02       -99.08025427     93.138895    0.01255    0.06825    0.00000    5      0.7      5.8     diag,B
    7      0.449D-02      0.426D-03       -99.08027372     93.142416    0.01205    0.06740    0.00000    6      0.7      6.6     fixocc
    8      0.988D-03      0.350D-03       -99.08028115     93.140163    0.01243    0.06874    0.00000    7      0.9      7.5     diag,B
    9      0.364D-03      0.327D-03       -99.08043817     93.132168    0.01330    0.07251    0.00000    8      0.7      8.2     diag,B
     Orbital  3.1 strongly deviates from fixed occupation: 1.87899  (now: 2.00)
     Orbital  6.1 strongly deviates from fixed occupation: 1.13445  (now: 1.00)
   10      0.753D-02      0.460D-03       -99.08125507     92.963089    0.02338    0.14148    0.00000    9      0.6      8.8     orth
   11      0.751D-01      0.143D-02       -99.08127806     92.970019    0.02303    0.13811    0.00000    9      0.6      9.4     diag,B
   12      0.335D-02      0.127D-02       -99.08129906     92.943070    0.02376    0.14744    0.00000    9      0.7     10.2     diag,B
   13      0.823D-02      0.160D-02       -99.08104236     92.925281    0.02262    0.15414    0.00000    9      1.0     11.1     diag,B
   14      0.400D-02      0.269D-02       -99.08130858     93.031158    0.02373    0.11652    0.00000    9      0.7     11.9     diag,B
   15      0.916D-02      0.114D-02       -99.08140109     92.964012    0.02521    0.14277    0.00000    9      0.7     12.6     diag,B
   16      0.133D-01      0.176D-03       -99.08140285     92.969182    0.02525    0.14094    0.00000    9      0.6     13.2     diag,B
   17      0.469D-03      0.323D-04       -99.08140290     92.967925    0.02527    0.14141    0.00000    9      0.7     14.0     diag,B
   18      0.155D-03      0.158D-05       -99.08140290     92.968039    0.02526    0.14137    0.00000    9      0.7     14.7     diag,B
   19      0.227D-04      0.884D-06       -99.08140290     92.968008    0.02526    0.14138    0.00000    9      0.7     15.4     diag,B
   20      0.317D-05      0.360D-07       -99.08140290     92.968010    0.02526    0.14138    0.00000    0      1.0     16.4     orth

 Final alpha occupancy:   6
 Final beta  occupancy:   5

 !RHF STATE 1.1 Energy                -99.081402904787
 Nuclear energy                         6.11540903
 One-electron energy                 -151.68081718
 Two-electron energy                   46.48400525
 Virial quotient                       -1.00867008
 !RHF STATE 1.1 Dipole moment           0.02526471     0.14138055     0.00000000
 Dipole moment /Debye                   0.06421228     0.35932999     0.00000000

 Orbital energies:

         1.1          2.1          3.1          4.1          5.1          6.1          7.1
    -25.993686    -1.447367    -0.599537    -0.518176    -0.486345    -0.622587     0.709339

 HOMO      6.1    -0.622587 =     -16.9415eV
 LUMO      7.1     0.709339 =      19.3021eV
 LUMO-HOMO         1.331926 =      36.2436eV


 **********************************************************************************************************************************
 DATASETS  * FILE   NREC   LENGTH (MB)   RECORD NAMES
              1      18       12.78       500      610      700      900      950      970     1000      129      960     1100   
                                          VAR    BASINP    GEOM    SYMINP    ZMAT    AOBASIS   BASIS     P2S    ABASIS      S 
                                         1400     1410     1200     1210     1080     1600     1650     1700   
                                           T        V       H0       H01     AOSYM     SMH    MOLCAS    OPER   

              2       4        0.32       700     1000      520     2100   
                                         GEOM     BASIS   MCVARS     RHF  

 PROGRAMS   *        TOTAL        HF       INT
 CPU TIMES  *        16.54     16.39      0.05
 REAL TIME  *        50.90 SEC
 DISK USED  *       190.78 MB      
 SF USED    *         0.00 MB      
 GA USED    *         0.00 MB       (max)       0.00 MB       (current)
 **********************************************************************************************************************************
 SETTING BASIS          =    STO-3G

 Density functional group B3LYP5=B88+DIRAC+LYP+VWN5
 Functional: B88(Automatically generated (new) B88)                            Gradient terms: 1
 Functional: DIRAC(Automatically generated (new) DIRAC)                        Gradient terms: 0
 Functional: LYP(Automatically generated (new) LYP)                            Gradient terms: 1
 Functional: VWN5(Automatically generated (new) VWN5)                          Gradient terms: 0

 dispersion correction activated
 Density functional: B3LYP5  
 functional not in list, set to default 
 

 Exact exchange will be calculated, factor:  0.2000

 Functional: B88                       Factor:  0.7200
 Functional: DIRAC                     Factor:  0.0800
 Functional: LYP                       Factor:  0.8100
 Functional: VWN5                      Factor:  0.1900
 
 Use grid at  1800.2
 

 Exact exchange will be calculated, factor:  0.2000

 Functional: B88                       Factor:  0.7200
 Functional: DIRAC                     Factor:  0.0800
 Functional: LYP                       Factor:  0.8100
 Functional: VWN5                      Factor:  0.1900
 
 Generated new metagrid on record  1800.2 with target accuracy 1.0D-06 and 9790 points in CPU time    0.0
 Computed new grid on record 1800.1 in CPU time    0.0
    9421 words reserved for DFT integration

 PROGRAM * RKS-SCF (Restricted open shell Kohn-Sham)     Authors: W. Meyer, H.-J. Werner, P.J. Knowles, 1993

 NUMBER OF ELECTRONS:       6+    5-    SPACE SYMMETRY=1    SPIN SYMMETRY: Doublet 
 CONVERGENCE THRESHOLDS:    1.00E-05 (Density)    1.00E-06 (Energy)
 MAX. NUMBER OF ITERATIONS:       60
 INTERPOLATION TYPE:            DIIS
 INTERPOLATION STEPS:              2 (START)      1 (STEP)
 LEVEL SHIFTS:                 -1.00 (CLOSED) -0.50 (OPEN) 



 Use fine grid record 1800.2 for energy threshold  1.0D-06
 Molecular orbitals read from record     2100.2  Type=RHF/CANONICAL (state 1.1)

 Molecular orbital dump at record        2101.2

 ITERATION    DDIFF          GRAD             ENERGY        2-EL.EN.            DIPOLE MOMENTS         DIIS   ORB.
    1      0.000D+00      0.000D+00       -99.38605153    110.441720    0.02526    0.14138    0.00000    0    start
    2      0.000D+00      0.956D-02       -99.38942102    110.429245    0.02506    0.13000    0.00000    1    diag,B
    3      0.115D-01      0.539D-02       -99.39133725    110.467360    0.02430    0.09994    0.00000    2    diag,B
    4      0.132D-01      0.150D-02       -99.39150295    110.499219    0.02399    0.08451    0.00000    3    diag,B
    5      0.441D-02      0.411D-03       -99.39150906    110.506547    0.02407    0.08164    0.00000    4    diag,B
    6      0.120D-02      0.660D-04       -99.39150953    110.503055    0.02412    0.08300    0.00000    5    diag,B
    7      0.176D-03      0.311D-04       -99.39150972    110.501980    0.02412    0.08336    0.00000    6    diag,B
    8      0.126D-03      0.268D-04       -99.39151063    110.499973    0.02417    0.08413    0.00000    7    orth
    9      0.699D-03      0.248D-04       -99.39151169    110.494823    0.02435    0.08605    0.00000    8    diag,B
   10      0.119D-02      0.125D-04       -99.39151210    110.489748    0.02450    0.08795    0.00000    9    diag,B
   11      0.133D-02      0.266D-05       -99.39151210    110.489869    0.02449    0.08791    0.00000    9    diag,B
   12      0.114D-04      0.907D-06       -99.39151210    110.489804    0.02450    0.08793    0.00000    9    diag,B
   13      0.743D-05      0.299D-08       -99.39151210    110.489804    0.02450    0.08793    0.00000    0    orth

 Dispersion correction
 - - - - - - - - - - - 
  _________________________________
                                   
 |         DFTD3 V1.3 Rev 1        |
 | S.Grimme, University Muenster   |
 | Fri Jul  2 12:48:21 CEST 2010   |
  _________________________________
 
 Please cite DFT-D3 work done with this code as:
 S. Grimme, J. Antony, S. Ehrlich and H. Krieg,
 J. Chem. Phys, 132 (2010), 154104.
 For DFT-D2 the reference is
 S. Grimme, J. Comput. Chem., 27 (2006), 1787-1799
 
 C6 coefficients used:
                     2  C6 for element                      1
 Z=  1 CN=   0.912     C6(AA)=    3.03
 Z=  1 CN=   0.000     C6(AA)=    7.59
                     2  C6 for element                      9
 Z=  9 CN=   0.000     C6(AA)=    9.69
 Z=  9 CN=   0.998     C6(AA)=    7.13

 #           XYZ [au]               R0(AA) [Ang.]   CN       C6(AA)     C8(AA)   C10(AA) [au]
  1   0.27698  -2.13235   0.00000   h   1.091  0.952         3.1        37.7       558.0
  2   0.00000   0.62440   0.00000   f   1.150  0.117         9.6       163.6      3430.3
  3  -0.27698  -3.48732   0.00000   h   1.091  0.837         3.2        39.1       578.3

 molecular C6(AA) [au] =        43.18

           DFT-D V3
 DF pbe                                               
 parameters
 s6       :    1.0000
 s8       :    0.7220
 rs6      :    1.2170
 alpha6   :   14.0000
 alpha8   :   16.0000
 k1-k3    :   16.0000    1.3333   -4.0000
 
 Edisp /kcal,au:    -0.1406 -0.00022399

 E6    /kcal :    -0.0158
 E8    /kcal :    -0.1248
 % E8        : 88.77
 normal termination of dftd3

 RKS STATE 1.1 ENERGY+DISP      -99.39173609

 Final alpha occupancy:   6
 Final beta  occupancy:   5

 !RKS STATE 1.1 Energy                -99.391736089303
 Nuclear energy                         6.11540903
 One-electron energy                 -151.71668878
 Two-electron energy                   55.24490179
 Density functional                    -9.03513414     B88=-10.84761882 DIRAC= -9.79392717 LYP= -0.36879550 VWN5= -0.75057929
 Virial quotient                       -1.01231975
 !RKS STATE 1.1 Dipole moment           0.02449606     0.08792802     0.00000000
 Dipole moment /Debye                   0.06225871     0.22347609     0.00000000

 Orbital energies:

         1.1          2.1          3.1          4.1          5.1          6.1          7.1
    -24.381338    -1.028830    -0.419167    -0.218605    -0.215355    -0.306332     0.467764

 HOMO      6.1    -0.306332 =      -8.3357eV
 LUMO      7.1     0.467764 =      12.7285eV
 LUMO-HOMO         0.774096 =      21.0642eV


 **********************************************************************************************************************************
 DATASETS  * FILE   NREC   LENGTH (MB)   RECORD NAMES
              1      19       12.78       500      610      700      900      950      970     1000      129      960     1100   
                                          VAR    BASINP    GEOM    SYMINP    ZMAT    AOBASIS   BASIS     P2S    ABASIS      S 
                                         1400     1410     1200     1210     1080     1600     1650     1700     1800   
                                           T        V       H0       H01     AOSYM     SMH    MOLCAS    OPER     GRID   

              2       6        0.36       700     1000      520     2100     1800     2101   
                                         GEOM     BASIS   MCVARS     RHF     GRID      RKS  

 PROGRAMS   *        TOTAL        KS        HF       INT
 CPU TIMES  *        16.63      0.09     16.39      0.05
 REAL TIME  *        51.44 SEC
 DISK USED  *       191.25 MB      
 SF USED    *         0.00 MB      
 GA USED    *         0.31 MB       (max)       0.31 MB       (current)
 **********************************************************************************************************************************

        KS-SCF          HF-SCF  
    -99.39173609    -99.08140290
 **********************************************************************************************************************************
 Variable memory released
