
 Primary working directories    : /local
 Secondary working directories  : /local
 Wavefunction directory         : /local/
 Main file repository           : /local/

 SHA1      : b4a5b34a9e711420743f49e6833241d17c61fb3c
 NAME      : 2099.9.b4a5b34
 ARCHNAME  : linux/x86_64_openmp
 FC        : /cm/shared/languages/GCC-6.1/bin/gfortran
 BLASLIB   : -lblas
 id        : simonbennie

 Nodes     nprocs
 node45-001    1

 Using customized tuning parameters: mindgm=1; mindgv=20; mindgc=4; mindgr=1; noblas=0; minvec=7
 default implementation of scratch files=df  

 memory,500,m
 geomtyp=xyz
 nosym
 noorient
 geometry={
 H          0.14657       -1.12839        0.00000
 F          0.00000        0.33042        0.00000
 H         -0.14657       -1.84541        0.00000
 }
 basis={ default,svp }
 {ks,MM05,direct;wf,11,1,1}
 {ibba,bonds=1}

 Variables initialized (895), CPU time= 0.01 sec
 Commands  initialized (725), CPU time= 0.01 sec, 591 directives.
 Default parameters read. Elapsed time= 0.19 sec

 Checking input...
 Passed
1


                                         ***  PROGRAM SYSTEM MOLPRO  ***
                                       Copyright, TTI GmbH Stuttgart, 2015
                                    Version 2099.9 linked May 26 2017 16:03:21


 **********************************************************************************************************************************
 LABEL *                                                                                 
  64 bit serial version                                                                  DATE: 19-Jun-17          TIME: 11:20:53  
 **********************************************************************************************************************************

 SHA1:             b4a5b34a9e711420743f49e6833241d17c61fb3c
 **********************************************************************************************************************************
 SETTING GEOMTYP        =    XYZ

 Variable memory set to  500000000 words,  buffer space 

 ZSYMEL=NOSYM

 SETTING BASIS          =    SVP


 Recomputing integrals since basis changed


 Using spherical harmonics

 Library entry H      S def2-SVP             selected for orbital group  1
 Library entry H      P def2-SVP             selected for orbital group  1
 Library entry F      S def2-SVP             selected for orbital group  2
 Library entry F      P def2-SVP             selected for orbital group  2
 Library entry F      D def2-SVP             selected for orbital group  2


 PROGRAM * SEWARD (Integral evaluation for generally contracted gaussian basis sets)     Author: Roland Lindh, 1990

 Geometry written to block  1 of record 700


 Point group  C1  



 ATOMIC COORDINATES

 NR  ATOM    CHARGE       X              Y              Z

   1  H       1.00    0.276977158   -2.132348062    0.000000000
   2  F       9.00    0.000000000    0.624403306    0.000000000
   3  H       1.00   -0.276977158   -3.487319488    0.000000000

 Bond lengths in Bohr (Angstrom)

 1-3  1.463835014
     ( 0.774628130)

 NUCLEAR CHARGE:                   11
 NUMBER OF PRIMITIVE AOS:          39
 NUMBER OF SYMMETRY AOS:           38
 NUMBER OF CONTRACTIONS:           24   (  24A   )
 NUMBER OF CORE ORBITALS:           1   (   1A   )
 NUMBER OF VALENCE ORBITALS:        6   (   6A   )


 NUCLEAR REPULSION ENERGY    6.11540905

 EXTRA SYMMETRY OF AOS IN SYMMETRY 1:   1 1 1 1 2 1 1 1 1 1   2 1 1 2 1 1 2 1 2 1   1 1 1 2

 Eigenvalues of metric

         1 0.427E-01 0.619E-01 0.160E+00 0.326E+00 0.381E+00 0.478E+00 0.489E+00 0.591E+00


 Contracted 2-electron integrals neglected if value below      1.0D-11
 AO integral compression algorithm  1   Integral accuracy      1.0D-11

     0.262 MB (compressed) written to integral file ( 66.5%)


 NUMBER OF SORTED TWO-ELECTRON INTEGRALS:      45150.     BUFFER LENGTH:  32768
 NUMBER OF SEGMENTS:   1  SEGMENT LENGTH:      45150      RECORD LENGTH: 524288

 Memory used in sort:       0.60 MW

 SORT1 READ       62044. AND WROTE       21995. INTEGRALS IN      1 RECORDS. CPU TIME:     0.00 SEC, REAL TIME:     0.00 SEC
 SORT2 READ       21995. AND WROTE       45150. INTEGRALS IN      1 RECORDS. CPU TIME:     0.01 SEC, REAL TIME:     0.01 SEC

 FILE SIZES:   FILE 1:    30.3 MBYTE,  FILE 4:     4.2 MBYTE,   TOTAL:     34.5 MBYTE

 OPERATOR DM      FOR CENTER  0  COORDINATES:    0.000000    0.000000    0.000000


 **********************************************************************************************************************************
 DATASETS  * FILE   NREC   LENGTH (MB)   RECORD NAMES
              1      19       30.12       500      610      700      900      950      970     1000      129      960     1100   
                                          VAR    BASINP    GEOM    SYMINP    ZMAT    AOBASIS   BASIS     P2S    ABASIS      S 
                                         1400     1410     1200     1210     1080     1600     1650     1300     1700   
                                           T        V       H0       H01     AOSYM     SMH    MOLCAS    ERIS     OPER   

 PROGRAMS   *        TOTAL       INT
 CPU TIMES  *         0.38      0.24
 REAL TIME  *         1.59 SEC
 DISK USED  *        34.78 MB      
 **********************************************************************************************************************************

 Density functional group MM05=M05X+M05C
 Functional: M05X(Automatically generated (new) M05X)                          Gradient terms: 2
 Functional: M05C(Automatically generated (new) M05C)                          Gradient terms: 2
 Use grid at  1800.2


 Exact exchange will be calculated, factor:  0.2800

 Functional: M05X                      Factor:  0.7200
 Functional: M05C                      Factor:  1.0000

 Generated new metagrid on record  1800.2 with target accuracy 1.0D-06 and 9144 points in CPU time    0.2
 Computed new grid on record 1800.1 in CPU time    0.2
   41143 words reserved for DFT integration

 PROGRAM * RKS-SCF (Restricted open shell Kohn-Sham)     Authors: W. Meyer, H.-J. Werner, P.J. Knowles, 1993

 NUMBER OF ELECTRONS:       6+    5-    SPACE SYMMETRY=1    SPIN SYMMETRY: Doublet 
 CONVERGENCE THRESHOLDS:    1.00E-05 (Density)    1.00E-06 (Energy)
 MAX. NUMBER OF ITERATIONS:       60
 INTERPOLATION TYPE:            DIIS
 INTERPOLATION STEPS:              2 (START)      1 (STEP)
 LEVEL SHIFTS:                 -0.60 (CLOSED) -0.30 (OPEN) 



 Use fine grid record 1800.2 for energy threshold  1.0D-06
 Orbital guess generated from atomic densities. Full valence occupancy:    6

 Molecular orbital dump at record        2100.2

 Initial alpha occupancy:   6
 Initial beta  occupancy:   5
 Wave function symmetry:    1

 ITERATION    DDIFF          GRAD             ENERGY        2-EL.EN.            DIPOLE MOMENTS         DIIS   ORB.
    1      0.000D+00      0.000D+00      -100.71138204    112.050468   -0.00160   -1.70474    0.00000    0    start
    2      0.000D+00      0.188D-01      -100.74826892    105.729033    0.01393   -0.53777    0.00000    1    diag,B
    3      0.223D-01      0.179D-01      -100.77207035    107.841695    0.00969   -0.69627   -0.00000    2    diag,B
    4      0.928D-02      0.371D-02      -100.77595991    107.910138    0.01028   -0.57720   -0.00000    3    diag,B
    5      0.299D-02      0.163D-02      -100.77793400    107.838500    0.00924   -0.45456    0.00000    4    diag,B
    6      0.312D-02      0.476D-03      -100.77816015    107.785249    0.00926   -0.41712    0.00000    5    diag,B
    7      0.123D-02      0.182D-03      -100.77818895    107.782143    0.00967   -0.40698   -0.00000    6    fixocc
    8      0.513D-03      0.569D-04      -100.77819505    107.780406    0.00999   -0.40577   -0.00000    7    diag,B
    9      0.141D-03      0.445D-04      -100.77820184    107.780254    0.01034   -0.40551    0.00000    8    diag,B
   10      0.171D-03      0.354D-04      -100.77821237    107.777620    0.01107   -0.40398    0.00000    9    orth
   11      0.479D-03      0.119D-04      -100.77821303    107.778069    0.01121   -0.40393   -0.00000    9    diag,B
   12      0.146D-03      0.245D-05      -100.77821304    107.777974    0.01120   -0.40397   -0.00000    9    diag,B
   13      0.132D-04      0.108D-05      -100.77821304    107.777977    0.01120   -0.40391    0.00000    9    diag,B
   14      0.392D-05      0.255D-06      -100.77821304    107.777960    0.01120   -0.40391    0.00000    0    orth

 Final alpha occupancy:   6
 Final beta  occupancy:   5

 !RKS STATE 1.1 Energy               -100.778213036969
 Nuclear energy                         6.11540905
 One-electron energy                 -152.70436913
 Two-electron energy                   53.88897996
 Density functional                    -8.07823292     M05X=-10.73121496 M05C= -0.35175815
 Virial quotient                       -1.00435552
 !RKS STATE 1.1 Dipole moment           0.01119785    -0.40391392     0.00000000
 Dipole moment /Debye                   0.02846024    -1.02657954     0.00000000

 Orbital energies:

         1.1          2.1          3.1          4.1          5.1          6.1          7.1          8.1
    -24.768271    -1.147591    -0.503739    -0.428662    -0.428330    -0.454991     0.119746     0.337716

 HOMO      6.1    -0.454991 =     -12.3809eV
 LUMO      7.1     0.119746 =       3.2585eV
 LUMO-HOMO         0.574737 =      15.6394eV


 **********************************************************************************************************************************
 DATASETS  * FILE   NREC   LENGTH (MB)   RECORD NAMES
              1      20       30.41       500      610      700      900      950      970     1000      129      960     1100   
                                          VAR    BASINP    GEOM    SYMINP    ZMAT    AOBASIS   BASIS     P2S    ABASIS      S 
                                         1400     1410     1200     1210     1080     1600     1650     1300     1700     1800   
                                           T        V       H0       H01     AOSYM     SMH    MOLCAS    ERIS     OPER     GRID   

              2       5        2.80       700     1000      520     1800     2100   
                                         GEOM     BASIS   MCVARS    GRID      RKS  

 PROGRAMS   *        TOTAL        KS       INT
 CPU TIMES  *         2.34      1.96      0.24
 REAL TIME  *         3.76 SEC
 DISK USED  *        34.78 MB      
 **********************************************************************************************************************************


 PROGRAM * Intrinsic Basis Bonding Analysis (IBBA)          Author: G. Knizia

 Molecular orbitals read from record     2100.2  Type=RKS/CANONICAL (state 1.1)
 Fock matrix read from record            2100.2  Type=RKS/TOTAL (state 1.1)
 Orbital energies read from record       2100.2  Type=RKS/CANONICAL (state 1.1)
 Density matrix read from record         2100.2  Type=RKS/CHARGE (state 1.1)

 Number of core orbitals:           1 (   1 )
 Number of closed-shell orbitals:   4 (   4 )
 Number of active  orbitals:        1 (   1 )

 Basis set MINAO-AUTO-PP generated.      Number of basis functions:   7 

 Polarized AO type:                A = (O Ot + (1-O)(1-Ot)) P12
 Orthogonalization method:         Symmetric (Loewdin)
 Localization functional:          L = sum[A,i] <i|n_A|i>^4 -> max

 Localization group 1:   5 orbitals, occupancy  2.000
 Iterative localization: IB/PM,    5 iter; Final gradient 0.65E-12

 Bond order analysis:       [THRPRINT= 0.020]

   CEN ATOM   CEN ATOM     WIBERG.BO      RENORM.BO
     1   H  -   3   H       0.655530       0.948601
     1   H  -   2   F       0.331131       1.000000

     2   F  -   1   H       0.331131       1.000000
     2   F  -   3   H       0.296633       1.000000

     3   H  -   1   H       0.655530       0.948601
     3   H  -   2   F       0.296633       1.000000


 Valency analysis:

   CEN ATOM   TOT.VALENCE
     1   H       0.986661
     2   F       0.627765
     3   H       0.952163
 Localization group 2:   1 orbitals, occupancy  1.000
 Iterative localization: IB/PM,    1 iter; Final gradient 0.00E+00

 Bond order analysis:       [THRPRINT= 0.020]

   CEN ATOM   CEN ATOM     WIBERG.BO      RENORM.BO
     1   H  -   2   F       0.054407       0.500000

     2   F  -   3   H       0.257794       0.500000
     2   F  -   1   H       0.054407       0.500000

     3   H  -   2   F       0.257794       0.500000


 Valency analysis:

   CEN ATOM   TOT.VALENCE
     1   H       0.065191
     2   F       0.312201
     3   H       0.268577

 Total charge composition:

   CEN ATOM         s          p       ELECTRONS ->P.CHARGE
     1   H       0.91824                 0.91824    0.08176
     2   F       3.97741    5.16323      9.14064   -0.14064
     3   H       0.94112                 0.94112    0.05888

 Total charge composition, AO contributions:

   CEN ATOM SHL      SPHERICAL COMPONENTS
     1   H  1s       0.91824

     2   F  1s       1.99988
     2   F  2s       1.97752
     2   F  2p       1.99626    1.16697    2.00000

     3   H  1s       0.94112

 Active orbital charges:

   CEN ATOM         s          p       ELECTRONS ->SPIN.DEN
     1   H       0.03373                 0.03373    0.03373
     2   F       0.00134    0.80509      0.80643    0.80643
     3   H       0.15984                 0.15984    0.15984

 Active orbital charges, AO contributions:

   CEN ATOM SHL      SPHERICAL COMPONENTS
     1   H  1s       0.03373

     2   F  1s       0.00001
     2   F  2s       0.00133
     2   F  2p       0.00092    0.80417    0.00000

     3   H  1s       0.15984

 Summary of localized orbital composition:   [THRPRINT= 0.020]

   ORB  GRP  ORB.ENERGY      CENTERS/CHARGES
     1   1   -24.656311      F  2   2.000
     2   1    -1.121342      F  2   1.978   (other: 0.022)
     3   1    -0.547172      F  2   2.000
     4   1    -0.523441      H  1   0.875   H  3   0.770   F  2   0.356
     5   1    -0.428330      F  2   2.000
     6   2    -0.323847      F  2   0.806   H  3   0.160   H  1   0.034

 Localized orbitals saved to record      2100.2  (orbital set 2)


 **********************************************************************************************************************************
 DATASETS  * FILE   NREC   LENGTH (MB)   RECORD NAMES
              1      20       30.41       500      610      700      900      950      970     1000      129      960     1100   
                                          VAR    BASINP    GEOM    SYMINP    ZMAT    AOBASIS   BASIS     P2S    ABASIS      S 
                                         1400     1410     1200     1210     1080     1600     1650     1300     1700     1800   
                                           T        V       H0       H01     AOSYM     SMH    MOLCAS    ERIS     OPER     GRID   

              2       5        2.80       700     1000      520     1800     2100   
                                         GEOM     BASIS   MCVARS    GRID      RKS  

 PROGRAMS   *        TOTAL      IBBA        KS       INT
 CPU TIMES  *         2.36      0.02      1.96      0.24
 REAL TIME  *         3.82 SEC
 DISK USED  *        34.78 MB      
 **********************************************************************************************************************************
 Molecular orbitals read from record     2100.2  Type=RKS/LOCAL(IBO)  
 Occupation numbers read from record     2100.2  Type=RKS/LOCAL(IBO)  
 Orbital energies read from record       2100.2  Type=RKS/LOCAL(IBO)  
 Redundancy group numbers read from rec  2100.2  Type=RKS/LOCAL(IBO)  

 IBBA/SVP energy=      0.000000000000

        KS-SCF  
   -100.77821304
 **********************************************************************************************************************************
 Molpro calculation terminated
