
 Primary working directories    : /local
 Secondary working directories  : /local
 Wavefunction directory         : /local/
 Main file repository           : /local/

 SHA1      : b4a5b34a9e711420743f49e6833241d17c61fb3c
 NAME      : 2099.9.b4a5b34
 ARCHNAME  : linux/x86_64_openmp
 FC        : /cm/shared/languages/GCC-6.1/bin/gfortran
 BLASLIB   : -lblas
 id        : simonbennie

 Nodes     nprocs
 node35-033    1

 Using customized tuning parameters: mindgm=1; mindgv=20; mindgc=4; mindgr=1; noblas=0; minvec=7
 default implementation of scratch files=df  

 memory,500,m
 geomtyp=xyz
 nosym
 noorient
 geometry={
 H          0.14657       -1.12839        0.00000
 F          0.00000        0.33042        0.00000
 H         -0.14657       -1.84541        0.00000
 }
 basis={ default,qzvp }
 {uks,MM06,direct;wf,11,1,1}
 {ibba,bonds=1}

 Variables initialized (895), CPU time= 0.00 sec
 Commands  initialized (725), CPU time= 0.01 sec, 591 directives.
 Default parameters read. Elapsed time= 0.08 sec

 Checking input...
 Passed
1


                                         ***  PROGRAM SYSTEM MOLPRO  ***
                                       Copyright, TTI GmbH Stuttgart, 2015
                                    Version 2099.9 linked May 26 2017 16:03:21


 **********************************************************************************************************************************
 LABEL *                                                                                 
  64 bit serial version                                                                  DATE: 29-Jun-17          TIME: 14:11:28  
 **********************************************************************************************************************************

 SHA1:             b4a5b34a9e711420743f49e6833241d17c61fb3c
 **********************************************************************************************************************************
 SETTING GEOMTYP        =    XYZ

 Variable memory set to  500000000 words,  buffer space 

 ZSYMEL=NOSYM

 SETTING BASIS          =    QZVP


 Recomputing integrals since basis changed


 Using spherical harmonics

 Library entry H      S def2-QZVP            selected for orbital group  1
 Library entry H      P def2-QZVP            selected for orbital group  1
 Library entry H      D def2-QZVP            selected for orbital group  1
 Library entry H      F def2-QZVP            selected for orbital group  1
 Library entry F      S def2-QZVP            selected for orbital group  2
 Library entry F      P def2-QZVP            selected for orbital group  2
 Library entry F      D def2-QZVP            selected for orbital group  2
 Library entry F      F def2-QZVP            selected for orbital group  2
 Library entry F      G def2-QZVP            selected for orbital group  2


 PROGRAM * SEWARD (Integral evaluation for generally contracted gaussian basis sets)     Author: Roland Lindh, 1990

 Geometry written to block  1 of record 700


 Point group  C1  



 ATOMIC COORDINATES

 NR  ATOM    CHARGE       X              Y              Z

   1  H       1.00    0.276977158   -2.132348062    0.000000000
   2  F       9.00    0.000000000    0.624403306    0.000000000
   3  H       1.00   -0.276977158   -3.487319488    0.000000000

 Bond lengths in Bohr (Angstrom)

 1-3  1.463835014
     ( 0.774628130)

 NUCLEAR CHARGE:                   11
 NUMBER OF PRIMITIVE AOS:         168
 NUMBER OF SYMMETRY AOS:          143
 NUMBER OF CONTRACTIONS:          117   ( 117A   )
 NUMBER OF CORE ORBITALS:           1   (   1A   )
 NUMBER OF VALENCE ORBITALS:        6   (   6A   )


 NUCLEAR REPULSION ENERGY    6.11540905

 EXTRA SYMMETRY OF AOS IN SYMMETRY 1:   1 1 1 1 1 1 2 1 1 2   1 1 2 1 1 2 1 2 1 1   2 1 2 1 1 2 1 2 1 2   1 1 1 1 1 1 1 1 1 2
                                        1 1 2 1 1 2 1 1 2 1   1 2 1 2 1 1 2 1 2 1   1 2 1 2 1 1 2 1 2 1   2 1 1 2 1 2 1 2 1 1
                                        2 1 2 1 1 2 2 1 1 1   1 1 1 2 1 1 2 1 1 2   1 1 2 1 2 1 1 2 1 2   1 1 2 1 2 1 2

 Eigenvalues of metric

         1 0.182E-03 0.941E-03 0.461E-02 0.499E-02 0.762E-02 0.832E-02 0.106E-01 0.145E-01


 Contracted 2-electron integrals neglected if value below      1.0D-11
 AO integral compression algorithm  1   Integral accuracy      1.0D-11

     58.720 MB (compressed) written to integral file ( 25.2%)


 NUMBER OF SORTED TWO-ELECTRON INTEGRALS:   23829156.     BUFFER LENGTH:  32768
 NUMBER OF SEGMENTS:   2  SEGMENT LENGTH:   15997996      RECORD LENGTH: 524288

 Memory used in sort:      16.56 MW

 SORT1 READ    29239604. AND WROTE    10886352. INTEGRALS IN     32 RECORDS. CPU TIME:     0.20 SEC, REAL TIME:     0.34 SEC
 SORT2 READ    10886352. AND WROTE    23829156. INTEGRALS IN    224 RECORDS. CPU TIME:     0.52 SEC, REAL TIME:     0.60 SEC

 FILE SIZES:   FILE 1:    89.2 MBYTE,  FILE 4:   134.3 MBYTE,   TOTAL:    223.5 MBYTE

 OPERATOR DM      FOR CENTER  0  COORDINATES:    0.000000    0.000000    0.000000


 **********************************************************************************************************************************
 DATASETS  * FILE   NREC   LENGTH (MB)   RECORD NAMES
              1      19       76.23       500      610      700      900      950      970     1000      129      960     1100   
                                          VAR    BASINP    GEOM    SYMINP    ZMAT    AOBASIS   BASIS     P2S    ABASIS      S 
                                         1400     1410     1200     1210     1080     1600     1650     1300     1700   
                                           T        V       H0       H01     AOSYM     SMH    MOLCAS    ERIS     OPER   

 PROGRAMS   *        TOTAL       INT
 CPU TIMES  *         2.09      1.96
 REAL TIME  *         2.76 SEC
 DISK USED  *       223.81 MB      
 **********************************************************************************************************************************

 Density functional group MM06=M06X+M06C
 Functional: M06X(Automatically generated (new) M06X)                          Gradient terms: 2
 Functional: M06C(Automatically generated (new) M06C)                          Gradient terms: 2
 Use grid at  1800.2


 Exact exchange will be calculated, factor:  0.2700

 Functional: M06X                      Factor:  0.7300
 Functional: M06C                      Factor:  1.0000

 Generated new metagrid on record  1800.2 with target accuracy 1.0D-06 and 10168 points in CPU time    0.2
 Computed new grid on record 1800.1 in CPU time    0.2
  185930 words reserved for DFT integration

 PROGRAM * UKS-SCF (Unrestricted Kohn-Sham)     Authors: W. Meyer, H.-J. Werner, P.J. Knowles, 1993

 NUMBER OF ELECTRONS:       6+    5-    SPACE SYMMETRY=1    SPIN SYMMETRY: Doublet 
 CONVERGENCE THRESHOLDS:    1.00E-05 (Density)    1.00E-06 (Energy)
 MAX. NUMBER OF ITERATIONS:       60
 INTERPOLATION TYPE:            DIIS
 INTERPOLATION STEPS:              2 (START)      1 (STEP)
 LEVEL SHIFTS:                 -0.20 (ALPHA)  -0.20 (BETA) 



 Use fine grid record 1800.2 for energy threshold  1.0D-06
 Orbital guess generated from atomic densities. Full valence occupancy:    6

 Molecular orbital dump at record        2200.2

 Initial alpha occupation   6
 Initial beta  occupation   5

 ITERATION    DDIFF          GRAD             ENERGY        2-EL.EN.            DIPOLE MOMENTS         DIIS
    1      0.000D+00      0.000D+00       -98.83101054    104.578918    0.00006   -0.80015   -0.00000    0
    2      0.135D-02      0.210D-02       -98.83981852    106.813279   -0.00238   -0.74491   -0.00000    1
    3      0.502D-03      0.113D-02       -98.84394315    105.602994   -0.00207   -0.62297    0.00000    2
    4      0.199D-03      0.332D-03       -98.84488441    105.748208   -0.00148   -0.57846   -0.00000    3
    5      0.183D-03      0.135D-03       -98.84534557    105.698767   -0.00113   -0.52338   -0.00000    4
    6      0.148D-03      0.553D-04       -98.84546446    105.665482   -0.00067   -0.49121   -0.00000    5
    7      0.927D-04      0.271D-04       -98.84548010    105.665481   -0.00049   -0.48095   -0.00000    6
    8      0.358D-04      0.857D-05       -98.84548159    105.661013   -0.00035   -0.47874   -0.00000    7
    9      0.891D-05      0.347D-05       -98.84548204    105.662328   -0.00024   -0.47873   -0.00000    8
   10      0.603D-05      0.263D-05       -98.84548243    105.661874   -0.00010   -0.47871   -0.00000    7

 Final alpha occupancy:   6
 Final beta  occupancy:   5

 !UKS STATE 1.1 Energy                -98.845482429190
 Nuclear energy                         6.11540905
 One-electron energy                 -151.81043217
 Two-electron energy                   52.83093699
 Density functional                    -5.98139630     M06X=-7.60630383 M06C=-0.42879450
 Virial quotient                       -1.00227268
 !UKS STATE 1.1 Dipole moment          -0.00010246    -0.47871399    -0.00000000
 Dipole moment /Debye                  -0.00026040    -1.21668990    -0.00000000

 Orbital energies for positive spin:

         1.1          2.1          3.1          4.1          5.1          6.1          7.1          8.1
    -24.384289    -1.134092    -0.503530    -0.383778    -0.383389    -0.354803     0.058441     0.112215

 Orbital energies for negative spin:

         1.1          2.1          3.1          4.1          5.1          6.1          7.1          8.1
    -24.371029    -1.065083    -0.431180    -0.357040    -0.356898    -0.170121     0.082099     0.120196

 HOMO      6.1    -0.354803 =      -9.6547eV
 LUMO     -6.1    -0.170121 =      -4.6292eV
 LUMO-HOMO         0.184682 =       5.0254eV

 EXPECTATION VALUE OF S**2:             0.75497346

 Occupation number threshold for canonical orbitals:  1.999000 (occupied),  0.001000 (virtual)

 Number of pseudo-canonical orbitals per symmetry:    4
 Number of active natural orbitals per symmetry:      3

 Natural orbitals saved to record    2200.2 (Orbital set 3)

 Orbital spaces for UNO-CAS (Min. occupation: 0.020  Max. occupation: 1.980):

 Closed:        5
 Active:        1


 **********************************************************************************************************************************
 DATASETS  * FILE   NREC   LENGTH (MB)   RECORD NAMES
              1      20       76.55       500      610      700      900      950      970     1000      129      960     1100   
                                          VAR    BASINP    GEOM    SYMINP    ZMAT    AOBASIS   BASIS     P2S    ABASIS      S 
                                         1400     1410     1200     1210     1080     1600     1650     1300     1700     1800   
                                           T        V       H0       H01     AOSYM     SMH    MOLCAS    ERIS     OPER     GRID   

              2       5        3.35       700     1000      520     1800     2200   
                                         GEOM     BASIS   MCVARS    GRID      UKS  

 PROGRAMS   *        TOTAL       UKS       INT
 CPU TIMES  *        21.80     19.71      1.96
 REAL TIME  *        22.76 SEC
 DISK USED  *       223.81 MB      
 **********************************************************************************************************************************


 PROGRAM * Intrinsic Basis Bonding Analysis (IBBA)          Author: G. Knizia

 Molecular orbitals read from record     2200.2  Type=UKS/ALPHA (state 1.1)
 Fock matrix read from record            2200.2  Type=UKS/TOTAL (state 1.1)
 Orbital energies read from record       2200.2  Type=UKS/ALPHA (state 1.1)
 Density matrix read from record         2200.2  Type=UKS/CHARGE (state 1.1)

 Number of core orbitals:           1 (   1 )
 Number of closed-shell orbitals:   4 (   4 )
 Number of active  orbitals:        1 (   1 )

 Basis set MINAO-AUTO-PP generated.      Number of basis functions:   7 

 Polarized AO type:                A = (O Ot + (1-O)(1-Ot)) P12
 Orthogonalization method:         Symmetric (Loewdin)
 Localization functional:          L = sum[A,i] <i|n_A|i>^4 -> max

 Localization group 1:   5 orbitals, occupancy  2.000
 Iterative localization: IB/PM,    4 iter; Final gradient 0.15E-09

 Bond order analysis:       [THRPRINT= 0.020]

   CEN ATOM   CEN ATOM     WIBERG.BO      RENORM.BO
     1   H  -   2   F       0.627675       1.000000
     1   H  -   3   H       0.169296       0.928150

     2   F  -   1   H       0.627675       1.000000
     2   F  -   3   H       0.384471       1.000000

     3   H  -   2   F       0.384471       1.000000
     3   H  -   1   H       0.169296       0.928150


 Valency analysis:

   CEN ATOM   TOT.VALENCE
     1   H       0.796971
     2   F       1.012147
     3   H       0.553768
 Localization group 2:   1 orbitals, occupancy  1.000
 Iterative localization: IB/PM,    1 iter; Final gradient 0.00E+00

 Bond order analysis:       [THRPRINT= 0.020]

   CEN ATOM   CEN ATOM     WIBERG.BO      RENORM.BO
     1   H  -   3   H       0.141400       0.500000
     1   H  -   2   F       0.139171       0.500000

     2   F  -   3   H       0.345452       0.500000
     2   F  -   1   H       0.139171       0.500000

     3   H  -   2   F       0.345452       0.500000
     3   H  -   1   H       0.141400       0.500000


 Valency analysis:

   CEN ATOM   TOT.VALENCE
     1   H       0.280570
     2   F       0.484622
     3   H       0.486851

 Total charge composition:

   CEN ATOM         s          p       ELECTRONS ->P.CHARGE
     1   H       0.71818                 0.71818    0.28182
     2   F       3.97271    5.55820      9.53091   -0.53091
     3   H       0.75091                 0.75091    0.24909

 Total charge composition, AO contributions:

   CEN ATOM SHL      SPHERICAL COMPONENTS
     1   H  1s       0.71818

     2   F  1s       1.99988
     2   F  2s       1.97282
     2   F  2p       1.99447    1.56373    2.00000

     3   H  1s       0.75091

 Active orbital charges:

   CEN ATOM         s          p       ELECTRONS ->SPIN.DEN
     1   H       0.16877                 0.16877    0.16877
     2   F       0.00541    0.40691      0.41231    0.41231
     3   H       0.41892                 0.41892    0.41892

 Active orbital charges, AO contributions:

   CEN ATOM SHL      SPHERICAL COMPONENTS
     1   H  1s       0.16877

     2   F  1s       0.00002
     2   F  2s       0.00538
     2   F  2p       0.00218    0.40473    0.00000

     3   H  1s       0.41892

 Summary of localized orbital composition:   [THRPRINT= 0.020]

   ORB  GRP  ORB.ENERGY      CENTERS/CHARGES
     1   1   -24.263598      F  2   2.000
     2   1    -1.089559      F  2   1.985
     3   1    -0.484944      F  2   1.134   H  1   0.544   H  3   0.322
     4   1    -0.455336      F  2   2.000
     5   1    -0.369996      F  2   2.000
     6   2    -0.277849      H  3   0.419   F  2   0.412   H  1   0.169

 Localized orbitals saved to record      2200.2  (orbital set 4)


 **********************************************************************************************************************************
 DATASETS  * FILE   NREC   LENGTH (MB)   RECORD NAMES
              1      20       76.55       500      610      700      900      950      970     1000      129      960     1100   
                                          VAR    BASINP    GEOM    SYMINP    ZMAT    AOBASIS   BASIS     P2S    ABASIS      S 
                                         1400     1410     1200     1210     1080     1600     1650     1300     1700     1800   
                                           T        V       H0       H01     AOSYM     SMH    MOLCAS    ERIS     OPER     GRID   

              2       5        3.46       700     1000      520     1800     2200   
                                         GEOM     BASIS   MCVARS    GRID      UKS  

 PROGRAMS   *        TOTAL      IBBA       UKS       INT
 CPU TIMES  *        21.82      0.02     19.71      1.96
 REAL TIME  *        22.82 SEC
 DISK USED  *       223.81 MB      
 **********************************************************************************************************************************
 Molecular orbitals read from record     2200.2  Type=UKS/LOCAL(IBO)  
 Occupation numbers read from record     2200.2  Type=UKS/LOCAL(IBO)  
 Orbital energies read from record       2200.2  Type=UKS/LOCAL(IBO)  
 Redundancy group numbers read from rec  2200.2  Type=UKS/BETA (state 1.1)

 IBBA/QZVP energy=      0.000000000000

        UKS-SCF 
    -98.84548243
 **********************************************************************************************************************************
 Molpro calculation terminated
