
 Primary working directories    : /local
 Secondary working directories  : /local
 Wavefunction directory         : /local/
 Main file repository           : /local/

 SHA1      : b4a5b34a9e711420743f49e6833241d17c61fb3c
 NAME      : 2099.9.b4a5b34
 ARCHNAME  : linux/x86_64_openmp
 FC        : /cm/shared/languages/GCC-6.1/bin/gfortran
 BLASLIB   : -lblas
 id        : simonbennie

 Nodes     nprocs
 node34-011    1

 Using customized tuning parameters: mindgm=1; mindgv=20; mindgc=4; mindgr=1; noblas=0; minvec=7
 default implementation of scratch files=df  

 memory,500,m
 geomtyp=xyz
 nosym
 noorient
 geometry={
 C          0.00000        0.00000        0.00000
 C          0.00000        0.00000        1.49014
 H          1.01377        0.00000        1.89114
 H         -0.84855        0.37413       -0.55287
 H         -0.50106       -0.88768        1.89585
 H         -0.52501        0.86748        1.89105
 H          0.77218       -0.51270       -0.55357
 }
 basis={ default,svp }
 {uks,M06-L,direct;disp;wf,17,1,1}
 {ibba,bonds=1}

 Variables initialized (895), CPU time= 0.00 sec
 Commands  initialized (725), CPU time= 0.01 sec, 591 directives.
 Default parameters read. Elapsed time= 0.08 sec

 Checking input...
 Passed
1


                                         ***  PROGRAM SYSTEM MOLPRO  ***
                                       Copyright, TTI GmbH Stuttgart, 2015
                                    Version 2099.9 linked May 26 2017 16:03:21


 **********************************************************************************************************************************
 LABEL *                                                                                 
  64 bit serial version                                                                  DATE: 09-Mar-18          TIME: 21:10:42  
 **********************************************************************************************************************************

 SHA1:             b4a5b34a9e711420743f49e6833241d17c61fb3c
 **********************************************************************************************************************************
 SETTING GEOMTYP        =    XYZ

 Variable memory set to  500000000 words,  buffer space 

 ZSYMEL=NOSYM

 SETTING BASIS          =    SVP


 Recomputing integrals since basis changed


 Using spherical harmonics

 Library entry C      S def2-SVP             selected for orbital group  1
 Library entry C      P def2-SVP             selected for orbital group  1
 Library entry C      D def2-SVP             selected for orbital group  1
 Library entry H      S def2-SVP             selected for orbital group  2
 Library entry H      P def2-SVP             selected for orbital group  2


 PROGRAM * SEWARD (Integral evaluation for generally contracted gaussian basis sets)     Author: Roland Lindh, 1990

 Geometry written to block  1 of record 700


 Point group  C1  



 ATOMIC COORDINATES

 NR  ATOM    CHARGE       X              Y              Z

   1  C       6.00    0.000000000    0.000000000    0.000000000
   2  C       6.00    0.000000000    0.000000000    2.815956487
   3  H       1.00    1.915747653    0.000000000    3.573736663
   4  H       1.00   -1.603527103    0.707003235   -1.044772882
   5  H       1.00   -0.946866172   -1.677472086    3.582637273
   6  H       1.00   -0.992125113    1.639299619    3.573566588
   7  H       1.00    1.459208719   -0.968862584   -1.046095691

 Bond lengths in Bohr (Angstrom)

 1-2  2.815956487  1-4  2.040270355  1-7  2.040171803  2-3  2.060174717  2-5  2.073226369
     ( 1.490140000)     ( 1.079664576)     ( 1.079612425)     ( 1.090197511)     ( 1.097104147)

 2-6  2.060482600
     ( 1.090360435)

 Bond angles

  1-2-3  111.58143444   1-2-5  111.70333312   1-2-6  111.57296243   2-1-4  120.80219065

  2-1-7  120.84710155   3-2-5  106.77850698   3-2-6  108.21011696   4-1-7  117.65385746

  5-2-6  106.72891007

 NUCLEAR CHARGE:                   17
 NUMBER OF PRIMITIVE AOS:          85
 NUMBER OF SYMMETRY AOS:           83
 NUMBER OF CONTRACTIONS:           53   (  53A   )
 NUMBER OF CORE ORBITALS:           2   (   2A   )
 NUMBER OF VALENCE ORBITALS:       13   (  13A   )


 NUCLEAR REPULSION ENERGY   36.98165179

 Eigenvalues of metric

         1 0.521E-02 0.229E-01 0.268E-01 0.395E-01 0.496E-01 0.625E-01 0.989E-01 0.106E+00


 Contracted 2-electron integrals neglected if value below      1.0D-11
 AO integral compression algorithm  1   Integral accuracy      1.0D-11

     4.981 MB (compressed) written to integral file ( 53.3%)


 NUMBER OF SORTED TWO-ELECTRON INTEGRALS:    1024596.     BUFFER LENGTH:  32768
 NUMBER OF SEGMENTS:   1  SEGMENT LENGTH:    1024596      RECORD LENGTH: 524288

 Memory used in sort:       1.58 MW

 SORT1 READ     1206537. AND WROTE      925300. INTEGRALS IN      3 RECORDS. CPU TIME:     0.02 SEC, REAL TIME:     0.03 SEC
 SORT2 READ      925300. AND WROTE     1024596. INTEGRALS IN     19 RECORDS. CPU TIME:     0.05 SEC, REAL TIME:     0.07 SEC

 FILE SIZES:   FILE 1:    35.1 MBYTE,  FILE 4:    12.6 MBYTE,   TOTAL:     47.8 MBYTE

 OPERATOR DM      FOR CENTER  0  COORDINATES:    0.000000    0.000000    0.000000


 **********************************************************************************************************************************
 DATASETS  * FILE   NREC   LENGTH (MB)   RECORD NAMES
              1      19       34.36       500      610      700      900      950      970     1000      129      960     1100   
                                          VAR    BASINP    GEOM    SYMINP    ZMAT    AOBASIS   BASIS     P2S    ABASIS      S 
                                         1400     1410     1200     1210     1080     1600     1650     1300     1700   
                                           T        V       H0       H01     AOSYM     SMH    MOLCAS    ERIS     OPER   

 PROGRAMS   *        TOTAL       INT
 CPU TIMES  *         0.52      0.38
 REAL TIME  *         0.96 SEC
 DISK USED  *        48.13 MB      
 **********************************************************************************************************************************

 Density functional group M06-L=XC-M06-L
 Functional: XC-M06-L(via MFM 1.6)                                             Gradient terms: 1

 dispersion correction activated
 Density functional: M06-L   
 functional not in list, set to default 

 Functional: XC-M06-L                  Factor:  1.0000

 Use grid at  1800.2

 Functional: XC-M06-L                  Factor:  1.0000

 Generated new metagrid on record  1800.2 with target accuracy 1.0D-06 and 22862 points in CPU time    0.5
 Computed new grid on record 1800.1 in CPU time    0.5
   46013 words reserved for DFT integration

 PROGRAM * UKS-SCF (Unrestricted Kohn-Sham)     Authors: W. Meyer, H.-J. Werner, P.J. Knowles, 1993

 NUMBER OF ELECTRONS:       9+    8-    SPACE SYMMETRY=1    SPIN SYMMETRY: Doublet 
 CONVERGENCE THRESHOLDS:    1.00E-05 (Density)    1.00E-06 (Energy)
 MAX. NUMBER OF ITERATIONS:       60
 INTERPOLATION TYPE:            DIIS
 INTERPOLATION STEPS:              2 (START)      1 (STEP)
 LEVEL SHIFTS:                 -0.20 (ALPHA)  -0.20 (BETA) 



 Use fine grid record 1800.2 for energy threshold  1.0D-06
 Orbital guess generated from atomic densities. Full valence occupancy:    9

 Molecular orbital dump at record        2200.2

 Initial alpha occupation   9
 Initial beta  occupation   8

 ITERATION    DDIFF          GRAD             ENERGY        2-EL.EN.            DIPOLE MOMENTS         DIIS
    1      0.000D+00      0.000D+00       -78.98601848    154.682402   -0.05173   -0.09143    0.22087    0
    2      0.155D-01      0.762D-02       -79.07069339    147.708495   -0.02144   -0.05457    0.13232    1
    3      0.435D-02      0.305D-02       -79.08225264    149.287532   -0.02764   -0.05796    0.13466    2
    4      0.933D-03      0.394D-03       -79.08274414    149.212406   -0.02567   -0.05463    0.12705    3
    5      0.474D-03      0.190D-03       -79.08287288    149.198712   -0.02402   -0.05165    0.11842    4
    6      0.219D-03      0.715D-04       -79.08290538    149.200600   -0.02287   -0.04975    0.11372    5
    7      0.445D-04      0.307D-04       -79.08290790    149.199678   -0.02252   -0.04919    0.11190    6
    8      0.229D-04      0.803D-05       -79.08290811    149.200081   -0.02242   -0.04896    0.11182    7
    9      0.451D-05      0.133D-05       -79.08290812    149.199875   -0.02240   -0.04895    0.11181    6
   10      0.145D-05      0.508D-06       -79.08290812    149.200021   -0.02240   -0.04893    0.11183    7

 Dispersion correction
 - - - - - - - - - - - 
  _________________________________
                                   
 |         DFTD3 V1.3 Rev 1        |
 | S.Grimme, University Muenster   |
 | Fri Jul  2 12:48:21 CEST 2010   |
  _________________________________

 Please cite DFT-D3 work done with this code as:
 S. Grimme, J. Antony, S. Ehrlich and H. Krieg,
 J. Chem. Phys, 132 (2010), 154104.
 For DFT-D2 the reference is
 S. Grimme, J. Comput. Chem., 27 (2006), 1787-1799

 C6 coefficients used:
                    2  C6 for element                     1
 Z=  1 CN=   0.912     C6(AA)=    3.03
 Z=  1 CN=   0.000     C6(AA)=    7.59
                    5  C6 for element                     6
 Z=  6 CN=   0.000     C6(AA)=   49.11
 Z=  6 CN=   0.987     C6(AA)=   43.25
 Z=  6 CN=   1.998     C6(AA)=   29.36
 Z=  6 CN=   2.999     C6(AA)=   25.78
 Z=  6 CN=   3.984     C6(AA)=   18.21

 #           XYZ [au]               R0(AA) [Ang.]   CN       C6(AA)     C8(AA)   C10(AA) [au]
  1   0.00000   0.00000   0.00000   c   1.455  2.998        25.7       742.6     26308.8
  2   0.00000   0.00000   2.81596   c   1.455  3.979        18.3       530.6     18799.0
  3   1.91575   0.00000   3.57374   h   1.091  0.998         3.1        37.4       553.4
  4  -1.60353   0.70700  -1.04477   h   1.091  0.997         3.1        37.4       553.5
  5  -0.94687  -1.67747   3.58264   h   1.091  0.997         3.1        37.4       553.5
  6  -0.99213   1.63930   3.57357   h   1.091  0.998         3.1        37.4       553.4
  7   1.45921  -0.96886  -1.04610   h   1.091  0.997         3.1        37.4       553.5

 molecular C6(AA) [au] =       328.17

           DFT-D V3
 DF pbe                                               
 parameters
 s6       :    1.0000
 s8       :    0.7220
 rs6      :    1.2170
 alpha6   :   14.0000
 alpha8   :   16.0000
 k1-k3    :   16.0000    1.3333   -4.0000

 Edisp /kcal,au:    -0.4333 -0.00069043

 E6    /kcal :    -0.1402
 E8    /kcal :    -0.2931
 % E8        : 67.65
 normal termination of dftd3

 UKS STATE 1.1 ENERGY+DISP      -79.08359855

 Final alpha occupancy:   9
 Final beta  occupancy:   8

 !UKS STATE 1.1 Energy                -79.083598548615
 Nuclear energy                        36.98165179
 One-electron energy                 -177.98965771
 Two-electron energy                   74.60001040
 Density functional                   -12.67491260     XC-M06-L=-12.67491260
 Virial quotient                       -1.01166121
 !UKS STATE 1.1 Dipole moment          -0.02239737    -0.04892859     0.11182721
 Dipole moment /Debye                  -0.05692471    -0.12435593     0.28421779

 Orbital energies for positive spin:

         1.1          2.1          3.1          4.1          5.1          6.1          7.1          8.1          9.1         10.1
    -10.061721   -10.056883    -0.713015    -0.567326    -0.413402    -0.377909    -0.357591    -0.322628    -0.174067     0.093077

        11.1
      0.116055

 Orbital energies for negative spin:

         1.1          2.1          3.1          4.1          5.1          6.1          7.1          8.1          9.1         10.1
    -10.057596   -10.047509    -0.692370    -0.534178    -0.403284    -0.363799    -0.350347    -0.314903    -0.057657     0.090445

        11.1
      0.112444

 HOMO      9.1    -0.174067 =      -4.7366eV
 LUMO     -9.1    -0.057657 =      -1.5689eV
 LUMO-HOMO         0.116410 =       3.1677eV

 EXPECTATION VALUE OF S**2:             0.75631816

 Occupation number threshold for canonical orbitals:  1.999000 (occupied),  0.001000 (virtual)

 Number of pseudo-canonical orbitals per symmetry:    7
 Number of active natural orbitals per symmetry:      3

 Natural orbitals saved to record    2200.2 (Orbital set 3)

 Orbital spaces for UNO-CAS (Min. occupation: 0.020  Max. occupation: 1.980):

 Closed:        8
 Active:        1


 **********************************************************************************************************************************
 DATASETS  * FILE   NREC   LENGTH (MB)   RECORD NAMES
              1      20       35.09       500      610      700      900      950      970     1000      129      960     1100   
                                          VAR    BASINP    GEOM    SYMINP    ZMAT    AOBASIS   BASIS     P2S    ABASIS      S 
                                         1400     1410     1200     1210     1080     1600     1650     1300     1700     1800   
                                           T        V       H0       H01     AOSYM     SMH    MOLCAS    ERIS     OPER     GRID   

              2       5        2.98       700     1000      520     1800     2200   
                                         GEOM     BASIS   MCVARS    GRID      UKS  

 PROGRAMS   *        TOTAL       UKS       INT
 CPU TIMES  *         8.91      8.38      0.38
 REAL TIME  *         9.68 SEC
 DISK USED  *        48.13 MB      
 **********************************************************************************************************************************


 PROGRAM * Intrinsic Basis Bonding Analysis (IBBA)          Author: G. Knizia

 Molecular orbitals read from record     2200.2  Type=UKS/ALPHA (state 1.1)
 Fock matrix read from record            2200.2  Type=UKS/TOTAL (state 1.1)
 Orbital energies read from record       2200.2  Type=UKS/ALPHA (state 1.1)
 Density matrix read from record         2200.2  Type=UKS/CHARGE (state 1.1)

 Number of core orbitals:           2 (   2 )
 Number of closed-shell orbitals:   6 (   6 )
 Number of active  orbitals:        1 (   1 )

 Basis set MINAO-AUTO-PP generated.      Number of basis functions:   15 

 Polarized AO type:                A = (O Ot + (1-O)(1-Ot)) P12
 Orthogonalization method:         Symmetric (Loewdin)
 Localization functional:          L = sum[A,i] <i|n_A|i>^4 -> max

 Localization group 1:   8 orbitals, occupancy  2.000
 Iterative localization: IB/PM,    6 iter; Final gradient 0.35E-08

 Bond order analysis:       [THRPRINT= 0.020]

   CEN ATOM   CEN ATOM     WIBERG.BO      RENORM.BO
     1   C  -   2   C       1.256823       2.020894
     1   C  -   7   H       0.954819       0.982264
     1   C  -   4   H       0.954561       0.982153
     1   C  -   5   H       0.100004       0.620997
     1   C  -   6   H       0.024737       0.137321
     1   C  -   3   H       0.022063       0.121869

     2   C  -   1   C       1.256823       2.020894
     2   C  -   3   H       0.932575       0.987831
     2   C  -   6   H       0.929261       0.988033
     2   C  -   5   H       0.831957       0.998742

     3   H  -   2   C       0.932575       0.987831
     3   H  -   1   C       0.022063       0.121869

     4   H  -   1   C       0.954561       0.982153

     5   H  -   2   C       0.831957       0.998742
     5   H  -   1   C       0.100004       0.620997

     6   H  -   2   C       0.929261       0.988033
     6   H  -   1   C       0.024737       0.137321

     7   H  -   1   C       0.954819       0.982264


 Valency analysis:

   CEN ATOM   TOT.VALENCE
     1   C       3.313008
     2   C       3.952602
     3   H       0.973832
     4   H       0.969877
     5   H       0.944463
     6   H       0.973215
     7   H       0.970077
 Localization group 2:   1 orbitals, occupancy  1.000
 Iterative localization: IB/PM,    1 iter; Final gradient 0.00E+00

 Bond order analysis:       [THRPRINT= 0.020]

   CEN ATOM   CEN ATOM     WIBERG.BO      RENORM.BO
     1   C  -   5   H       0.130344       0.500000
     1   C  -   2   C       0.035667       0.500000
     1   C  -   6   H       0.030634       0.500000
     1   C  -   3   H       0.027332       0.500000

     2   C  -   1   C       0.035667       0.500000

     3   H  -   1   C       0.027332       0.500000


     5   H  -   1   C       0.130344       0.500000

     6   H  -   1   C       0.030634       0.500000



 Valency analysis:

   CEN ATOM   TOT.VALENCE
     1   C       0.225025
     2   C       0.040120
     3   H       0.030895
     4   H       0.000586
     5   H       0.138481
     6   H       0.034561
     7   H       0.000617

 Total charge composition:

   CEN ATOM         s          p       ELECTRONS ->P.CHARGE
     1   C       3.11411    3.34176      6.45587   -0.45587
     2   C       3.01641    3.32662      6.34303   -0.34303
     3   H       0.85393                 0.85393    0.14607
     4   H       0.82673                 0.82673    0.17327
     5   H       0.83918                 0.83918    0.16082
     6   H       0.85393                 0.85393    0.14607
     7   H       0.82733                 0.82733    0.17267

 Total charge composition, AO contributions:

   CEN ATOM SHL      SPHERICAL COMPONENTS
     1   C  1s       1.99187
     1   C  2s       1.12225
     1   C  2p       1.16073    1.10323    1.07779

     2   C  1s       1.99036
     2   C  2s       1.02605
     2   C  2p       1.15190    1.12955    1.04517

     3   H  1s       0.85393

     4   H  1s       0.82673

     5   H  1s       0.83918

     6   H  1s       0.85393

     7   H  1s       0.82733

 Active orbital charges:

   CEN ATOM         s          p       ELECTRONS ->SPIN.DEN
     1   C       0.00199    0.86880      0.87079    0.87079
     2   C       0.00004    0.02044      0.02048    0.02048
     3   H       0.01569                 0.01569    0.01569
     4   H       0.00029                 0.00029    0.00029
     5   H       0.07484                 0.07484    0.07484
     6   H       0.01759                 0.01759    0.01759
     7   H       0.00031                 0.00031    0.00031

 Active orbital charges, AO contributions:

   CEN ATOM SHL      SPHERICAL COMPONENTS
     1   C  1s       0.00000
     1   C  2s       0.00199
     1   C  2p       0.19935    0.66739    0.00206

     2   C  1s       0.00000
     2   C  2s       0.00004
     2   C  2p       0.00462    0.01569    0.00013

     3   H  1s       0.01569

     4   H  1s       0.00029

     5   H  1s       0.07484

     6   H  1s       0.01759

     7   H  1s       0.00031

 Summary of localized orbital composition:   [THRPRINT= 0.020]

   ORB  GRP  ORB.ENERGY      CENTERS/CHARGES
     1   1    -9.944169      C  1   2.000
     2   1    -9.939299      C  2   2.000
     3   1    -0.565821      C  1   1.023   C  2   0.975
     4   1    -0.486339      C  1   1.173   H  7   0.821
     5   1    -0.485718      C  1   1.173   H  4   0.821
     6   1    -0.465132      C  2   1.092   H  5   0.759   C  1   0.146
     7   1    -0.462708      C  2   1.126   H  3   0.833   C  1   0.033
     8   1    -0.462014      C  2   1.124   H  6   0.832   C  1   0.037
     9   2    -0.112991      C  1   0.871   H  5   0.075   C  2   0.020   (other: 0.034)

 Localized orbitals saved to record      2200.2  (orbital set 4)


 **********************************************************************************************************************************
 DATASETS  * FILE   NREC   LENGTH (MB)   RECORD NAMES
              1      20       35.09       500      610      700      900      950      970     1000      129      960     1100   
                                          VAR    BASINP    GEOM    SYMINP    ZMAT    AOBASIS   BASIS     P2S    ABASIS      S 
                                         1400     1410     1200     1210     1080     1600     1650     1300     1700     1800   
                                           T        V       H0       H01     AOSYM     SMH    MOLCAS    ERIS     OPER     GRID   

              2       5        3.00       700     1000      520     1800     2200   
                                         GEOM     BASIS   MCVARS    GRID      UKS  

 PROGRAMS   *        TOTAL      IBBA       UKS       INT
 CPU TIMES  *         8.93      0.02      8.38      0.38
 REAL TIME  *         9.71 SEC
 DISK USED  *        48.13 MB      
 **********************************************************************************************************************************

 IBBA/SVP energy=      0.000000000000

        UKS-SCF 
    -79.08359855
 **********************************************************************************************************************************
 Molpro calculation terminated
