
 Primary working directories    : /local
 Secondary working directories  : /local
 Wavefunction directory         : /local/
 Main file repository           : /local/

 SHA1      : b4a5b34a9e711420743f49e6833241d17c61fb3c
 NAME      : 2099.9.b4a5b34
 ARCHNAME  : linux/x86_64_openmp
 FC        : /cm/shared/languages/GCC-6.1/bin/gfortran
 BLASLIB   : -lblas
 id        : simonbennie

 Nodes     nprocs
 node32-026    1

 Using customized tuning parameters: mindgm=1; mindgv=20; mindgc=4; mindgr=1; noblas=0; minvec=7
 default implementation of scratch files=df  

 memory,500,m
 geomtyp=xyz
 nosym
 noorient
 geometry={
 C          0.00000        0.00000        0.00000
 C          0.00000        0.00000        1.49014
 H          1.01377        0.00000        1.89114
 H         -0.84855        0.37413       -0.55287
 H         -0.50106       -0.88768        1.89585
 H         -0.52501        0.86748        1.89105
 H          0.77218       -0.51270       -0.55357
 }
 basis={ default,avtz }
 {uks,B,direct;wf,17,1,1}
 {ibba,bonds=1}

 Variables initialized (895), CPU time= 0.00 sec
 Commands  initialized (725), CPU time= 0.01 sec, 591 directives.
 Default parameters read. Elapsed time= 0.17 sec

 Checking input...
 Passed
1


                                         ***  PROGRAM SYSTEM MOLPRO  ***
                                       Copyright, TTI GmbH Stuttgart, 2015
                                    Version 2099.9 linked May 26 2017 16:03:21


 **********************************************************************************************************************************
 LABEL *                                                                                 
  64 bit serial version                                                                  DATE: 19-Jun-17          TIME: 14:18:39  
 **********************************************************************************************************************************

 SHA1:             b4a5b34a9e711420743f49e6833241d17c61fb3c
 **********************************************************************************************************************************
 SETTING GEOMTYP        =    XYZ

 Variable memory set to  500000000 words,  buffer space 

 ZSYMEL=NOSYM

 SETTING BASIS          =    AVTZ


 Recomputing integrals since basis changed


 Using spherical harmonics

 Library entry C      S aug-cc-pVTZ          selected for orbital group  1
 Library entry C      P aug-cc-pVTZ          selected for orbital group  1
 Library entry C      D aug-cc-pVTZ          selected for orbital group  1
 Library entry C      F aug-cc-pVTZ          selected for orbital group  1
 Library entry H      S aug-cc-pVTZ          selected for orbital group  2
 Library entry H      P aug-cc-pVTZ          selected for orbital group  2
 Library entry H      D aug-cc-pVTZ          selected for orbital group  2


 PROGRAM * SEWARD (Integral evaluation for generally contracted gaussian basis sets)     Author: Roland Lindh, 1990

 Geometry written to block  1 of record 700


 Point group  C1  



 ATOMIC COORDINATES

 NR  ATOM    CHARGE       X              Y              Z

   1  C       6.00    0.000000000    0.000000000    0.000000000
   2  C       6.00    0.000000000    0.000000000    2.815956487
   3  H       1.00    1.915747653    0.000000000    3.573736663
   4  H       1.00   -1.603527103    0.707003235   -1.044772882
   5  H       1.00   -0.946866172   -1.677472086    3.582637273
   6  H       1.00   -0.992125113    1.639299619    3.573566588
   7  H       1.00    1.459208719   -0.968862584   -1.046095691

 Bond lengths in Bohr (Angstrom)

 1-2  2.815956487  1-4  2.040270355  1-7  2.040171803  2-3  2.060174717  2-5  2.073226369
     ( 1.490140000)     ( 1.079664576)     ( 1.079612425)     ( 1.090197511)     ( 1.097104147)

 2-6  2.060482600
     ( 1.090360435)

 Bond angles

  1-2-3  111.58143444   1-2-5  111.70333312   1-2-6  111.57296243   2-1-4  120.80219065

  2-1-7  120.84710155   3-2-5  106.77850698   3-2-6  108.21011696   4-1-7  117.65385746

  5-2-6  106.72891007

 NUCLEAR CHARGE:                   17
 NUMBER OF PRIMITIVE AOS:         269
 NUMBER OF SYMMETRY AOS:          241
 NUMBER OF CONTRACTIONS:          207   ( 207A   )
 NUMBER OF CORE ORBITALS:           2   (   2A   )
 NUMBER OF VALENCE ORBITALS:       13   (  13A   )


 NUCLEAR REPULSION ENERGY   36.98165179

 Eigenvalues of metric

         1 0.322E-04 0.348E-04 0.580E-04 0.999E-04 0.109E-03 0.127E-03 0.186E-03 0.255E-03


 Contracted 2-electron integrals neglected if value below      1.0D-12
 AO integral compression algorithm  1   Integral accuracy      1.0D-12

     1231.815 MB (compressed) written to integral file ( 57.8%)


 NUMBER OF SORTED TWO-ELECTRON INTEGRALS:  231738156.     BUFFER LENGTH:  32768
 NUMBER OF SEGMENTS:  15  SEGMENT LENGTH:   15999503      RECORD LENGTH: 524288

 Memory used in sort:      16.56 MW

 SORT1 READ   266437413. AND WROTE   217572366. INTEGRALS IN    628 RECORDS. CPU TIME:     2.81 SEC, REAL TIME:    42.65 SEC
 SORT2 READ   217572366. AND WROTE   231738156. INTEGRALS IN   4699 RECORDS. CPU TIME:     5.30 SEC, REAL TIME:    61.26 SEC

 FILE SIZES:   FILE 1:  1263.5 MBYTE,  FILE 4:  2634.1 MBYTE,   TOTAL:   3897.5 MBYTE

 OPERATOR DM      FOR CENTER  0  COORDINATES:    0.000000    0.000000    0.000000


 **********************************************************************************************************************************
 DATASETS  * FILE   NREC   LENGTH (MB)   RECORD NAMES
              1      19     1133.71       500      610      700      900      950      970     1000      129      960     1100   
                                          VAR    BASINP    GEOM    SYMINP    ZMAT    AOBASIS   BASIS     P2S    ABASIS      S 
                                         1400     1410     1200     1210     1080     1600     1650     1300     1700   
                                           T        V       H0       H01     AOSYM     SMH    MOLCAS    ERIS     OPER   

 PROGRAMS   *        TOTAL       INT
 CPU TIMES  *        16.84     16.71
 REAL TIME  *       123.75 SEC
 DISK USED  *         3.90 GB      
 **********************************************************************************************************************************

 Density functional group B=B88
 Functional: B88(Automatically generated (new) B88)                            Gradient terms: 1
 Use grid at  1800.2

 Functional: B88                       Factor:  1.0000

 Generated new metagrid on record  1800.2 with target accuracy 1.0D-06 and 23742 points in CPU time    0.5
 Computed new grid on record 1800.1 in CPU time    0.5
  168618 words reserved for DFT integration

 PROGRAM * UKS-SCF (Unrestricted Kohn-Sham)     Authors: W. Meyer, H.-J. Werner, P.J. Knowles, 1993

 NUMBER OF ELECTRONS:       9+    8-    SPACE SYMMETRY=1    SPIN SYMMETRY: Doublet 
 CONVERGENCE THRESHOLDS:    1.00E-05 (Density)    1.00E-06 (Energy)
 MAX. NUMBER OF ITERATIONS:       60
 INTERPOLATION TYPE:            DIIS
 INTERPOLATION STEPS:              2 (START)      1 (STEP)
 LEVEL SHIFTS:                 -0.20 (ALPHA)  -0.20 (BETA) 



 Use fine grid record 1800.2 for energy threshold  1.0D-06
 Orbital guess generated from atomic densities. Full valence occupancy:   15

 Molecular orbital dump at record        2200.2

 Initial alpha occupation   9
 Initial beta  occupation   8

 ITERATION    DDIFF          GRAD             ENERGY        2-EL.EN.            DIPOLE MOMENTS         DIIS
    1      0.000D+00      0.000D+00       -78.48467906    155.740722   -0.04860   -0.08619    0.20279    0
    2      0.116D-01      0.246D-02       -78.59276852    146.565539   -0.02141   -0.03858    0.13251    1
    3      0.388D-02      0.123D-02       -78.61826368    149.031963   -0.02800   -0.05029    0.13705    2
    4      0.638D-03      0.128D-03       -78.61892185    148.960818   -0.02773   -0.04985    0.13364    3
    5      0.301D-03      0.568D-04       -78.61909577    148.918641   -0.02724   -0.04903    0.12733    4
    6      0.201D-03      0.249D-04       -78.61914161    148.908524   -0.02710   -0.04882    0.12513    5
    7      0.984D-04      0.107D-04       -78.61914766    148.903043   -0.02704   -0.04870    0.12353    6
    8      0.353D-04      0.288D-05       -78.61914810    148.903193   -0.02698   -0.04860    0.12360    7
    9      0.999D-05      0.663D-06       -78.61914813    148.902770   -0.02698   -0.04860    0.12349    6
   10      0.320D-05      0.192D-06       -78.61914813    148.903304   -0.02697   -0.04858    0.12351    7

 Final alpha occupancy:   9
 Final beta  occupancy:   8

 !UKS STATE 1.1 Energy                -78.619148131040
 Nuclear energy                        36.98165179
 One-electron energy                 -177.94249841
 Two-electron energy                   74.45165195
 Density functional                   -12.10995347     B88=-12.10995347
 Virial quotient                       -0.99949830
 !UKS STATE 1.1 Dipole moment          -0.02696931    -0.04857987     0.12350834
 Dipole moment /Debye                  -0.06854467    -0.12346962     0.31390633

 Orbital energies for positive spin:

         1.1          2.1          3.1          4.1          5.1          6.1          7.1          8.1          9.1         10.1
     -9.885058    -9.872855    -0.652683    -0.516561    -0.373098    -0.338590    -0.317518    -0.286027    -0.145265    -0.007622

        11.1
      0.008907

 Orbital energies for negative spin:

         1.1          2.1          3.1          4.1          5.1          6.1          7.1          8.1          9.1         10.1
     -9.873841    -9.869682    -0.635308    -0.491685    -0.365314    -0.325704    -0.307600    -0.280804    -0.045102    -0.003928

        11.1
      0.012514

 HOMO      9.1    -0.145265 =      -3.9529eV
 LUMO     -9.1    -0.045102 =      -1.2273eV
 LUMO-HOMO         0.100164 =       2.7256eV

 EXPECTATION VALUE OF S**2:             0.75627017

 Occupation number threshold for canonical orbitals:  1.999000 (occupied),  0.001000 (virtual)

 Number of pseudo-canonical orbitals per symmetry:    7
 Number of active natural orbitals per symmetry:      3

 Natural orbitals saved to record    2200.2 (Orbital set 3)

 Orbital spaces for UNO-CAS (Min. occupation: 0.020  Max. occupation: 1.980):

 Closed:        8
 Active:        1


 **********************************************************************************************************************************
 DATASETS  * FILE   NREC   LENGTH (MB)   RECORD NAMES
              1      20     1134.47       500      610      700      900      950      970     1000      129      960     1100   
                                          VAR    BASINP    GEOM    SYMINP    ZMAT    AOBASIS   BASIS     P2S    ABASIS      S 
                                         1400     1410     1200     1210     1080     1600     1650     1300     1700     1800   
                                           T        V       H0       H01     AOSYM     SMH    MOLCAS    ERIS     OPER     GRID   

              2       5        4.61       700     1000      520     1800     2200   
                                         GEOM     BASIS   MCVARS    GRID      UKS  

 PROGRAMS   *        TOTAL       UKS       INT
 CPU TIMES  *        55.60     38.76     16.71
 REAL TIME  *       256.45 SEC
 DISK USED  *         3.90 GB      
 **********************************************************************************************************************************


 PROGRAM * Intrinsic Basis Bonding Analysis (IBBA)          Author: G. Knizia

 Molecular orbitals read from record     2200.2  Type=UKS/ALPHA (state 1.1)
 Fock matrix read from record            2200.2  Type=UKS/TOTAL (state 1.1)
 Orbital energies read from record       2200.2  Type=UKS/ALPHA (state 1.1)
 Density matrix read from record         2200.2  Type=UKS/CHARGE (state 1.1)

 Number of core orbitals:           2 (   2 )
 Number of closed-shell orbitals:   6 (   6 )
 Number of active  orbitals:        1 (   1 )

 Basis set MINAO-AUTO-PP generated.      Number of basis functions:   15 

 Polarized AO type:                A = (O Ot + (1-O)(1-Ot)) P12
 Orthogonalization method:         Symmetric (Loewdin)
 Localization functional:          L = sum[A,i] <i|n_A|i>^4 -> max

 Localization group 1:   8 orbitals, occupancy  2.000
 Iterative localization: IB/PM,    6 iter; Final gradient 0.24E-08

 Bond order analysis:       [THRPRINT= 0.020]

   CEN ATOM   CEN ATOM     WIBERG.BO      RENORM.BO
     1   C  -   2   C       1.248528       2.020829
     1   C  -   7   H       0.955705       0.982539
     1   C  -   4   H       0.955692       0.982432
     1   C  -   5   H       0.098861       0.623609
     1   C  -   6   H       0.023796       0.135763
     1   C  -   3   H       0.021739       0.123533

     2   C  -   1   C       1.248528       2.020829
     2   C  -   3   H       0.935463       0.988157
     2   C  -   6   H       0.932844       0.988388
     2   C  -   5   H       0.838714       0.998368

     3   H  -   2   C       0.935463       0.988157
     3   H  -   1   C       0.021739       0.123533

     4   H  -   1   C       0.955692       0.982432

     5   H  -   2   C       0.838714       0.998368
     5   H  -   1   C       0.098861       0.623609

     6   H  -   2   C       0.932844       0.988388
     6   H  -   1   C       0.023796       0.135763

     7   H  -   1   C       0.955705       0.982539


 Valency analysis:

   CEN ATOM   TOT.VALENCE
     1   C       3.304322
     2   C       3.957441
     3   H       0.976020
     4   H       0.970822
     5   H       0.950204
     6   H       0.975460
     7   H       0.970768
 Localization group 2:   1 orbitals, occupancy  1.000
 Iterative localization: IB/PM,    1 iter; Final gradient 0.00E+00

 Bond order analysis:       [THRPRINT= 0.020]

   CEN ATOM   CEN ATOM     WIBERG.BO      RENORM.BO
     1   C  -   5   H       0.126099       0.500000
     1   C  -   2   C       0.035102       0.500000
     1   C  -   6   H       0.028307       0.500000
     1   C  -   3   H       0.025785       0.500000

     2   C  -   1   C       0.035102       0.500000

     3   H  -   1   C       0.025785       0.500000


     5   H  -   1   C       0.126099       0.500000

     6   H  -   1   C       0.028307       0.500000



 Valency analysis:

   CEN ATOM   TOT.VALENCE
     1   C       0.216508
     2   C       0.039246
     3   H       0.028986
     4   H       0.000691
     5   H       0.133519
     6   H       0.031774
     7   H       0.000695

 Total charge composition:

   CEN ATOM         s          p       ELECTRONS ->P.CHARGE
     1   C       3.11467    3.34203      6.45670   -0.45670
     2   C       3.01341    3.30285      6.31626   -0.31626
     3   H       0.85985                 0.85985    0.14015
     4   H       0.82953                 0.82953    0.17047
     5   H       0.84878                 0.84878    0.15122
     6   H       0.85950                 0.85950    0.14050
     7   H       0.82937                 0.82937    0.17063

 Total charge composition, AO contributions:

   CEN ATOM SHL      SPHERICAL COMPONENTS
     1   C  1s       1.99243
     1   C  2s       1.12224
     1   C  2p       1.15995    1.10271    1.07937

     2   C  1s       1.99107
     2   C  2s       1.02235
     2   C  2p       1.14637    1.12410    1.03238

     3   H  1s       0.85985

     4   H  1s       0.82953

     5   H  1s       0.84878

     6   H  1s       0.85950

     7   H  1s       0.82937

 Active orbital charges:

   CEN ATOM         s          p       ELECTRONS ->SPIN.DEN
     1   C       0.00211    0.87438      0.87649    0.87649
     2   C       0.00006    0.01996      0.02002    0.02002
     3   H       0.01471                 0.01471    0.01471
     4   H       0.00035                 0.00035    0.00035
     5   H       0.07193                 0.07193    0.07193
     6   H       0.01615                 0.01615    0.01615
     7   H       0.00035                 0.00035    0.00035

 Active orbital charges, AO contributions:

   CEN ATOM SHL      SPHERICAL COMPONENTS
     1   C  1s       0.00000
     1   C  2s       0.00210
     1   C  2p       0.20099    0.67128    0.00211

     2   C  1s       0.00000
     2   C  2s       0.00006
     2   C  2p       0.00456    0.01527    0.00013

     3   H  1s       0.01471

     4   H  1s       0.00035

     5   H  1s       0.07193

     6   H  1s       0.01615

     7   H  1s       0.00035

 Summary of localized orbital composition:   [THRPRINT= 0.020]

   ORB  GRP  ORB.ENERGY      CENTERS/CHARGES
     1   1    -9.769799      C  1   2.000
     2   1    -9.759117      C  2   2.000
     3   1    -0.511688      C  1   1.030   C  2   0.969
     4   1    -0.444294      C  1   1.171   H  7   0.823
     5   1    -0.444246      C  1   1.171   H  4   0.823
     6   1    -0.422773      C  2   1.083   H  5   0.772   C  1   0.141
     7   1    -0.419582      C  2   1.118   H  6   0.839   C  1   0.035
     8   1    -0.419462      C  2   1.119   H  3   0.841   C  1   0.032
     9   2    -0.092472      C  1   0.876   H  5   0.072   C  2   0.020   (other: 0.032)

 Localized orbitals saved to record      2200.2  (orbital set 4)


 **********************************************************************************************************************************
 DATASETS  * FILE   NREC   LENGTH (MB)   RECORD NAMES
              1      20     1134.47       500      610      700      900      950      970     1000      129      960     1100   
                                          VAR    BASINP    GEOM    SYMINP    ZMAT    AOBASIS   BASIS     P2S    ABASIS      S 
                                         1400     1410     1200     1210     1080     1600     1650     1300     1700     1800   
                                           T        V       H0       H01     AOSYM     SMH    MOLCAS    ERIS     OPER     GRID   

              2       5        4.96       700     1000      520     1800     2200   
                                         GEOM     BASIS   MCVARS    GRID      UKS  

 PROGRAMS   *        TOTAL      IBBA       UKS       INT
 CPU TIMES  *        55.64      0.04     38.76     16.71
 REAL TIME  *       256.62 SEC
 DISK USED  *         3.90 GB      
 **********************************************************************************************************************************
 Molecular orbitals read from record     2200.2  Type=UKS/LOCAL(IBO)  
 Occupation numbers read from record     2200.2  Type=UKS/LOCAL(IBO)  
 Orbital energies read from record       2200.2  Type=UKS/LOCAL(IBO)  
 Redundancy group numbers read from rec  2200.2  Type=UKS/BETA (state 1.1)

 IBBA/aug-cc-pVTZ energy=      0.000000000000

        UKS-SCF 
    -78.61914813
 **********************************************************************************************************************************
 Molpro calculation terminated
