
 Primary working directories    : /local
 Secondary working directories  : /local
 Wavefunction directory         : /local/
 Main file repository           : /local/

 SHA1      : b4a5b34a9e711420743f49e6833241d17c61fb3c
 NAME      : 2099.9.b4a5b34
 ARCHNAME  : linux/x86_64_openmp
 FC        : /cm/shared/languages/GCC-6.1/bin/gfortran
 BLASLIB   : -lblas
 id        : simonbennie

 Nodes     nprocs
 node34-024    1

 Using customized tuning parameters: mindgm=1; mindgv=20; mindgc=4; mindgr=1; noblas=0; minvec=7
 default implementation of scratch files=df  

 memory,500,m
 geomtyp=xyz
 nosym
 noorient
 geometry={
 C          0.00000        0.00000        0.00000
 C          0.00000        0.00000        1.52618
 H          1.01607        0.00000        1.92140
 H          0.50960       -0.87904       -0.39522
 H         -0.50803       -0.87994        1.92140
 H         -0.50804        0.87994        1.92140
 H         -1.01607       -0.00180       -0.39522
 H          0.50647        0.88084       -0.39522
 }
 basis={ default,avdz }
 {uks,S,direct;wf,18,1,0}
 {ibba,bonds=1}

 Variables initialized (895), CPU time= 0.01 sec
 Commands  initialized (725), CPU time= 0.01 sec, 591 directives.
 Default parameters read. Elapsed time= 0.08 sec

 Checking input...
 Passed
1


                                         ***  PROGRAM SYSTEM MOLPRO  ***
                                       Copyright, TTI GmbH Stuttgart, 2015
                                    Version 2099.9 linked May 26 2017 16:03:21


 **********************************************************************************************************************************
 LABEL *                                                                                 
  64 bit serial version                                                                  DATE: 19-Jun-17          TIME: 16:08:59  
 **********************************************************************************************************************************

 SHA1:             b4a5b34a9e711420743f49e6833241d17c61fb3c
 **********************************************************************************************************************************
 SETTING GEOMTYP        =    XYZ

 Variable memory set to  500000000 words,  buffer space 

 ZSYMEL=NOSYM

 SETTING BASIS          =    AVDZ


 Recomputing integrals since basis changed


 Using spherical harmonics

 Library entry C      S aug-cc-pVDZ          selected for orbital group  1
 Library entry C      P aug-cc-pVDZ          selected for orbital group  1
 Library entry C      D aug-cc-pVDZ          selected for orbital group  1
 Library entry H      S aug-cc-pVDZ          selected for orbital group  2
 Library entry H      P aug-cc-pVDZ          selected for orbital group  2


 PROGRAM * SEWARD (Integral evaluation for generally contracted gaussian basis sets)     Author: Roland Lindh, 1990

 Geometry written to block  1 of record 700


 Point group  C1  



 ATOMIC COORDINATES

 NR  ATOM    CHARGE       X              Y              Z

   1  C       6.00    0.000000000    0.000000000    0.000000000
   2  C       6.00    0.000000000    0.000000000    2.884062217
   3  H       1.00    1.920094023    0.000000000    3.630919776
   4  H       1.00    0.963004433   -1.661144853   -0.746857559
   5  H       1.00   -0.960037563   -1.662845606    3.630919776
   6  H       1.00   -0.960056460    1.662845606    3.630919776
   7  H       1.00   -1.920094023   -0.003401507   -0.746857559
   8  H       1.00    0.957089590    1.664546360   -0.746857559

 Bond lengths in Bohr (Angstrom)

 1-2  2.884062217  1-4  2.060236873  1-7  2.060235142  1-8  2.060226027  2-3  2.060232334
     ( 1.526180000)     ( 1.090230402)     ( 1.090229487)     ( 1.090224663)     ( 1.090228001)

 2-5  2.060224222  2-6  2.060233028
     ( 1.090223708)     ( 1.090228368)

 Bond angles

  1-2-3  111.25450558   1-2-5  111.25459334   1-2-6  111.25449808   2-1-4  111.25445649

  2-1-7  111.25447521   2-1-8  111.25457382   3-2-5  107.63037788   3-2-6  107.63081399

  4-1-7  107.63089667   4-1-8  107.63044521   5-2-6  107.63041223   7-1-8  107.63035952

 NUCLEAR CHARGE:                   18
 NUMBER OF PRIMITIVE AOS:         140
 NUMBER OF SYMMETRY AOS:          136
 NUMBER OF CONTRACTIONS:          100   ( 100A   )
 NUMBER OF CORE ORBITALS:           2   (   2A   )
 NUMBER OF VALENCE ORBITALS:       14   (  14A   )


 NUCLEAR REPULSION ENERGY   42.29536783


 Eigenvalues of metric

         1 0.187E-03 0.286E-03 0.487E-03 0.487E-03 0.767E-03 0.767E-03 0.880E-03 0.104E-02


 Contracted 2-electron integrals neglected if value below      1.0D-11
 AO integral compression algorithm  1   Integral accuracy      1.0D-11

     63.439 MB (compressed) written to integral file ( 52.5%)


 NUMBER OF SORTED TWO-ELECTRON INTEGRALS:   12753775.     BUFFER LENGTH:  32768
 NUMBER OF SEGMENTS:   1  SEGMENT LENGTH:   12753775      RECORD LENGTH: 524288

 Memory used in sort:      13.31 MW

 SORT1 READ    15130470. AND WROTE    11929754. INTEGRALS IN     35 RECORDS. CPU TIME:     0.15 SEC, REAL TIME:     0.36 SEC
 SORT2 READ    11929754. AND WROTE    12753775. INTEGRALS IN    242 RECORDS. CPU TIME:     0.36 SEC, REAL TIME:     0.48 SEC

 FILE SIZES:   FILE 1:    93.9 MBYTE,  FILE 4:   146.8 MBYTE,   TOTAL:    240.7 MBYTE

 OPERATOR DM      FOR CENTER  0  COORDINATES:    0.000000    0.000000    0.000000


 **********************************************************************************************************************************
 DATASETS  * FILE   NREC   LENGTH (MB)   RECORD NAMES
              1      19       85.60       500      610      700      900      950      970     1000      129      960     1100   
                                          VAR    BASINP    GEOM    SYMINP    ZMAT    AOBASIS   BASIS     P2S    ABASIS      S 
                                         1400     1410     1200     1210     1080     1600     1650     1300     1700   
                                           T        V       H0       H01     AOSYM     SMH    MOLCAS    ERIS     OPER   

 PROGRAMS   *        TOTAL       INT
 CPU TIMES  *         1.63      1.49
 REAL TIME  *         2.46 SEC
 DISK USED  *       241.13 MB      
 **********************************************************************************************************************************

 Density functional group S=DIRAC
 Functional: DIRAC(Automatically generated (new) DIRAC)                        Gradient terms: 0
 Use grid at  1800.2

 Functional: DIRAC                     Factor:  1.0000

 Generated new metagrid on record  1800.2 with target accuracy 1.0D-06 and 25096 points in CPU time    0.6
 Computed new grid on record 1800.1 in CPU time    0.7
   45344 words reserved for DFT integration

 PROGRAM * UKS-SCF (Unrestricted Kohn-Sham)     Authors: W. Meyer, H.-J. Werner, P.J. Knowles, 1993

 NUMBER OF ELECTRONS:       9+    9-    SPACE SYMMETRY=1    SPIN SYMMETRY: Singlet 
 CONVERGENCE THRESHOLDS:    1.00E-05 (Density)    1.00E-06 (Energy)
 MAX. NUMBER OF ITERATIONS:       60
 INTERPOLATION TYPE:            DIIS
 INTERPOLATION STEPS:              2 (START)      1 (STEP)
 LEVEL SHIFTS:                 -0.20 (ALPHA)  -0.20 (BETA) 



 Use fine grid record 1800.2 for energy threshold  1.0D-06
 Orbital guess generated from atomic densities. Full valence occupancy:   16

 Molecular orbital dump at record        2200.2

 Initial alpha occupation   9
 Initial beta  occupation   9

 ITERATION    DDIFF          GRAD             ENERGY        2-EL.EN.            DIPOLE MOMENTS         DIIS
    1      0.000D+00      0.000D+00       -77.77751212    168.077781   -0.00001    0.00001   -0.00000    0
    2      0.285D-01      0.553D-02       -77.90980509    156.820041   -0.00001    0.00001    0.00000    1
    3      0.117D-01      0.294D-02       -77.94922072    160.092104   -0.00001    0.00001    0.00000    2
    4      0.253D-02      0.215D-03       -77.94976618    159.972394   -0.00001    0.00001    0.00000    3
    5      0.937D-03      0.793D-04       -77.94986812    159.945129   -0.00001    0.00001    0.00000    4
    6      0.397D-03      0.249D-04       -77.94988358    159.929376   -0.00001    0.00001    0.00000    5
    7      0.153D-03      0.488D-05       -77.94988425    159.927855   -0.00001    0.00001    0.00000    6
    8      0.255D-04      0.629D-06       -77.94988426    159.927876   -0.00001    0.00001    0.00000    5
    9      0.618D-05      0.136D-06       -77.94988426    159.927733   -0.00001    0.00001    0.00000    6
   10      0.879D-06      0.717D-07       -77.94988426    159.927835   -0.00001    0.00001    0.00000    6

 Final alpha occupancy:   9
 Final beta  occupancy:   9

 !UKS STATE 1.1 Energy                -77.949884263510
 Nuclear energy                        42.29536783
 One-electron energy                 -189.07089220
 Two-electron energy                   79.96391750
 Density functional                   -11.13827739     DIRAC=-11.13827739
 Virial quotient                       -0.98934247
 !UKS STATE 1.1 Dipole moment          -0.00000818     0.00000870     0.00000056
 Dipole moment /Debye                  -0.00002078     0.00002211     0.00000143

 Orbital energies for positive spin:

         1.1          2.1          3.1          4.1          5.1          6.1          7.1          8.1          9.1         10.1
     -9.695009    -9.694946    -0.633387    -0.502807    -0.342793    -0.342791    -0.283253    -0.251036    -0.251035     0.002885

        11.1
      0.023613

 Orbital energies for negative spin:

         1.1          2.1          3.1          4.1          5.1          6.1          7.1          8.1          9.1         10.1
     -9.695009    -9.694946    -0.633387    -0.502807    -0.342793    -0.342791    -0.283253    -0.251036    -0.251035     0.002885

        11.1
      0.023613

 HOMO      9.1    -0.251035 =      -6.8310eV
 LUMO     10.1     0.002885 =       0.0785eV
 LUMO-HOMO         0.253920 =       6.9095eV

 EXPECTATION VALUE OF S**2:             0.00000000

 Natural orbitals saved to record    2200.2 (Orbital set 3)

 Orbital spaces for UNO-CAS (Min. occupation: 0.020  Max. occupation: 1.980):

 Closed:        9
 Active:        0


 **********************************************************************************************************************************
 DATASETS  * FILE   NREC   LENGTH (MB)   RECORD NAMES
              1      20       86.40       500      610      700      900      950      970     1000      129      960     1100   
                                          VAR    BASINP    GEOM    SYMINP    ZMAT    AOBASIS   BASIS     P2S    ABASIS      S 
                                         1400     1410     1200     1210     1080     1600     1650     1300     1700     1800   
                                           T        V       H0       H01     AOSYM     SMH    MOLCAS    ERIS     OPER     GRID   

              2       5        3.29       700     1000      520     1800     2200   
                                         GEOM     BASIS   MCVARS    GRID      UKS  

 PROGRAMS   *        TOTAL       UKS       INT
 CPU TIMES  *         8.08      6.45      1.49
 REAL TIME  *         9.91 SEC
 DISK USED  *       241.13 MB      
 **********************************************************************************************************************************


 PROGRAM * Intrinsic Basis Bonding Analysis (IBBA)          Author: G. Knizia

 Molecular orbitals read from record     2200.2  Type=UKS/ALPHA (state 1.1)
 Fock matrix read from record            2200.2  Type=UKS/TOTAL (state 1.1)
 Orbital energies read from record       2200.2  Type=UKS/ALPHA (state 1.1)
 Density matrix read from record         2200.2  Type=UKS/CHARGE (state 1.1)

 Number of core orbitals:           2 (   2 )
 Number of closed-shell orbitals:   7 (   7 )

 Basis set MINAO-AUTO-PP generated.      Number of basis functions:   16 

 Polarized AO type:                A = (O Ot + (1-O)(1-Ot)) P12
 Orthogonalization method:         Symmetric (Loewdin)
 Localization functional:          L = sum[A,i] <i|n_A|i>^4 -> max

 Localization group 1:   9 orbitals, occupancy  2.000
 Iterative localization: IB/PM,    7 iter; Final gradient 0.26E-09

 Bond order analysis:       [THRPRINT= 0.020]

   CEN ATOM   CEN ATOM     WIBERG.BO      RENORM.BO
     1   C  -   2   C       1.048078       1.037347
     1   C  -   4   H       0.957590       0.982306
     1   C  -   8   H       0.957589       0.982306
     1   C  -   7   H       0.957586       0.982308

     2   C  -   1   C       1.048078       1.037347
     2   C  -   6   H       0.957589       0.982306
     2   C  -   5   H       0.957589       0.982306
     2   C  -   3   H       0.957585       0.982308

     3   H  -   2   C       0.957585       0.982308

     4   H  -   1   C       0.957590       0.982306

     5   H  -   2   C       0.957589       0.982306

     6   H  -   2   C       0.957589       0.982306

     7   H  -   1   C       0.957586       0.982308

     8   H  -   1   C       0.957589       0.982306


 Valency analysis:

   CEN ATOM   TOT.VALENCE
     1   C       3.924085
     2   C       3.924083
     3   H       0.978121
     4   H       0.978127
     5   H       0.978126
     6   H       0.978126
     7   H       0.978121
     8   H       0.978126

 Total charge composition:

   CEN ATOM         s          p       ELECTRONS ->P.CHARGE
     1   C       3.02156    3.42215      6.44371   -0.44371
     2   C       3.02156    3.42215      6.44372   -0.44372
     3   H       0.85208                 0.85208    0.14792
     4   H       0.85211                 0.85211    0.14789
     5   H       0.85210                 0.85210    0.14790
     6   H       0.85210                 0.85210    0.14790
     7   H       0.85208                 0.85208    0.14792
     8   H       0.85210                 0.85210    0.14790

 Total charge composition, AO contributions:

   CEN ATOM SHL      SPHERICAL COMPONENTS
     1   C  1s       1.99207
     1   C  2s       1.02949
     1   C  2p       1.18163    1.18162    1.05889

     2   C  1s       1.99207
     2   C  2s       1.02949
     2   C  2p       1.18163    1.18163    1.05889

     3   H  1s       0.85208

     4   H  1s       0.85211

     5   H  1s       0.85210

     6   H  1s       0.85210

     7   H  1s       0.85208

     8   H  1s       0.85210

 Summary of localized orbital composition:   [THRPRINT= 0.020]

   ORB  GRP  ORB.ENERGY      CENTERS/CHARGES
     1   1    -9.584582      C  1   2.000
     2   1    -9.584580      C  2   2.000
     3   1    -0.465183      C  1   0.998   C  2   0.998
     4   1    -0.393786      C  1   1.145   H  8   0.846
     5   1    -0.393786      C  2   1.145   H  5   0.846
     6   1    -0.393784      C  1   1.145   H  4   0.846
     7   1    -0.393784      C  2   1.145   H  6   0.846
     8   1    -0.393781      C  1   1.145   H  7   0.846
     9   1    -0.393781      C  2   1.145   H  3   0.846

 Localized orbitals saved to record      2200.2  (orbital set 4)


 **********************************************************************************************************************************
 DATASETS  * FILE   NREC   LENGTH (MB)   RECORD NAMES
              1      20       86.40       500      610      700      900      950      970     1000      129      960     1100   
                                          VAR    BASINP    GEOM    SYMINP    ZMAT    AOBASIS   BASIS     P2S    ABASIS      S 
                                         1400     1410     1200     1210     1080     1600     1650     1300     1700     1800   
                                           T        V       H0       H01     AOSYM     SMH    MOLCAS    ERIS     OPER     GRID   

              2       5        3.37       700     1000      520     1800     2200   
                                         GEOM     BASIS   MCVARS    GRID      UKS  

 PROGRAMS   *        TOTAL      IBBA       UKS       INT
 CPU TIMES  *         8.11      0.02      6.45      1.49
 REAL TIME  *        10.05 SEC
 DISK USED  *       241.13 MB      
 **********************************************************************************************************************************
 Molecular orbitals read from record     2200.2  Type=UKS/LOCAL(IBO)  
 Occupation numbers read from record     2200.2  Type=UKS/LOCAL(IBO)  
 Orbital energies read from record       2200.2  Type=UKS/LOCAL(IBO)  
 Redundancy group numbers read from rec  2200.2  Type=UKS/BETA (state 1.1)

 IBBA/aug-cc-pVDZ energy=      0.000000000000

        UKS-SCF 
    -77.94988426
 **********************************************************************************************************************************
 Molpro calculation terminated
