
 Primary working directories    : /local
 Secondary working directories  : /local
 Wavefunction directory         : /local/
 Main file repository           : /local/

 SHA1      : b4a5b34a9e711420743f49e6833241d17c61fb3c
 NAME      : 2099.9.b4a5b34
 ARCHNAME  : linux/x86_64_openmp
 FC        : /cm/shared/languages/GCC-6.1/bin/gfortran
 BLASLIB   : -lblas
 id        : simonbennie

 Nodes     nprocs
 node34-013    1

 Using customized tuning parameters: mindgm=1; mindgv=20; mindgc=4; mindgr=1; noblas=0; minvec=7
 default implementation of scratch files=df  

 memory,500,m
 geomtyp=xyz
 nosym
 noorient
 geometry={
 C          0.00000        0.00000        0.00000
 C          0.00000        0.00000        1.52618
 H          1.01607        0.00000        1.92140
 H          0.50960       -0.87904       -0.39522
 H         -0.50803       -0.87994        1.92140
 H         -0.50804        0.87994        1.92140
 H         -1.01607       -0.00180       -0.39522
 H          0.50647        0.88084       -0.39522
 }
 basis={ default,tzvp }
 {uks,HFB,direct;wf,18,1,0}
 {ibba,bonds=1}

 Variables initialized (895), CPU time= 0.00 sec
 Commands  initialized (725), CPU time= 0.02 sec, 591 directives.
 Default parameters read. Elapsed time= 0.08 sec

 Checking input...
 Passed
1


                                         ***  PROGRAM SYSTEM MOLPRO  ***
                                       Copyright, TTI GmbH Stuttgart, 2015
                                    Version 2099.9 linked May 26 2017 16:03:21


 **********************************************************************************************************************************
 LABEL *                                                                                 
  64 bit serial version                                                                  DATE: 19-Jun-17          TIME: 15:30:36  
 **********************************************************************************************************************************

 SHA1:             b4a5b34a9e711420743f49e6833241d17c61fb3c
 **********************************************************************************************************************************
 SETTING GEOMTYP        =    XYZ

 Variable memory set to  500000000 words,  buffer space 

 ZSYMEL=NOSYM

 SETTING BASIS          =    TZVP


 Recomputing integrals since basis changed


 Using spherical harmonics

 Library entry C      S def2-TZVP            selected for orbital group  1
 Library entry C      P def2-TZVP            selected for orbital group  1
 Library entry C      D def2-TZVP            selected for orbital group  1
 Library entry C      F def2-TZVP            selected for orbital group  1
 Library entry H      S def2-TZVP            selected for orbital group  2
 Library entry H      P def2-TZVP            selected for orbital group  2


 PROGRAM * SEWARD (Integral evaluation for generally contracted gaussian basis sets)     Author: Roland Lindh, 1990

 Geometry written to block  1 of record 700


 Point group  C1  



 ATOMIC COORDINATES

 NR  ATOM    CHARGE       X              Y              Z

   1  C       6.00    0.000000000    0.000000000    0.000000000
   2  C       6.00    0.000000000    0.000000000    2.884062217
   3  H       1.00    1.920094023    0.000000000    3.630919776
   4  H       1.00    0.963004433   -1.661144853   -0.746857559
   5  H       1.00   -0.960037563   -1.662845606    3.630919776
   6  H       1.00   -0.960056460    1.662845606    3.630919776
   7  H       1.00   -1.920094023   -0.003401507   -0.746857559
   8  H       1.00    0.957089590    1.664546360   -0.746857559

 Bond lengths in Bohr (Angstrom)

 1-2  2.884062217  1-4  2.060236873  1-7  2.060235142  1-8  2.060226027  2-3  2.060232334
     ( 1.526180000)     ( 1.090230402)     ( 1.090229487)     ( 1.090224663)     ( 1.090228001)

 2-5  2.060224222  2-6  2.060233028
     ( 1.090223708)     ( 1.090228368)

 Bond angles

  1-2-3  111.25450558   1-2-5  111.25459334   1-2-6  111.25449808   2-1-4  111.25445649

  2-1-7  111.25447521   2-1-8  111.25457382   3-2-5  107.63037788   3-2-6  107.63081399

  4-1-7  107.63089667   4-1-8  107.63044521   5-2-6  107.63041223   7-1-8  107.63035952

 NUCLEAR CHARGE:                   18
 NUMBER OF PRIMITIVE AOS:         150
 NUMBER OF SYMMETRY AOS:          140
 NUMBER OF CONTRACTIONS:           98   (  98A   )
 NUMBER OF CORE ORBITALS:           2   (   2A   )
 NUMBER OF VALENCE ORBITALS:       14   (  14A   )


 NUCLEAR REPULSION ENERGY   42.29536783


 Eigenvalues of metric

         1 0.565E-03 0.875E-03 0.185E-02 0.558E-02 0.558E-02 0.672E-02 0.740E-02 0.740E-02


 Contracted 2-electron integrals neglected if value below      1.0D-11
 AO integral compression algorithm  1   Integral accuracy      1.0D-11

     47.710 MB (compressed) written to integral file ( 43.7%)


 NUMBER OF SORTED TWO-ELECTRON INTEGRALS:   11768526.     BUFFER LENGTH:  32768
 NUMBER OF SEGMENTS:   1  SEGMENT LENGTH:   11768526      RECORD LENGTH: 524288

 Memory used in sort:      12.33 MW

 SORT1 READ    13585161. AND WROTE     9737750. INTEGRALS IN     28 RECORDS. CPU TIME:     0.14 SEC, REAL TIME:     0.29 SEC
 SORT2 READ     9737750. AND WROTE    11768526. INTEGRALS IN    182 RECORDS. CPU TIME:     0.35 SEC, REAL TIME:     0.44 SEC

 FILE SIZES:   FILE 1:    78.2 MBYTE,  FILE 4:   117.5 MBYTE,   TOTAL:    195.6 MBYTE

 OPERATOR DM      FOR CENTER  0  COORDINATES:    0.000000    0.000000    0.000000


 **********************************************************************************************************************************
 DATASETS  * FILE   NREC   LENGTH (MB)   RECORD NAMES
              1      19       72.54       500      610      700      900      950      970     1000      129      960     1100   
                                          VAR    BASINP    GEOM    SYMINP    ZMAT    AOBASIS   BASIS     P2S    ABASIS      S 
                                         1400     1410     1200     1210     1080     1600     1650     1300     1700   
                                           T        V       H0       H01     AOSYM     SMH    MOLCAS    ERIS     OPER   

 PROGRAMS   *        TOTAL       INT
 CPU TIMES  *         1.76      1.60
 REAL TIME  *         2.43 SEC
 DISK USED  *       196.03 MB      
 **********************************************************************************************************************************

 Density functional group HFB=B88
 Functional: B88(Automatically generated (new) B88)                            Gradient terms: 1
 Use grid at  1800.2

 Functional: B88                       Factor:  1.0000

 Generated new metagrid on record  1800.2 with target accuracy 1.0D-06 and 25552 points in CPU time    0.6
 Computed new grid on record 1800.1 in CPU time    0.7
   81866 words reserved for DFT integration

 PROGRAM * UKS-SCF (Unrestricted Kohn-Sham)     Authors: W. Meyer, H.-J. Werner, P.J. Knowles, 1993

 NUMBER OF ELECTRONS:       9+    9-    SPACE SYMMETRY=1    SPIN SYMMETRY: Singlet 
 CONVERGENCE THRESHOLDS:    1.00E-05 (Density)    1.00E-06 (Energy)
 MAX. NUMBER OF ITERATIONS:       60
 INTERPOLATION TYPE:            DIIS
 INTERPOLATION STEPS:              2 (START)      1 (STEP)
 LEVEL SHIFTS:                 -0.20 (ALPHA)  -0.20 (BETA) 



 Use fine grid record 1800.2 for energy threshold  1.0D-06
 Orbital guess generated from atomic densities. Full valence occupancy:    9

 Molecular orbital dump at record        2200.2

 Initial alpha occupation   9
 Initial beta  occupation   9

 ITERATION    DDIFF          GRAD             ENERGY        2-EL.EN.            DIPOLE MOMENTS         DIIS
    1      0.000D+00      0.000D+00       -79.07300244    168.595558   -0.00001    0.00001   -0.00000    0
    2      0.790D-02      0.581D-02       -79.20741500    157.264202   -0.00001    0.00001    0.00000    1
    3      0.244D-02      0.311D-02       -79.24643437    160.525833   -0.00001    0.00001    0.00000    2
    4      0.721D-03      0.240D-03       -79.24694126    160.440560   -0.00001    0.00001    0.00000    3
    5      0.520D-03      0.808D-04       -79.24702617    160.414380   -0.00001    0.00001    0.00000    4
    6      0.274D-03      0.201D-04       -79.24703395    160.405328   -0.00001    0.00001    0.00000    5
    7      0.626D-04      0.369D-05       -79.24703426    160.405201   -0.00001    0.00001    0.00000    6
    8      0.101D-04      0.685D-06       -79.24703427    160.404953   -0.00001    0.00001    0.00000    5
    9      0.925D-06      0.931D-07       -79.24703427    160.405058   -0.00001    0.00001    0.00000    5
   10      0.124D-06      0.348D-07       -79.24703427    160.405004   -0.00001    0.00001    0.00000    5

 Final alpha occupancy:   9
 Final beta  occupancy:   9

 !UKS STATE 1.1 Energy                -79.247034267436
 Nuclear energy                        42.29536783
 One-electron energy                 -189.25823221
 Two-electron energy                   80.20250202
 Density functional                   -12.48667190     B88=-12.48667190
 Virial quotient                       -0.99760480
 !UKS STATE 1.1 Dipole moment          -0.00000810     0.00000862     0.00000119
 Dipole moment /Debye                  -0.00002060     0.00002191     0.00000301

 Orbital energies for positive spin:

         1.1          2.1          3.1          4.1          5.1          6.1          7.1          8.1          9.1         10.1
     -9.859355    -9.859250    -0.645101    -0.518189    -0.354163    -0.354159    -0.291618    -0.269000    -0.268996     0.045044

        11.1
      0.082263

 Orbital energies for negative spin:

         1.1          2.1          3.1          4.1          5.1          6.1          7.1          8.1          9.1         10.1
     -9.859355    -9.859250    -0.645101    -0.518189    -0.354163    -0.354159    -0.291618    -0.269000    -0.268996     0.045044

        11.1
      0.082263

 HOMO      9.1    -0.268996 =      -7.3198eV
 LUMO     10.1     0.045044 =       1.2257eV
 LUMO-HOMO         0.314040 =       8.5455eV

 EXPECTATION VALUE OF S**2:            -0.00000000

 Natural orbitals saved to record    2200.2 (Orbital set 3)

 Orbital spaces for UNO-CAS (Min. occupation: 0.020  Max. occupation: 1.980):

 Closed:        9
 Active:        0


 **********************************************************************************************************************************
 DATASETS  * FILE   NREC   LENGTH (MB)   RECORD NAMES
              1      20       73.36       500      610      700      900      950      970     1000      129      960     1100   
                                          VAR    BASINP    GEOM    SYMINP    ZMAT    AOBASIS   BASIS     P2S    ABASIS      S 
                                         1400     1410     1200     1210     1080     1600     1650     1300     1700     1800   
                                           T        V       H0       H01     AOSYM     SMH    MOLCAS    ERIS     OPER     GRID   

              2       5        3.27       700     1000      520     1800     2200   
                                         GEOM     BASIS   MCVARS    GRID      UKS  

 PROGRAMS   *        TOTAL       UKS       INT
 CPU TIMES  *        10.41      8.65      1.60
 REAL TIME  *        11.38 SEC
 DISK USED  *       196.03 MB      
 **********************************************************************************************************************************


 PROGRAM * Intrinsic Basis Bonding Analysis (IBBA)          Author: G. Knizia

 Molecular orbitals read from record     2200.2  Type=UKS/ALPHA (state 1.1)
 Fock matrix read from record            2200.2  Type=UKS/TOTAL (state 1.1)
 Orbital energies read from record       2200.2  Type=UKS/ALPHA (state 1.1)
 Density matrix read from record         2200.2  Type=UKS/CHARGE (state 1.1)

 Number of core orbitals:           2 (   2 )
 Number of closed-shell orbitals:   7 (   7 )

 Basis set MINAO-AUTO-PP generated.      Number of basis functions:   16 

 Polarized AO type:                A = (O Ot + (1-O)(1-Ot)) P12
 Orthogonalization method:         Symmetric (Loewdin)
 Localization functional:          L = sum[A,i] <i|n_A|i>^4 -> max

 Localization group 1:   9 orbitals, occupancy  2.000
 Iterative localization: IB/PM,    7 iter; Final gradient 0.27E-09

 Bond order analysis:       [THRPRINT= 0.020]

   CEN ATOM   CEN ATOM     WIBERG.BO      RENORM.BO
     1   C  -   2   C       1.047059       1.037131
     1   C  -   4   H       0.965456       0.983365
     1   C  -   8   H       0.965454       0.983365
     1   C  -   7   H       0.965449       0.983367

     2   C  -   1   C       1.047059       1.037131
     2   C  -   6   H       0.965454       0.983365
     2   C  -   5   H       0.965454       0.983365
     2   C  -   3   H       0.965449       0.983367

     3   H  -   2   C       0.965449       0.983367

     4   H  -   1   C       0.965456       0.983365

     5   H  -   2   C       0.965454       0.983365

     6   H  -   2   C       0.965454       0.983365

     7   H  -   1   C       0.965449       0.983367

     8   H  -   1   C       0.965454       0.983365


 Valency analysis:

   CEN ATOM   TOT.VALENCE
     1   C       3.945389
     2   C       3.945387
     3   H       0.983827
     4   H       0.983834
     5   H       0.983833
     6   H       0.983833
     7   H       0.983827
     8   H       0.983833

 Total charge composition:

   CEN ATOM         s          p       ELECTRONS ->P.CHARGE
     1   C       3.02653    3.35494      6.38147   -0.38147
     2   C       3.02653    3.35495      6.38147   -0.38147
     3   H       0.87283                 0.87283    0.12717
     4   H       0.87286                 0.87286    0.12714
     5   H       0.87285                 0.87285    0.12715
     6   H       0.87285                 0.87285    0.12715
     7   H       0.87283                 0.87283    0.12717
     8   H       0.87285                 0.87285    0.12715

 Total charge composition, AO contributions:

   CEN ATOM SHL      SPHERICAL COMPONENTS
     1   C  1s       1.99128
     1   C  2s       1.03524
     1   C  2p       1.15389    1.15388    1.04717

     2   C  1s       1.99128
     2   C  2s       1.03524
     2   C  2p       1.15389    1.15388    1.04717

     3   H  1s       0.87283

     4   H  1s       0.87286

     5   H  1s       0.87285

     6   H  1s       0.87285

     7   H  1s       0.87283

     8   H  1s       0.87285

 Summary of localized orbital composition:   [THRPRINT= 0.020]

   ORB  GRP  ORB.ENERGY      CENTERS/CHARGES
     1   1    -9.746574      C  1   2.000
     2   1    -9.746572      C  2   2.000
     3   1    -0.468858      C  1   0.999   C  2   0.999
     4   1    -0.409642      C  1   1.124   H  8   0.867
     5   1    -0.409642      C  2   1.124   H  5   0.867
     6   1    -0.409640      C  1   1.124   H  4   0.867
     7   1    -0.409640      C  2   1.124   H  6   0.867
     8   1    -0.409636      C  1   1.124   H  7   0.867
     9   1    -0.409636      C  2   1.124   H  3   0.867

 Localized orbitals saved to record      2200.2  (orbital set 4)


 **********************************************************************************************************************************
 DATASETS  * FILE   NREC   LENGTH (MB)   RECORD NAMES
              1      20       73.36       500      610      700      900      950      970     1000      129      960     1100   
                                          VAR    BASINP    GEOM    SYMINP    ZMAT    AOBASIS   BASIS     P2S    ABASIS      S 
                                         1400     1410     1200     1210     1080     1600     1650     1300     1700     1800   
                                           T        V       H0       H01     AOSYM     SMH    MOLCAS    ERIS     OPER     GRID   

              2       5        3.35       700     1000      520     1800     2200   
                                         GEOM     BASIS   MCVARS    GRID      UKS  

 PROGRAMS   *        TOTAL      IBBA       UKS       INT
 CPU TIMES  *        10.44      0.02      8.65      1.60
 REAL TIME  *        11.46 SEC
 DISK USED  *       196.03 MB      
 **********************************************************************************************************************************
 Molecular orbitals read from record     2200.2  Type=UKS/LOCAL(IBO)  
 Occupation numbers read from record     2200.2  Type=UKS/LOCAL(IBO)  
 Orbital energies read from record       2200.2  Type=UKS/LOCAL(IBO)  
 Redundancy group numbers read from rec  2200.2  Type=UKS/BETA (state 1.1)

 IBBA/TZVP energy=      0.000000000000

        UKS-SCF 
    -79.24703427
 **********************************************************************************************************************************
 Molpro calculation terminated
