
 Primary working directories    : /local
 Secondary working directories  : /local
 Wavefunction directory         : /local/
 Main file repository           : /local/

 SHA1      : b4a5b34a9e711420743f49e6833241d17c61fb3c
 NAME      : 2099.9.b4a5b34
 ARCHNAME  : linux/x86_64_openmp
 FC        : /cm/shared/languages/GCC-6.1/bin/gfortran
 BLASLIB   : -lblas
 id        : simonbennie

 Nodes     nprocs
 node34-037    1

 Using customized tuning parameters: mindgm=1; mindgv=20; mindgc=4; mindgr=1; noblas=0; minvec=7
 default implementation of scratch files=df  

 memory,500,m
 geomtyp=xyz
 nosym
 noorient
 geometry={
 C         -2.05564       -0.61227        0.00001
 C         -1.23110        0.64045        0.00005
 C          0.10563        0.73427        0.00003
 C          1.05756       -0.37441       -0.00004
 C          2.38358       -0.19894       -0.00004
 H         -2.70508       -0.64160        0.87713
 H         -2.70513       -0.64151       -0.87709
 H         -1.45133       -1.51608       -0.00006
 H         -1.79367        1.56759        0.00010
 H          0.54576        1.72564        0.00006
 H          0.66526       -1.38324       -0.00011
 H          3.06469       -1.03772       -0.00009
 H          2.81928        0.79229        0.00002
 }
 basis={ default,avdz }
 {ks,B,direct;wf,38,1,0}
 {ibba,bonds=1}

 Variables initialized (895), CPU time= 0.00 sec
 Commands  initialized (725), CPU time= 0.02 sec, 591 directives.
 Default parameters read. Elapsed time= 0.14 sec

 Checking input...
 Passed
1


                                         ***  PROGRAM SYSTEM MOLPRO  ***
                                       Copyright, TTI GmbH Stuttgart, 2015
                                    Version 2099.9 linked May 26 2017 16:03:21


 **********************************************************************************************************************************
 LABEL *                                                                                 
  64 bit serial version                                                                  DATE: 19-Jun-17          TIME: 17:59:39  
 **********************************************************************************************************************************

 SHA1:             b4a5b34a9e711420743f49e6833241d17c61fb3c
 **********************************************************************************************************************************
 SETTING GEOMTYP        =    XYZ

 Variable memory set to  500000000 words,  buffer space 

 ZSYMEL=NOSYM

 SETTING BASIS          =    AVDZ


 Recomputing integrals since basis changed


 Using spherical harmonics

 Library entry C      S aug-cc-pVDZ          selected for orbital group  1
 Library entry C      P aug-cc-pVDZ          selected for orbital group  1
 Library entry C      D aug-cc-pVDZ          selected for orbital group  1
 Library entry H      S aug-cc-pVDZ          selected for orbital group  2
 Library entry H      P aug-cc-pVDZ          selected for orbital group  2


 PROGRAM * SEWARD (Integral evaluation for generally contracted gaussian basis sets)     Author: Roland Lindh, 1990

 Geometry written to block  1 of record 700


 Point group  C1  



 ATOMIC COORDINATES

 NR  ATOM    CHARGE       X              Y              Z

   1  C       6.00   -3.884596611   -1.157022614    0.000018897
   2  C       6.00   -2.326441832    1.210275096    0.000094486
   3  C       6.00    0.199611771    1.387569201    0.000056692
   4  C       6.00    1.998498760   -0.707532358   -0.000075589
   5  C       6.00    4.504313396   -0.375942115   -0.000075589
   6  H       1.00   -5.111860345   -1.212448282    1.657535476
   7  H       1.00   -5.111954831   -1.212278206   -1.657459887
   8  H       1.00   -2.742616216   -2.864975983   -0.000113384
   9  H       1.00   -3.389545058    2.962315776    0.000188973
  10  H       1.00    1.031336930    3.260986990    0.000113384
  11  H       1.00    1.257159202   -2.613944765   -0.000207870
  12  H       1.00    5.791424757   -1.961006594   -0.000170075
  13  H       1.00    5.327667068    1.497211111    0.000037795

 Bond lengths in Bohr (Angstrom)

 1-2  2.834068590  1-6  2.063155226  1-7  2.063176508  1-8  2.054561741  2-3  2.532267759
     ( 1.499724512)     ( 1.091774728)     ( 1.091785990)     ( 1.087227252)     ( 1.340018390)

  2- 9  2.049349902   3- 4  2.761420824   3-10  2.049746558   4- 5  2.527658814   4-11  2.045481024
       ( 1.084469265)       ( 1.461280970)       ( 1.084679167)       ( 1.337579441)       ( 1.082421944)

  5-12  2.041833751   5-13  2.046121769
       ( 1.080491889)       ( 1.082761011)

 Bond angles

  1-2-3  127.36769203   1-2-9  115.39855901   2-1-6  110.45444535   2-1-7  110.45417453

  2- 1- 8  112.87941838   2- 3- 4  126.63511536   2- 3-10  117.95416222   3- 2- 9  117.23374896

  3- 4- 5  123.11184583   3- 4-11  118.10071365   4- 3-10  115.41072241   4- 5-12  121.53938936

  4- 5-13  121.26618363   5- 4-11  118.78744051   6- 1- 7  106.90738959   6- 1- 8  107.95992625

  7- 1- 8  107.95916450  12- 5-13  117.19442701

 NUCLEAR CHARGE:                   38
 NUMBER OF PRIMITIVE AOS:         273
 NUMBER OF SYMMETRY AOS:          263
 NUMBER OF CONTRACTIONS:          187   ( 187A   )
 NUMBER OF CORE ORBITALS:           5   (   5A   )
 NUMBER OF VALENCE ORBITALS:       28   (  28A   )


 NUCLEAR REPULSION ENERGY  155.81520284


 Eigenvalues of metric

         1 0.111E-04 0.121E-04 0.288E-04 0.356E-04 0.454E-04 0.813E-04 0.116E-03 0.126E-03


 Contracted 2-electron integrals neglected if value below      1.0D-12
 AO integral compression algorithm  1   Integral accuracy      1.0D-12

     726.401 MB (compressed) written to integral file ( 53.0%)


 NUMBER OF SORTED TWO-ELECTRON INTEGRALS:  154501831.     BUFFER LENGTH:  32768
 NUMBER OF SEGMENTS:  10  SEGMENT LENGTH:   15999503      RECORD LENGTH: 524288

 Memory used in sort:      16.56 MW

 SORT1 READ   171475898. AND WROTE   149856198. INTEGRALS IN    435 RECORDS. CPU TIME:     2.46 SEC, REAL TIME:    15.16 SEC
 SORT2 READ   149856198. AND WROTE   154501831. INTEGRALS IN   2771 RECORDS. CPU TIME:     3.91 SEC, REAL TIME:    13.57 SEC

 FILE SIZES:   FILE 1:   757.9 MBYTE,  FILE 4:  1824.6 MBYTE,   TOTAL:   2582.4 MBYTE

 OPERATOR DM      FOR CENTER  0  COORDINATES:    0.000000    0.000000    0.000000


 **********************************************************************************************************************************
 DATASETS  * FILE   NREC   LENGTH (MB)   RECORD NAMES
              1      19      696.42       500      610      700      900      950      970     1000      129      960     1100   
                                          VAR    BASINP    GEOM    SYMINP    ZMAT    AOBASIS   BASIS     P2S    ABASIS      S 
                                         1400     1410     1200     1210     1080     1600     1650     1300     1700   
                                           T        V       H0       H01     AOSYM     SMH    MOLCAS    ERIS     OPER   

 PROGRAMS   *        TOTAL       INT
 CPU TIMES  *        15.64     15.48
 REAL TIME  *        50.54 SEC
 DISK USED  *         2.58 GB      
 **********************************************************************************************************************************

 Density functional group B=B88
 Functional: B88(Automatically generated (new) B88)                            Gradient terms: 1
 Use grid at  1800.2

 Functional: B88                       Factor:  1.0000

 Generated new metagrid on record  1800.2 with target accuracy 1.0D-06 and 50412 points in CPU time    1.1
 Computed new grid on record 1800.1 in CPU time    1.3
  152971 words reserved for DFT integration

 PROGRAM * RKS-SCF (Restricted closed shell Kohn-Sham)     Authors: W. Meyer, H.-J. Werner, P.J. Knowles, 1993

 NUMBER OF ELECTRONS:      19+   19-    SPACE SYMMETRY=1    SPIN SYMMETRY: Singlet 
 CONVERGENCE THRESHOLDS:    1.00E-05 (Density)    1.00E-06 (Energy)
 MAX. NUMBER OF ITERATIONS:       60
 INTERPOLATION TYPE:            DIIS
 INTERPOLATION STEPS:              2 (START)      1 (STEP)
 LEVEL SHIFTS:                  0.00 (CLOSED)  0.00 (OPEN) 



 Use fine grid record 1800.2 for energy threshold  1.0D-06
 Orbital guess generated from atomic densities. Full valence occupancy:   33

 Molecular orbital dump at record        2100.2

 Initial occupancy:  19

 ITERATION    DDIFF          GRAD             ENERGY        2-EL.EN.            DIPOLE MOMENTS         DIIS   ORB.
    1      0.000D+00      0.000D+00      -193.75416335    510.857412   -0.32982   -0.09061   -0.00001    0    start
    2      0.000D+00      0.789D-02      -193.39408354    470.599366   -0.26689   -0.08803    0.00003    1    diag
    3      0.821D-01      0.124D-01      -193.98657652    496.869689   -0.04110   -0.02209   -0.00001    2    diag
    4      0.365D-01      0.152D-02      -193.98905093    495.365903   -0.54444   -0.07787    0.00000    3    diag
    5      0.457D-02      0.132D-02      -193.99509595    495.592208   -0.12249   -0.08361   -0.00000    4    diag
    6      0.260D-02      0.256D-03      -193.99522058    495.567425   -0.31153   -0.05901    0.00000    5    diag
    7      0.753D-03      0.192D-03      -193.99536134    495.595416   -0.23716   -0.06236   -0.00000    6    diag
    8      0.325D-03      0.268D-04      -193.99536344    495.603808   -0.23801   -0.06514   -0.00000    7    diag
    9      0.909D-04      0.979D-05      -193.99536375    495.609853   -0.23680   -0.06531   -0.00000    8    diag
   10      0.259D-04      0.167D-05      -193.99536376    495.610095   -0.23757   -0.06488   -0.00000    9    orth
   11      0.497D-05      0.334D-06      -193.99536376    495.609925   -0.23754   -0.06497   -0.00000    0    orth

 Final occupancy:  19

 !RKS STATE 1.1 Energy               -193.995363761907
 Nuclear energy                       155.81520284
 One-electron energy                 -568.88381708
 Two-electron energy                  247.80496271
 Density functional                   -28.73171223     B88=-28.73171223
 Virial quotient                       -1.00017336
 !RKS STATE 1.1 Dipole moment          -0.23753833    -0.06496692    -0.00000069
 Dipole moment /Debye                  -0.60372267    -0.16511861    -0.00000176

 Orbital energies:

         1.1          2.1          3.1          4.1          5.1          6.1          7.1          8.1          9.1         10.1
     -9.892943    -9.892132    -9.888859    -9.886938    -9.883531    -0.701765    -0.651860    -0.585465    -0.499934    -0.444771

        11.1         12.1         13.1         14.1         15.1         16.1         17.1         18.1         19.1         20.1
     -0.395668    -0.367785    -0.338692    -0.326517    -0.305944    -0.294986    -0.259925    -0.248790    -0.167939    -0.026323

        21.1
     -0.005045

 HOMO     19.1    -0.167939 =      -4.5698eV
 LUMO     20.1    -0.026323 =      -0.7163eV
 LUMO-HOMO         0.141615 =       3.8536eV


 **********************************************************************************************************************************
 DATASETS  * FILE   NREC   LENGTH (MB)   RECORD NAMES
              1      20      698.03       500      610      700      900      950      970     1000      129      960     1100   
                                          VAR    BASINP    GEOM    SYMINP    ZMAT    AOBASIS   BASIS     P2S    ABASIS      S 
                                         1400     1410     1200     1210     1080     1600     1650     1300     1700     1800   
                                           T        V       H0       H01     AOSYM     SMH    MOLCAS    ERIS     OPER     GRID   

              2       5        3.69       700     1000      520     1800     2100   
                                         GEOM     BASIS   MCVARS    GRID      RKS  

 PROGRAMS   *        TOTAL        KS       INT
 CPU TIMES  *        58.20     42.56     15.48
 REAL TIME  *       118.96 SEC
 DISK USED  *         2.58 GB      
 **********************************************************************************************************************************


 PROGRAM * Intrinsic Basis Bonding Analysis (IBBA)          Author: G. Knizia

 Molecular orbitals read from record     2100.2  Type=RKS/CANONICAL (state 1.1)
 Fock matrix read from record            2100.2  Type=RKS/TOTAL (state 1.1)
 Orbital energies read from record       2100.2  Type=RKS/CANONICAL (state 1.1)
 Density matrix read from record         2100.2  Type=RKS/CHARGE (state 1.1)

 Number of core orbitals:           5 (   5 )
 Number of closed-shell orbitals:  14 (  14 )

 Basis set MINAO-AUTO-PP generated.      Number of basis functions:   33 

 Polarized AO type:                A = (O Ot + (1-O)(1-Ot)) P12
 Orthogonalization method:         Symmetric (Loewdin)
 Localization functional:          L = sum[A,i] <i|n_A|i>^4 -> max

 Localization group 1:  19 orbitals, occupancy  2.000
 Iterative localization: IB/PM,    9 iter; Final gradient 0.17E-08

 Bond order analysis:       [THRPRINT= 0.020]

   CEN ATOM   CEN ATOM     WIBERG.BO      RENORM.BO
     1   C  -   2   C       1.055290       1.042809
     1   C  -   8   H       0.960647       0.980647
     1   C  -   7   H       0.947024       0.980383
     1   C  -   6   H       0.947023       0.980383

     2   C  -   3   C       1.818099       1.807880
     2   C  -   1   C       1.055290       1.042809
     2   C  -   9   H       0.943132       0.963985
     2   C  -   5   C       0.150213       0.147349

     3   C  -   2   C       1.818099       1.807880
     3   C  -   4   C       1.137180       1.132987
     3   C  -  10   H       0.938739       0.960357
     3   C  -   7   H       0.023959       0.027450
     3   C  -   6   H       0.023958       0.027450

     4   C  -   5   C       1.871400       1.861344
     4   C  -   3   C       1.137180       1.132987
     4   C  -  11   H       0.936351       0.956250

     5   C  -   4   C       1.871400       1.861344
     5   C  -  12   H       0.958359       0.980439
     5   C  -  13   H       0.954367       0.971229
     5   C  -   2   C       0.150213       0.147349

     6   H  -   1   C       0.947023       0.980383
     6   H  -   3   C       0.023958       0.027450

     7   H  -   1   C       0.947024       0.980383
     7   H  -   3   C       0.023959       0.027450

     8   H  -   1   C       0.960647       0.980647

     9   H  -   2   C       0.943132       0.963985

    10   H  -   3   C       0.938739       0.960357

    11   H  -   4   C       0.936351       0.956250
    11   H  -  13   H       0.021062       0.027984

    12   H  -   5   C       0.958359       0.980439

    13   H  -   5   C       0.954367       0.971229
    13   H  -  11   H       0.021062       0.027984


 Valency analysis:

   CEN ATOM   TOT.VALENCE
     1   C       3.942476
     2   C       3.977159
     3   C       3.975997
     4   C       3.974365
     5   C       3.954594
     6   H       0.979889
     7   H       0.979890
     8   H       0.982380
     9   H       0.982638
    10   H       0.982723
    11   H       0.982657
    12   H       0.980262
    13   H       0.982252

 Total charge composition:

   CEN ATOM         s          p       ELECTRONS ->P.CHARGE
     1   C       3.02297    3.37043      6.39340   -0.39340
     2   C       2.97999    3.14159      6.12159   -0.12159
     3   C       2.97007    3.17689      6.14696   -0.14696
     4   C       2.97087    3.15144      6.12230   -0.12230
     5   C       3.01936    3.28136      6.30072   -0.30072
     6   H       0.85818                 0.85818    0.14182
     7   H       0.85819                 0.85819    0.14181
     8   H       0.86726                 0.86726    0.13274
     9   H       0.86824                 0.86824    0.13176
    10   H       0.86856                 0.86856    0.13144
    11   H       0.86831                 0.86831    0.13169
    12   H       0.85951                 0.85951    0.14049
    13   H       0.86678                 0.86678    0.13322

 Total charge composition, AO contributions:

   CEN ATOM SHL      SPHERICAL COMPONENTS
     1   C  1s       1.99097
     1   C  2s       1.03200
     1   C  2p       1.12960    1.08862    1.15222

     2   C  1s       1.99059
     2   C  2s       0.98941
     2   C  2p       1.07865    1.07305    0.98989

     3   C  1s       1.99023
     3   C  2s       0.97984
     3   C  2p       1.06727    1.08843    1.02120

     4   C  1s       1.99015
     4   C  2s       0.98072
     4   C  2p       1.07314    1.09728    0.98102

     5   C  1s       1.99044
     5   C  2s       1.02892
     5   C  2p       1.10145    1.14881    1.03110

     6   H  1s       0.85818

     7   H  1s       0.85819

     8   H  1s       0.86726

     9   H  1s       0.86824

    10   H  1s       0.86856

    11   H  1s       0.86831

    12   H  1s       0.85951

    13   H  1s       0.86678

 Summary of localized orbital composition:   [THRPRINT= 0.020]

   ORB  GRP  ORB.ENERGY      CENTERS/CHARGES
     1   1    -9.773483      C  1   2.000
     2   1    -9.773298      C  2   2.000
     3   1    -9.770218      C  4   2.000
     4   1    -9.765063      C  3   2.000
     5   1    -9.760810      C  5   2.000
     6   1    -0.641994      C  4   1.002   C  5   0.989
     7   1    -0.639592      C  2   0.996   C  3   0.994
     8   1    -0.535742      C  4   0.995   C  3   0.986
     9   1    -0.507737      C  1   0.998   C  2   0.991
    10   1    -0.437602      C  4   1.123   H 11   0.854   (other: 0.023)
    11   1    -0.434828      C  5   1.131   H 13   0.857
    12   1    -0.434315      C  5   1.139   H 12   0.850
    13   1    -0.433006      C  2   1.125   H  9   0.854   (other: 0.021)
    14   1    -0.430226      C  3   1.123   H 10   0.854   (other: 0.024)
    15   1    -0.424251      C  1   1.128   H  8   0.861
    16   1    -0.422150      C  1   1.127   H  6   0.848   (other: 0.025)
    17   1    -0.422144      C  1   1.127   H  7   0.848   (other: 0.025)
    18   1    -0.215384      C  3   0.982   C  2   0.916   C  4   0.054   C  5   0.032
    19   1    -0.212601      C  5   0.997   C  4   0.927   C  2   0.046   C  3   0.028

 Localized orbitals saved to record      2100.2  (orbital set 2)


 **********************************************************************************************************************************
 DATASETS  * FILE   NREC   LENGTH (MB)   RECORD NAMES
              1      20      698.03       500      610      700      900      950      970     1000      129      960     1100   
                                          VAR    BASINP    GEOM    SYMINP    ZMAT    AOBASIS   BASIS     P2S    ABASIS      S 
                                         1400     1410     1200     1210     1080     1600     1650     1300     1700     1800   
                                           T        V       H0       H01     AOSYM     SMH    MOLCAS    ERIS     OPER     GRID   

              2       5        3.97       700     1000      520     1800     2100   
                                         GEOM     BASIS   MCVARS    GRID      RKS  

 PROGRAMS   *        TOTAL      IBBA        KS       INT
 CPU TIMES  *        58.26      0.06     42.56     15.48
 REAL TIME  *       119.19 SEC
 DISK USED  *         2.58 GB      
 **********************************************************************************************************************************
 Molecular orbitals read from record     2100.2  Type=RKS/LOCAL(IBO)  
 Occupation numbers read from record     2100.2  Type=RKS/LOCAL(IBO)  
 Orbital energies read from record       2100.2  Type=RKS/LOCAL(IBO)  
 Redundancy group numbers read from rec  2100.2  Type=RKS/LOCAL(IBO)  

 IBBA/aug-cc-pVDZ energy=      0.000000000000

        KS-SCF  
   -193.99536376
 **********************************************************************************************************************************
 Molpro calculation terminated
