
 Primary working directories    : /local
 Secondary working directories  : /local
 Wavefunction directory         : /local/
 Main file repository           : /local/

 SHA1      : b4a5b34a9e711420743f49e6833241d17c61fb3c
 NAME      : 2099.9.b4a5b34
 ARCHNAME  : linux/x86_64_openmp
 FC        : /cm/shared/languages/GCC-6.1/bin/gfortran
 BLASLIB   : -lblas
 id        : simonbennie

 Nodes     nprocs
 node33-017    1

 Using customized tuning parameters: mindgm=1; mindgv=20; mindgc=4; mindgr=1; noblas=0; minvec=7
 default implementation of scratch files=df  

 memory,500,m
 geomtyp=xyz
 nosym
 noorient
 geometry={
 C         -2.05564       -0.61227        0.00001
 C         -1.23110        0.64045        0.00005
 C          0.10563        0.73427        0.00003
 C          1.05756       -0.37441       -0.00004
 C          2.38358       -0.19894       -0.00004
 H         -2.70508       -0.64160        0.87713
 H         -2.70513       -0.64151       -0.87709
 H         -1.45133       -1.51608       -0.00006
 H         -1.79367        1.56759        0.00010
 H          0.54576        1.72564        0.00006
 H          0.66526       -1.38324       -0.00011
 H          3.06469       -1.03772       -0.00009
 H          2.81928        0.79229        0.00002
 }
 basis={ default,svp }
 {uks,B3LYP5,direct;disp;wf,38,1,0}
 {ibba,bonds=1}

 Variables initialized (895), CPU time= 0.01 sec
 Commands  initialized (725), CPU time= 0.01 sec, 591 directives.
 Default parameters read. Elapsed time= 0.08 sec

 Checking input...
 Passed
1


                                         ***  PROGRAM SYSTEM MOLPRO  ***
                                       Copyright, TTI GmbH Stuttgart, 2015
                                    Version 2099.9 linked May 26 2017 16:03:21


 **********************************************************************************************************************************
 LABEL *                                                                                 
  64 bit serial version                                                                  DATE: 10-Mar-18          TIME: 05:00:09  
 **********************************************************************************************************************************

 SHA1:             b4a5b34a9e711420743f49e6833241d17c61fb3c
 **********************************************************************************************************************************
 SETTING GEOMTYP        =    XYZ

 Variable memory set to  500000000 words,  buffer space 

 ZSYMEL=NOSYM

 SETTING BASIS          =    SVP


 Recomputing integrals since basis changed


 Using spherical harmonics

 Library entry C      S def2-SVP             selected for orbital group  1
 Library entry C      P def2-SVP             selected for orbital group  1
 Library entry C      D def2-SVP             selected for orbital group  1
 Library entry H      S def2-SVP             selected for orbital group  2
 Library entry H      P def2-SVP             selected for orbital group  2


 PROGRAM * SEWARD (Integral evaluation for generally contracted gaussian basis sets)     Author: Roland Lindh, 1990

 Geometry written to block  1 of record 700


 Point group  C1  



 ATOMIC COORDINATES

 NR  ATOM    CHARGE       X              Y              Z

   1  C       6.00   -3.884596611   -1.157022614    0.000018897
   2  C       6.00   -2.326441832    1.210275096    0.000094486
   3  C       6.00    0.199611771    1.387569201    0.000056692
   4  C       6.00    1.998498760   -0.707532358   -0.000075589
   5  C       6.00    4.504313396   -0.375942115   -0.000075589
   6  H       1.00   -5.111860345   -1.212448282    1.657535476
   7  H       1.00   -5.111954831   -1.212278206   -1.657459887
   8  H       1.00   -2.742616216   -2.864975983   -0.000113384
   9  H       1.00   -3.389545058    2.962315776    0.000188973
  10  H       1.00    1.031336930    3.260986990    0.000113384
  11  H       1.00    1.257159202   -2.613944765   -0.000207870
  12  H       1.00    5.791424757   -1.961006594   -0.000170075
  13  H       1.00    5.327667068    1.497211111    0.000037795

 Bond lengths in Bohr (Angstrom)

 1-2  2.834068590  1-6  2.063155226  1-7  2.063176508  1-8  2.054561741  2-3  2.532267759
     ( 1.499724512)     ( 1.091774728)     ( 1.091785990)     ( 1.087227252)     ( 1.340018390)

  2- 9  2.049349902   3- 4  2.761420824   3-10  2.049746558   4- 5  2.527658814   4-11  2.045481024
       ( 1.084469265)       ( 1.461280970)       ( 1.084679167)       ( 1.337579441)       ( 1.082421944)

  5-12  2.041833751   5-13  2.046121769
       ( 1.080491889)       ( 1.082761011)

 Bond angles

  1-2-3  127.36769203   1-2-9  115.39855901   2-1-6  110.45444535   2-1-7  110.45417453

  2- 1- 8  112.87941838   2- 3- 4  126.63511536   2- 3-10  117.95416222   3- 2- 9  117.23374896

  3- 4- 5  123.11184583   3- 4-11  118.10071365   4- 3-10  115.41072241   4- 5-12  121.53938936

  4- 5-13  121.26618363   5- 4-11  118.78744051   6- 1- 7  106.90738959   6- 1- 8  107.95992625

  7- 1- 8  107.95916450  12- 5-13  117.19442701

 NUCLEAR CHARGE:                   38
 NUMBER OF PRIMITIVE AOS:         181
 NUMBER OF SYMMETRY AOS:          176
 NUMBER OF CONTRACTIONS:          110   ( 110A   )
 NUMBER OF CORE ORBITALS:           5   (   5A   )
 NUMBER OF VALENCE ORBITALS:       28   (  28A   )


 NUCLEAR REPULSION ENERGY  155.81520284


 Eigenvalues of metric

         1 0.129E-02 0.227E-02 0.322E-02 0.556E-02 0.126E-01 0.192E-01 0.218E-01 0.269E-01


 Contracted 2-electron integrals neglected if value below      1.0D-11
 AO integral compression algorithm  1   Integral accuracy      1.0D-11

     54.526 MB (compressed) written to integral file ( 35.6%)


 NUMBER OF SORTED TWO-ELECTRON INTEGRALS:   18638565.     BUFFER LENGTH:  32768
 NUMBER OF SEGMENTS:   2  SEGMENT LENGTH:   15997996      RECORD LENGTH: 524288

 Memory used in sort:      16.56 MW

 SORT1 READ    19185865. AND WROTE    13853101. INTEGRALS IN     40 RECORDS. CPU TIME:     0.27 SEC, REAL TIME:     0.49 SEC
 SORT2 READ    13853101. AND WROTE    18638565. INTEGRALS IN    208 RECORDS. CPU TIME:     0.49 SEC, REAL TIME:     0.60 SEC

 FILE SIZES:   FILE 1:    85.1 MBYTE,  FILE 4:   167.8 MBYTE,   TOTAL:    253.0 MBYTE

 OPERATOR DM      FOR CENTER  0  COORDINATES:    0.000000    0.000000    0.000000


 **********************************************************************************************************************************
 DATASETS  * FILE   NREC   LENGTH (MB)   RECORD NAMES
              1      19       76.54       500      610      700      900      950      970     1000      129      960     1100   
                                          VAR    BASINP    GEOM    SYMINP    ZMAT    AOBASIS   BASIS     P2S    ABASIS      S 
                                         1400     1410     1200     1210     1080     1600     1650     1300     1700   
                                           T        V       H0       H01     AOSYM     SMH    MOLCAS    ERIS     OPER   

 PROGRAMS   *        TOTAL       INT
 CPU TIMES  *         2.98      2.84
 REAL TIME  *         6.28 SEC
 DISK USED  *       253.45 MB      
 **********************************************************************************************************************************

 Density functional group B3LYP5=B88+DIRAC+LYP+VWN5
 Functional: B88(Automatically generated (new) B88)                            Gradient terms: 1
 Functional: DIRAC(Automatically generated (new) DIRAC)                        Gradient terms: 0
 Functional: LYP(Automatically generated (new) LYP)                            Gradient terms: 1
 Functional: VWN5(Automatically generated (new) VWN5)                          Gradient terms: 0

 dispersion correction activated
 Density functional: B3LYP5  
 functional not in list, set to default 


 Exact exchange will be calculated, factor:  0.2000

 Functional: B88                       Factor:  0.7200
 Functional: DIRAC                     Factor:  0.0800
 Functional: LYP                       Factor:  0.8100
 Functional: VWN5                      Factor:  0.1900

 Use grid at  1800.2


 Exact exchange will be calculated, factor:  0.2000

 Functional: B88                       Factor:  0.7200
 Functional: DIRAC                     Factor:  0.0800
 Functional: LYP                       Factor:  0.8100
 Functional: VWN5                      Factor:  0.1900

 Generated new metagrid on record  1800.2 with target accuracy 1.0D-06 and 50412 points in CPU time    1.1
 Computed new grid on record 1800.1 in CPU time    1.2
   91565 words reserved for DFT integration

 PROGRAM * UKS-SCF (Unrestricted Kohn-Sham)     Authors: W. Meyer, H.-J. Werner, P.J. Knowles, 1993

 NUMBER OF ELECTRONS:      19+   19-    SPACE SYMMETRY=1    SPIN SYMMETRY: Singlet 
 CONVERGENCE THRESHOLDS:    1.00E-05 (Density)    1.00E-06 (Energy)
 MAX. NUMBER OF ITERATIONS:       60
 INTERPOLATION TYPE:            DIIS
 INTERPOLATION STEPS:              2 (START)      1 (STEP)
 LEVEL SHIFTS:                 -0.20 (ALPHA)  -0.20 (BETA) 



 Use fine grid record 1800.2 for energy threshold  1.0D-06
 Orbital guess generated from atomic densities. Full valence occupancy:   19

 Molecular orbital dump at record        2200.2

 Initial alpha occupation  19
 Initial beta  occupation  19

 ITERATION    DDIFF          GRAD             ENERGY        2-EL.EN.            DIPOLE MOMENTS         DIIS
    1      0.000D+00      0.000D+00      -194.85989663    497.180655   -0.35507   -0.10778   -0.00001    0
    2      0.102D-01      0.479D-02      -195.01741428    482.510063   -0.27021   -0.09284    0.00000    1
    3      0.259D-02      0.150D-02      -195.03003876    485.151648   -0.25363   -0.06526   -0.00000    2
    4      0.859D-03      0.204D-03      -195.03056794    485.005081   -0.24505   -0.06889   -0.00000    3
    5      0.486D-03      0.852D-04      -195.03068097    484.956293   -0.22787   -0.06577   -0.00000    4
    6      0.209D-03      0.290D-04      -195.03069702    484.936057   -0.21993   -0.06631   -0.00000    5
    7      0.447D-04      0.103D-04      -195.03069827    484.939136   -0.21679   -0.06655   -0.00000    6
    8      0.142D-04      0.452D-05      -195.03069851    484.937729   -0.21514   -0.06649   -0.00000    7
    9      0.668D-05      0.138D-05      -195.03069854    484.937627   -0.21500   -0.06652   -0.00000    7
   10      0.181D-05      0.566D-06      -195.03069855    484.938121   -0.21466   -0.06654   -0.00000    7

 Dispersion correction
 - - - - - - - - - - - 
  _________________________________
                                   
 |         DFTD3 V1.3 Rev 1        |
 | S.Grimme, University Muenster   |
 | Fri Jul  2 12:48:21 CEST 2010   |
  _________________________________

 Please cite DFT-D3 work done with this code as:
 S. Grimme, J. Antony, S. Ehrlich and H. Krieg,
 J. Chem. Phys, 132 (2010), 154104.
 For DFT-D2 the reference is
 S. Grimme, J. Comput. Chem., 27 (2006), 1787-1799

 C6 coefficients used:
                    2  C6 for element                     1
 Z=  1 CN=   0.912     C6(AA)=    3.03
 Z=  1 CN=   0.000     C6(AA)=    7.59
                    5  C6 for element                     6
 Z=  6 CN=   0.000     C6(AA)=   49.11
 Z=  6 CN=   0.987     C6(AA)=   43.25
 Z=  6 CN=   1.998     C6(AA)=   29.36
 Z=  6 CN=   2.999     C6(AA)=   25.78
 Z=  6 CN=   3.984     C6(AA)=   18.21

 #           XYZ [au]               R0(AA) [Ang.]   CN       C6(AA)     C8(AA)   C10(AA) [au]
  1  -3.88460  -1.15702   0.00002   c   1.455  4.013        18.3       529.7     18766.5
  2  -2.32644   1.21028   0.00009   c   1.455  3.048        25.6       739.7     26206.4
  3   0.19961   1.38757   0.00006   c   1.455  3.081        25.5       737.4     26124.5
  4   1.99850  -0.70753  -0.00008   c   1.455  3.048        25.6       739.7     26206.1
  5   4.50431  -0.37594  -0.00008   c   1.455  3.043        25.6       740.0     26218.9
  6  -5.11186  -1.21245   1.65754   h   1.091  0.998         3.1        37.4       553.4
  7  -5.11195  -1.21228  -1.65746   h   1.091  0.998         3.1        37.4       553.4
  8  -2.74262  -2.86498  -0.00011   h   1.091  0.999         3.1        37.4       553.3
  9  -3.38955   2.96232   0.00019   h   1.091  1.004         3.1        37.3       552.9
 10   1.03134   3.26099   0.00011   h   1.091  1.005         3.1        37.3       552.8
 11   1.25716  -2.61394  -0.00021   h   1.091  1.005         3.1        37.3       552.8
 12   5.79142  -1.96101  -0.00017   h   1.091  1.000         3.1        37.4       553.2
 13   5.32767   1.49721   0.00004   h   1.091  1.000         3.1        37.4       553.2

 molecular C6(AA) [au] =      1484.50

           DFT-D V3
 DF pbe                                               
 parameters
 s6       :    1.0000
 s8       :    0.7220
 rs6      :    1.2170
 alpha6   :   14.0000
 alpha8   :   16.0000
 k1-k3    :   16.0000    1.3333   -4.0000

 Edisp /kcal,au:    -2.0915 -0.00333308

 E6    /kcal :    -0.7970
 E8    /kcal :    -1.2946
 % E8        : 61.89
 normal termination of dftd3

 UKS STATE 1.1 ENERGY+DISP     -195.03403163

 Final alpha occupancy:  19
 Final beta  occupancy:  19

 !UKS STATE 1.1 Energy               -195.034031628099
 Nuclear energy                       155.81520284
 One-electron energy                 -569.13636344
 Two-electron energy                  242.46906060
 Density functional                   -24.17859855     B88=-28.71178979 DIRAC=-25.81072876 LYP= -1.22103123 VWN5= -2.38008578
 Virial quotient                       -1.01132399
 !UKS STATE 1.1 Dipole moment          -0.21466409    -0.06653511    -0.00000139
 Dipole moment /Debye                  -0.54558596    -0.16910432    -0.00000353

 Orbital energies for positive spin:

         1.1          2.1          3.1          4.1          5.1          6.1          7.1          8.1          9.1         10.1
    -10.185487   -10.185217   -10.181947   -10.179421   -10.177284    -0.799718    -0.746402    -0.675823    -0.584095    -0.525977

        11.1         12.1         13.1         14.1         15.1         16.1         17.1         18.1         19.1         20.1
     -0.476277    -0.446485    -0.413584    -0.403655    -0.380187    -0.369487    -0.331443    -0.314315    -0.224016    -0.021656

        21.1
      0.073072

 Orbital energies for negative spin:

         1.1          2.1          3.1          4.1          5.1          6.1          7.1          8.1          9.1         10.1
    -10.185487   -10.185217   -10.181947   -10.179421   -10.177284    -0.799718    -0.746402    -0.675823    -0.584095    -0.525977

        11.1         12.1         13.1         14.1         15.1         16.1         17.1         18.1         19.1         20.1
     -0.476277    -0.446485    -0.413584    -0.403655    -0.380187    -0.369487    -0.331443    -0.314315    -0.224016    -0.021656

        21.1
      0.073072

 HOMO     19.1    -0.224016 =      -6.0958eV
 LUMO     20.1    -0.021656 =      -0.5893eV
 LUMO-HOMO         0.202361 =       5.5065eV

 EXPECTATION VALUE OF S**2:            -0.00000000

 Natural orbitals saved to record    2200.2 (Orbital set 3)

 Orbital spaces for UNO-CAS (Min. occupation: 0.020  Max. occupation: 1.980):

 Closed:       19
 Active:        0


 **********************************************************************************************************************************
 DATASETS  * FILE   NREC   LENGTH (MB)   RECORD NAMES
              1      20       78.16       500      610      700      900      950      970     1000      129      960     1100   
                                          VAR    BASINP    GEOM    SYMINP    ZMAT    AOBASIS   BASIS     P2S    ABASIS      S 
                                         1400     1410     1200     1210     1080     1600     1650     1300     1700     1800   
                                           T        V       H0       H01     AOSYM     SMH    MOLCAS    ERIS     OPER     GRID   

              2       5        3.46       700     1000      520     1800     2200   
                                         GEOM     BASIS   MCVARS    GRID      UKS  

 PROGRAMS   *        TOTAL       UKS       INT
 CPU TIMES  *        23.17     20.19      2.84
 REAL TIME  *        27.89 SEC
 DISK USED  *       253.45 MB      
 **********************************************************************************************************************************


 PROGRAM * Intrinsic Basis Bonding Analysis (IBBA)          Author: G. Knizia

 Molecular orbitals read from record     2200.2  Type=UKS/ALPHA (state 1.1)
 Fock matrix read from record            2200.2  Type=UKS/TOTAL (state 1.1)
 Orbital energies read from record       2200.2  Type=UKS/ALPHA (state 1.1)
 Density matrix read from record         2200.2  Type=UKS/CHARGE (state 1.1)

 Number of core orbitals:           5 (   5 )
 Number of closed-shell orbitals:  14 (  14 )

 Basis set MINAO-AUTO-PP generated.      Number of basis functions:   33 

 Polarized AO type:                A = (O Ot + (1-O)(1-Ot)) P12
 Orthogonalization method:         Symmetric (Loewdin)
 Localization functional:          L = sum[A,i] <i|n_A|i>^4 -> max

 Localization group 1:  19 orbitals, occupancy  2.000
 Iterative localization: IB/PM,    9 iter; Final gradient 0.17E-08

 Bond order analysis:       [THRPRINT= 0.020]

   CEN ATOM   CEN ATOM     WIBERG.BO      RENORM.BO
     1   C  -   2   C       1.048612       1.039326
     1   C  -   8   H       0.962041       0.983022
     1   C  -   7   H       0.948817       0.981620
     1   C  -   6   H       0.948816       0.981620

     2   C  -   3   C       1.832278       1.825764
     2   C  -   1   C       1.048612       1.039326
     2   C  -   9   H       0.945196       0.967245
     2   C  -   5   C       0.134574       0.132769

     3   C  -   2   C       1.832278       1.825764
     3   C  -   4   C       1.118781       1.117402
     3   C  -  10   H       0.941611       0.964680
     3   C  -   7   H       0.022418       0.025673
     3   C  -   6   H       0.022417       0.025673

     4   C  -   5   C       1.881829       1.877778
     4   C  -   3   C       1.118781       1.117402
     4   C  -  11   H       0.939892       0.960804

     5   C  -   4   C       1.881829       1.877778
     5   C  -  12   H       0.959393       0.982555
     5   C  -  13   H       0.956364       0.974858
     5   C  -   2   C       0.134574       0.132769

     6   H  -   1   C       0.948816       0.981620
     6   H  -   3   C       0.022417       0.025673

     7   H  -   1   C       0.948817       0.981620
     7   H  -   3   C       0.022418       0.025673

     8   H  -   1   C       0.962041       0.983022

     9   H  -   2   C       0.945196       0.967245

    10   H  -   3   C       0.941611       0.964680

    11   H  -   4   C       0.939892       0.960804

    12   H  -   5   C       0.959393       0.982555

    13   H  -   5   C       0.956364       0.974858


 Valency analysis:

   CEN ATOM   TOT.VALENCE
     1   C       3.938096
     2   C       3.972887
     3   C       3.971202
     4   C       3.969810
     5   C       3.951397
     6   H       0.979928
     7   H       0.979929
     8   H       0.982617
     9   H       0.982463
    10   H       0.982521
    11   H       0.982845
    12   H       0.980485
    13   H       0.982332

 Total charge composition:

   CEN ATOM         s          p       ELECTRONS ->P.CHARGE
     1   C       3.00553    3.38933      6.39486   -0.39486
     2   C       2.96083    3.16067      6.12150   -0.12150
     3   C       2.95112    3.19809      6.14921   -0.14921
     4   C       2.95194    3.17284      6.12478   -0.12478
     5   C       3.00073    3.29233      6.29306   -0.29306
     6   H       0.85832                 0.85832    0.14168
     7   H       0.85833                 0.85833    0.14167
     8   H       0.86815                 0.86815    0.13185
     9   H       0.86757                 0.86757    0.13243
    10   H       0.86779                 0.86779    0.13221
    11   H       0.86902                 0.86902    0.13098
    12   H       0.86030                 0.86030    0.13970
    13   H       0.86708                 0.86708    0.13292

 Total charge composition, AO contributions:

   CEN ATOM SHL      SPHERICAL COMPONENTS
     1   C  1s       1.99062
     1   C  2s       1.01491
     1   C  2p       1.13618    1.09520    1.15795

     2   C  1s       1.99027
     2   C  2s       0.97055
     2   C  2p       1.08886    1.08280    0.98901

     3   C  1s       1.98991
     3   C  2s       0.96122
     3   C  2p       1.07835    1.09790    1.02184

     4   C  1s       1.98983
     4   C  2s       0.96211
     4   C  2p       1.08419    1.10569    0.98297

     5   C  1s       1.99012
     5   C  2s       1.01061
     5   C  2p       1.10995    1.15624    1.02614

     6   H  1s       0.85832

     7   H  1s       0.85833

     8   H  1s       0.86815

     9   H  1s       0.86757

    10   H  1s       0.86779

    11   H  1s       0.86902

    12   H  1s       0.86030

    13   H  1s       0.86708

 Summary of localized orbital composition:   [THRPRINT= 0.020]

   ORB  GRP  ORB.ENERGY      CENTERS/CHARGES
     1   1   -10.064524      C  2   2.000
     2   1   -10.064156      C  1   2.000
     3   1   -10.060284      C  4   2.000
     4   1   -10.055346      C  3   2.000
     5   1   -10.052430      C  5   2.000
     6   1    -0.735794      C  4   1.003   C  5   0.987
     7   1    -0.732590      C  2   0.995   C  3   0.994
     8   1    -0.623560      C  4   0.995   C  3   0.987
     9   1    -0.595035      C  1   0.997   C  2   0.992
    10   1    -0.515403      C  4   1.124   H 11   0.855   (other: 0.021)
    11   1    -0.513726      C  5   1.132   H 13   0.857
    12   1    -0.513529      C  5   1.139   H 12   0.851
    13   1    -0.511330      C  2   1.127   H  9   0.854
    14   1    -0.507983      C  3   1.126   H 10   0.853   (other: 0.021)
    15   1    -0.503253      C  1   1.128   H  8   0.862
    16   1    -0.500634      C  1   1.129   H  6   0.849   (other: 0.022)
    17   1    -0.500628      C  1   1.129   H  7   0.849   (other: 0.022)
    18   1    -0.276739      C  3   0.985   C  2   0.924   C  4   0.046   C  5   0.029
    19   1    -0.273776      C  5   0.995   C  4   0.936   C  2   0.040   C  3   0.026

 Localized orbitals saved to record      2200.2  (orbital set 4)


 **********************************************************************************************************************************
 DATASETS  * FILE   NREC   LENGTH (MB)   RECORD NAMES
              1      20       78.16       500      610      700      900      950      970     1000      129      960     1100   
                                          VAR    BASINP    GEOM    SYMINP    ZMAT    AOBASIS   BASIS     P2S    ABASIS      S 
                                         1400     1410     1200     1210     1080     1600     1650     1300     1700     1800   
                                           T        V       H0       H01     AOSYM     SMH    MOLCAS    ERIS     OPER     GRID   

              2       5        3.56       700     1000      520     1800     2200   
                                         GEOM     BASIS   MCVARS    GRID      UKS  

 PROGRAMS   *        TOTAL      IBBA       UKS       INT
 CPU TIMES  *        23.20      0.03     20.19      2.84
 REAL TIME  *        27.94 SEC
 DISK USED  *       253.45 MB      
 **********************************************************************************************************************************

 IBBA/SVP energy=      0.000000000000

        UKS-SCF 
   -195.03403163
 **********************************************************************************************************************************
 Molpro calculation terminated
