
 Primary working directories    : /local
 Secondary working directories  : /local
 Wavefunction directory         : /local/
 Main file repository           : /local/

 SHA1      : b4a5b34a9e711420743f49e6833241d17c61fb3c
 NAME      : 2099.9.b4a5b34
 ARCHNAME  : linux/x86_64_openmp
 FC        : /cm/shared/languages/GCC-6.1/bin/gfortran
 BLASLIB   : -lblas
 id        : simonbennie

 Nodes     nprocs
 node34-013    1

 Using customized tuning parameters: mindgm=1; mindgv=20; mindgc=4; mindgr=1; noblas=0; minvec=7
 default implementation of scratch files=df  

 memory,500,m
 geomtyp=xyz
 nosym
 noorient
 geometry={
 C         -2.05564       -0.61227        0.00001
 C         -1.23110        0.64045        0.00005
 C          0.10563        0.73427        0.00003
 C          1.05756       -0.37441       -0.00004
 C          2.38358       -0.19894       -0.00004
 H         -2.70508       -0.64160        0.87713
 H         -2.70513       -0.64151       -0.87709
 H         -1.45133       -1.51608       -0.00006
 H         -1.79367        1.56759        0.00010
 H          0.54576        1.72564        0.00006
 H          0.66526       -1.38324       -0.00011
 H          3.06469       -1.03772       -0.00009
 H          2.81928        0.79229        0.00002
 }
 basis={ default,svp }
 {uks,B88X,direct;wf,38,1,0}
 {ibba,bonds=1}

 Variables initialized (895), CPU time= 0.01 sec
 Commands  initialized (725), CPU time= 0.01 sec, 591 directives.
 Default parameters read. Elapsed time= 0.11 sec

 Checking input...
 Passed
1


                                         ***  PROGRAM SYSTEM MOLPRO  ***
                                       Copyright, TTI GmbH Stuttgart, 2015
                                    Version 2099.9 linked May 26 2017 16:03:21


 **********************************************************************************************************************************
 LABEL *                                                                                 
  64 bit serial version                                                                  DATE: 19-Jun-17          TIME: 17:10:07  
 **********************************************************************************************************************************

 SHA1:             b4a5b34a9e711420743f49e6833241d17c61fb3c
 **********************************************************************************************************************************
 SETTING GEOMTYP        =    XYZ

 Variable memory set to  500000000 words,  buffer space 

 ZSYMEL=NOSYM

 SETTING BASIS          =    SVP


 Recomputing integrals since basis changed


 Using spherical harmonics

 Library entry C      S def2-SVP             selected for orbital group  1
 Library entry C      P def2-SVP             selected for orbital group  1
 Library entry C      D def2-SVP             selected for orbital group  1
 Library entry H      S def2-SVP             selected for orbital group  2
 Library entry H      P def2-SVP             selected for orbital group  2


 PROGRAM * SEWARD (Integral evaluation for generally contracted gaussian basis sets)     Author: Roland Lindh, 1990

 Geometry written to block  1 of record 700


 Point group  C1  



 ATOMIC COORDINATES

 NR  ATOM    CHARGE       X              Y              Z

   1  C       6.00   -3.884596611   -1.157022614    0.000018897
   2  C       6.00   -2.326441832    1.210275096    0.000094486
   3  C       6.00    0.199611771    1.387569201    0.000056692
   4  C       6.00    1.998498760   -0.707532358   -0.000075589
   5  C       6.00    4.504313396   -0.375942115   -0.000075589
   6  H       1.00   -5.111860345   -1.212448282    1.657535476
   7  H       1.00   -5.111954831   -1.212278206   -1.657459887
   8  H       1.00   -2.742616216   -2.864975983   -0.000113384
   9  H       1.00   -3.389545058    2.962315776    0.000188973
  10  H       1.00    1.031336930    3.260986990    0.000113384
  11  H       1.00    1.257159202   -2.613944765   -0.000207870
  12  H       1.00    5.791424757   -1.961006594   -0.000170075
  13  H       1.00    5.327667068    1.497211111    0.000037795

 Bond lengths in Bohr (Angstrom)

 1-2  2.834068590  1-6  2.063155226  1-7  2.063176508  1-8  2.054561741  2-3  2.532267759
     ( 1.499724512)     ( 1.091774728)     ( 1.091785990)     ( 1.087227252)     ( 1.340018390)

  2- 9  2.049349902   3- 4  2.761420824   3-10  2.049746558   4- 5  2.527658814   4-11  2.045481024
       ( 1.084469265)       ( 1.461280970)       ( 1.084679167)       ( 1.337579441)       ( 1.082421944)

  5-12  2.041833751   5-13  2.046121769
       ( 1.080491889)       ( 1.082761011)

 Bond angles

  1-2-3  127.36769203   1-2-9  115.39855901   2-1-6  110.45444535   2-1-7  110.45417453

  2- 1- 8  112.87941838   2- 3- 4  126.63511536   2- 3-10  117.95416222   3- 2- 9  117.23374896

  3- 4- 5  123.11184583   3- 4-11  118.10071365   4- 3-10  115.41072241   4- 5-12  121.53938936

  4- 5-13  121.26618363   5- 4-11  118.78744051   6- 1- 7  106.90738959   6- 1- 8  107.95992625

  7- 1- 8  107.95916450  12- 5-13  117.19442701

 NUCLEAR CHARGE:                   38
 NUMBER OF PRIMITIVE AOS:         181
 NUMBER OF SYMMETRY AOS:          176
 NUMBER OF CONTRACTIONS:          110   ( 110A   )
 NUMBER OF CORE ORBITALS:           5   (   5A   )
 NUMBER OF VALENCE ORBITALS:       28   (  28A   )


 NUCLEAR REPULSION ENERGY  155.81520284


 Eigenvalues of metric

         1 0.129E-02 0.227E-02 0.322E-02 0.556E-02 0.126E-01 0.192E-01 0.218E-01 0.269E-01


 Contracted 2-electron integrals neglected if value below      1.0D-11
 AO integral compression algorithm  1   Integral accuracy      1.0D-11

     54.526 MB (compressed) written to integral file ( 35.6%)


 NUMBER OF SORTED TWO-ELECTRON INTEGRALS:   18638565.     BUFFER LENGTH:  32768
 NUMBER OF SEGMENTS:   2  SEGMENT LENGTH:   15997996      RECORD LENGTH: 524288

 Memory used in sort:      16.56 MW

 SORT1 READ    19185865. AND WROTE    13853101. INTEGRALS IN     40 RECORDS. CPU TIME:     0.27 SEC, REAL TIME:     0.48 SEC
 SORT2 READ    13853101. AND WROTE    18638565. INTEGRALS IN    208 RECORDS. CPU TIME:     0.52 SEC, REAL TIME:     0.63 SEC

 FILE SIZES:   FILE 1:    85.1 MBYTE,  FILE 4:   167.8 MBYTE,   TOTAL:    253.0 MBYTE

 OPERATOR DM      FOR CENTER  0  COORDINATES:    0.000000    0.000000    0.000000


 **********************************************************************************************************************************
 DATASETS  * FILE   NREC   LENGTH (MB)   RECORD NAMES
              1      19       76.54       500      610      700      900      950      970     1000      129      960     1100   
                                          VAR    BASINP    GEOM    SYMINP    ZMAT    AOBASIS   BASIS     P2S    ABASIS      S 
                                         1400     1410     1200     1210     1080     1600     1650     1300     1700   
                                           T        V       H0       H01     AOSYM     SMH    MOLCAS    ERIS     OPER   

 PROGRAMS   *        TOTAL       INT
 CPU TIMES  *         3.03      2.89
 REAL TIME  *         3.91 SEC
 DISK USED  *       253.45 MB      
 **********************************************************************************************************************************

 Density functional group B88X=B88
 Functional: B88(Automatically generated (new) B88)                            Gradient terms: 1
 Use grid at  1800.2

 Functional: B88                       Factor:  1.0000

 Generated new metagrid on record  1800.2 with target accuracy 1.0D-06 and 50412 points in CPU time    1.1
 Computed new grid on record 1800.1 in CPU time    1.3
   91565 words reserved for DFT integration

 PROGRAM * UKS-SCF (Unrestricted Kohn-Sham)     Authors: W. Meyer, H.-J. Werner, P.J. Knowles, 1993

 NUMBER OF ELECTRONS:      19+   19-    SPACE SYMMETRY=1    SPIN SYMMETRY: Singlet 
 CONVERGENCE THRESHOLDS:    1.00E-05 (Density)    1.00E-06 (Energy)
 MAX. NUMBER OF ITERATIONS:       60
 INTERPOLATION TYPE:            DIIS
 INTERPOLATION STEPS:              2 (START)      1 (STEP)
 LEVEL SHIFTS:                 -0.20 (ALPHA)  -0.20 (BETA) 



 Use fine grid record 1800.2 for energy threshold  1.0D-06
 Orbital guess generated from atomic densities. Full valence occupancy:   19

 Molecular orbital dump at record        2200.2

 Initial alpha occupation  19
 Initial beta  occupation  19

 ITERATION    DDIFF          GRAD             ENERGY        2-EL.EN.            DIPOLE MOMENTS         DIIS
    1      0.000D+00      0.000D+00      -193.58465266    510.887861   -0.32238   -0.09872   -0.00001    0
    2      0.133D-01      0.569D-02      -193.79818391    491.635281   -0.25225   -0.09421    0.00000    1
    3      0.381D-02      0.230D-02      -193.82919356    496.108227   -0.24173   -0.06189   -0.00000    2
    4      0.107D-02      0.232D-03      -193.82980384    495.913452   -0.24517   -0.07269   -0.00000    3
    5      0.643D-03      0.102D-03      -193.82994757    495.850820   -0.22946   -0.06950   -0.00000    4
    6      0.337D-03      0.396D-04      -193.82997449    495.817362   -0.22836   -0.07064   -0.00000    5
    7      0.633D-04      0.157D-04      -193.82997685    495.826148   -0.22463   -0.07122   -0.00000    6
    8      0.220D-04      0.753D-05      -193.82997736    495.822698   -0.22415   -0.07113   -0.00000    7
    9      0.842D-05      0.174D-05      -193.82997741    495.822760   -0.22450   -0.07117   -0.00000    7
   10      0.252D-05      0.866D-06      -193.82997742    495.823062   -0.22415   -0.07116   -0.00000    7

 Final alpha occupancy:  19
 Final beta  occupancy:  19

 !UKS STATE 1.1 Energy               -193.829977417419
 Nuclear energy                       155.81520284
 One-electron energy                 -568.86301190
 Two-electron energy                  247.91153096
 Density functional                   -28.69369932     B88=-28.69369932
 Virial quotient                       -1.00556776
 !UKS STATE 1.1 Dipole moment          -0.22414918    -0.07115799    -0.00000042
 Dipole moment /Debye                  -0.56969306    -0.18085374    -0.00000108

 Orbital energies for positive spin:

         1.1          2.1          3.1          4.1          5.1          6.1          7.1          8.1          9.1         10.1
     -9.888131    -9.887081    -9.886900    -9.881582    -9.880195    -0.686284    -0.637057    -0.572071    -0.488025    -0.435069

        11.1         12.1         13.1         14.1         15.1         16.1         17.1         18.1         19.1         20.1
     -0.388618    -0.361567    -0.333706    -0.320687    -0.300476    -0.289850    -0.255012    -0.242120    -0.160955    -0.015375

        21.1
      0.076951

 Orbital energies for negative spin:

         1.1          2.1          3.1          4.1          5.1          6.1          7.1          8.1          9.1         10.1
     -9.888131    -9.887081    -9.886900    -9.881582    -9.880195    -0.686284    -0.637057    -0.572071    -0.488025    -0.435069

        11.1         12.1         13.1         14.1         15.1         16.1         17.1         18.1         19.1         20.1
     -0.388618    -0.361567    -0.333706    -0.320687    -0.300476    -0.289850    -0.255012    -0.242120    -0.160955    -0.015375

        21.1
      0.076951

 HOMO     19.1    -0.160955 =      -4.3798eV
 LUMO     20.1    -0.015375 =      -0.4184eV
 LUMO-HOMO         0.145580 =       3.9614eV

 EXPECTATION VALUE OF S**2:             0.00000000

 Natural orbitals saved to record    2200.2 (Orbital set 3)

 Orbital spaces for UNO-CAS (Min. occupation: 0.020  Max. occupation: 1.980):

 Closed:       19
 Active:        0


 **********************************************************************************************************************************
 DATASETS  * FILE   NREC   LENGTH (MB)   RECORD NAMES
              1      20       78.16       500      610      700      900      950      970     1000      129      960     1100   
                                          VAR    BASINP    GEOM    SYMINP    ZMAT    AOBASIS   BASIS     P2S    ABASIS      S 
                                         1400     1410     1200     1210     1080     1600     1650     1300     1700     1800   
                                           T        V       H0       H01     AOSYM     SMH    MOLCAS    ERIS     OPER     GRID   

              2       5        3.46       700     1000      520     1800     2200   
                                         GEOM     BASIS   MCVARS    GRID      UKS  

 PROGRAMS   *        TOTAL       UKS       INT
 CPU TIMES  *        20.23     17.19      2.89
 REAL TIME  *        21.89 SEC
 DISK USED  *       253.45 MB      
 **********************************************************************************************************************************


 PROGRAM * Intrinsic Basis Bonding Analysis (IBBA)          Author: G. Knizia

 Molecular orbitals read from record     2200.2  Type=UKS/ALPHA (state 1.1)
 Fock matrix read from record            2200.2  Type=UKS/TOTAL (state 1.1)
 Orbital energies read from record       2200.2  Type=UKS/ALPHA (state 1.1)
 Density matrix read from record         2200.2  Type=UKS/CHARGE (state 1.1)

 Number of core orbitals:           5 (   5 )
 Number of closed-shell orbitals:  14 (  14 )

 Basis set MINAO-AUTO-PP generated.      Number of basis functions:   33 

 Polarized AO type:                A = (O Ot + (1-O)(1-Ot)) P12
 Orthogonalization method:         Symmetric (Loewdin)
 Localization functional:          L = sum[A,i] <i|n_A|i>^4 -> max

 Localization group 1:  19 orbitals, occupancy  2.000
 Iterative localization: IB/PM,    9 iter; Final gradient 0.18E-08

 Bond order analysis:       [THRPRINT= 0.020]

   CEN ATOM   CEN ATOM     WIBERG.BO      RENORM.BO
     1   C  -   2   C       1.053921       1.043937
     1   C  -   8   H       0.962923       0.981161
     1   C  -   7   H       0.949281       0.980095
     1   C  -   6   H       0.949281       0.980096

     2   C  -   3   C       1.815010       1.807799
     2   C  -   1   C       1.053921       1.043937
     2   C  -   9   H       0.946191       0.964912
     2   C  -   5   C       0.149614       0.147129

     3   C  -   2   C       1.815010       1.807799
     3   C  -   4   C       1.135376       1.134014
     3   C  -  10   H       0.941994       0.961962
     3   C  -   7   H       0.023914       0.027079
     3   C  -   6   H       0.023913       0.027078

     4   C  -   5   C       1.867897       1.861899
     4   C  -   3   C       1.135376       1.134014
     4   C  -  11   H       0.939763       0.958150

     5   C  -   4   C       1.867897       1.861899
     5   C  -  12   H       0.961705       0.981012
     5   C  -  13   H       0.957713       0.972534
     5   C  -   2   C       0.149614       0.147129

     6   H  -   1   C       0.949281       0.980096
     6   H  -   3   C       0.023913       0.027078

     7   H  -   1   C       0.949281       0.980095
     7   H  -   3   C       0.023914       0.027079

     8   H  -   1   C       0.962923       0.981161

     9   H  -   2   C       0.946191       0.964912

    10   H  -   3   C       0.941994       0.961962

    11   H  -   4   C       0.939763       0.958150
    11   H  -  13   H       0.020230       0.026196

    12   H  -   5   C       0.961705       0.981012

    13   H  -   5   C       0.957713       0.972534
    13   H  -  11   H       0.020230       0.026196


 Valency analysis:

   CEN ATOM   TOT.VALENCE
     1   C       3.947136
     2   C       3.976936
     3   C       3.975098
     4   C       3.973486
     5   C       3.958421
     6   H       0.982855
     7   H       0.982856
     8   H       0.984848
     9   H       0.985551
    10   H       0.985386
    11   H       0.985384
    12   H       0.983728
    13   H       0.985231

 Total charge composition:

   CEN ATOM         s          p       ELECTRONS ->P.CHARGE
     1   C       3.00228    3.36267      6.36495   -0.36495
     2   C       2.96074    3.14837      6.10911   -0.10911
     3   C       2.95160    3.18440      6.13601   -0.13601
     4   C       2.95222    3.16141      6.11363   -0.11363
     5   C       2.99855    3.27379      6.27234   -0.27234
     6   H       0.86906                 0.86906    0.13094
     7   H       0.86906                 0.86906    0.13094
     8   H       0.87691                 0.87691    0.12309
     9   H       0.87980                 0.87980    0.12020
    10   H       0.87911                 0.87911    0.12089
    11   H       0.87910                 0.87910    0.12090
    12   H       0.87244                 0.87244    0.12756
    13   H       0.87847                 0.87847    0.12153

 Total charge composition, AO contributions:

   CEN ATOM SHL      SPHERICAL COMPONENTS
     1   C  1s       1.99080
     1   C  2s       1.01147
     1   C  2p       1.12734    1.09092    1.14441

     2   C  1s       1.99044
     2   C  2s       0.97030
     2   C  2p       1.08416    1.07313    0.99108

     3   C  1s       1.99007
     3   C  2s       0.96153
     3   C  2p       1.07488    1.08914    1.02038

     4   C  1s       1.99000
     4   C  2s       0.96222
     4   C  2p       1.08082    1.09706    0.98354

     5   C  1s       1.99029
     5   C  2s       1.00826
     5   C  2p       1.10386    1.14254    1.02739

     6   H  1s       0.86906

     7   H  1s       0.86906

     8   H  1s       0.87691

     9   H  1s       0.87980

    10   H  1s       0.87911

    11   H  1s       0.87910

    12   H  1s       0.87244

    13   H  1s       0.87847

 Summary of localized orbital composition:   [THRPRINT= 0.020]

   ORB  GRP  ORB.ENERGY      CENTERS/CHARGES
     1   1    -9.773919      C  1   2.000
     2   1    -9.769241      C  2   2.000
     3   1    -9.765196      C  4   2.000
     4   1    -9.760700      C  3   2.000
     5   1    -9.758735      C  5   2.000
     6   1    -0.629502      C  4   1.002   C  5   0.988
     7   1    -0.627288      C  2   0.995   C  3   0.994
     8   1    -0.526117      C  4   0.994   C  3   0.987
     9   1    -0.500228      C  1   1.000   C  2   0.989
    10   1    -0.427898      C  4   1.113   H 11   0.865   (other: 0.022)
    11   1    -0.425582      C  5   1.120   H 13   0.869
    12   1    -0.425386      C  5   1.126   H 12   0.863
    13   1    -0.423726      C  2   1.114   H  9   0.866
    14   1    -0.420803      C  3   1.113   H 10   0.864   (other: 0.023)
    15   1    -0.416586      C  1   1.119   H  8   0.870
    16   1    -0.415091      C  1   1.117   H  6   0.859   (other: 0.024)
    17   1    -0.415085      C  1   1.117   H  7   0.859   (other: 0.024)
    18   1    -0.208695      C  3   0.980   C  2   0.918   C  4   0.052   C  5   0.033
    19   1    -0.205595      C  5   0.993   C  4   0.931   C  2   0.045   C  3   0.029

 Localized orbitals saved to record      2200.2  (orbital set 4)


 **********************************************************************************************************************************
 DATASETS  * FILE   NREC   LENGTH (MB)   RECORD NAMES
              1      20       78.16       500      610      700      900      950      970     1000      129      960     1100   
                                          VAR    BASINP    GEOM    SYMINP    ZMAT    AOBASIS   BASIS     P2S    ABASIS      S 
                                         1400     1410     1200     1210     1080     1600     1650     1300     1700     1800   
                                           T        V       H0       H01     AOSYM     SMH    MOLCAS    ERIS     OPER     GRID   

              2       5        3.56       700     1000      520     1800     2200   
                                         GEOM     BASIS   MCVARS    GRID      UKS  

 PROGRAMS   *        TOTAL      IBBA       UKS       INT
 CPU TIMES  *        20.26      0.04     17.19      2.89
 REAL TIME  *        22.02 SEC
 DISK USED  *       253.45 MB      
 **********************************************************************************************************************************
 Molecular orbitals read from record     2200.2  Type=UKS/LOCAL(IBO)  
 Occupation numbers read from record     2200.2  Type=UKS/LOCAL(IBO)  
 Orbital energies read from record       2200.2  Type=UKS/LOCAL(IBO)  
 Redundancy group numbers read from rec  2200.2  Type=UKS/BETA (state 1.1)

 IBBA/SVP energy=      0.000000000000

        UKS-SCF 
   -193.82997742
 **********************************************************************************************************************************
 Molpro calculation terminated
