
 Primary working directories    : /local
 Secondary working directories  : /local
 Wavefunction directory         : /local/
 Main file repository           : /local/

 SHA1      : b4a5b34a9e711420743f49e6833241d17c61fb3c
 NAME      : 2099.9.b4a5b34
 ARCHNAME  : linux/x86_64_openmp
 FC        : /cm/shared/languages/GCC-6.1/bin/gfortran
 BLASLIB   : -lblas
 id        : simonbennie

 Nodes     nprocs
 node44-013    1

 Using customized tuning parameters: mindgm=1; mindgv=20; mindgc=4; mindgr=1; noblas=0; minvec=7
 default implementation of scratch files=df  

 memory,500,m
 geomtyp=xyz
 nosym
 noorient
 geometry={
 C         -2.05564       -0.61227        0.00001
 C         -1.23110        0.64045        0.00005
 C          0.10563        0.73427        0.00003
 C          1.05756       -0.37441       -0.00004
 C          2.38358       -0.19894       -0.00004
 H         -2.70508       -0.64160        0.87713
 H         -2.70513       -0.64151       -0.87709
 H         -1.45133       -1.51608       -0.00006
 H         -1.79367        1.56759        0.00010
 H          0.54576        1.72564        0.00006
 H          0.66526       -1.38324       -0.00011
 H          3.06469       -1.03772       -0.00009
 H          2.81928        0.79229        0.00002
 }
 basis={ default,avdz }
 {ks,LSDAC,direct;wf,38,1,0}
 {ibba,bonds=1}

 Variables initialized (895), CPU time= 0.00 sec
 Commands  initialized (725), CPU time= 0.02 sec, 591 directives.
 Default parameters read. Elapsed time= 0.09 sec

 Checking input...
 Passed
1


                                         ***  PROGRAM SYSTEM MOLPRO  ***
                                       Copyright, TTI GmbH Stuttgart, 2015
                                    Version 2099.9 linked May 26 2017 16:03:21


 **********************************************************************************************************************************
 LABEL *                                                                                 
  64 bit serial version                                                                  DATE: 29-Jun-17          TIME: 14:32:50  
 **********************************************************************************************************************************

 SHA1:             b4a5b34a9e711420743f49e6833241d17c61fb3c
 **********************************************************************************************************************************
 SETTING GEOMTYP        =    XYZ

 Variable memory set to  500000000 words,  buffer space 

 ZSYMEL=NOSYM

 SETTING BASIS          =    AVDZ


 Recomputing integrals since basis changed


 Using spherical harmonics

 Library entry C      S aug-cc-pVDZ          selected for orbital group  1
 Library entry C      P aug-cc-pVDZ          selected for orbital group  1
 Library entry C      D aug-cc-pVDZ          selected for orbital group  1
 Library entry H      S aug-cc-pVDZ          selected for orbital group  2
 Library entry H      P aug-cc-pVDZ          selected for orbital group  2


 PROGRAM * SEWARD (Integral evaluation for generally contracted gaussian basis sets)     Author: Roland Lindh, 1990

 Geometry written to block  1 of record 700


 Point group  C1  



 ATOMIC COORDINATES

 NR  ATOM    CHARGE       X              Y              Z

   1  C       6.00   -3.884596611   -1.157022614    0.000018897
   2  C       6.00   -2.326441832    1.210275096    0.000094486
   3  C       6.00    0.199611771    1.387569201    0.000056692
   4  C       6.00    1.998498760   -0.707532358   -0.000075589
   5  C       6.00    4.504313396   -0.375942115   -0.000075589
   6  H       1.00   -5.111860345   -1.212448282    1.657535476
   7  H       1.00   -5.111954831   -1.212278206   -1.657459887
   8  H       1.00   -2.742616216   -2.864975983   -0.000113384
   9  H       1.00   -3.389545058    2.962315776    0.000188973
  10  H       1.00    1.031336930    3.260986990    0.000113384
  11  H       1.00    1.257159202   -2.613944765   -0.000207870
  12  H       1.00    5.791424757   -1.961006594   -0.000170075
  13  H       1.00    5.327667068    1.497211111    0.000037795

 Bond lengths in Bohr (Angstrom)

 1-2  2.834068590  1-6  2.063155226  1-7  2.063176508  1-8  2.054561741  2-3  2.532267759
     ( 1.499724512)     ( 1.091774728)     ( 1.091785990)     ( 1.087227252)     ( 1.340018390)

  2- 9  2.049349902   3- 4  2.761420824   3-10  2.049746558   4- 5  2.527658814   4-11  2.045481024
       ( 1.084469265)       ( 1.461280970)       ( 1.084679167)       ( 1.337579441)       ( 1.082421944)

  5-12  2.041833751   5-13  2.046121769
       ( 1.080491889)       ( 1.082761011)

 Bond angles

  1-2-3  127.36769203   1-2-9  115.39855901   2-1-6  110.45444535   2-1-7  110.45417453

  2- 1- 8  112.87941838   2- 3- 4  126.63511536   2- 3-10  117.95416222   3- 2- 9  117.23374896

  3- 4- 5  123.11184583   3- 4-11  118.10071365   4- 3-10  115.41072241   4- 5-12  121.53938936

  4- 5-13  121.26618363   5- 4-11  118.78744051   6- 1- 7  106.90738959   6- 1- 8  107.95992625

  7- 1- 8  107.95916450  12- 5-13  117.19442701

 NUCLEAR CHARGE:                   38
 NUMBER OF PRIMITIVE AOS:         273
 NUMBER OF SYMMETRY AOS:          263
 NUMBER OF CONTRACTIONS:          187   ( 187A   )
 NUMBER OF CORE ORBITALS:           5   (   5A   )
 NUMBER OF VALENCE ORBITALS:       28   (  28A   )


 NUCLEAR REPULSION ENERGY  155.81520284


 Eigenvalues of metric

         1 0.111E-04 0.121E-04 0.288E-04 0.356E-04 0.454E-04 0.813E-04 0.116E-03 0.126E-03


 Contracted 2-electron integrals neglected if value below      1.0D-12
 AO integral compression algorithm  1   Integral accuracy      1.0D-12

     726.401 MB (compressed) written to integral file ( 53.0%)


 NUMBER OF SORTED TWO-ELECTRON INTEGRALS:  154501831.     BUFFER LENGTH:  32768
 NUMBER OF SEGMENTS:  10  SEGMENT LENGTH:   15999503      RECORD LENGTH: 524288

 Memory used in sort:      16.56 MW

 SORT1 READ   171475898. AND WROTE   149856198. INTEGRALS IN    435 RECORDS. CPU TIME:     2.34 SEC, REAL TIME:     4.50 SEC
 SORT2 READ   149856198. AND WROTE   154501831. INTEGRALS IN   2771 RECORDS. CPU TIME:     3.61 SEC, REAL TIME:     4.66 SEC

 FILE SIZES:   FILE 1:   757.9 MBYTE,  FILE 4:  1824.6 MBYTE,   TOTAL:   2582.4 MBYTE

 OPERATOR DM      FOR CENTER  0  COORDINATES:    0.000000    0.000000    0.000000


 **********************************************************************************************************************************
 DATASETS  * FILE   NREC   LENGTH (MB)   RECORD NAMES
              1      19      696.42       500      610      700      900      950      970     1000      129      960     1100   
                                          VAR    BASINP    GEOM    SYMINP    ZMAT    AOBASIS   BASIS     P2S    ABASIS      S 
                                         1400     1410     1200     1210     1080     1600     1650     1300     1700   
                                           T        V       H0       H01     AOSYM     SMH    MOLCAS    ERIS     OPER   

 PROGRAMS   *        TOTAL       INT
 CPU TIMES  *        14.89     14.75
 REAL TIME  *        33.66 SEC
 DISK USED  *         2.58 GB      
 **********************************************************************************************************************************

 Density functional group LSDAC=PW92C
 Functional: PW92C(Automatically generated (new) PW92C)                        Gradient terms: 0
 Use grid at  1800.2

 Functional: PW92C                     Factor:  1.0000

 Generated new metagrid on record  1800.2 with target accuracy 1.0D-06 and 50412 points in CPU time    1.1
 Computed new grid on record 1800.1 in CPU time    1.3
   81724 words reserved for DFT integration

 PROGRAM * RKS-SCF (Restricted closed shell Kohn-Sham)     Authors: W. Meyer, H.-J. Werner, P.J. Knowles, 1993

 NUMBER OF ELECTRONS:      19+   19-    SPACE SYMMETRY=1    SPIN SYMMETRY: Singlet 
 CONVERGENCE THRESHOLDS:    1.00E-05 (Density)    1.00E-06 (Energy)
 MAX. NUMBER OF ITERATIONS:       60
 INTERPOLATION TYPE:            DIIS
 INTERPOLATION STEPS:              2 (START)      1 (STEP)
 LEVEL SHIFTS:                  0.00 (CLOSED)  0.00 (OPEN) 



 Use fine grid record 1800.2 for energy threshold  1.0D-06
 Orbital guess generated from atomic densities. Full valence occupancy:   33

 Molecular orbital dump at record        2100.2

 Initial occupancy:  19

 ITERATION    DDIFF          GRAD             ENERGY        2-EL.EN.            DIPOLE MOMENTS         DIIS   ORB.
    1      0.000D+00      0.000D+00      -167.42992261    435.386401    2.97152    0.13323   -0.00001    0    start
    2      0.000D+00      0.117D-01      -165.71278073    523.028265   -3.09193   -2.42660   -0.00009    1    diag
    3      0.592D+00      0.258D-01      -168.05107794    488.010456   -0.21662   -0.02173   -0.00000    2    diag
    4      0.545D-01      0.680D-02      -168.18754712    477.351778   -0.92774   -0.44140   -0.00001    3    diag
    5      0.261D-01      0.475D-02      -168.26926561    472.710325   -0.60641   -0.29289   -0.00001    4    diag
    6      0.140D-01      0.966D-03      -168.26924669    472.929464   -0.57958   -0.04635    0.00001    5    diag
    7      0.565D-02      0.100D-02      -168.27228426    472.857454   -0.31007   -0.12806   -0.00000    6    diag
    8      0.274D-02      0.275D-03      -168.27246421    472.801073   -0.54036   -0.14833   -0.00000    7    diag
    9      0.121D-02      0.205D-03      -168.27262321    472.851897   -0.48341   -0.14999   -0.00000    8    diag
   10      0.382D-03      0.217D-04      -168.27262530    472.863838   -0.47052   -0.14638   -0.00000    9    orth
   11      0.107D-03      0.662D-05      -168.27262542    472.868392   -0.46832   -0.14537   -0.00000    9    diag
   12      0.322D-04      0.284D-05      -168.27262545    472.867928   -0.46991   -0.14576   -0.00000    9    diag
   13      0.102D-04      0.475D-06      -168.27262545    472.867860   -0.46968   -0.14571   -0.00000    9    diag
   14      0.348D-05      0.136D-06      -168.27262545    472.867408   -0.46973   -0.14574   -0.00000    0    orth

 Final occupancy:  19

 !RKS STATE 1.1 Energy               -168.272625446446
 Nuclear energy                       155.81520284
 One-electron energy                 -558.22653999
 Two-electron energy                  236.43370394
 Density functional                    -2.29499223     PW92C=-2.29499223
 Virial quotient                       -0.90928657
 !RKS STATE 1.1 Dipole moment          -0.46972909    -0.14574232    -0.00000280
 Dipole moment /Debye                  -1.19385406    -0.37041576    -0.00000711

 Orbital energies:

         1.1          2.1          3.1          4.1          5.1          6.1          7.1          8.1          9.1         10.1
     -8.249240    -8.247005    -8.245720    -8.241626    -8.237243    -0.476384    -0.422270    -0.352953    -0.278251    -0.236588

        11.1         12.1         13.1         14.1         15.1         16.1         17.1         18.1         19.1         20.1
     -0.194058    -0.169719    -0.158319    -0.117570    -0.097787    -0.097643    -0.085785    -0.048265    -0.013806     0.022039

        21.1
      0.030417

 HOMO     19.1    -0.013806 =      -0.3757eV
 LUMO     20.1     0.022039 =       0.5997eV
 LUMO-HOMO         0.035845 =       0.9754eV


 **********************************************************************************************************************************
 DATASETS  * FILE   NREC   LENGTH (MB)   RECORD NAMES
              1      20      698.03       500      610      700      900      950      970     1000      129      960     1100   
                                          VAR    BASINP    GEOM    SYMINP    ZMAT    AOBASIS   BASIS     P2S    ABASIS      S 
                                         1400     1410     1200     1210     1080     1600     1650     1300     1700     1800   
                                           T        V       H0       H01     AOSYM     SMH    MOLCAS    ERIS     OPER     GRID   

              2       5        3.69       700     1000      520     1800     2100   
                                         GEOM     BASIS   MCVARS    GRID      RKS  

 PROGRAMS   *        TOTAL        KS       INT
 CPU TIMES  *        50.16     35.27     14.75
 REAL TIME  *        71.95 SEC
 DISK USED  *         2.58 GB      
 **********************************************************************************************************************************


 PROGRAM * Intrinsic Basis Bonding Analysis (IBBA)          Author: G. Knizia

 Molecular orbitals read from record     2100.2  Type=RKS/CANONICAL (state 1.1)
 Fock matrix read from record            2100.2  Type=RKS/TOTAL (state 1.1)
 Orbital energies read from record       2100.2  Type=RKS/CANONICAL (state 1.1)
 Density matrix read from record         2100.2  Type=RKS/CHARGE (state 1.1)

 Number of core orbitals:           5 (   5 )
 Number of closed-shell orbitals:  14 (  14 )

 Basis set MINAO-AUTO-PP generated.      Number of basis functions:   33 

 Polarized AO type:                A = (O Ot + (1-O)(1-Ot)) P12
 Orthogonalization method:         Symmetric (Loewdin)
 Localization functional:          L = sum[A,i] <i|n_A|i>^4 -> max

 Localization group 1:  19 orbitals, occupancy  2.000
 Iterative localization: IB/PM,   10 iter; Final gradient 0.14E-08

 Bond order analysis:       [THRPRINT= 0.020]

   CEN ATOM   CEN ATOM     WIBERG.BO      RENORM.BO
     1   C  -   2   C       1.084880       1.077541
     1   C  -   8   H       0.944944       0.955279
     1   C  -   7   H       0.933946       0.975587
     1   C  -   6   H       0.933946       0.975588
     1   C  -  10   H       0.025273       0.025848

     2   C  -   3   C       1.767923       1.756040
     2   C  -   1   C       1.084880       1.077541
     2   C  -   9   H       0.933669       0.944336
     2   C  -   5   C       0.168185       0.162958

     3   C  -   2   C       1.767923       1.756040
     3   C  -   4   C       1.156417       1.160184
     3   C  -  10   H       0.921701       0.930703
     3   C  -   7   H       0.035134       0.037540
     3   C  -   6   H       0.035133       0.037540
     3   C  -  12   H       0.022224       0.023998

     4   C  -   5   C       1.855811       1.848152
     4   C  -   3   C       1.156417       1.160184
     4   C  -  11   H       0.912367       0.927097
     4   C  -   9   H       0.022678       0.023567

     5   C  -   4   C       1.855811       1.848152
     5   C  -  12   H       0.962076       0.969611
     5   C  -  13   H       0.945841       0.944101
     5   C  -   2   C       0.168185       0.162958

     6   H  -   1   C       0.933946       0.975588
     6   H  -   3   C       0.035133       0.037540

     7   H  -   1   C       0.933946       0.975587
     7   H  -   3   C       0.035134       0.037540

     8   H  -   1   C       0.944944       0.955279
     8   H  -   9   H       0.024826       0.028111

     9   H  -   2   C       0.933669       0.944336
     9   H  -   8   H       0.024826       0.028111
     9   H  -   4   C       0.022678       0.023567

    10   H  -   3   C       0.921701       0.930703
    10   H  -  11   H       0.027159       0.030119
    10   H  -   1   C       0.025273       0.025848

    11   H  -   4   C       0.912367       0.927097
    11   H  -  13   H       0.032843       0.036704
    11   H  -  10   H       0.027159       0.030119

    12   H  -   5   C       0.962076       0.969611
    12   H  -   3   C       0.022224       0.023998

    13   H  -   5   C       0.945841       0.944101
    13   H  -  11   H       0.032843       0.036704


 Valency analysis:

   CEN ATOM   TOT.VALENCE
     1   C       3.958140
     2   C       3.982286
     3   C       3.981011
     4   C       3.978234
     5   C       3.975253
     6   H       0.992186
     7   H       0.992186
     8   H       0.994674
     9   H       0.997758
    10   H       0.997987
    11   H       0.996876
    12   H       0.996017
    13   H       0.997275

 Total charge composition:

   CEN ATOM         s          p       ELECTRONS ->P.CHARGE
     1   C       2.91091    3.31163      6.22254   -0.22254
     2   C       2.90898    3.11317      6.02215   -0.02215
     3   C       2.90744    3.16057      6.06801   -0.06801
     4   C       2.90369    3.12783      6.03152   -0.03152
     5   C       2.93852    3.23046      6.16898   -0.16898
     6   H       0.91160                 0.91160    0.08840
     7   H       0.91160                 0.91160    0.08840
     8   H       0.92702                 0.92702    0.07298
     9   H       0.95265                 0.95265    0.04735
    10   H       0.95513                 0.95513    0.04487
    11   H       0.94410                 0.94410    0.05590
    12   H       0.93689                 0.93689    0.06311
    13   H       0.94780                 0.94780    0.05220

 Total charge composition, AO contributions:

   CEN ATOM SHL      SPHERICAL COMPONENTS
     1   C  1s       1.99720
     1   C  2s       0.91370
     1   C  2p       1.11272    1.08823    1.11068

     2   C  1s       1.99648
     2   C  2s       0.91250
     2   C  2p       1.07843    1.04130    0.99343

     3   C  1s       1.99627
     3   C  2s       0.91117
     3   C  2p       1.07387    1.05137    1.03534

     4   C  1s       1.99625
     4   C  2s       0.90744
     4   C  2p       1.08258    1.06639    0.97886

     5   C  1s       1.99644
     5   C  2s       0.94208
     5   C  2p       1.09376    1.09342    1.04328

     6   H  1s       0.91160

     7   H  1s       0.91160

     8   H  1s       0.92702

     9   H  1s       0.95265

    10   H  1s       0.95513

    11   H  1s       0.94410

    12   H  1s       0.93689

    13   H  1s       0.94780

 Summary of localized orbital composition:   [THRPRINT= 0.020]

   ORB  GRP  ORB.ENERGY      CENTERS/CHARGES
     1   1    -8.160076      C  1   2.000
     2   1    -8.151110      C  2   2.000
     3   1    -8.144483      C  4   2.000
     4   1    -8.142268      C  5   2.000
     5   1    -8.136899      C  3   2.000
     6   1    -0.398727      C  4   0.994   C  5   0.992
     7   1    -0.395895      C  2   0.995   C  3   0.987
     8   1    -0.317897      C  4   0.991   C  3   0.978   (other: 0.030)
     9   1    -0.300294      C  1   1.015   C  2   0.968
    10   1    -0.221104      C  4   1.033   H 11   0.922   (other: 0.045)
    11   1    -0.211357      C  5   1.050   H 13   0.930   (other: 0.020)
    12   1    -0.211306      C  2   1.033   H  9   0.934   (other: 0.032)
    13   1    -0.209995      C  3   1.029   H 10   0.933   (other: 0.038)
    14   1    -0.208465      C  1   1.058   H  6   0.898   C  2   0.025
    15   1    -0.208461      C  1   1.058   H  7   0.898   C  2   0.025
    16   1    -0.208435      C  1   1.068   H  8   0.911   (other: 0.022)
    17   1    -0.206425      C  5   1.061   H 12   0.924
    18   1    -0.070884      C  3   0.986   C  2   0.891   C  4   0.069   C  5   0.034
    19   1    -0.066151      C  5   1.006   C  4   0.909   C  2   0.056   C  3   0.027

 Localized orbitals saved to record      2100.2  (orbital set 2)


 **********************************************************************************************************************************
 DATASETS  * FILE   NREC   LENGTH (MB)   RECORD NAMES
              1      20      698.03       500      610      700      900      950      970     1000      129      960     1100   
                                          VAR    BASINP    GEOM    SYMINP    ZMAT    AOBASIS   BASIS     P2S    ABASIS      S 
                                         1400     1410     1200     1210     1080     1600     1650     1300     1700     1800   
                                           T        V       H0       H01     AOSYM     SMH    MOLCAS    ERIS     OPER     GRID   

              2       5        3.97       700     1000      520     1800     2100   
                                         GEOM     BASIS   MCVARS    GRID      RKS  

 PROGRAMS   *        TOTAL      IBBA        KS       INT
 CPU TIMES  *        50.21      0.04     35.27     14.75
 REAL TIME  *        72.14 SEC
 DISK USED  *         2.58 GB      
 **********************************************************************************************************************************
 Molecular orbitals read from record     2100.2  Type=RKS/LOCAL(IBO)  
 Occupation numbers read from record     2100.2  Type=RKS/LOCAL(IBO)  
 Orbital energies read from record       2100.2  Type=RKS/LOCAL(IBO)  
 Redundancy group numbers read from rec  2100.2  Type=RKS/LOCAL(IBO)  

 IBBA/aug-cc-pVDZ energy=      0.000000000000

        KS-SCF  
   -168.27262545
 **********************************************************************************************************************************
 Molpro calculation terminated
