
 Primary working directories    : /local
 Secondary working directories  : /local
 Wavefunction directory         : /local/
 Main file repository           : /local/

 SHA1      : b4a5b34a9e711420743f49e6833241d17c61fb3c
 NAME      : 2099.9.b4a5b34
 ARCHNAME  : linux/x86_64_openmp
 FC        : /cm/shared/languages/GCC-6.1/bin/gfortran
 BLASLIB   : -lblas
 id        : simonbennie

 Nodes     nprocs
 node34-031    1

 Using customized tuning parameters: mindgm=1; mindgv=20; mindgc=4; mindgr=1; noblas=0; minvec=7
 default implementation of scratch files=df  

 memory,500,m
 geomtyp=xyz
 nosym
 noorient
 geometry={
 Cl         0.00000        0.00000        0.00000
 H          0.00000        0.00000        1.27445
 }
 basis={ default,avtz }
 {uks,S-VWN,direct;wf,18,1,0}
 {ibba,bonds=1}

 Variables initialized (895), CPU time= 0.00 sec
 Commands  initialized (725), CPU time= 0.01 sec, 591 directives.
 Default parameters read. Elapsed time= 0.09 sec

 Checking input...
 Passed
1


                                         ***  PROGRAM SYSTEM MOLPRO  ***
                                       Copyright, TTI GmbH Stuttgart, 2015
                                    Version 2099.9 linked May 26 2017 16:03:21


 **********************************************************************************************************************************
 LABEL *                                                                                 
  64 bit serial version                                                                  DATE: 20-Jun-17          TIME: 10:05:03  
 **********************************************************************************************************************************

 SHA1:             b4a5b34a9e711420743f49e6833241d17c61fb3c
 **********************************************************************************************************************************
 SETTING GEOMTYP        =    XYZ

 Variable memory set to  500000000 words,  buffer space 

 ZSYMEL=NOSYM

 SETTING BASIS          =    AVTZ


 Recomputing integrals since basis changed


 Using spherical harmonics

 Library entry CL     S aug-cc-pVTZ          selected for orbital group  1
 Library entry CL     P aug-cc-pVTZ          selected for orbital group  1
 Library entry CL     D aug-cc-pVTZ          selected for orbital group  1
 Library entry CL     F aug-cc-pVTZ          selected for orbital group  1
 Library entry H      S aug-cc-pVTZ          selected for orbital group  2
 Library entry H      P aug-cc-pVTZ          selected for orbital group  2
 Library entry H      D aug-cc-pVTZ          selected for orbital group  2


 PROGRAM * SEWARD (Integral evaluation for generally contracted gaussian basis sets)     Author: Roland Lindh, 1990

 Geometry written to block  1 of record 700


 Point group  C1  



 ATOMIC COORDINATES

 NR  ATOM    CHARGE       X              Y              Z

   1  CL     17.00    0.000000000    0.000000000    0.000000000
   2  H       1.00    0.000000000    0.000000000    2.408361459

 Bond lengths in Bohr (Angstrom)

 1-2  2.408361459
     ( 1.274450000)

 NUCLEAR CHARGE:                   18
 NUMBER OF PRIMITIVE AOS:         111
 NUMBER OF SYMMETRY AOS:          100
 NUMBER OF CONTRACTIONS:           73   (  73A   )
 NUMBER OF CORE ORBITALS:           5   (   5A   )
 NUMBER OF VALENCE ORBITALS:        5   (   5A   )


 NUCLEAR REPULSION ENERGY    7.05874109

 EXTRA SYMMETRY OF AOS IN SYMMETRY 1:   1 1 1 1 1 1 2 3 1 2   3 1 2 3 1 2 3 1 2 3   1 1 4 2 5 3 1 4 2 5   3 1 4 2 5 3 2 3 1 6
                                        4 7 5 2 3 1 6 4 7 5   1 1 1 1 2 3 1 2 3 1   2 3 1 1 4 2 5 3 1 4   2 5 3

 Eigenvalues of metric

         1 0.338E-03 0.136E-02 0.420E-02 0.967E-02 0.139E-01 0.139E-01 0.183E-01 0.183E-01


 Contracted 2-electron integrals neglected if value below      1.0D-11
 AO integral compression algorithm  1   Integral accuracy      1.0D-11

     6.029 MB (compressed) written to integral file ( 15.7%)


 NUMBER OF SORTED TWO-ELECTRON INTEGRALS:    3649051.     BUFFER LENGTH:  32768
 NUMBER OF SEGMENTS:   1  SEGMENT LENGTH:    3649051      RECORD LENGTH: 524288

 Memory used in sort:       4.21 MW

 SORT1 READ     4836086. AND WROTE      702272. INTEGRALS IN      3 RECORDS. CPU TIME:     0.02 SEC, REAL TIME:     0.03 SEC
 SORT2 READ      702272. AND WROTE     3649051. INTEGRALS IN     23 RECORDS. CPU TIME:     0.11 SEC, REAL TIME:     0.12 SEC

 FILE SIZES:   FILE 1:    36.2 MBYTE,  FILE 4:    12.6 MBYTE,   TOTAL:     48.8 MBYTE

 OPERATOR DM      FOR CENTER  0  COORDINATES:    0.000000    0.000000    0.000000


 **********************************************************************************************************************************
 DATASETS  * FILE   NREC   LENGTH (MB)   RECORD NAMES
              1      19       34.08       500      610      700      900      950      970     1000      129      960     1100   
                                          VAR    BASINP    GEOM    SYMINP    ZMAT    AOBASIS   BASIS     P2S    ABASIS      S 
                                         1400     1410     1200     1210     1080     1600     1650     1300     1700   
                                           T        V       H0       H01     AOSYM     SMH    MOLCAS    ERIS     OPER   

 PROGRAMS   *        TOTAL       INT
 CPU TIMES  *         0.66      0.52
 REAL TIME  *         0.98 SEC
 DISK USED  *        49.12 MB      
 **********************************************************************************************************************************

 Density functional group S-VWN=DIRAC+VWN5
 Functional: DIRAC(Automatically generated (new) DIRAC)                        Gradient terms: 0
 Functional: VWN5(Automatically generated (new) VWN5)                          Gradient terms: 0
 Use grid at  1800.2

 Functional: DIRAC                     Factor:  1.0000
 Functional: VWN5                      Factor:  1.0000

 Generated new metagrid on record  1800.2 with target accuracy 1.0D-06 and 10064 points in CPU time    0.1
 Computed new grid on record 1800.1 in CPU time    0.1
   34501 words reserved for DFT integration

 PROGRAM * UKS-SCF (Unrestricted Kohn-Sham)     Authors: W. Meyer, H.-J. Werner, P.J. Knowles, 1993

 NUMBER OF ELECTRONS:       9+    9-    SPACE SYMMETRY=1    SPIN SYMMETRY: Singlet 
 CONVERGENCE THRESHOLDS:    1.00E-05 (Density)    1.00E-06 (Energy)
 MAX. NUMBER OF ITERATIONS:       60
 INTERPOLATION TYPE:            DIIS
 INTERPOLATION STEPS:              2 (START)      1 (STEP)
 LEVEL SHIFTS:                 -0.20 (ALPHA)  -0.20 (BETA) 



 Use fine grid record 1800.2 for energy threshold  1.0D-06
 Orbital guess generated from atomic densities. Full valence occupancy:   10

 Molecular orbital dump at record        2200.2

 Initial alpha occupation   9
 Initial beta  occupation   9

 ITERATION    DDIFF          GRAD             ENERGY        2-EL.EN.            DIPOLE MOMENTS         DIIS
    1      0.000D+00      0.000D+00      -459.31912206    423.422654   -0.00000   -0.00000    0.63111    0
    2      0.622D-02      0.165D-02      -459.32693825    419.927430    0.00000    0.00000    0.42742    1
    3      0.137D-02      0.797D-03      -459.32787107    420.828988    0.00000   -0.00000    0.45874    2
    4      0.336D-03      0.937D-04      -459.32790845    420.798941    0.00000    0.00000    0.45066    3
    5      0.195D-03      0.398D-04      -459.32792146    420.783985    0.00000   -0.00000    0.44616    4
    6      0.935D-04      0.130D-04      -459.32792327    420.777035   -0.00000    0.00000    0.44423    5
    7      0.120D-04      0.249D-05      -459.32792331    420.776758   -0.00000    0.00000    0.44478    6
    8      0.346D-05      0.105D-05      -459.32792331    420.776466   -0.00000    0.00000    0.44460    7
    9      0.827D-06      0.131D-06      -459.32792331    420.776516    0.00000   -0.00000    0.44463    6

 Final alpha occupancy:   9
 Final beta  occupancy:   9

 !UKS STATE 1.1 Energy               -459.327923311280
 Nuclear energy                         7.05874109
 One-electron energy                 -649.72501002
 Two-electron energy                  210.38825788
 Density functional                   -27.04991226     DIRAC=-25.66502033 VWN5= -1.38489193
 Virial quotient                       -1.00075735
 !UKS STATE 1.1 Dipole moment           0.00000000    -0.00000000     0.44463276
 Dipole moment /Debye                   0.00000000    -0.00000000     1.13006973

 Orbital energies for positive spin:

         1.1          2.1          3.1          4.1          5.1          6.1          7.1          8.1          9.1         10.1
   -100.350073    -9.157241    -7.017844    -7.007458    -7.007458    -0.777021    -0.434578    -0.299806    -0.299806    -0.041671

        11.1
      0.026246

 Orbital energies for negative spin:

         1.1          2.1          3.1          4.1          5.1          6.1          7.1          8.1          9.1         10.1
   -100.350073    -9.157241    -7.017844    -7.007458    -7.007458    -0.777021    -0.434578    -0.299806    -0.299806    -0.041671

        11.1
      0.026246

 HOMO      9.1    -0.299806 =      -8.1581eV
 LUMO     10.1    -0.041671 =      -1.1339eV
 LUMO-HOMO         0.258135 =       7.0242eV

 EXPECTATION VALUE OF S**2:             0.00000000

 Occupation number threshold for canonical orbitals:  1.999000 (occupied),  0.001000 (virtual)

 Number of pseudo-canonical orbitals per symmetry:    9
 Number of active natural orbitals per symmetry:      0

 Natural orbitals saved to record    2200.2 (Orbital set 3)

 Orbital spaces for UNO-CAS (Min. occupation: 0.020  Max. occupation: 1.980):

 Closed:        9
 Active:        0


 **********************************************************************************************************************************
 DATASETS  * FILE   NREC   LENGTH (MB)   RECORD NAMES
              1      20       34.40       500      610      700      900      950      970     1000      129      960     1100   
                                          VAR    BASINP    GEOM    SYMINP    ZMAT    AOBASIS   BASIS     P2S    ABASIS      S 
                                         1400     1410     1200     1210     1080     1600     1650     1300     1700     1800   
                                           T        V       H0       H01     AOSYM     SMH    MOLCAS    ERIS     OPER     GRID   

              2       5        2.99       700     1000      520     1800     2200   
                                         GEOM     BASIS   MCVARS    GRID      UKS  

 PROGRAMS   *        TOTAL       UKS       INT
 CPU TIMES  *         2.17      1.51      0.52
 REAL TIME  *         2.55 SEC
 DISK USED  *        49.12 MB      
 **********************************************************************************************************************************


 PROGRAM * Intrinsic Basis Bonding Analysis (IBBA)          Author: G. Knizia

 Molecular orbitals read from record     2200.2  Type=UKS/ALPHA (state 1.1)
 Fock matrix read from record            2200.2  Type=UKS/TOTAL (state 1.1)
 Orbital energies read from record       2200.2  Type=UKS/ALPHA (state 1.1)
 Density matrix read from record         2200.2  Type=UKS/CHARGE (state 1.1)

 Number of core orbitals:           5 (   5 )
 Number of closed-shell orbitals:   4 (   4 )

 Basis set MINAO-AUTO-PP generated.      Number of basis functions:   10 

 Polarized AO type:                A = (O Ot + (1-O)(1-Ot)) P12
 Orthogonalization method:         Symmetric (Loewdin)
 Localization functional:          L = sum[A,i] <i|n_A|i>^4 -> max

 Localization group 1:   9 orbitals, occupancy  2.000
 Iterative localization: IB/PM,    3 iter; Final gradient 0.11E-13

 Bond order analysis:       [THRPRINT= 0.020]

   CEN ATOM   CEN ATOM     WIBERG.BO      RENORM.BO
     1  CL  -   2   H       0.945749       1.000000

     2   H  -   1  CL       0.945749       1.000000


 Valency analysis:

   CEN ATOM   TOT.VALENCE
     1  CL       0.945749
     2   H       0.945749

 Total charge composition:

   CEN ATOM         s          p       ELECTRONS ->P.CHARGE
     1  CL       5.84830   11.38461     17.23292   -0.23292
     2   H       0.76708                 0.76708    0.23292

 Total charge composition, AO contributions:

   CEN ATOM SHL      SPHERICAL COMPONENTS
     1  CL  1s       1.99994
     1  CL  2s       1.99693
     1  CL  3s       1.85143
     1  CL  2p       2.00000    2.00000    1.99963
     1  CL  3p       2.00000    2.00000    1.38498

     2   H  1s       0.76708

 Summary of localized orbital composition:   [THRPRINT= 0.020]

   ORB  GRP  ORB.ENERGY      CENTERS/CHARGES
     1   1   -98.911688     CL  1   2.000
     2   1    -9.980934     CL  1   2.000
     3   1    -7.482053     CL  1   2.000
     4   1    -7.007455     CL  1   2.000
     5   1    -7.007455     CL  1   2.000
     6   1    -0.711306     CL  1   2.000
     7   1    -0.650765     CL  1   1.233   H  2   0.767
     8   1    -0.299805     CL  1   2.000
     9   1    -0.299805     CL  1   2.000

 Localized orbitals saved to record      2200.2  (orbital set 4)


 **********************************************************************************************************************************
 DATASETS  * FILE   NREC   LENGTH (MB)   RECORD NAMES
              1      20       34.40       500      610      700      900      950      970     1000      129      960     1100   
                                          VAR    BASINP    GEOM    SYMINP    ZMAT    AOBASIS   BASIS     P2S    ABASIS      S 
                                         1400     1410     1200     1210     1080     1600     1650     1300     1700     1800   
                                           T        V       H0       H01     AOSYM     SMH    MOLCAS    ERIS     OPER     GRID   

              2       5        3.04       700     1000      520     1800     2200   
                                         GEOM     BASIS   MCVARS    GRID      UKS  

 PROGRAMS   *        TOTAL      IBBA       UKS       INT
 CPU TIMES  *         2.19      0.01      1.51      0.52
 REAL TIME  *         2.59 SEC
 DISK USED  *        49.12 MB      
 **********************************************************************************************************************************
 Molecular orbitals read from record     2200.2  Type=UKS/LOCAL(IBO)  
 Occupation numbers read from record     2200.2  Type=UKS/LOCAL(IBO)  
 Orbital energies read from record       2200.2  Type=UKS/LOCAL(IBO)  
 Redundancy group numbers read from rec  2200.2  Type=UKS/BETA (state 1.1)

 IBBA/aug-cc-pVTZ energy=      0.000000000000

        UKS-SCF 
   -459.32792331
 **********************************************************************************************************************************
 Molpro calculation terminated
