
 Primary working directories    : /local
 Secondary working directories  : /local
 Wavefunction directory         : /local/
 Main file repository           : /local/

 SHA1      : b4a5b34a9e711420743f49e6833241d17c61fb3c
 NAME      : 2099.9.b4a5b34
 ARCHNAME  : linux/x86_64_openmp
 FC        : /cm/shared/languages/GCC-6.1/bin/gfortran
 BLASLIB   : -lblas
 id        : simonbennie

 Nodes     nprocs
 node32-026    1

 Using customized tuning parameters: mindgm=1; mindgv=20; mindgc=4; mindgr=1; noblas=0; minvec=7
 default implementation of scratch files=df  

 memory,500,m
 geomtyp=xyz
 nosym
 noorient
 geometry={
 N          0.00000        0.00000        0.11289
 H          0.00000        0.93802       -0.26341
 H          0.81235       -0.46901       -0.26341
 H         -0.81235       -0.46901       -0.26341
 }
 basis={ default,avtz }
 {uks,M06-HF,direct;disp;wf,10,1,0}
 {ibba,bonds=1}

 Variables initialized (895), CPU time= 0.00 sec
 Commands  initialized (725), CPU time= 0.01 sec, 591 directives.
 Default parameters read. Elapsed time= 0.09 sec

 Checking input...
 Passed
1


                                         ***  PROGRAM SYSTEM MOLPRO  ***
                                       Copyright, TTI GmbH Stuttgart, 2015
                                    Version 2099.9 linked May 26 2017 16:03:21


 **********************************************************************************************************************************
 LABEL *                                                                                 
  64 bit serial version                                                                  DATE: 15-Mar-18          TIME: 08:32:14  
 **********************************************************************************************************************************

 SHA1:             b4a5b34a9e711420743f49e6833241d17c61fb3c
 **********************************************************************************************************************************
 SETTING GEOMTYP        =    XYZ

 Variable memory set to  500000000 words,  buffer space 

 ZSYMEL=NOSYM

 SETTING BASIS          =    AVTZ


 Recomputing integrals since basis changed


 Using spherical harmonics

 Library entry N      S aug-cc-pVTZ          selected for orbital group  1
 Library entry N      P aug-cc-pVTZ          selected for orbital group  1
 Library entry N      D aug-cc-pVTZ          selected for orbital group  1
 Library entry N      F aug-cc-pVTZ          selected for orbital group  1
 Library entry H      S aug-cc-pVTZ          selected for orbital group  2
 Library entry H      P aug-cc-pVTZ          selected for orbital group  2
 Library entry H      D aug-cc-pVTZ          selected for orbital group  2


 PROGRAM * SEWARD (Integral evaluation for generally contracted gaussian basis sets)     Author: Roland Lindh, 1990

 Geometry written to block  1 of record 700


 Point group  C1  



 ATOMIC COORDINATES

 NR  ATOM    CHARGE       X              Y              Z

   1  N       7.00    0.000000000    0.000000000    0.213331182
   2  H       1.00    0.000000000    1.772600899   -0.497772758
   3  H       1.00    1.535119017   -0.886300450   -0.497772758
   4  H       1.00   -1.535119017   -0.886300450   -0.497772758

 Bond lengths in Bohr (Angstrom)

 1-2  1.909916952  1-3  1.909918244  1-4  1.909918244
     ( 1.010684526)     ( 1.010685209)     ( 1.010685209)

 Bond angles

  2-1-3  106.98158839   2-1-4  106.98158839   3-1-4  106.98165762

 NUCLEAR CHARGE:                   10
 NUMBER OF PRIMITIVE AOS:         148
 NUMBER OF SYMMETRY AOS:          133
 NUMBER OF CONTRACTIONS:          115   ( 115A   )
 NUMBER OF CORE ORBITALS:           1   (   1A   )
 NUMBER OF VALENCE ORBITALS:        7   (   7A   )


 NUCLEAR REPULSION ENERGY   11.97236097


 Eigenvalues of metric

         1 0.276E-03 0.354E-03 0.354E-03 0.176E-02 0.220E-02 0.220E-02 0.287E-02 0.336E-02


 Contracted 2-electron integrals neglected if value below      1.0D-11
 AO integral compression algorithm  1   Integral accuracy      1.0D-11

     106.430 MB (compressed) written to integral file ( 47.6%)


 NUMBER OF SORTED TWO-ELECTRON INTEGRALS:   22247785.     BUFFER LENGTH:  32768
 NUMBER OF SEGMENTS:   2  SEGMENT LENGTH:   15997996      RECORD LENGTH: 524288

 Memory used in sort:      16.56 MW

 SORT1 READ    27857919. AND WROTE    18966086. INTEGRALS IN     55 RECORDS. CPU TIME:     0.26 SEC, REAL TIME:     0.58 SEC
 SORT2 READ    18966086. AND WROTE    22247785. INTEGRALS IN    406 RECORDS. CPU TIME:     0.61 SEC, REAL TIME:     0.78 SEC

 FILE SIZES:   FILE 1:   136.9 MBYTE,  FILE 4:   230.7 MBYTE,   TOTAL:    367.6 MBYTE

 OPERATOR DM      FOR CENTER  0  COORDINATES:    0.000000    0.000000    0.000000


 **********************************************************************************************************************************
 DATASETS  * FILE   NREC   LENGTH (MB)   RECORD NAMES
              1      19      117.91       500      610      700      900      950      970     1000      129      960     1100   
                                          VAR    BASINP    GEOM    SYMINP    ZMAT    AOBASIS   BASIS     P2S    ABASIS      S 
                                         1400     1410     1200     1210     1080     1600     1650     1300     1700   
                                           T        V       H0       H01     AOSYM     SMH    MOLCAS    ERIS     OPER   

 PROGRAMS   *        TOTAL       INT
 CPU TIMES  *         2.15      2.01
 REAL TIME  *         9.12 SEC
 DISK USED  *       367.99 MB      
 **********************************************************************************************************************************

 Density functional group M06-HF=XC-M06-HF
 Functional: XC-M06-HF(via MFM 1.6)                                            Gradient terms: 1

 dispersion correction activated
 Density functional: M06-HF  
 functional not in list, set to default 


 Exact exchange will be calculated, factor:  1.0000

 Functional: XC-M06-HF                 Factor:  1.0000

 Use grid at  1800.2


 Exact exchange will be calculated, factor:  1.0000

 Functional: XC-M06-HF                 Factor:  1.0000

 Generated new metagrid on record  1800.2 with target accuracy 1.0D-06 and 13734 points in CPU time    0.3
 Computed new grid on record 1800.1 in CPU time    0.3
   95290 words reserved for DFT integration

 PROGRAM * UKS-SCF (Unrestricted Kohn-Sham)     Authors: W. Meyer, H.-J. Werner, P.J. Knowles, 1993

 NUMBER OF ELECTRONS:       5+    5-    SPACE SYMMETRY=1    SPIN SYMMETRY: Singlet 
 CONVERGENCE THRESHOLDS:    1.00E-05 (Density)    1.00E-06 (Energy)
 MAX. NUMBER OF ITERATIONS:       60
 INTERPOLATION TYPE:            DIIS
 INTERPOLATION STEPS:              2 (START)      1 (STEP)
 LEVEL SHIFTS:                 -0.20 (ALPHA)  -0.20 (BETA) 



 Use fine grid record 1800.2 for energy threshold  1.0D-06
 Orbital guess generated from atomic densities. Full valence occupancy:    8

 Molecular orbital dump at record        2200.2

 Initial alpha occupation   5
 Initial beta  occupation   5

 ITERATION    DDIFF          GRAD             ENERGY        2-EL.EN.            DIPOLE MOMENTS         DIIS
    1      0.000D+00      0.000D+00       -56.52712201     64.823585   -0.00000    0.00000   -0.92842    0
    2      0.101D-01      0.254D-02       -56.55852565     62.449212   -0.00000   -0.00153   -0.64694    1
    3      0.262D-02      0.958D-03       -56.56212348     63.028126   -0.00000   -0.00187   -0.65137    2
    4      0.217D-02      0.233D-03       -56.56271183     62.974487   -0.00000   -0.00252   -0.63360    3
    5      0.108D-02      0.912D-04       -56.56284033     62.967382   -0.00000   -0.00302   -0.63031    4
    6      0.270D-03      0.207D-04       -56.56285089     62.962553   -0.00000   -0.00321   -0.63243    5
    7      0.168D-03      0.632D-05       -56.56285204     62.961527   -0.00000   -0.00328   -0.63390    6
    8      0.623D-04      0.180D-05       -56.56285212     62.961221   -0.00000   -0.00329   -0.63434    6
    9      0.971D-05      0.432D-06       -56.56285212     62.961225   -0.00000   -0.00329   -0.63443    6
   10      0.110D-05      0.988D-07       -56.56285212     62.961209   -0.00000   -0.00329   -0.63444    6

 Dispersion correction
 - - - - - - - - - - - 
  _________________________________
                                   
 |         DFTD3 V1.3 Rev 1        |
 | S.Grimme, University Muenster   |
 | Fri Jul  2 12:48:21 CEST 2010   |
  _________________________________

 Please cite DFT-D3 work done with this code as:
 S. Grimme, J. Antony, S. Ehrlich and H. Krieg,
 J. Chem. Phys, 132 (2010), 154104.
 For DFT-D2 the reference is
 S. Grimme, J. Comput. Chem., 27 (2006), 1787-1799

 C6 coefficients used:
                    2  C6 for element                     1
 Z=  1 CN=   0.912     C6(AA)=    3.03
 Z=  1 CN=   0.000     C6(AA)=    7.59
                    4  C6 for element                     7
 Z=  7 CN=   0.000     C6(AA)=   25.27
 Z=  7 CN=   0.994     C6(AA)=   22.12
 Z=  7 CN=   2.014     C6(AA)=   19.68
 Z=  7 CN=   2.990     C6(AA)=   15.58

 #           XYZ [au]               R0(AA) [Ang.]   CN       C6(AA)     C8(AA)   C10(AA) [au]
  1   0.00000   0.00000   0.21333   n   1.311  2.990        15.7       345.6      9338.9
  2   0.00000   1.77260  -0.49777   h   1.091  0.998         3.1        37.4       553.4
  3   1.53512  -0.88630  -0.49777   h   1.091  0.998         3.1        37.4       553.4
  4  -1.53512  -0.88630  -0.49777   h   1.091  0.998         3.1        37.4       553.4

 molecular C6(AA) [au] =        84.66

           DFT-D V3
 DF pbe                                               
 parameters
 s6       :    1.0000
 s8       :    0.7220
 rs6      :    1.2170
 alpha6   :   14.0000
 alpha8   :   16.0000
 k1-k3    :   16.0000    1.3333   -4.0000

 Edisp /kcal,au:    -0.0109 -0.00001740

 E6    /kcal :    -0.0012
 E8    /kcal :    -0.0097
 % E8        : 88.93
 normal termination of dftd3

 UKS STATE 1.1 ENERGY+DISP      -56.56286953

 Final alpha occupancy:   5
 Final beta  occupancy:   5

 !UKS STATE 1.1 Energy                -56.562869527517
 Nuclear energy                        11.97236097
 One-electron energy                  -99.66332591
 Two-electron energy                   31.48060472
 Density functional                    -0.35249190     XC-M06-HF=-0.35249190
 Virial quotient                       -1.00550148
 !UKS STATE 1.1 Dipole moment          -0.00000000    -0.00329238    -0.63444453
 Dipole moment /Debye                  -0.00000000    -0.00836785    -1.61249153

 Orbital energies for positive spin:

         1.1          2.1          3.1          4.1          5.1          6.1          7.1
    -15.217871    -1.072705    -0.631499    -0.630083    -0.432953    -0.012003     0.012572

 Orbital energies for negative spin:

         1.1          2.1          3.1          4.1          5.1          6.1          7.1
    -15.217871    -1.072705    -0.631499    -0.630083    -0.432953    -0.012003     0.012572

 HOMO      5.1    -0.432953 =     -11.7813eV
 LUMO      6.1    -0.012003 =      -0.3266eV
 LUMO-HOMO         0.420951 =      11.4547eV

 EXPECTATION VALUE OF S**2:             0.00000000

 Natural orbitals saved to record    2200.2 (Orbital set 3)

 Orbital spaces for UNO-CAS (Min. occupation: 0.020  Max. occupation: 1.980):

 Closed:        5
 Active:        0


 **********************************************************************************************************************************
 DATASETS  * FILE   NREC   LENGTH (MB)   RECORD NAMES
              1      20      118.35       500      610      700      900      950      970     1000      129      960     1100   
                                          VAR    BASINP    GEOM    SYMINP    ZMAT    AOBASIS   BASIS     P2S    ABASIS      S 
                                         1400     1410     1200     1210     1080     1600     1650     1300     1700     1800   
                                           T        V       H0       H01     AOSYM     SMH    MOLCAS    ERIS     OPER     GRID   

              2       5        3.35       700     1000      520     1800     2200   
                                         GEOM     BASIS   MCVARS    GRID      UKS  

 PROGRAMS   *        TOTAL       UKS       INT
 CPU TIMES  *        25.45     23.30      2.01
 REAL TIME  *        47.26 SEC
 DISK USED  *       367.99 MB      
 **********************************************************************************************************************************


 PROGRAM * Intrinsic Basis Bonding Analysis (IBBA)          Author: G. Knizia

 Molecular orbitals read from record     2200.2  Type=UKS/ALPHA (state 1.1)
 Fock matrix read from record            2200.2  Type=UKS/TOTAL (state 1.1)
 Orbital energies read from record       2200.2  Type=UKS/ALPHA (state 1.1)
 Density matrix read from record         2200.2  Type=UKS/CHARGE (state 1.1)

 Number of core orbitals:           1 (   1 )
 Number of closed-shell orbitals:   4 (   4 )

 Basis set MINAO-AUTO-PP generated.      Number of basis functions:   8 

 Polarized AO type:                A = (O Ot + (1-O)(1-Ot)) P12
 Orthogonalization method:         Symmetric (Loewdin)
 Localization functional:          L = sum[A,i] <i|n_A|i>^4 -> max

 Localization group 1:   5 orbitals, occupancy  2.000
 Iterative localization: IB/PM,    5 iter; Final gradient 0.11E-08

 Bond order analysis:       [THRPRINT= 0.020]

   CEN ATOM   CEN ATOM     WIBERG.BO      RENORM.BO
     1   N  -   2   H       0.932994       1.000000
     1   N  -   3   H       0.932531       1.000000
     1   N  -   4   H       0.932531       1.000000

     2   H  -   1   N       0.932994       1.000000

     3   H  -   1   N       0.932531       1.000000

     4   H  -   1   N       0.932531       1.000000


 Valency analysis:

   CEN ATOM   TOT.VALENCE
     1   N       2.798056
     2   H       0.934246
     3   H       0.933805
     4   H       0.933805

 Total charge composition:

   CEN ATOM         s          p       ELECTRONS ->P.CHARGE
     1   N       3.34981    4.42118      7.77099   -0.77099
     2   H       0.74358                 0.74358    0.25642
     3   H       0.74272                 0.74272    0.25728
     4   H       0.74272                 0.74272    0.25728

 Total charge composition, AO contributions:

   CEN ATOM SHL      SPHERICAL COMPONENTS
     1   N  1s       1.99378
     1   N  2s       1.35603
     1   N  2p       1.28274    1.28158    1.85686

     2   H  1s       0.74358

     3   H  1s       0.74272

     4   H  1s       0.74272

 Summary of localized orbital composition:   [THRPRINT= 0.020]

   ORB  GRP  ORB.ENERGY      CENTERS/CHARGES
     1   1   -15.080603      N  1   2.000
     2   1    -0.815030      N  1   1.257   H  3   0.742
     3   1    -0.815030      N  1   1.257   H  4   0.742
     4   1    -0.812904      N  1   1.256   H  2   0.743
     5   1    -0.461549      N  1   2.000

 Localized orbitals saved to record      2200.2  (orbital set 4)


 **********************************************************************************************************************************
 DATASETS  * FILE   NREC   LENGTH (MB)   RECORD NAMES
              1      20      118.35       500      610      700      900      950      970     1000      129      960     1100   
                                          VAR    BASINP    GEOM    SYMINP    ZMAT    AOBASIS   BASIS     P2S    ABASIS      S 
                                         1400     1410     1200     1210     1080     1600     1650     1300     1700     1800   
                                           T        V       H0       H01     AOSYM     SMH    MOLCAS    ERIS     OPER     GRID   

              2       5        3.46       700     1000      520     1800     2200   
                                         GEOM     BASIS   MCVARS    GRID      UKS  

 PROGRAMS   *        TOTAL      IBBA       UKS       INT
 CPU TIMES  *        25.47      0.02     23.30      2.01
 REAL TIME  *        47.29 SEC
 DISK USED  *       367.99 MB      
 **********************************************************************************************************************************

 IBBA/aug-cc-pVTZ energy=      0.000000000000

        UKS-SCF 
    -56.56286953
 **********************************************************************************************************************************
 Molpro calculation terminated
