
 Primary working directories    : /local
 Secondary working directories  : /local
 Wavefunction directory         : /local/
 Main file repository           : /local/

 SHA1      : b4a5b34a9e711420743f49e6833241d17c61fb3c
 NAME      : 2099.9.b4a5b34
 ARCHNAME  : linux/x86_64_openmp
 FC        : /cm/shared/languages/GCC-6.1/bin/gfortran
 BLASLIB   : -lblas
 id        : simonbennie

 Nodes     nprocs
 node32-010    1

 Using customized tuning parameters: mindgm=1; mindgv=20; mindgc=4; mindgr=1; noblas=0; minvec=7
 default implementation of scratch files=df  

 memory,500,m
 geomtyp=xyz
 nosym
 noorient
 geometry={
 P          0.00000        0.00000        0.12641
 H          1.19134        0.00000       -0.63206
 H         -0.59567       -1.03173       -0.63206
 H         -0.59567        1.03173       -0.63206
 }
 basis={ default,SV(P) }
 {uks,S-VWN,direct;wf,18,1,0}
 {ibba,bonds=1}

 Variables initialized (895), CPU time= 0.00 sec
 Commands  initialized (725), CPU time= 0.02 sec, 591 directives.
 Default parameters read. Elapsed time= 0.08 sec

 Checking input...
 Passed
1


                                         ***  PROGRAM SYSTEM MOLPRO  ***
                                       Copyright, TTI GmbH Stuttgart, 2015
                                    Version 2099.9 linked May 26 2017 16:03:21


 **********************************************************************************************************************************
 LABEL *                                                                                 
  64 bit serial version                                                                  DATE: 21-Jun-17          TIME: 04:58:52  
 **********************************************************************************************************************************

 SHA1:             b4a5b34a9e711420743f49e6833241d17c61fb3c
 **********************************************************************************************************************************
 SETTING GEOMTYP        =    XYZ

 Variable memory set to  500000000 words,  buffer space 

 ZSYMEL=NOSYM

 SETTING BASIS          =    SV(P)


 Recomputing integrals since basis changed


 Using spherical harmonics

 Library entry P      S def2-SV(P)           selected for orbital group  1
 Library entry P      P def2-SV(P)           selected for orbital group  1
 Library entry P      D def2-SV(P)           selected for orbital group  1
 Library entry H      S def2-SV(P)           selected for orbital group  2


 PROGRAM * SEWARD (Integral evaluation for generally contracted gaussian basis sets)     Author: Roland Lindh, 1990

 Geometry written to block  1 of record 700


 Point group  C1  



 ATOMIC COORDINATES

 NR  ATOM    CHARGE       X              Y              Z

   1  P      15.00    0.000000000    0.000000000    0.238880279
   2  H       1.00    2.251306321    0.000000000   -1.194420294
   3  H       1.00   -1.125653161   -1.949687134   -1.194420294
   4  H       1.00   -1.125653161    1.949687134   -1.194420294

 Bond lengths in Bohr (Angstrom)

 1-2  2.668844448  1-3  2.668843475  1-4  2.668843475
     ( 1.412291661)     ( 1.412291147)     ( 1.412291147)

 Bond angles

  2-1-3   93.86279220   2-1-4   93.86279220   3-1-4   93.86275176

 NUCLEAR CHARGE:                   18
 NUMBER OF PRIMITIVE AOS:          49
 NUMBER OF SYMMETRY AOS:           48
 NUMBER OF CONTRACTIONS:           24   (  24A   )
 NUMBER OF CORE ORBITALS:           5   (   5A   )
 NUMBER OF VALENCE ORBITALS:        7   (   7A   )


 NUCLEAR REPULSION ENERGY   17.63058802


 Eigenvalues of metric

         1 0.173E-01 0.101E+00 0.101E+00 0.213E+00 0.273E+00 0.273E+00 0.333E+00 0.402E+00


 Contracted 2-electron integrals neglected if value below      1.0D-11
 AO integral compression algorithm  1   Integral accuracy      1.0D-11

     0.262 MB (compressed) written to integral file ( 92.4%)


 NUMBER OF SORTED TWO-ELECTRON INTEGRALS:      45150.     BUFFER LENGTH:  32768
 NUMBER OF SEGMENTS:   1  SEGMENT LENGTH:      45150      RECORD LENGTH: 524288

 Memory used in sort:       0.60 MW

 SORT1 READ       60192. AND WROTE       29098. INTEGRALS IN      1 RECORDS. CPU TIME:     0.00 SEC, REAL TIME:     0.00 SEC
 SORT2 READ       29098. AND WROTE       45150. INTEGRALS IN      1 RECORDS. CPU TIME:     0.01 SEC, REAL TIME:     0.01 SEC

 FILE SIZES:   FILE 1:    30.3 MBYTE,  FILE 4:     4.2 MBYTE,   TOTAL:     34.5 MBYTE

 OPERATOR DM      FOR CENTER  0  COORDINATES:    0.000000    0.000000    0.000000


 **********************************************************************************************************************************
 DATASETS  * FILE   NREC   LENGTH (MB)   RECORD NAMES
              1      19       30.18       500      610      700      900      950      970     1000      129      960     1100   
                                          VAR    BASINP    GEOM    SYMINP    ZMAT    AOBASIS   BASIS     P2S    ABASIS      S 
                                         1400     1410     1200     1210     1080     1600     1650     1300     1700   
                                           T        V       H0       H01     AOSYM     SMH    MOLCAS    ERIS     OPER   

 PROGRAMS   *        TOTAL       INT
 CPU TIMES  *         0.35      0.21
 REAL TIME  *         0.66 SEC
 DISK USED  *        34.82 MB      
 **********************************************************************************************************************************

 Density functional group S-VWN=DIRAC+VWN5
 Functional: DIRAC(Automatically generated (new) DIRAC)                        Gradient terms: 0
 Functional: VWN5(Automatically generated (new) VWN5)                          Gradient terms: 0
 Use grid at  1800.2

 Functional: DIRAC                     Factor:  1.0000
 Functional: VWN5                      Factor:  1.0000

 Generated new metagrid on record  1800.2 with target accuracy 1.0D-06 and 16336 points in CPU time    0.4
 Computed new grid on record 1800.1 in CPU time    0.5
   13865 words reserved for DFT integration

 PROGRAM * UKS-SCF (Unrestricted Kohn-Sham)     Authors: W. Meyer, H.-J. Werner, P.J. Knowles, 1993

 NUMBER OF ELECTRONS:       9+    9-    SPACE SYMMETRY=1    SPIN SYMMETRY: Singlet 
 CONVERGENCE THRESHOLDS:    1.00E-05 (Density)    1.00E-06 (Energy)
 MAX. NUMBER OF ITERATIONS:       60
 INTERPOLATION TYPE:            DIIS
 INTERPOLATION STEPS:              2 (START)      1 (STEP)
 LEVEL SHIFTS:                 -0.20 (ALPHA)  -0.20 (BETA) 



 Use fine grid record 1800.2 for energy threshold  1.0D-06
 Orbital guess generated from atomic densities. Full valence occupancy:    9

 Molecular orbital dump at record        2200.2

 Initial alpha occupation   9
 Initial beta  occupation   9

 ITERATION    DDIFF          GRAD             ENERGY        2-EL.EN.            DIPOLE MOMENTS         DIIS
    1      0.000D+00      0.000D+00      -341.70844314    347.235641    0.00000   -0.00000   -0.55080    0
    2      0.217D-01      0.527D-02      -341.72121643    343.954004    0.00000   -0.00000   -0.42377    1
    3      0.364D-02      0.149D-02      -341.72184911    344.389713    0.00000   -0.00000   -0.44292    2
    4      0.200D-02      0.291D-03      -341.72191874    344.325734    0.00000   -0.00000   -0.43099    3
    5      0.101D-02      0.928D-04      -341.72192972    344.315695    0.00000   -0.00000   -0.42380    4
    6      0.611D-03      0.354D-04      -341.72193210    344.316364    0.00000   -0.00000   -0.41984    5
    7      0.925D-04      0.566D-05      -341.72193216    344.316326    0.00000   -0.00000   -0.41941    6
    8      0.230D-05      0.395D-06      -341.72193216    344.316312    0.00000   -0.00000   -0.41944    5
    9      0.322D-06      0.121D-06      -341.72193216    344.316317    0.00000   -0.00000   -0.41943    5

 Final alpha occupancy:   9
 Final beta  occupancy:   9

 !UKS STATE 1.1 Energy               -341.721932156965
 Nuclear energy                        17.63058802
 One-electron energy                 -508.51787149
 Two-electron energy                  172.15815845
 Density functional                   -22.99280713     DIRAC=-21.69064789 VWN5= -1.30215924
 Virial quotient                       -0.99963908
 !UKS STATE 1.1 Dipole moment           0.00000449    -0.00000000    -0.41943248
 Dipole moment /Debye                   0.00001141    -0.00000000    -1.06602119

 Orbital energies for positive spin:

         1.1          2.1          3.1          4.1          5.1          6.1          7.1          8.1          9.1         10.1
    -75.953505    -6.263526    -4.516717    -4.516717    -4.511827    -0.588979    -0.347511    -0.347510    -0.238772     0.012365

        11.1
      0.012366

 Orbital energies for negative spin:

         1.1          2.1          3.1          4.1          5.1          6.1          7.1          8.1          9.1         10.1
    -75.953505    -6.263526    -4.516717    -4.516717    -4.511827    -0.588979    -0.347511    -0.347510    -0.238772     0.012365

        11.1
      0.012366

 HOMO      9.1    -0.238772 =      -6.4973eV
 LUMO     10.1     0.012365 =       0.3365eV
 LUMO-HOMO         0.251138 =       6.8338eV

 EXPECTATION VALUE OF S**2:            -0.00000000

 Natural orbitals saved to record    2200.2 (Orbital set 3)

 Orbital spaces for UNO-CAS (Min. occupation: 0.020  Max. occupation: 1.980):

 Closed:        9
 Active:        0


 **********************************************************************************************************************************
 DATASETS  * FILE   NREC   LENGTH (MB)   RECORD NAMES
              1      20       30.71       500      610      700      900      950      970     1000      129      960     1100   
                                          VAR    BASINP    GEOM    SYMINP    ZMAT    AOBASIS   BASIS     P2S    ABASIS      S 
                                         1400     1410     1200     1210     1080     1600     1650     1300     1700     1800   
                                           T        V       H0       H01     AOSYM     SMH    MOLCAS    ERIS     OPER     GRID   

              2       5        2.83       700     1000      520     1800     2200   
                                         GEOM     BASIS   MCVARS    GRID      UKS  

 PROGRAMS   *        TOTAL       UKS       INT
 CPU TIMES  *         1.36      1.01      0.21
 REAL TIME  *         1.74 SEC
 DISK USED  *        34.82 MB      
 **********************************************************************************************************************************


 PROGRAM * Intrinsic Basis Bonding Analysis (IBBA)          Author: G. Knizia

 Molecular orbitals read from record     2200.2  Type=UKS/ALPHA (state 1.1)
 Fock matrix read from record            2200.2  Type=UKS/TOTAL (state 1.1)
 Orbital energies read from record       2200.2  Type=UKS/ALPHA (state 1.1)
 Density matrix read from record         2200.2  Type=UKS/CHARGE (state 1.1)

 Number of core orbitals:           5 (   5 )
 Number of closed-shell orbitals:   4 (   4 )

 Basis set MINAO-AUTO-PP generated.      Number of basis functions:   12 

 Polarized AO type:                A = (O Ot + (1-O)(1-Ot)) P12
 Orthogonalization method:         Symmetric (Loewdin)
 Localization functional:          L = sum[A,i] <i|n_A|i>^4 -> max

 Localization group 1:   9 orbitals, occupancy  2.000
 Iterative localization: IB/PM,    5 iter; Final gradient 0.18E-08

 Bond order analysis:       [THRPRINT= 0.020]

   CEN ATOM   CEN ATOM     WIBERG.BO      RENORM.BO
     1   P  -   4   H       0.997358       1.000000
     1   P  -   3   H       0.997358       1.000000
     1   P  -   2   H       0.997358       1.000000

     2   H  -   1   P       0.997358       1.000000

     3   H  -   1   P       0.997358       1.000000

     4   H  -   1   P       0.997358       1.000000


 Valency analysis:

   CEN ATOM   TOT.VALENCE
     1   P       2.992074
     2   H       0.999916
     3   H       0.999916
     4   H       0.999916

 Total charge composition:

   CEN ATOM         s          p       ELECTRONS ->P.CHARGE
     1   P       5.54694    9.48062     15.02756   -0.02756
     2   H       0.99081                 0.99081    0.00919
     3   H       0.99081                 0.99081    0.00919
     4   H       0.99081                 0.99081    0.00919

 Total charge composition, AO contributions:

   CEN ATOM SHL      SPHERICAL COMPONENTS
     1   P  1s       1.99983
     1   P  2s       1.99178
     1   P  3s       1.55532
     1   P  2p       1.99955    1.99955    1.99955
     1   P  3p       0.97388    0.97388    1.53422

     2   H  1s       0.99081

     3   H  1s       0.99081

     4   H  1s       0.99081

 Summary of localized orbital composition:   [THRPRINT= 0.020]

   ORB  GRP  ORB.ENERGY      CENTERS/CHARGES
     1   1   -74.955519      P  1   2.000
     2   1    -6.969908      P  1   2.000
     3   1    -4.684006      P  1   2.000
     4   1    -4.511061      P  1   2.000
     5   1    -4.511061      P  1   2.000
     6   1    -0.443344      P  1   1.009   H  4   0.990
     7   1    -0.443344      P  1   1.009   H  3   0.990
     8   1    -0.443343      P  1   1.009   H  2   0.990
     9   1    -0.323477      P  1   2.000

 Localized orbitals saved to record      2200.2  (orbital set 4)


 **********************************************************************************************************************************
 DATASETS  * FILE   NREC   LENGTH (MB)   RECORD NAMES
              1      20       30.71       500      610      700      900      950      970     1000      129      960     1100   
                                          VAR    BASINP    GEOM    SYMINP    ZMAT    AOBASIS   BASIS     P2S    ABASIS      S 
                                         1400     1410     1200     1210     1080     1600     1650     1300     1700     1800   
                                           T        V       H0       H01     AOSYM     SMH    MOLCAS    ERIS     OPER     GRID   

              2       5        2.84       700     1000      520     1800     2200   
                                         GEOM     BASIS   MCVARS    GRID      UKS  

 PROGRAMS   *        TOTAL      IBBA       UKS       INT
 CPU TIMES  *         1.37      0.01      1.01      0.21
 REAL TIME  *         1.79 SEC
 DISK USED  *        34.82 MB      
 **********************************************************************************************************************************
 Molecular orbitals read from record     2200.2  Type=UKS/LOCAL(IBO)  
 Occupation numbers read from record     2200.2  Type=UKS/LOCAL(IBO)  
 Orbital energies read from record       2200.2  Type=UKS/LOCAL(IBO)  
 Redundancy group numbers read from rec  2200.2  Type=UKS/BETA (state 1.1)

 IBBA/SV(P) energy=      0.000000000000

        UKS-SCF 
   -341.72193216
 **********************************************************************************************************************************
 Molpro calculation terminated
