
 Primary working directories    : /local
 Secondary working directories  : /local
 Wavefunction directory         : /local/
 Main file repository           : /local/

 SHA1      : b9319c725c8a29ac6166ac31fc2b6d7de1ab7ce4
 NAME      : 2012.1.57
 ARCHNAME  : Linux/x86_64
 FC        : /cm/shared/languages/GCC-7.1.0/bin/gfortran
 FCVERSION : 7.1.0
 BLASLIB   : -L/usr/lib64 -lblas
 id        : simonbennie

 Nodes     nprocs
 node46-014    1

 Using customized tuning parameters: mindgm=1; mindgv=20; mindgc=4; mindgr=1; noblas=0; minvec=7
 default implementation of scratch files=df  

 memory,500,m
 geomtyp=xyz
 nosym
 noorient
 geometry={
 C          0.00029       -1.14229        0.00000
 H         -1.05596       -1.38474        0.00000
 H          0.52017       -1.40739        0.91245
 H          0.52017       -1.40739       -0.91245
 H          0.01156        0.16010        0.00000
 O          0.00029        1.36164        0.00000
 }
 basis={default,sto-3g}
 {uhf,direct;wf,18,1,2}
 
 basis={ default,6-31+G(d,p) }
 {uks,M06-2X,direct;disp;wf,18,1,2}
 

 Variables initialized (782), CPU time= 0.00 sec
 Commands  initialized (547), CPU time= 0.01 sec, 517 directives.
 Default parameters read. Elapsed time= 0.08 sec

 Checking input...
 Passed
1


                                         ***  PROGRAM SYSTEM MOLPRO  ***
                         Copyright, University College Cardiff Consultants Limited, 2008

                                    Version 2012.1 linked Aug  7 2018 17:05:12


 **********************************************************************************************************************************
 LABEL *                                                                                 
 Linux-2.6.32-642.6.2.el6.x86_64/node46-014(x86_64) 64 bit serial version                DATE: 12-Oct-18          TIME: 12:19:25  
 **********************************************************************************************************************************

 SHA1:             b9319c725c8a29ac6166ac31fc2b6d7de1ab7ce4
 **********************************************************************************************************************************
 SETTING GEOMTYP        =    XYZ

 Variable memory set to  500000000 words,  buffer space   230000 words

 ZSYMEL=NOSYM

 SETTING BASIS          =    STO-3G


 Recomputing integrals since basis changed


 Using spherical harmonics

 Library entry C      S STO-3G               selected for orbital group  1
 Library entry C      P STO-3G               selected for orbital group  1
 Library entry H      S STO-3G               selected for orbital group  2
 Library entry O      S STO-3G               selected for orbital group  3
 Library entry O      P STO-3G               selected for orbital group  3

1PROGRAM * SEWARD (Integral evaluation for generally contracted gaussian basis sets)     Author: Roland Lindh, 1990

 Geometry written to block  1 of record 700


 Point group  C1  



 ATOMIC COORDINATES

 NR  ATOM    CHARGE       X              Y              Z

   1  C       6.00    0.000548021   -2.158615263    0.000000000
   2  H       1.00   -1.995475206   -2.616779363    0.000000000
   3  H       1.00    0.982978842   -2.659581660    1.724280609
   4  H       1.00    0.982978842   -2.659581660   -1.724280609
   5  H       1.00    0.021845234    0.302545154    0.000000000
   6  O       8.00    0.000548021    2.573126690    0.000000000

 Bond lengths in Bohr (Angstrom)

 1-2  2.047931411  1-3  2.046773380  1-4  2.046773380  1-5  2.461252560  5-6  2.270681414
     ( 1.083718628)     ( 1.083105824)     ( 1.083105824)     ( 1.302438761)     ( 1.201592853)

 Bond angles

  1-5-6  178.96681612   2-1-3  114.39760025   2-1-4  114.39760025   2-1-5  103.42343284

  3-1-4  114.79703525   3-1-5  103.92175352   4-1-5  103.92175352

 NUCLEAR CHARGE:                   18
 NUMBER OF PRIMITIVE AOS:          42
 NUMBER OF SYMMETRY AOS:           42
 NUMBER OF CONTRACTIONS:           14   (  14A   )
 NUMBER OF CORE ORBITALS:           2   (   2A   )
 NUMBER OF VALENCE ORBITALS:       12   (  12A   )


 NUCLEAR REPULSION ENERGY   30.91031038


 Eigenvalues of metric

         1 0.230E+00 0.356E+00 0.357E+00 0.363E+00 0.777E+00 0.926E+00 0.992E+00 0.100E+01


 Contracted 2-electron integrals neglected if value below      1.0D-11
 AO integral compression algorithm  1   Integral accuracy      1.0D-11

     0.262 MB (compressed) written to integral file (100.0%)


 NUMBER OF SORTED TWO-ELECTRON INTEGRALS:       5565.     BUFFER LENGTH:  32768
 NUMBER OF SEGMENTS:   1  SEGMENT LENGTH:       5565      RECORD LENGTH: 524288

 Memory used in sort:       0.56 MW

 SORT1 READ        7480. AND WROTE        3900. INTEGRALS IN      1 RECORDS. CPU TIME:     0.00 SEC, REAL TIME:     0.01 SEC
 SORT2 READ        3900. AND WROTE        5565. INTEGRALS IN      1 RECORDS. CPU TIME:     0.00 SEC, REAL TIME:     0.00 SEC

 FILE SIZES:   FILE 1:     7.9 MBYTE,  FILE 4:     4.2 MBYTE,   TOTAL:     12.1 MBYTE

 OPERATOR DM      FOR CENTER  0  COORDINATES:    0.000000    0.000000    0.000000


 **********************************************************************************************************************************
 DATASETS  * FILE   NREC   LENGTH (MB)   RECORD NAMES
              1      19        7.62       500      610      700      900      950      970     1000      129      960     1100   
                                          VAR    BASINP    GEOM    SYMINP    ZMAT    AOBASIS   BASIS     P2S    ABASIS      S 
                                         1400     1410     1200     1210     1080     1600     1650     1300     1700   
                                           T        V       H0       H01     AOSYM     SMH    MOLCAS    ERIS     OPER   

 PROGRAMS   *        TOTAL       INT
 CPU TIMES  *         0.41      0.33
 REAL TIME  *         0.90 SEC
 DISK USED  *        12.43 MB      
 **********************************************************************************************************************************

1PROGRAM * UHF-SCF       Authors: W. Meyer, H.-J. Werner


 NUMBER OF ELECTRONS:      10+    8-    SPACE SYMMETRY=1    SPIN SYMMETRY: Triplet 
 CONVERGENCE THRESHOLDS:    1.00E-05 (Density)    1.00E-07 (Energy)
 INTEGRAL THRESHOLDS:       1.00E-11 (Initial)    1.00E-11 (Final)
 MAX. NUMBER OF ITERATIONS:       60
 INTERPOLATION TYPE:            DIIS
 INTERPOLATION STEPS:              2 (START)      1 (STEP)
 LEVEL SHIFTS:                  0.20 (ALPHA)   0.20 (BETA) 



 Orbital guess generated from atomic densities. Full valence occupancy:    9

 Molecular orbital dump at record        2200.2

 Initial alpha occupation  10
 Initial beta  occupation   8

 Direct Fock-matrix evaluation.        Author: H.-J. Werner (1996)

 Integral Threshold:                  0.1D-10

 ITERATION   DDIFF            GRAD            ENERGY        2-EL.EN.            DIPOLE MOMENTS         DIIS   CPU(IT)  CPU(TOT)
    1      0.000D+00      0.000D+00      -113.39382536    147.491781    0.00019   -1.25375    0.00000    0      0.9      1.7
    2      0.224D-01      0.184D-01      -113.43209417    146.365921    0.00108   -0.82222    0.00000    1      0.4      2.1
    3      0.161D-01      0.101D-01      -113.45005734    145.600844    0.00124   -0.43523    0.00000    2      0.4      2.6
    4      0.904D-02      0.392D-02      -113.45528032    145.414654    0.00132   -0.23500    0.00000    3      0.4      3.0
    5      0.480D-02      0.147D-02      -113.45619556    145.373535    0.00134   -0.17782    0.00000    4      0.4      3.4
    6      0.317D-02      0.817D-03      -113.45651197    145.349121    0.00127   -0.13525    0.00000    5      0.4      3.9
    7      0.166D-02      0.342D-03      -113.45657580    145.328533    0.00125   -0.11070    0.00000    6      0.4      4.3
    8      0.346D-03      0.114D-03      -113.45658103    145.323802    0.00125   -0.10445    0.00000    7      0.4      4.7
    9      0.744D-04      0.449D-04      -113.45658190    145.322914    0.00125   -0.10403    0.00000    7      0.4      5.2
   10      0.240D-04      0.133D-04      -113.45658195    145.323041    0.00124   -0.10385    0.00000    7      0.4      5.6
   11      0.449D-05      0.307D-05      -113.45658195    145.323105    0.00124   -0.10383    0.00000    7      0.4      6.0
   12      0.120D-05      0.782D-06      -113.45658195    145.323126    0.00124   -0.10384    0.00000    7      0.4      6.5

 Final alpha occupancy:  10
 Final beta  occupancy:   8

 !UHF STATE 1.1 Energy               -113.456581949435
 Nuclear energy                        30.91031038
 One-electron energy                 -217.02845541
 Two-electron energy                   72.66156307
 Virial quotient                       -1.00468283
 !UHF STATE 1.1 Dipole moment           0.00124453    -0.10383524     0.00000000
 Dipole moment /Debye                   0.00316307    -0.26390557     0.00000000

 Orbital energies for positive spin:

         1.1          2.1          3.1          4.1          5.1          6.1          7.1          8.1          9.1         10.1
    -20.320383   -11.026091    -1.313857    -0.915217    -0.632814    -0.558972    -0.535180    -0.531737    -0.461324    -0.360775

        11.1         12.1
      0.669303     0.732470

 Orbital energies for negative spin:

         1.1          2.1          3.1          4.1          5.1          6.1          7.1          8.1          9.1         10.1
    -20.274521   -11.009774    -1.039644    -0.858832    -0.525111    -0.524092    -0.438369    -0.378634     0.250009     0.358774

        11.1         12.1
      0.704899     0.749922

 HOMO     10.1    -0.360775 =      -9.8172eV
 LUMO     -9.1     0.250009 =       6.8031eV
 LUMO-HOMO         0.610784 =      16.6203eV

 EXPECTATION VALUE OF S**2:             2.04382079

 Occupation number threshold for canonical orbitals:  1.999000 (occupied),  0.001000 (virtual)

 Number of pseudo-canonical orbitals per symmetry:    7
 Number of active natural orbitals per symmetry:      4

 Natural orbitals saved to record    2200.2 (Orbital set 3)

 Orbital spaces for UNO-CAS (Min. occupation: 0.020  Max. occupation: 1.980):

 Closed:        7
 Active:        4


 **********************************************************************************************************************************
 DATASETS  * FILE   NREC   LENGTH (MB)   RECORD NAMES
              1      19        7.62       500      610      700      900      950      970     1000      129      960     1100   
                                          VAR    BASINP    GEOM    SYMINP    ZMAT    AOBASIS   BASIS     P2S    ABASIS      S 
                                         1400     1410     1200     1210     1080     1600     1650     1300     1700   
                                           T        V       H0       H01     AOSYM     SMH    MOLCAS    ERIS     OPER   

              2       4        2.84       700     1000      520     2200   
                                         GEOM     BASIS   MCVARS     UHF  

 PROGRAMS   *        TOTAL       UHF       INT
 CPU TIMES  *         6.89      6.48      0.33
 REAL TIME  *         9.22 SEC
 DISK USED  *        12.43 MB      
 **********************************************************************************************************************************
 SETTING BASIS          =    6-31+G(D,P)


 Recomputing integrals since basis changed


 Using spherical harmonics

 Library entry C      S 6-31G                selected for orbital group  1
 Library entry C      S 6-31++G              selected for orbital group  1
 Library entry C      P 6-31G                selected for orbital group  1
 Library entry C      P 6-31++G              selected for orbital group  1
 Library entry C      D 6-31G*               selected for orbital group  1
 Library entry H      S 6-31G                selected for orbital group  2
 Library entry H      P 6-31G**              selected for orbital group  2
 Library entry O      S 6-31G                selected for orbital group  3
 Library entry O      S 6-31++G              selected for orbital group  3
 Library entry O      P 6-31G                selected for orbital group  3
 Library entry O      P 6-31++G              selected for orbital group  3
 Library entry O      D 6-31G*               selected for orbital group  3

1PROGRAM * SEWARD (Integral evaluation for generally contracted gaussian basis sets)     Author: Roland Lindh, 1990

 Geometry written to block  1 of record 700


 Point group  C1  



 ATOMIC COORDINATES

 NR  ATOM    CHARGE       X              Y              Z

   1  C       6.00    0.000548021   -2.158615263    0.000000000
   2  H       1.00   -1.995475206   -2.616779363    0.000000000
   3  H       1.00    0.982978842   -2.659581660    1.724280609
   4  H       1.00    0.982978842   -2.659581660   -1.724280609
   5  H       1.00    0.021845234    0.302545154    0.000000000
   6  O       8.00    0.000548021    2.573126690    0.000000000

 Bond lengths in Bohr (Angstrom)

 1-2  2.047931411  1-3  2.046773380  1-4  2.046773380  1-5  2.461252560  5-6  2.270681414
     ( 1.083718628)     ( 1.083105824)     ( 1.083105824)     ( 1.302438761)     ( 1.201592853)

 Bond angles

  1-5-6  178.96681612   2-1-3  114.39760025   2-1-4  114.39760025   2-1-5  103.42343284

  3-1-4  114.79703525   3-1-5  103.92175352   4-1-5  103.92175352

 NUCLEAR CHARGE:                   18
 NUMBER OF PRIMITIVE AOS:          92
 NUMBER OF SYMMETRY AOS:           90
 NUMBER OF CONTRACTIONS:           56   (  56A   )
 NUMBER OF CORE ORBITALS:           2   (   2A   )
 NUMBER OF VALENCE ORBITALS:       12   (  12A   )


 NUCLEAR REPULSION ENERGY   30.91031038


 Eigenvalues of metric

         1 0.585E-02 0.146E-01 0.372E-01 0.522E-01 0.529E-01 0.106E+00 0.147E+00 0.160E+00


 Contracted 2-electron integrals neglected if value below      1.0D-11
 AO integral compression algorithm  1   Integral accuracy      1.0D-11

     4.981 MB (compressed) written to integral file ( 38.8%)


 NUMBER OF SORTED TWO-ELECTRON INTEGRALS:    1274406.     BUFFER LENGTH:  32768
 NUMBER OF SEGMENTS:   1  SEGMENT LENGTH:    1274406      RECORD LENGTH: 524288

 Memory used in sort:       1.83 MW

 SORT1 READ     1631556. AND WROTE      909275. INTEGRALS IN      3 RECORDS. CPU TIME:     0.02 SEC, REAL TIME:     0.04 SEC
 SORT2 READ      909275. AND WROTE     1274406. INTEGRALS IN     19 RECORDS. CPU TIME:     0.04 SEC, REAL TIME:     0.07 SEC

 FILE SIZES:   FILE 1:    12.7 MBYTE,  FILE 4:    12.6 MBYTE,   TOTAL:     25.3 MBYTE

 OPERATOR DM      FOR CENTER  0  COORDINATES:    0.000000    0.000000    0.000000


 **********************************************************************************************************************************
 DATASETS  * FILE   NREC   LENGTH (MB)   RECORD NAMES
              1      19       11.63       500      610      700      900      950      970     1001      129      960     1100   
                                          VAR    BASINP    GEOM    SYMINP    ZMAT    AOBASIS   BASIS     P2S    ABASIS      S 
                                         1400     1410     1200     1210     1080     1600     1650     1300     1700   
                                           T        V       H0       H01     AOSYM     SMH    MOLCAS    ERIS     OPER   

              2       5        2.85       700     1000      520     2200     1001   
                                         GEOM     BASIS   MCVARS     UHF     BASIS   

 PROGRAMS   *        TOTAL       INT       UHF       INT
 CPU TIMES  *         7.30      0.40      6.48      0.33
 REAL TIME  *         9.95 SEC
 DISK USED  *        28.22 MB      
 **********************************************************************************************************************************

 Density functional group M06-2X=XC-M06-2X
 Functional: XC-M06-2X(via MFM 1.6)                                            Gradient terms: 1

 dispersion correction activated
 Density functional: M06-2X  
 functional not in list, set to default 


 Exact exchange will be calculated, factor:  0.5400

 Functional: XC-M06-2X                 Factor:  1.0000

 Use grid at  1800.2


 Exact exchange will be calculated, factor:  0.5400

 Functional: XC-M06-2X                 Factor:  1.0000

 Generated new metagrid on record  1800.2 with target accuracy 1.0D-06 and 20626 points in CPU time    0.3
 Computed new grid on record 1800.1 in CPU time    0.3
   48424 words reserved for DFT integration

 PROGRAM * UKS-SCF (Unrestricted Kohn-Sham)     Authors: W. Meyer, H.-J. Werner, P.J. Knowles, 1993

 NUMBER OF ELECTRONS:      10+    8-    SPACE SYMMETRY=1    SPIN SYMMETRY: Triplet 
 CONVERGENCE THRESHOLDS:    1.00E-05 (Density)    1.00E-06 (Energy)
 MAX. NUMBER OF ITERATIONS:       60
 INTERPOLATION TYPE:            DIIS
 INTERPOLATION STEPS:              2 (START)      1 (STEP)
 LEVEL SHIFTS:                  0.20 (ALPHA)   0.20 (BETA) 



 Use fine grid record 1800.2 for energy threshold  1.0D-06
 Molecular orbitals read from record     2200.2  Type=UHF/ALPHA (state 1.1)

 Present basis size:      56
 Previous basis size:     14
 Previous occupation:     10
 Previous closed-shells:   8
 Previous core-orbitals:   2
 Present occupation:      10
 Present closed-shells:    8
 Present core-orbitals:    2
 Wavefunction symmetry:    1   Triplet 

 Orbital overlap <old|new>:  < 1.1| 1.1> = 0.999845   < 2.1| 2.1> = 0.999833   < 3.1| 3.1> = 0.999554   < 4.1| 4.1> = 0.999875
                             < 5.1| 5.1> = 0.997800   < 6.1| 6.1> = 0.996133   < 7.1| 7.1> = 0.999538   < 8.1| 8.1> = 0.999304
                             < 9.1| 9.1> = 0.995901   <10.1|10.1> = 0.998185
 Molecular orbitals read from record     2200.2  Type=UHF/BETA (state 1.1)

 Present basis size:      56
 Previous basis size:     14
 Previous occupation:     10
 Previous closed-shells:   8
 Previous core-orbitals:   2
 Present occupation:      10
 Present closed-shells:    8
 Present core-orbitals:    2
 Wavefunction symmetry:    1   Triplet 

 Orbital overlap <old|new>:  < 1.1| 1.1> = 0.999845   < 2.1| 2.1> = 0.999833   < 3.1| 3.1> = 0.999624   < 4.1| 4.1> = 0.999861
                             < 5.1| 5.1> = 0.999594   < 6.1| 6.1> = 0.999604   < 7.1| 7.1> = 0.999251   < 8.1| 8.1> = 0.995873
                             < 9.1| 9.1> = 0.997454   <10.1|10.1> = 0.995864

 Molecular orbital dump at record        2201.2

 Initial alpha occupation  10
 Initial beta  occupation   8

 ITERATION    DDIFF          GRAD             ENERGY        2-EL.EN.            DIPOLE MOMENTS         DIIS
    1      0.000D+00      0.000D+00      -115.33840192    161.042586    0.00122   -0.10514    0.00000    0
    2      0.124D-01      0.112D-01      -115.47358321    157.493385   -0.00003   -0.08686   -0.00000    1
    3      0.518D-02      0.285D-02      -115.49392920    157.762056    0.00017   -0.33173   -0.00000    2
    4      0.317D-02      0.134D-02      -115.50236547    157.391544   -0.00006   -0.54030   -0.00000    3
    5      0.159D-02      0.620D-03      -115.50420683    157.429761    0.00017   -0.71256   -0.00000    4
    6      0.758D-03      0.264D-03      -115.50459609    157.442607    0.00032   -0.77709   -0.00000    5
    7      0.401D-03      0.977D-04      -115.50467519    157.425537    0.00043   -0.80500   -0.00000    6
    8      0.207D-03      0.437D-04      -115.50468927    157.439210    0.00051   -0.81663   -0.00000    7
    9      0.543D-04      0.130D-04      -115.50469037    157.438300    0.00053   -0.81873   -0.00000    7
   10      0.775D-05      0.296D-05      -115.50469043    157.438424    0.00054   -0.81897   -0.00000    7
   11      0.170D-05      0.753D-06      -115.50469043    157.438355    0.00054   -0.81895   -0.00000    7

 Final alpha occupancy:  10
 Final beta  occupancy:   8

 !UKS STATE 1.1 Energy               -115.504690431075
 Nuclear energy                        30.91031038
 One-electron energy                 -217.78513754
 Two-electron energy                   78.71917739
 Density functional                    -7.34904067     XC-M06-2X=-7.34904067
 Virial quotient                       -1.00621295
 !UKS STATE 1.1 Dipole moment           0.00053700    -0.81895357    -0.00000000
 Dipole moment /Debye                   0.00136483    -2.08143602    -0.00000000

 Orbital energies for positive spin:

         1.1          2.1          3.1          4.1          5.1          6.1          7.1          8.1          9.1         10.1
    -19.723644   -10.572399    -1.118568    -0.818320    -0.574229    -0.510759    -0.504910    -0.492452    -0.433896    -0.349824

        11.1         12.1
      0.031409     0.060727

 Orbital energies for negative spin:

         1.1          2.1          3.1          4.1          5.1          6.1          7.1          8.1          9.1         10.1
    -19.695477   -10.567367    -0.991729    -0.790427    -0.494558    -0.493523    -0.468308    -0.377897    -0.096726    -0.092325

        11.1         12.1
      0.029354     0.063326

 HOMO     10.1    -0.349824 =      -9.5192eV
 LUMO     -9.1    -0.096726 =      -2.6320eV
 LUMO-HOMO         0.253098 =       6.8871eV

 EXPECTATION VALUE OF S**2:             2.01559546

 Occupation number threshold for canonical orbitals:  1.999000 (occupied),  0.001000 (virtual)

 Number of pseudo-canonical orbitals per symmetry:    6
 Number of active natural orbitals per symmetry:      6

 Natural orbitals saved to record    2201.2 (Orbital set 3)

 Orbital spaces for UNO-CAS (Min. occupation: 0.020  Max. occupation: 1.980):

 Closed:        8
 Active:        2


 **********************************************************************************************************************************
 DATASETS  * FILE   NREC   LENGTH (MB)   RECORD NAMES
              1      20       12.29       500      610      700      900      950      970     1001      129      960     1100   
                                          VAR    BASINP    GEOM    SYMINP    ZMAT    AOBASIS   BASIS     P2S    ABASIS      S 
                                         1400     1410     1200     1210     1080     1600     1650     1300     1700     1800   
                                           T        V       H0       H01     AOSYM     SMH    MOLCAS    ERIS     OPER     GRID   

              2       7        5.48       700     1000      520     2200     1001     1800     2201   
                                         GEOM     BASIS   MCVARS     UHF     BASIS    GRID      UKS  

 PROGRAMS   *        TOTAL       UKS       INT       UHF       INT
 CPU TIMES  *        15.35      8.04      0.40      6.48      0.33
 REAL TIME  *        19.07 SEC
 DISK USED  *        28.22 MB      
 **********************************************************************************************************************************

        UKS-SCF         UHF-SCF 
   -115.50469043   -113.45658195
 **********************************************************************************************************************************
 Variable memory released
