
 Primary working directories    : /local
 Secondary working directories  : /local
 Wavefunction directory         : /local/
 Main file repository           : /local/

 SHA1      : b4a5b34a9e711420743f49e6833241d17c61fb3c
 NAME      : 2099.9.b4a5b34
 ARCHNAME  : linux/x86_64_openmp
 FC        : /cm/shared/languages/GCC-6.1/bin/gfortran
 BLASLIB   : -lblas
 id        : simonbennie

 Nodes     nprocs
 node35-043    1

 Using customized tuning parameters: mindgm=1; mindgv=20; mindgc=4; mindgr=1; noblas=0; minvec=7
 default implementation of scratch files=df  

 memory,500,m
 geomtyp=xyz
 nosym
 noorient
 geometry={
 C          0.00029       -1.14229        0.00000
 H         -1.05596       -1.38474        0.00000
 H          0.52017       -1.40739        0.91245
 H          0.52017       -1.40739       -0.91245
 H          0.01156        0.16010        0.00000
 O          0.00029        1.36164        0.00000
 }
 basis={ default,qzvp }
 {uks,M06-HF,direct;disp;wf,18,1,2}
 {ibba,bonds=1}

 Variables initialized (895), CPU time= 0.00 sec
 Commands  initialized (725), CPU time= 0.02 sec, 591 directives.
 Default parameters read. Elapsed time= 0.08 sec

 Checking input...
 Passed
1


                                         ***  PROGRAM SYSTEM MOLPRO  ***
                                       Copyright, TTI GmbH Stuttgart, 2015
                                    Version 2099.9 linked May 26 2017 16:03:21


 **********************************************************************************************************************************
 LABEL *                                                                                 
  64 bit serial version                                                                  DATE: 16-Mar-18          TIME: 11:24:53  
 **********************************************************************************************************************************

 SHA1:             b4a5b34a9e711420743f49e6833241d17c61fb3c
 **********************************************************************************************************************************
 SETTING GEOMTYP        =    XYZ

 Variable memory set to  500000000 words,  buffer space 

 ZSYMEL=NOSYM

 SETTING BASIS          =    QZVP


 Recomputing integrals since basis changed


 Using spherical harmonics

 Library entry C      S def2-QZVP            selected for orbital group  1
 Library entry C      P def2-QZVP            selected for orbital group  1
 Library entry C      D def2-QZVP            selected for orbital group  1
 Library entry C      F def2-QZVP            selected for orbital group  1
 Library entry C      G def2-QZVP            selected for orbital group  1
 Library entry H      S def2-QZVP            selected for orbital group  2
 Library entry H      P def2-QZVP            selected for orbital group  2
 Library entry H      D def2-QZVP            selected for orbital group  2
 Library entry H      F def2-QZVP            selected for orbital group  2
 Library entry O      S def2-QZVP            selected for orbital group  3
 Library entry O      P def2-QZVP            selected for orbital group  3
 Library entry O      D def2-QZVP            selected for orbital group  3
 Library entry O      F def2-QZVP            selected for orbital group  3
 Library entry O      G def2-QZVP            selected for orbital group  3


 PROGRAM * SEWARD (Integral evaluation for generally contracted gaussian basis sets)     Author: Roland Lindh, 1990

 Geometry written to block  1 of record 700


 Point group  C1  



 ATOMIC COORDINATES

 NR  ATOM    CHARGE       X              Y              Z

   1  C       6.00    0.000548021   -2.158615255    0.000000000
   2  H       1.00   -1.995475198   -2.616779354    0.000000000
   3  H       1.00    0.982978838   -2.659581650    1.724280602
   4  H       1.00    0.982978838   -2.659581650   -1.724280602
   5  H       1.00    0.021845234    0.302545153    0.000000000
   6  O       8.00    0.000548021    2.573126680    0.000000000

 Bond lengths in Bohr (Angstrom)

 1-2  2.047931403  1-3  2.046773372  1-4  2.046773372  1-5  2.461252551  5-6  2.270681405
     ( 1.083718628)     ( 1.083105824)     ( 1.083105824)     ( 1.302438761)     ( 1.201592853)

 Bond angles

  1-5-6  178.96681612   2-1-3  114.39760025   2-1-4  114.39760025   2-1-5  103.42343284

  3-1-4  114.79703525   3-1-5  103.92175352   4-1-5  103.92175352

 NUCLEAR CHARGE:                   18
 NUMBER OF PRIMITIVE AOS:         336
 NUMBER OF SYMMETRY AOS:          286
 NUMBER OF CONTRACTIONS:          234   ( 234A   )
 NUMBER OF CORE ORBITALS:           2   (   2A   )
 NUMBER OF VALENCE ORBITALS:       12   (  12A   )


 NUCLEAR REPULSION ENERGY   30.91031049


 Eigenvalues of metric

         1 0.140E-03 0.148E-03 0.149E-03 0.199E-03 0.512E-03 0.802E-03 0.804E-03 0.147E-02


 Contracted 2-electron integrals neglected if value below      1.0D-11
 AO integral compression algorithm  1   Integral accuracy      1.0D-11

     1135.870 MB (compressed) written to integral file ( 33.1%)


 NUMBER OF SORTED TWO-ELECTRON INTEGRALS:  378001260.     BUFFER LENGTH:  32768
 NUMBER OF SEGMENTS:  24  SEGMENT LENGTH:   15999762      RECORD LENGTH: 524288

 Memory used in sort:      16.56 MW

 SORT1 READ   429064367. AND WROTE   265385697. INTEGRALS IN    773 RECORDS. CPU TIME:     4.52 SEC, REAL TIME:     8.56 SEC
 SORT2 READ   265385697. AND WROTE   378001260. INTEGRALS IN   4333 RECORDS. CPU TIME:     7.30 SEC, REAL TIME:     9.80 SEC

 FILE SIZES:   FILE 1:  1168.0 MBYTE,  FILE 4:  3242.2 MBYTE,   TOTAL:   4410.2 MBYTE

 OPERATOR DM      FOR CENTER  0  COORDINATES:    0.000000    0.000000    0.000000


 **********************************************************************************************************************************
 DATASETS  * FILE   NREC   LENGTH (MB)   RECORD NAMES
              1      19     1028.34       500      610      700      900      950      970     1000      129      960     1100   
                                          VAR    BASINP    GEOM    SYMINP    ZMAT    AOBASIS   BASIS     P2S    ABASIS      S 
                                         1400     1410     1200     1210     1080     1600     1650     1300     1700   
                                           T        V       H0       H01     AOSYM     SMH    MOLCAS    ERIS     OPER   

 PROGRAMS   *        TOTAL       INT
 CPU TIMES  *        29.90     29.76
 REAL TIME  *        57.67 SEC
 DISK USED  *         4.41 GB      
 **********************************************************************************************************************************

 Density functional group M06-HF=XC-M06-HF
 Functional: XC-M06-HF(via MFM 1.6)                                            Gradient terms: 1

 dispersion correction activated
 Density functional: M06-HF  
 functional not in list, set to default 


 Exact exchange will be calculated, factor:  1.0000

 Functional: XC-M06-HF                 Factor:  1.0000

 Use grid at  1800.2


 Exact exchange will be calculated, factor:  1.0000

 Functional: XC-M06-HF                 Factor:  1.0000

 Generated new metagrid on record  1800.2 with target accuracy 1.0D-06 and 23792 points in CPU time    0.5
 Computed new grid on record 1800.1 in CPU time    0.5
  189868 words reserved for DFT integration

 PROGRAM * UKS-SCF (Unrestricted Kohn-Sham)     Authors: W. Meyer, H.-J. Werner, P.J. Knowles, 1993

 NUMBER OF ELECTRONS:      10+    8-    SPACE SYMMETRY=1    SPIN SYMMETRY: Triplet 
 CONVERGENCE THRESHOLDS:    1.00E-05 (Density)    1.00E-06 (Energy)
 MAX. NUMBER OF ITERATIONS:       60
 INTERPOLATION TYPE:            DIIS
 INTERPOLATION STEPS:              2 (START)      1 (STEP)
 LEVEL SHIFTS:                 -0.20 (ALPHA)  -0.20 (BETA) 



 Use fine grid record 1800.2 for energy threshold  1.0D-06
 Orbital guess generated from atomic densities. Full valence occupancy:    9

 Molecular orbital dump at record        2200.2

 Initial alpha occupation  10
 Initial beta  occupation   8

 ITERATION    DDIFF          GRAD             ENERGY        2-EL.EN.            DIPOLE MOMENTS         DIIS
    1      0.000D+00      0.000D+00      -115.54001286    144.054749   -0.00462   -1.12291   -0.00000    0
    2      0.368D-02      0.164D-02      -115.57291214    144.002491    0.00068   -1.04333   -0.00000    1
    3      0.698D-03      0.492D-03      -115.57934795    143.986587    0.00484   -0.94574   -0.00000    2
    4      0.832D-03      0.247D-03      -115.58218710    144.045567    0.00904   -0.88898   -0.00000    3
    5      0.299D-03      0.127D-03      -115.58303935    144.007384    0.01113   -0.83539   -0.00000    4
    6      0.131D-03      0.582D-04      -115.58335019    144.010637    0.01189   -0.79165   -0.00000    5
    7      0.782D-04      0.323D-04      -115.58345289    143.991391    0.01210   -0.76125   -0.00000    6
    8      0.572D-04      0.161D-04      -115.58348318    143.992501    0.01204   -0.74168   -0.00000    7
    9      0.184D-04      0.594D-05      -115.58348684    143.988340    0.01196   -0.73515   -0.00000    8
   10      0.492D-05      0.176D-05      -115.58348709    143.988840    0.01193   -0.73388   -0.00000    9
   11      0.163D-05      0.553D-06      -115.58348711    143.988712    0.01191   -0.73376   -0.00000    9

 Dispersion correction
 - - - - - - - - - - - 
  _________________________________
                                   
 |         DFTD3 V1.3 Rev 1        |
 | S.Grimme, University Muenster   |
 | Fri Jul  2 12:48:21 CEST 2010   |
  _________________________________

 Please cite DFT-D3 work done with this code as:
 S. Grimme, J. Antony, S. Ehrlich and H. Krieg,
 J. Chem. Phys, 132 (2010), 154104.
 For DFT-D2 the reference is
 S. Grimme, J. Comput. Chem., 27 (2006), 1787-1799

 C6 coefficients used:
                    2  C6 for element                     1
 Z=  1 CN=   0.912     C6(AA)=    3.03
 Z=  1 CN=   0.000     C6(AA)=    7.59
                    5  C6 for element                     6
 Z=  6 CN=   0.000     C6(AA)=   49.11
 Z=  6 CN=   0.987     C6(AA)=   43.25
 Z=  6 CN=   1.998     C6(AA)=   29.36
 Z=  6 CN=   2.999     C6(AA)=   25.78
 Z=  6 CN=   3.984     C6(AA)=   18.21
                    3  C6 for element                     8
 Z=  8 CN=   0.000     C6(AA)=   15.51
 Z=  8 CN=   0.993     C6(AA)=   12.82
 Z=  8 CN=   1.989     C6(AA)=   10.37

 #           XYZ [au]               R0(AA) [Ang.]   CN       C6(AA)     C8(AA)   C10(AA) [au]
  1   0.00055  -2.15862   0.00000   c   1.455  3.817        18.7       540.5     19148.0
  2  -1.99548  -2.61678   0.00000   h   1.091  0.994         3.1        37.4       553.7
  3   0.98298  -2.65958   1.72428   h   1.091  0.994         3.1        37.4       553.7
  4   0.98298  -2.65958  -1.72428   h   1.091  0.994         3.1        37.4       553.7
  5   0.02185   0.30255   0.00000   h   1.091  1.526         3.0        36.6       542.1
  6   0.00055   2.57313   0.00000   o   1.241  0.719        13.2       266.0      6576.7

 molecular C6(AA) [au] =       222.11

           DFT-D V3
 DF pbe                                               
 parameters
 s6       :    1.0000
 s8       :    0.7220
 rs6      :    1.2170
 alpha6   :   14.0000
 alpha8   :   16.0000
 k1-k3    :   16.0000    1.3333   -4.0000

 Edisp /kcal,au:    -0.4371 -0.00069655

 E6    /kcal :    -0.1811
 E8    /kcal :    -0.2560
 % E8        : 58.57
 normal termination of dftd3

 UKS STATE 1.1 ENERGY+DISP     -115.58418367

 Final alpha occupancy:  10
 Final beta  occupancy:   8

 !UKS STATE 1.1 Energy               -115.584183665334
 Nuclear energy                        30.91031049
 One-electron energy                 -217.84592352
 Two-electron energy                   71.99435616
 Density functional                    -0.64223025     XC-M06-HF=-0.64223025
 Virial quotient                       -1.00355117
 !UKS STATE 1.1 Dipole moment           0.01191463    -0.73375782    -0.00000000
 Dipole moment /Debye                   0.03028199    -1.86490421    -0.00000000

 Orbital energies for positive spin:

         1.1          2.1          3.1          4.1          5.1          6.1          7.1          8.1          9.1         10.1
    -20.283000   -10.991070    -1.231228    -0.925225    -0.686684    -0.623817    -0.599574    -0.589306    -0.561862    -0.429379

        11.1         12.1
      0.056761     0.115834

 Orbital energies for negative spin:

         1.1          2.1          3.1          4.1          5.1          6.1          7.1          8.1          9.1         10.1
    -20.261624   -10.990362    -1.132583    -0.905079    -0.586298    -0.581137    -0.538411    -0.502042    -0.035583    -0.022756

        11.1         12.1
      0.049469     0.111490

 HOMO     10.1    -0.429379 =     -11.6840eV
 LUMO     -9.1    -0.035583 =      -0.9683eV
 LUMO-HOMO         0.393797 =      10.7157eV

 EXPECTATION VALUE OF S**2:             2.02278072

 Occupation number threshold for canonical orbitals:  1.999000 (occupied),  0.001000 (virtual)

 Number of pseudo-canonical orbitals per symmetry:    6
 Number of active natural orbitals per symmetry:      6

 Natural orbitals saved to record    2200.2 (Orbital set 3)

 Orbital spaces for UNO-CAS (Min. occupation: 0.020  Max. occupation: 1.980):

 Closed:        8
 Active:        2


 **********************************************************************************************************************************
 DATASETS  * FILE   NREC   LENGTH (MB)   RECORD NAMES
              1      20     1029.10       500      610      700      900      950      970     1000      129      960     1100   
                                          VAR    BASINP    GEOM    SYMINP    ZMAT    AOBASIS   BASIS     P2S    ABASIS      S 
                                         1400     1410     1200     1210     1080     1600     1650     1300     1700     1800   
                                           T        V       H0       H01     AOSYM     SMH    MOLCAS    ERIS     OPER     GRID   

              2       5        5.08       700     1000      520     1800     2200   
                                         GEOM     BASIS   MCVARS    GRID      UKS  

 PROGRAMS   *        TOTAL       UKS       INT
 CPU TIMES  *       194.82    164.92     29.76
 REAL TIME  *       436.13 SEC
 DISK USED  *         4.41 GB      
 **********************************************************************************************************************************


 PROGRAM * Intrinsic Basis Bonding Analysis (IBBA)          Author: G. Knizia

 Molecular orbitals read from record     2200.2  Type=UKS/ALPHA (state 1.1)
 Fock matrix read from record            2200.2  Type=UKS/TOTAL (state 1.1)
 Orbital energies read from record       2200.2  Type=UKS/ALPHA (state 1.1)
 Density matrix read from record         2200.2  Type=UKS/CHARGE (state 1.1)

 Number of core orbitals:           2 (   2 )
 Number of closed-shell orbitals:   6 (   6 )
 Number of active  orbitals:        2 (   2 )

 Basis set MINAO-AUTO-PP generated.      Number of basis functions:   14 

 Polarized AO type:                A = (O Ot + (1-O)(1-Ot)) P12
 Orthogonalization method:         Symmetric (Loewdin)
 Localization functional:          L = sum[A,i] <i|n_A|i>^4 -> max

 Localization group 1:   8 orbitals, occupancy  2.000
 Iterative localization: IB/PM,    7 iter; Final gradient 0.58E-10

 Bond order analysis:       [THRPRINT= 0.020]

   CEN ATOM   CEN ATOM     WIBERG.BO      RENORM.BO
     1   C  -   2   H       0.937588       0.999493
     1   C  -   4   H       0.861680       0.999700
     1   C  -   3   H       0.861680       0.999700
     1   C  -   6   O       0.492494       2.003560
     1   C  -   5   H       0.155569       0.809181

     2   H  -   1   C       0.937588       0.999493

     3   H  -   1   C       0.861680       0.999700
     3   H  -   6   O       0.068829       0.475297

     4   H  -   1   C       0.861680       0.999700
     4   H  -   6   O       0.068829       0.475297

     5   H  -   6   O       0.619232       0.834478
     5   H  -   1   C       0.155569       0.809181

     6   O  -   5   H       0.619232       0.834478
     6   O  -   1   C       0.492494       2.003560
     6   O  -   3   H       0.068829       0.475297
     6   O  -   4   H       0.068829       0.475297


 Valency analysis:

   CEN ATOM   TOT.VALENCE
     1   C       3.309011
     2   H       0.959847
     3   H       0.943124
     4   H       0.943124
     5   H       0.802491
     6   O       1.261559
 Localization group 2:   2 orbitals, occupancy  1.000
 Iterative localization: IB/PM,    1 iter; Final gradient 0.39E-13

 Bond order analysis:       [THRPRINT= 0.020]

   CEN ATOM   CEN ATOM     WIBERG.BO      RENORM.BO
     1   C  -   6   O       0.401968       1.000000
     1   C  -   5   H       0.094024       0.500000


     3   H  -   6   O       0.036056       0.500000

     4   H  -   6   O       0.036056       0.500000

     5   H  -   1   C       0.094024       0.500000
     5   H  -   6   O       0.035488       0.500000

     6   O  -   1   C       0.401968       1.000000
     6   O  -   3   H       0.036056       0.500000
     6   O  -   4   H       0.036056       0.500000
     6   O  -   5   H       0.035488       0.500000


 Valency analysis:

   CEN ATOM   TOT.VALENCE
     1   C       0.538513
     2   H       0.020202
     3   H       0.052418
     4   H       0.052418
     5   H       0.133891
     6   O       0.514588

 Total charge composition:

   CEN ATOM         s          p       ELECTRONS ->P.CHARGE
     1   C       3.11213    3.25597      6.36810   -0.36810
     2   H       0.80982                 0.80982    0.19018
     3   H       0.78845                 0.78845    0.21155
     4   H       0.78845                 0.78845    0.21155
     5   H       0.62773                 0.62773    0.37227
     6   O       3.89755    4.71990      8.61745   -0.61745

 Total charge composition, AO contributions:

   CEN ATOM SHL      SPHERICAL COMPONENTS
     1   C  1s       1.99096
     1   C  2s       1.12117
     1   C  2p       1.22104    0.85892    1.17600

     2   H  1s       0.80982

     3   H  1s       0.78845

     4   H  1s       0.78845

     5   H  1s       0.62773

     6   O  1s       1.99925
     6   O  2s       1.89830
     6   O  2p       1.99972    1.63631    1.08388

 Active orbital charges:

   CEN ATOM         s          p       ELECTRONS ->SPIN.DEN
     1   C       0.01485    0.68091      0.69576    0.69576
     2   H       0.01021                 0.01021    0.01021
     3   H       0.02693                 0.02693    0.02693
     4   H       0.02693                 0.02693    0.02693
     5   H       0.07215                 0.07215    0.07215
     6   O       0.01073    1.15728      1.16801    1.16801

 Active orbital charges, AO contributions:

   CEN ATOM SHL      SPHERICAL COMPONENTS
     1   C  1s       0.00004
     1   C  2s       0.01481
     1   C  2p       0.00016    0.63657    0.04419

     2   H  1s       0.01021

     3   H  1s       0.02693

     4   H  1s       0.02693

     5   H  1s       0.07215

     6   O  1s       0.00006
     6   O  2s       0.01067
     6   O  2p       0.00001    0.23518    0.92208

 Summary of localized orbital composition:   [THRPRINT= 0.020]

   ORB  GRP  ORB.ENERGY      CENTERS/CHARGES
     1   1   -20.112918      O  6   2.000
     2   1   -10.867885      C  1   2.000
     3   1    -1.172939      O  6   1.966   C  1   0.024
     4   1    -0.748860      O  6   1.320   H  5   0.469   C  1   0.194
     5   1    -0.740542      C  1   1.136   H  4   0.755   O  6   0.081   H  5   0.026
     6   1    -0.740542      C  1   1.136   H  3   0.755   O  6   0.081   H  5   0.026
     7   1    -0.729154      C  1   1.181   H  2   0.793   H  5   0.025
     8   1    -0.295277      O  6   2.000
     9   2    -0.531089      O  6   0.922   C  1   0.044   (other: 0.034)
    10   2    -0.246683      C  1   0.652   O  6   0.246   H  5   0.072   (other: 0.030)

 Localized orbitals saved to record      2200.2  (orbital set 4)


 **********************************************************************************************************************************
 DATASETS  * FILE   NREC   LENGTH (MB)   RECORD NAMES
              1      20     1029.10       500      610      700      900      950      970     1000      129      960     1100   
                                          VAR    BASINP    GEOM    SYMINP    ZMAT    AOBASIS   BASIS     P2S    ABASIS      S 
                                         1400     1410     1200     1210     1080     1600     1650     1300     1700     1800   
                                           T        V       H0       H01     AOSYM     SMH    MOLCAS    ERIS     OPER     GRID   

              2       5        5.52       700     1000      520     1800     2200   
                                         GEOM     BASIS   MCVARS    GRID      UKS  

 PROGRAMS   *        TOTAL      IBBA       UKS       INT
 CPU TIMES  *       194.87      0.05    164.92     29.76
 REAL TIME  *       436.19 SEC
 DISK USED  *         4.41 GB      
 **********************************************************************************************************************************

 IBBA/QZVP energy=      0.000000000000

        UKS-SCF 
   -115.58418367
 **********************************************************************************************************************************
 Molpro calculation terminated
