
 Primary working directories    : /local
 Secondary working directories  : /local
 Wavefunction directory         : /local/
 Main file repository           : /local/

 SHA1      : b4a5b34a9e711420743f49e6833241d17c61fb3c
 NAME      : 2099.9.b4a5b34
 ARCHNAME  : linux/x86_64_openmp
 FC        : /cm/shared/languages/GCC-6.1/bin/gfortran
 BLASLIB   : -lblas
 id        : simonbennie

 Nodes     nprocs
 node32-008    1

 Using customized tuning parameters: mindgm=1; mindgv=20; mindgc=4; mindgr=1; noblas=0; minvec=7
 default implementation of scratch files=df  

 memory,500,m
 geomtyp=xyz
 nosym
 noorient
 geometry={
 P          0.21743        0.00009       -0.11125
 H          0.24661        1.03467        0.85216
 H          0.26266       -1.02506        0.86162
 H         -1.26642       -0.01095       -0.15063
 H         -2.50429        0.00003        0.10558
 }
 basis={ default,avtz }
 {ks,HFS,direct;wf,19,1,1}
 {ibba,bonds=1}

 Variables initialized (895), CPU time= 0.00 sec
 Commands  initialized (725), CPU time= 0.01 sec, 591 directives.
 Default parameters read. Elapsed time= 0.09 sec

 Checking input...
 Passed
1


                                         ***  PROGRAM SYSTEM MOLPRO  ***
                                       Copyright, TTI GmbH Stuttgart, 2015
                                    Version 2099.9 linked May 26 2017 16:03:21


 **********************************************************************************************************************************
 LABEL *                                                                                 
  64 bit serial version                                                                  DATE: 23-Jun-17          TIME: 01:43:42  
 **********************************************************************************************************************************

 SHA1:             b4a5b34a9e711420743f49e6833241d17c61fb3c
 **********************************************************************************************************************************
 SETTING GEOMTYP        =    XYZ

 Variable memory set to  500000000 words,  buffer space 

 ZSYMEL=NOSYM

 SETTING BASIS          =    AVTZ


 Recomputing integrals since basis changed


 Using spherical harmonics

 Library entry P      S aug-cc-pVTZ          selected for orbital group  1
 Library entry P      P aug-cc-pVTZ          selected for orbital group  1
 Library entry P      D aug-cc-pVTZ          selected for orbital group  1
 Library entry P      F aug-cc-pVTZ          selected for orbital group  1
 Library entry H      S aug-cc-pVTZ          selected for orbital group  2
 Library entry H      P aug-cc-pVTZ          selected for orbital group  2
 Library entry H      D aug-cc-pVTZ          selected for orbital group  2


 PROGRAM * SEWARD (Integral evaluation for generally contracted gaussian basis sets)     Author: Roland Lindh, 1990

 Geometry written to block  1 of record 700


 Point group  C1  



 ATOMIC COORDINATES

 NR  ATOM    CHARGE       X              Y              Z

   1  P      15.00    0.410883151    0.000170075   -0.210232031
   2  H       1.00    0.466025360    1.955242929    1.610349014
   3  H       1.00    0.496355464   -1.937082661    1.628225823
   4  H       1.00   -2.393186959   -0.020692501   -0.284649446
   5  H       1.00   -4.732422236    0.000056692    0.199517284

 Bond lengths in Bohr (Angstrom)

 1-2  2.672052745  1-3  2.672111705  1-4  2.805135002
     ( 1.413989419)     ( 1.414020619)     ( 1.484413517)

 Bond angles

  2-1-3   93.49845302   2-1-4   92.53018991   3-1-4   92.56972382

 NUCLEAR CHARGE:                   19
 NUMBER OF PRIMITIVE AOS:         192
 NUMBER OF SYMMETRY AOS:          175
 NUMBER OF CONTRACTIONS:          142   ( 142A   )
 NUMBER OF CORE ORBITALS:           5   (   5A   )
 NUMBER OF VALENCE ORBITALS:        8   (   8A   )


 NUCLEAR REPULSION ENERGY   21.01062334

 Eigenvalues of metric

         1 0.548E-04 0.187E-03 0.201E-03 0.246E-03 0.717E-03 0.898E-03 0.147E-02 0.161E-02


 Contracted 2-electron integrals neglected if value below      1.0D-11
 AO integral compression algorithm  1   Integral accuracy      1.0D-11

     251.920 MB (compressed) written to integral file ( 50.5%)


 NUMBER OF SORTED TWO-ELECTRON INTEGRALS:   51546781.     BUFFER LENGTH:  32768
 NUMBER OF SEGMENTS:   4  SEGMENT LENGTH:   15999503      RECORD LENGTH: 524288

 Memory used in sort:      16.56 MW

 SORT1 READ    62296273. AND WROTE    50388734. INTEGRALS IN    147 RECORDS. CPU TIME:     0.67 SEC, REAL TIME:     1.39 SEC
 SORT2 READ    50388734. AND WROTE    51546781. INTEGRALS IN    961 RECORDS. CPU TIME:     1.17 SEC, REAL TIME:     3.63 SEC

 FILE SIZES:   FILE 1:   282.7 MBYTE,  FILE 4:   616.6 MBYTE,   TOTAL:    899.3 MBYTE

 OPERATOR DM      FOR CENTER  0  COORDINATES:    0.000000    0.000000    0.000000


 **********************************************************************************************************************************
 DATASETS  * FILE   NREC   LENGTH (MB)   RECORD NAMES
              1      19      243.66       500      610      700      900      950      970     1000      129      960     1100   
                                          VAR    BASINP    GEOM    SYMINP    ZMAT    AOBASIS   BASIS     P2S    ABASIS      S 
                                         1400     1410     1200     1210     1080     1600     1650     1300     1700   
                                           T        V       H0       H01     AOSYM     SMH    MOLCAS    ERIS     OPER   

 PROGRAMS   *        TOTAL       INT
 CPU TIMES  *         4.50      4.36
 REAL TIME  *        12.32 SEC
 DISK USED  *       899.67 MB      
 **********************************************************************************************************************************

 Density functional group HFS=DIRAC
 Functional: DIRAC(Automatically generated (new) DIRAC)                        Gradient terms: 0
 Use grid at  1800.2

 Functional: DIRAC                     Factor:  1.0000

 Generated new metagrid on record  1800.2 with target accuracy 1.0D-06 and 18266 points in CPU time    0.4
 Computed new grid on record 1800.1 in CPU time    0.5
   63127 words reserved for DFT integration

 PROGRAM * RKS-SCF (Restricted open shell Kohn-Sham)     Authors: W. Meyer, H.-J. Werner, P.J. Knowles, 1993

 NUMBER OF ELECTRONS:      10+    9-    SPACE SYMMETRY=1    SPIN SYMMETRY: Doublet 
 CONVERGENCE THRESHOLDS:    1.00E-05 (Density)    1.00E-06 (Energy)
 MAX. NUMBER OF ITERATIONS:       60
 INTERPOLATION TYPE:            DIIS
 INTERPOLATION STEPS:              2 (START)      1 (STEP)
 LEVEL SHIFTS:                 -0.60 (CLOSED) -0.30 (OPEN) 



 Use fine grid record 1800.2 for energy threshold  1.0D-06
 Orbital guess generated from atomic densities. Full valence occupancy:   13

 Molecular orbital dump at record        2100.2

 Initial alpha occupancy:  10
 Initial beta  occupancy:   9
 Wave function symmetry:    1

 ITERATION    DDIFF          GRAD             ENERGY        2-EL.EN.            DIPOLE MOMENTS         DIIS   ORB.
    1      0.000D+00      0.000D+00      -340.99949024    352.462032   -0.03730    0.00049    0.25053    0    start
    2      0.000D+00      0.228D-02      -341.01044382    350.034303    0.23348    0.00004    0.20424    1    diag,B
    3      0.431D-02      0.623D-03      -341.01168301    350.574558    0.10999    0.00011    0.22411    2    diag,B
    4      0.934D-03      0.276D-03      -341.01212609    350.435001    0.09674    0.00004    0.21702    3    diag,B
    5      0.411D-03      0.151D-03      -341.01251616    350.426015    0.06129   -0.00004    0.21411    4    diag,B
    6      0.465D-03      0.763D-04      -341.01266939    350.439412    0.03102   -0.00010    0.21419    5    diag,B
    7      0.309D-03      0.314D-04      -341.01269518    350.446380    0.01758   -0.00013    0.21535    6    fixocc
    8      0.172D-03      0.112D-04      -341.01269746    350.449870    0.01412   -0.00014    0.21638    7    diag,B
    9      0.936D-04      0.478D-05      -341.01269781    350.449995    0.01319   -0.00014    0.21696    8    diag,B
   10      0.419D-04      0.165D-05      -341.01269783    350.450043    0.01305   -0.00014    0.21721    9    orth
   11      0.199D-04      0.586D-06      -341.01269784    350.449989    0.01302   -0.00014    0.21730    9    diag,B
   12      0.775D-05      0.233D-06      -341.01269784    350.449987    0.01301   -0.00014    0.21732    0    orth

 Final alpha occupancy:  10
 Final beta  occupancy:   9

 !RKS STATE 1.1 Energy               -341.012697838340
 Nuclear energy                        21.01062334
 One-electron energy                 -515.36568803
 Two-electron energy                  175.22499358
 Density functional                   -21.88262673     DIRAC=-21.88262673
 Virial quotient                       -0.99800351
 !RKS STATE 1.1 Dipole moment           0.01301348    -0.00014389     0.21731515
 Dipole moment /Debye                   0.03307480    -0.00036571     0.55232384

 Orbital energies:

         1.1          2.1          3.1          4.1          5.1          6.1          7.1          8.1          9.1         10.1
    -75.933661    -6.216195    -4.465105    -4.464920    -4.461223    -0.549866    -0.329239    -0.308563    -0.220784    -0.193424

        11.1         12.1
     -0.005335     0.014172

 HOMO     10.1    -0.193424 =      -5.2633eV
 LUMO     11.1    -0.005335 =      -0.1452eV
 LUMO-HOMO         0.188088 =       5.1181eV


 **********************************************************************************************************************************
 DATASETS  * FILE   NREC   LENGTH (MB)   RECORD NAMES
              1      20      244.24       500      610      700      900      950      970     1000      129      960     1100   
                                          VAR    BASINP    GEOM    SYMINP    ZMAT    AOBASIS   BASIS     P2S    ABASIS      S 
                                         1400     1410     1200     1210     1080     1600     1650     1300     1700     1800   
                                           T        V       H0       H01     AOSYM     SMH    MOLCAS    ERIS     OPER     GRID   

              2       5        3.41       700     1000      520     1800     2100   
                                         GEOM     BASIS   MCVARS    GRID      RKS  

 PROGRAMS   *        TOTAL        KS       INT
 CPU TIMES  *        14.26      9.76      4.36
 REAL TIME  *        22.89 SEC
 DISK USED  *       899.67 MB      
 **********************************************************************************************************************************


 PROGRAM * Intrinsic Basis Bonding Analysis (IBBA)          Author: G. Knizia

 Molecular orbitals read from record     2100.2  Type=RKS/CANONICAL (state 1.1)
 Fock matrix read from record            2100.2  Type=RKS/TOTAL (state 1.1)
 Orbital energies read from record       2100.2  Type=RKS/CANONICAL (state 1.1)
 Density matrix read from record         2100.2  Type=RKS/CHARGE (state 1.1)

 Number of core orbitals:           5 (   5 )
 Number of closed-shell orbitals:   4 (   4 )
 Number of active  orbitals:        1 (   1 )

 Basis set MINAO-AUTO-PP generated.      Number of basis functions:   13 

 Polarized AO type:                A = (O Ot + (1-O)(1-Ot)) P12
 Orthogonalization method:         Symmetric (Loewdin)
 Localization functional:          L = sum[A,i] <i|n_A|i>^4 -> max

 Localization group 1:   9 orbitals, occupancy  2.000
 Iterative localization: IB/PM,    6 iter; Final gradient 0.10E-09

 Bond order analysis:       [THRPRINT= 0.020]

   CEN ATOM   CEN ATOM     WIBERG.BO      RENORM.BO
     1   P  -   2   H       0.996273       1.000000
     1   P  -   3   H       0.996194       1.000000
     1   P  -   4   H       0.804970       1.000000
     1   P  -   5   H       0.247054       1.000000

     2   H  -   1   P       0.996273       1.000000

     3   H  -   1   P       0.996194       1.000000

     4   H  -   1   P       0.804970       1.000000
     4   H  -   5   H       0.193409       0.769772

     5   H  -   1   P       0.247054       1.000000
     5   H  -   4   H       0.193409       0.769772


 Valency analysis:

   CEN ATOM   TOT.VALENCE
     1   P       3.044490
     2   H       0.999196
     3   H       0.999191
     4   H       0.999936
     5   H       0.442416
 Localization group 2:   1 orbitals, occupancy  1.000
 Iterative localization: IB/PM,    1 iter; Final gradient 0.00E+00

 Bond order analysis:       [THRPRINT= 0.020]

   CEN ATOM   CEN ATOM     WIBERG.BO      RENORM.BO
     1   P  -   5   H       0.360737       0.500000




     5   H  -   1   P       0.360737       0.500000


 Valency analysis:

   CEN ATOM   TOT.VALENCE
     1   P       0.361490
     2   H       0.000726
     3   H       0.000846
     4   H       0.001609
     5   H       0.363160

 Total charge composition:

   CEN ATOM         s          p       ELECTRONS ->P.CHARGE
     1   P       5.56900    9.47936     15.04836   -0.04836
     2   H       0.97201                 0.97201    0.02799
     3   H       0.97198                 0.97198    0.02802
     4   H       0.99279                 0.99279    0.00721
     5   H       1.01486                 1.01486   -0.01486

 Total charge composition, AO contributions:

   CEN ATOM SHL      SPHERICAL COMPONENTS
     1   P  1s       1.99985
     1   P  2s       1.99247
     1   P  3s       1.57667
     1   P  2p       1.99965    1.99955    1.99955
     1   P  3p       1.12020    0.99414    1.36628

     2   H  1s       0.97201

     3   H  1s       0.97198

     4   H  1s       0.99279

     5   H  1s       1.01486

 Active orbital charges:

   CEN ATOM         s          p       ELECTRONS ->SPIN.DEN
     1   P       0.00144    0.23540      0.23684    0.23684
     2   H       0.00036                 0.00036    0.00036
     3   H       0.00042                 0.00042    0.00042
     4   H       0.00081                 0.00081    0.00081
     5   H       0.76157                 0.76157    0.76157

 Active orbital charges, AO contributions:

   CEN ATOM SHL      SPHERICAL COMPONENTS
     1   P  1s       0.00000
     1   P  2s       0.00002
     1   P  3s       0.00142
     1   P  2p       0.00001    0.00000    0.00000
     1   P  3p       0.23491    0.00001    0.00047

     2   H  1s       0.00036

     3   H  1s       0.00042

     4   H  1s       0.00081

     5   H  1s       0.76157

 Summary of localized orbital composition:   [THRPRINT= 0.020]

   ORB  GRP  ORB.ENERGY      CENTERS/CHARGES
     1   1   -74.960172      P  1   2.000
     2   1    -6.842549      P  1   2.000
     3   1    -4.643494      P  1   2.000
     4   1    -4.459252      P  1   2.000
     5   1    -4.446813      P  1   2.000
     6   1    -0.407622      P  1   1.029   H  3   0.971
     7   1    -0.407541      P  1   1.029   H  2   0.971
     8   1    -0.391863      H  4   0.985   P  1   0.802   H  5   0.211
     9   1    -0.390250      P  1   1.952   H  5   0.041
    10   2    -0.132689      H  5   0.762   P  1   0.237

 Localized orbitals saved to record      2100.2  (orbital set 2)


 **********************************************************************************************************************************
 DATASETS  * FILE   NREC   LENGTH (MB)   RECORD NAMES
              1      20      244.24       500      610      700      900      950      970     1000      129      960     1100   
                                          VAR    BASINP    GEOM    SYMINP    ZMAT    AOBASIS   BASIS     P2S    ABASIS      S 
                                         1400     1410     1200     1210     1080     1600     1650     1300     1700     1800   
                                           T        V       H0       H01     AOSYM     SMH    MOLCAS    ERIS     OPER     GRID   

              2       5        3.57       700     1000      520     1800     2100   
                                         GEOM     BASIS   MCVARS    GRID      RKS  

 PROGRAMS   *        TOTAL      IBBA        KS       INT
 CPU TIMES  *        14.29      0.03      9.76      4.36
 REAL TIME  *        22.95 SEC
 DISK USED  *       899.67 MB      
 **********************************************************************************************************************************
 Molecular orbitals read from record     2100.2  Type=RKS/LOCAL(IBO)  
 Occupation numbers read from record     2100.2  Type=RKS/LOCAL(IBO)  
 Orbital energies read from record       2100.2  Type=RKS/LOCAL(IBO)  
 Redundancy group numbers read from rec  2100.2  Type=RKS/LOCAL(IBO)  

 IBBA/aug-cc-pVTZ energy=      0.000000000000

        KS-SCF  
   -341.01269784
 **********************************************************************************************************************************
 Molpro calculation terminated
