
 Primary working directories    : /local
 Secondary working directories  : /local
 Wavefunction directory         : /local/
 Main file repository           : /local/

 SHA1      : b4a5b34a9e711420743f49e6833241d17c61fb3c
 NAME      : 2099.9.b4a5b34
 ARCHNAME  : linux/x86_64_openmp
 FC        : /cm/shared/languages/GCC-6.1/bin/gfortran
 BLASLIB   : -lblas
 id        : simonbennie

 Nodes     nprocs
 node32-034    1

 Using customized tuning parameters: mindgm=1; mindgv=20; mindgc=4; mindgr=1; noblas=0; minvec=7
 default implementation of scratch files=df  

 memory,500,m
 geomtyp=xyz
 nosym
 noorient
 geometry={
 P          0.21743        0.00009       -0.11125
 H          0.24661        1.03467        0.85216
 H          0.26266       -1.02506        0.86162
 H         -1.26642       -0.01095       -0.15063
 H         -2.50429        0.00003        0.10558
 }
 basis={ default,avtz }
 {ks,SOGGA,direct;wf,19,1,1}
 {ibba,bonds=1}

 Variables initialized (895), CPU time= 0.00 sec
 Commands  initialized (725), CPU time= 0.01 sec, 591 directives.
 Default parameters read. Elapsed time= 0.14 sec

 Checking input...
 Passed
1


                                         ***  PROGRAM SYSTEM MOLPRO  ***
                                       Copyright, TTI GmbH Stuttgart, 2015
                                    Version 2099.9 linked May 26 2017 16:03:21


 **********************************************************************************************************************************
 LABEL *                                                                                 
  64 bit serial version                                                                  DATE: 23-Jun-17          TIME: 01:32:08  
 **********************************************************************************************************************************

 SHA1:             b4a5b34a9e711420743f49e6833241d17c61fb3c
 **********************************************************************************************************************************
 SETTING GEOMTYP        =    XYZ

 Variable memory set to  500000000 words,  buffer space 

 ZSYMEL=NOSYM

 SETTING BASIS          =    AVTZ


 Recomputing integrals since basis changed


 Using spherical harmonics

 Library entry P      S aug-cc-pVTZ          selected for orbital group  1
 Library entry P      P aug-cc-pVTZ          selected for orbital group  1
 Library entry P      D aug-cc-pVTZ          selected for orbital group  1
 Library entry P      F aug-cc-pVTZ          selected for orbital group  1
 Library entry H      S aug-cc-pVTZ          selected for orbital group  2
 Library entry H      P aug-cc-pVTZ          selected for orbital group  2
 Library entry H      D aug-cc-pVTZ          selected for orbital group  2


 PROGRAM * SEWARD (Integral evaluation for generally contracted gaussian basis sets)     Author: Roland Lindh, 1990

 Geometry written to block  1 of record 700


 Point group  C1  



 ATOMIC COORDINATES

 NR  ATOM    CHARGE       X              Y              Z

   1  P      15.00    0.410883151    0.000170075   -0.210232031
   2  H       1.00    0.466025360    1.955242929    1.610349014
   3  H       1.00    0.496355464   -1.937082661    1.628225823
   4  H       1.00   -2.393186959   -0.020692501   -0.284649446
   5  H       1.00   -4.732422236    0.000056692    0.199517284

 Bond lengths in Bohr (Angstrom)

 1-2  2.672052745  1-3  2.672111705  1-4  2.805135002
     ( 1.413989419)     ( 1.414020619)     ( 1.484413517)

 Bond angles

  2-1-3   93.49845302   2-1-4   92.53018991   3-1-4   92.56972382

 NUCLEAR CHARGE:                   19
 NUMBER OF PRIMITIVE AOS:         192
 NUMBER OF SYMMETRY AOS:          175
 NUMBER OF CONTRACTIONS:          142   ( 142A   )
 NUMBER OF CORE ORBITALS:           5   (   5A   )
 NUMBER OF VALENCE ORBITALS:        8   (   8A   )


 NUCLEAR REPULSION ENERGY   21.01062334

 Eigenvalues of metric

         1 0.548E-04 0.187E-03 0.201E-03 0.246E-03 0.717E-03 0.898E-03 0.147E-02 0.161E-02


 Contracted 2-electron integrals neglected if value below      1.0D-11
 AO integral compression algorithm  1   Integral accuracy      1.0D-11

     251.920 MB (compressed) written to integral file ( 50.5%)


 NUMBER OF SORTED TWO-ELECTRON INTEGRALS:   51546781.     BUFFER LENGTH:  32768
 NUMBER OF SEGMENTS:   4  SEGMENT LENGTH:   15999503      RECORD LENGTH: 524288

 Memory used in sort:      16.56 MW

 SORT1 READ    62296273. AND WROTE    50388734. INTEGRALS IN    147 RECORDS. CPU TIME:     0.66 SEC, REAL TIME:     1.93 SEC
 SORT2 READ    50388734. AND WROTE    51546781. INTEGRALS IN    961 RECORDS. CPU TIME:     1.19 SEC, REAL TIME:     2.39 SEC

 FILE SIZES:   FILE 1:   282.7 MBYTE,  FILE 4:   616.6 MBYTE,   TOTAL:    899.3 MBYTE

 OPERATOR DM      FOR CENTER  0  COORDINATES:    0.000000    0.000000    0.000000


 **********************************************************************************************************************************
 DATASETS  * FILE   NREC   LENGTH (MB)   RECORD NAMES
              1      19      243.66       500      610      700      900      950      970     1000      129      960     1100   
                                          VAR    BASINP    GEOM    SYMINP    ZMAT    AOBASIS   BASIS     P2S    ABASIS      S 
                                         1400     1410     1200     1210     1080     1600     1650     1300     1700   
                                           T        V       H0       H01     AOSYM     SMH    MOLCAS    ERIS     OPER   

 PROGRAMS   *        TOTAL       INT
 CPU TIMES  *         4.58      4.44
 REAL TIME  *        12.41 SEC
 DISK USED  *       899.67 MB      
 **********************************************************************************************************************************

 Density functional group SOGGA=XC-SOGGA
 Functional: XC-SOGGA(via MFM 1.6)                                             Gradient terms: 1
 Use grid at  1800.2

 Functional: XC-SOGGA                  Factor:  1.0000

 Generated new metagrid on record  1800.2 with target accuracy 1.0D-06 and 18266 points in CPU time    0.5
 Computed new grid on record 1800.1 in CPU time    0.5
  117229 words reserved for DFT integration

 PROGRAM * RKS-SCF (Restricted open shell Kohn-Sham)     Authors: W. Meyer, H.-J. Werner, P.J. Knowles, 1993

 NUMBER OF ELECTRONS:      10+    9-    SPACE SYMMETRY=1    SPIN SYMMETRY: Doublet 
 CONVERGENCE THRESHOLDS:    1.00E-05 (Density)    1.00E-06 (Energy)
 MAX. NUMBER OF ITERATIONS:       60
 INTERPOLATION TYPE:            DIIS
 INTERPOLATION STEPS:              2 (START)      1 (STEP)
 LEVEL SHIFTS:                 -0.60 (CLOSED) -0.30 (OPEN) 



 Use fine grid record 1800.2 for energy threshold  1.0D-06
 Orbital guess generated from atomic densities. Full valence occupancy:   13

 Molecular orbital dump at record        2100.2

 Initial alpha occupancy:  10
 Initial beta  occupancy:   9
 Wave function symmetry:    1

 ITERATION    DDIFF          GRAD             ENERGY        2-EL.EN.            DIPOLE MOMENTS         DIIS   ORB.
    1      0.000D+00      0.000D+00      -342.74463128    353.642206   -0.06445    0.00074    0.23634    0    start
    2      0.000D+00      0.226D-02      -342.75586585    350.907617    0.23651    0.00022    0.19620    1    diag,B
    3      0.387D-02      0.692D-03      -342.75688317    351.437747    0.12206    0.00031    0.21982    2    diag,B
    4      0.908D-03      0.245D-03      -342.75717421    351.304552    0.11205    0.00025    0.21496    3    diag,B
    5      0.393D-03      0.121D-03      -342.75736190    351.278432    0.09045    0.00018    0.21332    4    diag,B
    6      0.369D-03      0.566D-04      -342.75743038    351.283193    0.07226    0.00013    0.21349    5    diag,B
    7      0.242D-03      0.238D-04      -342.75744464    351.285747    0.06381    0.00011    0.21398    6    fixocc
    8      0.112D-03      0.853D-05      -342.75744632    351.288902    0.06105    0.00010    0.21453    7    diag,B
    9      0.686D-04      0.376D-05      -342.75744662    351.289334    0.06006    0.00010    0.21486    8    diag,B
   10      0.354D-04      0.118D-05      -342.75744663    351.289446    0.05987    0.00010    0.21500    9    orth
   11      0.125D-04      0.394D-06      -342.75744664    351.289456    0.05982    0.00010    0.21505    9    diag,B
   12      0.507D-05      0.144D-06      -342.75744664    351.289455    0.05981    0.00010    0.21506    0    orth

 Final alpha occupancy:  10
 Final beta  occupancy:   9

 !RKS STATE 1.1 Energy               -342.757446636607
 Nuclear energy                        21.01062334
 One-electron energy                 -515.73466917
 Two-electron energy                  175.64472757
 Density functional                   -23.67812838     XC-SOGGA=-23.67812838
 Virial quotient                       -1.00166814
 !RKS STATE 1.1 Dipole moment           0.05981362     0.00009799     0.21506005
 Dipole moment /Debye                   0.15202111     0.00024904     0.54659233

 Orbital energies:

         1.1          2.1          3.1          4.1          5.1          6.1          7.1          8.1          9.1         10.1
    -76.170010    -6.293082    -4.518877    -4.518611    -4.514840    -0.590045    -0.368753    -0.347864    -0.258570    -0.216022

        11.1         12.1
     -0.022058    -0.010929

 HOMO     10.1    -0.216022 =      -5.8783eV
 LUMO     11.1    -0.022058 =      -0.6002eV
 LUMO-HOMO         0.193964 =       5.2780eV


 **********************************************************************************************************************************
 DATASETS  * FILE   NREC   LENGTH (MB)   RECORD NAMES
              1      20      244.24       500      610      700      900      950      970     1000      129      960     1100   
                                          VAR    BASINP    GEOM    SYMINP    ZMAT    AOBASIS   BASIS     P2S    ABASIS      S 
                                         1400     1410     1200     1210     1080     1600     1650     1300     1700     1800   
                                           T        V       H0       H01     AOSYM     SMH    MOLCAS    ERIS     OPER     GRID   

              2       5        3.41       700     1000      520     1800     2100   
                                         GEOM     BASIS   MCVARS    GRID      RKS  

 PROGRAMS   *        TOTAL        KS       INT
 CPU TIMES  *        20.09     15.50      4.44
 REAL TIME  *        28.69 SEC
 DISK USED  *       899.67 MB      
 **********************************************************************************************************************************


 PROGRAM * Intrinsic Basis Bonding Analysis (IBBA)          Author: G. Knizia

 Molecular orbitals read from record     2100.2  Type=RKS/CANONICAL (state 1.1)
 Fock matrix read from record            2100.2  Type=RKS/TOTAL (state 1.1)
 Orbital energies read from record       2100.2  Type=RKS/CANONICAL (state 1.1)
 Density matrix read from record         2100.2  Type=RKS/CHARGE (state 1.1)

 Number of core orbitals:           5 (   5 )
 Number of closed-shell orbitals:   4 (   4 )
 Number of active  orbitals:        1 (   1 )

 Basis set MINAO-AUTO-PP generated.      Number of basis functions:   13 

 Polarized AO type:                A = (O Ot + (1-O)(1-Ot)) P12
 Orthogonalization method:         Symmetric (Loewdin)
 Localization functional:          L = sum[A,i] <i|n_A|i>^4 -> max

 Localization group 1:   9 orbitals, occupancy  2.000
 Iterative localization: IB/PM,    6 iter; Final gradient 0.11E-09

 Bond order analysis:       [THRPRINT= 0.020]

   CEN ATOM   CEN ATOM     WIBERG.BO      RENORM.BO
     1   P  -   2   H       0.996201       1.000000
     1   P  -   3   H       0.996130       1.000000
     1   P  -   4   H       0.777611       1.000000
     1   P  -   5   H       0.276920       1.000000

     2   H  -   1   P       0.996201       1.000000

     3   H  -   1   P       0.996130       1.000000

     4   H  -   1   P       0.777611       1.000000
     4   H  -   5   H       0.220670       0.754982

     5   H  -   1   P       0.276920       1.000000
     5   H  -   4   H       0.220670       0.754982


 Valency analysis:

   CEN ATOM   TOT.VALENCE
     1   P       3.046862
     2   H       0.999425
     3   H       0.999421
     4   H       0.999999
     5   H       0.499572
 Localization group 2:   1 orbitals, occupancy  1.000
 Iterative localization: IB/PM,    1 iter; Final gradient 0.00E+00

 Bond order analysis:       [THRPRINT= 0.020]

   CEN ATOM   CEN ATOM     WIBERG.BO      RENORM.BO
     1   P  -   5   H       0.390049       0.500000




     5   H  -   1   P       0.390049       0.500000


 Valency analysis:

   CEN ATOM   TOT.VALENCE
     1   P       0.390608
     2   H       0.000545
     3   H       0.000651
     4   H       0.000904
     5   H       0.391588

 Total charge composition:

   CEN ATOM         s          p       ELECTRONS ->P.CHARGE
     1   P       5.57193    9.45069     15.02261   -0.02261
     2   H       0.97629                 0.97629    0.02371
     3   H       0.97627                 0.97627    0.02373
     4   H       0.99941                 0.99941    0.00059
     5   H       1.02541                 1.02541   -0.02541

 Total charge composition, AO contributions:

   CEN ATOM SHL      SPHERICAL COMPONENTS
     1   P  1s       1.99986
     1   P  2s       1.99206
     1   P  3s       1.58001
     1   P  2p       1.99959    1.99948    1.99948
     1   P  3p       1.10201    0.98702    1.36310

     2   H  1s       0.97629

     3   H  1s       0.97627

     4   H  1s       0.99941

     5   H  1s       1.02541

 Active orbital charges:

   CEN ATOM         s          p       ELECTRONS ->SPIN.DEN
     1   P       0.00079    0.26533      0.26613    0.26613
     2   H       0.00027                 0.00027    0.00027
     3   H       0.00033                 0.00033    0.00033
     4   H       0.00045                 0.00045    0.00045
     5   H       0.73282                 0.73282    0.73282

 Active orbital charges, AO contributions:

   CEN ATOM SHL      SPHERICAL COMPONENTS
     1   P  1s       0.00000
     1   P  2s       0.00002
     1   P  3s       0.00078
     1   P  2p       0.00000    0.00000    0.00000
     1   P  3p       0.26447    0.00001    0.00084

     2   H  1s       0.00027

     3   H  1s       0.00033

     4   H  1s       0.00045

     5   H  1s       0.73282

 Summary of localized orbital composition:   [THRPRINT= 0.020]

   ORB  GRP  ORB.ENERGY      CENTERS/CHARGES
     1   1   -75.217044      P  1   2.000
     2   1    -6.900949      P  1   2.000
     3   1    -4.698255      P  1   2.000
     4   1    -4.512901      P  1   2.000
     5   1    -4.502839      P  1   2.000
     6   1    -0.447314      P  1   1.024   H  3   0.975
     7   1    -0.447229      P  1   1.024   H  2   0.975
     8   1    -0.428049      H  4   0.990   P  1   0.765   H  5   0.243
     9   1    -0.426073      P  1   1.942   H  5   0.048
    10   2    -0.170398      H  5   0.733   P  1   0.266

 Localized orbitals saved to record      2100.2  (orbital set 2)


 **********************************************************************************************************************************
 DATASETS  * FILE   NREC   LENGTH (MB)   RECORD NAMES
              1      20      244.24       500      610      700      900      950      970     1000      129      960     1100   
                                          VAR    BASINP    GEOM    SYMINP    ZMAT    AOBASIS   BASIS     P2S    ABASIS      S 
                                         1400     1410     1200     1210     1080     1600     1650     1300     1700     1800   
                                           T        V       H0       H01     AOSYM     SMH    MOLCAS    ERIS     OPER     GRID   

              2       5        3.57       700     1000      520     1800     2100   
                                         GEOM     BASIS   MCVARS    GRID      RKS  

 PROGRAMS   *        TOTAL      IBBA        KS       INT
 CPU TIMES  *        20.12      0.03     15.50      4.44
 REAL TIME  *        28.75 SEC
 DISK USED  *       899.67 MB      
 **********************************************************************************************************************************
 Molecular orbitals read from record     2100.2  Type=RKS/LOCAL(IBO)  
 Occupation numbers read from record     2100.2  Type=RKS/LOCAL(IBO)  
 Orbital energies read from record       2100.2  Type=RKS/LOCAL(IBO)  
 Redundancy group numbers read from rec  2100.2  Type=RKS/LOCAL(IBO)  

 IBBA/aug-cc-pVTZ energy=      0.000000000000

        KS-SCF  
   -342.75744664
 **********************************************************************************************************************************
 Molpro calculation terminated
