
 Primary working directories    : /local
 Secondary working directories  : /local
 Wavefunction directory         : /local/
 Main file repository           : /local/

 SHA1      : b4a5b34a9e711420743f49e6833241d17c61fb3c
 NAME      : 2099.9.b4a5b34
 ARCHNAME  : linux/x86_64_openmp
 FC        : /cm/shared/languages/GCC-6.1/bin/gfortran
 BLASLIB   : -lblas
 id        : simonbennie

 Nodes     nprocs
 node32-026    1

 Using customized tuning parameters: mindgm=1; mindgv=20; mindgc=4; mindgr=1; noblas=0; minvec=7
 default implementation of scratch files=df  

 memory,500,m
 geomtyp=xyz
 nosym
 noorient
 geometry={
 P          0.21743        0.00009       -0.11125
 H          0.24661        1.03467        0.85216
 H          0.26266       -1.02506        0.86162
 H         -1.26642       -0.01095       -0.15063
 H         -2.50429        0.00003        0.10558
 }
 basis={ default,SV(P) }
 {ks,D,direct;wf,19,1,1}
 {ibba,bonds=1}

 Variables initialized (895), CPU time= 0.01 sec
 Commands  initialized (725), CPU time= 0.01 sec, 591 directives.
 Default parameters read. Elapsed time= 0.08 sec

 Checking input...
 Passed
1


                                         ***  PROGRAM SYSTEM MOLPRO  ***
                                       Copyright, TTI GmbH Stuttgart, 2015
                                    Version 2099.9 linked May 26 2017 16:03:21


 **********************************************************************************************************************************
 LABEL *                                                                                 
  64 bit serial version                                                                  DATE: 21-Jun-17          TIME: 08:51:56  
 **********************************************************************************************************************************

 SHA1:             b4a5b34a9e711420743f49e6833241d17c61fb3c
 **********************************************************************************************************************************
 SETTING GEOMTYP        =    XYZ

 Variable memory set to  500000000 words,  buffer space 

 ZSYMEL=NOSYM

 SETTING BASIS          =    SV(P)


 Recomputing integrals since basis changed


 Using spherical harmonics

 Library entry P      S def2-SV(P)           selected for orbital group  1
 Library entry P      P def2-SV(P)           selected for orbital group  1
 Library entry P      D def2-SV(P)           selected for orbital group  1
 Library entry H      S def2-SV(P)           selected for orbital group  2


 PROGRAM * SEWARD (Integral evaluation for generally contracted gaussian basis sets)     Author: Roland Lindh, 1990

 Geometry written to block  1 of record 700


 Point group  C1  



 ATOMIC COORDINATES

 NR  ATOM    CHARGE       X              Y              Z

   1  P      15.00    0.410883151    0.000170075   -0.210232031
   2  H       1.00    0.466025360    1.955242929    1.610349014
   3  H       1.00    0.496355464   -1.937082661    1.628225823
   4  H       1.00   -2.393186959   -0.020692501   -0.284649446
   5  H       1.00   -4.732422236    0.000056692    0.199517284

 Bond lengths in Bohr (Angstrom)

 1-2  2.672052745  1-3  2.672111705  1-4  2.805135002
     ( 1.413989419)     ( 1.414020619)     ( 1.484413517)

 Bond angles

  2-1-3   93.49845302   2-1-4   92.53018991   3-1-4   92.56972382

 NUCLEAR CHARGE:                   19
 NUMBER OF PRIMITIVE AOS:          53
 NUMBER OF SYMMETRY AOS:           52
 NUMBER OF CONTRACTIONS:           26   (  26A   )
 NUMBER OF CORE ORBITALS:           5   (   5A   )
 NUMBER OF VALENCE ORBITALS:        8   (   8A   )


 NUCLEAR REPULSION ENERGY   21.01062334

 Eigenvalues of metric

         1 0.123E-01 0.535E-01 0.102E+00 0.188E+00 0.231E+00 0.273E+00 0.293E+00 0.363E+00


 Contracted 2-electron integrals neglected if value below      1.0D-11
 AO integral compression algorithm  1   Integral accuracy      1.0D-11

     0.524 MB (compressed) written to integral file ( 57.9%)


 NUMBER OF SORTED TWO-ELECTRON INTEGRALS:      61776.     BUFFER LENGTH:  32768
 NUMBER OF SEGMENTS:   1  SEGMENT LENGTH:      61776      RECORD LENGTH: 524288

 Memory used in sort:       0.62 MW

 SORT1 READ       81356. AND WROTE       48693. INTEGRALS IN      1 RECORDS. CPU TIME:     0.01 SEC, REAL TIME:     0.00 SEC
 SORT2 READ       48693. AND WROTE       61776. INTEGRALS IN      2 RECORDS. CPU TIME:     0.00 SEC, REAL TIME:     0.02 SEC

 FILE SIZES:   FILE 1:    30.6 MBYTE,  FILE 4:     4.2 MBYTE,   TOTAL:     34.8 MBYTE

 OPERATOR DM      FOR CENTER  0  COORDINATES:    0.000000    0.000000    0.000000


 **********************************************************************************************************************************
 DATASETS  * FILE   NREC   LENGTH (MB)   RECORD NAMES
              1      19       30.28       500      610      700      900      950      970     1000      129      960     1100   
                                          VAR    BASINP    GEOM    SYMINP    ZMAT    AOBASIS   BASIS     P2S    ABASIS      S 
                                         1400     1410     1200     1210     1080     1600     1650     1300     1700   
                                           T        V       H0       H01     AOSYM     SMH    MOLCAS    ERIS     OPER   

 PROGRAMS   *        TOTAL       INT
 CPU TIMES  *         0.48      0.35
 REAL TIME  *         0.82 SEC
 DISK USED  *        35.12 MB      
 **********************************************************************************************************************************

 Density functional group D=DIRAC
 Functional: DIRAC(Automatically generated (new) DIRAC)                        Gradient terms: 0
 Use grid at  1800.2

 Functional: DIRAC                     Factor:  1.0000

 Generated new metagrid on record  1800.2 with target accuracy 1.0D-06 and 17598 points in CPU time    0.4
 Computed new grid on record 1800.1 in CPU time    0.4
   14727 words reserved for DFT integration

 PROGRAM * RKS-SCF (Restricted open shell Kohn-Sham)     Authors: W. Meyer, H.-J. Werner, P.J. Knowles, 1993

 NUMBER OF ELECTRONS:      10+    9-    SPACE SYMMETRY=1    SPIN SYMMETRY: Doublet 
 CONVERGENCE THRESHOLDS:    1.00E-05 (Density)    1.00E-06 (Energy)
 MAX. NUMBER OF ITERATIONS:       60
 INTERPOLATION TYPE:            DIIS
 INTERPOLATION STEPS:              2 (START)      1 (STEP)
 LEVEL SHIFTS:                 -0.60 (CLOSED) -0.30 (OPEN) 



 Use fine grid record 1800.2 for energy threshold  1.0D-06
 Orbital guess generated from atomic densities. Full valence occupancy:   10

 Molecular orbital dump at record        2100.2

 Initial alpha occupancy:  10
 Initial beta  occupancy:   9
 Wave function symmetry:    1

 ITERATION    DDIFF          GRAD             ENERGY        2-EL.EN.            DIPOLE MOMENTS         DIIS   ORB.
    1      0.000D+00      0.000D+00      -340.86308214    352.925560   -0.15196    0.00136    0.43635    0    start
    2      0.000D+00      0.541D-02      -340.87239303    350.298174    0.15327    0.00086    0.33756    1    diag,B
    3      0.161D-01      0.169D-02      -340.87357976    350.800261    0.03676    0.00082    0.35272    2    diag,B
    4      0.319D-02      0.606D-03      -340.87409098    350.737279    0.00954    0.00067    0.34103    3    diag,B
    5      0.270D-02      0.310D-03      -340.87435636    350.738309   -0.02113    0.00052    0.33275    4    diag,B
    6      0.209D-02      0.150D-03      -340.87444384    350.758870   -0.04670    0.00042    0.32993    5    diag,B
    7      0.149D-02      0.460D-04      -340.87445030    350.762587   -0.05335    0.00040    0.33145    6    fixocc
    8      0.417D-03      0.154D-04      -340.87445085    350.762381   -0.05443    0.00040    0.33209    7    diag,B
    9      0.123D-03      0.506D-05      -340.87445089    350.762823   -0.05470    0.00040    0.33228    8    diag,B
   10      0.378D-04      0.145D-05      -340.87445089    350.762826   -0.05485    0.00040    0.33232    9    orth
   11      0.127D-04      0.449D-06      -340.87445089    350.762819   -0.05486    0.00040    0.33233    9    diag,B
   12      0.440D-05      0.133D-06      -340.87445089    350.762816   -0.05486    0.00040    0.33233    0    orth

 Final alpha occupancy:  10
 Final beta  occupancy:   9

 !RKS STATE 1.1 Energy               -340.874450892362
 Nuclear energy                        21.01062334
 One-electron energy                 -515.35473853
 Two-electron energy                  175.38140781
 Density functional                   -21.91174351     DIRAC=-21.91174351
 Virial quotient                       -0.99650974
 !RKS STATE 1.1 Dipole moment          -0.05486401     0.00039511     0.33232714
 Dipole moment /Debye                  -0.13944128     0.00100420     0.84463601

 Orbital energies:

         1.1          2.1          3.1          4.1          5.1          6.1          7.1          8.1          9.1         10.1
    -75.866357    -6.201495    -4.453666    -4.453634    -4.449592    -0.545162    -0.325734    -0.304530    -0.210145    -0.186952

        11.1         12.1
      0.047838     0.051718

 HOMO     10.1    -0.186952 =      -5.0872eV
 LUMO     11.1     0.047838 =       1.3017eV
 LUMO-HOMO         0.234790 =       6.3890eV


 **********************************************************************************************************************************
 DATASETS  * FILE   NREC   LENGTH (MB)   RECORD NAMES
              1      20       30.85       500      610      700      900      950      970     1000      129      960     1100   
                                          VAR    BASINP    GEOM    SYMINP    ZMAT    AOBASIS   BASIS     P2S    ABASIS      S 
                                         1400     1410     1200     1210     1080     1600     1650     1300     1700     1800   
                                           T        V       H0       H01     AOSYM     SMH    MOLCAS    ERIS     OPER     GRID   

              2       5        2.84       700     1000      520     1800     2100   
                                         GEOM     BASIS   MCVARS    GRID      RKS  

 PROGRAMS   *        TOTAL        KS       INT
 CPU TIMES  *         1.43      0.95      0.35
 REAL TIME  *         1.82 SEC
 DISK USED  *        35.12 MB      
 **********************************************************************************************************************************


 PROGRAM * Intrinsic Basis Bonding Analysis (IBBA)          Author: G. Knizia

 Molecular orbitals read from record     2100.2  Type=RKS/CANONICAL (state 1.1)
 Fock matrix read from record            2100.2  Type=RKS/TOTAL (state 1.1)
 Orbital energies read from record       2100.2  Type=RKS/CANONICAL (state 1.1)
 Density matrix read from record         2100.2  Type=RKS/CHARGE (state 1.1)

 Number of core orbitals:           5 (   5 )
 Number of closed-shell orbitals:   4 (   4 )
 Number of active  orbitals:        1 (   1 )

 Basis set MINAO-AUTO-PP generated.      Number of basis functions:   13 

 Polarized AO type:                A = (O Ot + (1-O)(1-Ot)) P12
 Orthogonalization method:         Symmetric (Loewdin)
 Localization functional:          L = sum[A,i] <i|n_A|i>^4 -> max

 Localization group 1:   9 orbitals, occupancy  2.000
 Iterative localization: IB/PM,    6 iter; Final gradient 0.11E-09

 Bond order analysis:       [THRPRINT= 0.020]

   CEN ATOM   CEN ATOM     WIBERG.BO      RENORM.BO
     1   P  -   2   H       0.997117       1.000000
     1   P  -   3   H       0.997054       1.000000
     1   P  -   4   H       0.803302       1.000000
     1   P  -   5   H       0.248543       1.000000

     2   H  -   1   P       0.997117       1.000000

     3   H  -   1   P       0.997054       1.000000

     4   H  -   1   P       0.803302       1.000000
     4   H  -   5   H       0.195155       0.761057

     5   H  -   1   P       0.248543       1.000000
     5   H  -   4   H       0.195155       0.761057


 Valency analysis:

   CEN ATOM   TOT.VALENCE
     1   P       3.046016
     2   H       0.999887
     3   H       0.999885
     4   H       0.999980
     5   H       0.445397
 Localization group 2:   1 orbitals, occupancy  1.000
 Iterative localization: IB/PM,    1 iter; Final gradient 0.00E+00

 Bond order analysis:       [THRPRINT= 0.020]

   CEN ATOM   CEN ATOM     WIBERG.BO      RENORM.BO
     1   P  -   5   H       0.358118       0.500000




     5   H  -   1   P       0.358118       0.500000


 Valency analysis:

   CEN ATOM   TOT.VALENCE
     1   P       0.358567
     2   H       0.000514
     3   H       0.000607
     4   H       0.000797
     5   H       0.359585

 Total charge composition:

   CEN ATOM         s          p       ELECTRONS ->P.CHARGE
     1   P       5.57145    9.42423     14.99567    0.00433
     2   H       0.98963                 0.98963    0.01037
     3   H       0.98957                 0.98957    0.01043
     4   H       1.00487                 1.00487   -0.00487
     5   H       1.02025                 1.02025   -0.02025

 Total charge composition, AO contributions:

   CEN ATOM SHL      SPHERICAL COMPONENTS
     1   P  1s       1.99985
     1   P  2s       1.99265
     1   P  3s       1.57895
     1   P  2p       1.99967    1.99959    1.99958
     1   P  3p       1.10341    0.97661    1.34537

     2   H  1s       0.98963

     3   H  1s       0.98957

     4   H  1s       1.00487

     5   H  1s       1.02025

 Active orbital charges:

   CEN ATOM         s          p       ELECTRONS ->SPIN.DEN
     1   P       0.00086    0.23321      0.23407    0.23407
     2   H       0.00026                 0.00026    0.00026
     3   H       0.00030                 0.00030    0.00030
     4   H       0.00040                 0.00040    0.00040
     5   H       0.76497                 0.76497    0.76497

 Active orbital charges, AO contributions:

   CEN ATOM SHL      SPHERICAL COMPONENTS
     1   P  1s       0.00000
     1   P  2s       0.00001
     1   P  3s       0.00085
     1   P  2p       0.00001    0.00000    0.00000
     1   P  3p       0.23252    0.00001    0.00067

     2   H  1s       0.00026

     3   H  1s       0.00030

     4   H  1s       0.00040

     5   H  1s       0.76497

 Summary of localized orbital composition:   [THRPRINT= 0.020]

   ORB  GRP  ORB.ENERGY      CENTERS/CHARGES
     1   1   -74.865558      P  1   2.000
     2   1    -6.859947      P  1   2.000
     3   1    -4.631250      P  1   2.000
     4   1    -4.448055      P  1   2.000
     5   1    -4.436000      P  1   2.000
     6   1    -0.402130      P  1   1.011   H  3   0.988
     7   1    -0.402072      P  1   1.011   H  2   0.988
     8   1    -0.388750      H  4   0.997   P  1   0.790   H  5   0.211
     9   1    -0.376554      P  1   1.950   H  5   0.043
    10   2    -0.124976      H  5   0.765   P  1   0.234

 Localized orbitals saved to record      2100.2  (orbital set 2)


 **********************************************************************************************************************************
 DATASETS  * FILE   NREC   LENGTH (MB)   RECORD NAMES
              1      20       30.85       500      610      700      900      950      970     1000      129      960     1100   
                                          VAR    BASINP    GEOM    SYMINP    ZMAT    AOBASIS   BASIS     P2S    ABASIS      S 
                                         1400     1410     1200     1210     1080     1600     1650     1300     1700     1800   
                                           T        V       H0       H01     AOSYM     SMH    MOLCAS    ERIS     OPER     GRID   

              2       5        2.84       700     1000      520     1800     2100   
                                         GEOM     BASIS   MCVARS    GRID      RKS  

 PROGRAMS   *        TOTAL      IBBA        KS       INT
 CPU TIMES  *         1.45      0.02      0.95      0.35
 REAL TIME  *         1.87 SEC
 DISK USED  *        35.12 MB      
 **********************************************************************************************************************************
 Molecular orbitals read from record     2100.2  Type=RKS/LOCAL(IBO)  
 Occupation numbers read from record     2100.2  Type=RKS/LOCAL(IBO)  
 Orbital energies read from record       2100.2  Type=RKS/LOCAL(IBO)  
 Redundancy group numbers read from rec  2100.2  Type=RKS/LOCAL(IBO)  

 IBBA/SV(P) energy=      0.000000000000

        KS-SCF  
   -340.87445089
 **********************************************************************************************************************************
 Molpro calculation terminated
