
 Primary working directories    : /local
 Secondary working directories  : /local
 Wavefunction directory         : /local/
 Main file repository           : /local/

 SHA1      : b4a5b34a9e711420743f49e6833241d17c61fb3c
 NAME      : 2099.9.b4a5b34
 ARCHNAME  : linux/x86_64_openmp
 FC        : /cm/shared/languages/GCC-6.1/bin/gfortran
 BLASLIB   : -lblas
 id        : simonbennie

 Nodes     nprocs
 node34-023    1

 Using customized tuning parameters: mindgm=1; mindgv=20; mindgc=4; mindgr=1; noblas=0; minvec=7
 default implementation of scratch files=df  

 memory,500,m
 geomtyp=xyz
 nosym
 noorient
 geometry={
 P          0.21743        0.00009       -0.11125
 H          0.24661        1.03467        0.85216
 H          0.26266       -1.02506        0.86162
 H         -1.26642       -0.01095       -0.15063
 H         -2.50429        0.00003        0.10558
 }
 basis={ default,tzvp }
 {uks,D,direct;wf,19,1,1}
 {ibba,bonds=1}

 Variables initialized (895), CPU time= 0.01 sec
 Commands  initialized (725), CPU time= 0.01 sec, 591 directives.
 Default parameters read. Elapsed time= 0.08 sec

 Checking input...
 Passed
1


                                         ***  PROGRAM SYSTEM MOLPRO  ***
                                       Copyright, TTI GmbH Stuttgart, 2015
                                    Version 2099.9 linked May 26 2017 16:03:21


 **********************************************************************************************************************************
 LABEL *                                                                                 
  64 bit serial version                                                                  DATE: 21-Jun-17          TIME: 09:26:05  
 **********************************************************************************************************************************

 SHA1:             b4a5b34a9e711420743f49e6833241d17c61fb3c
 **********************************************************************************************************************************
 SETTING GEOMTYP        =    XYZ

 Variable memory set to  500000000 words,  buffer space 

 ZSYMEL=NOSYM

 SETTING BASIS          =    TZVP


 Recomputing integrals since basis changed


 Using spherical harmonics

 Library entry P      S def2-TZVP            selected for orbital group  1
 Library entry P      P def2-TZVP            selected for orbital group  1
 Library entry P      D def2-TZVP            selected for orbital group  1
 Library entry P      F def2-TZVP            selected for orbital group  1
 Library entry H      S def2-TZVP            selected for orbital group  2
 Library entry H      P def2-TZVP            selected for orbital group  2


 PROGRAM * SEWARD (Integral evaluation for generally contracted gaussian basis sets)     Author: Roland Lindh, 1990

 Geometry written to block  1 of record 700


 Point group  C1  



 ATOMIC COORDINATES

 NR  ATOM    CHARGE       X              Y              Z

   1  P      15.00    0.410883151    0.000170075   -0.210232031
   2  H       1.00    0.466025360    1.955242929    1.610349014
   3  H       1.00    0.496355464   -1.937082661    1.628225823
   4  H       1.00   -2.393186959   -0.020692501   -0.284649446
   5  H       1.00   -4.732422236    0.000056692    0.199517284

 Bond lengths in Bohr (Angstrom)

 1-2  2.672052745  1-3  2.672111705  1-4  2.805135002
     ( 1.413989419)     ( 1.414020619)     ( 1.484413517)

 Bond angles

  2-1-3   93.49845302   2-1-4   92.53018991   3-1-4   92.56972382

 NUCLEAR CHARGE:                   19
 NUMBER OF PRIMITIVE AOS:         101
 NUMBER OF SYMMETRY AOS:           95
 NUMBER OF CONTRACTIONS:           61   (  61A   )
 NUMBER OF CORE ORBITALS:           5   (   5A   )
 NUMBER OF VALENCE ORBITALS:        8   (   8A   )


 NUCLEAR REPULSION ENERGY   21.01062334


 Eigenvalues of metric

         1 0.875E-02 0.168E-01 0.169E-01 0.233E-01 0.287E-01 0.412E-01 0.551E-01 0.570E-01


 Contracted 2-electron integrals neglected if value below      1.0D-11
 AO integral compression algorithm  1   Integral accuracy      1.0D-11

     8.126 MB (compressed) written to integral file ( 45.7%)


 NUMBER OF SORTED TWO-ELECTRON INTEGRALS:    1788886.     BUFFER LENGTH:  32768
 NUMBER OF SEGMENTS:   1  SEGMENT LENGTH:    1788886      RECORD LENGTH: 524288

 Memory used in sort:       2.35 MW

 SORT1 READ     2168134. AND WROTE     1517520. INTEGRALS IN      5 RECORDS. CPU TIME:     0.02 SEC, REAL TIME:     0.05 SEC
 SORT2 READ     1517520. AND WROTE     1788886. INTEGRALS IN     31 RECORDS. CPU TIME:     0.08 SEC, REAL TIME:     0.10 SEC

 FILE SIZES:   FILE 1:    38.3 MBYTE,  FILE 4:    21.0 MBYTE,   TOTAL:     59.3 MBYTE

 OPERATOR DM      FOR CENTER  0  COORDINATES:    0.000000    0.000000    0.000000


 **********************************************************************************************************************************
 DATASETS  * FILE   NREC   LENGTH (MB)   RECORD NAMES
              1      19       36.54       500      610      700      900      950      970     1000      129      960     1100   
                                          VAR    BASINP    GEOM    SYMINP    ZMAT    AOBASIS   BASIS     P2S    ABASIS      S 
                                         1400     1410     1200     1210     1080     1600     1650     1300     1700   
                                           T        V       H0       H01     AOSYM     SMH    MOLCAS    ERIS     OPER   

 PROGRAMS   *        TOTAL       INT
 CPU TIMES  *         0.59      0.45
 REAL TIME  *         0.95 SEC
 DISK USED  *        59.64 MB      
 **********************************************************************************************************************************

 Density functional group D=DIRAC
 Functional: DIRAC(Automatically generated (new) DIRAC)                        Gradient terms: 0
 Use grid at  1800.2

 Functional: DIRAC                     Factor:  1.0000

 Generated new metagrid on record  1800.2 with target accuracy 1.0D-06 and 17910 points in CPU time    0.5
 Computed new grid on record 1800.1 in CPU time    0.5
   29190 words reserved for DFT integration

 PROGRAM * UKS-SCF (Unrestricted Kohn-Sham)     Authors: W. Meyer, H.-J. Werner, P.J. Knowles, 1993

 NUMBER OF ELECTRONS:      10+    9-    SPACE SYMMETRY=1    SPIN SYMMETRY: Doublet 
 CONVERGENCE THRESHOLDS:    1.00E-05 (Density)    1.00E-06 (Energy)
 MAX. NUMBER OF ITERATIONS:       60
 INTERPOLATION TYPE:            DIIS
 INTERPOLATION STEPS:              2 (START)      1 (STEP)
 LEVEL SHIFTS:                 -0.20 (ALPHA)  -0.20 (BETA) 



 Use fine grid record 1800.2 for energy threshold  1.0D-06
 Orbital guess generated from atomic densities. Full valence occupancy:   10

 Molecular orbital dump at record        2200.2

 Initial alpha occupation  10
 Initial beta  occupation   9

 ITERATION    DDIFF          GRAD             ENERGY        2-EL.EN.            DIPOLE MOMENTS         DIIS
    1      0.000D+00      0.000D+00      -340.99338454    352.991437   -0.07936    0.00084    0.27545    0
    2      0.498D-02      0.221D-02      -341.00584864    350.362449    0.09712    0.00028    0.23096    1
    3      0.144D-02      0.661D-03      -341.00712458    350.889958    0.06434    0.00033    0.24856    2
    4      0.575D-03      0.328D-03      -341.00761616    350.764320    0.05793    0.00028    0.24149    3
    5      0.771D-03      0.210D-03      -341.00804205    350.777758    0.03759    0.00021    0.23806    4
    6      0.613D-03      0.115D-03      -341.00822247    350.822561    0.00548    0.00015    0.24042    5
    7      0.305D-03      0.414D-04      -341.00825432    350.815723   -0.00438    0.00011    0.23961    6
    8      0.755D-04      0.195D-04      -341.00825821    350.825974   -0.00990    0.00011    0.24200    7
    9      0.529D-04      0.836D-05      -341.00825946    350.825904   -0.01127    0.00010    0.24219    8
   10      0.901D-05      0.227D-05      -341.00825952    350.825593   -0.01165    0.00010    0.24218    8
   11      0.178D-05      0.817D-06      -341.00825953    350.825658   -0.01160    0.00010    0.24224    9

 Final alpha occupancy:  10
 Final beta  occupancy:   9

 !UKS STATE 1.1 Energy               -341.008259528839
 Nuclear energy                        21.01062334
 One-electron energy                 -515.52284264
 Two-electron energy                  175.41282897
 Density functional                   -21.90886920     DIRAC=-21.90886920
 Virial quotient                       -0.99660831
 !UKS STATE 1.1 Dipole moment          -0.01159513     0.00009658     0.24224166
 Dipole moment /Debye                  -0.02946994     0.00024547     0.61567656

 Orbital energies for positive spin:

         1.1          2.1          3.1          4.1          5.1          6.1          7.1          8.1          9.1         10.1
    -75.898685    -6.206155    -4.454772    -4.453428    -4.449894    -0.552813    -0.348258    -0.308636    -0.231040    -0.176492

        11.1         12.1
      0.024384     0.025564

 Orbital energies for negative spin:

         1.1          2.1          3.1          4.1          5.1          6.1          7.1          8.1          9.1         10.1
    -75.897053    -6.204158    -4.451922    -4.451113    -4.447700    -0.542314    -0.316618    -0.305406    -0.212532    -0.079963

        11.1         12.1
      0.028001     0.033540

 HOMO     10.1    -0.176492 =      -4.8026eV
 LUMO    -10.1    -0.079963 =      -2.1759eV
 LUMO-HOMO         0.096529 =       2.6267eV

 EXPECTATION VALUE OF S**2:             0.75622560

 Occupation number threshold for canonical orbitals:  1.999000 (occupied),  0.001000 (virtual)

 Number of pseudo-canonical orbitals per symmetry:    8
 Number of active natural orbitals per symmetry:      3

 Natural orbitals saved to record    2200.2 (Orbital set 3)

 Orbital spaces for UNO-CAS (Min. occupation: 0.020  Max. occupation: 1.980):

 Closed:        9
 Active:        1


 **********************************************************************************************************************************
 DATASETS  * FILE   NREC   LENGTH (MB)   RECORD NAMES
              1      20       37.11       500      610      700      900      950      970     1000      129      960     1100   
                                          VAR    BASINP    GEOM    SYMINP    ZMAT    AOBASIS   BASIS     P2S    ABASIS      S 
                                         1400     1410     1200     1210     1080     1600     1650     1300     1700     1800   
                                           T        V       H0       H01     AOSYM     SMH    MOLCAS    ERIS     OPER     GRID   

              2       5        2.98       700     1000      520     1800     2200   
                                         GEOM     BASIS   MCVARS    GRID      UKS  

 PROGRAMS   *        TOTAL       UKS       INT
 CPU TIMES  *         2.77      2.18      0.45
 REAL TIME  *         3.22 SEC
 DISK USED  *        59.64 MB      
 **********************************************************************************************************************************


 PROGRAM * Intrinsic Basis Bonding Analysis (IBBA)          Author: G. Knizia

 Molecular orbitals read from record     2200.2  Type=UKS/ALPHA (state 1.1)
 Fock matrix read from record            2200.2  Type=UKS/TOTAL (state 1.1)
 Orbital energies read from record       2200.2  Type=UKS/ALPHA (state 1.1)
 Density matrix read from record         2200.2  Type=UKS/CHARGE (state 1.1)

 Number of core orbitals:           5 (   5 )
 Number of closed-shell orbitals:   4 (   4 )
 Number of active  orbitals:        1 (   1 )

 Basis set MINAO-AUTO-PP generated.      Number of basis functions:   13 

 Polarized AO type:                A = (O Ot + (1-O)(1-Ot)) P12
 Orthogonalization method:         Symmetric (Loewdin)
 Localization functional:          L = sum[A,i] <i|n_A|i>^4 -> max

 Localization group 1:   9 orbitals, occupancy  2.000
 Iterative localization: IB/PM,    5 iter; Final gradient 0.60E-08

 Bond order analysis:       [THRPRINT= 0.020]

   CEN ATOM   CEN ATOM     WIBERG.BO      RENORM.BO
     1   P  -   3   H       0.996074       1.000000
     1   P  -   2   H       0.995950       1.000000
     1   P  -   4   H       0.583797       1.000000
     1   P  -   5   H       0.579431       1.000000

     2   H  -   1   P       0.995950       1.000000

     3   H  -   1   P       0.996074       1.000000

     4   H  -   1   P       0.583797       1.000000
     4   H  -   5   H       0.408098       0.494775

     5   H  -   1   P       0.579431       1.000000
     5   H  -   4   H       0.408098       0.494775


 Valency analysis:

   CEN ATOM   TOT.VALENCE
     1   P       3.155251
     2   H       0.999006
     3   H       0.999016
     4   H       0.993827
     5   H       0.989006
 Localization group 2:   1 orbitals, occupancy  1.000
 Iterative localization: IB/PM,    1 iter; Final gradient 0.00E+00

 Bond order analysis:       [THRPRINT= 0.020]

   CEN ATOM   CEN ATOM     WIBERG.BO      RENORM.BO
     1   P  -   5   H       0.482236       0.500000




     5   H  -   1   P       0.482236       0.500000


 Valency analysis:

   CEN ATOM   TOT.VALENCE
     1   P       0.496668
     2   H       0.000879
     3   H       0.000748
     4   H       0.024745
     5   H       0.494134

 Total charge composition:

   CEN ATOM         s          p       ELECTRONS ->P.CHARGE
     1   P       5.55537    9.23176     14.78713    0.21287
     2   H       0.96892                 0.96892    0.03108
     3   H       0.96901                 0.96901    0.03099
     4   H       0.93396                 0.93396    0.06604
     5   H       1.34099                 1.34099   -0.34099

 Total charge composition, AO contributions:

   CEN ATOM SHL      SPHERICAL COMPONENTS
     1   P  1s       1.99985
     1   P  2s       1.99249
     1   P  3s       1.56303
     1   P  2p       1.99959    1.99957    1.99956
     1   P  3p       0.93862    0.99589    1.29852

     2   H  1s       0.96892

     3   H  1s       0.96901

     4   H  1s       0.93396

     5   H  1s       1.34099

 Active orbital charges:

   CEN ATOM         s          p       ELECTRONS ->SPIN.DEN
     1   P       0.01505    0.52576      0.54082    0.54082
     2   H       0.00044                 0.00044    0.00044
     3   H       0.00037                 0.00037    0.00037
     4   H       0.01253                 0.01253    0.01253
     5   H       0.44584                 0.44584    0.44584

 Active orbital charges, AO contributions:

   CEN ATOM SHL      SPHERICAL COMPONENTS
     1   P  1s       0.00000
     1   P  2s       0.00001
     1   P  3s       0.01505
     1   P  2p       0.00006    0.00000    0.00001
     1   P  3p       0.46741    0.00001    0.05828

     2   H  1s       0.00044

     3   H  1s       0.00037

     4   H  1s       0.01253

     5   H  1s       0.44584

 Summary of localized orbital composition:   [THRPRINT= 0.020]

   ORB  GRP  ORB.ENERGY      CENTERS/CHARGES
     1   1   -74.922553      P  1   2.000
     2   1    -6.865752      P  1   2.000
     3   1    -4.627431      P  1   2.000
     4   1    -4.451061      P  1   2.000
     5   1    -4.447021      P  1   2.000
     6   1    -0.410285      P  1   1.736   H  5   0.136   H  4   0.127
     7   1    -0.393640      P  1   1.029   H  3   0.968
     8   1    -0.393496      P  1   1.029   H  2   0.968
     9   1    -0.338711      H  4   0.791   H  5   0.756   P  1   0.453
    10   2    -0.135679      P  1   0.541   H  5   0.446

 Localized orbitals saved to record      2200.2  (orbital set 4)


 **********************************************************************************************************************************
 DATASETS  * FILE   NREC   LENGTH (MB)   RECORD NAMES
              1      20       37.11       500      610      700      900      950      970     1000      129      960     1100   
                                          VAR    BASINP    GEOM    SYMINP    ZMAT    AOBASIS   BASIS     P2S    ABASIS      S 
                                         1400     1410     1200     1210     1080     1600     1650     1300     1700     1800   
                                           T        V       H0       H01     AOSYM     SMH    MOLCAS    ERIS     OPER     GRID   

              2       5        3.01       700     1000      520     1800     2200   
                                         GEOM     BASIS   MCVARS    GRID      UKS  

 PROGRAMS   *        TOTAL      IBBA       UKS       INT
 CPU TIMES  *         2.79      0.02      2.18      0.45
 REAL TIME  *         3.27 SEC
 DISK USED  *        59.64 MB      
 **********************************************************************************************************************************
 Molecular orbitals read from record     2200.2  Type=UKS/LOCAL(IBO)  
 Occupation numbers read from record     2200.2  Type=UKS/LOCAL(IBO)  
 Orbital energies read from record       2200.2  Type=UKS/LOCAL(IBO)  
 Redundancy group numbers read from rec  2200.2  Type=UKS/BETA (state 1.1)

 IBBA/TZVP energy=      0.000000000000

        UKS-SCF 
   -341.00825953
 **********************************************************************************************************************************
 Molpro calculation terminated
