
 Primary working directories    : /local
 Secondary working directories  : /local
 Wavefunction directory         : /local/
 Main file repository           : /local/

 SHA1      : b4a5b34a9e711420743f49e6833241d17c61fb3c
 NAME      : 2099.9.b4a5b34
 ARCHNAME  : linux/x86_64_openmp
 FC        : /cm/shared/languages/GCC-6.1/bin/gfortran
 BLASLIB   : -lblas
 id        : simonbennie

 Nodes     nprocs
 node33-048    1

 Using customized tuning parameters: mindgm=1; mindgv=20; mindgc=4; mindgr=1; noblas=0; minvec=7
 default implementation of scratch files=df  

 memory,500,m
 geomtyp=xyz
 nosym
 noorient
 geometry={
 H          0.00000        0.00000       -0.86029
 O          0.00000        0.00000        0.32902
 H          0.00000        0.00000       -1.77191
 }
 basis={ default,sto-3g }
 {uks,BH-LYP,direct;disp;wf,10,1,2}
 {ibba,bonds=1}

 Variables initialized (895), CPU time= 0.00 sec
 Commands  initialized (725), CPU time= 0.02 sec, 591 directives.
 Default parameters read. Elapsed time= 0.08 sec

 Checking input...
 Passed
1


                                         ***  PROGRAM SYSTEM MOLPRO  ***
                                       Copyright, TTI GmbH Stuttgart, 2015
                                    Version 2099.9 linked May 26 2017 16:03:21


 **********************************************************************************************************************************
 LABEL *                                                                                 
  64 bit serial version                                                                  DATE: 16-Mar-18          TIME: 15:20:44  
 **********************************************************************************************************************************

 SHA1:             b4a5b34a9e711420743f49e6833241d17c61fb3c
 **********************************************************************************************************************************
 SETTING GEOMTYP        =    XYZ

 Variable memory set to  500000000 words,  buffer space 

 ZSYMEL=NOSYM

 SETTING BASIS          =    STO-3G


 Recomputing integrals since basis changed


 Using spherical harmonics

 Library entry H      S STO-3G               selected for orbital group  1
 Library entry O      S STO-3G               selected for orbital group  2
 Library entry O      P STO-3G               selected for orbital group  2


 PROGRAM * SEWARD (Integral evaluation for generally contracted gaussian basis sets)     Author: Roland Lindh, 1990

 Geometry written to block  1 of record 700


 Point group  C1  



 ATOMIC COORDINATES

 NR  ATOM    CHARGE       X              Y              Z

   1  H       1.00    0.000000000    0.000000000   -1.625712488
   2  O       8.00    0.000000000    0.000000000    0.621757690
   3  H       1.00    0.000000000    0.000000000   -3.348424617

 Bond lengths in Bohr (Angstrom)

 1-2  2.247470177
     ( 1.189310000)

 NUCLEAR CHARGE:                   10
 NUMBER OF PRIMITIVE AOS:          21
 NUMBER OF SYMMETRY AOS:           21
 NUMBER OF CONTRACTIONS:            7   (   7A   )
 NUMBER OF CORE ORBITALS:           1   (   1A   )
 NUMBER OF VALENCE ORBITALS:        6   (   6A   )


 NUCLEAR REPULSION ENERGY    6.15505865

 EXTRA SYMMETRY OF AOS IN SYMMETRY 1:   1 1 1 2 3 1 1

 Eigenvalues of metric

         1 0.325E+00 0.769E+00 0.942E+00 0.100E+01 0.100E+01 0.119E+01 0.178E+01


 Contracted 2-electron integrals neglected if value below      1.0D-11
 AO integral compression algorithm  1   Integral accuracy      1.0D-11

     0.262 MB (compressed) written to integral file (100.0%)


 NUMBER OF SORTED TWO-ELECTRON INTEGRALS:        406.     BUFFER LENGTH:  32768
 NUMBER OF SEGMENTS:   1  SEGMENT LENGTH:        406      RECORD LENGTH: 524288

 Memory used in sort:       0.56 MW

 SORT1 READ         585. AND WROTE         168. INTEGRALS IN      1 RECORDS. CPU TIME:     0.00 SEC, REAL TIME:     0.00 SEC
 SORT2 READ         168. AND WROTE         406. INTEGRALS IN      1 RECORDS. CPU TIME:     0.00 SEC, REAL TIME:     0.01 SEC

 FILE SIZES:   FILE 1:    30.2 MBYTE,  FILE 4:     4.2 MBYTE,   TOTAL:     34.5 MBYTE

 OPERATOR DM      FOR CENTER  0  COORDINATES:    0.000000    0.000000    0.000000


 **********************************************************************************************************************************
 DATASETS  * FILE   NREC   LENGTH (MB)   RECORD NAMES
              1      19       29.97       500      610      700      900      950      970     1000      129      960     1100   
                                          VAR    BASINP    GEOM    SYMINP    ZMAT    AOBASIS   BASIS     P2S    ABASIS      S 
                                         1400     1410     1200     1210     1080     1600     1650     1300     1700   
                                           T        V       H0       H01     AOSYM     SMH    MOLCAS    ERIS     OPER   

 PROGRAMS   *        TOTAL       INT
 CPU TIMES  *         0.31      0.18
 REAL TIME  *         2.55 SEC
 DISK USED  *        34.75 MB      
 **********************************************************************************************************************************

 Density functional group BH-LYP=B88+LYP
 Functional: B88(Automatically generated (new) B88)                            Gradient terms: 1
 Functional: LYP(Automatically generated (new) LYP)                            Gradient terms: 1

 dispersion correction activated
 Density functional: BH-LYP  
 functional not in list, set to default 


 Exact exchange will be calculated, factor:  0.5000

 Functional: B88                       Factor:  0.5000
 Functional: LYP                       Factor:  1.0000

 Use grid at  1800.2


 Exact exchange will be calculated, factor:  0.5000

 Functional: B88                       Factor:  0.5000
 Functional: LYP                       Factor:  1.0000

 Generated new metagrid on record  1800.2 with target accuracy 1.0D-06 and 10564 points in CPU time    0.1
 Computed new grid on record 1800.1 in CPU time    0.2
    9421 words reserved for DFT integration

 PROGRAM * UKS-SCF (Unrestricted Kohn-Sham)     Authors: W. Meyer, H.-J. Werner, P.J. Knowles, 1993

 NUMBER OF ELECTRONS:       6+    4-    SPACE SYMMETRY=1    SPIN SYMMETRY: Triplet 
 CONVERGENCE THRESHOLDS:    1.00E-05 (Density)    1.00E-06 (Energy)
 MAX. NUMBER OF ITERATIONS:       60
 INTERPOLATION TYPE:            DIIS
 INTERPOLATION STEPS:              2 (START)      1 (STEP)
 LEVEL SHIFTS:                 -0.20 (ALPHA)  -0.20 (BETA) 



 Use fine grid record 1800.2 for energy threshold  1.0D-06
 Orbital guess generated from atomic densities. Full valence occupancy:    5

 Molecular orbital dump at record        2200.2

 Initial alpha occupation   6
 Initial beta  occupation   4

 ITERATION    DDIFF          GRAD             ENERGY        2-EL.EN.            DIPOLE MOMENTS         DIIS
    1      0.000D+00      0.000D+00       -75.08560541     81.623046    0.00000    0.00000   -1.17286    0
    2      0.559D-01      0.343D-01       -75.13628570     79.825884    0.00000   -0.00000   -0.44588    1
    3      0.166D-01      0.129D-01       -75.14444860     79.296774    0.00000   -0.00000   -0.19589    2
    4      0.147D-01      0.499D-02       -75.14709577     79.146484    0.00000   -0.00000   -0.09790    3
    5      0.504D-02      0.158D-02       -75.14732310     79.136677    0.00000   -0.00000   -0.08888    4
    6      0.315D-02      0.675D-03       -75.14738408     79.107851   -0.00000   -0.00000   -0.07110    5
    7      0.507D-03      0.165D-03       -75.14738681     79.105697   -0.00000    0.00000   -0.06901    6
    8      0.941D-04      0.321D-04       -75.14738692     79.105811   -0.00000    0.00000   -0.06901    6
    9      0.699D-04      0.306D-04       -75.14738701     79.105784   -0.00000    0.00000   -0.06901    5
   10      0.166D-03      0.305D-04       -75.14738722     79.105779    0.00000    0.00000   -0.06902    5
   11      0.467D-02      0.304D-04       -75.14739290     79.105776   -0.00000   -0.00000   -0.06905    4
   12      0.322D-01      0.276D-04       -75.14741611     79.105294    0.00000   -0.00000   -0.06883    5
   13      0.379D-02      0.979D-05       -75.14741684     79.105446    0.00000   -0.00000   -0.06886    5
   14      0.376D-02      0.379D-05       -75.14741709     79.105478    0.00000   -0.00000   -0.06887    6
   15      0.164D-03      0.792D-06       -75.14741709     79.105509    0.00000   -0.00000   -0.06888    7
   16      0.183D-04      0.277D-06       -75.14741709     79.105498    0.00000   -0.00000   -0.06888    8
   17      0.178D-05      0.416D-07       -75.14741709     79.105497    0.00000   -0.00000   -0.06888    9
   18      0.609D-06      0.331D-08       -75.14741709     79.105497    0.00000   -0.00000   -0.06888    6

 Dispersion correction
 - - - - - - - - - - - 
  _________________________________
                                   
 |         DFTD3 V1.3 Rev 1        |
 | S.Grimme, University Muenster   |
 | Fri Jul  2 12:48:21 CEST 2010   |
  _________________________________

 Please cite DFT-D3 work done with this code as:
 S. Grimme, J. Antony, S. Ehrlich and H. Krieg,
 J. Chem. Phys, 132 (2010), 154104.
 For DFT-D2 the reference is
 S. Grimme, J. Comput. Chem., 27 (2006), 1787-1799

 C6 coefficients used:
                    2  C6 for element                     1
 Z=  1 CN=   0.912     C6(AA)=    3.03
 Z=  1 CN=   0.000     C6(AA)=    7.59
                    3  C6 for element                     8
 Z=  8 CN=   0.000     C6(AA)=   15.51
 Z=  8 CN=   0.993     C6(AA)=   12.82
 Z=  8 CN=   1.989     C6(AA)=   10.37

 #           XYZ [au]               R0(AA) [Ang.]   CN       C6(AA)     C8(AA)   C10(AA) [au]
  1   0.00000   0.00000  -1.62571   h   1.091  1.003         3.1        37.3       553.0
  2   0.00000   0.00000   0.62176   o   1.241  0.741        13.1       264.9      6549.7
  3   0.00000   0.00000  -3.34842   h   1.091  0.266         6.5        78.5      1162.4

 molecular C6(AA) [au] =        61.34

           DFT-D V3
 DF pbe                                               
 parameters
 s6       :    1.0000
 s8       :    0.7220
 rs6      :    1.2170
 alpha6   :   14.0000
 alpha8   :   16.0000
 k1-k3    :   16.0000    1.3333   -4.0000

 Edisp /kcal,au:    -0.0956 -0.00015241

 E6    /kcal :    -0.0090
 E8    /kcal :    -0.0866
 % E8        : 90.55
 normal termination of dftd3

 UKS STATE 1.1 ENERGY+DISP      -75.14756950

 Final alpha occupancy:   6
 Final beta  occupancy:   4

 !UKS STATE 1.1 Energy                -75.147569501201
 Nuclear energy                         6.15505865
 One-electron energy                 -116.04183457
 Two-electron energy                   39.55274834
 Density functional                    -4.81338952     B88=-9.00383260 LYP=-0.31147322
 Virial quotient                       -1.00672392
 !UKS STATE 1.1 Dipole moment           0.00000000    -0.00000000    -0.06887516
 Dipole moment /Debye                   0.00000000    -0.00000000    -0.17505174

 Orbital energies for positive spin:

         1.1          2.1          3.1          4.1          5.1          6.1          7.1
    -19.464119    -1.077532    -0.540226    -0.400172    -0.312220    -0.300106     0.574306

 Orbital energies for negative spin:

         1.1          2.1          3.1          4.1          5.1          6.1          7.1
    -19.432411    -0.904797    -0.419822    -0.254546     0.064727     0.120116     0.656398

 HOMO     -4.1    -0.254546 =      -6.9265eV
 LUMO     -5.1     0.064727 =       1.7613eV
 LUMO-HOMO         0.319272 =       8.6878eV

 EXPECTATION VALUE OF S**2:             2.01885019

 Occupation number threshold for canonical orbitals:  1.999000 (occupied),  0.001000 (virtual)

 Number of pseudo-canonical orbitals per symmetry:    3
 Number of active natural orbitals per symmetry:      4

 Natural orbitals saved to record    2200.2 (Orbital set 3)

 Orbital spaces for UNO-CAS (Min. occupation: 0.020  Max. occupation: 1.980):

 Closed:        4
 Active:        2


 **********************************************************************************************************************************
 DATASETS  * FILE   NREC   LENGTH (MB)   RECORD NAMES
              1      20       30.31       500      610      700      900      950      970     1000      129      960     1100   
                                          VAR    BASINP    GEOM    SYMINP    ZMAT    AOBASIS   BASIS     P2S    ABASIS      S 
                                         1400     1410     1200     1210     1080     1600     1650     1300     1700     1800   
                                           T        V       H0       H01     AOSYM     SMH    MOLCAS    ERIS     OPER     GRID   

              2       5        2.79       700     1000      520     1800     2200   
                                         GEOM     BASIS   MCVARS    GRID      UKS  

 PROGRAMS   *        TOTAL       UKS       INT
 CPU TIMES  *         0.91      0.60      0.18
 REAL TIME  *         3.21 SEC
 DISK USED  *        34.75 MB      
 **********************************************************************************************************************************


 PROGRAM * Intrinsic Basis Bonding Analysis (IBBA)          Author: G. Knizia

 Molecular orbitals read from record     2200.2  Type=UKS/ALPHA (state 1.1)
 Fock matrix read from record            2200.2  Type=UKS/TOTAL (state 1.1)
 Orbital energies read from record       2200.2  Type=UKS/ALPHA (state 1.1)
 Density matrix read from record         2200.2  Type=UKS/CHARGE (state 1.1)

 Number of core orbitals:           1 (   1 )
 Number of closed-shell orbitals:   3 (   3 )
 Number of active  orbitals:        2 (   2 )

 Basis set MINAO-AUTO-PP generated.      Number of basis functions:   7 

 Polarized AO type:                A = (O Ot + (1-O)(1-Ot)) P12
 Orthogonalization method:         Symmetric (Loewdin)
 Localization functional:          L = sum[A,i] <i|n_A|i>^4 -> max

 Localization group 1:   4 orbitals, occupancy  2.000
 Iterative localization: IB/PM,    4 iter; Final gradient 0.40E-10

 Bond order analysis:       [THRPRINT= 0.020]

   CEN ATOM   CEN ATOM     WIBERG.BO      RENORM.BO
     1   H  -   2   O       0.643830       1.000000
     1   H  -   3   H       0.273023       0.826774

     2   O  -   1   H       0.643830       1.000000
     2   O  -   3   H       0.439715       1.000000

     3   H  -   2   O       0.439715       1.000000
     3   H  -   1   H       0.273023       0.826774


 Valency analysis:

   CEN ATOM   TOT.VALENCE
     1   H       0.916852
     2   O       1.083545
     3   H       0.712738
 Localization group 2:   2 orbitals, occupancy  1.000
 Iterative localization: IB/PM,    1 iter; Final gradient 0.23E-12

 Bond order analysis:       [THRPRINT= 0.020]

   CEN ATOM   CEN ATOM     WIBERG.BO      RENORM.BO
     1   H  -   3   H       0.035540       0.500000
     1   H  -   2   O       0.033868       0.500000

     2   O  -   3   H       0.464378       0.500000
     2   O  -   1   H       0.033868       0.500000

     3   H  -   2   O       0.464378       0.500000
     3   H  -   1   H       0.035540       0.500000


 Valency analysis:

   CEN ATOM   TOT.VALENCE
     1   H       0.069408
     2   O       0.498246
     3   H       0.499918

 Total charge composition:

   CEN ATOM         s          p       ELECTRONS ->P.CHARGE
     1   H       0.74765                 0.74765    0.25235
     2   O       3.91839    4.37632      8.29471   -0.29471
     3   H       0.95764                 0.95764    0.04236

 Total charge composition, AO contributions:

   CEN ATOM SHL      SPHERICAL COMPONENTS
     1   H  1s       0.74765

     2   O  1s       1.99925
     2   O  2s       1.91914
     2   O  2p       1.87498    1.12502    1.37632

     3   H  1s       0.95764

 Active orbital charges:

   CEN ATOM         s          p       ELECTRONS ->SPIN.DEN
     1   H       0.03600                 0.03600    0.03600
     2   O       0.00264    1.46774      1.47039    1.47039
     3   H       0.49361                 0.49361    0.49361

 Active orbital charges, AO contributions:

   CEN ATOM SHL      SPHERICAL COMPONENTS
     1   H  1s       0.03600

     2   O  1s       0.00003
     2   O  2s       0.00261
     2   O  2p       0.12502    0.87498    0.46774

     3   H  1s       0.49361

 Summary of localized orbital composition:   [THRPRINT= 0.020]

   ORB  GRP  ORB.ENERGY      CENTERS/CHARGES
     1   1   -19.278090      O  2   2.000
     2   1    -1.062092      O  2   1.949   H  3   0.032
     3   1    -0.557764      O  2   0.875   H  1   0.693   H  3   0.432
     4   1    -0.140028      O  2   2.000
     5   2    -0.283383      O  2   1.000
     6   2    -0.127423      H  3   0.494   O  2   0.470   H  1   0.036

 Localized orbitals saved to record      2200.2  (orbital set 4)


 **********************************************************************************************************************************
 DATASETS  * FILE   NREC   LENGTH (MB)   RECORD NAMES
              1      20       30.31       500      610      700      900      950      970     1000      129      960     1100   
                                          VAR    BASINP    GEOM    SYMINP    ZMAT    AOBASIS   BASIS     P2S    ABASIS      S 
                                         1400     1410     1200     1210     1080     1600     1650     1300     1700     1800   
                                           T        V       H0       H01     AOSYM     SMH    MOLCAS    ERIS     OPER     GRID   

              2       5        2.79       700     1000      520     1800     2200   
                                         GEOM     BASIS   MCVARS    GRID      UKS  

 PROGRAMS   *        TOTAL      IBBA       UKS       INT
 CPU TIMES  *         0.93      0.02      0.60      0.18
 REAL TIME  *         3.23 SEC
 DISK USED  *        34.75 MB      
 **********************************************************************************************************************************

 IBBA/STO-3G energy=      0.000000000000

        UKS-SCF 
    -75.14756950
 **********************************************************************************************************************************
 Molpro calculation terminated
