
 Primary working directories    : /local
 Secondary working directories  : /local
 Wavefunction directory         : /local/
 Main file repository           : /local/

 SHA1      : b4a5b34a9e711420743f49e6833241d17c61fb3c
 NAME      : 2099.9.b4a5b34
 ARCHNAME  : linux/x86_64_openmp
 FC        : /cm/shared/languages/GCC-6.1/bin/gfortran
 BLASLIB   : -lblas
 id        : simonbennie

 Nodes     nprocs
 node32-047    1

 Using customized tuning parameters: mindgm=1; mindgv=20; mindgc=4; mindgr=1; noblas=0; minvec=7
 default implementation of scratch files=df  

 memory,500,m
 geomtyp=xyz
 nosym
 noorient
 geometry={
 H          1.26210       -0.22010        0.00000
 S          0.00000        0.22315        0.00000
 H         -0.50058       -1.11545        0.00000
 H         -0.76152       -2.23491        0.00000
 }
 basis={ default,svp }
 {uks,PBE0,direct;disp;wf,19,1,1}
 {ibba,bonds=1}

 Variables initialized (895), CPU time= 0.00 sec
 Commands  initialized (725), CPU time= 0.02 sec, 591 directives.
 Default parameters read. Elapsed time= 0.09 sec

 Checking input...
 Passed
1


                                         ***  PROGRAM SYSTEM MOLPRO  ***
                                       Copyright, TTI GmbH Stuttgart, 2015
                                    Version 2099.9 linked May 26 2017 16:03:21


 **********************************************************************************************************************************
 LABEL *                                                                                 
  64 bit serial version                                                                  DATE: 16-Mar-18          TIME: 21:56:13  
 **********************************************************************************************************************************

 SHA1:             b4a5b34a9e711420743f49e6833241d17c61fb3c
 **********************************************************************************************************************************
 SETTING GEOMTYP        =    XYZ

 Variable memory set to  500000000 words,  buffer space 

 ZSYMEL=NOSYM

 SETTING BASIS          =    SVP


 Recomputing integrals since basis changed


 Using spherical harmonics

 Library entry H      S def2-SVP             selected for orbital group  1
 Library entry H      P def2-SVP             selected for orbital group  1
 Library entry S      S def2-SVP             selected for orbital group  2
 Library entry S      P def2-SVP             selected for orbital group  2
 Library entry S      D def2-SVP             selected for orbital group  2


 PROGRAM * SEWARD (Integral evaluation for generally contracted gaussian basis sets)     Author: Roland Lindh, 1990

 Geometry written to block  1 of record 700


 Point group  C1  



 ATOMIC COORDINATES

 NR  ATOM    CHARGE       X              Y              Z

   1  H       1.00    2.385023342   -0.415928720    0.000000000
   2  S      16.00    0.000000000    0.421692385    0.000000000
   3  H       1.00   -0.945959103   -2.107895006    0.000000000
   4  H       1.00   -1.439064238   -4.223367813    0.000000000

 Bond lengths in Bohr (Angstrom)

 1-2  2.527834143  2-3  2.700676025
     ( 1.337672222)     ( 1.429136206)

 Bond angles

  1-2-3   91.15238463

 NUCLEAR CHARGE:                   19
 NUMBER OF PRIMITIVE AOS:          58
 NUMBER OF SYMMETRY AOS:           57
 NUMBER OF CONTRACTIONS:           33   (  33A   )
 NUMBER OF CORE ORBITALS:           5   (   5A   )
 NUMBER OF VALENCE ORBITALS:        7   (   7A   )


 NUCLEAR REPULSION ENERGY   16.45755001

 EXTRA SYMMETRY OF AOS IN SYMMETRY 1:   1 1 1 1 2 1 1 1 1 1   1 2 1 1 2 1 1 2 1 1   2 1 2 1 1 1 1 2 1 1   1 1 2

 Eigenvalues of metric

         1 0.182E-01 0.633E-01 0.156E+00 0.204E+00 0.209E+00 0.267E+00 0.295E+00 0.317E+00


 Contracted 2-electron integrals neglected if value below      1.0D-11
 AO integral compression algorithm  1   Integral accuracy      1.0D-11

     0.786 MB (compressed) written to integral file ( 33.5%)


 NUMBER OF SORTED TWO-ELECTRON INTEGRALS:     157641.     BUFFER LENGTH:  32768
 NUMBER OF SEGMENTS:   1  SEGMENT LENGTH:     157641      RECORD LENGTH: 524288

 Memory used in sort:       0.71 MW

 SORT1 READ      210135. AND WROTE       79082. INTEGRALS IN      1 RECORDS. CPU TIME:     0.00 SEC, REAL TIME:     0.00 SEC
 SORT2 READ       79082. AND WROTE      157641. INTEGRALS IN      3 RECORDS. CPU TIME:     0.01 SEC, REAL TIME:     0.02 SEC

 FILE SIZES:   FILE 1:    30.8 MBYTE,  FILE 4:     4.2 MBYTE,   TOTAL:     35.0 MBYTE

 OPERATOR DM      FOR CENTER  0  COORDINATES:    0.000000    0.000000    0.000000


 **********************************************************************************************************************************
 DATASETS  * FILE   NREC   LENGTH (MB)   RECORD NAMES
              1      19       30.44       500      610      700      900      950      970     1000      129      960     1100   
                                          VAR    BASINP    GEOM    SYMINP    ZMAT    AOBASIS   BASIS     P2S    ABASIS      S 
                                         1400     1410     1200     1210     1080     1600     1650     1300     1700   
                                           T        V       H0       H01     AOSYM     SMH    MOLCAS    ERIS     OPER   

 PROGRAMS   *        TOTAL       INT
 CPU TIMES  *         0.38      0.24
 REAL TIME  *         0.67 SEC
 DISK USED  *        35.37 MB      
 **********************************************************************************************************************************

 Density functional group PBE0=PBEX+PBEC
 Functional: PBEX(Automatically generated (new) PBEX)                          Gradient terms: 1
 Functional: PBEC(Automatically generated (new) PBEC)                          Gradient terms: 1

 dispersion correction activated
 Density functional: PBE0    
 functional not in list, set to default 


 Exact exchange will be calculated, factor:  0.2500

 Functional: PBEX                      Factor:  0.7500
 Functional: PBEC                      Factor:  1.0000

 Use grid at  1800.2


 Exact exchange will be calculated, factor:  0.2500

 Functional: PBEX                      Factor:  0.7500
 Functional: PBEC                      Factor:  1.0000

 Generated new metagrid on record  1800.2 with target accuracy 1.0D-06 and 14472 points in CPU time    0.3
 Computed new grid on record 1800.1 in CPU time    0.3
   30098 words reserved for DFT integration

 PROGRAM * UKS-SCF (Unrestricted Kohn-Sham)     Authors: W. Meyer, H.-J. Werner, P.J. Knowles, 1993

 NUMBER OF ELECTRONS:      10+    9-    SPACE SYMMETRY=1    SPIN SYMMETRY: Doublet 
 CONVERGENCE THRESHOLDS:    1.00E-05 (Density)    1.00E-06 (Energy)
 MAX. NUMBER OF ITERATIONS:       60
 INTERPOLATION TYPE:            DIIS
 INTERPOLATION STEPS:              2 (START)      1 (STEP)
 LEVEL SHIFTS:                 -0.20 (ALPHA)  -0.20 (BETA) 



 Use fine grid record 1800.2 for energy threshold  1.0D-06
 Orbital guess generated from atomic densities. Full valence occupancy:   10

 Molecular orbital dump at record        2200.2

 Initial alpha occupation  10
 Initial beta  occupation   9

 ITERATION    DDIFF          GRAD             ENERGY        2-EL.EN.            DIPOLE MOMENTS         DIIS
    1      0.000D+00      0.000D+00      -399.60081743    379.123166    0.32235   -0.91213    0.00000    0
    2      0.117D-01      0.451D-02      -399.61658699    375.860255    0.25213   -0.46687   -0.00000    1
    3      0.276D-02      0.150D-02      -399.61807470    376.350121    0.26141   -0.45563    0.00000    2
    4      0.193D-02      0.662D-03      -399.61880224    376.341753    0.25836   -0.41571   -0.00000    3
    5      0.112D-02      0.253D-03      -399.61897725    376.333855    0.25494   -0.40579   -0.00000    4
    6      0.477D-03      0.111D-03      -399.61901015    376.345701    0.25201   -0.41735    0.00000    5
    7      0.182D-03      0.332D-04      -399.61901471    376.346823    0.25076   -0.42151   -0.00000    6
    8      0.551D-04      0.118D-04      -399.61901522    376.347056    0.25008   -0.42305    0.00000    7
    9      0.159D-04      0.462D-05      -399.61901527    376.347819    0.25010   -0.42315   -0.00000    7
   10      0.536D-05      0.121D-05      -399.61901527    376.347558    0.25004   -0.42318   -0.00000    8
   11      0.940D-06      0.442D-06      -399.61901527    376.347642    0.25006   -0.42317    0.00000    7

 Dispersion correction
 - - - - - - - - - - - 
  _________________________________
                                   
 |         DFTD3 V1.3 Rev 1        |
 | S.Grimme, University Muenster   |
 | Fri Jul  2 12:48:21 CEST 2010   |
  _________________________________

 Please cite DFT-D3 work done with this code as:
 S. Grimme, J. Antony, S. Ehrlich and H. Krieg,
 J. Chem. Phys, 132 (2010), 154104.
 For DFT-D2 the reference is
 S. Grimme, J. Comput. Chem., 27 (2006), 1787-1799

 C6 coefficients used:
                    2  C6 for element                     1
 Z=  1 CN=   0.912     C6(AA)=    3.03
 Z=  1 CN=   0.000     C6(AA)=    7.59
                    3  C6 for element                    16
 Z= 16 CN=   0.000     C6(AA)=  134.01
 Z= 16 CN=   0.995     C6(AA)=  131.00
 Z= 16 CN=   1.990     C6(AA)=  125.81

 #           XYZ [au]               R0(AA) [Ang.]   CN       C6(AA)     C8(AA)   C10(AA) [au]
  1   2.38502  -0.41593   0.00000   h   1.091  0.995         3.1        37.4       553.6
  2   0.00000   0.42169   0.00000   s   1.655  1.985       125.9      6168.5    370198.5
  3  -0.94596  -2.10790   0.00000   h   1.091  0.998         3.1        37.4       553.4
  4  -1.43906  -4.22337   0.00000   h   1.091  0.023         7.4        89.0      1317.5

 molecular C6(AA) [au] =       303.95

           DFT-D V3
 DF pbe                                               
 parameters
 s6       :    1.0000
 s8       :    0.7220
 rs6      :    1.2170
 alpha6   :   14.0000
 alpha8   :   16.0000
 k1-k3    :   16.0000    1.3333   -4.0000

 Edisp /kcal,au:    -0.2208 -0.00035190

 E6    /kcal :    -0.0517
 E8    /kcal :    -0.1691
 % E8        : 76.57
 normal termination of dftd3

 UKS STATE 1.1 ENERGY+DISP     -399.61936717

 Final alpha occupancy:  10
 Final beta  occupancy:   9

 !UKS STATE 1.1 Energy               -399.619367172634
 Nuclear energy                        16.45755001
 One-electron energy                 -584.17537309
 Two-electron energy                  188.17382085
 Density functional                   -20.07501304     PBEX=-25.85187226 PBEC= -0.68610885
 Virial quotient                       -1.00210926
 !UKS STATE 1.1 Dipole moment           0.25005578    -0.42316565     0.00000000
 Dipole moment /Debye                   0.63553678    -1.07550935     0.00000000

 Orbital energies for positive spin:

         1.1          2.1          3.1          4.1          5.1          6.1          7.1          8.1          9.1         10.1
    -89.008650    -8.009341    -5.953679    -5.949018    -5.940492    -0.762541    -0.492183    -0.401039    -0.293056    -0.270104

        11.1         12.1
      0.044168     0.110960

 Orbital energies for negative spin:

         1.1          2.1          3.1          4.1          5.1          6.1          7.1          8.1          9.1         10.1
    -89.006409    -8.007070    -5.948529    -5.945048    -5.939195    -0.746031    -0.459393    -0.381521    -0.264826    -0.121216

        11.1         12.1
      0.049442     0.149055

 HOMO     -9.1    -0.264826 =      -7.2063eV
 LUMO    -10.1    -0.121216 =      -3.2985eV
 LUMO-HOMO         0.143610 =       3.9078eV

 EXPECTATION VALUE OF S**2:             0.75894029

 Occupation number threshold for canonical orbitals:  1.999000 (occupied),  0.001000 (virtual)

 Number of pseudo-canonical orbitals per symmetry:    8
 Number of active natural orbitals per symmetry:      3

 Natural orbitals saved to record    2200.2 (Orbital set 3)

 Orbital spaces for UNO-CAS (Min. occupation: 0.020  Max. occupation: 1.980):

 Closed:        9
 Active:        1


 **********************************************************************************************************************************
 DATASETS  * FILE   NREC   LENGTH (MB)   RECORD NAMES
              1      20       30.91       500      610      700      900      950      970     1000      129      960     1100   
                                          VAR    BASINP    GEOM    SYMINP    ZMAT    AOBASIS   BASIS     P2S    ABASIS      S 
                                         1400     1410     1200     1210     1080     1600     1650     1300     1700     1800   
                                           T        V       H0       H01     AOSYM     SMH    MOLCAS    ERIS     OPER     GRID   

              2       5        2.85       700     1000      520     1800     2200   
                                         GEOM     BASIS   MCVARS    GRID      UKS  

 PROGRAMS   *        TOTAL       UKS       INT
 CPU TIMES  *         1.85      1.47      0.24
 REAL TIME  *         2.21 SEC
 DISK USED  *        35.37 MB      
 **********************************************************************************************************************************


 PROGRAM * Intrinsic Basis Bonding Analysis (IBBA)          Author: G. Knizia

 Molecular orbitals read from record     2200.2  Type=UKS/ALPHA (state 1.1)
 Fock matrix read from record            2200.2  Type=UKS/TOTAL (state 1.1)
 Orbital energies read from record       2200.2  Type=UKS/ALPHA (state 1.1)
 Density matrix read from record         2200.2  Type=UKS/CHARGE (state 1.1)

 Number of core orbitals:           5 (   5 )
 Number of closed-shell orbitals:   4 (   4 )
 Number of active  orbitals:        1 (   1 )

 Basis set MINAO-AUTO-PP generated.      Number of basis functions:   12 

 Polarized AO type:                A = (O Ot + (1-O)(1-Ot)) P12
 Orthogonalization method:         Symmetric (Loewdin)
 Localization functional:          L = sum[A,i] <i|n_A|i>^4 -> max

 Localization group 1:   9 orbitals, occupancy  2.000
 Iterative localization: IB/PM,    7 iter; Final gradient 0.79E-09

 Bond order analysis:       [THRPRINT= 0.020]

   CEN ATOM   CEN ATOM     WIBERG.BO      RENORM.BO
     1   H  -   2   S       0.988649       0.999689

     2   S  -   1   H       0.988649       0.999689
     2   S  -   3   H       0.663197       0.532781
     2   S  -   4   H       0.173475       0.072373

     3   H  -   2   S       0.663197       0.532781
     3   H  -   4   H       0.323591       0.213532

     4   H  -   3   H       0.323591       0.213532
     4   H  -   2   S       0.173475       0.072373


 Valency analysis:

   CEN ATOM   TOT.VALENCE
     1   H       0.989035
     2   S       1.825321
     3   H       0.987151
     4   H       0.497090
 Localization group 2:   1 orbitals, occupancy  1.000
 Iterative localization: IB/PM,    1 iter; Final gradient 0.00E+00

 Bond order analysis:       [THRPRINT= 0.020]

   CEN ATOM   CEN ATOM     WIBERG.BO      RENORM.BO





 Valency analysis:

   CEN ATOM   TOT.VALENCE
     1   H       0.000000
     2   S      -0.000000
     3   H       0.000000
     4   H       0.000000

 Total charge composition:

   CEN ATOM         s          p       ELECTRONS ->P.CHARGE
     1   H       0.89529                 0.89529    0.10471
     2   S       5.72936    9.77955     15.50891    0.49109
     3   H       0.88664                 0.88664    0.11336
     4   H       1.70916                 1.70916   -0.70916

 Total charge composition, AO contributions:

   CEN ATOM SHL      SPHERICAL COMPONENTS
     1   H  1s       0.89529

     2   S  1s       1.99991
     2   S  2s       1.99468
     2   S  3s       1.73477
     2   S  2p       1.99948    1.99960    1.99999
     2   S  3p       1.18894    1.59153    1.00001

     3   H  1s       0.88664

     4   H  1s       1.70916

 Active orbital charges:

   CEN ATOM         s          p       ELECTRONS ->SPIN.DEN
     1   H       0.00000                 0.00000    0.00000
     2   S       0.00000    1.00000      1.00000    1.00000
     3   H       0.00000                 0.00000    0.00000
     4   H       0.00000                 0.00000    0.00000

 Active orbital charges, AO contributions:

   CEN ATOM SHL      SPHERICAL COMPONENTS
     1   H  1s       0.00000

     2   S  1s       0.00000
     2   S  2s       0.00000
     2   S  3s       0.00000
     2   S  2p       0.00000    0.00000    0.00001
     2   S  3p       0.00000    0.00000    0.99999

     3   H  1s       0.00000

     4   H  1s       0.00000

 Summary of localized orbital composition:   [THRPRINT= 0.020]

   ORB  GRP  ORB.ENERGY      CENTERS/CHARGES
     1   1   -87.827093      S  2   2.000
     2   1    -8.631878      S  2   2.000
     3   1    -6.170629      S  2   2.000
     4   1    -5.963708      S  2   2.000
     5   1    -5.939840      S  2   2.000
     6   1    -0.715391      S  2   2.000
     7   1    -0.588640      S  2   1.104   H  1   0.895
     8   1    -0.559846      S  2   1.348   H  3   0.644
     9   1    -0.276357      H  4   1.701   H  3   0.242   S  2   0.057
    10   2    -0.267457      S  2   1.000

 Localized orbitals saved to record      2200.2  (orbital set 4)


 **********************************************************************************************************************************
 DATASETS  * FILE   NREC   LENGTH (MB)   RECORD NAMES
              1      20       30.91       500      610      700      900      950      970     1000      129      960     1100   
                                          VAR    BASINP    GEOM    SYMINP    ZMAT    AOBASIS   BASIS     P2S    ABASIS      S 
                                         1400     1410     1200     1210     1080     1600     1650     1300     1700     1800   
                                           T        V       H0       H01     AOSYM     SMH    MOLCAS    ERIS     OPER     GRID   

              2       5        2.86       700     1000      520     1800     2200   
                                         GEOM     BASIS   MCVARS    GRID      UKS  

 PROGRAMS   *        TOTAL      IBBA       UKS       INT
 CPU TIMES  *         1.87      0.02      1.47      0.24
 REAL TIME  *         2.24 SEC
 DISK USED  *        35.37 MB      
 **********************************************************************************************************************************

 IBBA/SVP energy=      0.000000000000

        UKS-SCF 
   -399.61936717
 **********************************************************************************************************************************
 Molpro calculation terminated
