
 Primary working directories    : /local
 Secondary working directories  : /local
 Wavefunction directory         : /local/
 Main file repository           : /local/

 SHA1      : b4a5b34a9e711420743f49e6833241d17c61fb3c
 NAME      : 2099.9.b4a5b34
 ARCHNAME  : linux/x86_64_openmp
 FC        : /cm/shared/languages/GCC-6.1/bin/gfortran
 BLASLIB   : -lblas
 id        : simonbennie

 Nodes     nprocs
 node35-048    1

 Using customized tuning parameters: mindgm=1; mindgv=20; mindgc=4; mindgr=1; noblas=0; minvec=7
 default implementation of scratch files=df  

 memory,500,m
 geomtyp=xyz
 nosym
 noorient
 geometry={
 C         -1.19958       -0.01113       -0.00003
 N          1.40071        0.12986        0.00002
 H         -1.42666       -0.51293        0.93306
 H         -1.41991       -0.59138       -0.88814
 H         -1.52024        1.02281       -0.04578
 H          0.18893        0.12690        0.00100
 H          1.57034       -0.88767       -0.00005
 }
 basis={ default,tzvp }
 {ks,D,direct;wf,18,1,2}
 {ibba,bonds=1}

 Variables initialized (895), CPU time= 0.00 sec
 Commands  initialized (725), CPU time= 0.01 sec, 591 directives.
 Default parameters read. Elapsed time= 0.17 sec

 Checking input...
 Passed
1


                                         ***  PROGRAM SYSTEM MOLPRO  ***
                                       Copyright, TTI GmbH Stuttgart, 2015
                                    Version 2099.9 linked May 26 2017 16:03:21


 **********************************************************************************************************************************
 LABEL *                                                                                 
  64 bit serial version                                                                  DATE: 30-Jun-17          TIME: 10:27:11  
 **********************************************************************************************************************************

 SHA1:             b4a5b34a9e711420743f49e6833241d17c61fb3c
 **********************************************************************************************************************************
 SETTING GEOMTYP        =    XYZ

 Variable memory set to  500000000 words,  buffer space 

 ZSYMEL=NOSYM

 SETTING BASIS          =    TZVP


 Recomputing integrals since basis changed


 Using spherical harmonics

 Library entry C      S def2-TZVP            selected for orbital group  1
 Library entry C      P def2-TZVP            selected for orbital group  1
 Library entry C      D def2-TZVP            selected for orbital group  1
 Library entry C      F def2-TZVP            selected for orbital group  1
 Library entry N      S def2-TZVP            selected for orbital group  2
 Library entry N      P def2-TZVP            selected for orbital group  2
 Library entry N      D def2-TZVP            selected for orbital group  2
 Library entry N      F def2-TZVP            selected for orbital group  2
 Library entry H      S def2-TZVP            selected for orbital group  3
 Library entry H      P def2-TZVP            selected for orbital group  3


 PROGRAM * SEWARD (Integral evaluation for generally contracted gaussian basis sets)     Author: Roland Lindh, 1990

 Geometry written to block  1 of record 700


 Point group  C1  



 ATOMIC COORDINATES

 NR  ATOM    CHARGE       X              Y              Z

   1  C       6.00   -2.266877665   -0.021032652   -0.000056692
   2  N       7.00    2.646958280    0.245399835    0.000037795
   3  H       1.00   -2.695996673   -0.969297221    1.763227858
   4  H       1.00   -2.683241022   -1.117546236   -1.678341360
   5  H       1.00   -2.872837244    1.932830777   -0.086511662
   6  H       1.00    0.357025957    0.239806245    0.001889726
   7  H       1.00    2.967512522   -1.677453189   -0.000094486

 Bond lengths in Bohr (Angstrom)

 1-3  2.047564705  1-4  2.047520430  1-5  2.047496953  1-6  2.636837297  2-6  2.289939904
     ( 1.083524580)     ( 1.083501151)     ( 1.083488727)     ( 1.395354207)     ( 1.211784011)

 2-7  1.949389338
     ( 1.031572413)

 Bond angles

  1-6-2  174.46219800   3-1-4  114.53404293   3-1-5  114.59980605   3-1-6  104.69797988

  4-1-5  114.59807310   4-1-6  104.82888405   5-1-6  101.54476811   6-2-7   99.32464965

 NUCLEAR CHARGE:                   18
 NUMBER OF PRIMITIVE AOS:         142
 NUMBER OF SYMMETRY AOS:          132
 NUMBER OF CONTRACTIONS:           92   (  92A   )
 NUMBER OF CORE ORBITALS:           2   (   2A   )
 NUMBER OF VALENCE ORBITALS:       13   (  13A   )


 NUCLEAR REPULSION ENERGY   33.45955816


 Eigenvalues of metric

         1 0.718E-03 0.264E-02 0.699E-02 0.713E-02 0.744E-02 0.111E-01 0.126E-01 0.203E-01


 Contracted 2-electron integrals neglected if value below      1.0D-11
 AO integral compression algorithm  1   Integral accuracy      1.0D-11

     35.652 MB (compressed) written to integral file ( 41.5%)


 NUMBER OF SORTED TWO-ELECTRON INTEGRALS:    9152781.     BUFFER LENGTH:  32768
 NUMBER OF SEGMENTS:   1  SEGMENT LENGTH:    9152781      RECORD LENGTH: 524288

 Memory used in sort:       9.71 MW

 SORT1 READ    10708953. AND WROTE     8178735. INTEGRALS IN     24 RECORDS. CPU TIME:     0.12 SEC, REAL TIME:     0.28 SEC
 SORT2 READ     8178735. AND WROTE     9152781. INTEGRALS IN    136 RECORDS. CPU TIME:     0.27 SEC, REAL TIME:     0.39 SEC

 FILE SIZES:   FILE 1:    66.0 MBYTE,  FILE 4:   100.7 MBYTE,   TOTAL:    166.7 MBYTE

 OPERATOR DM      FOR CENTER  0  COORDINATES:    0.000000    0.000000    0.000000


 **********************************************************************************************************************************
 DATASETS  * FILE   NREC   LENGTH (MB)   RECORD NAMES
              1      19       60.13       500      610      700      900      950      970     1000      129      960     1100   
                                          VAR    BASINP    GEOM    SYMINP    ZMAT    AOBASIS   BASIS     P2S    ABASIS      S 
                                         1400     1410     1200     1210     1080     1600     1650     1300     1700   
                                           T        V       H0       H01     AOSYM     SMH    MOLCAS    ERIS     OPER   

 PROGRAMS   *        TOTAL       INT
 CPU TIMES  *         1.38      1.23
 REAL TIME  *         2.94 SEC
 DISK USED  *       167.12 MB      
 **********************************************************************************************************************************

 Density functional group D=DIRAC
 Functional: DIRAC(Automatically generated (new) DIRAC)                        Gradient terms: 0
 Use grid at  1800.2

 Functional: DIRAC                     Factor:  1.0000

 Generated new metagrid on record  1800.2 with target accuracy 1.0D-06 and 23482 points in CPU time    0.5
 Computed new grid on record 1800.1 in CPU time    0.5
   42030 words reserved for DFT integration

 PROGRAM * RKS-SCF (Restricted open shell Kohn-Sham)     Authors: W. Meyer, H.-J. Werner, P.J. Knowles, 1993

 NUMBER OF ELECTRONS:      10+    8-    SPACE SYMMETRY=1    SPIN SYMMETRY: Triplet 
 CONVERGENCE THRESHOLDS:    1.00E-05 (Density)    1.00E-06 (Energy)
 MAX. NUMBER OF ITERATIONS:       60
 INTERPOLATION TYPE:            DIIS
 INTERPOLATION STEPS:              2 (START)      1 (STEP)
 LEVEL SHIFTS:                 -0.60 (CLOSED) -0.30 (OPEN) 



 Use fine grid record 1800.2 for energy threshold  1.0D-06
 Orbital guess generated from atomic densities. Full valence occupancy:    9

 Molecular orbital dump at record        2100.2

 Initial alpha occupancy:  10
 Initial beta  occupancy:   8
 Wave function symmetry:    1

 ITERATION    DDIFF          GRAD             ENERGY        2-EL.EN.            DIPOLE MOMENTS         DIIS   ORB.
    1      0.000D+00      0.000D+00       -93.67117708    161.870029    0.13090   -0.76117    0.00020    0    start
    2      0.000D+00      0.103D-01       -93.74647462    156.449797   -0.70006   -0.59839    0.00039    1    diag,B
    3      0.635D-02      0.554D-02       -93.77156168    157.326736   -0.28210   -0.55709    0.00018    2    diag,B
    4      0.245D-02      0.104D-02       -93.77256220    157.567167   -0.36029   -0.56928    0.00021    3    diag,B
    5      0.660D-03      0.388D-03       -93.77280913    157.449173   -0.33060   -0.55224    0.00019    4    diag,B
    6      0.656D-03      0.118D-03       -93.77285428    157.433579   -0.32838   -0.54525    0.00017    5    diag,B
    7      0.470D-03      0.354D-04       -93.77285909    157.427894   -0.32787   -0.54250    0.00017    6    fixocc
    8      0.185D-03      0.117D-04       -93.77285965    157.427710   -0.32842   -0.54164    0.00017    7    diag,B
    9      0.501D-04      0.425D-05       -93.77285974    157.427586   -0.32890   -0.54134    0.00017    8    diag,B
   10      0.185D-04      0.136D-05       -93.77285975    157.427710   -0.32910   -0.54130    0.00017    9    orth
   11      0.637D-05      0.428D-06       -93.77285975    157.427683   -0.32914   -0.54130    0.00017    0    orth

 Final alpha occupancy:  10
 Final beta  occupancy:   8

 !RKS STATE 1.1 Energy                -93.772859747845
 Nuclear energy                        33.45955816
 One-electron energy                 -193.95410658
 Two-electron energy                   78.71384161
 Density functional                   -11.99215293     DIRAC=-11.99215293
 Virial quotient                       -0.99796526
 !RKS STATE 1.1 Dipole moment          -0.32913578    -0.54129531     0.00017006
 Dipole moment /Debye                  -0.83652491    -1.37574533     0.00043222

 Orbital energies:

         1.1          2.1          3.1          4.1          5.1          6.1          7.1          8.1          9.1         10.1
    -13.828396    -9.716492    -0.688437    -0.570654    -0.356450    -0.323538    -0.322326    -0.251910    -0.238342    -0.161199

        11.1         12.1
      0.038518     0.079811

 HOMO     10.1    -0.161199 =      -4.3864eV
 LUMO     11.1     0.038518 =       1.0481eV
 LUMO-HOMO         0.199717 =       5.4346eV


 **********************************************************************************************************************************
 DATASETS  * FILE   NREC   LENGTH (MB)   RECORD NAMES
              1      20       60.89       500      610      700      900      950      970     1000      129      960     1100   
                                          VAR    BASINP    GEOM    SYMINP    ZMAT    AOBASIS   BASIS     P2S    ABASIS      S 
                                         1400     1410     1200     1210     1080     1600     1650     1300     1700     1800   
                                           T        V       H0       H01     AOSYM     SMH    MOLCAS    ERIS     OPER     GRID   

              2       5        3.10       700     1000      520     1800     2100   
                                         GEOM     BASIS   MCVARS    GRID      RKS  

 PROGRAMS   *        TOTAL        KS       INT
 CPU TIMES  *         5.42      4.04      1.23
 REAL TIME  *         9.49 SEC
 DISK USED  *       167.12 MB      
 **********************************************************************************************************************************


 PROGRAM * Intrinsic Basis Bonding Analysis (IBBA)          Author: G. Knizia

 Molecular orbitals read from record     2100.2  Type=RKS/CANONICAL (state 1.1)
 Fock matrix read from record            2100.2  Type=RKS/TOTAL (state 1.1)
 Orbital energies read from record       2100.2  Type=RKS/CANONICAL (state 1.1)
 Density matrix read from record         2100.2  Type=RKS/CHARGE (state 1.1)

 Number of core orbitals:           2 (   2 )
 Number of closed-shell orbitals:   6 (   6 )
 Number of active  orbitals:        2 (   2 )

 Basis set MINAO-AUTO-PP generated.      Number of basis functions:   15 

 Polarized AO type:                A = (O Ot + (1-O)(1-Ot)) P12
 Orthogonalization method:         Symmetric (Loewdin)
 Localization functional:          L = sum[A,i] <i|n_A|i>^4 -> max

 Localization group 1:   8 orbitals, occupancy  2.000
 Iterative localization: IB/PM,    7 iter; Final gradient 0.18E-09

 Bond order analysis:       [THRPRINT= 0.020]

   CEN ATOM   CEN ATOM     WIBERG.BO      RENORM.BO
     1   C  -   4   H       0.960272       0.999630
     1   C  -   3   H       0.959808       0.999656
     1   C  -   5   H       0.956853       0.999675
     1   C  -   2   N       0.501303       2.003618
     1   C  -   6   H       0.343488       0.737644

     2   N  -   7   H       0.936473       0.999948
     2   N  -   6   H       0.605554       0.933232
     2   N  -   1   C       0.501303       2.003618

     3   H  -   1   C       0.959808       0.999656

     4   H  -   1   C       0.960272       0.999630

     5   H  -   1   C       0.956853       0.999675

     6   H  -   2   N       0.605554       0.933232
     6   H  -   1   C       0.343488       0.737644

     7   H  -   2   N       0.936473       0.999948


 Valency analysis:

   CEN ATOM   TOT.VALENCE
     1   C       3.722231
     2   N       2.067928
     3   H       0.971143
     4   H       0.971331
     5   H       0.968893
     6   H       0.955097
     7   H       0.937327
 Localization group 2:   2 orbitals, occupancy  1.000
 Iterative localization: IB/PM,    2 iter; Final gradient 0.19E-10

 Bond order analysis:       [THRPRINT= 0.020]

   CEN ATOM   CEN ATOM     WIBERG.BO      RENORM.BO
     1   C  -   2   N       0.481873       1.000000

     2   N  -   1   C       0.481873       1.000000







 Valency analysis:

   CEN ATOM   TOT.VALENCE
     1   C       0.500445
     2   N       0.501544
     3   H       0.006864
     4   H       0.006585
     5   H       0.007485
     6   H       0.012907
     7   H       0.004881

 Total charge composition:

   CEN ATOM         s          p       ELECTRONS ->P.CHARGE
     1   C       3.11247    3.45939      6.57186   -0.57186
     2   N       3.69167    3.69484      7.38651   -0.38651
     3   H       0.83357                 0.83357    0.16643
     4   H       0.83398                 0.83398    0.16602
     5   H       0.82738                 0.82738    0.17262
     6   H       0.79459                 0.79459    0.20541
     7   H       0.75210                 0.75210    0.24790

 Total charge composition, AO contributions:

   CEN ATOM SHL      SPHERICAL COMPONENTS
     1   C  1s       1.99292
     1   C  2s       1.11955
     1   C  2p       1.06844    1.19753    1.19342

     2   N  1s       1.99746
     2   N  2s       1.69421
     2   N  2p       1.24213    1.45074    1.00197

     3   H  1s       0.83357

     4   H  1s       0.83398

     5   H  1s       0.82738

     6   H  1s       0.79459

     7   H  1s       0.75210

 Active orbital charges:

   CEN ATOM         s          p       ELECTRONS ->SPIN.DEN
     1   C       0.02900    0.48889      0.51789    0.51789
     2   N       0.00252    1.46014      1.46266    1.46266
     3   H       0.00344                 0.00344    0.00344
     4   H       0.00330                 0.00330    0.00330
     5   H       0.00376                 0.00376    0.00376
     6   H       0.00650                 0.00650    0.00650
     7   H       0.00245                 0.00245    0.00245

 Active orbital charges, AO contributions:

   CEN ATOM SHL      SPHERICAL COMPONENTS
     1   C  1s       0.00003
     1   C  2s       0.02898
     1   C  2p       0.48669    0.00167    0.00052

     2   N  1s       0.00003
     2   N  2s       0.00249
     2   N  2p       0.44732    0.01485    0.99798

     3   H  1s       0.00344

     4   H  1s       0.00330

     5   H  1s       0.00376

     6   H  1s       0.00650

     7   H  1s       0.00245

 Summary of localized orbital composition:   [THRPRINT= 0.020]

   ORB  GRP  ORB.ENERGY      CENTERS/CHARGES
     1   1   -13.717749      N  2   2.000
     2   1    -9.611561      C  1   2.000
     3   1    -0.560183      N  2   1.249   H  7   0.750
     4   1    -0.449804      N  2   1.907   C  1   0.057   H  6   0.036
     5   1    -0.436048      C  1   1.161   H  3   0.828
     6   1    -0.436031      C  1   1.161   H  4   0.829
     7   1    -0.435446      C  1   1.166   H  5   0.822
     8   1    -0.411388      N  2   0.754   H  6   0.734   C  1   0.508
     9   2    -0.177118      N  2   0.998
    10   2    -0.127031      C  1   0.517   N  2   0.465

 Localized orbitals saved to record      2100.2  (orbital set 2)


 **********************************************************************************************************************************
 DATASETS  * FILE   NREC   LENGTH (MB)   RECORD NAMES
              1      20       60.89       500      610      700      900      950      970     1000      129      960     1100   
                                          VAR    BASINP    GEOM    SYMINP    ZMAT    AOBASIS   BASIS     P2S    ABASIS      S 
                                         1400     1410     1200     1210     1080     1600     1650     1300     1700     1800   
                                           T        V       H0       H01     AOSYM     SMH    MOLCAS    ERIS     OPER     GRID   

              2       5        3.17       700     1000      520     1800     2100   
                                         GEOM     BASIS   MCVARS    GRID      RKS  

 PROGRAMS   *        TOTAL      IBBA        KS       INT
 CPU TIMES  *         5.45      0.03      4.04      1.23
 REAL TIME  *         9.58 SEC
 DISK USED  *       167.12 MB      
 **********************************************************************************************************************************
 Molecular orbitals read from record     2100.2  Type=RKS/LOCAL(IBO)  
 Occupation numbers read from record     2100.2  Type=RKS/LOCAL(IBO)  
 Orbital energies read from record       2100.2  Type=RKS/LOCAL(IBO)  
 Redundancy group numbers read from rec  2100.2  Type=RKS/LOCAL(IBO)  

 IBBA/TZVP energy=      0.000000000000

        KS-SCF  
    -93.77285975
 **********************************************************************************************************************************
 Molpro calculation terminated
