
 Primary working directories    : /local
 Secondary working directories  : /local
 Wavefunction directory         : /local/
 Main file repository           : /local/

 SHA1      : b4a5b34a9e711420743f49e6833241d17c61fb3c
 NAME      : 2099.9.b4a5b34
 ARCHNAME  : linux/x86_64_openmp
 FC        : /cm/shared/languages/GCC-6.1/bin/gfortran
 BLASLIB   : -lblas
 id        : simonbennie

 Nodes     nprocs
 node33-033    1

 Using customized tuning parameters: mindgm=1; mindgv=20; mindgc=4; mindgr=1; noblas=0; minvec=7
 default implementation of scratch files=df  

 memory,500,m
 geomtyp=xyz
 nosym
 noorient
 geometry={
 C         -1.19958       -0.01113       -0.00003
 N          1.40071        0.12986        0.00002
 H         -1.42666       -0.51293        0.93306
 H         -1.41991       -0.59138       -0.88814
 H         -1.52024        1.02281       -0.04578
 H          0.18893        0.12690        0.00100
 H          1.57034       -0.88767       -0.00005
 }
 basis={ default,avtz }
 {uks,B3LYP5,direct;disp;wf,18,1,2}
 {ibba,bonds=1}

 Variables initialized (895), CPU time= 0.00 sec
 Commands  initialized (725), CPU time= 0.02 sec, 591 directives.
 Default parameters read. Elapsed time= 0.08 sec

 Checking input...
 Passed
1


                                         ***  PROGRAM SYSTEM MOLPRO  ***
                                       Copyright, TTI GmbH Stuttgart, 2015
                                    Version 2099.9 linked May 26 2017 16:03:21


 **********************************************************************************************************************************
 LABEL *                                                                                 
  64 bit serial version                                                                  DATE: 17-Mar-18          TIME: 02:50:16  
 **********************************************************************************************************************************

 SHA1:             b4a5b34a9e711420743f49e6833241d17c61fb3c
 **********************************************************************************************************************************
 SETTING GEOMTYP        =    XYZ

 Variable memory set to  500000000 words,  buffer space 

 ZSYMEL=NOSYM

 SETTING BASIS          =    AVTZ


 Recomputing integrals since basis changed


 Using spherical harmonics

 Library entry C      S aug-cc-pVTZ          selected for orbital group  1
 Library entry C      P aug-cc-pVTZ          selected for orbital group  1
 Library entry C      D aug-cc-pVTZ          selected for orbital group  1
 Library entry C      F aug-cc-pVTZ          selected for orbital group  1
 Library entry N      S aug-cc-pVTZ          selected for orbital group  2
 Library entry N      P aug-cc-pVTZ          selected for orbital group  2
 Library entry N      D aug-cc-pVTZ          selected for orbital group  2
 Library entry N      F aug-cc-pVTZ          selected for orbital group  2
 Library entry H      S aug-cc-pVTZ          selected for orbital group  3
 Library entry H      P aug-cc-pVTZ          selected for orbital group  3
 Library entry H      D aug-cc-pVTZ          selected for orbital group  3


 PROGRAM * SEWARD (Integral evaluation for generally contracted gaussian basis sets)     Author: Roland Lindh, 1990

 Geometry written to block  1 of record 700


 Point group  C1  



 ATOMIC COORDINATES

 NR  ATOM    CHARGE       X              Y              Z

   1  C       6.00   -2.266877665   -0.021032652   -0.000056692
   2  N       7.00    2.646958280    0.245399835    0.000037795
   3  H       1.00   -2.695996673   -0.969297221    1.763227858
   4  H       1.00   -2.683241022   -1.117546236   -1.678341360
   5  H       1.00   -2.872837244    1.932830777   -0.086511662
   6  H       1.00    0.357025957    0.239806245    0.001889726
   7  H       1.00    2.967512522   -1.677453189   -0.000094486

 Bond lengths in Bohr (Angstrom)

 1-3  2.047564705  1-4  2.047520430  1-5  2.047496953  1-6  2.636837297  2-6  2.289939904
     ( 1.083524580)     ( 1.083501151)     ( 1.083488727)     ( 1.395354207)     ( 1.211784011)

 2-7  1.949389338
     ( 1.031572413)

 Bond angles

  1-6-2  174.46219800   3-1-4  114.53404293   3-1-5  114.59980605   3-1-6  104.69797988

  4-1-5  114.59807310   4-1-6  104.82888405   5-1-6  101.54476811   6-2-7   99.32464965

 NUCLEAR CHARGE:                   18
 NUMBER OF PRIMITIVE AOS:         269
 NUMBER OF SYMMETRY AOS:          241
 NUMBER OF CONTRACTIONS:          207   ( 207A   )
 NUMBER OF CORE ORBITALS:           2   (   2A   )
 NUMBER OF VALENCE ORBITALS:       13   (  13A   )


 NUCLEAR REPULSION ENERGY   33.45955816


 Eigenvalues of metric

         1 0.661E-04 0.806E-04 0.972E-04 0.995E-04 0.251E-03 0.347E-03 0.504E-03 0.584E-03


 Contracted 2-electron integrals neglected if value below      1.0D-11
 AO integral compression algorithm  1   Integral accuracy      1.0D-11

     1035.207 MB (compressed) written to integral file ( 48.6%)


 NUMBER OF SORTED TWO-ELECTRON INTEGRALS:  231738156.     BUFFER LENGTH:  32768
 NUMBER OF SEGMENTS:  15  SEGMENT LENGTH:   15999503      RECORD LENGTH: 524288

 Memory used in sort:      16.56 MW

 SORT1 READ   266437413. AND WROTE   226271326. INTEGRALS IN    656 RECORDS. CPU TIME:     3.11 SEC, REAL TIME:     6.78 SEC
 SORT2 READ   226271326. AND WROTE   231738156. INTEGRALS IN   3949 RECORDS. CPU TIME:     5.59 SEC, REAL TIME:    34.87 SEC

 FILE SIZES:   FILE 1:  1066.9 MBYTE,  FILE 4:  2751.5 MBYTE,   TOTAL:   3818.4 MBYTE

 OPERATOR DM      FOR CENTER  0  COORDINATES:    0.000000    0.000000    0.000000


 **********************************************************************************************************************************
 DATASETS  * FILE   NREC   LENGTH (MB)   RECORD NAMES
              1      19      950.39       500      610      700      900      950      970     1000      129      960     1100   
                                          VAR    BASINP    GEOM    SYMINP    ZMAT    AOBASIS   BASIS     P2S    ABASIS      S 
                                         1400     1410     1200     1210     1080     1600     1650     1300     1700   
                                           T        V       H0       H01     AOSYM     SMH    MOLCAS    ERIS     OPER   

 PROGRAMS   *        TOTAL       INT
 CPU TIMES  *        18.40     18.24
 REAL TIME  *        63.61 SEC
 DISK USED  *         3.82 GB      
 **********************************************************************************************************************************

 Density functional group B3LYP5=B88+DIRAC+LYP+VWN5
 Functional: B88(Automatically generated (new) B88)                            Gradient terms: 1
 Functional: DIRAC(Automatically generated (new) DIRAC)                        Gradient terms: 0
 Functional: LYP(Automatically generated (new) LYP)                            Gradient terms: 1
 Functional: VWN5(Automatically generated (new) VWN5)                          Gradient terms: 0

 dispersion correction activated
 Density functional: B3LYP5  
 functional not in list, set to default 


 Exact exchange will be calculated, factor:  0.2000

 Functional: B88                       Factor:  0.7200
 Functional: DIRAC                     Factor:  0.0800
 Functional: LYP                       Factor:  0.8100
 Functional: VWN5                      Factor:  0.1900

 Use grid at  1800.2


 Exact exchange will be calculated, factor:  0.2000

 Functional: B88                       Factor:  0.7200
 Functional: DIRAC                     Factor:  0.0800
 Functional: LYP                       Factor:  0.8100
 Functional: VWN5                      Factor:  0.1900

 Generated new metagrid on record  1800.2 with target accuracy 1.0D-06 and 23882 points in CPU time    0.5
 Computed new grid on record 1800.1 in CPU time    0.5
  168618 words reserved for DFT integration

 PROGRAM * UKS-SCF (Unrestricted Kohn-Sham)     Authors: W. Meyer, H.-J. Werner, P.J. Knowles, 1993

 NUMBER OF ELECTRONS:      10+    8-    SPACE SYMMETRY=1    SPIN SYMMETRY: Triplet 
 CONVERGENCE THRESHOLDS:    1.00E-05 (Density)    1.00E-06 (Energy)
 MAX. NUMBER OF ITERATIONS:       60
 INTERPOLATION TYPE:            DIIS
 INTERPOLATION STEPS:              2 (START)      1 (STEP)
 LEVEL SHIFTS:                 -0.20 (ALPHA)  -0.20 (BETA) 



 Use fine grid record 1800.2 for energy threshold  1.0D-06
 Orbital guess generated from atomic densities. Full valence occupancy:   15

 Molecular orbital dump at record        2200.2

 Initial alpha occupation  10
 Initial beta  occupation   8

 ITERATION    DDIFF          GRAD             ENERGY        2-EL.EN.            DIPOLE MOMENTS         DIIS
    1      0.000D+00      0.000D+00       -95.62088336    156.445167   -0.03239   -0.72396    0.00024    0
    2      0.727D-02      0.175D-02       -95.68084183    152.162002   -0.39127   -0.53705    0.00024    1
    3      0.223D-02      0.770D-03       -95.68981072    152.985992   -0.33756   -0.52567    0.00018    2
    4      0.556D-03      0.144D-03       -95.69065016    153.038075   -0.38108   -0.52354    0.00019    3
    5      0.243D-03      0.797D-04       -95.69090448    152.978799   -0.39041   -0.51481    0.00018    4
    6      0.136D-03      0.349D-04       -95.69100978    152.982323   -0.41262   -0.51619    0.00018    5
    7      0.930D-04      0.143D-04       -95.69103258    152.975416   -0.42152   -0.51707    0.00018    6
    8      0.403D-04      0.587D-05       -95.69103764    152.977416   -0.42819   -0.51815    0.00019    7
    9      0.135D-04      0.194D-05       -95.69103805    152.976236   -0.42982   -0.51839    0.00019    7
   10      0.439D-05      0.443D-06       -95.69103807    152.976407   -0.43033   -0.51843    0.00019    7
   11      0.120D-05      0.143D-06       -95.69103807    152.976357   -0.43041   -0.51843    0.00019    8

 Dispersion correction
 - - - - - - - - - - - 
  _________________________________
                                   
 |         DFTD3 V1.3 Rev 1        |
 | S.Grimme, University Muenster   |
 | Fri Jul  2 12:48:21 CEST 2010   |
  _________________________________

 Please cite DFT-D3 work done with this code as:
 S. Grimme, J. Antony, S. Ehrlich and H. Krieg,
 J. Chem. Phys, 132 (2010), 154104.
 For DFT-D2 the reference is
 S. Grimme, J. Comput. Chem., 27 (2006), 1787-1799

 C6 coefficients used:
                    2  C6 for element                     1
 Z=  1 CN=   0.912     C6(AA)=    3.03
 Z=  1 CN=   0.000     C6(AA)=    7.59
                    5  C6 for element                     6
 Z=  6 CN=   0.000     C6(AA)=   49.11
 Z=  6 CN=   0.987     C6(AA)=   43.25
 Z=  6 CN=   1.998     C6(AA)=   29.36
 Z=  6 CN=   2.999     C6(AA)=   25.78
 Z=  6 CN=   3.984     C6(AA)=   18.21
                    4  C6 for element                     7
 Z=  7 CN=   0.000     C6(AA)=   25.27
 Z=  7 CN=   0.994     C6(AA)=   22.12
 Z=  7 CN=   2.014     C6(AA)=   19.68
 Z=  7 CN=   2.990     C6(AA)=   15.58

 #           XYZ [au]               R0(AA) [Ang.]   CN       C6(AA)     C8(AA)   C10(AA) [au]
  1  -2.26688  -0.02103  -0.00006   c   1.455  3.588        20.4       590.8     20930.3
  2   2.64696   0.24540   0.00004   n   1.311  1.907        19.7       435.1     11757.2
  3  -2.69600  -0.96930   1.76323   h   1.091  0.994         3.1        37.4       553.7
  4  -2.68324  -1.11755  -1.67834   h   1.091  0.994         3.1        37.4       553.7
  5  -2.87284   1.93283  -0.08651   h   1.091  0.994         3.1        37.4       553.7
  6   0.35703   0.23981   0.00189   h   1.091  1.484         3.0        36.6       542.1
  7   2.96751  -1.67745  -0.00009   h   1.091  0.996         3.1        37.4       553.6

 molecular C6(AA) [au] =       313.59

           DFT-D V3
 DF pbe                                               
 parameters
 s6       :    1.0000
 s8       :    0.7220
 rs6      :    1.2170
 alpha6   :   14.0000
 alpha8   :   16.0000
 k1-k3    :   16.0000    1.3333   -4.0000

 Edisp /kcal,au:    -0.5520 -0.00087971

 E6    /kcal :    -0.2144
 E8    /kcal :    -0.3376
 % E8        : 61.16
 normal termination of dftd3

 UKS STATE 1.1 ENERGY+DISP      -95.69191778

 Final alpha occupancy:  10
 Final beta  occupancy:   8

 !UKS STATE 1.1 Energy                -95.691917779785
 Nuclear energy                        33.45955816
 One-electron energy                 -194.30817553
 Two-electron energy                   76.48817831
 Density functional                   -11.33059902     B88=-13.48729901 DIRAC=-12.09758744 LYP= -0.54698023 VWN5= -1.09938292
 Virial quotient                       -1.00602358
 !UKS STATE 1.1 Dipole moment          -0.43041436    -0.51843396     0.00018983
 Dipole moment /Debye                  -1.09393254    -1.31764140     0.00048247

 Orbital energies for positive spin:

         1.1          2.1          3.1          4.1          5.1          6.1          7.1          8.1          9.1         10.1
    -14.361435   -10.184735    -0.849227    -0.703331    -0.465961    -0.422662    -0.421648    -0.364762    -0.321545    -0.239211

        11.1         12.1
     -0.013396     0.012244

 Orbital energies for negative spin:

         1.1          2.1          3.1          4.1          5.1          6.1          7.1          8.1          9.1         10.1
    -14.331496   -10.174599    -0.771077    -0.674326    -0.429406    -0.414945    -0.412118    -0.314164    -0.113350    -0.100670

        11.1         12.1
     -0.011312     0.015575

 HOMO     10.1    -0.239211 =      -6.5093eV
 LUMO     -9.1    -0.113350 =      -3.0844eV
 LUMO-HOMO         0.125861 =       3.4248eV

 EXPECTATION VALUE OF S**2:             2.01182093

 Occupation number threshold for canonical orbitals:  1.999000 (occupied),  0.001000 (virtual)

 Number of pseudo-canonical orbitals per symmetry:    6
 Number of active natural orbitals per symmetry:      6

 Natural orbitals saved to record    2200.2 (Orbital set 3)

 Orbital spaces for UNO-CAS (Min. occupation: 0.020  Max. occupation: 1.980):

 Closed:        8
 Active:        2


 **********************************************************************************************************************************
 DATASETS  * FILE   NREC   LENGTH (MB)   RECORD NAMES
              1      20      951.15       500      610      700      900      950      970     1000      129      960     1100   
                                          VAR    BASINP    GEOM    SYMINP    ZMAT    AOBASIS   BASIS     P2S    ABASIS      S 
                                         1400     1410     1200     1210     1080     1600     1650     1300     1700     1800   
                                           T        V       H0       H01     AOSYM     SMH    MOLCAS    ERIS     OPER     GRID   

              2       5        4.61       700     1000      520     1800     2200   
                                         GEOM     BASIS   MCVARS    GRID      UKS  

 PROGRAMS   *        TOTAL       UKS       INT
 CPU TIMES  *        96.85     78.46     18.24
 REAL TIME  *       145.94 SEC
 DISK USED  *         3.82 GB      
 **********************************************************************************************************************************


 PROGRAM * Intrinsic Basis Bonding Analysis (IBBA)          Author: G. Knizia

 Molecular orbitals read from record     2200.2  Type=UKS/ALPHA (state 1.1)
 Fock matrix read from record            2200.2  Type=UKS/TOTAL (state 1.1)
 Orbital energies read from record       2200.2  Type=UKS/ALPHA (state 1.1)
 Density matrix read from record         2200.2  Type=UKS/CHARGE (state 1.1)

 Number of core orbitals:           2 (   2 )
 Number of closed-shell orbitals:   6 (   6 )
 Number of active  orbitals:        2 (   2 )

 Basis set MINAO-AUTO-PP generated.      Number of basis functions:   15 

 Polarized AO type:                A = (O Ot + (1-O)(1-Ot)) P12
 Orthogonalization method:         Symmetric (Loewdin)
 Localization functional:          L = sum[A,i] <i|n_A|i>^4 -> max

 Localization group 1:   8 orbitals, occupancy  2.000
 Iterative localization: IB/PM,    6 iter; Final gradient 0.51E-08

 Bond order analysis:       [THRPRINT= 0.020]

   CEN ATOM   CEN ATOM     WIBERG.BO      RENORM.BO
     1   C  -   5   H       0.950429       0.999765
     1   C  -   4   H       0.950048       0.999710
     1   C  -   3   H       0.949108       0.999730
     1   C  -   2   N       0.499457       2.003426
     1   C  -   6   H       0.280939       0.750920

     2   N  -   7   H       0.915805       0.999958
     2   N  -   6   H       0.629735       0.916280
     2   N  -   1   C       0.499457       2.003426

     3   H  -   1   C       0.949108       0.999730

     4   H  -   1   C       0.950048       0.999710

     5   H  -   1   C       0.950429       0.999765

     6   H  -   2   N       0.629735       0.916280
     6   H  -   1   C       0.280939       0.750920

     7   H  -   2   N       0.915805       0.999958


 Valency analysis:

   CEN ATOM   TOT.VALENCE
     1   C       3.630986
     2   N       2.085266
     3   H       0.966459
     4   H       0.966732
     5   H       0.965005
     6   H       0.917655
     7   H       0.916960
 Localization group 2:   2 orbitals, occupancy  1.000
 Iterative localization: IB/PM,    2 iter; Final gradient 0.15E-10

 Bond order analysis:       [THRPRINT= 0.020]

   CEN ATOM   CEN ATOM     WIBERG.BO      RENORM.BO
     1   C  -   2   N       0.460612       1.000000

     2   N  -   1   C       0.460612       1.000000







 Valency analysis:

   CEN ATOM   TOT.VALENCE
     1   C       0.494275
     2   N       0.491172
     3   H       0.013239
     4   H       0.012708
     5   H       0.012338
     6   H       0.022559
     7   H       0.004602

 Total charge composition:

   CEN ATOM         s          p       ELECTRONS ->P.CHARGE
     1   C       3.14795    3.41737      6.56533   -0.56533
     2   N       3.71593    3.81349      7.52943   -0.52943
     3   H       0.82352                 0.82352    0.17648
     4   H       0.82400                 0.82400    0.17600
     5   H       0.81914                 0.81914    0.18086
     6   H       0.72445                 0.72445    0.27555
     7   H       0.71414                 0.71414    0.28586

 Total charge composition, AO contributions:

   CEN ATOM SHL      SPHERICAL COMPONENTS
     1   C  1s       1.99196
     1   C  2s       1.15599
     1   C  2p       1.03165    1.19586    1.18986

     2   N  1s       1.99714
     2   N  2s       1.71880
     2   N  2p       1.32928    1.47711    1.00710

     3   H  1s       0.82352

     4   H  1s       0.82400

     5   H  1s       0.81914

     6   H  1s       0.72445

     7   H  1s       0.71414

 Active orbital charges:

   CEN ATOM         s          p       ELECTRONS ->SPIN.DEN
     1   C       0.02538    0.55193      0.57731    0.57731
     2   N       0.00295    1.38676      1.38971    1.38971
     3   H       0.00666                 0.00666    0.00666
     4   H       0.00639                 0.00639    0.00639
     5   H       0.00621                 0.00621    0.00621
     6   H       0.01141                 0.01141    0.01141
     7   H       0.00231                 0.00231    0.00231

 Active orbital charges, AO contributions:

   CEN ATOM SHL      SPHERICAL COMPONENTS
     1   C  1s       0.00005
     1   C  2s       0.02533
     1   C  2p       0.54742    0.00180    0.00271

     2   N  1s       0.00004
     2   N  2s       0.00291
     2   N  2p       0.38398    0.00920    0.99358

     3   H  1s       0.00666

     4   H  1s       0.00639

     5   H  1s       0.00621

     6   H  1s       0.01141

     7   H  1s       0.00231

 Summary of localized orbital composition:   [THRPRINT= 0.020]

   ORB  GRP  ORB.ENERGY      CENTERS/CHARGES
     1   1   -14.217908      N  2   2.000
     2   1   -10.065668      C  1   2.000
     3   1    -0.669108      N  2   1.287   H  7   0.711
     4   1    -0.564018      N  2   1.923   C  1   0.047   H  6   0.029
     5   1    -0.544208      C  1   1.176   H  5   0.809
     6   1    -0.543843      C  1   1.168   H  3   0.813
     7   1    -0.543808      C  1   1.168   H  4   0.814
     8   1    -0.492139      N  2   0.910   H  6   0.650   C  1   0.428
     9   2    -0.210531      N  2   0.994
    10   2    -0.167867      C  1   0.575   N  2   0.396   (other: 0.029)

 Localized orbitals saved to record      2200.2  (orbital set 4)


 **********************************************************************************************************************************
 DATASETS  * FILE   NREC   LENGTH (MB)   RECORD NAMES
              1      20      951.15       500      610      700      900      950      970     1000      129      960     1100   
                                          VAR    BASINP    GEOM    SYMINP    ZMAT    AOBASIS   BASIS     P2S    ABASIS      S 
                                         1400     1410     1200     1210     1080     1600     1650     1300     1700     1800   
                                           T        V       H0       H01     AOSYM     SMH    MOLCAS    ERIS     OPER     GRID   

              2       5        4.96       700     1000      520     1800     2200   
                                         GEOM     BASIS   MCVARS    GRID      UKS  

 PROGRAMS   *        TOTAL      IBBA       UKS       INT
 CPU TIMES  *        96.90      0.05     78.46     18.24
 REAL TIME  *       153.14 SEC
 DISK USED  *         3.82 GB      
 **********************************************************************************************************************************

 IBBA/aug-cc-pVTZ energy=      0.000000000000

        UKS-SCF 
    -95.69191778
 **********************************************************************************************************************************
 Molpro calculation terminated
