
 Primary working directories    : /local
 Secondary working directories  : /local
 Wavefunction directory         : /local/
 Main file repository           : /local/

 SHA1      : b4a5b34a9e711420743f49e6833241d17c61fb3c
 NAME      : 2099.9.b4a5b34
 ARCHNAME  : linux/x86_64_openmp
 FC        : /cm/shared/languages/GCC-6.1/bin/gfortran
 BLASLIB   : -lblas
 id        : simonbennie

 Nodes     nprocs
 node32-005    1

 Using customized tuning parameters: mindgm=1; mindgv=20; mindgc=4; mindgr=1; noblas=0; minvec=7
 default implementation of scratch files=df  

 memory,500,m
 geomtyp=xyz
 nosym
 noorient
 geometry={
 C         -1.19958       -0.01113       -0.00003
 N          1.40071        0.12986        0.00002
 H         -1.42666       -0.51293        0.93306
 H         -1.41991       -0.59138       -0.88814
 H         -1.52024        1.02281       -0.04578
 H          0.18893        0.12690        0.00100
 H          1.57034       -0.88767       -0.00005
 }
 basis={ default,svp }
 {uks,HFS,direct;wf,18,1,2}
 {ibba,bonds=1}

 Variables initialized (895), CPU time= 0.00 sec
 Commands  initialized (725), CPU time= 0.02 sec, 591 directives.
 Default parameters read. Elapsed time= 0.08 sec

 Checking input...
 Passed
1


                                         ***  PROGRAM SYSTEM MOLPRO  ***
                                       Copyright, TTI GmbH Stuttgart, 2015
                                    Version 2099.9 linked May 26 2017 16:03:21


 **********************************************************************************************************************************
 LABEL *                                                                                 
  64 bit serial version                                                                  DATE: 23-Jun-17          TIME: 07:20:01  
 **********************************************************************************************************************************

 SHA1:             b4a5b34a9e711420743f49e6833241d17c61fb3c
 **********************************************************************************************************************************
 SETTING GEOMTYP        =    XYZ

 Variable memory set to  500000000 words,  buffer space 

 ZSYMEL=NOSYM

 SETTING BASIS          =    SVP


 Recomputing integrals since basis changed


 Using spherical harmonics

 Library entry C      S def2-SVP             selected for orbital group  1
 Library entry C      P def2-SVP             selected for orbital group  1
 Library entry C      D def2-SVP             selected for orbital group  1
 Library entry N      S def2-SVP             selected for orbital group  2
 Library entry N      P def2-SVP             selected for orbital group  2
 Library entry N      D def2-SVP             selected for orbital group  2
 Library entry H      S def2-SVP             selected for orbital group  3
 Library entry H      P def2-SVP             selected for orbital group  3


 PROGRAM * SEWARD (Integral evaluation for generally contracted gaussian basis sets)     Author: Roland Lindh, 1990

 Geometry written to block  1 of record 700


 Point group  C1  



 ATOMIC COORDINATES

 NR  ATOM    CHARGE       X              Y              Z

   1  C       6.00   -2.266877665   -0.021032652   -0.000056692
   2  N       7.00    2.646958280    0.245399835    0.000037795
   3  H       1.00   -2.695996673   -0.969297221    1.763227858
   4  H       1.00   -2.683241022   -1.117546236   -1.678341360
   5  H       1.00   -2.872837244    1.932830777   -0.086511662
   6  H       1.00    0.357025957    0.239806245    0.001889726
   7  H       1.00    2.967512522   -1.677453189   -0.000094486

 Bond lengths in Bohr (Angstrom)

 1-3  2.047564705  1-4  2.047520430  1-5  2.047496953  1-6  2.636837297  2-6  2.289939904
     ( 1.083524580)     ( 1.083501151)     ( 1.083488727)     ( 1.395354207)     ( 1.211784011)

 2-7  1.949389338
     ( 1.031572413)

 Bond angles

  1-6-2  174.46219800   3-1-4  114.53404293   3-1-5  114.59980605   3-1-6  104.69797988

  4-1-5  114.59807310   4-1-6  104.82888405   5-1-6  101.54476811   6-2-7   99.32464965

 NUCLEAR CHARGE:                   18
 NUMBER OF PRIMITIVE AOS:          85
 NUMBER OF SYMMETRY AOS:           83
 NUMBER OF CONTRACTIONS:           53   (  53A   )
 NUMBER OF CORE ORBITALS:           2   (   2A   )
 NUMBER OF VALENCE ORBITALS:       13   (  13A   )


 NUCLEAR REPULSION ENERGY   33.45955816


 Eigenvalues of metric

         1 0.686E-02 0.218E-01 0.509E-01 0.528E-01 0.545E-01 0.981E-01 0.128E+00 0.128E+00


 Contracted 2-electron integrals neglected if value below      1.0D-11
 AO integral compression algorithm  1   Integral accuracy      1.0D-11

     4.719 MB (compressed) written to integral file ( 49.6%)


 NUMBER OF SORTED TWO-ELECTRON INTEGRALS:    1024596.     BUFFER LENGTH:  32768
 NUMBER OF SEGMENTS:   1  SEGMENT LENGTH:    1024596      RECORD LENGTH: 524288

 Memory used in sort:       1.58 MW

 SORT1 READ     1205727. AND WROTE      971557. INTEGRALS IN      3 RECORDS. CPU TIME:     0.02 SEC, REAL TIME:     0.03 SEC
 SORT2 READ      971557. AND WROTE     1024596. INTEGRALS IN     18 RECORDS. CPU TIME:     0.05 SEC, REAL TIME:     0.06 SEC

 FILE SIZES:   FILE 1:    34.9 MBYTE,  FILE 4:    12.6 MBYTE,   TOTAL:     47.5 MBYTE

 OPERATOR DM      FOR CENTER  0  COORDINATES:    0.000000    0.000000    0.000000


 **********************************************************************************************************************************
 DATASETS  * FILE   NREC   LENGTH (MB)   RECORD NAMES
              1      19       33.98       500      610      700      900      950      970     1000      129      960     1100   
                                          VAR    BASINP    GEOM    SYMINP    ZMAT    AOBASIS   BASIS     P2S    ABASIS      S 
                                         1400     1410     1200     1210     1080     1600     1650     1300     1700   
                                           T        V       H0       H01     AOSYM     SMH    MOLCAS    ERIS     OPER   

 PROGRAMS   *        TOTAL       INT
 CPU TIMES  *         0.56      0.41
 REAL TIME  *         0.91 SEC
 DISK USED  *        47.87 MB      
 **********************************************************************************************************************************

 Density functional group HFS=DIRAC
 Functional: DIRAC(Automatically generated (new) DIRAC)                        Gradient terms: 0
 Use grid at  1800.2

 Functional: DIRAC                     Factor:  1.0000

 Generated new metagrid on record  1800.2 with target accuracy 1.0D-06 and 23050 points in CPU time    0.5
 Computed new grid on record 1800.1 in CPU time    0.6
   25820 words reserved for DFT integration

 PROGRAM * UKS-SCF (Unrestricted Kohn-Sham)     Authors: W. Meyer, H.-J. Werner, P.J. Knowles, 1993

 NUMBER OF ELECTRONS:      10+    8-    SPACE SYMMETRY=1    SPIN SYMMETRY: Triplet 
 CONVERGENCE THRESHOLDS:    1.00E-05 (Density)    1.00E-06 (Energy)
 MAX. NUMBER OF ITERATIONS:       60
 INTERPOLATION TYPE:            DIIS
 INTERPOLATION STEPS:              2 (START)      1 (STEP)
 LEVEL SHIFTS:                 -0.20 (ALPHA)  -0.20 (BETA) 



 Use fine grid record 1800.2 for energy threshold  1.0D-06
 Orbital guess generated from atomic densities. Full valence occupancy:    9

 Molecular orbital dump at record        2200.2

 Initial alpha occupation  10
 Initial beta  occupation   8

 ITERATION    DDIFF          GRAD             ENERGY        2-EL.EN.            DIPOLE MOMENTS         DIIS
    1      0.000D+00      0.000D+00       -93.55924698    161.950287    0.15005   -0.75632    0.00016    0
    2      0.163D-01      0.781D-02       -93.63605729    156.363293   -0.33737   -0.57065    0.00027    1
    3      0.587D-02      0.412D-02       -93.65637611    157.636969   -0.19522   -0.55162    0.00017    2
    4      0.116D-02      0.641D-03       -93.65701654    157.745256   -0.22856   -0.55056    0.00019    3
    5      0.888D-03      0.322D-03       -93.65726951    157.667252   -0.22776   -0.53260    0.00019    4
    6      0.463D-03      0.109D-03       -93.65733430    157.665880   -0.23641   -0.52599    0.00018    5
    7      0.965D-04      0.306D-04       -93.65733983    157.660822   -0.23890   -0.52536    0.00019    6
    8      0.282D-04      0.104D-04       -93.65734044    157.662140   -0.24028   -0.52538    0.00019    7
    9      0.113D-04      0.277D-05       -93.65734050    157.661772   -0.24062   -0.52546    0.00019    7
   10      0.483D-05      0.102D-05       -93.65734051    157.661739   -0.24080   -0.52552    0.00019    7
   11      0.150D-05      0.371D-06       -93.65734051    157.661831   -0.24084   -0.52552    0.00019    7

 Final alpha occupancy:  10
 Final beta  occupancy:   8

 !UKS STATE 1.1 Energy                -93.657340507386
 Nuclear energy                        33.45955816
 One-electron energy                 -193.92135511
 Two-electron energy                   78.83091555
 Density functional                   -12.02645910     DIRAC=-12.02645910
 Virial quotient                       -0.99494110
 !UKS STATE 1.1 Dipole moment          -0.24084165    -0.52551670     0.00019087
 Dipole moment /Debye                  -0.61211831    -1.33564272     0.00048511

 Orbital energies for positive spin:

         1.1          2.1          3.1          4.1          5.1          6.1          7.1          8.1          9.1         10.1
    -13.833561    -9.717955    -0.708028    -0.566497    -0.367816    -0.319650    -0.318309    -0.264086    -0.228397    -0.150616

        11.1         12.1
      0.069479     0.107878

 Orbital energies for negative spin:

         1.1          2.1          3.1          4.1          5.1          6.1          7.1          8.1          9.1         10.1
    -13.796421    -9.706355    -0.631545    -0.540482    -0.326561    -0.307634    -0.305343    -0.205605    -0.096079    -0.076414

        11.1         12.1
      0.080284     0.120173

 HOMO     10.1    -0.150616 =      -4.0985eV
 LUMO     -9.1    -0.096079 =      -2.6144eV
 LUMO-HOMO         0.054537 =       1.4840eV

 EXPECTATION VALUE OF S**2:             2.00914885

 Occupation number threshold for canonical orbitals:  1.999000 (occupied),  0.001000 (virtual)

 Number of pseudo-canonical orbitals per symmetry:    6
 Number of active natural orbitals per symmetry:      6

 Natural orbitals saved to record    2200.2 (Orbital set 3)

 Orbital spaces for UNO-CAS (Min. occupation: 0.020  Max. occupation: 1.980):

 Closed:        8
 Active:        2


 **********************************************************************************************************************************
 DATASETS  * FILE   NREC   LENGTH (MB)   RECORD NAMES
              1      20       34.72       500      610      700      900      950      970     1000      129      960     1100   
                                          VAR    BASINP    GEOM    SYMINP    ZMAT    AOBASIS   BASIS     P2S    ABASIS      S 
                                         1400     1410     1200     1210     1080     1600     1650     1300     1700     1800   
                                           T        V       H0       H01     AOSYM     SMH    MOLCAS    ERIS     OPER     GRID   

              2       5        2.98       700     1000      520     1800     2200   
                                         GEOM     BASIS   MCVARS    GRID      UKS  

 PROGRAMS   *        TOTAL       UKS       INT
 CPU TIMES  *         2.77      2.20      0.41
 REAL TIME  *         3.23 SEC
 DISK USED  *        47.87 MB      
 **********************************************************************************************************************************


 PROGRAM * Intrinsic Basis Bonding Analysis (IBBA)          Author: G. Knizia

 Molecular orbitals read from record     2200.2  Type=UKS/ALPHA (state 1.1)
 Fock matrix read from record            2200.2  Type=UKS/TOTAL (state 1.1)
 Orbital energies read from record       2200.2  Type=UKS/ALPHA (state 1.1)
 Density matrix read from record         2200.2  Type=UKS/CHARGE (state 1.1)

 Number of core orbitals:           2 (   2 )
 Number of closed-shell orbitals:   6 (   6 )
 Number of active  orbitals:        2 (   2 )

 Basis set MINAO-AUTO-PP generated.      Number of basis functions:   15 

 Polarized AO type:                A = (O Ot + (1-O)(1-Ot)) P12
 Orthogonalization method:         Symmetric (Loewdin)
 Localization functional:          L = sum[A,i] <i|n_A|i>^4 -> max

 Localization group 1:   8 orbitals, occupancy  2.000
 Iterative localization: IB/PM,    6 iter; Final gradient 0.96E-08

 Bond order analysis:       [THRPRINT= 0.020]

   CEN ATOM   CEN ATOM     WIBERG.BO      RENORM.BO
     1   C  -   5   H       0.950115       0.999758
     1   C  -   4   H       0.948600       0.999740
     1   C  -   3   H       0.947477       0.999756
     1   C  -   2   N       0.492092       2.003946
     1   C  -   6   H       0.270848       0.735829

     2   N  -   7   H       0.916194       0.999906
     2   N  -   6   H       0.650313       0.913072
     2   N  -   1   C       0.492092       2.003946

     3   H  -   1   C       0.947477       0.999756

     4   H  -   1   C       0.948600       0.999740

     5   H  -   1   C       0.950115       0.999758

     6   H  -   2   N       0.650313       0.913072
     6   H  -   1   C       0.270848       0.735829

     7   H  -   2   N       0.916194       0.999906


 Valency analysis:

   CEN ATOM   TOT.VALENCE
     1   C       3.610051
     2   N       2.100144
     3   H       0.967676
     4   H       0.967982
     5   H       0.966175
     6   H       0.930676
     7   H       0.917414
 Localization group 2:   2 orbitals, occupancy  1.000
 Iterative localization: IB/PM,    2 iter; Final gradient 0.28E-10

 Bond order analysis:       [THRPRINT= 0.020]

   CEN ATOM   CEN ATOM     WIBERG.BO      RENORM.BO
     1   C  -   2   N       0.461134       1.000000

     2   N  -   1   C       0.461134       1.000000







 Valency analysis:

   CEN ATOM   TOT.VALENCE
     1   C       0.494656
     2   N       0.492489
     3   H       0.012516
     4   H       0.011941
     5   H       0.010215
     6   H       0.026905
     7   H       0.004416

 Total charge composition:

   CEN ATOM         s          p       ELECTRONS ->P.CHARGE
     1   C       3.10905    3.42374      6.53279   -0.53279
     2   N       3.69619    3.83104      7.52723   -0.52723
     3   H       0.82651                 0.82651    0.17349
     4   H       0.82707                 0.82707    0.17293
     5   H       0.82122                 0.82122    0.17878
     6   H       0.75034                 0.75034    0.24966
     7   H       0.71483                 0.71483    0.28517

 Total charge composition, AO contributions:

   CEN ATOM SHL      SPHERICAL COMPONENTS
     1   C  1s       1.99286
     1   C  2s       1.11619
     1   C  2p       1.02048    1.20565    1.19761

     2   N  1s       1.99740
     2   N  2s       1.69879
     2   N  2p       1.33599    1.48617    1.00889

     3   H  1s       0.82651

     4   H  1s       0.82707

     5   H  1s       0.82122

     6   H  1s       0.75034

     7   H  1s       0.71483

 Active orbital charges:

   CEN ATOM         s          p       ELECTRONS ->SPIN.DEN
     1   C       0.02471    0.55954      0.58425    0.58425
     2   N       0.00357    1.37889      1.38246    1.38246
     3   H       0.00630                 0.00630    0.00630
     4   H       0.00601                 0.00601    0.00601
     5   H       0.00513                 0.00513    0.00513
     6   H       0.01364                 0.01364    0.01364
     7   H       0.00221                 0.00221    0.00221

 Active orbital charges, AO contributions:

   CEN ATOM SHL      SPHERICAL COMPONENTS
     1   C  1s       0.00003
     1   C  2s       0.02468
     1   C  2p       0.55402    0.00171    0.00381

     2   N  1s       0.00004
     2   N  2s       0.00353
     2   N  2p       0.37754    0.00961    0.99174

     3   H  1s       0.00630

     4   H  1s       0.00601

     5   H  1s       0.00513

     6   H  1s       0.01364

     7   H  1s       0.00221

 Summary of localized orbital composition:   [THRPRINT= 0.020]

   ORB  GRP  ORB.ENERGY      CENTERS/CHARGES
     1   1   -13.701479      N  2   2.000
     2   1    -9.607020      C  1   2.000
     3   1    -0.554913      N  2   1.286   H  7   0.712
     4   1    -0.425847      C  1   1.162   H  3   0.817   (other: 0.021)
     5   1    -0.425838      C  1   1.162   H  4   0.818   (other: 0.020)
     6   1    -0.424655      C  1   1.171   H  5   0.813
     7   1    -0.411338      N  2   1.920   C  1   0.051   H  6   0.028
     8   1    -0.401288      N  2   0.915   H  6   0.675   C  1   0.402
     9   2    -0.160708      N  2   0.992
    10   2    -0.113823      C  1   0.580   N  2   0.391   (other: 0.029)

 Localized orbitals saved to record      2200.2  (orbital set 4)


 **********************************************************************************************************************************
 DATASETS  * FILE   NREC   LENGTH (MB)   RECORD NAMES
              1      20       34.72       500      610      700      900      950      970     1000      129      960     1100   
                                          VAR    BASINP    GEOM    SYMINP    ZMAT    AOBASIS   BASIS     P2S    ABASIS      S 
                                         1400     1410     1200     1210     1080     1600     1650     1300     1700     1800   
                                           T        V       H0       H01     AOSYM     SMH    MOLCAS    ERIS     OPER     GRID   

              2       5        3.00       700     1000      520     1800     2200   
                                         GEOM     BASIS   MCVARS    GRID      UKS  

 PROGRAMS   *        TOTAL      IBBA       UKS       INT
 CPU TIMES  *         2.79      0.02      2.20      0.41
 REAL TIME  *         3.30 SEC
 DISK USED  *        47.87 MB      
 **********************************************************************************************************************************
 Molecular orbitals read from record     2200.2  Type=UKS/LOCAL(IBO)  
 Occupation numbers read from record     2200.2  Type=UKS/LOCAL(IBO)  
 Orbital energies read from record       2200.2  Type=UKS/LOCAL(IBO)  
 Redundancy group numbers read from rec  2200.2  Type=UKS/BETA (state 1.1)

 IBBA/SVP energy=      0.000000000000

        UKS-SCF 
    -93.65734051
 **********************************************************************************************************************************
 Molpro calculation terminated
