
 Primary working directories    : /local
 Secondary working directories  : /local
 Wavefunction directory         : /local/
 Main file repository           : /local/

 SHA1      : b4a5b34a9e711420743f49e6833241d17c61fb3c
 NAME      : 2099.9.b4a5b34
 ARCHNAME  : linux/x86_64_openmp
 FC        : /cm/shared/languages/GCC-6.1/bin/gfortran
 BLASLIB   : -lblas
 id        : simonbennie

 Nodes     nprocs
 node47-007    1

 Using customized tuning parameters: mindgm=1; mindgv=20; mindgc=4; mindgr=1; noblas=0; minvec=7
 default implementation of scratch files=df  

 memory,500,m
 geomtyp=xyz
 nosym
 noorient
 geometry={
 C         -1.39498       -0.44966        0.00070
 C         -0.43575        0.71406        0.00203
 N          1.92757       -0.37835        0.00304
 H         -1.20009       -1.12095       -0.83569
 H         -1.32210       -1.02788        0.92177
 H         -2.42871       -0.10535       -0.08933
 H         -0.41769        1.30848       -0.90720
 H         -0.44113        1.32909        0.89747
 H          0.82850        0.18059       -0.02856
 H          2.47259        0.49807        0.00391
 }
 basis={ default,tzvp }
 {uks,S-VWN,direct;wf,26,1,2}
 {ibba,bonds=1}

 Variables initialized (895), CPU time= 0.00 sec
 Commands  initialized (725), CPU time= 0.01 sec, 591 directives.
 Default parameters read. Elapsed time= 0.06 sec

 Checking input...
 Passed
1


                                         ***  PROGRAM SYSTEM MOLPRO  ***
                                       Copyright, TTI GmbH Stuttgart, 2015
                                    Version 2099.9 linked May 26 2017 16:03:21


 **********************************************************************************************************************************
 LABEL *                                                                                 
  64 bit serial version                                                                  DATE: 23-Jun-17          TIME: 12:43:04  
 **********************************************************************************************************************************

 SHA1:             b4a5b34a9e711420743f49e6833241d17c61fb3c
 **********************************************************************************************************************************
 SETTING GEOMTYP        =    XYZ

 Variable memory set to  500000000 words,  buffer space 

 ZSYMEL=NOSYM

 SETTING BASIS          =    TZVP


 Recomputing integrals since basis changed


 Using spherical harmonics

 Library entry C      S def2-TZVP            selected for orbital group  1
 Library entry C      P def2-TZVP            selected for orbital group  1
 Library entry C      D def2-TZVP            selected for orbital group  1
 Library entry C      F def2-TZVP            selected for orbital group  1
 Library entry N      S def2-TZVP            selected for orbital group  2
 Library entry N      P def2-TZVP            selected for orbital group  2
 Library entry N      D def2-TZVP            selected for orbital group  2
 Library entry N      F def2-TZVP            selected for orbital group  2
 Library entry H      S def2-TZVP            selected for orbital group  3
 Library entry H      P def2-TZVP            selected for orbital group  3


 PROGRAM * SEWARD (Integral evaluation for generally contracted gaussian basis sets)     Author: Roland Lindh, 1990

 Geometry written to block  1 of record 700


 Point group  C1  



 ATOMIC COORDINATES

 NR  ATOM    CHARGE       X              Y              Z

   1  C       6.00   -2.636130149   -0.849734249    0.001322808
   2  C       6.00   -0.823448159    1.349377837    0.003836144
   3  N       7.00    3.642579386   -0.714977879    0.005744767
   4  H       1.00   -2.267841425   -2.118288499   -1.579225225
   5  H       1.00   -2.498406909   -1.942411689    1.741892850
   6  H       1.00   -4.589596736   -0.199082647   -0.168809235
   7  H       1.00   -0.789319705    2.472668839   -1.714359540
   8  H       1.00   -0.833614885    2.511616095    1.695972505
   9  H       1.00    1.565638094    0.341265641   -0.053970578
  10  H       1.00    4.672517918    0.941215891    0.007388829

 Bond lengths in Bohr (Angstrom)

 1-2  2.849897591  1-4  2.059854013  1-5  2.059731960  1-6  2.065992286  2-7  2.053081547
     ( 1.508100859)     ( 1.090027802)     ( 1.089963214)     ( 1.093276036)     ( 1.086443967)

  2- 8  2.052858153   2- 9  2.593716434   3- 9  2.330858517   3-10  1.950321483
       ( 1.086325752)       ( 1.372535628)       ( 1.233437209)       ( 1.032065683)

 Bond angles

  1-2-7  115.59591255   1-2-8  115.75024036   1-2-9  106.61454224   2-1-4  111.23354516

  2-1-5  111.47404485   2-1-6  111.00586724   2-9-3  175.08456843   4-1-5  108.04446468

  4-1-6  107.44676361   5-1-6  107.45054195   7-2-8  112.34332724   7-2-9  100.29346675

  8- 2- 9  104.06268725   9- 3-10   94.91995329

 NUCLEAR CHARGE:                   26
 NUMBER OF PRIMITIVE AOS:         209
 NUMBER OF SYMMETRY AOS:          194
 NUMBER OF CONTRACTIONS:          135   ( 135A   )
 NUMBER OF CORE ORBITALS:           3   (   3A   )
 NUMBER OF VALENCE ORBITALS:       19   (  19A   )


 NUCLEAR REPULSION ENERGY   71.85732166


 Eigenvalues of metric

         1 0.377E-03 0.709E-03 0.113E-02 0.241E-02 0.553E-02 0.564E-02 0.681E-02 0.717E-02


 Contracted 2-electron integrals neglected if value below      1.0D-11
 AO integral compression algorithm  1   Integral accuracy      1.0D-11

     152.306 MB (compressed) written to integral file ( 40.4%)


 NUMBER OF SORTED TWO-ELECTRON INTEGRALS:   42140790.     BUFFER LENGTH:  32768
 NUMBER OF SEGMENTS:   3  SEGMENT LENGTH:   15998004      RECORD LENGTH: 524288

 Memory used in sort:      16.56 MW

 SORT1 READ    47083089. AND WROTE    36175429. INTEGRALS IN    104 RECORDS. CPU TIME:     0.57 SEC, REAL TIME:     1.06 SEC
 SORT2 READ    36175429. AND WROTE    42140790. INTEGRALS IN    581 RECORDS. CPU TIME:     1.07 SEC, REAL TIME:     6.19 SEC

 FILE SIZES:   FILE 1:   183.1 MBYTE,  FILE 4:   436.2 MBYTE,   TOTAL:    619.4 MBYTE

 OPERATOR DM      FOR CENTER  0  COORDINATES:    0.000000    0.000000    0.000000


 **********************************************************************************************************************************
 DATASETS  * FILE   NREC   LENGTH (MB)   RECORD NAMES
              1      19      163.55       500      610      700      900      950      970     1000      129      960     1100   
                                          VAR    BASINP    GEOM    SYMINP    ZMAT    AOBASIS   BASIS     P2S    ABASIS      S 
                                         1400     1410     1200     1210     1080     1600     1650     1300     1700   
                                           T        V       H0       H01     AOSYM     SMH    MOLCAS    ERIS     OPER   

 PROGRAMS   *        TOTAL       INT
 CPU TIMES  *         4.73      4.59
 REAL TIME  *        10.91 SEC
 DISK USED  *       619.81 MB      
 **********************************************************************************************************************************

 Density functional group S-VWN=DIRAC+VWN5
 Functional: DIRAC(Automatically generated (new) DIRAC)                        Gradient terms: 0
 Functional: VWN5(Automatically generated (new) VWN5)                          Gradient terms: 0
 Use grid at  1800.2

 Functional: DIRAC                     Factor:  1.0000
 Functional: VWN5                      Factor:  1.0000

 Generated new metagrid on record  1800.2 with target accuracy 1.0D-06 and 37146 points in CPU time    0.8
 Computed new grid on record 1800.1 in CPU time    0.9
   59954 words reserved for DFT integration

 PROGRAM * UKS-SCF (Unrestricted Kohn-Sham)     Authors: W. Meyer, H.-J. Werner, P.J. Knowles, 1993

 NUMBER OF ELECTRONS:      14+   12-    SPACE SYMMETRY=1    SPIN SYMMETRY: Triplet 
 CONVERGENCE THRESHOLDS:    1.00E-05 (Density)    1.00E-06 (Energy)
 MAX. NUMBER OF ITERATIONS:       60
 INTERPOLATION TYPE:            DIIS
 INTERPOLATION STEPS:              2 (START)      1 (STEP)
 LEVEL SHIFTS:                 -0.20 (ALPHA)  -0.20 (BETA) 



 Use fine grid record 1800.2 for energy threshold  1.0D-06
 Orbital guess generated from atomic densities. Full valence occupancy:   13

 Molecular orbital dump at record        2200.2

 Initial alpha occupation  14
 Initial beta  occupation  12

 ITERATION    DDIFF          GRAD             ENERGY        2-EL.EN.            DIPOLE MOMENTS         DIIS
    1      0.000D+00      0.000D+00      -133.64075068    281.538414    0.13395    0.75977   -0.02384    0
    2      0.625D-02      0.444D-02      -133.78561417    268.834284   -0.38952    0.66292   -0.00639    1
    3      0.197D-02      0.247D-02      -133.82993492    272.326639   -0.27014    0.62800   -0.01193    2
    4      0.478D-03      0.260D-03      -133.83064848    272.366300   -0.30471    0.64391   -0.01198    3
    5      0.313D-03      0.129D-03      -133.83086630    272.263420   -0.30706    0.62829   -0.01179    4
    6      0.318D-03      0.489D-04      -133.83094368    272.252256   -0.32334    0.63104   -0.01186    5
    7      0.988D-04      0.163D-04      -133.83095209    272.246795   -0.32608    0.62905   -0.01188    6
    8      0.277D-04      0.927D-05      -133.83095348    272.243458   -0.32776    0.63017   -0.01188    7
    9      0.179D-04      0.324D-05      -133.83095385    272.244030   -0.32918    0.63064   -0.01193    7
   10      0.600D-05      0.111D-05      -133.83095389    272.244357   -0.32933    0.63071   -0.01193    7
   11      0.172D-05      0.379D-06      -133.83095390    272.243662   -0.32950    0.63081   -0.01194    8

 Final alpha occupancy:  14
 Final beta  occupancy:  12

 !UKS STATE 1.1 Energy               -133.830953897660
 Nuclear energy                        71.85732166
 One-electron energy                 -322.87768638
 Two-electron energy                  136.12183085
 Density functional                   -18.93242003     DIRAC=-17.33607266 VWN5= -1.59634737
 Virial quotient                       -1.00713946
 !UKS STATE 1.1 Dipole moment          -0.32950125     0.63081125    -0.01194146
 Dipole moment /Debye                  -0.83745379     1.60325725    -0.03035017

 Orbital energies for positive spin:

         1.1          2.1          3.1          4.1          5.1          6.1          7.1          8.1          9.1         10.1
    -13.901705    -9.795185    -9.777654    -0.760120    -0.689960    -0.559031    -0.420788    -0.409682    -0.362111    -0.349833

        11.1         12.1         13.1         14.1         15.1         16.1
     -0.317815    -0.311999    -0.265816    -0.186030     0.011961     0.035553

 Orbital energies for negative spin:

         1.1          2.1          3.1          4.1          5.1          6.1          7.1          8.1          9.1         10.1
    -13.870668    -9.785594    -9.777748    -0.706597    -0.673906    -0.547252    -0.404499    -0.397202    -0.348654    -0.338608

        11.1         12.1         13.1         14.1         15.1         16.1
     -0.313381    -0.271837    -0.170466    -0.133563     0.017920     0.041646

 HOMO     14.1    -0.186030 =      -5.0621eV
 LUMO    -13.1    -0.170466 =      -4.6386eV
 LUMO-HOMO         0.015564 =       0.4235eV

 EXPECTATION VALUE OF S**2:             2.00549009

 Occupation number threshold for canonical orbitals:  1.999000 (occupied),  0.001000 (virtual)

 Number of pseudo-canonical orbitals per symmetry:   12
 Number of active natural orbitals per symmetry:      2

 Natural orbitals saved to record    2200.2 (Orbital set 3)

 Orbital spaces for UNO-CAS (Min. occupation: 0.020  Max. occupation: 1.980):

 Closed:       12
 Active:        2


 **********************************************************************************************************************************
 DATASETS  * FILE   NREC   LENGTH (MB)   RECORD NAMES
              1      20      164.74       500      610      700      900      950      970     1000      129      960     1100   
                                          VAR    BASINP    GEOM    SYMINP    ZMAT    AOBASIS   BASIS     P2S    ABASIS      S 
                                         1400     1410     1200     1210     1080     1600     1650     1300     1700     1800   
                                           T        V       H0       H01     AOSYM     SMH    MOLCAS    ERIS     OPER     GRID   

              2       5        3.67       700     1000      520     1800     2200   
                                         GEOM     BASIS   MCVARS    GRID      UKS  

 PROGRAMS   *        TOTAL       UKS       INT
 CPU TIMES  *        19.48     14.75      4.59
 REAL TIME  *        26.94 SEC
 DISK USED  *       619.81 MB      
 **********************************************************************************************************************************


 PROGRAM * Intrinsic Basis Bonding Analysis (IBBA)          Author: G. Knizia

 Molecular orbitals read from record     2200.2  Type=UKS/ALPHA (state 1.1)
 Fock matrix read from record            2200.2  Type=UKS/TOTAL (state 1.1)
 Orbital energies read from record       2200.2  Type=UKS/ALPHA (state 1.1)
 Density matrix read from record         2200.2  Type=UKS/CHARGE (state 1.1)

 Number of core orbitals:           3 (   3 )
 Number of closed-shell orbitals:   9 (   9 )
 Number of active  orbitals:        2 (   2 )

 Basis set MINAO-AUTO-PP generated.      Number of basis functions:   22 

 Polarized AO type:                A = (O Ot + (1-O)(1-Ot)) P12
 Orthogonalization method:         Symmetric (Loewdin)
 Localization functional:          L = sum[A,i] <i|n_A|i>^4 -> max

 Localization group 1:  12 orbitals, occupancy  2.000
 Iterative localization: IB/PM,    8 iter; Final gradient 0.16E-08

 Bond order analysis:       [THRPRINT= 0.020]

   CEN ATOM   CEN ATOM     WIBERG.BO      RENORM.BO
     1   C  -   2   C       1.140436       1.223717
     1   C  -   5   H       0.940706       0.985516
     1   C  -   4   H       0.933174       0.986205
     1   C  -   6   H       0.863852       0.992665
     1   C  -   3   N       0.041320       0.124767

     2   C  -   1   C       1.140436       1.223717
     2   C  -   8   H       0.929922       0.980815
     2   C  -   7   H       0.925350       0.980282
     2   C  -   3   N       0.382357       1.476838
     2   C  -   9   H       0.284506       0.663038
     2   C  -   6   H       0.040737       0.098593

     3   N  -  10   H       0.911999       0.999698
     3   N  -   9   H       0.636749       0.875444
     3   N  -   2   C       0.382357       1.476838
     3   N  -   1   C       0.041320       0.124767
     3   N  -   6   H       0.036923       0.049029
     3   N  -   7   H       0.020566       0.465947

     4   H  -   1   C       0.933174       0.986205

     5   H  -   1   C       0.940706       0.985516

     6   H  -   1   C       0.863852       0.992665
     6   H  -   2   C       0.040737       0.098593
     6   H  -   3   N       0.036923       0.049029

     7   H  -   2   C       0.925350       0.980282
     7   H  -   3   N       0.020566       0.465947

     8   H  -   2   C       0.929922       0.980815

     9   H  -   3   N       0.636749       0.875444
     9   H  -   2   C       0.284506       0.663038

    10   H  -   3   N       0.911999       0.999698


 Valency analysis:

   CEN ATOM   TOT.VALENCE
     1   C       3.924484
     2   C       3.716943
     3   N       2.062755
     4   H       0.967449
     5   H       0.969472
     6   H       0.951183
     7   H       0.964872
     8   H       0.965314
     9   H       0.932717
    10   H       0.914547
 Localization group 2:   2 orbitals, occupancy  1.000
 Iterative localization: IB/PM,    3 iter; Final gradient 0.56E-15

 Bond order analysis:       [THRPRINT= 0.020]

   CEN ATOM   CEN ATOM     WIBERG.BO      RENORM.BO
     1   C  -   2   C       0.022071       1.000000

     2   C  -   3   N       0.393450       1.000000
     2   C  -   6   H       0.043632       0.500000
     2   C  -   1   C       0.022071       1.000000

     3   N  -   2   C       0.393450       1.000000
     3   N  -   6   H       0.031592       0.500000



     6   H  -   2   C       0.043632       0.500000
     6   H  -   3   N       0.031592       0.500000






 Valency analysis:

   CEN ATOM   TOT.VALENCE
     1   C       0.042194
     2   C       0.505855
     3   N       0.487212
     4   H       0.020195
     5   H       0.012274
     6   H       0.080834
     7   H       0.017551
     8   H       0.016135
     9   H       0.030975
    10   H       0.004155

 Total charge composition:

   CEN ATOM         s          p       ELECTRONS ->P.CHARGE
     1   C       3.02190    3.41457      6.43647   -0.43647
     2   C       3.09018    3.31572      6.40590   -0.40590
     3   N       3.72204    3.84368      7.56572   -0.56572
     4   H       0.82978                 0.82978    0.17022
     5   H       0.83145                 0.83145    0.16855
     6   H       0.82125                 0.82125    0.17875
     7   H       0.82143                 0.82143    0.17857
     8   H       0.82189                 0.82189    0.17811
     9   H       0.75635                 0.75635    0.24365
    10   H       0.70976                 0.70976    0.29024

 Total charge composition, AO contributions:

   CEN ATOM SHL      SPHERICAL COMPONENTS
     1   C  1s       1.99187
     1   C  2s       1.03003
     1   C  2p       1.10733    1.10923    1.19802

     2   C  1s       1.99298
     2   C  2s       1.09720
     2   C  2p       1.02624    1.09279    1.19669

     3   N  1s       1.99750
     3   N  2s       1.72454
     3   N  2p       1.29835    1.53589    1.00943

     4   H  1s       0.82978

     5   H  1s       0.83145

     6   H  1s       0.82125

     7   H  1s       0.82143

     8   H  1s       0.82189

     9   H  1s       0.75635

    10   H  1s       0.70976

 Active orbital charges:

   CEN ATOM         s          p       ELECTRONS ->SPIN.DEN
     1   C       0.00016    0.02139      0.02155    0.02155
     2   C       0.02430    0.49592      0.52023    0.52023
     3   N       0.00401    1.36083      1.36484    1.36484
     4   H       0.01020                 0.01020    0.01020
     5   H       0.00618                 0.00618    0.00618
     6   H       0.04220                 0.04220    0.04220
     7   H       0.00885                 0.00885    0.00885
     8   H       0.00813                 0.00813    0.00813
     9   H       0.01574                 0.01574    0.01574
    10   H       0.00208                 0.00208    0.00208

 Active orbital charges, AO contributions:

   CEN ATOM SHL      SPHERICAL COMPONENTS
     1   C  1s       0.00000
     1   C  2s       0.00016
     1   C  2p       0.02034    0.00083    0.00022

     2   C  1s       0.00004
     2   C  2s       0.02427
     2   C  2p       0.39512    0.09738    0.00342

     3   N  1s       0.00004
     3   N  2s       0.00397
     3   N  2p       0.27329    0.09735    0.99019

     4   H  1s       0.01020

     5   H  1s       0.00618

     6   H  1s       0.04220

     7   H  1s       0.00885

     8   H  1s       0.00813

     9   H  1s       0.01574

    10   H  1s       0.00208

 Summary of localized orbital composition:   [THRPRINT= 0.020]

   ORB  GRP  ORB.ENERGY      CENTERS/CHARGES
     1   1   -13.770768      N  3   2.000
     2   1    -9.687386      C  2   2.000
     3   1    -9.665702      C  1   2.000
     4   1    -0.606483      N  3   1.289   H 10   0.707
     5   1    -0.549599      C  2   1.018   C  1   0.970
     6   1    -0.485006      C  2   1.164   H  7   0.803   (other: 0.034)
     7   1    -0.483229      C  2   1.166   H  8   0.805   (other: 0.029)
     8   1    -0.479817      N  3   1.942   C  2   0.036   (other: 0.022)
     9   1    -0.467182      C  1   1.120   H  6   0.767   C  2   0.094
    10   1    -0.450670      C  1   1.157   H  4   0.812   C  2   0.020
    11   1    -0.450414      C  1   1.159   H  5   0.819   (other: 0.023)
    12   1    -0.446167      N  3   0.923   H  9   0.685   C  2   0.372
    13   2    -0.216364      N  3   0.991
    14   2    -0.160071      C  2   0.517   N  3   0.374   H  6   0.042   C  1   0.021   (other: 0.045)

 Localized orbitals saved to record      2200.2  (orbital set 4)


 **********************************************************************************************************************************
 DATASETS  * FILE   NREC   LENGTH (MB)   RECORD NAMES
              1      20      164.74       500      610      700      900      950      970     1000      129      960     1100   
                                          VAR    BASINP    GEOM    SYMINP    ZMAT    AOBASIS   BASIS     P2S    ABASIS      S 
                                         1400     1410     1200     1210     1080     1600     1650     1300     1700     1800   
                                           T        V       H0       H01     AOSYM     SMH    MOLCAS    ERIS     OPER     GRID   

              2       5        3.82       700     1000      520     1800     2200   
                                         GEOM     BASIS   MCVARS    GRID      UKS  

 PROGRAMS   *        TOTAL      IBBA       UKS       INT
 CPU TIMES  *        19.51      0.03     14.75      4.59
 REAL TIME  *        27.04 SEC
 DISK USED  *       619.81 MB      
 **********************************************************************************************************************************
 Molecular orbitals read from record     2200.2  Type=UKS/LOCAL(IBO)  
 Occupation numbers read from record     2200.2  Type=UKS/LOCAL(IBO)  
 Orbital energies read from record       2200.2  Type=UKS/LOCAL(IBO)  
 Redundancy group numbers read from rec  2200.2  Type=UKS/BETA (state 1.1)

 IBBA/TZVP energy=      0.000000000000

        UKS-SCF 
   -133.83095390
 **********************************************************************************************************************************
 Molpro calculation terminated
