
 Primary working directories    : /local
 Secondary working directories  : /local
 Wavefunction directory         : /local/
 Main file repository           : /local/

 SHA1      : b4a5b34a9e711420743f49e6833241d17c61fb3c
 NAME      : 2099.9.b4a5b34
 ARCHNAME  : linux/x86_64_openmp
 FC        : /cm/shared/languages/GCC-6.1/bin/gfortran
 BLASLIB   : -lblas
 id        : simonbennie

 Nodes     nprocs
 node33-043    1

 Using customized tuning parameters: mindgm=1; mindgv=20; mindgc=4; mindgr=1; noblas=0; minvec=7
 default implementation of scratch files=df  

 memory,500,m
 geomtyp=xyz
 nosym
 noorient
 geometry={
 C         -1.39498       -0.44966        0.00070
 C         -0.43575        0.71406        0.00203
 N          1.92757       -0.37835        0.00304
 H         -1.20009       -1.12095       -0.83569
 H         -1.32210       -1.02788        0.92177
 H         -2.42871       -0.10535       -0.08933
 H         -0.41769        1.30848       -0.90720
 H         -0.44113        1.32909        0.89747
 H          0.82850        0.18059       -0.02856
 H          2.47259        0.49807        0.00391
 }
 basis={ default,SV(P) }
 {uks,B-LYP,direct;disp;wf,26,1,2}
 {ibba,bonds=1}

 Variables initialized (895), CPU time= 0.01 sec
 Commands  initialized (725), CPU time= 0.01 sec, 591 directives.
 Default parameters read. Elapsed time= 0.08 sec

 Checking input...
 Passed
1


                                         ***  PROGRAM SYSTEM MOLPRO  ***
                                       Copyright, TTI GmbH Stuttgart, 2015
                                    Version 2099.9 linked May 26 2017 16:03:21


 **********************************************************************************************************************************
 LABEL *                                                                                 
  64 bit serial version                                                                  DATE: 17-Mar-18          TIME: 03:20:57  
 **********************************************************************************************************************************

 SHA1:             b4a5b34a9e711420743f49e6833241d17c61fb3c
 **********************************************************************************************************************************
 SETTING GEOMTYP        =    XYZ

 Variable memory set to  500000000 words,  buffer space 

 ZSYMEL=NOSYM

 SETTING BASIS          =    SV(P)


 Recomputing integrals since basis changed


 Using spherical harmonics

 Library entry C      S def2-SV(P)           selected for orbital group  1
 Library entry C      P def2-SV(P)           selected for orbital group  1
 Library entry C      D def2-SV(P)           selected for orbital group  1
 Library entry N      S def2-SV(P)           selected for orbital group  2
 Library entry N      P def2-SV(P)           selected for orbital group  2
 Library entry N      D def2-SV(P)           selected for orbital group  2
 Library entry H      S def2-SV(P)           selected for orbital group  3


 PROGRAM * SEWARD (Integral evaluation for generally contracted gaussian basis sets)     Author: Roland Lindh, 1990

 Geometry written to block  1 of record 700


 Point group  C1  



 ATOMIC COORDINATES

 NR  ATOM    CHARGE       X              Y              Z

   1  C       6.00   -2.636130149   -0.849734249    0.001322808
   2  C       6.00   -0.823448159    1.349377837    0.003836144
   3  N       7.00    3.642579386   -0.714977879    0.005744767
   4  H       1.00   -2.267841425   -2.118288499   -1.579225225
   5  H       1.00   -2.498406909   -1.942411689    1.741892850
   6  H       1.00   -4.589596736   -0.199082647   -0.168809235
   7  H       1.00   -0.789319705    2.472668839   -1.714359540
   8  H       1.00   -0.833614885    2.511616095    1.695972505
   9  H       1.00    1.565638094    0.341265641   -0.053970578
  10  H       1.00    4.672517918    0.941215891    0.007388829

 Bond lengths in Bohr (Angstrom)

 1-2  2.849897591  1-4  2.059854013  1-5  2.059731960  1-6  2.065992286  2-7  2.053081547
     ( 1.508100859)     ( 1.090027802)     ( 1.089963214)     ( 1.093276036)     ( 1.086443967)

  2- 8  2.052858153   2- 9  2.593716434   3- 9  2.330858517   3-10  1.950321483
       ( 1.086325752)       ( 1.372535628)       ( 1.233437209)       ( 1.032065683)

 Bond angles

  1-2-7  115.59591255   1-2-8  115.75024036   1-2-9  106.61454224   2-1-4  111.23354516

  2-1-5  111.47404485   2-1-6  111.00586724   2-9-3  175.08456843   4-1-5  108.04446468

  4-1-6  107.44676361   5-1-6  107.45054195   7-2-8  112.34332724   7-2-9  100.29346675

  8- 2- 9  104.06268725   9- 3-10   94.91995329

 NUCLEAR CHARGE:                   26
 NUMBER OF PRIMITIVE AOS:         103
 NUMBER OF SYMMETRY AOS:          100
 NUMBER OF CONTRACTIONS:           56   (  56A   )
 NUMBER OF CORE ORBITALS:           3   (   3A   )
 NUMBER OF VALENCE ORBITALS:       19   (  19A   )


 NUCLEAR REPULSION ENERGY   71.85732166


 Eigenvalues of metric

         1 0.397E-02 0.906E-02 0.244E-01 0.429E-01 0.497E-01 0.579E-01 0.646E-01 0.719E-01


 Contracted 2-electron integrals neglected if value below      1.0D-11
 AO integral compression algorithm  1   Integral accuracy      1.0D-11

     5.767 MB (compressed) written to integral file ( 48.5%)


 NUMBER OF SORTED TWO-ELECTRON INTEGRALS:    1274406.     BUFFER LENGTH:  32768
 NUMBER OF SEGMENTS:   1  SEGMENT LENGTH:    1274406      RECORD LENGTH: 524288

 Memory used in sort:       1.83 MW

 SORT1 READ     1515607. AND WROTE     1179944. INTEGRALS IN      4 RECORDS. CPU TIME:     0.02 SEC, REAL TIME:     0.04 SEC
 SORT2 READ     1179944. AND WROTE     1274406. INTEGRALS IN     22 RECORDS. CPU TIME:     0.07 SEC, REAL TIME:     0.08 SEC

 FILE SIZES:   FILE 1:    36.0 MBYTE,  FILE 4:    16.8 MBYTE,   TOTAL:     52.8 MBYTE

 OPERATOR DM      FOR CENTER  0  COORDINATES:    0.000000    0.000000    0.000000


 **********************************************************************************************************************************
 DATASETS  * FILE   NREC   LENGTH (MB)   RECORD NAMES
              1      19       34.92       500      610      700      900      950      970     1000      129      960     1100   
                                          VAR    BASINP    GEOM    SYMINP    ZMAT    AOBASIS   BASIS     P2S    ABASIS      S 
                                         1400     1410     1200     1210     1080     1600     1650     1300     1700   
                                           T        V       H0       H01     AOSYM     SMH    MOLCAS    ERIS     OPER   

 PROGRAMS   *        TOTAL       INT
 CPU TIMES  *         0.61      0.47
 REAL TIME  *         0.93 SEC
 DISK USED  *        53.23 MB      
 **********************************************************************************************************************************

 Density functional group B-LYP=B88+LYP
 Functional: B88(Automatically generated (new) B88)                            Gradient terms: 1
 Functional: LYP(Automatically generated (new) LYP)                            Gradient terms: 1

 dispersion correction activated
 Density functional: B-LYP   

 Functional: B88                       Factor:  1.0000
 Functional: LYP                       Factor:  1.0000

 Use grid at  1800.2

 Functional: B88                       Factor:  1.0000
 Functional: LYP                       Factor:  1.0000

 Generated new metagrid on record  1800.2 with target accuracy 1.0D-06 and 36486 points in CPU time    0.8
 Computed new grid on record 1800.1 in CPU time    0.9
   48643 words reserved for DFT integration

 PROGRAM * UKS-SCF (Unrestricted Kohn-Sham)     Authors: W. Meyer, H.-J. Werner, P.J. Knowles, 1993

 NUMBER OF ELECTRONS:      14+   12-    SPACE SYMMETRY=1    SPIN SYMMETRY: Triplet 
 CONVERGENCE THRESHOLDS:    1.00E-05 (Density)    1.00E-06 (Energy)
 MAX. NUMBER OF ITERATIONS:       60
 INTERPOLATION TYPE:            DIIS
 INTERPOLATION STEPS:              2 (START)      1 (STEP)
 LEVEL SHIFTS:                 -0.20 (ALPHA)  -0.20 (BETA) 



 Use fine grid record 1800.2 for energy threshold  1.0D-06
 Orbital guess generated from atomic densities. Full valence occupancy:   13

 Molecular orbital dump at record        2200.2

 Initial alpha occupation  14
 Initial beta  occupation  12

 ITERATION    DDIFF          GRAD             ENERGY        2-EL.EN.            DIPOLE MOMENTS         DIIS
    1      0.000D+00      0.000D+00      -134.64858558    281.365705    0.10751    0.77655   -0.02418    0
    2      0.230D-01      0.975D-02      -134.78586991    269.469291   -0.29573    0.65159   -0.00864    1
    3      0.750D-02      0.487D-02      -134.82036514    272.650453   -0.21114    0.62145   -0.01239    2
    4      0.158D-02      0.556D-03      -134.82109621    272.658709   -0.24163    0.62524   -0.01216    3
    5      0.925D-03      0.276D-03      -134.82130002    272.569788   -0.24227    0.60641   -0.01180    4
    6      0.453D-03      0.901D-04      -134.82134318    272.567889   -0.24823    0.60618   -0.01171    5
    7      0.138D-03      0.302D-04      -134.82134845    272.564801   -0.25073    0.60540   -0.01173    6
    8      0.395D-04      0.174D-04      -134.82134926    272.562427   -0.25154    0.60598   -0.01172    7
    9      0.226D-04      0.650D-05      -134.82134947    272.562483   -0.25222    0.60626   -0.01174    7
   10      0.789D-05      0.158D-05      -134.82134949    272.562728   -0.25235    0.60634   -0.01176    7
   11      0.212D-05      0.570D-06      -134.82134950    272.562286   -0.25245    0.60639   -0.01176    8

 Dispersion correction
 - - - - - - - - - - - 
  _________________________________
                                   
 |         DFTD3 V1.3 Rev 1        |
 | S.Grimme, University Muenster   |
 | Fri Jul  2 12:48:21 CEST 2010   |
  _________________________________

 Please cite DFT-D3 work done with this code as:
 S. Grimme, J. Antony, S. Ehrlich and H. Krieg,
 J. Chem. Phys, 132 (2010), 154104.
 For DFT-D2 the reference is
 S. Grimme, J. Comput. Chem., 27 (2006), 1787-1799

 C6 coefficients used:
                    2  C6 for element                     1
 Z=  1 CN=   0.912     C6(AA)=    3.03
 Z=  1 CN=   0.000     C6(AA)=    7.59
                    5  C6 for element                     6
 Z=  6 CN=   0.000     C6(AA)=   49.11
 Z=  6 CN=   0.987     C6(AA)=   43.25
 Z=  6 CN=   1.998     C6(AA)=   29.36
 Z=  6 CN=   2.999     C6(AA)=   25.78
 Z=  6 CN=   3.984     C6(AA)=   18.21
                    4  C6 for element                     7
 Z=  7 CN=   0.000     C6(AA)=   25.27
 Z=  7 CN=   0.994     C6(AA)=   22.12
 Z=  7 CN=   2.014     C6(AA)=   19.68
 Z=  7 CN=   2.990     C6(AA)=   15.58

 #           XYZ [au]               R0(AA) [Ang.]   CN       C6(AA)     C8(AA)   C10(AA) [au]
  1  -2.63613  -0.84973   0.00132   c   1.455  3.983        18.3       530.5     18794.6
  2  -0.82345   1.34938   0.00384   c   1.455  3.665        19.6       566.8     20080.9
  3   3.64258  -0.71498   0.00574   n   1.311  1.874        19.8       435.8     11777.6
  4  -2.26784  -2.11829  -1.57923   h   1.091  0.998         3.1        37.4       553.4
  5  -2.49841  -1.94241   1.74189   h   1.091  0.998         3.1        37.4       553.4
  6  -4.58960  -0.19908  -0.16881   h   1.091  0.997         3.1        37.4       553.4
  7  -0.78932   2.47267  -1.71436   h   1.091  0.997         3.1        37.4       553.4
  8  -0.83361   2.51162   1.69597   h   1.091  0.997         3.1        37.4       553.4
  9   1.56564   0.34127  -0.05397   h   1.091  1.516         3.0        36.6       542.1
 10   4.67252   0.94122   0.00739   h   1.091  0.996         3.1        37.4       553.6

 molecular C6(AA) [au] =       645.13

           DFT-D V3
 DF b-lyp                                             
 parameters
 s6       :    1.0000
 s8       :    1.6820
 rs6      :    1.0940
 alpha6   :   14.0000
 alpha8   :   16.0000
 k1-k3    :   16.0000    1.3333   -4.0000

 Edisp /kcal,au:    -2.9095 -0.00463665

 E6    /kcal :    -1.0909
 E8    /kcal :    -1.8186
 % E8        : 62.51
 normal termination of dftd3

 UKS STATE 1.1 ENERGY+DISP     -134.82598614

 Final alpha occupancy:  14
 Final beta  occupancy:  12

 !UKS STATE 1.1 Energy               -134.825986143269
 Nuclear energy                        71.85732166
 One-electron energy                 -322.77420462
 Two-electron energy                  136.28114299
 Density functional                   -20.18560952     B88=-19.38057309 LYP= -0.80503644
 Virial quotient                       -1.00781622
 !UKS STATE 1.1 Dipole moment          -0.25244534     0.60638783    -0.01175900
 Dipole moment /Debye                  -0.64161002     1.54118319    -0.02988644

 Orbital energies for positive spin:

         1.1          2.1          3.1          4.1          5.1          6.1          7.1          8.1          9.1         10.1
    -14.037827    -9.923166    -9.911958    -0.741565    -0.672297    -0.545411    -0.405912    -0.397339    -0.349025    -0.335937

        11.1         12.1         13.1         14.1         15.1         16.1
     -0.310787    -0.290693    -0.247098    -0.170576     0.039152     0.063583

 Orbital energies for negative spin:

         1.1          2.1          3.1          4.1          5.1          6.1          7.1          8.1          9.1         10.1
    -14.011425    -9.914671    -9.912208    -0.689039    -0.656283    -0.534026    -0.393930    -0.385763    -0.337121    -0.329550

        11.1         12.1         13.1         14.1         15.1         16.1
     -0.307981    -0.252666    -0.130679    -0.107804     0.044184     0.069563

 HOMO     14.1    -0.170576 =      -4.6416eV
 LUMO    -13.1    -0.130679 =      -3.5560eV
 LUMO-HOMO         0.039897 =       1.0857eV

 EXPECTATION VALUE OF S**2:             2.00686928

 Occupation number threshold for canonical orbitals:  1.999000 (occupied),  0.001000 (virtual)

 Number of pseudo-canonical orbitals per symmetry:   11
 Number of active natural orbitals per symmetry:      4

 Natural orbitals saved to record    2200.2 (Orbital set 3)

 Orbital spaces for UNO-CAS (Min. occupation: 0.020  Max. occupation: 1.980):

 Closed:       12
 Active:        2


 **********************************************************************************************************************************
 DATASETS  * FILE   NREC   LENGTH (MB)   RECORD NAMES
              1      20       36.09       500      610      700      900      950      970     1000      129      960     1100   
                                          VAR    BASINP    GEOM    SYMINP    ZMAT    AOBASIS   BASIS     P2S    ABASIS      S 
                                         1400     1410     1200     1210     1080     1600     1650     1300     1700     1800   
                                           T        V       H0       H01     AOSYM     SMH    MOLCAS    ERIS     OPER     GRID   

              2       5        3.04       700     1000      520     1800     2200   
                                         GEOM     BASIS   MCVARS    GRID      UKS  

 PROGRAMS   *        TOTAL       UKS       INT
 CPU TIMES  *         6.32      5.71      0.47
 REAL TIME  *         7.08 SEC
 DISK USED  *        53.23 MB      
 **********************************************************************************************************************************


 PROGRAM * Intrinsic Basis Bonding Analysis (IBBA)          Author: G. Knizia

 Molecular orbitals read from record     2200.2  Type=UKS/ALPHA (state 1.1)
 Fock matrix read from record            2200.2  Type=UKS/TOTAL (state 1.1)
 Orbital energies read from record       2200.2  Type=UKS/ALPHA (state 1.1)
 Density matrix read from record         2200.2  Type=UKS/CHARGE (state 1.1)

 Number of core orbitals:           3 (   3 )
 Number of closed-shell orbitals:   9 (   9 )
 Number of active  orbitals:        2 (   2 )

 Basis set MINAO-AUTO-PP generated.      Number of basis functions:   22 

 Polarized AO type:                A = (O Ot + (1-O)(1-Ot)) P12
 Orthogonalization method:         Symmetric (Loewdin)
 Localization functional:          L = sum[A,i] <i|n_A|i>^4 -> max

 Localization group 1:  12 orbitals, occupancy  2.000
 Iterative localization: IB/PM,    8 iter; Final gradient 0.16E-08

 Bond order analysis:       [THRPRINT= 0.020]

   CEN ATOM   CEN ATOM     WIBERG.BO      RENORM.BO
     1   C  -   2   C       1.120595       1.194107
     1   C  -   5   H       0.955270       0.985892
     1   C  -   4   H       0.948985       0.986393
     1   C  -   6   H       0.887769       0.992412
     1   C  -   3   N       0.034293       0.071663

     2   C  -   1   C       1.120595       1.194107
     2   C  -   8   H       0.946148       0.981696
     2   C  -   7   H       0.941871       0.981176
     2   C  -   3   N       0.395320       1.596693
     2   C  -   9   H       0.297990       0.670322
     2   C  -   6   H       0.035914       0.080328

     3   N  -  10   H       0.933245       0.999827
     3   N  -   9   H       0.630772       0.884861
     3   N  -   2   C       0.395320       1.596693
     3   N  -   6   H       0.036021       0.047088
     3   N  -   1   C       0.034293       0.071663

     4   H  -   1   C       0.948985       0.986393

     5   H  -   1   C       0.955270       0.985892

     6   H  -   1   C       0.887769       0.992412
     6   H  -   3   N       0.036021       0.047088
     6   H  -   2   C       0.035914       0.080328

     7   H  -   2   C       0.941871       0.981176

     8   H  -   2   C       0.946148       0.981696

     9   H  -   3   N       0.630772       0.884861
     9   H  -   2   C       0.297990       0.670322

    10   H  -   3   N       0.933245       0.999827


 Valency analysis:

   CEN ATOM   TOT.VALENCE
     1   C       3.951055
     2   C       3.749210
     3   N       2.074336
     4   H       0.979914
     5   H       0.981292
     6   H       0.968206
     7   H       0.977420
     8   H       0.977757
     9   H       0.939211
    10   H       0.935287
 Localization group 2:   2 orbitals, occupancy  1.000
 Iterative localization: IB/PM,    3 iter; Final gradient 0.46E-15

 Bond order analysis:       [THRPRINT= 0.020]

   CEN ATOM   CEN ATOM     WIBERG.BO      RENORM.BO

     2   C  -   3   N       0.406104       1.000000
     2   C  -   6   H       0.039827       0.500000

     3   N  -   2   C       0.406104       1.000000
     3   N  -   6   H       0.031053       0.500000



     6   H  -   2   C       0.039827       0.500000
     6   H  -   3   N       0.031053       0.500000






 Valency analysis:

   CEN ATOM   TOT.VALENCE
     1   C       0.032552
     2   C       0.503143
     3   N       0.487968
     4   H       0.017526
     5   H       0.010284
     6   H       0.075289
     7   H       0.014436
     8   H       0.013173
     9   H       0.025731
    10   H       0.003785

 Total charge composition:

   CEN ATOM         s          p       ELECTRONS ->P.CHARGE
     1   C       3.00016    3.33339      6.33355   -0.33355
     2   C       3.07383    3.27197      6.34579   -0.34579
     3   N       3.72129    3.77451      7.49580   -0.49580
     4   H       0.86712                 0.86712    0.13288
     5   H       0.86839                 0.86839    0.13161
     6   H       0.86087                 0.86087    0.13913
     7   H       0.85700                 0.85700    0.14300
     8   H       0.85749                 0.85749    0.14251
     9   H       0.76648                 0.76648    0.23352
    10   H       0.74751                 0.74751    0.25249

 Total charge composition, AO contributions:

   CEN ATOM SHL      SPHERICAL COMPONENTS
     1   C  1s       1.99104
     1   C  2s       1.00912
     1   C  2p       1.08451    1.08863    1.16024

     2   C  1s       1.99223
     2   C  2s       1.08160
     2   C  2p       1.03039    1.07955    1.16203

     3   N  1s       1.99729
     3   N  2s       1.72399
     3   N  2p       1.26835    1.50119    1.00497

     4   H  1s       0.86712

     5   H  1s       0.86839

     6   H  1s       0.86087

     7   H  1s       0.85700

     8   H  1s       0.85749

     9   H  1s       0.76648

    10   H  1s       0.74751

 Active orbital charges:

   CEN ATOM         s          p       ELECTRONS ->SPIN.DEN
     1   C       0.00016    0.01639      0.01655    0.01655
     2   C       0.02538    0.48453      0.50990    0.50990
     3   N       0.00260    1.38892      1.39152    1.39152
     4   H       0.00884                 0.00884    0.00884
     5   H       0.00517                 0.00517    0.00517
     6   H       0.03918                 0.03918    0.03918
     7   H       0.00727                 0.00727    0.00727
     8   H       0.00663                 0.00663    0.00663
     9   H       0.01304                 0.01304    0.01304
    10   H       0.00190                 0.00190    0.00190

 Active orbital charges, AO contributions:

   CEN ATOM SHL      SPHERICAL COMPONENTS
     1   C  1s       0.00000
     1   C  2s       0.00016
     1   C  2p       0.01610    0.00027    0.00002

     2   C  1s       0.00005
     2   C  2s       0.02533
     2   C  2p       0.39101    0.09170    0.00182

     3   N  1s       0.00004
     3   N  2s       0.00256
     3   N  2p       0.28394    0.11007    0.99491

     4   H  1s       0.00884

     5   H  1s       0.00517

     6   H  1s       0.03918

     7   H  1s       0.00727

     8   H  1s       0.00663

     9   H  1s       0.01304

    10   H  1s       0.00190

 Summary of localized orbital composition:   [THRPRINT= 0.020]

   ORB  GRP  ORB.ENERGY      CENTERS/CHARGES
     1   1   -13.908593      N  3   2.000
     2   1    -9.815215      C  2   2.000
     3   1    -9.799567      C  1   2.000
     4   1    -0.590272      N  3   1.252   H 10   0.745
     5   1    -0.530483      C  2   1.018   C  1   0.971
     6   1    -0.473506      C  2   1.132   H  7   0.841   (other: 0.028)
     7   1    -0.471960      C  2   1.134   H  8   0.843   (other: 0.024)
     8   1    -0.462532      N  3   1.934   C  2   0.040   H  9   0.023
     9   1    -0.454162      C  1   1.092   H  6   0.811   C  2   0.080
    10   1    -0.441039      C  1   1.123   H  4   0.852   (other: 0.026)
    11   1    -0.440959      C  1   1.124   H  5   0.857
    12   1    -0.430715      N  3   0.880   H  9   0.700   C  2   0.403
    13   2    -0.187035      N  3   0.995
    14   2    -0.139403      C  2   0.508   N  3   0.396   H  6   0.039   (other: 0.056)

 Localized orbitals saved to record      2200.2  (orbital set 4)


 **********************************************************************************************************************************
 DATASETS  * FILE   NREC   LENGTH (MB)   RECORD NAMES
              1      20       36.09       500      610      700      900      950      970     1000      129      960     1100   
                                          VAR    BASINP    GEOM    SYMINP    ZMAT    AOBASIS   BASIS     P2S    ABASIS      S 
                                         1400     1410     1200     1210     1080     1600     1650     1300     1700     1800   
                                           T        V       H0       H01     AOSYM     SMH    MOLCAS    ERIS     OPER     GRID   

              2       5        3.07       700     1000      520     1800     2200   
                                         GEOM     BASIS   MCVARS    GRID      UKS  

 PROGRAMS   *        TOTAL      IBBA       UKS       INT
 CPU TIMES  *         6.34      0.02      5.71      0.47
 REAL TIME  *         7.12 SEC
 DISK USED  *        53.23 MB      
 **********************************************************************************************************************************

 IBBA/SV(P) energy=      0.000000000000

        UKS-SCF 
   -134.82598614
 **********************************************************************************************************************************
 Molpro calculation terminated
