
 Primary working directories    : /local
 Secondary working directories  : /local
 Wavefunction directory         : /local/
 Main file repository           : /local/

 SHA1      : b4a5b34a9e711420743f49e6833241d17c61fb3c
 NAME      : 2099.9.b4a5b34
 ARCHNAME  : linux/x86_64_openmp
 FC        : /cm/shared/languages/GCC-6.1/bin/gfortran
 BLASLIB   : -lblas
 id        : simonbennie

 Nodes     nprocs
 node35-048    1

 Using customized tuning parameters: mindgm=1; mindgv=20; mindgc=4; mindgr=1; noblas=0; minvec=7
 default implementation of scratch files=df  

 memory,500,m
 geomtyp=xyz
 nosym
 noorient
 geometry={
 C         -1.48570       -0.44816       -0.00002
 C         -0.50504        0.70174        0.00003
 N          1.86516       -0.34017       -0.00006
 H         -1.35419       -1.07651       -0.88050
 H         -1.35416       -1.07661        0.88038
 H         -2.51702       -0.08617        0.00003
 H         -0.52222        1.31612       -0.89722
 H         -0.52221        1.31603        0.89734
 H          0.66505        0.14796       -0.00003
 H          2.24664        0.15972       -0.80481
 H          2.24644        0.15913        0.80515
 }
 basis={ default,svp }
 {uks,M06,direct;disp;wf,27,1,1}
 {ibba,bonds=1}

 Variables initialized (895), CPU time= 0.00 sec
 Commands  initialized (725), CPU time= 0.02 sec, 591 directives.
 Default parameters read. Elapsed time= 0.08 sec

 Checking input...
 Passed
1


                                         ***  PROGRAM SYSTEM MOLPRO  ***
                                       Copyright, TTI GmbH Stuttgart, 2015
                                    Version 2099.9 linked May 26 2017 16:03:21


 **********************************************************************************************************************************
 LABEL *                                                                                 
  64 bit serial version                                                                  DATE: 17-Mar-18          TIME: 05:27:09  
 **********************************************************************************************************************************

 SHA1:             b4a5b34a9e711420743f49e6833241d17c61fb3c
 **********************************************************************************************************************************
 SETTING GEOMTYP        =    XYZ

 Variable memory set to  500000000 words,  buffer space 

 ZSYMEL=NOSYM

 SETTING BASIS          =    SVP


 Recomputing integrals since basis changed


 Using spherical harmonics

 Library entry C      S def2-SVP             selected for orbital group  1
 Library entry C      P def2-SVP             selected for orbital group  1
 Library entry C      D def2-SVP             selected for orbital group  1
 Library entry N      S def2-SVP             selected for orbital group  2
 Library entry N      P def2-SVP             selected for orbital group  2
 Library entry N      D def2-SVP             selected for orbital group  2
 Library entry H      S def2-SVP             selected for orbital group  3
 Library entry H      P def2-SVP             selected for orbital group  3


 PROGRAM * SEWARD (Integral evaluation for generally contracted gaussian basis sets)     Author: Roland Lindh, 1990

 Geometry written to block  1 of record 700


 Point group  C1  



 ATOMIC COORDINATES

 NR  ATOM    CHARGE       X              Y              Z

   1  C       6.00   -2.807566103   -0.846899660   -0.000037795
   2  C       6.00   -0.954387282    1.326096411    0.000056692
   3  N       7.00    3.524641578   -0.642828136   -0.000113384
   4  H       1.00   -2.559048221   -2.034309070   -1.663903853
   5  H       1.00   -2.558991529   -2.034498043    1.663677086
   6  H       1.00   -4.756478450   -0.162837700    0.000056692
   7  H       1.00   -0.986852777    2.487106347   -1.695500073
   8  H       1.00   -0.986833880    2.486936272    1.695726841
   9  H       1.00    1.256762359    0.279603877   -0.000056692
  10  H       1.00    4.245534300    0.301827057   -1.520870482
  11  H       1.00    4.245156355    0.300712118    1.521512989

 Bond lengths in Bohr (Angstrom)

 1-2  2.855903303  1-4  2.059163059  1-5  2.059156730  1-6  2.065478179  2-7  2.055215518
     ( 1.511278945)     ( 1.089662165)     ( 1.089658815)     ( 1.093003982)     ( 1.087573216)

  2- 8  2.055212694   2- 9  2.446288898   3- 9  2.448296750   3-10  1.929964223   3-11  1.929962842
       ( 1.087571721)       ( 1.294520336)       ( 1.295582846)       ( 1.021293085)       ( 1.021292354)

 Bond angles

  1-2-7  114.80615971   1-2-8  114.80604416   1-2-9  105.13102415   2-1-4  111.12910227

  2-1-5  111.12907805   2-1-6  111.11736483   2-9-3  176.80617971   4-1-5  107.80095467

  4-1-6  107.75173778   5-1-6  107.75073818   7-2-8  111.18308228   7-2-9  104.82699379

  8- 2- 9  104.82895673   9- 3-10   99.30006598   9- 3-11   99.30005848  10- 3-11  104.03470925

 NUCLEAR CHARGE:                   27
 NUMBER OF PRIMITIVE AOS:         131
 NUMBER OF SYMMETRY AOS:          128
 NUMBER OF CONTRACTIONS:           82   (  82A   )
 NUMBER OF CORE ORBITALS:           3   (   3A   )
 NUMBER OF VALENCE ORBITALS:       20   (  20A   )


 NUCLEAR REPULSION ENERGY   78.78492127


 Eigenvalues of metric

         1 0.353E-02 0.788E-02 0.217E-01 0.343E-01 0.344E-01 0.423E-01 0.467E-01 0.571E-01


 Contracted 2-electron integrals neglected if value below      1.0D-11
 AO integral compression algorithm  1   Integral accuracy      1.0D-11

     22.544 MB (compressed) written to integral file ( 44.3%)


 NUMBER OF SORTED TWO-ELECTRON INTEGRALS:    5791906.     BUFFER LENGTH:  32768
 NUMBER OF SEGMENTS:   1  SEGMENT LENGTH:    5791906      RECORD LENGTH: 524288

 Memory used in sort:       6.35 MW

 SORT1 READ     6300337. AND WROTE     5072420. INTEGRALS IN     15 RECORDS. CPU TIME:     0.08 SEC, REAL TIME:     0.16 SEC
 SORT2 READ     5072420. AND WROTE     5791906. INTEGRALS IN     86 RECORDS. CPU TIME:     0.17 SEC, REAL TIME:     0.22 SEC

 FILE SIZES:   FILE 1:    52.9 MBYTE,  FILE 4:    62.9 MBYTE,   TOTAL:    115.9 MBYTE

 OPERATOR DM      FOR CENTER  0  COORDINATES:    0.000000    0.000000    0.000000


 **********************************************************************************************************************************
 DATASETS  * FILE   NREC   LENGTH (MB)   RECORD NAMES
              1      19       49.32       500      610      700      900      950      970     1000      129      960     1100   
                                          VAR    BASINP    GEOM    SYMINP    ZMAT    AOBASIS   BASIS     P2S    ABASIS      S 
                                         1400     1410     1200     1210     1080     1600     1650     1300     1700   
                                           T        V       H0       H01     AOSYM     SMH    MOLCAS    ERIS     OPER   

 PROGRAMS   *        TOTAL       INT
 CPU TIMES  *         1.29      1.14
 REAL TIME  *         1.73 SEC
 DISK USED  *       116.33 MB      
 **********************************************************************************************************************************

 Density functional group M06=XC-M06
 Functional: XC-M06(via MFM 1.6)                                               Gradient terms: 1

 dispersion correction activated
 Density functional: M06     
 functional not in list, set to default 


 Exact exchange will be calculated, factor:  0.2700

 Functional: XC-M06                    Factor:  1.0000

 Use grid at  1800.2


 Exact exchange will be calculated, factor:  0.2700

 Functional: XC-M06                    Factor:  1.0000

 Generated new metagrid on record  1800.2 with target accuracy 1.0D-06 and 39576 points in CPU time    0.9
 Computed new grid on record 1800.1 in CPU time    1.0
   69171 words reserved for DFT integration

 PROGRAM * UKS-SCF (Unrestricted Kohn-Sham)     Authors: W. Meyer, H.-J. Werner, P.J. Knowles, 1993

 NUMBER OF ELECTRONS:      14+   13-    SPACE SYMMETRY=1    SPIN SYMMETRY: Doublet 
 CONVERGENCE THRESHOLDS:    1.00E-05 (Density)    1.00E-06 (Energy)
 MAX. NUMBER OF ITERATIONS:       60
 INTERPOLATION TYPE:            DIIS
 INTERPOLATION STEPS:              2 (START)      1 (STEP)
 LEVEL SHIFTS:                 -0.20 (ALPHA)  -0.20 (BETA) 



 Use fine grid record 1800.2 for energy threshold  1.0D-06
 Orbital guess generated from atomic densities. Full valence occupancy:   14

 Molecular orbital dump at record        2200.2

 Initial alpha occupation  14
 Initial beta  occupation  13

 ITERATION    DDIFF          GRAD             ENERGY        2-EL.EN.            DIPOLE MOMENTS         DIIS
    1      0.000D+00      0.000D+00      -135.34353124    284.701096   -0.13251    1.00419    0.00039    0
    2      0.119D-01      0.587D-02      -135.45296340    274.566784   -0.10625    0.59200    0.00023    1
    3      0.345D-02      0.247D-02      -135.46792982    276.893925   -0.11402    0.67567    0.00026    2
    4      0.999D-03      0.357D-03      -135.46876489    276.799993   -0.07871    0.64136    0.00025    3
    5      0.549D-03      0.192D-03      -135.46904595    276.773047   -0.06677    0.63841    0.00024    4
    6      0.345D-03      0.877D-04      -135.46913057    276.765781   -0.04850    0.63235    0.00024    5
    7      0.131D-03      0.305D-04      -135.46914430    276.760166   -0.03851    0.63042    0.00024    6
    8      0.570D-04      0.994D-05      -135.46914625    276.761263   -0.03419    0.62985    0.00024    7
    9      0.143D-04      0.321D-05      -135.46914642    276.761203   -0.03297    0.62950    0.00024    7
   10      0.786D-05      0.174D-05      -135.46914647    276.760997   -0.03237    0.62937    0.00024    7
   11      0.334D-05      0.792D-06      -135.46914648    276.761395   -0.03212    0.62928    0.00024    8

 Dispersion correction
 - - - - - - - - - - - 
  _________________________________
                                   
 |         DFTD3 V1.3 Rev 1        |
 | S.Grimme, University Muenster   |
 | Fri Jul  2 12:48:21 CEST 2010   |
  _________________________________

 Please cite DFT-D3 work done with this code as:
 S. Grimme, J. Antony, S. Ehrlich and H. Krieg,
 J. Chem. Phys, 132 (2010), 154104.
 For DFT-D2 the reference is
 S. Grimme, J. Comput. Chem., 27 (2006), 1787-1799

 C6 coefficients used:
                    2  C6 for element                     1
 Z=  1 CN=   0.912     C6(AA)=    3.03
 Z=  1 CN=   0.000     C6(AA)=    7.59
                    5  C6 for element                     6
 Z=  6 CN=   0.000     C6(AA)=   49.11
 Z=  6 CN=   0.987     C6(AA)=   43.25
 Z=  6 CN=   1.998     C6(AA)=   29.36
 Z=  6 CN=   2.999     C6(AA)=   25.78
 Z=  6 CN=   3.984     C6(AA)=   18.21
                    4  C6 for element                     7
 Z=  7 CN=   0.000     C6(AA)=   25.27
 Z=  7 CN=   0.994     C6(AA)=   22.12
 Z=  7 CN=   2.014     C6(AA)=   19.68
 Z=  7 CN=   2.990     C6(AA)=   15.58

 #           XYZ [au]               R0(AA) [Ang.]   CN       C6(AA)     C8(AA)   C10(AA) [au]
  1  -2.80757  -0.84690  -0.00004   c   1.455  3.984        18.3       530.5     18793.6
  2  -0.95439   1.32610   0.00006   c   1.455  3.850        18.6       537.5     19041.4
  3   3.52464  -0.64283  -0.00011   n   1.311  2.735        16.1       355.6      9610.5
  4  -2.55905  -2.03431  -1.66390   h   1.091  0.998         3.1        37.4       553.4
  5  -2.55899  -2.03450   1.66368   h   1.091  0.998         3.1        37.4       553.4
  6  -4.75648  -0.16284   0.00006   h   1.091  0.997         3.1        37.4       553.4
  7  -0.98685   2.48711  -1.69550   h   1.091  0.997         3.1        37.4       553.4
  8  -0.98683   2.48694   1.69573   h   1.091  0.997         3.1        37.4       553.4
  9   1.25676   0.27960  -0.00006   h   1.091  1.564         3.0        36.6       542.0
 10   4.24553   0.30183  -1.52087   h   1.091  0.997         3.1        37.4       553.5
 11   4.24516   0.30071   1.52151   h   1.091  0.997         3.1        37.4       553.5

 molecular C6(AA) [au] =       707.20

           DFT-D V3
 DF pbe                                               
 parameters
 s6       :    1.0000
 s8       :    0.7220
 rs6      :    1.2170
 alpha6   :   14.0000
 alpha8   :   16.0000
 k1-k3    :   16.0000    1.3333   -4.0000

 Edisp /kcal,au:    -1.4562 -0.00232067

 E6    /kcal :    -0.6131
 E8    /kcal :    -0.8431
 % E8        : 57.90
 normal termination of dftd3

 UKS STATE 1.1 ENERGY+DISP     -135.47146715

 Final alpha occupancy:  14
 Final beta  occupancy:  13

 !UKS STATE 1.1 Energy               -135.471467146901
 Nuclear energy                        78.78492127
 One-electron energy                 -337.39505287
 Two-electron energy                  138.38069742
 Density functional                   -15.23971229     XC-M06=-15.23971229
 Virial quotient                       -1.01092887
 !UKS STATE 1.1 Dipole moment          -0.03212496     0.62927745     0.00024154
 Dipole moment /Debye                  -0.08164815     1.59935898     0.00061390

 Orbital energies for positive spin:

         1.1          2.1          3.1          4.1          5.1          6.1          7.1          8.1          9.1         10.1
    -14.385652   -10.247133   -10.237763    -0.852065    -0.759740    -0.618821    -0.469327    -0.465627    -0.451018    -0.399211

        11.1         12.1         13.1         14.1         15.1         16.1
     -0.385210    -0.358775    -0.304788    -0.219691     0.062770     0.094782

 Orbital energies for negative spin:

         1.1          2.1          3.1          4.1          5.1          6.1          7.1          8.1          9.1         10.1
    -14.374927   -10.239347   -10.237990    -0.816174    -0.748259    -0.605436    -0.456338    -0.443011    -0.440590    -0.385875

        11.1         12.1         13.1         14.1         15.1         16.1
     -0.372018    -0.354065    -0.272449    -0.080205     0.065533     0.096825

 HOMO     14.1    -0.219691 =      -5.9781eV
 LUMO    -14.1    -0.080205 =      -2.1825eV
 LUMO-HOMO         0.139486 =       3.7956eV

 EXPECTATION VALUE OF S**2:             0.75712109

 Occupation number threshold for canonical orbitals:  1.999000 (occupied),  0.001000 (virtual)

 Number of pseudo-canonical orbitals per symmetry:   12
 Number of active natural orbitals per symmetry:      3

 Natural orbitals saved to record    2200.2 (Orbital set 3)

 Orbital spaces for UNO-CAS (Min. occupation: 0.020  Max. occupation: 1.980):

 Closed:       13
 Active:        1


 **********************************************************************************************************************************
 DATASETS  * FILE   NREC   LENGTH (MB)   RECORD NAMES
              1      20       50.58       500      610      700      900      950      970     1000      129      960     1100   
                                          VAR    BASINP    GEOM    SYMINP    ZMAT    AOBASIS   BASIS     P2S    ABASIS      S 
                                         1400     1410     1200     1210     1080     1600     1650     1300     1700     1800   
                                           T        V       H0       H01     AOSYM     SMH    MOLCAS    ERIS     OPER     GRID   

              2       5        3.21       700     1000      520     1800     2200   
                                         GEOM     BASIS   MCVARS    GRID      UKS  

 PROGRAMS   *        TOTAL       UKS       INT
 CPU TIMES  *        26.06     24.77      1.14
 REAL TIME  *        26.62 SEC
 DISK USED  *       116.33 MB      
 **********************************************************************************************************************************


 PROGRAM * Intrinsic Basis Bonding Analysis (IBBA)          Author: G. Knizia

 Molecular orbitals read from record     2200.2  Type=UKS/ALPHA (state 1.1)
 Fock matrix read from record            2200.2  Type=UKS/TOTAL (state 1.1)
 Orbital energies read from record       2200.2  Type=UKS/ALPHA (state 1.1)
 Density matrix read from record         2200.2  Type=UKS/CHARGE (state 1.1)

 Number of core orbitals:           3 (   3 )
 Number of closed-shell orbitals:  10 (  10 )
 Number of active  orbitals:        1 (   1 )

 Basis set MINAO-AUTO-PP generated.      Number of basis functions:   23 

 Polarized AO type:                A = (O Ot + (1-O)(1-Ot)) P12
 Orthogonalization method:         Symmetric (Loewdin)
 Localization functional:          L = sum[A,i] <i|n_A|i>^4 -> max

 Localization group 1:  13 orbitals, occupancy  2.000
 Iterative localization: IB/PM,    8 iter; Final gradient 0.60E-08

 Bond order analysis:       [THRPRINT= 0.020]

   CEN ATOM   CEN ATOM     WIBERG.BO      RENORM.BO
     1   C  -   2   C       1.108510       1.167453
     1   C  -   4   H       0.950964       0.985879
     1   C  -   5   H       0.950963       0.985879
     1   C  -   6   H       0.882099       0.991776
     1   C  -   3   N       0.044653       0.047764

     2   C  -   1   C       1.108510       1.167453
     2   C  -   8   H       0.943802       0.982202
     2   C  -   7   H       0.943799       0.982202
     2   C  -   3   N       0.397281       0.706421
     2   C  -   9   H       0.352013       0.732128
     2   C  -   6   H       0.032197       0.065987

     3   N  -  10   H       0.929477       0.999911
     3   N  -  11   H       0.929477       0.999911
     3   N  -   9   H       0.568200       0.851388
     3   N  -   2   C       0.397281       0.706421
     3   N  -   1   C       0.044653       0.047764
     3   N  -   6   H       0.041666       0.059279

     4   H  -   1   C       0.950964       0.985879

     5   H  -   1   C       0.950963       0.985879

     6   H  -   1   C       0.882099       0.991776
     6   H  -   3   N       0.041666       0.059279
     6   H  -   2   C       0.032197       0.065987

     7   H  -   2   C       0.943799       0.982202

     8   H  -   2   C       0.943802       0.982202

     9   H  -   3   N       0.568200       0.851388
     9   H  -   2   C       0.352013       0.732128

    10   H  -   3   N       0.929477       0.999911

    11   H  -   3   N       0.929477       0.999911


 Valency analysis:

   CEN ATOM   TOT.VALENCE
     1   C       3.943368
     2   C       3.789298
     3   N       2.947853
     4   H       0.978164
     5   H       0.978164
     6   H       0.963979
     7   H       0.974225
     8   H       0.974226
     9   H       0.933288
    10   H       0.931877
    11   H       0.931877
 Localization group 2:   1 orbitals, occupancy  1.000
 Iterative localization: IB/PM,    1 iter; Final gradient 0.00E+00

 Bond order analysis:       [THRPRINT= 0.020]

   CEN ATOM   CEN ATOM     WIBERG.BO      RENORM.BO

     2   C  -   3   N       0.405484       0.500000
     2   C  -   6   H       0.034893       0.500000

     3   N  -   2   C       0.405484       0.500000
     3   N  -   6   H       0.033977       0.500000



     6   H  -   2   C       0.034893       0.500000
     6   H  -   3   N       0.033977       0.500000







 Valency analysis:

   CEN ATOM   TOT.VALENCE
     1   C       0.039741
     2   C       0.496181
     3   N       0.493799
     4   H       0.011895
     5   H       0.011898
     6   H       0.073546
     7   H       0.011486
     8   H       0.011484
     9   H       0.027713
    10   H       0.003286
    11   H       0.003286

 Total charge composition:

   CEN ATOM         s          p       ELECTRONS ->P.CHARGE
     1   C       3.00596    3.35666      6.36263   -0.36263
     2   C       3.06989    3.30634      6.37623   -0.37623
     3   N       3.53193    4.23682      7.76876   -0.76876
     4   H       0.85821                 0.85821    0.14179
     5   H       0.85821                 0.85821    0.14179
     6   H       0.84844                 0.84844    0.15156
     7   H       0.84523                 0.84523    0.15477
     8   H       0.84523                 0.84523    0.15477
     9   H       0.75577                 0.75577    0.24423
    10   H       0.74064                 0.74064    0.25936
    11   H       0.74064                 0.74064    0.25936

 Total charge composition, AO contributions:

   CEN ATOM SHL      SPHERICAL COMPONENTS
     1   C  1s       1.99100
     1   C  2s       1.01496
     1   C  2p       1.08850    1.09822    1.16994

     2   C  1s       1.99198
     2   C  2s       1.07791
     2   C  2p       1.03264    1.09371    1.18000

     3   N  1s       1.99558
     3   N  2s       1.53635
     3   N  2p       1.28026    1.69020    1.26636

     4   H  1s       0.85821

     5   H  1s       0.85821

     6   H  1s       0.84844

     7   H  1s       0.84523

     8   H  1s       0.84523

     9   H  1s       0.75577

    10   H  1s       0.74064

    11   H  1s       0.74064

 Active orbital charges:

   CEN ATOM         s          p       ELECTRONS ->SPIN.DEN
     1   C       0.00025    0.02003      0.02028    0.02028
     2   C       0.02477    0.43153      0.45630    0.45630
     3   N       0.00824    0.43607      0.44432    0.44432
     4   H       0.00598                 0.00598    0.00598
     5   H       0.00598                 0.00598    0.00598
     6   H       0.03824                 0.03824    0.03824
     7   H       0.00578                 0.00578    0.00578
     8   H       0.00578                 0.00578    0.00578
     9   H       0.01405                 0.01405    0.01405
    10   H       0.00165                 0.00165    0.00165
    11   H       0.00165                 0.00165    0.00165

 Active orbital charges, AO contributions:

   CEN ATOM SHL      SPHERICAL COMPONENTS
     1   C  1s       0.00000
     1   C  2s       0.00025
     1   C  2p       0.01983    0.00020    0.00000

     2   C  1s       0.00005
     2   C  2s       0.02473
     2   C  2p       0.35029    0.08124    0.00000

     3   N  1s       0.00005
     3   N  2s       0.00820
     3   N  2p       0.32488    0.11119    0.00000

     4   H  1s       0.00598

     5   H  1s       0.00598

     6   H  1s       0.03824

     7   H  1s       0.00578

     8   H  1s       0.00578

     9   H  1s       0.01405

    10   H  1s       0.00165

    11   H  1s       0.00165

 Summary of localized orbital composition:   [THRPRINT= 0.020]

   ORB  GRP  ORB.ENERGY      CENTERS/CHARGES
     1   1   -14.249508      N  3   2.000
     2   1   -10.134598      C  2   2.000
     3   1   -10.121257      C  1   2.000
     4   1    -0.646436      N  3   1.259   H 10   0.738
     5   1    -0.646435      N  3   1.259   H 11   0.738
     6   1    -0.602237      C  2   1.017   C  1   0.966
     7   1    -0.531317      C  2   1.147   H  8   0.831   (other: 0.022)
     8   1    -0.531317      C  2   1.147   H  7   0.831   (other: 0.022)
     9   1    -0.513438      C  1   1.101   H  6   0.801   C  2   0.074   N  3   0.022
    10   1    -0.499367      C  1   1.134   H  5   0.846   (other: 0.021)
    11   1    -0.499364      C  1   1.134   H  4   0.846   (other: 0.021)
    12   1    -0.468966      N  3   0.819   H  9   0.684   C  2   0.479
    13   1    -0.390703      N  3   1.948   C  2   0.030   H  9   0.020
    14   2    -0.151007      C  2   0.456   N  3   0.444   H  6   0.038   C  1   0.020   (other: 0.041)

 Localized orbitals saved to record      2200.2  (orbital set 4)


 **********************************************************************************************************************************
 DATASETS  * FILE   NREC   LENGTH (MB)   RECORD NAMES
              1      20       50.58       500      610      700      900      950      970     1000      129      960     1100   
                                          VAR    BASINP    GEOM    SYMINP    ZMAT    AOBASIS   BASIS     P2S    ABASIS      S 
                                         1400     1410     1200     1210     1080     1600     1650     1300     1700     1800   
                                           T        V       H0       H01     AOSYM     SMH    MOLCAS    ERIS     OPER     GRID   

              2       5        3.26       700     1000      520     1800     2200   
                                         GEOM     BASIS   MCVARS    GRID      UKS  

 PROGRAMS   *        TOTAL      IBBA       UKS       INT
 CPU TIMES  *        26.09      0.02     24.77      1.14
 REAL TIME  *        26.65 SEC
 DISK USED  *       116.33 MB      
 **********************************************************************************************************************************

 IBBA/SVP energy=      0.000000000000

        UKS-SCF 
   -135.47146715
 **********************************************************************************************************************************
 Molpro calculation terminated
