
 Primary working directories    : /local
 Secondary working directories  : /local
 Wavefunction directory         : /local/
 Main file repository           : /local/

 SHA1      : b4a5b34a9e711420743f49e6833241d17c61fb3c
 NAME      : 2099.9.b4a5b34
 ARCHNAME  : linux/x86_64_openmp
 FC        : /cm/shared/languages/GCC-6.1/bin/gfortran
 BLASLIB   : -lblas
 id        : simonbennie

 Nodes     nprocs
 node33-001    1

 Using customized tuning parameters: mindgm=1; mindgv=20; mindgc=4; mindgr=1; noblas=0; minvec=7
 default implementation of scratch files=df  

 memory,500,m
 geomtyp=xyz
 nosym
 noorient
 geometry={
 C         -1.48570       -0.44816       -0.00002
 C         -0.50504        0.70174        0.00003
 N          1.86516       -0.34017       -0.00006
 H         -1.35419       -1.07651       -0.88050
 H         -1.35416       -1.07661        0.88038
 H         -2.51702       -0.08617        0.00003
 H         -0.52222        1.31612       -0.89722
 H         -0.52221        1.31603        0.89734
 H          0.66505        0.14796       -0.00003
 H          2.24664        0.15972       -0.80481
 H          2.24644        0.15913        0.80515
 }
 basis={ default,SV(P) }
 {uks,S,direct;wf,27,1,1}
 {ibba,bonds=1}

 Variables initialized (895), CPU time= 0.01 sec
 Commands  initialized (725), CPU time= 0.01 sec, 591 directives.
 Default parameters read. Elapsed time= 0.09 sec

 Checking input...
 Passed
1


                                         ***  PROGRAM SYSTEM MOLPRO  ***
                                       Copyright, TTI GmbH Stuttgart, 2015
                                    Version 2099.9 linked May 26 2017 16:03:21


 **********************************************************************************************************************************
 LABEL *                                                                                 
  64 bit serial version                                                                  DATE: 23-Jun-17          TIME: 18:56:07  
 **********************************************************************************************************************************

 SHA1:             b4a5b34a9e711420743f49e6833241d17c61fb3c
 **********************************************************************************************************************************
 SETTING GEOMTYP        =    XYZ

 Variable memory set to  500000000 words,  buffer space 

 ZSYMEL=NOSYM

 SETTING BASIS          =    SV(P)


 Recomputing integrals since basis changed


 Using spherical harmonics

 Library entry C      S def2-SV(P)           selected for orbital group  1
 Library entry C      P def2-SV(P)           selected for orbital group  1
 Library entry C      D def2-SV(P)           selected for orbital group  1
 Library entry N      S def2-SV(P)           selected for orbital group  2
 Library entry N      P def2-SV(P)           selected for orbital group  2
 Library entry N      D def2-SV(P)           selected for orbital group  2
 Library entry H      S def2-SV(P)           selected for orbital group  3


 PROGRAM * SEWARD (Integral evaluation for generally contracted gaussian basis sets)     Author: Roland Lindh, 1990

 Geometry written to block  1 of record 700


 Point group  C1  



 ATOMIC COORDINATES

 NR  ATOM    CHARGE       X              Y              Z

   1  C       6.00   -2.807566103   -0.846899660   -0.000037795
   2  C       6.00   -0.954387282    1.326096411    0.000056692
   3  N       7.00    3.524641578   -0.642828136   -0.000113384
   4  H       1.00   -2.559048221   -2.034309070   -1.663903853
   5  H       1.00   -2.558991529   -2.034498043    1.663677086
   6  H       1.00   -4.756478450   -0.162837700    0.000056692
   7  H       1.00   -0.986852777    2.487106347   -1.695500073
   8  H       1.00   -0.986833880    2.486936272    1.695726841
   9  H       1.00    1.256762359    0.279603877   -0.000056692
  10  H       1.00    4.245534300    0.301827057   -1.520870482
  11  H       1.00    4.245156355    0.300712118    1.521512989

 Bond lengths in Bohr (Angstrom)

 1-2  2.855903303  1-4  2.059163059  1-5  2.059156730  1-6  2.065478179  2-7  2.055215518
     ( 1.511278945)     ( 1.089662165)     ( 1.089658815)     ( 1.093003982)     ( 1.087573216)

  2- 8  2.055212694   2- 9  2.446288898   3- 9  2.448296750   3-10  1.929964223   3-11  1.929962842
       ( 1.087571721)       ( 1.294520336)       ( 1.295582846)       ( 1.021293085)       ( 1.021292354)

 Bond angles

  1-2-7  114.80615971   1-2-8  114.80604416   1-2-9  105.13102415   2-1-4  111.12910227

  2-1-5  111.12907805   2-1-6  111.11736483   2-9-3  176.80617971   4-1-5  107.80095467

  4-1-6  107.75173778   5-1-6  107.75073818   7-2-8  111.18308228   7-2-9  104.82699379

  8- 2- 9  104.82895673   9- 3-10   99.30006598   9- 3-11   99.30005848  10- 3-11  104.03470925

 NUCLEAR CHARGE:                   27
 NUMBER OF PRIMITIVE AOS:         107
 NUMBER OF SYMMETRY AOS:          104
 NUMBER OF CONTRACTIONS:           58   (  58A   )
 NUMBER OF CORE ORBITALS:           3   (   3A   )
 NUMBER OF VALENCE ORBITALS:       20   (  20A   )


 NUCLEAR REPULSION ENERGY   78.78492127


 Eigenvalues of metric

         1 0.370E-02 0.857E-02 0.239E-01 0.435E-01 0.442E-01 0.527E-01 0.594E-01 0.705E-01


 Contracted 2-electron integrals neglected if value below      1.0D-11
 AO integral compression algorithm  1   Integral accuracy      1.0D-11

     6.554 MB (compressed) written to integral file ( 45.9%)


 NUMBER OF SORTED TWO-ELECTRON INTEGRALS:    1464616.     BUFFER LENGTH:  32768
 NUMBER OF SEGMENTS:   1  SEGMENT LENGTH:    1464616      RECORD LENGTH: 524288

 Memory used in sort:       2.02 MW

 SORT1 READ     1724755. AND WROTE     1336916. INTEGRALS IN      4 RECORDS. CPU TIME:     0.03 SEC, REAL TIME:     0.04 SEC
 SORT2 READ     1336916. AND WROTE     1464616. INTEGRALS IN     25 RECORDS. CPU TIME:     0.07 SEC, REAL TIME:     0.08 SEC

 FILE SIZES:   FILE 1:    36.8 MBYTE,  FILE 4:    16.8 MBYTE,   TOTAL:     53.6 MBYTE

 OPERATOR DM      FOR CENTER  0  COORDINATES:    0.000000    0.000000    0.000000


 **********************************************************************************************************************************
 DATASETS  * FILE   NREC   LENGTH (MB)   RECORD NAMES
              1      19       35.47       500      610      700      900      950      970     1000      129      960     1100   
                                          VAR    BASINP    GEOM    SYMINP    ZMAT    AOBASIS   BASIS     P2S    ABASIS      S 
                                         1400     1410     1200     1210     1080     1600     1650     1300     1700   
                                           T        V       H0       H01     AOSYM     SMH    MOLCAS    ERIS     OPER   

 PROGRAMS   *        TOTAL       INT
 CPU TIMES  *         0.74      0.60
 REAL TIME  *         1.17 SEC
 DISK USED  *        54.07 MB      
 **********************************************************************************************************************************

 Density functional group S=DIRAC
 Functional: DIRAC(Automatically generated (new) DIRAC)                        Gradient terms: 0
 Use grid at  1800.2

 Functional: DIRAC                     Factor:  1.0000

 Generated new metagrid on record  1800.2 with target accuracy 1.0D-06 and 39576 points in CPU time    0.9
 Computed new grid on record 1800.1 in CPU time    1.0
   28169 words reserved for DFT integration

 PROGRAM * UKS-SCF (Unrestricted Kohn-Sham)     Authors: W. Meyer, H.-J. Werner, P.J. Knowles, 1993

 NUMBER OF ELECTRONS:      14+   13-    SPACE SYMMETRY=1    SPIN SYMMETRY: Doublet 
 CONVERGENCE THRESHOLDS:    1.00E-05 (Density)    1.00E-06 (Energy)
 MAX. NUMBER OF ITERATIONS:       60
 INTERPOLATION TYPE:            DIIS
 INTERPOLATION STEPS:              2 (START)      1 (STEP)
 LEVEL SHIFTS:                 -0.20 (ALPHA)  -0.20 (BETA) 



 Use fine grid record 1800.2 for energy threshold  1.0D-06
 Orbital guess generated from atomic densities. Full valence occupancy:   14

 Molecular orbital dump at record        2200.2

 Initial alpha occupation  14
 Initial beta  occupation  13

 ITERATION    DDIFF          GRAD             ENERGY        2-EL.EN.            DIPOLE MOMENTS         DIIS
    1      0.000D+00      0.000D+00      -132.46345770    296.535973    0.10663    0.99524    0.00041    0
    2      0.241D-01      0.101D-01      -132.60819807    282.124527   -0.05628    0.61965    0.00025    1
    3      0.826D-02      0.553D-02      -132.65170968    286.472347   -0.06024    0.71282    0.00028    2
    4      0.195D-02      0.476D-03      -132.65248199    286.302185   -0.04685    0.67145    0.00027    3
    5      0.876D-03      0.303D-03      -132.65270213    286.287120   -0.05875    0.67211    0.00027    4
    6      0.686D-03      0.103D-03      -132.65276136    286.265648   -0.05564    0.66182    0.00026    5
    7      0.208D-03      0.323D-04      -132.65276781    286.264762   -0.05657    0.66061    0.00026    6
    8      0.477D-04      0.117D-04      -132.65276841    286.263203   -0.05599    0.66020    0.00026    7
    9      0.152D-04      0.641D-05      -132.65276855    286.263446   -0.05576    0.65991    0.00026    7
   10      0.824D-05      0.214D-05      -132.65276859    286.263675   -0.05545    0.65981    0.00026    7
   11      0.478D-05      0.791D-06      -132.65276860    286.263332   -0.05532    0.65975    0.00026    8

 Final alpha occupancy:  14
 Final beta  occupancy:  13

 !UKS STATE 1.1 Energy               -132.652768599188
 Nuclear energy                        78.78492127
 One-electron energy                 -336.90683865
 Two-electron energy                  143.13166601
 Density functional                   -17.66251723     DIRAC=-17.66251723
 Virial quotient                       -0.99328669
 !UKS STATE 1.1 Dipole moment          -0.05531541     0.65975398     0.00026055
 Dipole moment /Debye                  -0.14058855     1.67681752     0.00066220

 Orbital energies for positive spin:

         1.1          2.1          3.1          4.1          5.1          6.1          7.1          8.1          9.1         10.1
    -13.771250    -9.708635    -9.695692    -0.706098    -0.626852    -0.497082    -0.363947    -0.363192    -0.348433    -0.299769

        11.1         12.1         13.1         14.1         15.1         16.1
     -0.284946    -0.258511    -0.189775    -0.129742     0.062054     0.096256

 Orbital energies for negative spin:

         1.1          2.1          3.1          4.1          5.1          6.1          7.1          8.1          9.1         10.1
    -13.756327    -9.698172    -9.695972    -0.678114    -0.615959    -0.485300    -0.352759    -0.344003    -0.340577    -0.287791

        11.1         12.1         13.1         14.1         15.1         16.1
     -0.274833    -0.254156    -0.165431    -0.075868     0.067065     0.100884

 HOMO     14.1    -0.129742 =      -3.5305eV
 LUMO    -14.1    -0.075868 =      -2.0645eV
 LUMO-HOMO         0.053874 =       1.4660eV

 EXPECTATION VALUE OF S**2:             0.75405783

 Occupation number threshold for canonical orbitals:  1.999000 (occupied),  0.001000 (virtual)

 Number of pseudo-canonical orbitals per symmetry:   13
 Number of active natural orbitals per symmetry:      1

 Natural orbitals saved to record    2200.2 (Orbital set 3)

 Orbital spaces for UNO-CAS (Min. occupation: 0.020  Max. occupation: 1.980):

 Closed:       13
 Active:        1


 **********************************************************************************************************************************
 DATASETS  * FILE   NREC   LENGTH (MB)   RECORD NAMES
              1      20       36.74       500      610      700      900      950      970     1000      129      960     1100   
                                          VAR    BASINP    GEOM    SYMINP    ZMAT    AOBASIS   BASIS     P2S    ABASIS      S 
                                         1400     1410     1200     1210     1080     1600     1650     1300     1700     1800   
                                           T        V       H0       H01     AOSYM     SMH    MOLCAS    ERIS     OPER     GRID   

              2       5        3.07       700     1000      520     1800     2200   
                                         GEOM     BASIS   MCVARS    GRID      UKS  

 PROGRAMS   *        TOTAL       UKS       INT
 CPU TIMES  *         4.91      4.17      0.60
 REAL TIME  *         6.28 SEC
 DISK USED  *        54.07 MB      
 **********************************************************************************************************************************


 PROGRAM * Intrinsic Basis Bonding Analysis (IBBA)          Author: G. Knizia

 Molecular orbitals read from record     2200.2  Type=UKS/ALPHA (state 1.1)
 Fock matrix read from record            2200.2  Type=UKS/TOTAL (state 1.1)
 Orbital energies read from record       2200.2  Type=UKS/ALPHA (state 1.1)
 Density matrix read from record         2200.2  Type=UKS/CHARGE (state 1.1)

 Number of core orbitals:           3 (   3 )
 Number of closed-shell orbitals:  10 (  10 )
 Number of active  orbitals:        1 (   1 )

 Basis set MINAO-AUTO-PP generated.      Number of basis functions:   23 

 Polarized AO type:                A = (O Ot + (1-O)(1-Ot)) P12
 Orthogonalization method:         Symmetric (Loewdin)
 Localization functional:          L = sum[A,i] <i|n_A|i>^4 -> max

 Localization group 1:  13 orbitals, occupancy  2.000
 Iterative localization: IB/PM,    8 iter; Final gradient 0.19E-08

 Bond order analysis:       [THRPRINT= 0.020]

   CEN ATOM   CEN ATOM     WIBERG.BO      RENORM.BO
     1   C  -   2   C       1.108860       1.154023
     1   C  -   4   H       0.946737       0.983990
     1   C  -   5   H       0.946736       0.983991
     1   C  -   6   H       0.883088       0.990760
     1   C  -   3   N       0.046831       0.052874

     2   C  -   1   C       1.108860       1.154023
     2   C  -   8   H       0.943413       0.980422
     2   C  -   7   H       0.943410       0.980422
     2   C  -   3   N       0.415101       0.715728
     2   C  -   9   H       0.375600       0.707105
     2   C  -   6   H       0.028934       0.054485

     3   N  -  11   H       0.938447       0.999738
     3   N  -  10   H       0.938447       0.999738
     3   N  -   9   H       0.558989       0.851948
     3   N  -   2   C       0.415101       0.715728
     3   N  -   1   C       0.046831       0.052874
     3   N  -   6   H       0.042748       0.065273

     4   H  -   1   C       0.946737       0.983990

     5   H  -   1   C       0.946736       0.983991

     6   H  -   1   C       0.883088       0.990760
     6   H  -   3   N       0.042748       0.065273
     6   H  -   2   C       0.028934       0.054485

     7   H  -   2   C       0.943410       0.980422

     8   H  -   2   C       0.943413       0.980422

     9   H  -   3   N       0.558989       0.851948
     9   H  -   2   C       0.375600       0.707105

    10   H  -   3   N       0.938447       0.999738

    11   H  -   3   N       0.938447       0.999738


 Valency analysis:

   CEN ATOM   TOT.VALENCE
     1   C       3.938546
     2   C       3.825472
     3   N       2.978863
     4   H       0.977507
     5   H       0.977508
     6   H       0.965253
     7   H       0.975398
     8   H       0.975399
     9   H       0.948562
    10   H       0.940489
    11   H       0.940489
 Localization group 2:   1 orbitals, occupancy  1.000
 Iterative localization: IB/PM,    1 iter; Final gradient 0.00E+00

 Bond order analysis:       [THRPRINT= 0.020]

   CEN ATOM   CEN ATOM     WIBERG.BO      RENORM.BO

     2   C  -   3   N       0.409551       0.500000
     2   C  -   6   H       0.031766       0.500000

     3   N  -   2   C       0.409551       0.500000
     3   N  -   6   H       0.035250       0.500000



     6   H  -   3   N       0.035250       0.500000
     6   H  -   2   C       0.031766       0.500000







 Valency analysis:

   CEN ATOM   TOT.VALENCE
     1   C       0.037983
     2   C       0.490081
     3   N       0.498913
     4   H       0.012251
     5   H       0.012253
     6   H       0.071213
     7   H       0.010309
     8   H       0.010307
     9   H       0.021779
    10   H       0.003685
    11   H       0.003685

 Total charge composition:

   CEN ATOM         s          p       ELECTRONS ->P.CHARGE
     1   C       2.98908    3.37813      6.36721   -0.36721
     2   C       3.05290    3.33579      6.38868   -0.38868
     3   N       3.52411    4.16038      7.68449   -0.68449
     4   H       0.85619                 0.85619    0.14381
     5   H       0.85619                 0.85619    0.14381
     6   H       0.85057                 0.85057    0.14943
     7   H       0.84833                 0.84833    0.15167
     8   H       0.84833                 0.84833    0.15167
     9   H       0.78421                 0.78421    0.21579
    10   H       0.75790                 0.75790    0.24210
    11   H       0.75790                 0.75790    0.24210

 Total charge composition, AO contributions:

   CEN ATOM SHL      SPHERICAL COMPONENTS
     1   C  1s       1.99206
     1   C  2s       0.99703
     1   C  2p       1.09508    1.10349    1.17956

     2   C  1s       1.99296
     2   C  2s       1.05994
     2   C  2p       1.05167    1.09921    1.18490

     3   N  1s       1.99606
     3   N  2s       1.52806
     3   N  2p       1.25529    1.65317    1.25191

     4   H  1s       0.85619

     5   H  1s       0.85619

     6   H  1s       0.85057

     7   H  1s       0.84833

     8   H  1s       0.84833

     9   H  1s       0.78421

    10   H  1s       0.75790

    11   H  1s       0.75790

 Active orbital charges:

   CEN ATOM         s          p       ELECTRONS ->SPIN.DEN
     1   C       0.00024    0.01913      0.01937    0.01937
     2   C       0.02517    0.40441      0.42958    0.42958
     3   N       0.00618    0.47051      0.47669    0.47669
     4   H       0.00616                 0.00616    0.00616
     5   H       0.00616                 0.00616    0.00616
     6   H       0.03697                 0.03697    0.03697
     7   H       0.00518                 0.00518    0.00518
     8   H       0.00518                 0.00518    0.00518
     9   H       0.01101                 0.01101    0.01101
    10   H       0.00185                 0.00185    0.00185
    11   H       0.00185                 0.00185    0.00185

 Active orbital charges, AO contributions:

   CEN ATOM SHL      SPHERICAL COMPONENTS
     1   C  1s       0.00000
     1   C  2s       0.00023
     1   C  2p       0.01881    0.00033    0.00000

     2   C  1s       0.00004
     2   C  2s       0.02513
     2   C  2p       0.32843    0.07598    0.00000

     3   N  1s       0.00004
     3   N  2s       0.00614
     3   N  2p       0.32723    0.14328    0.00000

     4   H  1s       0.00616

     5   H  1s       0.00616

     6   H  1s       0.03697

     7   H  1s       0.00518

     8   H  1s       0.00518

     9   H  1s       0.01101

    10   H  1s       0.00185

    11   H  1s       0.00185

 Summary of localized orbital composition:   [THRPRINT= 0.020]

   ORB  GRP  ORB.ENERGY      CENTERS/CHARGES
     1   1   -13.648365      N  3   2.000
     2   1    -9.602491      C  2   2.000
     3   1    -9.587313      C  1   2.000
     4   1    -0.522773      N  3   1.242   H 11   0.756
     5   1    -0.522773      N  3   1.242   H 10   0.756
     6   1    -0.486497      C  2   1.014   C  1   0.969
     7   1    -0.417438      C  2   1.143   H  8   0.835   (other: 0.022)
     8   1    -0.417438      C  2   1.143   H  7   0.835   (other: 0.022)
     9   1    -0.403603      C  1   1.100   H  6   0.804   C  2   0.067   N  3   0.026
    10   1    -0.389969      C  1   1.135   H  5   0.842   (other: 0.022)
    11   1    -0.389966      C  1   1.135   H  4   0.842   (other: 0.022)
    12   1    -0.376952      N  3   0.747   H  9   0.716   C  2   0.525
    13   1    -0.264019      N  3   1.928   C  2   0.040   H  9   0.028
    14   2    -0.102940      N  3   0.477   C  2   0.430   H  6   0.037   (other: 0.057)

 Localized orbitals saved to record      2200.2  (orbital set 4)


 **********************************************************************************************************************************
 DATASETS  * FILE   NREC   LENGTH (MB)   RECORD NAMES
              1      20       36.74       500      610      700      900      950      970     1000      129      960     1100   
                                          VAR    BASINP    GEOM    SYMINP    ZMAT    AOBASIS   BASIS     P2S    ABASIS      S 
                                         1400     1410     1200     1210     1080     1600     1650     1300     1700     1800   
                                           T        V       H0       H01     AOSYM     SMH    MOLCAS    ERIS     OPER     GRID   

              2       5        3.10       700     1000      520     1800     2200   
                                         GEOM     BASIS   MCVARS    GRID      UKS  

 PROGRAMS   *        TOTAL      IBBA       UKS       INT
 CPU TIMES  *         4.93      0.02      4.17      0.60
 REAL TIME  *         6.38 SEC
 DISK USED  *        54.07 MB      
 **********************************************************************************************************************************
 Molecular orbitals read from record     2200.2  Type=UKS/LOCAL(IBO)  
 Occupation numbers read from record     2200.2  Type=UKS/LOCAL(IBO)  
 Orbital energies read from record       2200.2  Type=UKS/LOCAL(IBO)  
 Redundancy group numbers read from rec  2200.2  Type=UKS/BETA (state 1.1)

 IBBA/SV(P) energy=      0.000000000000

        UKS-SCF 
   -132.65276860
 **********************************************************************************************************************************
 Molpro calculation terminated
