
 Primary working directories    : /local
 Secondary working directories  : /local
 Wavefunction directory         : /local/
 Main file repository           : /local/

 SHA1      : b4a5b34a9e711420743f49e6833241d17c61fb3c
 NAME      : 2099.9.b4a5b34
 ARCHNAME  : linux/x86_64_openmp
 FC        : /cm/shared/languages/GCC-6.1/bin/gfortran
 BLASLIB   : -lblas
 id        : simonbennie

 Nodes     nprocs
 node32-006    1

 Using customized tuning parameters: mindgm=1; mindgv=20; mindgc=4; mindgr=1; noblas=0; minvec=7
 default implementation of scratch files=df  

 memory,500,m
 geomtyp=xyz
 nosym
 noorient
 geometry={
 C         -1.29962       -0.90485       -0.02015
 C         -1.20595        0.50582       -0.01341
 C          0.00000        1.18336        0.15330
 C          1.20595        0.50581       -0.01342
 C          1.29963       -0.90485       -0.02015
 H          2.16880       -1.32755       -0.51570
 H          1.03204       -1.45439        0.87317
 H          2.03713        1.08558       -0.39850
 H          0.00000        2.26291        0.08590
 H         -2.03713        1.08559       -0.39848
 H         -2.16880       -1.32754       -0.51572
 H         -0.00001       -1.18194       -0.52081
 H         -1.03206       -1.45439        0.87316
 }
 basis={ default,sto-3g }
 {ks,SOGGA,direct;wf,38,1,0}
 {ibba,bonds=1}

 Variables initialized (895), CPU time= 0.00 sec
 Commands  initialized (725), CPU time= 0.02 sec, 591 directives.
 Default parameters read. Elapsed time= 0.08 sec

 Checking input...
 Passed
1


                                         ***  PROGRAM SYSTEM MOLPRO  ***
                                       Copyright, TTI GmbH Stuttgart, 2015
                                    Version 2099.9 linked May 26 2017 16:03:21


 **********************************************************************************************************************************
 LABEL *                                                                                 
  64 bit serial version                                                                  DATE: 23-Jun-17          TIME: 23:51:29  
 **********************************************************************************************************************************

 SHA1:             b4a5b34a9e711420743f49e6833241d17c61fb3c
 **********************************************************************************************************************************
 SETTING GEOMTYP        =    XYZ

 Variable memory set to  500000000 words,  buffer space 

 ZSYMEL=NOSYM

 SETTING BASIS          =    STO-3G


 Recomputing integrals since basis changed


 Using spherical harmonics

 Library entry C      S STO-3G               selected for orbital group  1
 Library entry C      P STO-3G               selected for orbital group  1
 Library entry H      S STO-3G               selected for orbital group  2


 PROGRAM * SEWARD (Integral evaluation for generally contracted gaussian basis sets)     Author: Roland Lindh, 1990

 Geometry written to block  1 of record 700


 Point group  C1  



 ATOMIC COORDINATES

 NR  ATOM    CHARGE       X              Y              Z

   1  C       6.00   -2.455925866   -1.709918684   -0.038077981
   2  C       6.00   -2.278915220    0.955861268   -0.025341227
   3  C       6.00    0.000000000    2.236226307    0.289695015
   4  C       6.00    2.278915220    0.955842371   -0.025360125
   5  C       6.00    2.455944763   -1.709918684   -0.038077981
   6  H       1.00    4.098438019   -2.508705917   -0.974531762
   7  H       1.00    1.950272950   -2.748398778    1.650052160
   8  H       1.00    3.849617780    2.051448886   -0.753055861
   9  H       1.00    0.000000000    4.276280145    0.162327474
  10  H       1.00   -3.849617780    2.051467784   -0.753018066
  11  H       1.00   -4.098438019   -2.508687019   -0.974569557
  12  H       1.00   -0.000018897   -2.233542896   -0.984188263
  13  H       1.00   -1.950310744   -2.748398778    1.650033263

 Bond lengths in Bohr (Angstrom)

  1- 2  2.671680697   1-11  2.052533434   1-12  2.683428035   1-13  2.045435683   2- 3  2.632876193
       ( 1.413792540)       ( 1.086153918)       ( 1.420008963)       ( 1.082397950)       ( 1.393258080)

  2-10  2.048651691   3- 4  2.632887643   3- 9  2.044025966   4- 5  2.671663004   4- 8  2.048658403
       ( 1.084099788)       ( 1.393264140)       ( 1.081651960)       ( 1.413783177)       ( 1.084103340)

  5- 6  2.052508422   5- 7  2.045465293   5-12  2.683479920
       ( 1.086140682)       ( 1.082413619)       ( 1.420036420)

 Bond angles

  1- 2- 3  122.89782778   1- 2-10  118.75871624   1-12- 5  132.47234294   2- 1-11  116.32721645

  2- 1-12   97.80173434   2- 1-13  119.09588828   2- 3- 4  119.89324472   2- 3- 9  118.54820900

  3- 2-10  116.49102536   3- 4- 5  122.89852837   3- 4- 8  116.49079575   4- 3- 9  118.54851150

  4- 5- 6  116.32827193   4- 5- 7  119.09554722   4- 5-12   97.80095519   5- 4- 8  118.75838114

  6- 5- 7  112.13503634   6- 5-12  119.70875871   7- 5-12   88.03169400  11- 1-12  119.70812329

 11- 1-13  112.13482699  12- 1-13   88.03319435

 NUCLEAR CHARGE:                   38
 NUMBER OF PRIMITIVE AOS:          99
 NUMBER OF SYMMETRY AOS:           99
 NUMBER OF CONTRACTIONS:           33   (  33A   )
 NUMBER OF CORE ORBITALS:           5   (   5A   )
 NUMBER OF VALENCE ORBITALS:       28   (  28A   )


 NUCLEAR REPULSION ENERGY  164.93668795


 Eigenvalues of metric

         1 0.184E+00 0.213E+00 0.226E+00 0.252E+00 0.296E+00 0.304E+00 0.313E+00 0.330E+00


 Contracted 2-electron integrals neglected if value below      1.0D-11
 AO integral compression algorithm  1   Integral accuracy      1.0D-11

     1.311 MB (compressed) written to integral file ( 78.6%)


 NUMBER OF SORTED TWO-ELECTRON INTEGRALS:     157641.     BUFFER LENGTH:  32768
 NUMBER OF SEGMENTS:   1  SEGMENT LENGTH:     157641      RECORD LENGTH: 524288

 Memory used in sort:       0.71 MW

 SORT1 READ      179750. AND WROTE      152549. INTEGRALS IN      1 RECORDS. CPU TIME:     0.00 SEC, REAL TIME:     0.01 SEC
 SORT2 READ      152549. AND WROTE      157641. INTEGRALS IN      5 RECORDS. CPU TIME:     0.03 SEC, REAL TIME:     0.02 SEC

 FILE SIZES:   FILE 1:    31.5 MBYTE,  FILE 4:     4.2 MBYTE,   TOTAL:     35.7 MBYTE

 OPERATOR DM      FOR CENTER  0  COORDINATES:    0.000000    0.000000    0.000000


 **********************************************************************************************************************************
 DATASETS  * FILE   NREC   LENGTH (MB)   RECORD NAMES
              1      19       30.88       500      610      700      900      950      970     1000      129      960     1100   
                                          VAR    BASINP    GEOM    SYMINP    ZMAT    AOBASIS   BASIS     P2S    ABASIS      S 
                                         1400     1410     1200     1210     1080     1600     1650     1300     1700   
                                           T        V       H0       H01     AOSYM     SMH    MOLCAS    ERIS     OPER   

 PROGRAMS   *        TOTAL       INT
 CPU TIMES  *         0.53      0.38
 REAL TIME  *         0.83 SEC
 DISK USED  *        36.21 MB      
 **********************************************************************************************************************************

 Density functional group SOGGA=XC-SOGGA
 Functional: XC-SOGGA(via MFM 1.6)                                             Gradient terms: 1
 Use grid at  1800.2

 Functional: XC-SOGGA                  Factor:  1.0000

 Generated new metagrid on record  1800.2 with target accuracy 1.0D-06 and 48308 points in CPU time    1.3
 Computed new grid on record 1800.1 in CPU time    1.4
   30715 words reserved for DFT integration

 PROGRAM * RKS-SCF (Restricted closed shell Kohn-Sham)     Authors: W. Meyer, H.-J. Werner, P.J. Knowles, 1993

 NUMBER OF ELECTRONS:      19+   19-    SPACE SYMMETRY=1    SPIN SYMMETRY: Singlet 
 CONVERGENCE THRESHOLDS:    1.00E-05 (Density)    1.00E-06 (Energy)
 MAX. NUMBER OF ITERATIONS:       60
 INTERPOLATION TYPE:            DIIS
 INTERPOLATION STEPS:              2 (START)      1 (STEP)
 LEVEL SHIFTS:                  0.00 (CLOSED)  0.00 (OPEN) 



 Use fine grid record 1800.2 for energy threshold  1.0D-06
 Orbital guess generated from atomic densities. Full valence occupancy:   19

 Molecular orbital dump at record        2100.2

 Initial occupancy:  19

 ITERATION    DDIFF          GRAD             ENERGY        2-EL.EN.            DIPOLE MOMENTS         DIIS   ORB.
    1      0.000D+00      0.000D+00      -191.33050638    528.186392    0.00001   -0.42245   -0.26447    0    start
    2      0.000D+00      0.246D-01      -191.38277010    507.682453   -0.00001    0.59893    0.19797    1    diag
    3      0.853D-01      0.217D-01      -191.55857672    517.095479    0.00002   -0.46452   -0.14296    2    diag
    4      0.424D-01      0.367D-02      -191.56391415    516.974240   -0.00000    0.01004   -0.06251    3    diag
    5      0.767D-02      0.850D-03      -191.56408181    516.951968    0.00000   -0.05434   -0.06424    4    diag
    6      0.217D-02      0.536D-03      -191.56417628    516.941129    0.00000   -0.05075   -0.06510    5    diag
    7      0.990D-03      0.810D-04      -191.56417905    516.942666    0.00000   -0.05468   -0.06623    6    diag
    8      0.159D-03      0.521D-05      -191.56417907    516.942319    0.00000   -0.05365   -0.06625    7    diag
    9      0.140D-04      0.953D-06      -191.56417907    516.942370    0.00001   -0.05382   -0.06624    8    diag
   10      0.217D-05      0.623D-07      -191.56417907    516.942375   -0.00001   -0.05381   -0.06624    0    orth

 Final occupancy:  19

 !RKS STATE 1.1 Energy               -191.564179070951
 Nuclear energy                       164.93668795
 One-electron energy                 -586.17631439
 Two-electron energy                  258.47118756
 Density functional                   -28.79574020     XC-SOGGA=-28.79574020
 Virial quotient                       -1.00857782
 !RKS STATE 1.1 Dipole moment          -0.00000514    -0.05381114    -0.06624336
 Dipole moment /Debye                  -0.00001307    -0.13676532    -0.16836280

 Orbital energies:

         1.1          2.1          3.1          4.1          5.1          6.1          7.1          8.1          9.1         10.1
     -9.630009    -9.629983    -9.624219    -9.620601    -9.620391    -0.696371    -0.615083    -0.573480    -0.479199    -0.427328

        11.1         12.1         13.1         14.1         15.1         16.1         17.1         18.1         19.1         20.1
     -0.395516    -0.325433    -0.312573    -0.310418    -0.287169    -0.261135    -0.250149    -0.159575    -0.121767     0.046606

        21.1
      0.112844

 HOMO     19.1    -0.121767 =      -3.3134eV
 LUMO     20.1     0.046606 =       1.2682eV
 LUMO-HOMO         0.168373 =       4.5817eV


 **********************************************************************************************************************************
 DATASETS  * FILE   NREC   LENGTH (MB)   RECORD NAMES
              1      20       32.43       500      610      700      900      950      970     1000      129      960     1100   
                                          VAR    BASINP    GEOM    SYMINP    ZMAT    AOBASIS   BASIS     P2S    ABASIS      S 
                                         1400     1410     1200     1210     1080     1600     1650     1300     1700     1800   
                                           T        V       H0       H01     AOSYM     SMH    MOLCAS    ERIS     OPER     GRID   

              2       5        2.98       700     1000      520     1800     2100   
                                         GEOM     BASIS   MCVARS    GRID      RKS  

 PROGRAMS   *        TOTAL        KS       INT
 CPU TIMES  *         5.21      4.68      0.38
 REAL TIME  *         5.75 SEC
 DISK USED  *        36.21 MB      
 **********************************************************************************************************************************


 PROGRAM * Intrinsic Basis Bonding Analysis (IBBA)          Author: G. Knizia

 Molecular orbitals read from record     2100.2  Type=RKS/CANONICAL (state 1.1)
 Fock matrix read from record            2100.2  Type=RKS/TOTAL (state 1.1)
 Orbital energies read from record       2100.2  Type=RKS/CANONICAL (state 1.1)
 Density matrix read from record         2100.2  Type=RKS/CHARGE (state 1.1)

 Number of core orbitals:           5 (   5 )
 Number of closed-shell orbitals:  14 (  14 )

 Basis set MINAO-AUTO-PP generated.      Number of basis functions:   33 

 Polarized AO type:                A = (O Ot + (1-O)(1-Ot)) P12
 Orthogonalization method:         Symmetric (Loewdin)
 Localization functional:          L = sum[A,i] <i|n_A|i>^4 -> max

 Localization group 1:  19 orbitals, occupancy  2.000
 Iterative localization: IB/PM,   13 iter; Final gradient 0.38E-08

 Bond order analysis:       [THRPRINT= 0.020]

   CEN ATOM   CEN ATOM     WIBERG.BO      RENORM.BO
     1   C  -   2   C       1.379781       1.352545
     1   C  -  11   H       0.956334       0.978704
     1   C  -  13   H       0.935378       0.971505
     1   C  -  12   H       0.463841       0.501157
     1   C  -   4   C       0.153959       0.143168

     2   C  -   3   C       1.460376       1.456098
     2   C  -   1   C       1.379781       1.352545
     2   C  -  10   H       0.937475       0.964191
     2   C  -   5   C       0.153966       0.143175

     3   C  -   2   C       1.460376       1.456098
     3   C  -   4   C       1.460341       1.456062
     3   C  -   9   H       0.944174       0.969636
     3   C  -  12   H       0.027187       0.031612

     4   C  -   3   C       1.460341       1.456062
     4   C  -   5   C       1.379823       1.352586
     4   C  -   8   H       0.937474       0.964191
     4   C  -   1   C       0.153959       0.143168

     5   C  -   4   C       1.379823       1.352586
     5   C  -   6   H       0.956333       0.978705
     5   C  -   7   H       0.935378       0.971503
     5   C  -  12   H       0.463795       0.501108
     5   C  -   2   C       0.153966       0.143175

     6   H  -   5   C       0.956333       0.978705

     7   H  -   5   C       0.935378       0.971503

     8   H  -   4   C       0.937474       0.964191

     9   H  -   3   C       0.944174       0.969636

    10   H  -   2   C       0.937475       0.964191

    11   H  -   1   C       0.956334       0.978704

    12   H  -   1   C       0.463841       0.501157
    12   H  -   5   C       0.463795       0.501108
    12   H  -   3   C       0.027187       0.031612

    13   H  -   1   C       0.935378       0.971505


 Valency analysis:

   CEN ATOM   TOT.VALENCE
     1   C       3.943971
     2   C       3.968753
     3   C       3.966863
     4   C       3.968754
     5   C       3.943972
     6   H       0.979581
     7   H       0.980075
     8   H       0.979390
     9   H       0.979395
    10   H       0.979390
    11   H       0.979581
    12   H       0.974874
    13   H       0.980074

 Total charge composition:

   CEN ATOM         s          p       ELECTRONS ->P.CHARGE
     1   C       3.01321    3.34629      6.35950   -0.35950
     2   C       2.96490    3.16994      6.13484   -0.13484
     3   C       2.95670    3.21192      6.16862   -0.16862
     4   C       2.96490    3.16994      6.13484   -0.13484
     5   C       3.01321    3.34629      6.35950   -0.35950
     6   H       0.85710                 0.85710    0.14290
     7   H       0.85884                 0.85884    0.14116
     8   H       0.85644                 0.85644    0.14356
     9   H       0.85646                 0.85646    0.14354
    10   H       0.85644                 0.85644    0.14356
    11   H       0.85711                 0.85711    0.14289
    12   H       0.84149                 0.84149    0.15851
    13   H       0.85884                 0.85884    0.14116

 Total charge composition, AO contributions:

   CEN ATOM SHL      SPHERICAL COMPONENTS
     1   C  1s       1.99230
     1   C  2s       1.02090
     1   C  2p       1.12654    1.08212    1.13763

     2   C  1s       1.99140
     2   C  2s       0.97350
     2   C  2p       1.09037    1.07394    1.00563

     3   C  1s       1.99111
     3   C  2s       0.96559
     3   C  2p       1.04930    1.13201    1.03061

     4   C  1s       1.99140
     4   C  2s       0.97350
     4   C  2p       1.09036    1.07394    1.00564

     5   C  1s       1.99230
     5   C  2s       1.02090
     5   C  2p       1.12654    1.08212    1.13762

     6   H  1s       0.85710

     7   H  1s       0.85884

     8   H  1s       0.85644

     9   H  1s       0.85646

    10   H  1s       0.85644

    11   H  1s       0.85711

    12   H  1s       0.84149

    13   H  1s       0.85884

 Summary of localized orbital composition:   [THRPRINT= 0.020]

   ORB  GRP  ORB.ENERGY      CENTERS/CHARGES
     1   1    -9.511366      C  2   2.000
     2   1    -9.511364      C  4   2.000
     3   1    -9.510637      C  1   2.000
     4   1    -9.510635      C  5   2.000
     5   1    -9.503436      C  3   2.000
     6   1    -0.549873      C  2   0.994   C  3   0.990
     7   1    -0.549868      C  4   0.994   C  3   0.990
     8   1    -0.542405      C  4   1.004   C  5   0.983
     9   1    -0.542398      C  2   1.004   C  1   0.983
    10   1    -0.425878      C  1   1.125   H 13   0.839   (other: 0.036)
    11   1    -0.425870      C  5   1.125   H  7   0.839   (other: 0.036)
    12   1    -0.418689      C  2   1.134   H 10   0.842   (other: 0.023)
    13   1    -0.418685      C  4   1.134   H  8   0.842   (other: 0.023)
    14   1    -0.415889      C  3   1.140   H  9   0.842
    15   1    -0.413180      C  5   1.142   H  6   0.847
    16   1    -0.413172      C  1   1.142   H 11   0.847
    17   1    -0.236606      C  1   1.095   H 12   0.398   C  2   0.352   C  4   0.140
    18   1    -0.236597      C  5   1.095   H 12   0.398   C  4   0.352   C  2   0.140
    19   1    -0.203852      C  3   1.022   C  2   0.472   C  4   0.472   (other: 0.035)

 Localized orbitals saved to record      2100.2  (orbital set 2)


 **********************************************************************************************************************************
 DATASETS  * FILE   NREC   LENGTH (MB)   RECORD NAMES
              1      20       32.43       500      610      700      900      950      970     1000      129      960     1100   
                                          VAR    BASINP    GEOM    SYMINP    ZMAT    AOBASIS   BASIS     P2S    ABASIS      S 
                                         1400     1410     1200     1210     1080     1600     1650     1300     1700     1800   
                                           T        V       H0       H01     AOSYM     SMH    MOLCAS    ERIS     OPER     GRID   

              2       5        3.00       700     1000      520     1800     2100   
                                         GEOM     BASIS   MCVARS    GRID      RKS  

 PROGRAMS   *        TOTAL      IBBA        KS       INT
 CPU TIMES  *         5.24      0.03      4.68      0.38
 REAL TIME  *         5.86 SEC
 DISK USED  *        36.21 MB      
 **********************************************************************************************************************************
 Molecular orbitals read from record     2100.2  Type=RKS/LOCAL(IBO)  
 Occupation numbers read from record     2100.2  Type=RKS/LOCAL(IBO)  
 Orbital energies read from record       2100.2  Type=RKS/LOCAL(IBO)  
 Redundancy group numbers read from rec  2100.2  Type=RKS/LOCAL(IBO)  

 IBBA/STO-3G energy=      0.000000000000

        KS-SCF  
   -191.56417907
 **********************************************************************************************************************************
 Molpro calculation terminated
