
 Primary working directories    : /local
 Secondary working directories  : /local
 Wavefunction directory         : /local/
 Main file repository           : /local/

 SHA1      : b4a5b34a9e711420743f49e6833241d17c61fb3c
 NAME      : 2099.9.b4a5b34
 ARCHNAME  : linux/x86_64_openmp
 FC        : /cm/shared/languages/GCC-6.1/bin/gfortran
 BLASLIB   : -lblas
 id        : simonbennie

 Nodes     nprocs
 node33-027    1

 Using customized tuning parameters: mindgm=1; mindgv=20; mindgc=4; mindgr=1; noblas=0; minvec=7
 default implementation of scratch files=df  

 memory,500,m
 geomtyp=xyz
 nosym
 noorient
 geometry={
 H          0.00048       -1.34063        0.00000
 Cl         0.00000        0.20325        0.00000
 H         -0.00048       -2.11466        0.00000
 }
 basis={ default,tzvp }
 {uks,D,direct;wf,19,1,1}
 {ibba,bonds=1}

 Variables initialized (895), CPU time= 0.01 sec
 Commands  initialized (725), CPU time= 0.01 sec, 591 directives.
 Default parameters read. Elapsed time= 0.09 sec

 Checking input...
 Passed
1


                                         ***  PROGRAM SYSTEM MOLPRO  ***
                                       Copyright, TTI GmbH Stuttgart, 2015
                                    Version 2099.9 linked May 26 2017 16:03:21


 **********************************************************************************************************************************
 LABEL *                                                                                 
  64 bit serial version                                                                  DATE: 24-Jun-17          TIME: 02:28:34  
 **********************************************************************************************************************************

 SHA1:             b4a5b34a9e711420743f49e6833241d17c61fb3c
 **********************************************************************************************************************************
 SETTING GEOMTYP        =    XYZ

 Variable memory set to  500000000 words,  buffer space 

 ZSYMEL=NOSYM

 SETTING BASIS          =    TZVP


 Recomputing integrals since basis changed


 Using spherical harmonics

 Library entry H      S def2-TZVP            selected for orbital group  1
 Library entry H      P def2-TZVP            selected for orbital group  1
 Library entry CL     S def2-TZVP            selected for orbital group  2
 Library entry CL     P def2-TZVP            selected for orbital group  2
 Library entry CL     D def2-TZVP            selected for orbital group  2
 Library entry CL     F def2-TZVP            selected for orbital group  2


 PROGRAM * SEWARD (Integral evaluation for generally contracted gaussian basis sets)     Author: Roland Lindh, 1990

 Geometry written to block  1 of record 700


 Point group  C1  



 ATOMIC COORDINATES

 NR  ATOM    CHARGE       X              Y              Z

   1  H       1.00    0.000907069   -2.533423534    0.000000000
   2  CL     17.00    0.000000000    0.384086835    0.000000000
   3  H       1.00   -0.000907069   -3.996128247    0.000000000

 Bond lengths in Bohr (Angstrom)

 1-2  2.917510510  1-3  1.462705837
     ( 1.543880075)     ( 0.774030595)

 Bond angles

  2-1-3  179.91112471

 NUCLEAR CHARGE:                   19
 NUMBER OF PRIMITIVE AOS:          85
 NUMBER OF SYMMETRY AOS:           79
 NUMBER OF CONTRACTIONS:           49   (  49A   )
 NUMBER OF CORE ORBITALS:           5   (   5A   )
 NUMBER OF VALENCE ORBITALS:        6   (   6A   )


 NUCLEAR REPULSION ENERGY   10.39163794

 EXTRA SYMMETRY OF AOS IN SYMMETRY 1:   1 1 1 1 1 2 1 1 1 1   1 1 1 2 1 1 2 1 1 2   1 1 2 1 1 2 1 1 2 1   2 1 1 2 1 2 1 1 2 1
                                        2 1 2 1 1 1 1 1 2

 Eigenvalues of metric

         1 0.125E-01 0.187E-01 0.416E-01 0.548E-01 0.569E-01 0.569E-01 0.823E-01 0.128E+00


 Contracted 2-electron integrals neglected if value below      1.0D-11
 AO integral compression algorithm  1   Integral accuracy      1.0D-11

     2.097 MB (compressed) written to integral file ( 24.1%)


 NUMBER OF SORTED TWO-ELECTRON INTEGRALS:     750925.     BUFFER LENGTH:  32768
 NUMBER OF SEGMENTS:   1  SEGMENT LENGTH:     750925      RECORD LENGTH: 524288

 Memory used in sort:       1.31 MW

 SORT1 READ      968203. AND WROTE      281886. INTEGRALS IN      1 RECORDS. CPU TIME:     0.01 SEC, REAL TIME:     0.01 SEC
 SORT2 READ      281886. AND WROTE      750925. INTEGRALS IN      8 RECORDS. CPU TIME:     0.05 SEC, REAL TIME:     0.05 SEC

 FILE SIZES:   FILE 1:    32.2 MBYTE,  FILE 4:     4.2 MBYTE,   TOTAL:     36.4 MBYTE

 OPERATOR DM      FOR CENTER  0  COORDINATES:    0.000000    0.000000    0.000000


 **********************************************************************************************************************************
 DATASETS  * FILE   NREC   LENGTH (MB)   RECORD NAMES
              1      19       31.34       500      610      700      900      950      970     1000      129      960     1100   
                                          VAR    BASINP    GEOM    SYMINP    ZMAT    AOBASIS   BASIS     P2S    ABASIS      S 
                                         1400     1410     1200     1210     1080     1600     1650     1300     1700   
                                           T        V       H0       H01     AOSYM     SMH    MOLCAS    ERIS     OPER   

 PROGRAMS   *        TOTAL       INT
 CPU TIMES  *         0.50      0.36
 REAL TIME  *         3.97 SEC
 DISK USED  *        36.71 MB      
 **********************************************************************************************************************************

 Density functional group D=DIRAC
 Functional: DIRAC(Automatically generated (new) DIRAC)                        Gradient terms: 0
 Use grid at  1800.2

 Functional: DIRAC                     Factor:  1.0000

 Generated new metagrid on record  1800.2 with target accuracy 1.0D-06 and 13358 points in CPU time    0.2
 Computed new grid on record 1800.1 in CPU time    0.2
   24194 words reserved for DFT integration

 PROGRAM * UKS-SCF (Unrestricted Kohn-Sham)     Authors: W. Meyer, H.-J. Werner, P.J. Knowles, 1993

 NUMBER OF ELECTRONS:      10+    9-    SPACE SYMMETRY=1    SPIN SYMMETRY: Doublet 
 CONVERGENCE THRESHOLDS:    1.00E-05 (Density)    1.00E-06 (Energy)
 MAX. NUMBER OF ITERATIONS:       60
 INTERPOLATION TYPE:            DIIS
 INTERPOLATION STEPS:              2 (START)      1 (STEP)
 LEVEL SHIFTS:                 -0.20 (ALPHA)  -0.20 (BETA) 



 Use fine grid record 1800.2 for energy threshold  1.0D-06
 Orbital guess generated from atomic densities. Full valence occupancy:   10

 Molecular orbital dump at record        2200.2

 Initial alpha occupation  10
 Initial beta  occupation   9

 ITERATION    DDIFF          GRAD             ENERGY        2-EL.EN.            DIPOLE MOMENTS         DIIS
    1      0.000D+00      0.000D+00      -458.37186726    428.195731   -0.00006   -0.62324   -0.00000    0
    2      0.241D-02      0.191D-02      -458.37532172    427.251770   -0.00004   -0.56319    0.00000    1
    3      0.930D-03      0.485D-03      -458.37574387    427.535452   -0.00003   -0.56728    0.00000    2
    4      0.323D-03      0.218D-03      -458.37585460    427.414083   -0.00003   -0.56298    0.00000    3
    5      0.299D-03      0.116D-03      -458.37590778    427.440853   -0.00003   -0.56441    0.00000    4
    6      0.218D-03      0.470D-04      -458.37592320    427.454035   -0.00003   -0.56909   -0.00000    5
    7      0.107D-03      0.207D-04      -458.37592501    427.445225   -0.00003   -0.56913   -0.00000    6
    8      0.166D-04      0.564D-05      -458.37592509    427.449768   -0.00003   -0.57016   -0.00000    7
    9      0.459D-05      0.240D-05      -458.37592510    427.449466   -0.00003   -0.56999    0.00000    8
   10      0.168D-05      0.561D-06      -458.37592510    427.449259   -0.00003   -0.57003    0.00000    8

 Final alpha occupancy:  10
 Final beta  occupancy:   9

 !UKS STATE 1.1 Energy               -458.375925100052
 Nuclear energy                        10.39163794
 One-electron energy                 -656.57127917
 Two-electron energy                  213.72462956
 Density functional                   -25.92091344     DIRAC=-25.92091344
 Virial quotient                       -0.99669662
 !UKS STATE 1.1 Dipole moment          -0.00003122    -0.57002795     0.00000000
 Dipole moment /Debye                  -0.00007934    -1.44877164     0.00000000

 Orbital energies for positive spin:

         1.1          2.1          3.1          4.1          5.1          6.1          7.1          8.1          9.1         10.1
   -100.226645    -9.083499    -6.946854    -6.930057    -6.930057    -0.714239    -0.451783    -0.250572    -0.250572    -0.246743

        11.1         12.1
      0.087503     0.185633

 Orbital energies for negative spin:

         1.1          2.1          3.1          4.1          5.1          6.1          7.1          8.1          9.1         10.1
   -100.221738    -9.077865    -6.934699    -6.925878    -6.925878    -0.685358    -0.406333    -0.237246    -0.237246    -0.182943

        11.1         12.1
      0.123516     0.199951

 HOMO     -9.1    -0.237246 =      -6.4558eV
 LUMO    -10.1    -0.182943 =      -4.9781eV
 LUMO-HOMO         0.054303 =       1.4777eV

 EXPECTATION VALUE OF S**2:             0.75365544

 Occupation number threshold for canonical orbitals:  1.999000 (occupied),  0.001000 (virtual)

 Number of pseudo-canonical orbitals per symmetry:    8
 Number of active natural orbitals per symmetry:      3

 Natural orbitals saved to record    2200.2 (Orbital set 3)

 Orbital spaces for UNO-CAS (Min. occupation: 0.020  Max. occupation: 1.980):

 Closed:        9
 Active:        1


 **********************************************************************************************************************************
 DATASETS  * FILE   NREC   LENGTH (MB)   RECORD NAMES
              1      20       31.77       500      610      700      900      950      970     1000      129      960     1100   
                                          VAR    BASINP    GEOM    SYMINP    ZMAT    AOBASIS   BASIS     P2S    ABASIS      S 
                                         1400     1410     1200     1210     1080     1600     1650     1300     1700     1800   
                                           T        V       H0       H01     AOSYM     SMH    MOLCAS    ERIS     OPER     GRID   

              2       5        2.89       700     1000      520     1800     2200   
                                         GEOM     BASIS   MCVARS    GRID      UKS  

 PROGRAMS   *        TOTAL       UKS       INT
 CPU TIMES  *         1.47      0.96      0.36
 REAL TIME  *         5.36 SEC
 DISK USED  *        36.71 MB      
 **********************************************************************************************************************************


 PROGRAM * Intrinsic Basis Bonding Analysis (IBBA)          Author: G. Knizia

 Molecular orbitals read from record     2200.2  Type=UKS/ALPHA (state 1.1)
 Fock matrix read from record            2200.2  Type=UKS/TOTAL (state 1.1)
 Orbital energies read from record       2200.2  Type=UKS/ALPHA (state 1.1)
 Density matrix read from record         2200.2  Type=UKS/CHARGE (state 1.1)

 Number of core orbitals:           5 (   5 )
 Number of closed-shell orbitals:   4 (   4 )
 Number of active  orbitals:        1 (   1 )

 Basis set MINAO-AUTO-PP generated.      Number of basis functions:   11 

 Polarized AO type:                A = (O Ot + (1-O)(1-Ot)) P12
 Orthogonalization method:         Symmetric (Loewdin)
 Localization functional:          L = sum[A,i] <i|n_A|i>^4 -> max

 Localization group 1:   9 orbitals, occupancy  2.000
 Iterative localization: IB/PM,    4 iter; Final gradient 0.54E-08

 Bond order analysis:       [THRPRINT= 0.020]

   CEN ATOM   CEN ATOM     WIBERG.BO      RENORM.BO
     1   H  -   3   H       0.504173       0.897911
     1   H  -   2  CL       0.484177       1.000000

     2  CL  -   1   H       0.484177       1.000000
     2  CL  -   3   H       0.358507       1.000000

     3   H  -   1   H       0.504173       0.897911
     3   H  -   2  CL       0.358507       1.000000


 Valency analysis:

   CEN ATOM   TOT.VALENCE
     1   H       0.988350
     2  CL       0.842684
     3   H       0.862680
 Localization group 2:   1 orbitals, occupancy  1.000
 Iterative localization: IB/PM,    1 iter; Final gradient 0.00E+00

 Bond order analysis:       [THRPRINT= 0.020]

   CEN ATOM   CEN ATOM     WIBERG.BO      RENORM.BO
     1   H  -   2  CL       0.024655       0.500000

     2  CL  -   3   H       0.428900       0.500000
     2  CL  -   1   H       0.024655       0.500000

     3   H  -   2  CL       0.428900       0.500000


 Valency analysis:

   CEN ATOM   TOT.VALENCE
     1   H       0.037078
     2  CL       0.453555
     3   H       0.441323

 Total charge composition:

   CEN ATOM         s          p       ELECTRONS ->P.CHARGE
     1   H       0.91096                 0.91096    0.08904
     2  CL       5.94066   11.19023     17.13089   -0.13089
     3   H       0.95815                 0.95815    0.04185

 Total charge composition, AO contributions:

   CEN ATOM SHL      SPHERICAL COMPONENTS
     1   H  1s       0.91096

     2  CL  1s       1.99998
     2  CL  2s       1.99920
     2  CL  3s       1.94147
     2  CL  2p       2.00000    1.99991    2.00000
     2  CL  3p       2.00000    1.19033    2.00000

     3   H  1s       0.95815

 Active orbital charges:

   CEN ATOM         s          p       ELECTRONS ->SPIN.DEN
     1   H       0.01890                 0.01890    0.01890
     2  CL       0.00292    0.64946      0.65239    0.65239
     3   H       0.32872                 0.32872    0.32872

 Active orbital charges, AO contributions:

   CEN ATOM SHL      SPHERICAL COMPONENTS
     1   H  1s       0.01890

     2  CL  1s       0.00000
     2  CL  2s       0.00004
     2  CL  3s       0.00288
     2  CL  2p       0.00000    0.00001    0.00000
     2  CL  3p       0.00000    0.64946    0.00000

     3   H  1s       0.32872

 Summary of localized orbital composition:   [THRPRINT= 0.020]

   ORB  GRP  ORB.ENERGY      CENTERS/CHARGES
     1   1  -100.194673     CL  2   2.000
     2   1    -8.942256     CL  2   2.000
     3   1    -6.927965     CL  2   2.000
     4   1    -6.927965     CL  2   2.000
     5   1    -6.924793     CL  2   2.000
     6   1    -0.835383     CL  2   1.961   H  3   0.024
     7   1    -0.475535      H  1   0.877   H  3   0.605  CL  2   0.517
     8   1    -0.243818     CL  2   2.000
     9   1    -0.243806     CL  2   2.000
    10   2    -0.214488     CL  2   0.652   H  3   0.329

 Localized orbitals saved to record      2200.2  (orbital set 4)


 **********************************************************************************************************************************
 DATASETS  * FILE   NREC   LENGTH (MB)   RECORD NAMES
              1      20       31.77       500      610      700      900      950      970     1000      129      960     1100   
                                          VAR    BASINP    GEOM    SYMINP    ZMAT    AOBASIS   BASIS     P2S    ABASIS      S 
                                         1400     1410     1200     1210     1080     1600     1650     1300     1700     1800   
                                           T        V       H0       H01     AOSYM     SMH    MOLCAS    ERIS     OPER     GRID   

              2       5        2.91       700     1000      520     1800     2200   
                                         GEOM     BASIS   MCVARS    GRID      UKS  

 PROGRAMS   *        TOTAL      IBBA       UKS       INT
 CPU TIMES  *         1.49      0.02      0.96      0.36
 REAL TIME  *         5.40 SEC
 DISK USED  *        36.71 MB      
 **********************************************************************************************************************************
 Molecular orbitals read from record     2200.2  Type=UKS/LOCAL(IBO)  
 Occupation numbers read from record     2200.2  Type=UKS/LOCAL(IBO)  
 Orbital energies read from record       2200.2  Type=UKS/LOCAL(IBO)  
 Redundancy group numbers read from rec  2200.2  Type=UKS/BETA (state 1.1)

 IBBA/TZVP energy=      0.000000000000

        UKS-SCF 
   -458.37592510
 **********************************************************************************************************************************
 Molpro calculation terminated
