
 Primary working directories    : /local
 Secondary working directories  : /local
 Wavefunction directory         : /local/
 Main file repository           : /local/

 SHA1      : b4a5b34a9e711420743f49e6833241d17c61fb3c
 NAME      : 2099.9.b4a5b34
 ARCHNAME  : linux/x86_64_openmp
 FC        : /cm/shared/languages/GCC-6.1/bin/gfortran
 BLASLIB   : -lblas
 id        : simonbennie

 Nodes     nprocs
 node35-023    1

 Using customized tuning parameters: mindgm=1; mindgv=20; mindgc=4; mindgr=1; noblas=0; minvec=7
 default implementation of scratch files=df  

 memory,500,m
 geomtyp=xyz
 nosym
 noorient
 geometry={
 H          0.00048       -1.34063        0.00000
 Cl         0.00000        0.20325        0.00000
 H         -0.00048       -2.11466        0.00000
 }
 basis={ default,sto-3g }
 {uks,B3LYP3,direct;disp;wf,19,1,1}
 {ibba,bonds=1}

 Variables initialized (895), CPU time= 0.00 sec
 Commands  initialized (725), CPU time= 0.02 sec, 591 directives.
 Default parameters read. Elapsed time= 0.07 sec

 Checking input...
 Passed
1


                                         ***  PROGRAM SYSTEM MOLPRO  ***
                                       Copyright, TTI GmbH Stuttgart, 2015
                                    Version 2099.9 linked May 26 2017 16:03:21


 **********************************************************************************************************************************
 LABEL *                                                                                 
  64 bit serial version                                                                  DATE: 17-Mar-18          TIME: 10:36:26  
 **********************************************************************************************************************************

 SHA1:             b4a5b34a9e711420743f49e6833241d17c61fb3c
 **********************************************************************************************************************************
 SETTING GEOMTYP        =    XYZ

 Variable memory set to  500000000 words,  buffer space 

 ZSYMEL=NOSYM

 SETTING BASIS          =    STO-3G


 Recomputing integrals since basis changed


 Using spherical harmonics

 Library entry H      S STO-3G               selected for orbital group  1
 Library entry CL     S STO-3G               selected for orbital group  2
 Library entry CL     P STO-3G               selected for orbital group  2


 PROGRAM * SEWARD (Integral evaluation for generally contracted gaussian basis sets)     Author: Roland Lindh, 1990

 Geometry written to block  1 of record 700


 Point group  C1  



 ATOMIC COORDINATES

 NR  ATOM    CHARGE       X              Y              Z

   1  H       1.00    0.000907069   -2.533423534    0.000000000
   2  CL     17.00    0.000000000    0.384086835    0.000000000
   3  H       1.00   -0.000907069   -3.996128247    0.000000000

 Bond lengths in Bohr (Angstrom)

 1-2  2.917510510  1-3  1.462705837
     ( 1.543880075)     ( 0.774030595)

 Bond angles

  2-1-3  179.91112471

 NUCLEAR CHARGE:                   19
 NUMBER OF PRIMITIVE AOS:          33
 NUMBER OF SYMMETRY AOS:           33
 NUMBER OF CONTRACTIONS:           11   (  11A   )
 NUMBER OF CORE ORBITALS:           5   (   5A   )
 NUMBER OF VALENCE ORBITALS:        6   (   6A   )


 NUCLEAR REPULSION ENERGY   10.39163794

 EXTRA SYMMETRY OF AOS IN SYMMETRY 1:   1 1 1 1 1 1 2 1 1 2   1

 Eigenvalues of metric

         1 0.273E+00 0.600E+00 0.745E+00 0.767E+00 0.767E+00 0.946E+00 0.117E+01 0.123E+01


 Contracted 2-electron integrals neglected if value below      1.0D-11
 AO integral compression algorithm  1   Integral accuracy      1.0D-11

     0.262 MB (compressed) written to integral file ( 71.8%)


 NUMBER OF SORTED TWO-ELECTRON INTEGRALS:       2211.     BUFFER LENGTH:  32768
 NUMBER OF SEGMENTS:   1  SEGMENT LENGTH:       2211      RECORD LENGTH: 524288

 Memory used in sort:       0.56 MW

 SORT1 READ        4003. AND WROTE         959. INTEGRALS IN      1 RECORDS. CPU TIME:     0.00 SEC, REAL TIME:     0.01 SEC
 SORT2 READ         959. AND WROTE        2211. INTEGRALS IN      1 RECORDS. CPU TIME:     0.00 SEC, REAL TIME:     0.00 SEC

 FILE SIZES:   FILE 1:    30.2 MBYTE,  FILE 4:     4.2 MBYTE,   TOTAL:     34.5 MBYTE

 OPERATOR DM      FOR CENTER  0  COORDINATES:    0.000000    0.000000    0.000000


 **********************************************************************************************************************************
 DATASETS  * FILE   NREC   LENGTH (MB)   RECORD NAMES
              1      19       29.98       500      610      700      900      950      970     1000      129      960     1100   
                                          VAR    BASINP    GEOM    SYMINP    ZMAT    AOBASIS   BASIS     P2S    ABASIS      S 
                                         1400     1410     1200     1210     1080     1600     1650     1300     1700   
                                           T        V       H0       H01     AOSYM     SMH    MOLCAS    ERIS     OPER   

 PROGRAMS   *        TOTAL       INT
 CPU TIMES  *         0.34      0.22
 REAL TIME  *         6.10 SEC
 DISK USED  *        34.76 MB      
 **********************************************************************************************************************************

 Density functional group B3LYP3=B88+DIRAC+LYP+VWN3
 Functional: B88(Automatically generated (new) B88)                            Gradient terms: 1
 Functional: DIRAC(Automatically generated (new) DIRAC)                        Gradient terms: 0
 Functional: LYP(Automatically generated (new) LYP)                            Gradient terms: 1
 Functional: VWN3(Automatically generated (new) VWN3)                          Gradient terms: 0

 dispersion correction activated
 Density functional: B3LYP3  
 functional not in list, set to default 


 Exact exchange will be calculated, factor:  0.2000

 Functional: B88                       Factor:  0.7200
 Functional: DIRAC                     Factor:  0.0800
 Functional: LYP                       Factor:  0.8100
 Functional: VWN3                      Factor:  0.1900

 Use grid at  1800.2


 Exact exchange will be calculated, factor:  0.2000

 Functional: B88                       Factor:  0.7200
 Functional: DIRAC                     Factor:  0.0800
 Functional: LYP                       Factor:  0.8100
 Functional: VWN3                      Factor:  0.1900

 Generated new metagrid on record  1800.2 with target accuracy 1.0D-06 and 13034 points in CPU time    0.2
 Computed new grid on record 1800.1 in CPU time    0.2
   12677 words reserved for DFT integration

 PROGRAM * UKS-SCF (Unrestricted Kohn-Sham)     Authors: W. Meyer, H.-J. Werner, P.J. Knowles, 1993

 NUMBER OF ELECTRONS:      10+    9-    SPACE SYMMETRY=1    SPIN SYMMETRY: Doublet 
 CONVERGENCE THRESHOLDS:    1.00E-05 (Density)    1.00E-06 (Energy)
 MAX. NUMBER OF ITERATIONS:       60
 INTERPOLATION TYPE:            DIIS
 INTERPOLATION STEPS:              2 (START)      1 (STEP)
 LEVEL SHIFTS:                 -0.20 (ALPHA)  -0.20 (BETA) 



 Use fine grid record 1800.2 for energy threshold  1.0D-06
 Orbital guess generated from atomic densities. Full valence occupancy:   10

 Molecular orbital dump at record        2200.2

 Initial alpha occupation  10
 Initial beta  occupation   9

 ITERATION    DDIFF          GRAD             ENERGY        2-EL.EN.            DIPOLE MOMENTS         DIIS
    1      0.000D+00      0.000D+00      -456.22286704    419.454426   -0.00010   -1.60670   -0.00000    0
    2      0.359D-01      0.168D-01      -456.25987891    417.081720   -0.00000   -0.82793   -0.00000    1
    3      0.112D-01      0.615D-02      -456.26486444    416.281257    0.00003   -0.53401   -0.00000    2
    4      0.611D-02      0.177D-02      -456.26567176    416.134185    0.00002   -0.46332   -0.00000    3
    5      0.186D-02      0.474D-03      -456.26572900    416.112517    0.00002   -0.45163   -0.00000    4
    6      0.664D-03      0.175D-03      -456.26573654    416.099030    0.00002   -0.44536   -0.00000    5
    7      0.513D-04      0.243D-04      -456.26573664    416.098641    0.00002   -0.44506   -0.00000    6
    8      0.531D-05      0.213D-05      -456.26573664    416.098703    0.00002   -0.44508   -0.00000    6
    9      0.190D-05      0.493D-06      -456.26573664    416.098694    0.00002   -0.44508   -0.00000    5

 Dispersion correction
 - - - - - - - - - - - 
  _________________________________
                                   
 |         DFTD3 V1.3 Rev 1        |
 | S.Grimme, University Muenster   |
 | Fri Jul  2 12:48:21 CEST 2010   |
  _________________________________

 Please cite DFT-D3 work done with this code as:
 S. Grimme, J. Antony, S. Ehrlich and H. Krieg,
 J. Chem. Phys, 132 (2010), 154104.
 For DFT-D2 the reference is
 S. Grimme, J. Comput. Chem., 27 (2006), 1787-1799

 C6 coefficients used:
                    2  C6 for element                     1
 Z=  1 CN=   0.912     C6(AA)=    3.03
 Z=  1 CN=   0.000     C6(AA)=    7.59
                    2  C6 for element                    17
 Z= 17 CN=   0.000     C6(AA)=   92.35
 Z= 17 CN=   0.997     C6(AA)=   90.40

 #           XYZ [au]               R0(AA) [Ang.]   CN       C6(AA)     C8(AA)   C10(AA) [au]
  1   0.00091  -2.53342   0.00000   h   1.091  1.728         3.0        36.6       541.9
  2   0.00000   0.38409   0.00000   cl  1.552  0.910        90.5      3774.7    192928.6
  3  -0.00091  -3.99613   0.00000   h   1.091  0.856         3.2        38.7       573.6

 molecular C6(AA) [au] =       170.01

           DFT-D V3
 DF pbe                                               
 parameters
 s6       :    1.0000
 s8       :    0.7220
 rs6      :    1.2170
 alpha6   :   14.0000
 alpha8   :   16.0000
 k1-k3    :   16.0000    1.3333   -4.0000

 Edisp /kcal,au:    -0.0795 -0.00012676

 E6    /kcal :    -0.0066
 E8    /kcal :    -0.0729
 % E8        : 91.68
 normal termination of dftd3

 UKS STATE 1.1 ENERGY+DISP     -456.26586339

 Final alpha occupancy:  10
 Final beta  occupancy:   9

 !UKS STATE 1.1 Energy               -456.265863394816
 Nuclear energy                        10.39163794
 One-electron energy                 -651.45016924
 Two-electron energy                  208.04934725
 Density functional                   -23.25655258     B88=-28.11152950 DIRAC=-25.90500788 LYP= -0.73904180 VWN3= -1.81698348
 Virial quotient                       -1.01887327
 !UKS STATE 1.1 Dipole moment           0.00002002    -0.44507959    -0.00000000
 Dipole moment /Debye                   0.00005090    -1.13120538    -0.00000000

 Orbital energies for positive spin:

         1.1          2.1          3.1          4.1          5.1          6.1          7.1          8.1          9.1         10.1
   -100.455761    -9.256759    -7.043472    -7.019540    -7.019540    -0.765922    -0.507997    -0.276283    -0.267834    -0.267834

        11.1
      0.481993

 Orbital energies for negative spin:

         1.1          2.1          3.1          4.1          5.1          6.1          7.1          8.1          9.1         10.1
   -100.451936    -9.251930    -7.028142    -7.017124    -7.017124    -0.731095    -0.458745    -0.253231    -0.253231    -0.135700

        11.1
      0.522001

 HOMO     -9.1    -0.253231 =      -6.8908eV
 LUMO    -10.1    -0.135700 =      -3.6926eV
 LUMO-HOMO         0.117532 =       3.1982eV

 EXPECTATION VALUE OF S**2:             0.75355724

 Occupation number threshold for canonical orbitals:  1.999000 (occupied),  0.001000 (virtual)

 Number of pseudo-canonical orbitals per symmetry:    8
 Number of active natural orbitals per symmetry:      3

 Natural orbitals saved to record    2200.2 (Orbital set 3)

 Orbital spaces for UNO-CAS (Min. occupation: 0.020  Max. occupation: 1.980):

 Closed:        9
 Active:        1


 **********************************************************************************************************************************
 DATASETS  * FILE   NREC   LENGTH (MB)   RECORD NAMES
              1      20       30.40       500      610      700      900      950      970     1000      129      960     1100   
                                          VAR    BASINP    GEOM    SYMINP    ZMAT    AOBASIS   BASIS     P2S    ABASIS      S 
                                         1400     1410     1200     1210     1080     1600     1650     1300     1700     1800   
                                           T        V       H0       H01     AOSYM     SMH    MOLCAS    ERIS     OPER     GRID   

              2       5        2.79       700     1000      520     1800     2200   
                                         GEOM     BASIS   MCVARS    GRID      UKS  

 PROGRAMS   *        TOTAL       UKS       INT
 CPU TIMES  *         0.99      0.65      0.22
 REAL TIME  *        11.05 SEC
 DISK USED  *        34.76 MB      
 **********************************************************************************************************************************


 PROGRAM * Intrinsic Basis Bonding Analysis (IBBA)          Author: G. Knizia

 Molecular orbitals read from record     2200.2  Type=UKS/ALPHA (state 1.1)
 Fock matrix read from record            2200.2  Type=UKS/TOTAL (state 1.1)
 Orbital energies read from record       2200.2  Type=UKS/ALPHA (state 1.1)
 Density matrix read from record         2200.2  Type=UKS/CHARGE (state 1.1)

 Number of core orbitals:           5 (   5 )
 Number of closed-shell orbitals:   4 (   4 )
 Number of active  orbitals:        1 (   1 )

 Basis set MINAO-AUTO-PP generated.      Number of basis functions:   11 

 Polarized AO type:                A = (O Ot + (1-O)(1-Ot)) P12
 Orthogonalization method:         Symmetric (Loewdin)
 Localization functional:          L = sum[A,i] <i|n_A|i>^4 -> max

 Localization group 1:   9 orbitals, occupancy  2.000
 Iterative localization: IB/PM,    5 iter; Final gradient 0.47E-08

 Bond order analysis:       [THRPRINT= 0.020]

   CEN ATOM   CEN ATOM     WIBERG.BO      RENORM.BO
     1   H  -   3   H       0.778574       0.654224
     1   H  -   2  CL       0.217924       0.129096

     2  CL  -   1   H       0.217924       0.129096
     2  CL  -   3   H       0.151241       0.066638

     3   H  -   1   H       0.778574       0.654224
     3   H  -   2  CL       0.151241       0.066638


 Valency analysis:

   CEN ATOM   TOT.VALENCE
     1   H       0.996498
     2  CL       0.369165
     3   H       0.929815
 Localization group 2:   1 orbitals, occupancy  1.000
 Iterative localization: IB/PM,    1 iter; Final gradient 0.00E+00

 Bond order analysis:       [THRPRINT= 0.020]

   CEN ATOM   CEN ATOM     WIBERG.BO      RENORM.BO




 Valency analysis:

   CEN ATOM   TOT.VALENCE
     1   H       0.000000
     2  CL       0.000000
     3   H       0.000000

 Total charge composition:

   CEN ATOM         s          p       ELECTRONS ->P.CHARGE
     1   H       0.94082                 0.94082    0.05918
     2  CL       5.93077   10.86348     16.79425    0.20575
     3   H       1.26492                 1.26492   -0.26492

 Total charge composition, AO contributions:

   CEN ATOM SHL      SPHERICAL COMPONENTS
     1   H  1s       0.94082

     2  CL  1s       1.99998
     2  CL  2s       1.99859
     2  CL  3s       1.93220
     2  CL  2p       2.00000    1.99992    1.99983
     2  CL  3p       2.00000    1.86355    1.00017

     3   H  1s       1.26492

 Active orbital charges:

   CEN ATOM         s          p       ELECTRONS ->SPIN.DEN
     1   H       0.00000                 0.00000    0.00000
     2  CL       0.00000    1.00000      1.00000    1.00000
     3   H       0.00000                 0.00000    0.00000

 Active orbital charges, AO contributions:

   CEN ATOM SHL      SPHERICAL COMPONENTS
     1   H  1s       0.00000

     2  CL  1s       0.00000
     2  CL  2s       0.00000
     2  CL  3s       0.00000
     2  CL  2p       0.00000    0.00000    0.00006
     2  CL  3p       0.00000    0.00000    0.99994

     3   H  1s       0.00000

 Summary of localized orbital composition:   [THRPRINT= 0.020]

   ORB  GRP  ORB.ENERGY      CENTERS/CHARGES
     1   1  -100.431108     CL  2   2.000
     2   1    -9.050373     CL  2   2.000
     3   1    -7.021254     CL  2   2.000
     4   1    -7.018332     CL  2   2.000
     5   1    -7.018332     CL  2   2.000
     6   1    -0.715012     CL  2   2.000
     7   1    -0.523233     CL  2   1.793   H  1   0.141   H  3   0.066
     8   1    -0.439090      H  3   1.199   H  1   0.800
     9   1    -0.260533     CL  2   2.000
    10   2    -0.260533     CL  2   1.000

 Localized orbitals saved to record      2200.2  (orbital set 4)


 **********************************************************************************************************************************
 DATASETS  * FILE   NREC   LENGTH (MB)   RECORD NAMES
              1      20       30.40       500      610      700      900      950      970     1000      129      960     1100   
                                          VAR    BASINP    GEOM    SYMINP    ZMAT    AOBASIS   BASIS     P2S    ABASIS      S 
                                         1400     1410     1200     1210     1080     1600     1650     1300     1700     1800   
                                           T        V       H0       H01     AOSYM     SMH    MOLCAS    ERIS     OPER     GRID   

              2       5        2.79       700     1000      520     1800     2200   
                                         GEOM     BASIS   MCVARS    GRID      UKS  

 PROGRAMS   *        TOTAL      IBBA       UKS       INT
 CPU TIMES  *         1.01      0.02      0.65      0.22
 REAL TIME  *        11.07 SEC
 DISK USED  *        34.76 MB      
 **********************************************************************************************************************************

 IBBA/STO-3G energy=      0.000000000000

        UKS-SCF 
   -456.26586339
 **********************************************************************************************************************************
 Molpro calculation terminated
