
 Primary working directories    : /local
 Secondary working directories  : /local
 Wavefunction directory         : /local/
 Main file repository           : /local/

 SHA1      : b4a5b34a9e711420743f49e6833241d17c61fb3c
 NAME      : 2099.9.b4a5b34
 ARCHNAME  : linux/x86_64_openmp
 FC        : /cm/shared/languages/GCC-6.1/bin/gfortran
 BLASLIB   : -lblas
 id        : simonbennie

 Nodes     nprocs
 node34-017    1

 Using customized tuning parameters: mindgm=1; mindgv=20; mindgc=4; mindgr=1; noblas=0; minvec=7
 default implementation of scratch files=df  

 memory,500,m
 geomtyp=xyz
 nosym
 noorient
 geometry={
 O         -0.30106       -0.10805       -0.00001
 H         -0.42795        0.85157        0.00002
 H          1.01549       -0.10037        0.00012
 H          1.82097        0.11319       -0.00007
 }
 basis={ default,avtz }
 {ks,B,direct;wf,11,1,1}
 {ibba,bonds=1}

 Variables initialized (895), CPU time= 0.00 sec
 Commands  initialized (725), CPU time= 0.01 sec, 591 directives.
 Default parameters read. Elapsed time= 0.08 sec

 Checking input...
 Passed
1


                                         ***  PROGRAM SYSTEM MOLPRO  ***
                                       Copyright, TTI GmbH Stuttgart, 2015
                                    Version 2099.9 linked May 26 2017 16:03:21


 **********************************************************************************************************************************
 LABEL *                                                                                 
  64 bit serial version                                                                  DATE: 24-Jun-17          TIME: 05:15:12  
 **********************************************************************************************************************************

 SHA1:             b4a5b34a9e711420743f49e6833241d17c61fb3c
 **********************************************************************************************************************************
 SETTING GEOMTYP        =    XYZ

 Variable memory set to  500000000 words,  buffer space 

 ZSYMEL=NOSYM

 SETTING BASIS          =    AVTZ


 Recomputing integrals since basis changed


 Using spherical harmonics

 Library entry O      S aug-cc-pVTZ          selected for orbital group  1
 Library entry O      P aug-cc-pVTZ          selected for orbital group  1
 Library entry O      D aug-cc-pVTZ          selected for orbital group  1
 Library entry O      F aug-cc-pVTZ          selected for orbital group  1
 Library entry H      S aug-cc-pVTZ          selected for orbital group  2
 Library entry H      P aug-cc-pVTZ          selected for orbital group  2
 Library entry H      D aug-cc-pVTZ          selected for orbital group  2


 PROGRAM * SEWARD (Integral evaluation for generally contracted gaussian basis sets)     Author: Roland Lindh, 1990

 Geometry written to block  1 of record 700


 Point group  C1  



 ATOMIC COORDINATES

 NR  ATOM    CHARGE       X              Y              Z

   1  O       8.00   -0.568920947   -0.204184908   -0.000018897
   2  H       1.00   -0.808708295    1.609234076    0.000037795
   3  H       1.00    1.918997982   -0.189671811    0.000226767
   4  H       1.00    3.441134581    0.213898100   -0.000132281

 Bond lengths in Bohr (Angstrom)

 1-2  1.829203757  1-3  2.487961272  3-4  1.574728112
     ( 0.967972942)     ( 1.316572407)     ( 0.833310230)

 Bond angles

  1-3-4  165.48482331   2-1-3   97.19826261

 NUCLEAR CHARGE:                   11
 NUMBER OF PRIMITIVE AOS:         148
 NUMBER OF SYMMETRY AOS:          133
 NUMBER OF CONTRACTIONS:          115   ( 115A   )
 NUMBER OF CORE ORBITALS:           1   (   1A   )
 NUMBER OF VALENCE ORBITALS:        7   (   7A   )


 NUCLEAR REPULSION ENERGY   10.73783922

 Eigenvalues of metric

         1 0.244E-04 0.231E-03 0.379E-03 0.662E-03 0.157E-02 0.217E-02 0.298E-02 0.410E-02


 Contracted 2-electron integrals neglected if value below      1.0D-12
 AO integral compression algorithm  1   Integral accuracy      1.0D-12

     123.208 MB (compressed) written to integral file ( 55.3%)


 NUMBER OF SORTED TWO-ELECTRON INTEGRALS:   22247785.     BUFFER LENGTH:  32768
 NUMBER OF SEGMENTS:   2  SEGMENT LENGTH:   15997996      RECORD LENGTH: 524288

 Memory used in sort:      16.56 MW

 SORT1 READ    27857919. AND WROTE    21590006. INTEGRALS IN     62 RECORDS. CPU TIME:     0.33 SEC, REAL TIME:     0.64 SEC
 SORT2 READ    21590006. AND WROTE    22247785. INTEGRALS IN    470 RECORDS. CPU TIME:     0.61 SEC, REAL TIME:     0.78 SEC

 FILE SIZES:   FILE 1:   153.7 MBYTE,  FILE 4:   260.1 MBYTE,   TOTAL:    413.8 MBYTE

 OPERATOR DM      FOR CENTER  0  COORDINATES:    0.000000    0.000000    0.000000


 **********************************************************************************************************************************
 DATASETS  * FILE   NREC   LENGTH (MB)   RECORD NAMES
              1      19      131.07       500      610      700      900      950      970     1000      129      960     1100   
                                          VAR    BASINP    GEOM    SYMINP    ZMAT    AOBASIS   BASIS     P2S    ABASIS      S 
                                         1400     1410     1200     1210     1080     1600     1650     1300     1700   
                                           T        V       H0       H01     AOSYM     SMH    MOLCAS    ERIS     OPER   

 PROGRAMS   *        TOTAL       INT
 CPU TIMES  *         2.23      2.09
 REAL TIME  *         3.24 SEC
 DISK USED  *       414.13 MB      
 **********************************************************************************************************************************

 Density functional group B=B88
 Functional: B88(Automatically generated (new) B88)                            Gradient terms: 1
 Use grid at  1800.2

 Functional: B88                       Factor:  1.0000

 Generated new metagrid on record  1800.2 with target accuracy 1.0D-06 and 13274 points in CPU time    0.2
 Computed new grid on record 1800.1 in CPU time    0.2
   95290 words reserved for DFT integration

 PROGRAM * RKS-SCF (Restricted open shell Kohn-Sham)     Authors: W. Meyer, H.-J. Werner, P.J. Knowles, 1993

 NUMBER OF ELECTRONS:       6+    5-    SPACE SYMMETRY=1    SPIN SYMMETRY: Doublet 
 CONVERGENCE THRESHOLDS:    1.00E-05 (Density)    1.00E-06 (Energy)
 MAX. NUMBER OF ITERATIONS:       60
 INTERPOLATION TYPE:            DIIS
 INTERPOLATION STEPS:              2 (START)      1 (STEP)
 LEVEL SHIFTS:                 -0.60 (CLOSED) -0.30 (OPEN) 



 Use fine grid record 1800.2 for energy threshold  1.0D-06
 Orbital guess generated from atomic densities. Full valence occupancy:    8

 Molecular orbital dump at record        2100.2

 Initial alpha occupancy:   6
 Initial beta  occupancy:   5
 Wave function symmetry:    1

 ITERATION    DDIFF          GRAD             ENERGY        2-EL.EN.            DIPOLE MOMENTS         DIIS   ORB.
    1      0.000D+00      0.000D+00       -76.53175594    100.110701    0.71040    0.87361    0.00005    0    start
    2      0.000D+00      0.866D-02       -76.53860242     93.609068   -0.09827    0.44665    0.00004    1    diag,B
    3      0.111D-01      0.888D-02       -76.57510253     96.563424    0.27030    0.58182    0.00004    2    diag,B
    4      0.567D-02      0.490D-03       -76.57540415     96.567285    0.26431    0.56798    0.00004    3    diag,B
    5      0.576D-03      0.187D-03       -76.57549381     96.560590    0.25832    0.55820    0.00004    4    diag,B
    6      0.388D-03      0.654D-04       -76.57551173     96.548347    0.25401    0.55474    0.00004    5    diag,B
    7      0.325D-03      0.223D-04       -76.57551403     96.547555    0.25263    0.55412    0.00004    6    fixocc
    8      0.125D-03      0.777D-05       -76.57551433     96.547213    0.25206    0.55411    0.00004    7    diag,B
    9      0.435D-04      0.247D-05       -76.57551436     96.547221    0.25180    0.55412    0.00004    8    diag,B
   10      0.189D-04      0.104D-05       -76.57551437     96.547251    0.25169    0.55410    0.00004    9    orth
   11      0.830D-05      0.346D-06       -76.57551437     96.547267    0.25166    0.55410    0.00004    0    orth

 Final alpha occupancy:   6
 Final beta  occupancy:   5

 !RKS STATE 1.1 Energy                -76.575514368829
 Nuclear energy                        10.73783922
 One-electron energy                 -126.38519065
 Two-electron energy                   48.27363373
 Density functional                    -9.20179666     B88=-9.20179666
 Virial quotient                       -1.00171981
 !RKS STATE 1.1 Dipole moment           0.25166049     0.55409501     0.00004281
 Dipole moment /Debye                   0.63961526     1.40827679     0.00010881

 Orbital energies:

         1.1          2.1          3.1          4.1          5.1          6.1          7.1          8.1
    -18.786917    -0.869356    -0.429864    -0.359798    -0.240713    -0.255231    -0.010430     0.012140

 HOMO      6.1    -0.255231 =      -6.9452eV
 LUMO      7.1    -0.010430 =      -0.2838eV
 LUMO-HOMO         0.244801 =       6.6614eV


 **********************************************************************************************************************************
 DATASETS  * FILE   NREC   LENGTH (MB)   RECORD NAMES
              1      20      131.50       500      610      700      900      950      970     1000      129      960     1100   
                                          VAR    BASINP    GEOM    SYMINP    ZMAT    AOBASIS   BASIS     P2S    ABASIS      S 
                                         1400     1410     1200     1210     1080     1600     1650     1300     1700     1800   
                                           T        V       H0       H01     AOSYM     SMH    MOLCAS    ERIS     OPER     GRID   

              2       5        3.19       700     1000      520     1800     2100   
                                         GEOM     BASIS   MCVARS    GRID      RKS  

 PROGRAMS   *        TOTAL        KS       INT
 CPU TIMES  *         9.57      7.34      2.09
 REAL TIME  *        12.30 SEC
 DISK USED  *       414.13 MB      
 **********************************************************************************************************************************


 PROGRAM * Intrinsic Basis Bonding Analysis (IBBA)          Author: G. Knizia

 Molecular orbitals read from record     2100.2  Type=RKS/CANONICAL (state 1.1)
 Fock matrix read from record            2100.2  Type=RKS/TOTAL (state 1.1)
 Orbital energies read from record       2100.2  Type=RKS/CANONICAL (state 1.1)
 Density matrix read from record         2100.2  Type=RKS/CHARGE (state 1.1)

 Number of core orbitals:           1 (   1 )
 Number of closed-shell orbitals:   4 (   4 )
 Number of active  orbitals:        1 (   1 )

 Basis set MINAO-AUTO-PP generated.      Number of basis functions:   8 

 Polarized AO type:                A = (O Ot + (1-O)(1-Ot)) P12
 Orthogonalization method:         Symmetric (Loewdin)
 Localization functional:          L = sum[A,i] <i|n_A|i>^4 -> max

 Localization group 1:   5 orbitals, occupancy  2.000
 Iterative localization: IB/PM,    5 iter; Final gradient 0.59E-08

 Bond order analysis:       [THRPRINT= 0.020]

   CEN ATOM   CEN ATOM     WIBERG.BO      RENORM.BO
     1   O  -   2   H       0.871170       1.000000
     1   O  -   3   H       0.517525       1.000000
     1   O  -   4   H       0.403786       1.000000

     2   H  -   1   O       0.871170       1.000000

     3   H  -   1   O       0.517525       1.000000
     3   H  -   4   H       0.456609       0.867929

     4   H  -   3   H       0.456609       0.867929
     4   H  -   1   O       0.403786       1.000000


 Valency analysis:

   CEN ATOM   TOT.VALENCE
     1   O       1.792482
     2   H       0.871408
     3   H       0.974372
     4   H       0.860395
 Localization group 2:   1 orbitals, occupancy  1.000
 Iterative localization: IB/PM,    1 iter; Final gradient 0.00E+00

 Bond order analysis:       [THRPRINT= 0.020]

   CEN ATOM   CEN ATOM     WIBERG.BO      RENORM.BO
     1   O  -   4   H       0.433616       0.500000
     1   O  -   3   H       0.031796       0.500000


     3   H  -   1   O       0.031796       0.500000

     4   H  -   1   O       0.433616       0.500000


 Valency analysis:

   CEN ATOM   TOT.VALENCE
     1   O       0.467267
     2   H       0.002951
     3   H       0.049353
     4   H       0.452119

 Total charge composition:

   CEN ATOM         s          p       ELECTRONS ->P.CHARGE
     1   O       3.77907    4.74118      8.52025   -0.52025
     2   H       0.64288                 0.64288    0.35712
     3   H       0.86523                 0.86523    0.13477
     4   H       0.97164                 0.97164    0.02836

 Total charge composition, AO contributions:

   CEN ATOM SHL      SPHERICAL COMPONENTS
     1   O  1s       1.99805
     1   O  2s       1.78102
     1   O  2p       1.21285    1.52833    2.00000

     2   H  1s       0.64288

     3   H  1s       0.86523

     4   H  1s       0.97164

 Active orbital charges:

   CEN ATOM         s          p       ELECTRONS ->SPIN.DEN
     1   O       0.00257    0.62536      0.62793    0.62793
     2   H       0.00148                 0.00148    0.00148
     3   H       0.02532                 0.02532    0.02532
     4   H       0.34527                 0.34527    0.34527

 Active orbital charges, AO contributions:

   CEN ATOM SHL      SPHERICAL COMPONENTS
     1   O  1s       0.00002
     1   O  2s       0.00254
     1   O  2p       0.61349    0.01187    0.00000

     2   H  1s       0.00148

     3   H  1s       0.02532

     4   H  1s       0.34527

 Summary of localized orbital composition:   [THRPRINT= 0.020]

   ORB  GRP  ORB.ENERGY      CENTERS/CHARGES
     1   1   -18.658168      O  1   2.000
     2   1    -0.699131      O  1   1.359   H  2   0.641
     3   1    -0.640478      O  1   1.951   H  4   0.029
     4   1    -0.448155      H  3   0.820   H  4   0.597   O  1   0.583
     5   1    -0.240713      O  1   2.000
     6   2    -0.213550      O  1   0.628   H  4   0.345   H  3   0.025

 Localized orbitals saved to record      2100.2  (orbital set 2)


 **********************************************************************************************************************************
 DATASETS  * FILE   NREC   LENGTH (MB)   RECORD NAMES
              1      20      131.50       500      610      700      900      950      970     1000      129      960     1100   
                                          VAR    BASINP    GEOM    SYMINP    ZMAT    AOBASIS   BASIS     P2S    ABASIS      S 
                                         1400     1410     1200     1210     1080     1600     1650     1300     1700     1800   
                                           T        V       H0       H01     AOSYM     SMH    MOLCAS    ERIS     OPER     GRID   

              2       5        3.30       700     1000      520     1800     2100   
                                         GEOM     BASIS   MCVARS    GRID      RKS  

 PROGRAMS   *        TOTAL      IBBA        KS       INT
 CPU TIMES  *         9.59      0.02      7.34      2.09
 REAL TIME  *        12.35 SEC
 DISK USED  *       414.13 MB      
 **********************************************************************************************************************************
 Molecular orbitals read from record     2100.2  Type=RKS/LOCAL(IBO)  
 Occupation numbers read from record     2100.2  Type=RKS/LOCAL(IBO)  
 Orbital energies read from record       2100.2  Type=RKS/LOCAL(IBO)  
 Redundancy group numbers read from rec  2100.2  Type=RKS/LOCAL(IBO)  

 IBBA/aug-cc-pVTZ energy=      0.000000000000

        KS-SCF  
    -76.57551437
 **********************************************************************************************************************************
 Molpro calculation terminated
