
 Primary working directories    : /local
 Secondary working directories  : /local
 Wavefunction directory         : /local/
 Main file repository           : /local/

 SHA1      : b4a5b34a9e711420743f49e6833241d17c61fb3c
 NAME      : 2099.9.b4a5b34
 ARCHNAME  : linux/x86_64_openmp
 FC        : /cm/shared/languages/GCC-6.1/bin/gfortran
 BLASLIB   : -lblas
 id        : simonbennie

 Nodes     nprocs
 node34-017    1

 Using customized tuning parameters: mindgm=1; mindgv=20; mindgc=4; mindgr=1; noblas=0; minvec=7
 default implementation of scratch files=df  

 memory,500,m
 geomtyp=xyz
 nosym
 noorient
 geometry={
 O         -0.30106       -0.10805       -0.00001
 H         -0.42795        0.85157        0.00002
 H          1.01549       -0.10037        0.00012
 H          1.82097        0.11319       -0.00007
 }
 basis={ default,tzvp }
 {uks,HFS,direct;wf,11,1,1}
 {ibba,bonds=1}

 Variables initialized (895), CPU time= 0.00 sec
 Commands  initialized (725), CPU time= 0.02 sec, 591 directives.
 Default parameters read. Elapsed time= 0.09 sec

 Checking input...
 Passed
1


                                         ***  PROGRAM SYSTEM MOLPRO  ***
                                       Copyright, TTI GmbH Stuttgart, 2015
                                    Version 2099.9 linked May 26 2017 16:03:21


 **********************************************************************************************************************************
 LABEL *                                                                                 
  64 bit serial version                                                                  DATE: 24-Jun-17          TIME: 04:27:11  
 **********************************************************************************************************************************

 SHA1:             b4a5b34a9e711420743f49e6833241d17c61fb3c
 **********************************************************************************************************************************
 SETTING GEOMTYP        =    XYZ

 Variable memory set to  500000000 words,  buffer space 

 ZSYMEL=NOSYM

 SETTING BASIS          =    TZVP


 Recomputing integrals since basis changed


 Using spherical harmonics

 Library entry O      S def2-TZVP            selected for orbital group  1
 Library entry O      P def2-TZVP            selected for orbital group  1
 Library entry O      D def2-TZVP            selected for orbital group  1
 Library entry O      F def2-TZVP            selected for orbital group  1
 Library entry H      S def2-TZVP            selected for orbital group  2
 Library entry H      P def2-TZVP            selected for orbital group  2


 PROGRAM * SEWARD (Integral evaluation for generally contracted gaussian basis sets)     Author: Roland Lindh, 1990

 Geometry written to block  1 of record 700


 Point group  C1  



 ATOMIC COORDINATES

 NR  ATOM    CHARGE       X              Y              Z

   1  O       8.00   -0.568920947   -0.204184908   -0.000018897
   2  H       1.00   -0.808708295    1.609234076    0.000037795
   3  H       1.00    1.918997982   -0.189671811    0.000226767
   4  H       1.00    3.441134581    0.213898100   -0.000132281

 Bond lengths in Bohr (Angstrom)

 1-2  1.829203757  1-3  2.487961272  3-4  1.574728112
     ( 0.967972942)     ( 1.316572407)     ( 0.833310230)

 Bond angles

  1-3-4  165.48482331   2-1-3   97.19826261

 NUCLEAR CHARGE:                   11
 NUMBER OF PRIMITIVE AOS:          75
 NUMBER OF SYMMETRY AOS:           70
 NUMBER OF CONTRACTIONS:           49   (  49A   )
 NUMBER OF CORE ORBITALS:           1   (   1A   )
 NUMBER OF VALENCE ORBITALS:        7   (   7A   )


 NUCLEAR REPULSION ENERGY   10.73783922


 Eigenvalues of metric

         1 0.907E-02 0.117E-01 0.172E-01 0.370E-01 0.554E-01 0.929E-01 0.107E+00 0.131E+00


 Contracted 2-electron integrals neglected if value below      1.0D-11
 AO integral compression algorithm  1   Integral accuracy      1.0D-11

     3.146 MB (compressed) written to integral file ( 44.2%)


 NUMBER OF SORTED TWO-ELECTRON INTEGRALS:     750925.     BUFFER LENGTH:  32768
 NUMBER OF SEGMENTS:   1  SEGMENT LENGTH:     750925      RECORD LENGTH: 524288

 Memory used in sort:       1.31 MW

 SORT1 READ      903463. AND WROTE      626804. INTEGRALS IN      2 RECORDS. CPU TIME:     0.01 SEC, REAL TIME:     0.02 SEC
 SORT2 READ      626804. AND WROTE      750925. INTEGRALS IN     12 RECORDS. CPU TIME:     0.05 SEC, REAL TIME:     0.05 SEC

 FILE SIZES:   FILE 1:    33.2 MBYTE,  FILE 4:     8.4 MBYTE,   TOTAL:     41.7 MBYTE

 OPERATOR DM      FOR CENTER  0  COORDINATES:    0.000000    0.000000    0.000000


 **********************************************************************************************************************************
 DATASETS  * FILE   NREC   LENGTH (MB)   RECORD NAMES
              1      19       32.52       500      610      700      900      950      970     1000      129      960     1100   
                                          VAR    BASINP    GEOM    SYMINP    ZMAT    AOBASIS   BASIS     P2S    ABASIS      S 
                                         1400     1410     1200     1210     1080     1600     1650     1300     1700   
                                           T        V       H0       H01     AOSYM     SMH    MOLCAS    ERIS     OPER   

 PROGRAMS   *        TOTAL       INT
 CPU TIMES  *         0.45      0.30
 REAL TIME  *         0.77 SEC
 DISK USED  *        41.98 MB      
 **********************************************************************************************************************************

 Density functional group HFS=DIRAC
 Functional: DIRAC(Automatically generated (new) DIRAC)                        Gradient terms: 0
 Use grid at  1800.2

 Functional: DIRAC                     Factor:  1.0000

 Generated new metagrid on record  1800.2 with target accuracy 1.0D-06 and 13042 points in CPU time    0.2
 Computed new grid on record 1800.1 in CPU time    0.2
   24106 words reserved for DFT integration

 PROGRAM * UKS-SCF (Unrestricted Kohn-Sham)     Authors: W. Meyer, H.-J. Werner, P.J. Knowles, 1993

 NUMBER OF ELECTRONS:       6+    5-    SPACE SYMMETRY=1    SPIN SYMMETRY: Doublet 
 CONVERGENCE THRESHOLDS:    1.00E-05 (Density)    1.00E-06 (Energy)
 MAX. NUMBER OF ITERATIONS:       60
 INTERPOLATION TYPE:            DIIS
 INTERPOLATION STEPS:              2 (START)      1 (STEP)
 LEVEL SHIFTS:                 -0.20 (ALPHA)  -0.20 (BETA) 



 Use fine grid record 1800.2 for energy threshold  1.0D-06
 Orbital guess generated from atomic densities. Full valence occupancy:    6

 Molecular orbital dump at record        2200.2

 Initial alpha occupation   6
 Initial beta  occupation   5

 ITERATION    DDIFF          GRAD             ENERGY        2-EL.EN.            DIPOLE MOMENTS         DIIS
    1      0.000D+00      0.000D+00       -75.61992590     99.742220    0.88277    0.94390    0.00006    0
    2      0.945D-02      0.668D-02       -75.63181362     93.599676    0.26514    0.55145    0.00005    1
    3      0.401D-02      0.703D-02       -75.66359914     96.304670    0.44359    0.66824    0.00005    2
    4      0.713D-03      0.621D-03       -75.66415138     96.361998    0.41107    0.65894    0.00005    3
    5      0.469D-03      0.206D-03       -75.66433372     96.357555    0.38292    0.64876    0.00005    4
    6      0.219D-03      0.887D-04       -75.66438101     96.335428    0.36381    0.64465    0.00005    5
    7      0.832D-04      0.358D-04       -75.66438631     96.339011    0.36035    0.64397    0.00005    6
    8      0.380D-04      0.983D-05       -75.66438701     96.337265    0.35856    0.64405    0.00006    7
    9      0.100D-04      0.357D-05       -75.66438705     96.337905    0.35846    0.64395    0.00006    6
   10      0.182D-05      0.771D-06       -75.66438706     96.337983    0.35842    0.64396    0.00006    7
   11      0.665D-06      0.300D-06       -75.66438706     96.337817    0.35840    0.64394    0.00006    7

 Final alpha occupancy:   6
 Final beta  occupancy:   5

 !UKS STATE 1.1 Energy                -75.664387056386
 Nuclear energy                        10.73783922
 One-electron energy                 -126.31687066
 Two-electron energy                   48.16890872
 Density functional                    -8.25426434     DIRAC=-8.25426434
 Virial quotient                       -0.99890696
 !UKS STATE 1.1 Dipole moment           0.35839781     0.64394130     0.00005631
 Dipole moment /Debye                   0.91089671     1.63662832     0.00014312

 Orbital energies for positive spin:

         1.1          2.1          3.1          4.1          5.1          6.1          7.1          8.1
    -18.574765    -0.860444    -0.435010    -0.351516    -0.237526    -0.228762     0.047918     0.110941

 Orbital energies for negative spin:

         1.1          2.1          3.1          4.1          5.1          6.1          7.1          8.1
    -18.555043    -0.821697    -0.393884    -0.319977    -0.206060    -0.156954     0.054606     0.146768

 HOMO     -5.1    -0.206060 =      -5.6072eV
 LUMO     -6.1    -0.156954 =      -4.2709eV
 LUMO-HOMO         0.049106 =       1.3362eV

 EXPECTATION VALUE OF S**2:             0.75535573

 Occupation number threshold for canonical orbitals:  1.999000 (occupied),  0.001000 (virtual)

 Number of pseudo-canonical orbitals per symmetry:    4
 Number of active natural orbitals per symmetry:      3

 Natural orbitals saved to record    2200.2 (Orbital set 3)

 Orbital spaces for UNO-CAS (Min. occupation: 0.020  Max. occupation: 1.980):

 Closed:        5
 Active:        1


 **********************************************************************************************************************************
 DATASETS  * FILE   NREC   LENGTH (MB)   RECORD NAMES
              1      20       32.94       500      610      700      900      950      970     1000      129      960     1100   
                                          VAR    BASINP    GEOM    SYMINP    ZMAT    AOBASIS   BASIS     P2S    ABASIS      S 
                                         1400     1410     1200     1210     1080     1600     1650     1300     1700     1800   
                                           T        V       H0       H01     AOSYM     SMH    MOLCAS    ERIS     OPER     GRID   

              2       5        2.90       700     1000      520     1800     2200   
                                         GEOM     BASIS   MCVARS    GRID      UKS  

 PROGRAMS   *        TOTAL       UKS       INT
 CPU TIMES  *         1.68      1.23      0.30
 REAL TIME  *         2.06 SEC
 DISK USED  *        41.98 MB      
 **********************************************************************************************************************************


 PROGRAM * Intrinsic Basis Bonding Analysis (IBBA)          Author: G. Knizia

 Molecular orbitals read from record     2200.2  Type=UKS/ALPHA (state 1.1)
 Fock matrix read from record            2200.2  Type=UKS/TOTAL (state 1.1)
 Orbital energies read from record       2200.2  Type=UKS/ALPHA (state 1.1)
 Density matrix read from record         2200.2  Type=UKS/CHARGE (state 1.1)

 Number of core orbitals:           1 (   1 )
 Number of closed-shell orbitals:   4 (   4 )
 Number of active  orbitals:        1 (   1 )

 Basis set MINAO-AUTO-PP generated.      Number of basis functions:   8 

 Polarized AO type:                A = (O Ot + (1-O)(1-Ot)) P12
 Orthogonalization method:         Symmetric (Loewdin)
 Localization functional:          L = sum[A,i] <i|n_A|i>^4 -> max

 Localization group 1:   5 orbitals, occupancy  2.000
 Iterative localization: IB/PM,    6 iter; Final gradient 0.75E-08

 Bond order analysis:       [THRPRINT= 0.020]

   CEN ATOM   CEN ATOM     WIBERG.BO      RENORM.BO
     1   O  -   2   H       0.856157       0.995057
     1   O  -   3   H       0.247802       0.165145
     1   O  -   4   H       0.134674       0.055071

     2   H  -   1   O       0.856157       0.995057

     3   H  -   4   H       0.725894       0.630054
     3   H  -   1   O       0.247802       0.165145

     4   H  -   3   H       0.725894       0.630054
     4   H  -   1   O       0.134674       0.055071


 Valency analysis:

   CEN ATOM   TOT.VALENCE
     1   O       1.238634
     2   H       0.859091
     3   H       0.974579
     4   H       0.862618
 Localization group 2:   1 orbitals, occupancy  1.000
 Iterative localization: IB/PM,    1 iter; Final gradient 0.00E+00

 Bond order analysis:       [THRPRINT= 0.020]

   CEN ATOM   CEN ATOM     WIBERG.BO      RENORM.BO





 Valency analysis:

   CEN ATOM   TOT.VALENCE
     1   O       0.000000
     2   H       0.000000
     3   H       0.000000
     4   H       0.000000

 Total charge composition:

   CEN ATOM         s          p       ELECTRONS ->P.CHARGE
     1   O       3.77677    4.38740      8.16417   -0.16417
     2   H       0.62462                 0.62462    0.37538
     3   H       0.84056                 0.84056    0.15944
     4   H       1.37065                 1.37065   -0.37065

 Total charge composition, AO contributions:

   CEN ATOM SHL      SPHERICAL COMPONENTS
     1   O  1s       1.99819
     1   O  2s       1.77858
     1   O  2p       1.82781    1.55959    1.00000

     2   H  1s       0.62462

     3   H  1s       0.84056

     4   H  1s       1.37065

 Active orbital charges:

   CEN ATOM         s          p       ELECTRONS ->SPIN.DEN
     1   O       0.00000    1.00000      1.00000    1.00000
     2   H       0.00000                 0.00000    0.00000
     3   H       0.00000                 0.00000    0.00000
     4   H       0.00000                 0.00000    0.00000

 Active orbital charges, AO contributions:

   CEN ATOM SHL      SPHERICAL COMPONENTS
     1   O  1s       0.00000
     1   O  2s       0.00000
     1   O  2p       0.00000    0.00000    1.00000

     2   H  1s       0.00000

     3   H  1s       0.00000

     4   H  1s       0.00000

 Summary of localized orbital composition:   [THRPRINT= 0.020]

   ORB  GRP  ORB.ENERGY      CENTERS/CHARGES
     1   1   -18.453563      O  1   2.000
     2   1    -0.672902      O  1   1.377   H  2   0.622
     3   1    -0.447590      O  1   2.000
     4   1    -0.446547      O  1   1.783   H  3   0.169   H  4   0.048
     5   1    -0.329744      H  4   1.323   H  3   0.671
     6   2    -0.217222      O  1   1.000

 Localized orbitals saved to record      2200.2  (orbital set 4)


 **********************************************************************************************************************************
 DATASETS  * FILE   NREC   LENGTH (MB)   RECORD NAMES
              1      20       32.94       500      610      700      900      950      970     1000      129      960     1100   
                                          VAR    BASINP    GEOM    SYMINP    ZMAT    AOBASIS   BASIS     P2S    ABASIS      S 
                                         1400     1410     1200     1210     1080     1600     1650     1300     1700     1800   
                                           T        V       H0       H01     AOSYM     SMH    MOLCAS    ERIS     OPER     GRID   

              2       5        2.93       700     1000      520     1800     2200   
                                         GEOM     BASIS   MCVARS    GRID      UKS  

 PROGRAMS   *        TOTAL      IBBA       UKS       INT
 CPU TIMES  *         1.70      0.02      1.23      0.30
 REAL TIME  *         2.11 SEC
 DISK USED  *        41.98 MB      
 **********************************************************************************************************************************
 Molecular orbitals read from record     2200.2  Type=UKS/LOCAL(IBO)  
 Occupation numbers read from record     2200.2  Type=UKS/LOCAL(IBO)  
 Orbital energies read from record       2200.2  Type=UKS/LOCAL(IBO)  
 Redundancy group numbers read from rec  2200.2  Type=UKS/BETA (state 1.1)

 IBBA/TZVP energy=      0.000000000000

        UKS-SCF 
    -75.66438706
 **********************************************************************************************************************************
 Molpro calculation terminated
