
 Primary working directories    : /local
 Secondary working directories  : /local
 Wavefunction directory         : /local/
 Main file repository           : /local/

 SHA1      : b4a5b34a9e711420743f49e6833241d17c61fb3c
 NAME      : 2099.9.b4a5b34
 ARCHNAME  : linux/x86_64_openmp
 FC        : /cm/shared/languages/GCC-6.1/bin/gfortran
 BLASLIB   : -lblas
 id        : simonbennie

 Nodes     nprocs
 node34-031    1

 Using customized tuning parameters: mindgm=1; mindgv=20; mindgc=4; mindgr=1; noblas=0; minvec=7
 default implementation of scratch files=df  

 memory,500,m
 geomtyp=xyz
 nosym
 noorient
 geometry={
 C          0.00000        0.26481        0.00000
 H          1.05343        0.51667        0.00000
 H         -0.52663        0.51702        0.91225
 H         -0.52663        0.51702       -0.91225
 H         -0.00026       -1.11777        0.00000
 H          0.00008       -2.02183        0.00000
 }
 basis={ default,qzvp }
 {uks,VWN80,direct;wf,11,1,1}
 {ibba,bonds=1}

 Variables initialized (895), CPU time= 0.00 sec
 Commands  initialized (725), CPU time= 0.02 sec, 591 directives.
 Default parameters read. Elapsed time= 0.08 sec

 Checking input...
 Passed
1


                                         ***  PROGRAM SYSTEM MOLPRO  ***
                                       Copyright, TTI GmbH Stuttgart, 2015
                                    Version 2099.9 linked May 26 2017 16:03:21


 **********************************************************************************************************************************
 LABEL *                                                                                 
  64 bit serial version                                                                  DATE: 24-Jun-17          TIME: 06:53:20  
 **********************************************************************************************************************************

 SHA1:             b4a5b34a9e711420743f49e6833241d17c61fb3c
 **********************************************************************************************************************************
 SETTING GEOMTYP        =    XYZ

 Variable memory set to  500000000 words,  buffer space 

 ZSYMEL=NOSYM

 SETTING BASIS          =    QZVP


 Recomputing integrals since basis changed


 Using spherical harmonics

 Library entry C      S def2-QZVP            selected for orbital group  1
 Library entry C      P def2-QZVP            selected for orbital group  1
 Library entry C      D def2-QZVP            selected for orbital group  1
 Library entry C      F def2-QZVP            selected for orbital group  1
 Library entry C      G def2-QZVP            selected for orbital group  1
 Library entry H      S def2-QZVP            selected for orbital group  2
 Library entry H      P def2-QZVP            selected for orbital group  2
 Library entry H      D def2-QZVP            selected for orbital group  2
 Library entry H      F def2-QZVP            selected for orbital group  2


 PROGRAM * SEWARD (Integral evaluation for generally contracted gaussian basis sets)     Author: Roland Lindh, 1990

 Geometry written to block  1 of record 700


 Point group  C1  



 ATOMIC COORDINATES

 NR  ATOM    CHARGE       X              Y              Z

   1  C       6.00    0.000000000    0.500418375    0.000000000
   2  H       1.00    1.990694191    0.976364797    0.000000000
   3  H       1.00   -0.995186469    0.977026201    1.723902657
   4  H       1.00   -0.995186469    0.977026201   -1.723902657
   5  H       1.00   -0.000491329   -2.112279170    0.000000000
   6  H       1.00    0.000151178   -3.820704970    0.000000000

 Bond lengths in Bohr (Angstrom)

 1-2  2.046799541  1-3  2.046800308  1-4  2.046800308  1-5  2.612697591
     ( 1.083119672)     ( 1.083120078)     ( 1.083120078)     ( 1.382580024)

 Bond angles

  2-1-3  114.75516930   2-1-4  114.75516930   2-1-5  103.45696275   3-1-4  114.75541708

  3-1-5  103.45983296   4-1-5  103.45983296

 NUCLEAR CHARGE:                   11
 NUMBER OF PRIMITIVE AOS:         282
 NUMBER OF SYMMETRY AOS:          242
 NUMBER OF CONTRACTIONS:          207   ( 207A   )
 NUMBER OF CORE ORBITALS:           1   (   1A   )
 NUMBER OF VALENCE ORBITALS:        9   (   9A   )


 NUCLEAR REPULSION ENERGY   15.32860217


 Eigenvalues of metric

         1 0.134E-03 0.151E-03 0.151E-03 0.211E-03 0.479E-03 0.823E-03 0.823E-03 0.982E-03


 Contracted 2-electron integrals neglected if value below      1.0D-11
 AO integral compression algorithm  1   Integral accuracy      1.0D-11

     828.375 MB (compressed) written to integral file ( 39.5%)


 NUMBER OF SORTED TWO-ELECTRON INTEGRALS:  231738156.     BUFFER LENGTH:  32768
 NUMBER OF SEGMENTS:  15  SEGMENT LENGTH:   15999503      RECORD LENGTH: 524288

 Memory used in sort:      16.56 MW

 SORT1 READ   261984116. AND WROTE   190332775. INTEGRALS IN    553 RECORDS. CPU TIME:     2.63 SEC, REAL TIME:     5.06 SEC
 SORT2 READ   190332775. AND WROTE   231738156. INTEGRALS IN   3160 RECORDS. CPU TIME:     4.47 SEC, REAL TIME:     5.63 SEC

 FILE SIZES:   FILE 1:   860.0 MBYTE,  FILE 4:  2319.5 MBYTE,   TOTAL:   3179.5 MBYTE

 OPERATOR DM      FOR CENTER  0  COORDINATES:    0.000000    0.000000    0.000000


 **********************************************************************************************************************************
 DATASETS  * FILE   NREC   LENGTH (MB)   RECORD NAMES
              1      19      771.64       500      610      700      900      950      970     1000      129      960     1100   
                                          VAR    BASINP    GEOM    SYMINP    ZMAT    AOBASIS   BASIS     P2S    ABASIS      S 
                                         1400     1410     1200     1210     1080     1600     1650     1300     1700   
                                           T        V       H0       H01     AOSYM     SMH    MOLCAS    ERIS     OPER   

 PROGRAMS   *        TOTAL       INT
 CPU TIMES  *        17.38     17.23
 REAL TIME  *        37.49 SEC
 DISK USED  *         3.18 GB      
 **********************************************************************************************************************************

 Density functional group VWN80=VWN5
 Functional: VWN5(Automatically generated (new) VWN5)                          Gradient terms: 0
 Use grid at  1800.2

 Functional: VWN5                      Factor:  1.0000

 Generated new metagrid on record  1800.2 with target accuracy 1.0D-06 and 19122 points in CPU time    0.4
 Computed new grid on record 1800.1 in CPU time    0.4
   89303 words reserved for DFT integration

 PROGRAM * UKS-SCF (Unrestricted Kohn-Sham)     Authors: W. Meyer, H.-J. Werner, P.J. Knowles, 1993

 NUMBER OF ELECTRONS:       6+    5-    SPACE SYMMETRY=1    SPIN SYMMETRY: Doublet 
 CONVERGENCE THRESHOLDS:    1.00E-05 (Density)    1.00E-06 (Energy)
 MAX. NUMBER OF ITERATIONS:       60
 INTERPOLATION TYPE:            DIIS
 INTERPOLATION STEPS:              2 (START)      1 (STEP)
 LEVEL SHIFTS:                 -0.20 (ALPHA)  -0.20 (BETA) 



 Use fine grid record 1800.2 for energy threshold  1.0D-06
 Orbital guess generated from atomic densities. Full valence occupancy:    6

 Molecular orbital dump at record        2200.2

 Initial alpha occupation   6
 Initial beta  occupation   5

 ITERATION    DDIFF          GRAD             ENERGY        2-EL.EN.            DIPOLE MOMENTS         DIIS
    1      0.000D+00      0.000D+00       -34.65181572     59.010020   -0.00047    0.38072    0.00000    0
    2      0.195D-01      0.241D-02       -34.71600080     65.422417   -0.00023    0.21382    0.00000    1
    3      0.182D-02      0.162D-02       -34.75980235     62.992452   -0.00025    0.33241    0.00000    2
    4      0.407D-02      0.182D-03       -34.76126631     63.245681   -0.00022    0.28672    0.00000    3
    5      0.376D-02      0.101D-03       -34.76200672     63.298398   -0.00020    0.27453    0.00000    4
    6      0.331D-02      0.522D-04       -34.76237173     63.362052   -0.00018    0.28076    0.00000    5
    7      0.196D-02      0.260D-04       -34.76248325     63.372861   -0.00017    0.29414   -0.00000    6
    8      0.100D-02      0.105D-04       -34.76250377     63.372509   -0.00016    0.30632   -0.00000    7
    9      0.286D-03      0.341D-05       -34.76250542     63.377834   -0.00016    0.30966   -0.00000    8
   10      0.740D-04      0.101D-05       -34.76250552     63.376980   -0.00016    0.31119    0.00000    7
   11      0.498D-05      0.148D-06       -34.76250552     63.377216   -0.00016    0.31124    0.00000    8
   12      0.841D-06      0.361D-07       -34.76250552     63.377204   -0.00016    0.31128    0.00000    7

 Final alpha occupancy:   6
 Final beta  occupancy:   5

 !UKS STATE 1.1 Energy                -34.762505522232
 Nuclear energy                        15.32860217
 One-electron energy                  -81.17958654
 Two-electron energy                   31.68860179
 Density functional                    -0.60012294     VWN5=-0.60012294
 Virial quotient                       -0.96844646
 !UKS STATE 1.1 Dipole moment          -0.00016119     0.31127772     0.00000000
 Dipole moment /Debye                  -0.00040968     0.79113724     0.00000000

 Orbital energies for positive spin:

         1.1          2.1          3.1          4.1          5.1          6.1          7.1          8.1
     -8.427656    -0.374757    -0.170941    -0.137632    -0.137632     0.035012     0.105575     0.157786

 Orbital energies for negative spin:

         1.1          2.1          3.1          4.1          5.1          6.1          7.1          8.1
     -8.428654    -0.379289    -0.179714    -0.140343    -0.140342     0.017511     0.097943     0.140426

 HOMO      6.1     0.035012 =       0.9527eV
 LUMO     -6.1     0.017511 =       0.4765eV
 LUMO-HOMO        -0.017501 =      -0.4762eV

 EXPECTATION VALUE OF S**2:             0.75031712

 Occupation number threshold for canonical orbitals:  1.999000 (occupied),  0.001000 (virtual)

 Number of pseudo-canonical orbitals per symmetry:    5
 Number of active natural orbitals per symmetry:      1

 Natural orbitals saved to record    2200.2 (Orbital set 3)

 Orbital spaces for UNO-CAS (Min. occupation: 0.020  Max. occupation: 1.980):

 Closed:        5
 Active:        1


 **********************************************************************************************************************************
 DATASETS  * FILE   NREC   LENGTH (MB)   RECORD NAMES
              1      20      772.25       500      610      700      900      950      970     1000      129      960     1100   
                                          VAR    BASINP    GEOM    SYMINP    ZMAT    AOBASIS   BASIS     P2S    ABASIS      S 
                                         1400     1410     1200     1210     1080     1600     1650     1300     1700     1800   
                                           T        V       H0       H01     AOSYM     SMH    MOLCAS    ERIS     OPER     GRID   

              2       5        4.60       700     1000      520     1800     2200   
                                         GEOM     BASIS   MCVARS    GRID      UKS  

 PROGRAMS   *        TOTAL       UKS       INT
 CPU TIMES  *        51.01     33.63     17.23
 REAL TIME  *        73.01 SEC
 DISK USED  *         3.18 GB      
 **********************************************************************************************************************************


 PROGRAM * Intrinsic Basis Bonding Analysis (IBBA)          Author: G. Knizia

 Molecular orbitals read from record     2200.2  Type=UKS/ALPHA (state 1.1)
 Fock matrix read from record            2200.2  Type=UKS/TOTAL (state 1.1)
 Orbital energies read from record       2200.2  Type=UKS/ALPHA (state 1.1)
 Density matrix read from record         2200.2  Type=UKS/CHARGE (state 1.1)

 Number of core orbitals:           1 (   1 )
 Number of closed-shell orbitals:   4 (   4 )
 Number of active  orbitals:        1 (   1 )

 Basis set MINAO-AUTO-PP generated.      Number of basis functions:   10 

 Polarized AO type:                A = (O Ot + (1-O)(1-Ot)) P12
 Orthogonalization method:         Symmetric (Loewdin)
 Localization functional:          L = sum[A,i] <i|n_A|i>^4 -> max

 Localization group 1:   5 orbitals, occupancy  2.000
 Iterative localization: IB/PM,    6 iter; Final gradient 0.11E-09

 Bond order analysis:       [THRPRINT= 0.020]

   CEN ATOM   CEN ATOM     WIBERG.BO      RENORM.BO
     1   C  -   2   H       0.975867       1.000000
     1   C  -   4   H       0.975852       1.000000
     1   C  -   3   H       0.975852       1.000000
     1   C  -   5   H       0.482392       1.000000
     1   C  -   6   H       0.319195       1.000000

     2   H  -   1   C       0.975867       1.000000

     3   H  -   1   C       0.975852       1.000000

     4   H  -   1   C       0.975852       1.000000

     5   H  -   6   H       0.500293       0.925233
     5   H  -   1   C       0.482392       1.000000

     6   H  -   5   H       0.500293       0.925233
     6   H  -   1   C       0.319195       1.000000


 Valency analysis:

   CEN ATOM   TOT.VALENCE
     1   C       3.729158
     2   H       0.987782
     3   H       0.987780
     4   H       0.987780
     5   H       0.991022
     6   H       0.837847
 Localization group 2:   1 orbitals, occupancy  1.000
 Iterative localization: IB/PM,    1 iter; Final gradient 0.00E+00

 Bond order analysis:       [THRPRINT= 0.020]

   CEN ATOM   CEN ATOM     WIBERG.BO      RENORM.BO
     1   C  -   6   H       0.464495       0.500000





     6   H  -   1   C       0.464495       0.500000


 Valency analysis:

   CEN ATOM   TOT.VALENCE
     1   C       0.499846
     2   H       0.023513
     3   H       0.023534
     4   H       0.023534
     5   H       0.000532
     6   H       0.498518

 Total charge composition:

   CEN ATOM         s          p       ELECTRONS ->P.CHARGE
     1   C       3.04698    3.27332      6.32030   -0.32030
     2   H       0.90136                 0.90136    0.09864
     3   H       0.90136                 0.90136    0.09864
     4   H       0.90136                 0.90136    0.09864
     5   H       0.90551                 0.90551    0.09449
     6   H       1.07010                 1.07010   -0.07010

 Total charge composition, AO contributions:

   CEN ATOM SHL      SPHERICAL COMPONENTS
     1   C  1s       1.99728
     1   C  2s       1.04969
     1   C  2p       1.14943    0.97447    1.14943

     2   H  1s       0.90136

     3   H  1s       0.90136

     4   H  1s       0.90136

     5   H  1s       0.90551

     6   H  1s       1.07010

 Active orbital charges:

   CEN ATOM         s          p       ELECTRONS ->SPIN.DEN
     1   C       0.07332    0.41792      0.49124    0.49124
     2   H       0.01190                 0.01190    0.01190
     3   H       0.01191                 0.01191    0.01191
     4   H       0.01191                 0.01191    0.01191
     5   H       0.00027                 0.00027    0.00027
     6   H       0.47278                 0.47278    0.47278

 Active orbital charges, AO contributions:

   CEN ATOM SHL      SPHERICAL COMPONENTS
     1   C  1s       0.00009
     1   C  2s       0.07323
     1   C  2p       0.00000    0.41792    0.00000

     2   H  1s       0.01190

     3   H  1s       0.01191

     4   H  1s       0.01191

     5   H  1s       0.00027

     6   H  1s       0.47278

 Summary of localized orbital composition:   [THRPRINT= 0.020]

   ORB  GRP  ORB.ENERGY      CENTERS/CHARGES
     1   1    -8.346797      C  1   2.000
     2   1    -0.232854      C  1   1.101   H  4   0.889
     3   1    -0.232854      C  1   1.101   H  3   0.889
     4   1    -0.232850      C  1   1.101   H  2   0.889
     5   1    -0.213022      H  5   0.899   H  6   0.576   C  1   0.526
     6   2     0.026448      C  1   0.491   H  6   0.473   (other: 0.036)

 Localized orbitals saved to record      2200.2  (orbital set 4)


 **********************************************************************************************************************************
 DATASETS  * FILE   NREC   LENGTH (MB)   RECORD NAMES
              1      20      772.25       500      610      700      900      950      970     1000      129      960     1100   
                                          VAR    BASINP    GEOM    SYMINP    ZMAT    AOBASIS   BASIS     P2S    ABASIS      S 
                                         1400     1410     1200     1210     1080     1600     1650     1300     1700     1800   
                                           T        V       H0       H01     AOSYM     SMH    MOLCAS    ERIS     OPER     GRID   

              2       5        4.94       700     1000      520     1800     2200   
                                         GEOM     BASIS   MCVARS    GRID      UKS  

 PROGRAMS   *        TOTAL      IBBA       UKS       INT
 CPU TIMES  *        51.05      0.04     33.63     17.23
 REAL TIME  *        73.10 SEC
 DISK USED  *         3.18 GB      
 **********************************************************************************************************************************
 Molecular orbitals read from record     2200.2  Type=UKS/LOCAL(IBO)  
 Occupation numbers read from record     2200.2  Type=UKS/LOCAL(IBO)  
 Orbital energies read from record       2200.2  Type=UKS/LOCAL(IBO)  
 Redundancy group numbers read from rec  2200.2  Type=UKS/BETA (state 1.1)

 IBBA/QZVP energy=      0.000000000000

        UKS-SCF 
    -34.76250552
 **********************************************************************************************************************************
 Molpro calculation terminated
