
 Primary working directories    : /local
 Secondary working directories  : /local
 Wavefunction directory         : /local/
 Main file repository           : /local/

 SHA1      : b4a5b34a9e711420743f49e6833241d17c61fb3c
 NAME      : 2099.9.b4a5b34
 ARCHNAME  : linux/x86_64_openmp
 FC        : /cm/shared/languages/GCC-6.1/bin/gfortran
 BLASLIB   : -lblas
 id        : simonbennie

 Nodes     nprocs
 node47-021    1

 Using customized tuning parameters: mindgm=1; mindgv=20; mindgc=4; mindgr=1; noblas=0; minvec=7
 default implementation of scratch files=df  

 memory,500,m
 geomtyp=xyz
 nosym
 noorient
 geometry={
 C          0.00000        0.26481        0.00000
 H          1.05343        0.51667        0.00000
 H         -0.52663        0.51702        0.91225
 H         -0.52663        0.51702       -0.91225
 H         -0.00026       -1.11777        0.00000
 H          0.00008       -2.02183        0.00000
 }
 basis={ default,qzvp }
 {uks,B3LYP5,direct;disp;wf,11,1,1}
 {ibba,bonds=1}

 Variables initialized (895), CPU time= 0.01 sec
 Commands  initialized (725), CPU time= 0.01 sec, 591 directives.
 Default parameters read. Elapsed time= 0.17 sec

 Checking input...
 Passed
1


                                         ***  PROGRAM SYSTEM MOLPRO  ***
                                       Copyright, TTI GmbH Stuttgart, 2015
                                    Version 2099.9 linked May 26 2017 16:03:21


 **********************************************************************************************************************************
 LABEL *                                                                                 
  64 bit serial version                                                                  DATE: 17-Mar-18          TIME: 16:06:13  
 **********************************************************************************************************************************

 SHA1:             b4a5b34a9e711420743f49e6833241d17c61fb3c
 **********************************************************************************************************************************
 SETTING GEOMTYP        =    XYZ

 Variable memory set to  500000000 words,  buffer space 

 ZSYMEL=NOSYM

 SETTING BASIS          =    QZVP


 Recomputing integrals since basis changed


 Using spherical harmonics

 Library entry C      S def2-QZVP            selected for orbital group  1
 Library entry C      P def2-QZVP            selected for orbital group  1
 Library entry C      D def2-QZVP            selected for orbital group  1
 Library entry C      F def2-QZVP            selected for orbital group  1
 Library entry C      G def2-QZVP            selected for orbital group  1
 Library entry H      S def2-QZVP            selected for orbital group  2
 Library entry H      P def2-QZVP            selected for orbital group  2
 Library entry H      D def2-QZVP            selected for orbital group  2
 Library entry H      F def2-QZVP            selected for orbital group  2


 PROGRAM * SEWARD (Integral evaluation for generally contracted gaussian basis sets)     Author: Roland Lindh, 1990

 Geometry written to block  1 of record 700


 Point group  C1  



 ATOMIC COORDINATES

 NR  ATOM    CHARGE       X              Y              Z

   1  C       6.00    0.000000000    0.500418375    0.000000000
   2  H       1.00    1.990694191    0.976364797    0.000000000
   3  H       1.00   -0.995186469    0.977026201    1.723902657
   4  H       1.00   -0.995186469    0.977026201   -1.723902657
   5  H       1.00   -0.000491329   -2.112279170    0.000000000
   6  H       1.00    0.000151178   -3.820704970    0.000000000

 Bond lengths in Bohr (Angstrom)

 1-2  2.046799541  1-3  2.046800308  1-4  2.046800308  1-5  2.612697591
     ( 1.083119672)     ( 1.083120078)     ( 1.083120078)     ( 1.382580024)

 Bond angles

  2-1-3  114.75516930   2-1-4  114.75516930   2-1-5  103.45696275   3-1-4  114.75541708

  3-1-5  103.45983296   4-1-5  103.45983296

 NUCLEAR CHARGE:                   11
 NUMBER OF PRIMITIVE AOS:         282
 NUMBER OF SYMMETRY AOS:          242
 NUMBER OF CONTRACTIONS:          207   ( 207A   )
 NUMBER OF CORE ORBITALS:           1   (   1A   )
 NUMBER OF VALENCE ORBITALS:        9   (   9A   )


 NUCLEAR REPULSION ENERGY   15.32860217


 Eigenvalues of metric

         1 0.134E-03 0.151E-03 0.151E-03 0.211E-03 0.479E-03 0.823E-03 0.823E-03 0.982E-03


 Contracted 2-electron integrals neglected if value below      1.0D-11
 AO integral compression algorithm  1   Integral accuracy      1.0D-11

     828.375 MB (compressed) written to integral file ( 39.5%)


 NUMBER OF SORTED TWO-ELECTRON INTEGRALS:  231738156.     BUFFER LENGTH:  32768
 NUMBER OF SEGMENTS:  15  SEGMENT LENGTH:   15999503      RECORD LENGTH: 524288

 Memory used in sort:      16.56 MW

 SORT1 READ   261984116. AND WROTE   190332775. INTEGRALS IN    553 RECORDS. CPU TIME:     2.92 SEC, REAL TIME:     8.17 SEC
 SORT2 READ   190332775. AND WROTE   231738156. INTEGRALS IN   3160 RECORDS. CPU TIME:     6.22 SEC, REAL TIME:    16.43 SEC

 FILE SIZES:   FILE 1:   860.0 MBYTE,  FILE 4:  2319.5 MBYTE,   TOTAL:   3179.5 MBYTE

 OPERATOR DM      FOR CENTER  0  COORDINATES:    0.000000    0.000000    0.000000


 **********************************************************************************************************************************
 DATASETS  * FILE   NREC   LENGTH (MB)   RECORD NAMES
              1      19      771.64       500      610      700      900      950      970     1000      129      960     1100   
                                          VAR    BASINP    GEOM    SYMINP    ZMAT    AOBASIS   BASIS     P2S    ABASIS      S 
                                         1400     1410     1200     1210     1080     1600     1650     1300     1700   
                                           T        V       H0       H01     AOSYM     SMH    MOLCAS    ERIS     OPER   

 PROGRAMS   *        TOTAL       INT
 CPU TIMES  *        19.91     19.77
 REAL TIME  *        43.74 SEC
 DISK USED  *         3.18 GB      
 **********************************************************************************************************************************

 Density functional group B3LYP5=B88+DIRAC+LYP+VWN5
 Functional: B88(Automatically generated (new) B88)                            Gradient terms: 1
 Functional: DIRAC(Automatically generated (new) DIRAC)                        Gradient terms: 0
 Functional: LYP(Automatically generated (new) LYP)                            Gradient terms: 1
 Functional: VWN5(Automatically generated (new) VWN5)                          Gradient terms: 0

 dispersion correction activated
 Density functional: B3LYP5  
 functional not in list, set to default 


 Exact exchange will be calculated, factor:  0.2000

 Functional: B88                       Factor:  0.7200
 Functional: DIRAC                     Factor:  0.0800
 Functional: LYP                       Factor:  0.8100
 Functional: VWN5                      Factor:  0.1900

 Use grid at  1800.2


 Exact exchange will be calculated, factor:  0.2000

 Functional: B88                       Factor:  0.7200
 Functional: DIRAC                     Factor:  0.0800
 Functional: LYP                       Factor:  0.8100
 Functional: VWN5                      Factor:  0.1900

 Generated new metagrid on record  1800.2 with target accuracy 1.0D-06 and 19122 points in CPU time    0.4
 Computed new grid on record 1800.1 in CPU time    0.4
  168170 words reserved for DFT integration

 PROGRAM * UKS-SCF (Unrestricted Kohn-Sham)     Authors: W. Meyer, H.-J. Werner, P.J. Knowles, 1993

 NUMBER OF ELECTRONS:       6+    5-    SPACE SYMMETRY=1    SPIN SYMMETRY: Doublet 
 CONVERGENCE THRESHOLDS:    1.00E-05 (Density)    1.00E-06 (Energy)
 MAX. NUMBER OF ITERATIONS:       60
 INTERPOLATION TYPE:            DIIS
 INTERPOLATION STEPS:              2 (START)      1 (STEP)
 LEVEL SHIFTS:                 -0.20 (ALPHA)  -0.20 (BETA) 



 Use fine grid record 1800.2 for energy threshold  1.0D-06
 Orbital guess generated from atomic densities. Full valence occupancy:    6

 Molecular orbital dump at record        2200.2

 Initial alpha occupation   6
 Initial beta  occupation   5

 ITERATION    DDIFF          GRAD             ENERGY        2-EL.EN.            DIPOLE MOMENTS         DIIS
    1      0.000D+00      0.000D+00       -40.92234650     70.177732    0.00003   -0.14613   -0.00000    0
    2      0.158D-02      0.171D-02       -40.97987228     65.969396   -0.00001    0.27024   -0.00000    1
    3      0.432D-03      0.806D-03       -40.98956103     66.962507   -0.00000    0.23335   -0.00000    2
    4      0.181D-03      0.118D-03       -40.99019432     66.942357   -0.00000    0.26630   -0.00000    3
    5      0.137D-03      0.428D-04       -40.99033084     66.918617   -0.00001    0.28568    0.00000    4
    6      0.890D-04      0.145D-04       -40.99035169     66.913582   -0.00001    0.29402    0.00000    5
    7      0.291D-04      0.445D-05       -40.99035371     66.912611   -0.00001    0.29611   -0.00000    6
    8      0.847D-05      0.122D-05       -40.99035387     66.912428   -0.00001    0.29670   -0.00000    6
    9      0.269D-05      0.343D-06       -40.99035388     66.912365   -0.00001    0.29672   -0.00000    6

 Dispersion correction
 - - - - - - - - - - - 
  _________________________________
                                   
 |         DFTD3 V1.3 Rev 1        |
 | S.Grimme, University Muenster   |
 | Fri Jul  2 12:48:21 CEST 2010   |
  _________________________________

 Please cite DFT-D3 work done with this code as:
 S. Grimme, J. Antony, S. Ehrlich and H. Krieg,
 J. Chem. Phys, 132 (2010), 154104.
 For DFT-D2 the reference is
 S. Grimme, J. Comput. Chem., 27 (2006), 1787-1799

 C6 coefficients used:
                    2  C6 for element                     1
 Z=  1 CN=   0.912     C6(AA)=    3.03
 Z=  1 CN=   0.000     C6(AA)=    7.59
                    5  C6 for element                     6
 Z=  6 CN=   0.000     C6(AA)=   49.11
 Z=  6 CN=   0.987     C6(AA)=   43.25
 Z=  6 CN=   1.998     C6(AA)=   29.36
 Z=  6 CN=   2.999     C6(AA)=   25.78
 Z=  6 CN=   3.984     C6(AA)=   18.21

 #           XYZ [au]               R0(AA) [Ang.]   CN       C6(AA)     C8(AA)   C10(AA) [au]
  1   0.00000   0.50042   0.00000   c   1.455  3.609        20.2       583.5     20672.3
  2   1.99069   0.97636   0.00000   h   1.091  0.994         3.1        37.4       553.7
  3  -0.99519   0.97703   1.72390   h   1.091  0.994         3.1        37.4       553.7
  4  -0.99519   0.97703  -1.72390   h   1.091  0.994         3.1        37.4       553.7
  5  -0.00049  -2.11228   0.00000   h   1.091  0.915         3.1        38.0       562.9
  6   0.00015  -3.82070   0.00000   h   1.091  0.292         6.3        76.5      1132.7

 molecular C6(AA) [au] =       196.51

           DFT-D V3
 DF pbe                                               
 parameters
 s6       :    1.0000
 s8       :    0.7220
 rs6      :    1.2170
 alpha6   :   14.0000
 alpha8   :   16.0000
 k1-k3    :   16.0000    1.3333   -4.0000

 Edisp /kcal,au:    -0.3251 -0.00051803

 E6    /kcal :    -0.1018
 E8    /kcal :    -0.2233
 % E8        : 68.68
 normal termination of dftd3

 UKS STATE 1.1 ENERGY+DISP      -40.99087192

 Final alpha occupancy:   6
 Final beta  occupancy:   5

 !UKS STATE 1.1 Energy                -40.990871916371
 Nuclear energy                        15.32860217
 One-electron energy                  -83.97796070
 Two-electron energy                   33.45618228
 Density functional                    -5.79717763     B88=-6.85718653 DIRAC=-6.13216893 LYP=-0.30818329 VWN5=-0.63053341
 Virial quotient                       -1.00569761
 !UKS STATE 1.1 Dipole moment          -0.00000962     0.29671634    -0.00000000
 Dipole moment /Debye                  -0.00002446     0.75412832    -0.00000000

 Orbital energies for positive spin:

         1.1          2.1          3.1          4.1          5.1          6.1          7.1          8.1
    -10.184413    -0.707752    -0.452574    -0.420373    -0.420373    -0.218842     0.032657     0.081706

 Orbital energies for negative spin:

         1.1          2.1          3.1          4.1          5.1          6.1          7.1          8.1
    -10.173791    -0.681642    -0.413385    -0.413383    -0.409177    -0.086433     0.037384     0.088951

 HOMO      6.1    -0.218842 =      -5.9550eV
 LUMO     -6.1    -0.086433 =      -2.3520eV
 LUMO-HOMO         0.132408 =       3.6030eV

 EXPECTATION VALUE OF S**2:             0.75811732

 Occupation number threshold for canonical orbitals:  1.999000 (occupied),  0.001000 (virtual)

 Number of pseudo-canonical orbitals per symmetry:    4
 Number of active natural orbitals per symmetry:      3

 Natural orbitals saved to record    2200.2 (Orbital set 3)

 Orbital spaces for UNO-CAS (Min. occupation: 0.020  Max. occupation: 1.980):

 Closed:        5
 Active:        1


 **********************************************************************************************************************************
 DATASETS  * FILE   NREC   LENGTH (MB)   RECORD NAMES
              1      20      772.25       500      610      700      900      950      970     1000      129      960     1100   
                                          VAR    BASINP    GEOM    SYMINP    ZMAT    AOBASIS   BASIS     P2S    ABASIS      S 
                                         1400     1410     1200     1210     1080     1600     1650     1300     1700     1800   
                                           T        V       H0       H01     AOSYM     SMH    MOLCAS    ERIS     OPER     GRID   

              2       5        4.60       700     1000      520     1800     2200   
                                         GEOM     BASIS   MCVARS    GRID      UKS  

 PROGRAMS   *        TOTAL       UKS       INT
 CPU TIMES  *        75.51     55.60     19.77
 REAL TIME  *       104.07 SEC
 DISK USED  *         3.18 GB      
 **********************************************************************************************************************************


 PROGRAM * Intrinsic Basis Bonding Analysis (IBBA)          Author: G. Knizia

 Molecular orbitals read from record     2200.2  Type=UKS/ALPHA (state 1.1)
 Fock matrix read from record            2200.2  Type=UKS/TOTAL (state 1.1)
 Orbital energies read from record       2200.2  Type=UKS/ALPHA (state 1.1)
 Density matrix read from record         2200.2  Type=UKS/CHARGE (state 1.1)

 Number of core orbitals:           1 (   1 )
 Number of closed-shell orbitals:   4 (   4 )
 Number of active  orbitals:        1 (   1 )

 Basis set MINAO-AUTO-PP generated.      Number of basis functions:   10 

 Polarized AO type:                A = (O Ot + (1-O)(1-Ot)) P12
 Orthogonalization method:         Symmetric (Loewdin)
 Localization functional:          L = sum[A,i] <i|n_A|i>^4 -> max

 Localization group 1:   5 orbitals, occupancy  2.000
 Iterative localization: IB/PM,    5 iter; Final gradient 0.23E-08

 Bond order analysis:       [THRPRINT= 0.020]

   CEN ATOM   CEN ATOM     WIBERG.BO      RENORM.BO
     1   C  -   2   H       0.958221       1.000000
     1   C  -   3   H       0.958210       1.000000
     1   C  -   4   H       0.958210       1.000000
     1   C  -   5   H       0.443194       1.000000
     1   C  -   6   H       0.330659       1.000000

     2   H  -   1   C       0.958221       1.000000

     3   H  -   1   C       0.958210       1.000000

     4   H  -   1   C       0.958210       1.000000

     5   H  -   6   H       0.534702       0.933327
     5   H  -   1   C       0.443194       1.000000

     6   H  -   5   H       0.534702       0.933327
     6   H  -   1   C       0.330659       1.000000


 Valency analysis:

   CEN ATOM   TOT.VALENCE
     1   C       3.648493
     2   H       0.967343
     3   H       0.967337
     4   H       0.967337
     5   H       0.980126
     6   H       0.889057
 Localization group 2:   1 orbitals, occupancy  1.000
 Iterative localization: IB/PM,    1 iter; Final gradient 0.00E+00

 Bond order analysis:       [THRPRINT= 0.020]

   CEN ATOM   CEN ATOM     WIBERG.BO      RENORM.BO
     1   C  -   6   H       0.478735       0.500000





     6   H  -   1   C       0.478735       0.500000


 Valency analysis:

   CEN ATOM   TOT.VALENCE
     1   C       0.494256
     2   H       0.009290
     3   H       0.009300
     4   H       0.009300
     5   H       0.000015
     6   H       0.490858

 Total charge composition:

   CEN ATOM         s          p       ELECTRONS ->P.CHARGE
     1   C       3.14803    3.42179      6.56982   -0.56982
     2   H       0.82395                 0.82395    0.17605
     3   H       0.82394                 0.82394    0.17606
     4   H       0.82394                 0.82394    0.17606
     5   H       0.85903                 0.85903    0.14097
     6   H       1.09931                 1.09931   -0.09931

 Total charge composition, AO contributions:

   CEN ATOM SHL      SPHERICAL COMPONENTS
     1   C  1s       1.99196
     1   C  2s       1.15607
     1   C  2p       1.19628    1.02923    1.19628

     2   H  1s       0.82395

     3   H  1s       0.82394

     4   H  1s       0.82394

     5   H  1s       0.85903

     6   H  1s       1.09931

 Active orbital charges:

   CEN ATOM         s          p       ELECTRONS ->SPIN.DEN
     1   C       0.03291    0.52068      0.55359    0.55359
     2   H       0.00467                 0.00467    0.00467
     3   H       0.00467                 0.00467    0.00467
     4   H       0.00467                 0.00467    0.00467
     5   H       0.00001                 0.00001    0.00001
     6   H       0.43239                 0.43239    0.43239

 Active orbital charges, AO contributions:

   CEN ATOM SHL      SPHERICAL COMPONENTS
     1   C  1s       0.00009
     1   C  2s       0.03283
     1   C  2p       0.00000    0.52068    0.00000

     2   H  1s       0.00467

     3   H  1s       0.00467

     4   H  1s       0.00467

     5   H  1s       0.00001

     6   H  1s       0.43239

 Summary of localized orbital composition:   [THRPRINT= 0.020]

   ORB  GRP  ORB.ENERGY      CENTERS/CHARGES
     1   1   -10.064845      C  1   2.000
     2   1    -0.539015      C  1   1.173   H  3   0.818
     3   1    -0.539015      C  1   1.173   H  4   0.818
     4   1    -0.539014      C  1   1.173   H  2   0.818
     5   1    -0.452498      H  5   0.846   H  6   0.654   C  1   0.496
     6   2    -0.149876      C  1   0.554   H  6   0.432

 Localized orbitals saved to record      2200.2  (orbital set 4)


 **********************************************************************************************************************************
 DATASETS  * FILE   NREC   LENGTH (MB)   RECORD NAMES
              1      20      772.25       500      610      700      900      950      970     1000      129      960     1100   
                                          VAR    BASINP    GEOM    SYMINP    ZMAT    AOBASIS   BASIS     P2S    ABASIS      S 
                                         1400     1410     1200     1210     1080     1600     1650     1300     1700     1800   
                                           T        V       H0       H01     AOSYM     SMH    MOLCAS    ERIS     OPER     GRID   

              2       5        4.94       700     1000      520     1800     2200   
                                         GEOM     BASIS   MCVARS    GRID      UKS  

 PROGRAMS   *        TOTAL      IBBA       UKS       INT
 CPU TIMES  *        75.55      0.04     55.60     19.77
 REAL TIME  *       104.11 SEC
 DISK USED  *         3.18 GB      
 **********************************************************************************************************************************

 IBBA/QZVP energy=      0.000000000000

        UKS-SCF 
    -40.99087192
 **********************************************************************************************************************************
 Molpro calculation terminated
