
 Primary working directories    : /local
 Secondary working directories  : /local
 Wavefunction directory         : /local/
 Main file repository           : /local/

 SHA1      : b4a5b34a9e711420743f49e6833241d17c61fb3c
 NAME      : 2099.9.b4a5b34
 ARCHNAME  : linux/x86_64_openmp
 FC        : /cm/shared/languages/GCC-6.1/bin/gfortran
 BLASLIB   : -lblas
 id        : simonbennie

 Nodes     nprocs
 node35-023    1

 Using customized tuning parameters: mindgm=1; mindgv=20; mindgc=4; mindgr=1; noblas=0; minvec=7
 default implementation of scratch files=df  

 memory,500,m
 geomtyp=xyz
 nosym
 noorient
 geometry={
 C         -1.21149        0.00797        0.00041
 O          1.29397       -0.10869        0.00013
 H          0.00948       -0.11802        0.00280
 H         -1.52553       -0.23325        1.01007
 H         -1.43067        1.03323       -0.27808
 H         -1.55271       -0.71011       -0.73770
 H          1.41664        0.84989       -0.00059
 }
 basis={ default,SV(P) }
 {uks,VWN80,direct;wf,19,1,1}
 {ibba,bonds=1}

 Variables initialized (895), CPU time= 0.00 sec
 Commands  initialized (725), CPU time= 0.01 sec, 591 directives.
 Default parameters read. Elapsed time= 0.08 sec

 Checking input...
 Passed
1


                                         ***  PROGRAM SYSTEM MOLPRO  ***
                                       Copyright, TTI GmbH Stuttgart, 2015
                                    Version 2099.9 linked May 26 2017 16:03:21


 **********************************************************************************************************************************
 LABEL *                                                                                 
  64 bit serial version                                                                  DATE: 30-Jun-17          TIME: 11:55:51  
 **********************************************************************************************************************************

 SHA1:             b4a5b34a9e711420743f49e6833241d17c61fb3c
 **********************************************************************************************************************************
 SETTING GEOMTYP        =    XYZ

 Variable memory set to  500000000 words,  buffer space 

 ZSYMEL=NOSYM

 SETTING BASIS          =    SV(P)


 Recomputing integrals since basis changed


 Using spherical harmonics

 Library entry C      S def2-SV(P)           selected for orbital group  1
 Library entry C      P def2-SV(P)           selected for orbital group  1
 Library entry C      D def2-SV(P)           selected for orbital group  1
 Library entry O      S def2-SV(P)           selected for orbital group  2
 Library entry O      P def2-SV(P)           selected for orbital group  2
 Library entry O      D def2-SV(P)           selected for orbital group  2
 Library entry H      S def2-SV(P)           selected for orbital group  3


 PROGRAM * SEWARD (Integral evaluation for generally contracted gaussian basis sets)     Author: Roland Lindh, 1990

 Geometry written to block  1 of record 700


 Point group  C1  



 ATOMIC COORDINATES

 NR  ATOM    CHARGE       X              Y              Z

   1  C       6.00   -2.289384303    0.015061117    0.000774788
   2  O       8.00    2.445248913   -0.205394332    0.000245664
   3  H       1.00    0.017914604   -0.223025477    0.005291233
   4  H       1.00   -2.882833895   -0.440778619    1.908755667
   5  H       1.00   -2.703574475    1.952521724   -0.525495041
   6  H       1.00   -2.934196651   -1.341913418   -1.394050962
   7  H       1.00    2.677061617    1.606059336   -0.001114938

 Bond lengths in Bohr (Angstrom)

 1-3  2.319554670  1-4  2.049478792  1-5  2.049943178  1-6  2.050049201  2-3  2.427403585
     ( 1.227455471)     ( 1.084537471)     ( 1.084783213)     ( 1.084839318)     ( 1.284526659)

 2-7  1.826226540
     ( 0.966397467)

 Bond angles

  1-3-2  173.68821167   3-1-4  105.27124604   3-1-5  107.36711084   3-1-6  104.25607416

  3-2-7   97.70877154   4-1-5  112.99849973   4-1-6  113.27293665   5-1-6  112.79152394

 NUCLEAR CHARGE:                   19
 NUMBER OF PRIMITIVE AOS:          70
 NUMBER OF SYMMETRY AOS:           68
 NUMBER OF CONTRACTIONS:           38   (  38A   )
 NUMBER OF CORE ORBITALS:           2   (   2A   )
 NUMBER OF VALENCE ORBITALS:       13   (  13A   )


 NUCLEAR REPULSION ENERGY   37.11882177


 Eigenvalues of metric

         1 0.829E-02 0.290E-01 0.655E-01 0.666E-01 0.775E-01 0.180E+00 0.217E+00 0.236E+00


 Contracted 2-electron integrals neglected if value below      1.0D-11
 AO integral compression algorithm  1   Integral accuracy      1.0D-11

     1.573 MB (compressed) written to integral file ( 49.1%)


 NUMBER OF SORTED TWO-ELECTRON INTEGRALS:     274911.     BUFFER LENGTH:  32768
 NUMBER OF SEGMENTS:   1  SEGMENT LENGTH:     274911      RECORD LENGTH: 524288

 Memory used in sort:       0.83 MW

 SORT1 READ      345687. AND WROTE      257072. INTEGRALS IN      1 RECORDS. CPU TIME:     0.00 SEC, REAL TIME:     0.01 SEC
 SORT2 READ      257072. AND WROTE      274911. INTEGRALS IN      6 RECORDS. CPU TIME:     0.02 SEC, REAL TIME:     0.02 SEC

 FILE SIZES:   FILE 1:    31.7 MBYTE,  FILE 4:     4.2 MBYTE,   TOTAL:     35.9 MBYTE

 OPERATOR DM      FOR CENTER  0  COORDINATES:    0.000000    0.000000    0.000000


 **********************************************************************************************************************************
 DATASETS  * FILE   NREC   LENGTH (MB)   RECORD NAMES
              1      19       31.17       500      610      700      900      950      970     1000      129      960     1100   
                                          VAR    BASINP    GEOM    SYMINP    ZMAT    AOBASIS   BASIS     P2S    ABASIS      S 
                                         1400     1410     1200     1210     1080     1600     1650     1300     1700   
                                           T        V       H0       H01     AOSYM     SMH    MOLCAS    ERIS     OPER   

 PROGRAMS   *        TOTAL       INT
 CPU TIMES  *         0.49      0.35
 REAL TIME  *         3.69 SEC
 DISK USED  *        36.28 MB      
 **********************************************************************************************************************************

 Density functional group VWN80=VWN5
 Functional: VWN5(Automatically generated (new) VWN5)                          Gradient terms: 0
 Use grid at  1800.2

 Functional: VWN5                      Factor:  1.0000

 Generated new metagrid on record  1800.2 with target accuracy 1.0D-06 and 23318 points in CPU time    0.5
 Computed new grid on record 1800.1 in CPU time    0.6
   19720 words reserved for DFT integration

 PROGRAM * UKS-SCF (Unrestricted Kohn-Sham)     Authors: W. Meyer, H.-J. Werner, P.J. Knowles, 1993

 NUMBER OF ELECTRONS:      10+    9-    SPACE SYMMETRY=1    SPIN SYMMETRY: Doublet 
 CONVERGENCE THRESHOLDS:    1.00E-05 (Density)    1.00E-06 (Energy)
 MAX. NUMBER OF ITERATIONS:       60
 INTERPOLATION TYPE:            DIIS
 INTERPOLATION STEPS:              2 (START)      1 (STEP)
 LEVEL SHIFTS:                 -0.20 (ALPHA)  -0.20 (BETA) 



 Use fine grid record 1800.2 for energy threshold  1.0D-06
 Orbital guess generated from atomic densities. Full valence occupancy:   10

 Molecular orbital dump at record        2200.2

 Initial alpha occupation  10
 Initial beta  occupation   9

 ITERATION    DDIFF          GRAD             ENERGY        2-EL.EN.            DIPOLE MOMENTS         DIIS
    1      0.000D+00      0.000D+00      -100.02758307    153.855871    9.58511   -0.78973    0.03581    0
    2      0.120D+01      0.458D-01       -98.15653296    205.810325   -6.02457    0.88103    0.06439    1
    3      0.906D-01      0.757D-01      -101.75459638    181.798997   -1.22760    0.65280   -0.05385    2
    4      0.243D-01      0.179D-01      -101.89490212    177.198939   -0.75258    0.46823   -0.01912    3
    5      0.168D-01      0.816D-02      -101.93589354    176.160923   -0.24812    0.39833   -0.01054    4
    6      0.214D-01      0.259D-02      -101.94607523    174.905277    0.06782    0.35885   -0.00857    5
    7      0.174D-01      0.978D-03      -101.94836128    175.040413    0.00087    0.34686   -0.00337    6
    8      0.164D-01      0.548D-03      -101.94963309    175.126739   -0.06920    0.34756   -0.00449    7
    9      0.688D-02      0.242D-03      -101.94989610    175.143960   -0.09146    0.34031   -0.00399    8
   10      0.381D-02      0.864D-04      -101.94994627    175.139424   -0.11177    0.33549   -0.00343    7
   11      0.438D-03      0.212D-04      -101.94994804    175.147845   -0.11521    0.33642   -0.00359    8
   12      0.196D-03      0.908D-05      -101.94994851    175.146624   -0.11599    0.33599   -0.00344    8
   13      0.559D-04      0.561D-05      -101.94994878    175.146516   -0.11589    0.33608   -0.00328    7
   14      0.652D-04      0.402D-05      -101.94994899    175.146522   -0.11582    0.33605   -0.00309    8
   15      0.603D-04      0.229D-05      -101.94994907    175.146603   -0.11587    0.33609   -0.00287    8
   16      0.137D-04      0.673D-06      -101.94994908    175.146553   -0.11582    0.33608   -0.00283    8
   17      0.534D-05      0.315D-06      -101.94994908    175.146561   -0.11584    0.33609   -0.00281    9
   18      0.751D-06      0.104D-06      -101.94994908    175.146561   -0.11583    0.33608   -0.00281    9

 Final alpha occupancy:  10
 Final beta  occupancy:   9

 !UKS STATE 1.1 Energy               -101.949949080348
 Nuclear energy                        37.11882177
 One-electron energy                 -225.47881920
 Two-electron energy                   87.57328060
 Density functional                    -1.16323224     VWN5=-1.16323224
 Virial quotient                       -0.93863613
 !UKS STATE 1.1 Dipole moment          -0.11583376     0.33608425    -0.00280662
 Dipole moment /Debye                  -0.29440078     0.85418501    -0.00713326

 Orbital energies for positive spin:

         1.1          2.1          3.1          4.1          5.1          6.1          7.1          8.1          9.1         10.1
    -16.601774    -8.230257    -0.484690    -0.309929    -0.124006    -0.088670    -0.087929    -0.025515     0.097376     0.099109

        11.1         12.1
      0.184871     0.237777

 Orbital energies for negative spin:

         1.1          2.1          3.1          4.1          5.1          6.1          7.1          8.1          9.1         10.1
    -16.603331    -8.231108    -0.490848    -0.313587    -0.129041    -0.091031    -0.090007    -0.030784     0.095285     0.086522

        11.1         12.1
      0.182353     0.234313

 HOMO     10.1     0.099109 =       2.6969eV
 LUMO    -10.1     0.086522 =       2.3544eV
 LUMO-HOMO        -0.012587 =      -0.3425eV

 EXPECTATION VALUE OF S**2:             0.75005671

 Occupation number threshold for canonical orbitals:  1.999000 (occupied),  0.001000 (virtual)

 Number of pseudo-canonical orbitals per symmetry:    9
 Number of active natural orbitals per symmetry:      1

 Natural orbitals saved to record    2200.2 (Orbital set 3)

 Orbital spaces for UNO-CAS (Min. occupation: 0.020  Max. occupation: 1.980):

 Closed:        9
 Active:        1


 **********************************************************************************************************************************
 DATASETS  * FILE   NREC   LENGTH (MB)   RECORD NAMES
              1      20       31.91       500      610      700      900      950      970     1000      129      960     1100   
                                          VAR    BASINP    GEOM    SYMINP    ZMAT    AOBASIS   BASIS     P2S    ABASIS      S 
                                         1400     1410     1200     1210     1080     1600     1650     1300     1700     1800   
                                           T        V       H0       H01     AOSYM     SMH    MOLCAS    ERIS     OPER     GRID   

              2       5        2.92       700     1000      520     1800     2200   
                                         GEOM     BASIS   MCVARS    GRID      UKS  

 PROGRAMS   *        TOTAL       UKS       INT
 CPU TIMES  *         3.14      2.64      0.35
 REAL TIME  *         6.45 SEC
 DISK USED  *        36.28 MB      
 **********************************************************************************************************************************


 PROGRAM * Intrinsic Basis Bonding Analysis (IBBA)          Author: G. Knizia

 Molecular orbitals read from record     2200.2  Type=UKS/ALPHA (state 1.1)
 Fock matrix read from record            2200.2  Type=UKS/TOTAL (state 1.1)
 Orbital energies read from record       2200.2  Type=UKS/ALPHA (state 1.1)
 Density matrix read from record         2200.2  Type=UKS/CHARGE (state 1.1)

 Number of core orbitals:           2 (   2 )
 Number of closed-shell orbitals:   7 (   7 )
 Number of active  orbitals:        1 (   1 )

 Basis set MINAO-AUTO-PP generated.      Number of basis functions:   15 

 Polarized AO type:                A = (O Ot + (1-O)(1-Ot)) P12
 Orthogonalization method:         Symmetric (Loewdin)
 Localization functional:          L = sum[A,i] <i|n_A|i>^4 -> max

 Localization group 1:   9 orbitals, occupancy  2.000
 Iterative localization: IB/PM,    7 iter; Final gradient 0.93E-08

 Bond order analysis:       [THRPRINT= 0.020]

   CEN ATOM   CEN ATOM     WIBERG.BO      RENORM.BO
     1   C  -   5   H       0.985435       0.998635
     1   C  -   6   H       0.979922       0.997922
     1   C  -   4   H       0.978657       0.998536
     1   C  -   3   H       0.617528       0.508103
     1   C  -   2   O       0.186317       1.076719

     2   O  -   7   H       0.963943       0.971631
     2   O  -   3   H       0.346617       0.239998
     2   O  -   1   C       0.186317       1.076719

     3   H  -   1   C       0.617528       0.508103
     3   H  -   2   O       0.346617       0.239998

     4   H  -   1   C       0.978657       0.998536

     5   H  -   1   C       0.985435       0.998635

     6   H  -   1   C       0.979922       0.997922

     7   H  -   2   O       0.963943       0.971631


 Valency analysis:

   CEN ATOM   TOT.VALENCE
     1   C       3.762351
     2   O       1.506361
     3   H       0.980634
     4   H       0.996457
     5   H       0.997511
     6   H       0.996571
     7   H       0.980825
 Localization group 2:   1 orbitals, occupancy  1.000
 Iterative localization: IB/PM,    1 iter; Final gradient 0.00E+00

 Bond order analysis:       [THRPRINT= 0.020]

   CEN ATOM   CEN ATOM     WIBERG.BO      RENORM.BO








 Valency analysis:

   CEN ATOM   TOT.VALENCE
     1   C       0.000987
     2   O       0.012090
     3   H       0.000000
     4   H       0.006926
     5   H       0.000428
     6   H       0.003790
     7   H       0.000001

 Total charge composition:

   CEN ATOM         s          p       ELECTRONS ->P.CHARGE
     1   C       2.95852    3.62941      6.58794   -0.58794
     2   O       3.70168    4.15040      7.85208    0.14792
     3   H       0.86084                 0.86084    0.13916
     4   H       0.94395                 0.94395    0.05605
     5   H       0.95032                 0.95032    0.04968
     6   H       0.94334                 0.94334    0.05666
     7   H       0.86153                 0.86153    0.13847

 Total charge composition, AO contributions:

   CEN ATOM SHL      SPHERICAL COMPONENTS
     1   C  1s       1.99799
     1   C  2s       0.96053
     1   C  2p       1.40148    1.11358    1.11435

     2   O  1s       1.99929
     2   O  2s       1.70239
     2   O  2p       1.73943    1.40860    1.00238

     3   H  1s       0.86084

     4   H  1s       0.94395

     5   H  1s       0.95032

     6   H  1s       0.94334

     7   H  1s       0.86153

 Active orbital charges:

   CEN ATOM         s          p       ELECTRONS ->SPIN.DEN
     1   C       0.00000    0.00049      0.00049    0.00049
     2   O       0.00000    0.99392      0.99392    0.99392
     3   H       0.00000                 0.00000    0.00000
     4   H       0.00348                 0.00348    0.00348
     5   H       0.00021                 0.00021    0.00021
     6   H       0.00190                 0.00190    0.00190
     7   H       0.00000                 0.00000    0.00000

 Active orbital charges, AO contributions:

   CEN ATOM SHL      SPHERICAL COMPONENTS
     1   C  1s       0.00000
     1   C  2s       0.00000
     1   C  2p       0.00000    0.00000    0.00049

     2   O  1s       0.00000
     2   O  2s       0.00000
     2   O  2p       0.00000    0.00000    0.99392

     3   H  1s       0.00000

     4   H  1s       0.00348

     5   H  1s       0.00021

     6   H  1s       0.00190

     7   H  1s       0.00000

 Summary of localized orbital composition:   [THRPRINT= 0.020]

   ORB  GRP  ORB.ENERGY      CENTERS/CHARGES
     1   1   -16.541549      O  2   2.000
     2   1    -8.152997      C  1   2.000
     3   1    -0.318670      O  2   1.148   H  7   0.849
     4   1    -0.178263      C  1   1.042   H  5   0.946
     5   1    -0.177056      C  1   1.046   H  6   0.937
     6   1    -0.176625      C  1   1.045   H  4   0.936
     7   1    -0.175858      O  2   1.688   H  3   0.259   C  1   0.052
     8   1    -0.080617      C  1   1.402   H  3   0.567   (other: 0.031)
     9   1    -0.072632      O  2   1.999
    10   2     0.097197      O  2   0.994

 Localized orbitals saved to record      2200.2  (orbital set 4)


 **********************************************************************************************************************************
 DATASETS  * FILE   NREC   LENGTH (MB)   RECORD NAMES
              1      20       31.91       500      610      700      900      950      970     1000      129      960     1100   
                                          VAR    BASINP    GEOM    SYMINP    ZMAT    AOBASIS   BASIS     P2S    ABASIS      S 
                                         1400     1410     1200     1210     1080     1600     1650     1300     1700     1800   
                                           T        V       H0       H01     AOSYM     SMH    MOLCAS    ERIS     OPER     GRID   

              2       5        2.93       700     1000      520     1800     2200   
                                         GEOM     BASIS   MCVARS    GRID      UKS  

 PROGRAMS   *        TOTAL      IBBA       UKS       INT
 CPU TIMES  *         3.16      0.02      2.64      0.35
 REAL TIME  *         6.52 SEC
 DISK USED  *        36.28 MB      
 **********************************************************************************************************************************
 Molecular orbitals read from record     2200.2  Type=UKS/LOCAL(IBO)  
 Occupation numbers read from record     2200.2  Type=UKS/LOCAL(IBO)  
 Orbital energies read from record       2200.2  Type=UKS/LOCAL(IBO)  
 Redundancy group numbers read from rec  2200.2  Type=UKS/BETA (state 1.1)

 IBBA/SV(P) energy=      0.000000000000

        UKS-SCF 
   -101.94994908
 **********************************************************************************************************************************
 Molpro calculation terminated
