
 Primary working directories    : /local
 Secondary working directories  : /local
 Wavefunction directory         : /local/
 Main file repository           : /local/

 SHA1      : b4a5b34a9e711420743f49e6833241d17c61fb3c
 NAME      : 2099.9.b4a5b34
 ARCHNAME  : linux/x86_64_openmp
 FC        : /cm/shared/languages/GCC-6.1/bin/gfortran
 BLASLIB   : -lblas
 id        : simonbennie

 Nodes     nprocs
 node33-037    1

 Using customized tuning parameters: mindgm=1; mindgv=20; mindgc=4; mindgr=1; noblas=0; minvec=7
 default implementation of scratch files=df  

 memory,500,m
 geomtyp=xyz
 nosym
 noorient
 geometry={
 N         -1.15082       -0.04393       -0.10256
 O          1.17919       -0.09270       -0.01029
 H         -1.30319       -0.54764        0.76657
 H         -1.33891        0.93581        0.09185
 H         -0.03069       -0.15383       -0.35318
 H          1.29501        0.81475        0.29499
 }
 basis={ default,avdz }
 {uks,SOGGA,direct;wf,19,1,1}
 {ibba,bonds=1}

 Variables initialized (895), CPU time= 0.00 sec
 Commands  initialized (725), CPU time= 0.01 sec, 591 directives.
 Default parameters read. Elapsed time= 0.08 sec

 Checking input...
 Passed
1


                                         ***  PROGRAM SYSTEM MOLPRO  ***
                                       Copyright, TTI GmbH Stuttgart, 2015
                                    Version 2099.9 linked May 26 2017 16:03:21


 **********************************************************************************************************************************
 LABEL *                                                                                 
  64 bit serial version                                                                  DATE: 24-Jun-17          TIME: 16:01:06  
 **********************************************************************************************************************************

 SHA1:             b4a5b34a9e711420743f49e6833241d17c61fb3c
 **********************************************************************************************************************************
 SETTING GEOMTYP        =    XYZ

 Variable memory set to  500000000 words,  buffer space 

 ZSYMEL=NOSYM

 SETTING BASIS          =    AVDZ


 Recomputing integrals since basis changed


 Using spherical harmonics

 Library entry N      S aug-cc-pVDZ          selected for orbital group  1
 Library entry N      P aug-cc-pVDZ          selected for orbital group  1
 Library entry N      D aug-cc-pVDZ          selected for orbital group  1
 Library entry O      S aug-cc-pVDZ          selected for orbital group  2
 Library entry O      P aug-cc-pVDZ          selected for orbital group  2
 Library entry O      D aug-cc-pVDZ          selected for orbital group  2
 Library entry H      S aug-cc-pVDZ          selected for orbital group  3
 Library entry H      P aug-cc-pVDZ          selected for orbital group  3


 PROGRAM * SEWARD (Integral evaluation for generally contracted gaussian basis sets)     Author: Roland Lindh, 1990

 Geometry written to block  1 of record 700


 Point group  C1  



 ATOMIC COORDINATES

 NR  ATOM    CHARGE       X              Y              Z

   1  N       7.00   -2.174734619   -0.083015669   -0.193810311
   2  O       8.00    2.228346149   -0.175177612   -0.019445282
   3  H       1.00   -2.462672188   -1.034889615    1.448607355
   4  H       1.00   -2.530173205    1.768424605    0.173571345
   5  H       1.00   -0.057995695   -0.290696570   -0.667413473
   6  H       1.00    2.447214229    1.539654360    0.557450309

 Bond lengths in Bohr (Angstrom)

 1-3  1.920028084  1-4  1.920712617  1-5  2.178994030  2-5  2.379194492  2-6  1.822460000
     ( 1.016035107)     ( 1.016397345)     ( 1.153073983)     ( 1.259015506)     ( 0.964404300)

 Bond angles

  1-5-2  150.42324021   3-1-4  106.64915541   3-1-5  106.52018847   4-1-5  108.25306682

  5-2-6  104.31811532

 NUCLEAR CHARGE:                   19
 NUMBER OF PRIMITIVE AOS:         118
 NUMBER OF SYMMETRY AOS:          114
 NUMBER OF CONTRACTIONS:           82   (  82A   )
 NUMBER OF CORE ORBITALS:           2   (   2A   )
 NUMBER OF VALENCE ORBITALS:       12   (  12A   )


 NUCLEAR REPULSION ENERGY   37.13893784

 Eigenvalues of metric

         1 0.149E-02 0.153E-02 0.216E-02 0.297E-02 0.390E-02 0.622E-02 0.781E-02 0.117E-01


 Contracted 2-electron integrals neglected if value below      1.0D-11
 AO integral compression algorithm  1   Integral accuracy      1.0D-11

     31.457 MB (compressed) written to integral file ( 55.0%)


 NUMBER OF SORTED TWO-ELECTRON INTEGRALS:    5791906.     BUFFER LENGTH:  32768
 NUMBER OF SEGMENTS:   1  SEGMENT LENGTH:    5791906      RECORD LENGTH: 524288

 Memory used in sort:       6.35 MW

 SORT1 READ     7174542. AND WROTE     5721551. INTEGRALS IN     17 RECORDS. CPU TIME:     0.07 SEC, REAL TIME:     0.16 SEC
 SORT2 READ     5721551. AND WROTE     5791906. INTEGRALS IN    120 RECORDS. CPU TIME:     0.21 SEC, REAL TIME:     0.26 SEC

 FILE SIZES:   FILE 1:    61.7 MBYTE,  FILE 4:    71.3 MBYTE,   TOTAL:    133.1 MBYTE

 OPERATOR DM      FOR CENTER  0  COORDINATES:    0.000000    0.000000    0.000000


 **********************************************************************************************************************************
 DATASETS  * FILE   NREC   LENGTH (MB)   RECORD NAMES
              1      19       56.27       500      610      700      900      950      970     1000      129      960     1100   
                                          VAR    BASINP    GEOM    SYMINP    ZMAT    AOBASIS   BASIS     P2S    ABASIS      S 
                                         1400     1410     1200     1210     1080     1600     1650     1300     1700   
                                           T        V       H0       H01     AOSYM     SMH    MOLCAS    ERIS     OPER   

 PROGRAMS   *        TOTAL       INT
 CPU TIMES  *         0.98      0.83
 REAL TIME  *         1.51 SEC
 DISK USED  *       133.45 MB      
 **********************************************************************************************************************************

 Density functional group SOGGA=XC-SOGGA
 Functional: XC-SOGGA(via MFM 1.6)                                             Gradient terms: 1
 Use grid at  1800.2

 Functional: XC-SOGGA                  Factor:  1.0000

 Generated new metagrid on record  1800.2 with target accuracy 1.0D-06 and 21844 points in CPU time    0.5
 Computed new grid on record 1800.1 in CPU time    0.5
   69126 words reserved for DFT integration

 PROGRAM * UKS-SCF (Unrestricted Kohn-Sham)     Authors: W. Meyer, H.-J. Werner, P.J. Knowles, 1993

 NUMBER OF ELECTRONS:      10+    9-    SPACE SYMMETRY=1    SPIN SYMMETRY: Doublet 
 CONVERGENCE THRESHOLDS:    1.00E-05 (Density)    1.00E-06 (Energy)
 MAX. NUMBER OF ITERATIONS:       60
 INTERPOLATION TYPE:            DIIS
 INTERPOLATION STEPS:              2 (START)      1 (STEP)
 LEVEL SHIFTS:                 -0.20 (ALPHA)  -0.20 (BETA) 



 Use fine grid record 1800.2 for energy threshold  1.0D-06
 Orbital guess generated from atomic densities. Full valence occupancy:   14

 Molecular orbital dump at record        2200.2

 Initial alpha occupation  10
 Initial beta  occupation   9

 ITERATION    DDIFF          GRAD             ENERGY        2-EL.EN.            DIPOLE MOMENTS         DIIS
    1      0.000D+00      0.000D+00      -131.51345722    208.135312   -1.16948    1.10533    0.81459    0
    2      0.195D-01      0.511D-02      -131.55312297    198.854239   -0.58768    0.55907    0.47882    1
    3      0.888D-02      0.422D-02      -131.58865544    202.252122   -0.80551    0.72973    0.54392    2
    4      0.152D-02      0.506D-03      -131.58953050    202.261519   -0.70722    0.72189    0.55462    3
    5      0.753D-03      0.295D-03      -131.58995578    202.227878   -0.67934    0.71334    0.54173    4
    6      0.561D-03      0.821D-04      -131.59010717    202.212679   -0.63402    0.71222    0.54043    5
    7      0.268D-03      0.601D-04      -131.59015109    202.205686   -0.61829    0.71287    0.53989    6
    8      0.966D-04      0.152D-04      -131.59015887    202.204662   -0.60766    0.71340    0.53991    7
    9      0.462D-04      0.768D-05      -131.59016048    202.205403   -0.60541    0.71376    0.53994    7
   10      0.229D-04      0.357D-05      -131.59016095    202.204869   -0.60496    0.71393    0.53978    7
   11      0.217D-04      0.244D-05      -131.59016124    202.205951   -0.60481    0.71401    0.53962    8
   12      0.162D-04      0.152D-05      -131.59016135    202.205065   -0.60480    0.71401    0.53943    9
   13      0.877D-05      0.833D-06      -131.59016138    202.205759   -0.60478    0.71407    0.53935    9
   14      0.347D-05      0.329D-06      -131.59016138    202.205611   -0.60476    0.71405    0.53930    9

 Final alpha occupancy:  10
 Final beta  occupancy:   9

 !UKS STATE 1.1 Energy               -131.590161381621
 Nuclear energy                        37.13893784
 One-electron energy                 -253.69526615
 Two-electron energy                  101.10280544
 Density functional                   -16.13663851     XC-SOGGA=-16.13663851
 Virial quotient                       -1.00247567
 !UKS STATE 1.1 Dipole moment          -0.60475777     0.71404690     0.53930137
 Dipole moment /Debye                  -1.53704027     1.81480733     1.37067757

 Orbital energies for positive spin:

         1.1          2.1          3.1          4.1          5.1          6.1          7.1          8.1          9.1         10.1
    -18.697856   -13.961820    -0.898732    -0.801119    -0.470192    -0.447723    -0.372107    -0.302232    -0.252468    -0.245957

        11.1         12.1
     -0.032904     0.007690

 Orbital energies for negative spin:

         1.1          2.1          3.1          4.1          5.1          6.1          7.1          8.1          9.1         10.1
    -18.685605   -13.950927    -0.873263    -0.777134    -0.453759    -0.437992    -0.355662    -0.270630    -0.238543    -0.189199

        11.1         12.1
     -0.030396     0.011114

 HOMO     -9.1    -0.238543 =      -6.4911eV
 LUMO    -10.1    -0.189199 =      -5.1484eV
 LUMO-HOMO         0.049345 =       1.3427eV

 EXPECTATION VALUE OF S**2:             0.75346272

 Occupation number threshold for canonical orbitals:  1.999000 (occupied),  0.001000 (virtual)

 Number of pseudo-canonical orbitals per symmetry:    8
 Number of active natural orbitals per symmetry:      3

 Natural orbitals saved to record    2200.2 (Orbital set 3)

 Orbital spaces for UNO-CAS (Min. occupation: 0.020  Max. occupation: 1.980):

 Closed:        9
 Active:        1


 **********************************************************************************************************************************
 DATASETS  * FILE   NREC   LENGTH (MB)   RECORD NAMES
              1      20       56.97       500      610      700      900      950      970     1000      129      960     1100   
                                          VAR    BASINP    GEOM    SYMINP    ZMAT    AOBASIS   BASIS     P2S    ABASIS      S 
                                         1400     1410     1200     1210     1080     1600     1650     1300     1700     1800   
                                           T        V       H0       H01     AOSYM     SMH    MOLCAS    ERIS     OPER     GRID   

              2       5        3.12       700     1000      520     1800     2200   
                                         GEOM     BASIS   MCVARS    GRID      UKS  

 PROGRAMS   *        TOTAL       UKS       INT
 CPU TIMES  *         9.28      8.29      0.83
 REAL TIME  *        10.47 SEC
 DISK USED  *       133.45 MB      
 **********************************************************************************************************************************


 PROGRAM * Intrinsic Basis Bonding Analysis (IBBA)          Author: G. Knizia

 Molecular orbitals read from record     2200.2  Type=UKS/ALPHA (state 1.1)
 Fock matrix read from record            2200.2  Type=UKS/TOTAL (state 1.1)
 Orbital energies read from record       2200.2  Type=UKS/ALPHA (state 1.1)
 Density matrix read from record         2200.2  Type=UKS/CHARGE (state 1.1)

 Number of core orbitals:           2 (   2 )
 Number of closed-shell orbitals:   7 (   7 )
 Number of active  orbitals:        1 (   1 )

 Basis set MINAO-AUTO-PP generated.      Number of basis functions:   14 

 Polarized AO type:                A = (O Ot + (1-O)(1-Ot)) P12
 Orthogonalization method:         Symmetric (Loewdin)
 Localization functional:          L = sum[A,i] <i|n_A|i>^4 -> max

 Localization group 1:   9 orbitals, occupancy  2.000
 Iterative localization: IB/PM,    7 iter; Final gradient 0.59E-08

 Bond order analysis:       [THRPRINT= 0.020]

   CEN ATOM   CEN ATOM     WIBERG.BO      RENORM.BO
     1   N  -   4   H       0.917563       0.999696
     1   N  -   2   O       0.913241       1.022419
     1   N  -   3   H       0.911642       0.999739
     1   N  -   5   H       0.550466       0.678114

     2   O  -   1   N       0.913241       1.022419
     2   O  -   6   H       0.864359       0.999627
     2   O  -   5   H       0.350887       0.415053

     3   H  -   1   N       0.911642       0.999739

     4   H  -   1   N       0.917563       0.999696

     5   H  -   1   N       0.550466       0.678114
     5   H  -   2   O       0.350887       0.415053

     6   H  -   2   O       0.864359       0.999627


 Valency analysis:

   CEN ATOM   TOT.VALENCE
     1   N       3.293172
     2   O       2.129197
     3   H       0.912619
     4   H       0.918276
     5   H       0.902246
     6   H       0.864763
 Localization group 2:   1 orbitals, occupancy  1.000
 Iterative localization: IB/PM,    1 iter; Final gradient 0.00E+00

 Bond order analysis:       [THRPRINT= 0.020]

   CEN ATOM   CEN ATOM     WIBERG.BO      RENORM.BO
     1   N  -   2   O       0.496675       0.500000

     2   O  -   1   N       0.496675       0.500000






 Valency analysis:

   CEN ATOM   TOT.VALENCE
     1   N       0.498660
     2   O       0.498457
     3   H       0.000029
     4   H       0.000346
     5   H       0.001188
     6   H       0.002208

 Total charge composition:

   CEN ATOM         s          p       ELECTRONS ->P.CHARGE
     1   N       3.47213    4.13975      7.61188   -0.61188
     2   O       3.75368    4.89443      8.64811   -0.64811
     3   H       0.70441                 0.70441    0.29559
     4   H       0.71430                 0.71430    0.28570
     5   H       0.68794                 0.68794    0.31206
     6   H       0.63336                 0.63336    0.36664

 Total charge composition, AO contributions:

   CEN ATOM SHL      SPHERICAL COMPONENTS
     1   N  1s       1.99511
     1   N  2s       1.47702
     1   N  2p       1.28888    1.34233    1.50854

     2   O  1s       1.99791
     2   O  2s       1.75577
     2   O  2p       1.43195    1.59663    1.86586

     3   H  1s       0.70441

     4   H  1s       0.71430

     5   H  1s       0.68794

     6   H  1s       0.63336

 Active orbital charges:

   CEN ATOM         s          p       ELECTRONS ->SPIN.DEN
     1   N       0.00174    0.52414      0.52589    0.52589
     2   O       0.00058    0.47164      0.47223    0.47223
     3   H       0.00001                 0.00001    0.00001
     4   H       0.00017                 0.00017    0.00017
     5   H       0.00059                 0.00059    0.00059
     6   H       0.00111                 0.00111    0.00111

 Active orbital charges, AO contributions:

   CEN ATOM SHL      SPHERICAL COMPONENTS
     1   N  1s       0.00000
     1   N  2s       0.00174
     1   N  2p       0.41816    0.01929    0.08669

     2   O  1s       0.00001
     2   O  2s       0.00057
     2   O  2p       0.41552    0.00056    0.05556

     3   H  1s       0.00001

     4   H  1s       0.00017

     5   H  1s       0.00059

     6   H  1s       0.00111

 Summary of localized orbital composition:   [THRPRINT= 0.020]

   ORB  GRP  ORB.ENERGY      CENTERS/CHARGES
     1   1   -18.580242      O  2   2.000
     2   1   -13.822210      N  1   2.000
     3   1    -0.703871      O  2   1.368   H  6   0.631
     4   1    -0.610409      N  1   1.286   H  4   0.713
     5   1    -0.604529      N  1   1.297   H  3   0.703
     6   1    -0.527789      O  2   1.854   H  5   0.100   N  1   0.047
     7   1    -0.466259      N  1   1.699   H  5   0.227   O  2   0.074
     8   1    -0.440219      O  2   0.880   N  1   0.757   H  5   0.360
     9   1    -0.366619      O  2   2.000
    10   2    -0.217379      N  1   0.526   O  2   0.472

 Localized orbitals saved to record      2200.2  (orbital set 4)


 **********************************************************************************************************************************
 DATASETS  * FILE   NREC   LENGTH (MB)   RECORD NAMES
              1      20       56.97       500      610      700      900      950      970     1000      129      960     1100   
                                          VAR    BASINP    GEOM    SYMINP    ZMAT    AOBASIS   BASIS     P2S    ABASIS      S 
                                         1400     1410     1200     1210     1080     1600     1650     1300     1700     1800   
                                           T        V       H0       H01     AOSYM     SMH    MOLCAS    ERIS     OPER     GRID   

              2       5        3.18       700     1000      520     1800     2200   
                                         GEOM     BASIS   MCVARS    GRID      UKS  

 PROGRAMS   *        TOTAL      IBBA       UKS       INT
 CPU TIMES  *         9.30      0.03      8.29      0.83
 REAL TIME  *        10.54 SEC
 DISK USED  *       133.45 MB      
 **********************************************************************************************************************************
 Molecular orbitals read from record     2200.2  Type=UKS/LOCAL(IBO)  
 Occupation numbers read from record     2200.2  Type=UKS/LOCAL(IBO)  
 Orbital energies read from record       2200.2  Type=UKS/LOCAL(IBO)  
 Redundancy group numbers read from rec  2200.2  Type=UKS/BETA (state 1.1)

 IBBA/aug-cc-pVDZ energy=      0.000000000000

        UKS-SCF 
   -131.59016138
 **********************************************************************************************************************************
 Molpro calculation terminated
