
 Primary working directories    : /local
 Secondary working directories  : /local
 Wavefunction directory         : /local/
 Main file repository           : /local/

 SHA1      : b4a5b34a9e711420743f49e6833241d17c61fb3c
 NAME      : 2099.9.b4a5b34
 ARCHNAME  : linux/x86_64_openmp
 FC        : /cm/shared/languages/GCC-6.1/bin/gfortran
 BLASLIB   : -lblas
 id        : simonbennie

 Nodes     nprocs
 node32-039    1

 Using customized tuning parameters: mindgm=1; mindgv=20; mindgc=4; mindgr=1; noblas=0; minvec=7
 default implementation of scratch files=df  

 memory,500,m
 geomtyp=xyz
 nosym
 noorient
 geometry={
 N         -1.15082       -0.04393       -0.10256
 O          1.17919       -0.09270       -0.01029
 H         -1.30319       -0.54764        0.76657
 H         -1.33891        0.93581        0.09185
 H         -0.03069       -0.15383       -0.35318
 H          1.29501        0.81475        0.29499
 }
 basis={ default,avdz }
 {uks,B,direct;wf,19,1,1}
 {ibba,bonds=1}

 Variables initialized (895), CPU time= 0.00 sec
 Commands  initialized (725), CPU time= 0.01 sec, 591 directives.
 Default parameters read. Elapsed time= 0.08 sec

 Checking input...
 Passed
1


                                         ***  PROGRAM SYSTEM MOLPRO  ***
                                       Copyright, TTI GmbH Stuttgart, 2015
                                    Version 2099.9 linked May 26 2017 16:03:21


 **********************************************************************************************************************************
 LABEL *                                                                                 
  64 bit serial version                                                                  DATE: 24-Jun-17          TIME: 15:51:45  
 **********************************************************************************************************************************

 SHA1:             b4a5b34a9e711420743f49e6833241d17c61fb3c
 **********************************************************************************************************************************
 SETTING GEOMTYP        =    XYZ

 Variable memory set to  500000000 words,  buffer space 

 ZSYMEL=NOSYM

 SETTING BASIS          =    AVDZ


 Recomputing integrals since basis changed


 Using spherical harmonics

 Library entry N      S aug-cc-pVDZ          selected for orbital group  1
 Library entry N      P aug-cc-pVDZ          selected for orbital group  1
 Library entry N      D aug-cc-pVDZ          selected for orbital group  1
 Library entry O      S aug-cc-pVDZ          selected for orbital group  2
 Library entry O      P aug-cc-pVDZ          selected for orbital group  2
 Library entry O      D aug-cc-pVDZ          selected for orbital group  2
 Library entry H      S aug-cc-pVDZ          selected for orbital group  3
 Library entry H      P aug-cc-pVDZ          selected for orbital group  3


 PROGRAM * SEWARD (Integral evaluation for generally contracted gaussian basis sets)     Author: Roland Lindh, 1990

 Geometry written to block  1 of record 700


 Point group  C1  



 ATOMIC COORDINATES

 NR  ATOM    CHARGE       X              Y              Z

   1  N       7.00   -2.174734619   -0.083015669   -0.193810311
   2  O       8.00    2.228346149   -0.175177612   -0.019445282
   3  H       1.00   -2.462672188   -1.034889615    1.448607355
   4  H       1.00   -2.530173205    1.768424605    0.173571345
   5  H       1.00   -0.057995695   -0.290696570   -0.667413473
   6  H       1.00    2.447214229    1.539654360    0.557450309

 Bond lengths in Bohr (Angstrom)

 1-3  1.920028084  1-4  1.920712617  1-5  2.178994030  2-5  2.379194492  2-6  1.822460000
     ( 1.016035107)     ( 1.016397345)     ( 1.153073983)     ( 1.259015506)     ( 0.964404300)

 Bond angles

  1-5-2  150.42324021   3-1-4  106.64915541   3-1-5  106.52018847   4-1-5  108.25306682

  5-2-6  104.31811532

 NUCLEAR CHARGE:                   19
 NUMBER OF PRIMITIVE AOS:         118
 NUMBER OF SYMMETRY AOS:          114
 NUMBER OF CONTRACTIONS:           82   (  82A   )
 NUMBER OF CORE ORBITALS:           2   (   2A   )
 NUMBER OF VALENCE ORBITALS:       12   (  12A   )


 NUCLEAR REPULSION ENERGY   37.13893784

 Eigenvalues of metric

         1 0.149E-02 0.153E-02 0.216E-02 0.297E-02 0.390E-02 0.622E-02 0.781E-02 0.117E-01


 Contracted 2-electron integrals neglected if value below      1.0D-11
 AO integral compression algorithm  1   Integral accuracy      1.0D-11

     31.457 MB (compressed) written to integral file ( 55.0%)


 NUMBER OF SORTED TWO-ELECTRON INTEGRALS:    5791906.     BUFFER LENGTH:  32768
 NUMBER OF SEGMENTS:   1  SEGMENT LENGTH:    5791906      RECORD LENGTH: 524288

 Memory used in sort:       6.35 MW

 SORT1 READ     7174542. AND WROTE     5721551. INTEGRALS IN     17 RECORDS. CPU TIME:     0.05 SEC, REAL TIME:     0.15 SEC
 SORT2 READ     5721551. AND WROTE     5791906. INTEGRALS IN    120 RECORDS. CPU TIME:     0.19 SEC, REAL TIME:     0.22 SEC

 FILE SIZES:   FILE 1:    61.7 MBYTE,  FILE 4:    71.3 MBYTE,   TOTAL:    133.1 MBYTE

 OPERATOR DM      FOR CENTER  0  COORDINATES:    0.000000    0.000000    0.000000


 **********************************************************************************************************************************
 DATASETS  * FILE   NREC   LENGTH (MB)   RECORD NAMES
              1      19       56.27       500      610      700      900      950      970     1000      129      960     1100   
                                          VAR    BASINP    GEOM    SYMINP    ZMAT    AOBASIS   BASIS     P2S    ABASIS      S 
                                         1400     1410     1200     1210     1080     1600     1650     1300     1700   
                                           T        V       H0       H01     AOSYM     SMH    MOLCAS    ERIS     OPER   

 PROGRAMS   *        TOTAL       INT
 CPU TIMES  *         0.89      0.75
 REAL TIME  *         1.36 SEC
 DISK USED  *       133.45 MB      
 **********************************************************************************************************************************

 Density functional group B=B88
 Functional: B88(Automatically generated (new) B88)                            Gradient terms: 1
 Use grid at  1800.2

 Functional: B88                       Factor:  1.0000

 Generated new metagrid on record  1800.2 with target accuracy 1.0D-06 and 21844 points in CPU time    0.4
 Computed new grid on record 1800.1 in CPU time    0.5
   69126 words reserved for DFT integration

 PROGRAM * UKS-SCF (Unrestricted Kohn-Sham)     Authors: W. Meyer, H.-J. Werner, P.J. Knowles, 1993

 NUMBER OF ELECTRONS:      10+    9-    SPACE SYMMETRY=1    SPIN SYMMETRY: Doublet 
 CONVERGENCE THRESHOLDS:    1.00E-05 (Density)    1.00E-06 (Energy)
 MAX. NUMBER OF ITERATIONS:       60
 INTERPOLATION TYPE:            DIIS
 INTERPOLATION STEPS:              2 (START)      1 (STEP)
 LEVEL SHIFTS:                 -0.20 (ALPHA)  -0.20 (BETA) 



 Use fine grid record 1800.2 for energy threshold  1.0D-06
 Orbital guess generated from atomic densities. Full valence occupancy:   14

 Molecular orbital dump at record        2200.2

 Initial alpha occupation  10
 Initial beta  occupation   9

 ITERATION    DDIFF          GRAD             ENERGY        2-EL.EN.            DIPOLE MOMENTS         DIIS
    1      0.000D+00      0.000D+00      -131.57797829    208.174567   -1.18746    1.09954    0.80140    0
    2      0.206D-01      0.534D-02      -131.61697424    198.318329   -0.59704    0.52593    0.45398    1
    3      0.958D-02      0.459D-02      -131.65902472    202.054587   -0.81961    0.70953    0.52433    2
    4      0.167D-02      0.555D-03      -131.66003735    202.070119   -0.71920    0.70125    0.53576    3
    5      0.838D-03      0.317D-03      -131.66055395    202.031576   -0.68770    0.69173    0.52175    4
    6      0.631D-03      0.919D-04      -131.66073925    202.021795   -0.63875    0.69066    0.52090    5
    7      0.318D-03      0.638D-04      -131.66079683    202.009032   -0.61690    0.69103    0.52040    6
    8      0.127D-03      0.206D-04      -131.66080749    202.008669   -0.60315    0.69165    0.52071    7
    9      0.547D-04      0.981D-05      -131.66080916    202.008913   -0.59944    0.69207    0.52091    8
   10      0.183D-04      0.279D-05      -131.66080939    202.008665   -0.59876    0.69230    0.52090    7
   11      0.105D-04      0.175D-05      -131.66080949    202.009032   -0.59859    0.69232    0.52083    8
   12      0.106D-04      0.116D-05      -131.66080955    202.008937   -0.59856    0.69238    0.52074    8
   13      0.862D-05      0.714D-06      -131.66080958    202.009187   -0.59851    0.69240    0.52064    8
   14      0.424D-05      0.361D-06      -131.66080959    202.008969   -0.59851    0.69238    0.52058    9

 Final alpha occupancy:  10
 Final beta  occupancy:   9

 !UKS STATE 1.1 Energy               -131.660809585326
 Nuclear energy                        37.13893784
 One-electron energy                 -253.59334395
 Two-electron energy                  101.00448471
 Density functional                   -16.21088819     B88=-16.21088819
 Virial quotient                       -1.00183043
 !UKS STATE 1.1 Dipole moment          -0.59851055     0.69238113     0.52058081
 Dipole moment /Debye                  -1.52116244     1.75974203     1.32309778

 Orbital energies for positive spin:

         1.1          2.1          3.1          4.1          5.1          6.1          7.1          8.1          9.1         10.1
    -18.778436   -14.031934    -0.870563    -0.773637    -0.441942    -0.421094    -0.344969    -0.275542    -0.225553    -0.221909

        11.1         12.1
     -0.025212     0.011098

 Orbital energies for negative spin:

         1.1          2.1          3.1          4.1          5.1          6.1          7.1          8.1          9.1         10.1
    -18.765118   -14.019916    -0.840065    -0.744420    -0.423714    -0.410695    -0.326639    -0.237095    -0.210303    -0.150927

        11.1         12.1
     -0.023281     0.014092

 HOMO     -9.1    -0.210303 =      -5.7226eV
 LUMO    -10.1    -0.150927 =      -4.1069eV
 LUMO-HOMO         0.059377 =       1.6157eV

 EXPECTATION VALUE OF S**2:             0.75590910

 Occupation number threshold for canonical orbitals:  1.999000 (occupied),  0.001000 (virtual)

 Number of pseudo-canonical orbitals per symmetry:    8
 Number of active natural orbitals per symmetry:      3

 Natural orbitals saved to record    2200.2 (Orbital set 3)

 Orbital spaces for UNO-CAS (Min. occupation: 0.020  Max. occupation: 1.980):

 Closed:        9
 Active:        1


 **********************************************************************************************************************************
 DATASETS  * FILE   NREC   LENGTH (MB)   RECORD NAMES
              1      20       56.97       500      610      700      900      950      970     1000      129      960     1100   
                                          VAR    BASINP    GEOM    SYMINP    ZMAT    AOBASIS   BASIS     P2S    ABASIS      S 
                                         1400     1410     1200     1210     1080     1600     1650     1300     1700     1800   
                                           T        V       H0       H01     AOSYM     SMH    MOLCAS    ERIS     OPER     GRID   

              2       5        3.12       700     1000      520     1800     2200   
                                         GEOM     BASIS   MCVARS    GRID      UKS  

 PROGRAMS   *        TOTAL       UKS       INT
 CPU TIMES  *         7.93      7.04      0.75
 REAL TIME  *         8.99 SEC
 DISK USED  *       133.45 MB      
 **********************************************************************************************************************************


 PROGRAM * Intrinsic Basis Bonding Analysis (IBBA)          Author: G. Knizia

 Molecular orbitals read from record     2200.2  Type=UKS/ALPHA (state 1.1)
 Fock matrix read from record            2200.2  Type=UKS/TOTAL (state 1.1)
 Orbital energies read from record       2200.2  Type=UKS/ALPHA (state 1.1)
 Density matrix read from record         2200.2  Type=UKS/CHARGE (state 1.1)

 Number of core orbitals:           2 (   2 )
 Number of closed-shell orbitals:   7 (   7 )
 Number of active  orbitals:        1 (   1 )

 Basis set MINAO-AUTO-PP generated.      Number of basis functions:   14 

 Polarized AO type:                A = (O Ot + (1-O)(1-Ot)) P12
 Orthogonalization method:         Symmetric (Loewdin)
 Localization functional:          L = sum[A,i] <i|n_A|i>^4 -> max

 Localization group 1:   9 orbitals, occupancy  2.000
 Iterative localization: IB/PM,    7 iter; Final gradient 0.25E-08

 Bond order analysis:       [THRPRINT= 0.020]

   CEN ATOM   CEN ATOM     WIBERG.BO      RENORM.BO
     1   N  -   2   O       0.963061       1.026293
     1   N  -   4   H       0.923831       0.999345
     1   N  -   3   H       0.917709       0.999653
     1   N  -   5   H       0.551248       0.628935

     2   O  -   1   N       0.963061       1.026293
     2   O  -   6   H       0.870819       0.999486
     2   O  -   5   H       0.345693       0.391709

     3   H  -   1   N       0.917709       0.999653

     4   H  -   1   N       0.923831       0.999345

     5   H  -   1   N       0.551248       0.628935
     5   H  -   2   O       0.345693       0.391709

     6   H  -   2   O       0.870819       0.999486


 Valency analysis:

   CEN ATOM   TOT.VALENCE
     1   N       3.356241
     2   O       2.181008
     3   H       0.919021
     4   H       0.924575
     5   H       0.897523
     6   H       0.871292
 Localization group 2:   1 orbitals, occupancy  1.000
 Iterative localization: IB/PM,    1 iter; Final gradient 0.00E+00

 Bond order analysis:       [THRPRINT= 0.020]

   CEN ATOM   CEN ATOM     WIBERG.BO      RENORM.BO
     1   N  -   2   O       0.497246       0.500000

     2   O  -   1   N       0.497246       0.500000






 Valency analysis:

   CEN ATOM   TOT.VALENCE
     1   N       0.499282
     2   O       0.499433
     3   H       0.000002
     4   H       0.000261
     5   H       0.001632
     6   H       0.002333

 Total charge composition:

   CEN ATOM         s          p       ELECTRONS ->P.CHARGE
     1   N       3.47365    4.16371      7.63737   -0.63737
     2   O       3.75645    4.84216      8.59860   -0.59860
     3   H       0.71543                 0.71543    0.28457
     4   H       0.72549                 0.72549    0.27451
     5   H       0.68070                 0.68070    0.31930
     6   H       0.64241                 0.64241    0.35759

 Total charge composition, AO contributions:

   CEN ATOM SHL      SPHERICAL COMPONENTS
     1   N  1s       1.99499
     1   N  2s       1.47867
     1   N  2p       1.34208    1.32905    1.49258

     2   O  1s       1.99786
     2   O  2s       1.75859
     2   O  2p       1.47158    1.58778    1.78279

     3   H  1s       0.71543

     4   H  1s       0.72549

     5   H  1s       0.68070

     6   H  1s       0.64241

 Active orbital charges:

   CEN ATOM         s          p       ELECTRONS ->SPIN.DEN
     1   N       0.00265    0.47840      0.48105    0.48105
     2   O       0.00069    0.51615      0.51684    0.51684
     3   H       0.00000                 0.00000    0.00000
     4   H       0.00013                 0.00013    0.00013
     5   H       0.00082                 0.00082    0.00082
     6   H       0.00117                 0.00117    0.00117

 Active orbital charges, AO contributions:

   CEN ATOM SHL      SPHERICAL COMPONENTS
     1   N  1s       0.00000
     1   N  2s       0.00265
     1   N  2p       0.36609    0.01920    0.09311

     2   O  1s       0.00001
     2   O  2s       0.00068
     2   O  2p       0.37954    0.00082    0.13578

     3   H  1s       0.00000

     4   H  1s       0.00013

     5   H  1s       0.00082

     6   H  1s       0.00117

 Summary of localized orbital composition:   [THRPRINT= 0.020]

   ORB  GRP  ORB.ENERGY      CENTERS/CHARGES
     1   1   -18.614748      O  2   2.000
     2   1   -13.890687      N  1   2.000
     3   1    -0.669801      O  2   1.359   H  6   0.641
     4   1    -0.578298      N  1   1.275   H  4   0.724
     5   1    -0.569757      N  1   1.287   H  3   0.713
     6   1    -0.486287      O  2   1.821   H  5   0.134   N  1   0.045
     7   1    -0.452813      N  1   1.683   H  5   0.244   O  2   0.073
     8   1    -0.418547      O  2   2.000
     9   1    -0.385214      N  1   0.866   O  2   0.828   H  5   0.301
    10   2    -0.187807      O  2   0.517   N  1   0.481

 Localized orbitals saved to record      2200.2  (orbital set 4)


 **********************************************************************************************************************************
 DATASETS  * FILE   NREC   LENGTH (MB)   RECORD NAMES
              1      20       56.97       500      610      700      900      950      970     1000      129      960     1100   
                                          VAR    BASINP    GEOM    SYMINP    ZMAT    AOBASIS   BASIS     P2S    ABASIS      S 
                                         1400     1410     1200     1210     1080     1600     1650     1300     1700     1800   
                                           T        V       H0       H01     AOSYM     SMH    MOLCAS    ERIS     OPER     GRID   

              2       5        3.18       700     1000      520     1800     2200   
                                         GEOM     BASIS   MCVARS    GRID      UKS  

 PROGRAMS   *        TOTAL      IBBA       UKS       INT
 CPU TIMES  *         7.96      0.03      7.04      0.75
 REAL TIME  *         9.06 SEC
 DISK USED  *       133.45 MB      
 **********************************************************************************************************************************
 Molecular orbitals read from record     2200.2  Type=UKS/LOCAL(IBO)  
 Occupation numbers read from record     2200.2  Type=UKS/LOCAL(IBO)  
 Orbital energies read from record       2200.2  Type=UKS/LOCAL(IBO)  
 Redundancy group numbers read from rec  2200.2  Type=UKS/BETA (state 1.1)

 IBBA/aug-cc-pVDZ energy=      0.000000000000

        UKS-SCF 
   -131.66080959
 **********************************************************************************************************************************
 Molpro calculation terminated
