
 Primary working directories    : /local
 Secondary working directories  : /local
 Wavefunction directory         : /local/
 Main file repository           : /local/

 SHA1      : b4a5b34a9e711420743f49e6833241d17c61fb3c
 NAME      : 2099.9.b4a5b34
 ARCHNAME  : linux/x86_64_openmp
 FC        : /cm/shared/languages/GCC-6.1/bin/gfortran
 BLASLIB   : -lblas
 id        : simonbennie

 Nodes     nprocs
 node32-036    1

 Using customized tuning parameters: mindgm=1; mindgv=20; mindgc=4; mindgr=1; noblas=0; minvec=7
 default implementation of scratch files=df  

 memory,500,m
 geomtyp=xyz
 nosym
 noorient
 geometry={
 C          0.24412        0.59992        1.70242
 H         -0.67560        0.27848        2.17294
 H          0.35191        1.66379        1.53767
 H          1.14069        0.06579        1.98782
 H          0.05716        0.13997        0.39711
 Cl        -0.13758       -0.33809       -0.95942
 }
 basis={ default,SV(P) }
 {uks,PBE,direct;disp;wf,27,1,1}
 {ibba,bonds=1}

 Variables initialized (895), CPU time= 0.00 sec
 Commands  initialized (725), CPU time= 0.01 sec, 591 directives.
 Default parameters read. Elapsed time= 0.08 sec

 Checking input...
 Passed
1


                                         ***  PROGRAM SYSTEM MOLPRO  ***
                                       Copyright, TTI GmbH Stuttgart, 2015
                                    Version 2099.9 linked May 26 2017 16:03:21


 **********************************************************************************************************************************
 LABEL *                                                                                 
  64 bit serial version                                                                  DATE: 18-Mar-18          TIME: 01:14:47  
 **********************************************************************************************************************************

 SHA1:             b4a5b34a9e711420743f49e6833241d17c61fb3c
 **********************************************************************************************************************************
 SETTING GEOMTYP        =    XYZ

 Variable memory set to  500000000 words,  buffer space 

 ZSYMEL=NOSYM

 SETTING BASIS          =    SV(P)


 Recomputing integrals since basis changed


 Using spherical harmonics

 Library entry C      S def2-SV(P)           selected for orbital group  1
 Library entry C      P def2-SV(P)           selected for orbital group  1
 Library entry C      D def2-SV(P)           selected for orbital group  1
 Library entry H      S def2-SV(P)           selected for orbital group  2
 Library entry CL     S def2-SV(P)           selected for orbital group  3
 Library entry CL     P def2-SV(P)           selected for orbital group  3
 Library entry CL     D def2-SV(P)           selected for orbital group  3


 PROGRAM * SEWARD (Integral evaluation for generally contracted gaussian basis sets)     Author: Roland Lindh, 1990

 Geometry written to block  1 of record 700


 Point group  C1  



 ATOMIC COORDINATES

 NR  ATOM    CHARGE       X              Y              Z

   1  C       6.00    0.461319942    1.133684497    3.217107549
   2  H       1.00   -1.276698970    0.526250931    4.106261485
   3  H       1.00    0.665013520    3.144107429    2.905775170
   4  H       1.00    2.155591693    0.124325082    3.756435385
   5  H       1.00    0.108016745    0.264504966    0.750429141
   6  CL     17.00   -0.259988520   -0.638897505   -1.813041038

 Bond lengths in Bohr (Angstrom)

 1-2  2.044573304  1-3  2.044558459  1-4  2.044562963  1-5  2.639090482  5-6  2.742798436
     ( 1.081941598)     ( 1.081933743)     ( 1.081936126)     ( 1.396546541)     ( 1.451426427)

 Bond angles

  1-5-6  179.98259687   2-1-3  116.29840821   2-1-4  116.29785683   2-1-5  101.23451056

  3-1-4  116.29844720   3-1-5  101.23661595   4-1-5  101.23873676

 NUCLEAR CHARGE:                   27
 NUMBER OF PRIMITIVE AOS:          78
 NUMBER OF SYMMETRY AOS:           76
 NUMBER OF CONTRACTIONS:           40   (  40A   )
 NUMBER OF CORE ORBITALS:           6   (   6A   )
 NUMBER OF VALENCE ORBITALS:       12   (  12A   )


 NUCLEAR REPULSION ENERGY   46.25145461


 Eigenvalues of metric

         1 0.742E-02 0.255E-01 0.650E-01 0.650E-01 0.115E+00 0.233E+00 0.233E+00 0.238E+00


 Contracted 2-electron integrals neglected if value below      1.0D-11
 AO integral compression algorithm  1   Integral accuracy      1.0D-11

     1.835 MB (compressed) written to integral file ( 50.9%)


 NUMBER OF SORTED TWO-ELECTRON INTEGRALS:     336610.     BUFFER LENGTH:  32768
 NUMBER OF SEGMENTS:   1  SEGMENT LENGTH:     336610      RECORD LENGTH: 524288

 Memory used in sort:       0.89 MW

 SORT1 READ      467679. AND WROTE      303766. INTEGRALS IN      1 RECORDS. CPU TIME:     0.00 SEC, REAL TIME:     0.02 SEC
 SORT2 READ      303766. AND WROTE      336610. INTEGRALS IN      7 RECORDS. CPU TIME:     0.03 SEC, REAL TIME:     0.03 SEC

 FILE SIZES:   FILE 1:    31.9 MBYTE,  FILE 4:     4.2 MBYTE,   TOTAL:     36.2 MBYTE

 OPERATOR DM      FOR CENTER  0  COORDINATES:    0.000000    0.000000    0.000000


 **********************************************************************************************************************************
 DATASETS  * FILE   NREC   LENGTH (MB)   RECORD NAMES
              1      19       31.36       500      610      700      900      950      970     1000      129      960     1100   
                                          VAR    BASINP    GEOM    SYMINP    ZMAT    AOBASIS   BASIS     P2S    ABASIS      S 
                                         1400     1410     1200     1210     1080     1600     1650     1300     1700   
                                           T        V       H0       H01     AOSYM     SMH    MOLCAS    ERIS     OPER   

 PROGRAMS   *        TOTAL       INT
 CPU TIMES  *         0.42      0.28
 REAL TIME  *         0.71 SEC
 DISK USED  *        36.51 MB      
 **********************************************************************************************************************************

 Density functional group PBE=PBEX+PBEC
 Functional: PBEX(Automatically generated (new) PBEX)                          Gradient terms: 1
 Functional: PBEC(Automatically generated (new) PBEC)                          Gradient terms: 1

 dispersion correction activated
 Density functional: PBE     

 Functional: PBEX                      Factor:  1.0000
 Functional: PBEC                      Factor:  1.0000

 Use grid at  1800.2

 Functional: PBEX                      Factor:  1.0000
 Functional: PBEC                      Factor:  1.0000

 Generated new metagrid on record  1800.2 with target accuracy 1.0D-06 and 22338 points in CPU time    0.5
 Computed new grid on record 1800.1 in CPU time    0.5
   35830 words reserved for DFT integration

 PROGRAM * UKS-SCF (Unrestricted Kohn-Sham)     Authors: W. Meyer, H.-J. Werner, P.J. Knowles, 1993

 NUMBER OF ELECTRONS:      14+   13-    SPACE SYMMETRY=1    SPIN SYMMETRY: Doublet 
 CONVERGENCE THRESHOLDS:    1.00E-05 (Density)    1.00E-06 (Energy)
 MAX. NUMBER OF ITERATIONS:       60
 INTERPOLATION TYPE:            DIIS
 INTERPOLATION STEPS:              2 (START)      1 (STEP)
 LEVEL SHIFTS:                 -0.20 (ALPHA)  -0.20 (BETA) 



 Use fine grid record 1800.2 for energy threshold  1.0D-06
 Orbital guess generated from atomic densities. Full valence occupancy:   14

 Molecular orbital dump at record        2200.2

 Initial alpha occupation  14
 Initial beta  occupation  13

 ITERATION    DDIFF          GRAD             ENERGY        2-EL.EN.            DIPOLE MOMENTS         DIIS
    1      0.000D+00      0.000D+00      -500.12995206    542.529481    0.09263    0.22749    0.64551    0
    2      0.198D-01      0.868D-02      -500.18582290    537.168408    0.14398    0.35373    1.00375    1
    3      0.652D-02      0.416D-02      -500.19756745    537.984356    0.12844    0.31555    0.89541    2
    4      0.117D-02      0.454D-03      -500.19789729    538.142406    0.13170    0.32358    0.91817    3
    5      0.659D-03      0.218D-03      -500.19802148    538.089069    0.13226    0.32494    0.92206    4
    6      0.453D-03      0.103D-03      -500.19806414    538.097632    0.13343    0.32782    0.93022    5
    7      0.175D-03      0.272D-04      -500.19806784    538.100182    0.13392    0.32904    0.93369    6
    8      0.337D-04      0.665D-05      -500.19806798    538.098694    0.13404    0.32932    0.93448    6
    9      0.561D-05      0.209D-05      -500.19806798    538.099514    0.13403    0.32931    0.93446    6
   10      0.181D-05      0.766D-06      -500.19806798    538.099282    0.13405    0.32934    0.93454    7

 Dispersion correction
 - - - - - - - - - - - 
  _________________________________
                                   
 |         DFTD3 V1.3 Rev 1        |
 | S.Grimme, University Muenster   |
 | Fri Jul  2 12:48:21 CEST 2010   |
  _________________________________

 Please cite DFT-D3 work done with this code as:
 S. Grimme, J. Antony, S. Ehrlich and H. Krieg,
 J. Chem. Phys, 132 (2010), 154104.
 For DFT-D2 the reference is
 S. Grimme, J. Comput. Chem., 27 (2006), 1787-1799

 C6 coefficients used:
                    2  C6 for element                     1
 Z=  1 CN=   0.912     C6(AA)=    3.03
 Z=  1 CN=   0.000     C6(AA)=    7.59
                    5  C6 for element                     6
 Z=  6 CN=   0.000     C6(AA)=   49.11
 Z=  6 CN=   0.987     C6(AA)=   43.25
 Z=  6 CN=   1.998     C6(AA)=   29.36
 Z=  6 CN=   2.999     C6(AA)=   25.78
 Z=  6 CN=   3.984     C6(AA)=   18.21
                    2  C6 for element                    17
 Z= 17 CN=   0.000     C6(AA)=   92.35
 Z= 17 CN=   0.997     C6(AA)=   90.40

 #           XYZ [au]               R0(AA) [Ang.]   CN       C6(AA)     C8(AA)   C10(AA) [au]
  1   0.46132   1.13368   3.21711   c   1.455  3.616        20.1       581.0     20584.5
  2  -1.27670   0.52625   4.10626   h   1.091  0.995         3.1        37.4       553.6
  3   0.66501   3.14411   2.90578   h   1.091  0.995         3.1        37.4       553.6
  4   2.15559   0.12433   3.75644   h   1.091  0.995         3.1        37.4       553.6
  5   0.10802   0.26450   0.75043   h   1.091  1.549         3.0        36.6       542.0
  6  -0.25999  -0.63890  -1.81304   cl  1.552  1.014        90.4      3773.1    192845.9

 molecular C6(AA) [au] =       440.76

           DFT-D V3
 DF pbe                                               
 parameters
 s6       :    1.0000
 s8       :    0.7220
 rs6      :    1.2170
 alpha6   :   14.0000
 alpha8   :   16.0000
 k1-k3    :   16.0000    1.3333   -4.0000

 Edisp /kcal,au:    -0.6233 -0.00099326

 E6    /kcal :    -0.2056
 E8    /kcal :    -0.4177
 % E8        : 67.02
 normal termination of dftd3

 UKS STATE 1.1 ENERGY+DISP     -500.19906125

 Final alpha occupancy:  14
 Final beta  occupancy:  13

 !UKS STATE 1.1 Energy               -500.199061247299
 Nuclear energy                        46.25145461
 One-electron energy                 -780.65759778
 Two-electron energy                  269.04964102
 Density functional                   -34.84156584     PBEX=-33.87521706 PBEC= -0.96634878
 Virial quotient                       -1.00249387
 !UKS STATE 1.1 Dipole moment           0.13404658     0.32934244     0.93454050
 Dipole moment /Debye                   0.34069012     0.83705015     2.37520945

 Orbital energies for positive spin:

         1.1          2.1          3.1          4.1          5.1          6.1          7.1          8.1          9.1         10.1
   -100.611421    -9.933514    -9.146444    -6.980868    -6.965370    -6.965370    -0.732945    -0.652321    -0.416042    -0.402391

        11.1         12.1         13.1         14.1         15.1         16.1
     -0.402387    -0.254187    -0.254187    -0.234737     0.038614     0.098148

 Orbital energies for negative spin:

         1.1          2.1          3.1          4.1          5.1          6.1          7.1          8.1          9.1         10.1
   -100.608831    -9.923598    -9.143955    -6.973766    -6.963752    -6.963751    -0.715561    -0.630666    -0.395050    -0.395047

        11.1         12.1         13.1         14.1         15.1         16.1
     -0.392607    -0.247400    -0.247400    -0.183220     0.045922     0.103189

 HOMO     14.1    -0.234737 =      -6.3875eV
 LUMO    -14.1    -0.183220 =      -4.9857eV
 LUMO-HOMO         0.051517 =       1.4019eV

 EXPECTATION VALUE OF S**2:             0.75334447

 Occupation number threshold for canonical orbitals:  1.999000 (occupied),  0.001000 (virtual)

 Number of pseudo-canonical orbitals per symmetry:   13
 Number of active natural orbitals per symmetry:      1

 Natural orbitals saved to record    2200.2 (Orbital set 3)

 Orbital spaces for UNO-CAS (Min. occupation: 0.020  Max. occupation: 1.980):

 Closed:       13
 Active:        1


 **********************************************************************************************************************************
 DATASETS  * FILE   NREC   LENGTH (MB)   RECORD NAMES
              1      20       32.07       500      610      700      900      950      970     1000      129      960     1100   
                                          VAR    BASINP    GEOM    SYMINP    ZMAT    AOBASIS   BASIS     P2S    ABASIS      S 
                                         1400     1410     1200     1210     1080     1600     1650     1300     1700     1800   
                                           T        V       H0       H01     AOSYM     SMH    MOLCAS    ERIS     OPER     GRID   

              2       5        2.91       700     1000      520     1800     2200   
                                         GEOM     BASIS   MCVARS    GRID      UKS  

 PROGRAMS   *        TOTAL       UKS       INT
 CPU TIMES  *         2.73      2.31      0.28
 REAL TIME  *         3.08 SEC
 DISK USED  *        36.51 MB      
 **********************************************************************************************************************************


 PROGRAM * Intrinsic Basis Bonding Analysis (IBBA)          Author: G. Knizia

 Molecular orbitals read from record     2200.2  Type=UKS/ALPHA (state 1.1)
 Fock matrix read from record            2200.2  Type=UKS/TOTAL (state 1.1)
 Orbital energies read from record       2200.2  Type=UKS/ALPHA (state 1.1)
 Density matrix read from record         2200.2  Type=UKS/CHARGE (state 1.1)

 Number of core orbitals:           6 (   6 )
 Number of closed-shell orbitals:   7 (   7 )
 Number of active  orbitals:        1 (   1 )

 Basis set MINAO-AUTO-PP generated.      Number of basis functions:   18 

 Polarized AO type:                A = (O Ot + (1-O)(1-Ot)) P12
 Orthogonalization method:         Symmetric (Loewdin)
 Localization functional:          L = sum[A,i] <i|n_A|i>^4 -> max

 Localization group 1:  13 orbitals, occupancy  2.000
 Iterative localization: IB/PM,    6 iter; Final gradient 0.10E-08

 Bond order analysis:       [THRPRINT= 0.020]

   CEN ATOM   CEN ATOM     WIBERG.BO      RENORM.BO
     1   C  -   2   H       0.953229       0.999674
     1   C  -   4   H       0.953228       0.999673
     1   C  -   3   H       0.953223       0.999674
     1   C  -   6  CL       0.409171       1.003097
     1   C  -   5   H       0.341501       0.843832

     2   H  -   1   C       0.953229       0.999674

     3   H  -   1   C       0.953223       0.999674

     4   H  -   1   C       0.953228       0.999673

     5   H  -   6  CL       0.618264       0.913542
     5   H  -   1   C       0.341501       0.843832

     6  CL  -   5   H       0.618264       0.913542
     6  CL  -   1   C       0.409171       1.003097


 Valency analysis:

   CEN ATOM   TOT.VALENCE
     1   C       3.610350
     2   H       0.965989
     3   H       0.965987
     4   H       0.965990
     5   H       0.966049
     6  CL       1.057431
 Localization group 2:   1 orbitals, occupancy  1.000
 Iterative localization: IB/PM,    1 iter; Final gradient 0.00E+00

 Bond order analysis:       [THRPRINT= 0.020]

   CEN ATOM   CEN ATOM     WIBERG.BO      RENORM.BO
     1   C  -   6  CL       0.471558       0.500000





     6  CL  -   1   C       0.471558       0.500000


 Valency analysis:

   CEN ATOM   TOT.VALENCE
     1   C       0.497120
     2   H       0.008104
     3   H       0.008108
     4   H       0.008109
     5   H       0.022830
     6  CL       0.492385

 Total charge composition:

   CEN ATOM         s          p       ELECTRONS ->P.CHARGE
     1   C       3.12629    3.39579      6.52208   -0.52208
     2   H       0.81965                 0.81965    0.18035
     3   H       0.81964                 0.81964    0.18036
     4   H       0.81965                 0.81965    0.18035
     5   H       0.82729                 0.82729    0.17271
     6  CL       5.90969   11.28200     17.19169   -0.19169

 Total charge composition, AO contributions:

   CEN ATOM SHL      SPHERICAL COMPONENTS
     1   C  1s       1.99196
     1   C  2s       1.13433
     1   C  2p       1.19905    1.17979    1.01696

     2   H  1s       0.81965

     3   H  1s       0.81964

     4   H  1s       0.81965

     5   H  1s       0.82729

     6  CL  1s       1.99997
     6  CL  2s       1.99853
     6  CL  3s       1.91119
     6  CL  2p       2.00000    1.99998    1.99984
     6  CL  3p       1.98694    1.92201    1.37322

 Active orbital charges:

   CEN ATOM         s          p       ELECTRONS ->SPIN.DEN
     1   C       0.01590    0.52205      0.53795    0.53795
     2   H       0.00407                 0.00407    0.00407
     3   H       0.00407                 0.00407    0.00407
     4   H       0.00407                 0.00407    0.00407
     5   H       0.01155                 0.01155    0.01155
     6  CL       0.00224    0.43606      0.43829    0.43829

 Active orbital charges, AO contributions:

   CEN ATOM SHL      SPHERICAL COMPONENTS
     1   C  1s       0.00004
     1   C  2s       0.01586
     1   C  2p       0.00935    0.05663    0.45607

     2   H  1s       0.00407

     3   H  1s       0.00407

     4   H  1s       0.00407

     5   H  1s       0.01155

     6  CL  1s       0.00000
     6  CL  2s       0.00005
     6  CL  3s       0.00219
     6  CL  2p       0.00000    0.00000    0.00000
     6  CL  3p       0.00783    0.04731    0.38092

 Summary of localized orbital composition:   [THRPRINT= 0.020]

   ORB  GRP  ORB.ENERGY      CENTERS/CHARGES
     1   1  -100.579545     CL  6   2.000
     2   1    -9.817619      C  1   2.000
     3   1    -8.990660     CL  6   2.000
     4   1    -6.964556     CL  6   2.000
     5   1    -6.964556     CL  6   2.000
     6   1    -6.960156     CL  6   2.000
     7   1    -0.843818     CL  6   1.951   C  1   0.032
     8   1    -0.512945      C  1   1.174   H  3   0.813
     9   1    -0.512945      C  1   1.174   H  4   0.813
    10   1    -0.512937      C  1   1.174   H  2   0.813
    11   1    -0.495841     CL  6   0.790   H  5   0.775   C  1   0.429
    12   1    -0.251038     CL  6   2.000
    13   1    -0.251038     CL  6   2.000
    14   2    -0.208653      C  1   0.538  CL  6   0.438   (other: 0.024)

 Localized orbitals saved to record      2200.2  (orbital set 4)


 **********************************************************************************************************************************
 DATASETS  * FILE   NREC   LENGTH (MB)   RECORD NAMES
              1      20       32.07       500      610      700      900      950      970     1000      129      960     1100   
                                          VAR    BASINP    GEOM    SYMINP    ZMAT    AOBASIS   BASIS     P2S    ABASIS      S 
                                         1400     1410     1200     1210     1080     1600     1650     1300     1700     1800   
                                           T        V       H0       H01     AOSYM     SMH    MOLCAS    ERIS     OPER     GRID   

              2       5        2.92       700     1000      520     1800     2200   
                                         GEOM     BASIS   MCVARS    GRID      UKS  

 PROGRAMS   *        TOTAL      IBBA       UKS       INT
 CPU TIMES  *         2.76      0.02      2.31      0.28
 REAL TIME  *         3.11 SEC
 DISK USED  *        36.51 MB      
 **********************************************************************************************************************************

 IBBA/SV(P) energy=      0.000000000000

        UKS-SCF 
   -500.19906125
 **********************************************************************************************************************************
 Molpro calculation terminated
