
 Primary working directories    : /local
 Secondary working directories  : /local
 Wavefunction directory         : /local/
 Main file repository           : /local/

 SHA1      : b4a5b34a9e711420743f49e6833241d17c61fb3c
 NAME      : 2099.9.b4a5b34
 ARCHNAME  : linux/x86_64_openmp
 FC        : /cm/shared/languages/GCC-6.1/bin/gfortran
 BLASLIB   : -lblas
 id        : simonbennie

 Nodes     nprocs
 node32-045    1

 Using customized tuning parameters: mindgm=1; mindgv=20; mindgc=4; mindgr=1; noblas=0; minvec=7
 default implementation of scratch files=df  

 memory,500,m
 geomtyp=xyz
 nosym
 noorient
 geometry={
 C          0.24412        0.59992        1.70242
 H         -0.67560        0.27848        2.17294
 H          0.35191        1.66379        1.53767
 H          1.14069        0.06579        1.98782
 H          0.05716        0.13997        0.39711
 Cl        -0.13758       -0.33809       -0.95942
 }
 basis={ default,tzvp }
 {ks,SOGGA,direct;wf,27,1,1}
 {ibba,bonds=1}

 Variables initialized (895), CPU time= 0.01 sec
 Commands  initialized (725), CPU time= 0.01 sec, 591 directives.
 Default parameters read. Elapsed time= 0.07 sec

 Checking input...
 Passed
1


                                         ***  PROGRAM SYSTEM MOLPRO  ***
                                       Copyright, TTI GmbH Stuttgart, 2015
                                    Version 2099.9 linked May 26 2017 16:03:21


 **********************************************************************************************************************************
 LABEL *                                                                                 
  64 bit serial version                                                                  DATE: 24-Jun-17          TIME: 19:23:11  
 **********************************************************************************************************************************

 SHA1:             b4a5b34a9e711420743f49e6833241d17c61fb3c
 **********************************************************************************************************************************
 SETTING GEOMTYP        =    XYZ

 Variable memory set to  500000000 words,  buffer space 

 ZSYMEL=NOSYM

 SETTING BASIS          =    TZVP


 Recomputing integrals since basis changed


 Using spherical harmonics

 Library entry C      S def2-TZVP            selected for orbital group  1
 Library entry C      P def2-TZVP            selected for orbital group  1
 Library entry C      D def2-TZVP            selected for orbital group  1
 Library entry C      F def2-TZVP            selected for orbital group  1
 Library entry H      S def2-TZVP            selected for orbital group  2
 Library entry H      P def2-TZVP            selected for orbital group  2
 Library entry CL     S def2-TZVP            selected for orbital group  3
 Library entry CL     P def2-TZVP            selected for orbital group  3
 Library entry CL     D def2-TZVP            selected for orbital group  3
 Library entry CL     F def2-TZVP            selected for orbital group  3


 PROGRAM * SEWARD (Integral evaluation for generally contracted gaussian basis sets)     Author: Roland Lindh, 1990

 Geometry written to block  1 of record 700


 Point group  C1  



 ATOMIC COORDINATES

 NR  ATOM    CHARGE       X              Y              Z

   1  C       6.00    0.461319942    1.133684497    3.217107549
   2  H       1.00   -1.276698970    0.526250931    4.106261485
   3  H       1.00    0.665013520    3.144107429    2.905775170
   4  H       1.00    2.155591693    0.124325082    3.756435385
   5  H       1.00    0.108016745    0.264504966    0.750429141
   6  CL     17.00   -0.259988520   -0.638897505   -1.813041038

 Bond lengths in Bohr (Angstrom)

 1-2  2.044573304  1-3  2.044558459  1-4  2.044562963  1-5  2.639090482  5-6  2.742798436
     ( 1.081941598)     ( 1.081933743)     ( 1.081936126)     ( 1.396546541)     ( 1.451426427)

 Bond angles

  1-5-6  179.98259687   2-1-3  116.29840821   2-1-4  116.29785683   2-1-5  101.23451056

  3-1-4  116.29844720   3-1-5  101.23661595   4-1-5  101.23873676

 NUCLEAR CHARGE:                   27
 NUMBER OF PRIMITIVE AOS:         152
 NUMBER OF SYMMETRY AOS:          141
 NUMBER OF CONTRACTIONS:           92   (  92A   )
 NUMBER OF CORE ORBITALS:           6   (   6A   )
 NUMBER OF VALENCE ORBITALS:       12   (  12A   )


 NUCLEAR REPULSION ENERGY   46.25145461


 Eigenvalues of metric

         1 0.126E-02 0.552E-02 0.695E-02 0.695E-02 0.127E-01 0.166E-01 0.237E-01 0.237E-01


 Contracted 2-electron integrals neglected if value below      1.0D-11
 AO integral compression algorithm  1   Integral accuracy      1.0D-11

     38.535 MB (compressed) written to integral file ( 41.6%)


 NUMBER OF SORTED TWO-ELECTRON INTEGRALS:    9152781.     BUFFER LENGTH:  32768
 NUMBER OF SEGMENTS:   1  SEGMENT LENGTH:    9152781      RECORD LENGTH: 524288

 Memory used in sort:       9.71 MW

 SORT1 READ    11569566. AND WROTE     7831240. INTEGRALS IN     23 RECORDS. CPU TIME:     0.10 SEC, REAL TIME:     0.21 SEC
 SORT2 READ     7831240. AND WROTE     9152781. INTEGRALS IN    147 RECORDS. CPU TIME:     0.29 SEC, REAL TIME:     0.34 SEC

 FILE SIZES:   FILE 1:    68.9 MBYTE,  FILE 4:    96.5 MBYTE,   TOTAL:    165.4 MBYTE

 OPERATOR DM      FOR CENTER  0  COORDINATES:    0.000000    0.000000    0.000000


 **********************************************************************************************************************************
 DATASETS  * FILE   NREC   LENGTH (MB)   RECORD NAMES
              1      19       60.55       500      610      700      900      950      970     1000      129      960     1100   
                                          VAR    BASINP    GEOM    SYMINP    ZMAT    AOBASIS   BASIS     P2S    ABASIS      S 
                                         1400     1410     1200     1210     1080     1600     1650     1300     1700   
                                           T        V       H0       H01     AOSYM     SMH    MOLCAS    ERIS     OPER   

 PROGRAMS   *        TOTAL       INT
 CPU TIMES  *         1.41      1.27
 REAL TIME  *         1.97 SEC
 DISK USED  *       165.78 MB      
 **********************************************************************************************************************************

 Density functional group SOGGA=XC-SOGGA
 Functional: XC-SOGGA(via MFM 1.6)                                             Gradient terms: 1
 Use grid at  1800.2

 Functional: XC-SOGGA                  Factor:  1.0000

 Generated new metagrid on record  1800.2 with target accuracy 1.0D-06 and 23054 points in CPU time    0.5
 Computed new grid on record 1800.1 in CPU time    0.5
   77170 words reserved for DFT integration

 PROGRAM * RKS-SCF (Restricted open shell Kohn-Sham)     Authors: W. Meyer, H.-J. Werner, P.J. Knowles, 1993

 NUMBER OF ELECTRONS:      14+   13-    SPACE SYMMETRY=1    SPIN SYMMETRY: Doublet 
 CONVERGENCE THRESHOLDS:    1.00E-05 (Density)    1.00E-06 (Energy)
 MAX. NUMBER OF ITERATIONS:       60
 INTERPOLATION TYPE:            DIIS
 INTERPOLATION STEPS:              2 (START)      1 (STEP)
 LEVEL SHIFTS:                 -0.60 (CLOSED) -0.30 (OPEN) 



 Use fine grid record 1800.2 for energy threshold  1.0D-06
 Orbital guess generated from atomic densities. Full valence occupancy:   14

 Molecular orbital dump at record        2100.2

 Initial alpha occupancy:  14
 Initial beta  occupancy:  13
 Wave function symmetry:    1

 ITERATION    DDIFF          GRAD             ENERGY        2-EL.EN.            DIPOLE MOMENTS         DIIS   ORB.
    1      0.000D+00      0.000D+00      -499.30610230    541.747326    0.07453    0.18296    0.51928    0    start
    2      0.000D+00      0.748D-02      -499.36152127    537.661198    0.18594    0.45680    1.29633    1    diag,B
    3      0.515D-02      0.368D-02      -499.37642478    537.563211    0.13627    0.33476    0.95004    2    diag,B
    4      0.197D-02      0.534D-03      -499.37682306    537.818376    0.14247    0.34999    0.99325    3    diag,B
    5      0.644D-03      0.218D-03      -499.37693030    537.708087    0.14122    0.34692    0.98453    4    diag,B
    6      0.283D-03      0.732D-04      -499.37696054    537.687085    0.14123    0.34696    0.98464    5    diag,B
    7      0.199D-03      0.213D-04      -499.37696469    537.689299    0.14156    0.34777    0.98695    6    fixocc
    8      0.771D-04      0.820D-05      -499.37696521    537.688597    0.14165    0.34800    0.98761    7    diag,B
    9      0.260D-04      0.233D-05      -499.37696525    537.688866    0.14172    0.34817    0.98807    8    diag,B
   10      0.845D-05      0.706D-06      -499.37696525    537.688890    0.14173    0.34818    0.98811    0    orth

 Final alpha occupancy:  14
 Final beta  occupancy:  13

 !RKS STATE 1.1 Energy               -499.376965254015
 Nuclear energy                        46.25145461
 One-electron energy                 -780.70761183
 Two-electron energy                  268.84444488
 Density functional                   -33.76525292     XC-SOGGA=-33.76525292
 Virial quotient                       -1.00037736
 !RKS STATE 1.1 Dipole moment           0.14172568     0.34817802     0.98810842
 Dipole moment /Debye                   0.36020715     0.88492230     2.51135659

 Orbital energies:

         1.1          2.1          3.1          4.1          5.1          6.1          7.1          8.1          9.1         10.1
   -100.460402    -9.866758    -9.132768    -6.966206    -6.955660    -6.955660    -0.731101    -0.646652    -0.406438    -0.395460

        11.1         12.1         13.1         14.1         15.1         16.1
     -0.395456    -0.263873    -0.263873    -0.238376     0.023144     0.085143

 HOMO     14.1    -0.238376 =      -6.4865eV
 LUMO     15.1     0.023144 =       0.6298eV
 LUMO-HOMO         0.261520 =       7.1163eV


 **********************************************************************************************************************************
 DATASETS  * FILE   NREC   LENGTH (MB)   RECORD NAMES
              1      20       61.29       500      610      700      900      950      970     1000      129      960     1100   
                                          VAR    BASINP    GEOM    SYMINP    ZMAT    AOBASIS   BASIS     P2S    ABASIS      S 
                                         1400     1410     1200     1210     1080     1600     1650     1300     1700     1800   
                                           T        V       H0       H01     AOSYM     SMH    MOLCAS    ERIS     OPER     GRID   

              2       5        3.09       700     1000      520     1800     2100   
                                         GEOM     BASIS   MCVARS    GRID      RKS  

 PROGRAMS   *        TOTAL        KS       INT
 CPU TIMES  *         7.30      5.89      1.27
 REAL TIME  *         8.58 SEC
 DISK USED  *       165.78 MB      
 **********************************************************************************************************************************


 PROGRAM * Intrinsic Basis Bonding Analysis (IBBA)          Author: G. Knizia

 Molecular orbitals read from record     2100.2  Type=RKS/CANONICAL (state 1.1)
 Fock matrix read from record            2100.2  Type=RKS/TOTAL (state 1.1)
 Orbital energies read from record       2100.2  Type=RKS/CANONICAL (state 1.1)
 Density matrix read from record         2100.2  Type=RKS/CHARGE (state 1.1)

 Number of core orbitals:           6 (   6 )
 Number of closed-shell orbitals:   7 (   7 )
 Number of active  orbitals:        1 (   1 )

 Basis set MINAO-AUTO-PP generated.      Number of basis functions:   18 

 Polarized AO type:                A = (O Ot + (1-O)(1-Ot)) P12
 Orthogonalization method:         Symmetric (Loewdin)
 Localization functional:          L = sum[A,i] <i|n_A|i>^4 -> max

 Localization group 1:  13 orbitals, occupancy  2.000
 Iterative localization: IB/PM,    6 iter; Final gradient 0.45E-09

 Bond order analysis:       [THRPRINT= 0.020]

   CEN ATOM   CEN ATOM     WIBERG.BO      RENORM.BO
     1   C  -   4   H       0.950512       0.999482
     1   C  -   2   H       0.950510       0.999484
     1   C  -   3   H       0.950505       0.999483
     1   C  -   6  CL       0.354056       1.002709
     1   C  -   5   H       0.272089       0.860276

     2   H  -   1   C       0.950510       0.999484

     3   H  -   1   C       0.950505       0.999483

     4   H  -   1   C       0.950512       0.999482

     5   H  -   6  CL       0.683273       0.920306
     5   H  -   1   C       0.272089       0.860276

     6  CL  -   5   H       0.683273       0.920306
     6  CL  -   1   C       0.354056       1.002709


 Valency analysis:

   CEN ATOM   TOT.VALENCE
     1   C       3.477672
     2   H       0.962583
     3   H       0.962581
     4   H       0.962584
     5   H       0.962848
     6  CL       1.064127
 Localization group 2:   1 orbitals, occupancy  1.000
 Iterative localization: IB/PM,    1 iter; Final gradient 0.00E+00

 Bond order analysis:       [THRPRINT= 0.020]

   CEN ATOM   CEN ATOM     WIBERG.BO      RENORM.BO
     1   C  -   6  CL       0.445519       0.500000
     1   C  -   5   H       0.026237       0.500000




     5   H  -   1   C       0.026237       0.500000

     6  CL  -   1   C       0.445519       0.500000


 Valency analysis:

   CEN ATOM   TOT.VALENCE
     1   C       0.486847
     2   H       0.008616
     3   H       0.008620
     4   H       0.008620
     5   H       0.044132
     6  CL       0.472782

 Total charge composition:

   CEN ATOM         s          p       ELECTRONS ->P.CHARGE
     1   C       3.13210    3.35532      6.48742   -0.48742
     2   H       0.81089                 0.81089    0.18911
     3   H       0.81089                 0.81089    0.18911
     4   H       0.81090                 0.81090    0.18910
     5   H       0.82983                 0.82983    0.17017
     6  CL       5.91093   11.33914     17.25007   -0.25007

 Total charge composition, AO contributions:

   CEN ATOM SHL      SPHERICAL COMPONENTS
     1   C  1s       1.99232
     1   C  2s       1.13978
     1   C  2p       1.20668    1.18135    0.96729

     2   H  1s       0.81089

     3   H  1s       0.81089

     4   H  1s       0.81090

     5   H  1s       0.82983

     6  CL  1s       1.99997
     6  CL  2s       1.99856
     6  CL  3s       1.91240
     6  CL  2p       2.00000    1.99998    1.99985
     6  CL  3p       1.98784    1.92812    1.42336

 Active orbital charges:

   CEN ATOM         s          p       ELECTRONS ->SPIN.DEN
     1   C       0.01775    0.56335      0.58110    0.58110
     2   H       0.00433                 0.00433    0.00433
     3   H       0.00433                 0.00433    0.00433
     4   H       0.00433                 0.00433    0.00433
     5   H       0.02258                 0.02258    0.02258
     6  CL       0.00472    0.37862      0.38334    0.38334

 Active orbital charges, AO contributions:

   CEN ATOM SHL      SPHERICAL COMPONENTS
     1   C  1s       0.00003
     1   C  2s       0.01772
     1   C  2p       0.01009    0.06111    0.49215

     2   H  1s       0.00433

     3   H  1s       0.00433

     4   H  1s       0.00433

     5   H  1s       0.02258

     6  CL  1s       0.00000
     6  CL  2s       0.00006
     6  CL  3s       0.00466
     6  CL  2p       0.00000    0.00000    0.00000
     6  CL  3p       0.00680    0.04108    0.33074

 Summary of localized orbital composition:   [THRPRINT= 0.020]

   ORB  GRP  ORB.ENERGY      CENTERS/CHARGES
     1   1  -100.426561     CL  6   2.000
     2   1    -9.756579      C  1   2.000
     3   1    -8.962335     CL  6   2.000
     4   1    -6.955660     CL  6   2.000
     5   1    -6.955660     CL  6   2.000
     6   1    -6.947661     CL  6   2.000
     7   1    -0.865916     CL  6   1.963   C  1   0.026
     8   1    -0.512651      C  1   1.183   H  3   0.804
     9   1    -0.512650      C  1   1.183   H  4   0.804
    10   1    -0.512643      C  1   1.183   H  2   0.804
    11   1    -0.503551     CL  6   0.894   H  5   0.771   C  1   0.330
    12   1    -0.264218     CL  6   2.000
    13   1    -0.264218     CL  6   2.000
    14   2    -0.215582      C  1   0.581  CL  6   0.383   H  5   0.023

 Localized orbitals saved to record      2100.2  (orbital set 2)


 **********************************************************************************************************************************
 DATASETS  * FILE   NREC   LENGTH (MB)   RECORD NAMES
              1      20       61.29       500      610      700      900      950      970     1000      129      960     1100   
                                          VAR    BASINP    GEOM    SYMINP    ZMAT    AOBASIS   BASIS     P2S    ABASIS      S 
                                         1400     1410     1200     1210     1080     1600     1650     1300     1700     1800   
                                           T        V       H0       H01     AOSYM     SMH    MOLCAS    ERIS     OPER     GRID   

              2       5        3.16       700     1000      520     1800     2100   
                                         GEOM     BASIS   MCVARS    GRID      RKS  

 PROGRAMS   *        TOTAL      IBBA        KS       INT
 CPU TIMES  *         7.33      0.03      5.89      1.27
 REAL TIME  *         8.66 SEC
 DISK USED  *       165.78 MB      
 **********************************************************************************************************************************
 Molecular orbitals read from record     2100.2  Type=RKS/LOCAL(IBO)  
 Occupation numbers read from record     2100.2  Type=RKS/LOCAL(IBO)  
 Orbital energies read from record       2100.2  Type=RKS/LOCAL(IBO)  
 Redundancy group numbers read from rec  2100.2  Type=RKS/LOCAL(IBO)  

 IBBA/TZVP energy=      0.000000000000

        KS-SCF  
   -499.37696525
 **********************************************************************************************************************************
 Molpro calculation terminated
