
 Primary working directories    : /local
 Secondary working directories  : /local
 Wavefunction directory         : /local/
 Main file repository           : /local/

 SHA1      : b4a5b34a9e711420743f49e6833241d17c61fb3c
 NAME      : 2099.9.b4a5b34
 ARCHNAME  : linux/x86_64_openmp
 FC        : /cm/shared/languages/GCC-6.1/bin/gfortran
 BLASLIB   : -lblas
 id        : simonbennie

 Nodes     nprocs
 node33-030    1

 Using customized tuning parameters: mindgm=1; mindgv=20; mindgc=4; mindgr=1; noblas=0; minvec=7
 default implementation of scratch files=df  

 memory,500,m
 geomtyp=xyz
 nosym
 noorient
 geometry={
 C          1.45833       -0.44637        0.02548
 C          0.46942        0.69742       -0.02749
 O         -1.85304       -0.31466       -0.05305
 H          1.30176       -1.06108        0.91074
 H          1.36658       -1.08619       -0.85112
 H          2.48224       -0.06688        0.05715
 H          0.47107        1.32544        0.86104
 H          0.53352        1.30350       -0.92856
 H         -0.63023        0.20782       -0.07846
 H         -2.26721        0.38832        0.46575
 }
 basis={ default,sto-3g }
 {uks,D,direct;wf,27,1,1}
 {ibba,bonds=1}

 Variables initialized (895), CPU time= 0.00 sec
 Commands  initialized (725), CPU time= 0.02 sec, 591 directives.
 Default parameters read. Elapsed time= 0.08 sec

 Checking input...
 Passed
1


                                         ***  PROGRAM SYSTEM MOLPRO  ***
                                       Copyright, TTI GmbH Stuttgart, 2015
                                    Version 2099.9 linked May 26 2017 16:03:21


 **********************************************************************************************************************************
 LABEL *                                                                                 
  64 bit serial version                                                                  DATE: 25-Jun-17          TIME: 00:50:14  
 **********************************************************************************************************************************

 SHA1:             b4a5b34a9e711420743f49e6833241d17c61fb3c
 **********************************************************************************************************************************
 SETTING GEOMTYP        =    XYZ

 Variable memory set to  500000000 words,  buffer space 

 ZSYMEL=NOSYM

 SETTING BASIS          =    STO-3G


 Recomputing integrals since basis changed


 Using spherical harmonics

 Library entry C      S STO-3G               selected for orbital group  1
 Library entry C      P STO-3G               selected for orbital group  1
 Library entry O      S STO-3G               selected for orbital group  2
 Library entry O      P STO-3G               selected for orbital group  2
 Library entry H      S STO-3G               selected for orbital group  3


 PROGRAM * SEWARD (Integral evaluation for generally contracted gaussian basis sets)     Author: Roland Lindh, 1990

 Geometry written to block  1 of record 700


 Point group  C1  



 ATOMIC COORDINATES

 NR  ATOM    CHARGE       X              Y              Z

   1  C       6.00    2.755844299   -0.843517050    0.048150222
   2  C       6.00    0.887075237    1.317932794   -0.051948571
   3  O       8.00   -3.501738098   -0.594621222   -0.100249971
   4  H       1.00    2.459969880   -2.005150596    1.721049171
   5  H       1.00    2.582461927   -2.052601619   -1.608383699
   6  H       1.00    4.690753775   -0.126384883    0.107997848
   7  H       1.00    0.890193285    2.504718595    1.627129782
   8  H       1.00    1.008206682    2.463258003   -1.754724090
   9  H       1.00   -1.190962095    0.392722883   -0.148267912
  10  H       1.00   -4.284405967    0.733818449    0.880139943

 Bond lengths in Bohr (Angstrom)

 1-2  2.859052816  1-4  2.058039130  1-5  2.058167042  1-6  2.064396998  2-7  2.056155241
     ( 1.512945595)     ( 1.089067407)     ( 1.089135095)     ( 1.092431846)     ( 1.088070496)

  2- 8  2.055696264   2- 9  2.276736689   3- 9  2.513332417   3-10  1.827152247
       ( 1.087827616)       ( 1.204797171)       ( 1.329998239)       ( 0.966887330)

 Bond angles

  1-2-7  114.00226578   1-2-8  114.31102346   1-2-9  106.90871836   2-1-4  111.17423075

  2-1-5  111.15405898   2-1-6  110.55020437   2-9-3  176.37609848   4-1-5  108.09205460

  4-1-6  107.89401437   5-1-6  107.84010630   7-2-8  110.77800657   7-2-9  105.69319509

  8- 2- 9  104.19071435   9- 3-10   96.80351572

 NUCLEAR CHARGE:                   27
 NUMBER OF PRIMITIVE AOS:          66
 NUMBER OF SYMMETRY AOS:           66
 NUMBER OF CONTRACTIONS:           22   (  22A   )
 NUMBER OF CORE ORBITALS:           3   (   3A   )
 NUMBER OF VALENCE ORBITALS:       19   (  19A   )


 NUCLEAR REPULSION ENERGY   76.62128239


 Eigenvalues of metric

         1 0.207E+00 0.251E+00 0.342E+00 0.347E+00 0.372E+00 0.388E+00 0.389E+00 0.406E+00


 Contracted 2-electron integrals neglected if value below      1.0D-11
 AO integral compression algorithm  1   Integral accuracy      1.0D-11

     0.262 MB (compressed) written to integral file (100.0%)


 NUMBER OF SORTED TWO-ELECTRON INTEGRALS:      32131.     BUFFER LENGTH:  32768
 NUMBER OF SEGMENTS:   1  SEGMENT LENGTH:      32131      RECORD LENGTH: 524288

 Memory used in sort:       0.59 MW

 SORT1 READ       37963. AND WROTE       31156. INTEGRALS IN      1 RECORDS. CPU TIME:     0.00 SEC, REAL TIME:     0.01 SEC
 SORT2 READ       31156. AND WROTE       32131. INTEGRALS IN      1 RECORDS. CPU TIME:     0.01 SEC, REAL TIME:     0.01 SEC

 FILE SIZES:   FILE 1:    30.4 MBYTE,  FILE 4:     4.2 MBYTE,   TOTAL:     34.6 MBYTE

 OPERATOR DM      FOR CENTER  0  COORDINATES:    0.000000    0.000000    0.000000


 **********************************************************************************************************************************
 DATASETS  * FILE   NREC   LENGTH (MB)   RECORD NAMES
              1      19       30.27       500      610      700      900      950      970     1000      129      960     1100   
                                          VAR    BASINP    GEOM    SYMINP    ZMAT    AOBASIS   BASIS     P2S    ABASIS      S 
                                         1400     1410     1200     1210     1080     1600     1650     1300     1700   
                                           T        V       H0       H01     AOSYM     SMH    MOLCAS    ERIS     OPER   

 PROGRAMS   *        TOTAL       INT
 CPU TIMES  *         0.39      0.25
 REAL TIME  *         0.71 SEC
 DISK USED  *        35.03 MB      
 **********************************************************************************************************************************

 Density functional group D=DIRAC
 Functional: DIRAC(Automatically generated (new) DIRAC)                        Gradient terms: 0
 Use grid at  1800.2

 Functional: DIRAC                     Factor:  1.0000

 Generated new metagrid on record  1800.2 with target accuracy 1.0D-06 and 36074 points in CPU time    0.8
 Computed new grid on record 1800.1 in CPU time    0.9
   13340 words reserved for DFT integration

 PROGRAM * UKS-SCF (Unrestricted Kohn-Sham)     Authors: W. Meyer, H.-J. Werner, P.J. Knowles, 1993

 NUMBER OF ELECTRONS:      14+   13-    SPACE SYMMETRY=1    SPIN SYMMETRY: Doublet 
 CONVERGENCE THRESHOLDS:    1.00E-05 (Density)    1.00E-06 (Energy)
 MAX. NUMBER OF ITERATIONS:       60
 INTERPOLATION TYPE:            DIIS
 INTERPOLATION STEPS:              2 (START)      1 (STEP)
 LEVEL SHIFTS:                 -0.20 (ALPHA)  -0.20 (BETA) 



 Use fine grid record 1800.2 for energy threshold  1.0D-06
 Orbital guess generated from atomic densities. Full valence occupancy:   14

 Molecular orbital dump at record        2200.2

 Initial alpha occupation  14
 Initial beta  occupation  13

 ITERATION    DDIFF          GRAD             ENERGY        2-EL.EN.            DIPOLE MOMENTS         DIIS
    1      0.000D+00      0.000D+00      -150.31350395    312.643113    0.20280    0.80669    0.51753    0
    2      0.644D-01      0.217D-01      -150.46350389    304.212871    0.11214    0.34905    0.22577    1
    3      0.117D-01      0.511D-02      -150.47080310    305.464128    0.05038    0.36202    0.23686    2
    4      0.139D-02      0.788D-03      -150.47108782    305.429388    0.04607    0.37612    0.23975    3
    5      0.886D-03      0.379D-03      -150.47121057    305.422353    0.02917    0.37485    0.23791    4
    6      0.546D-03      0.159D-03      -150.47123800    305.418049    0.01813    0.37565    0.23860    5
    7      0.196D-03      0.579D-04      -150.47124101    305.415853    0.01568    0.37519    0.23849    6
    8      0.147D-03      0.275D-04      -150.47124274    305.415403    0.01529    0.37533    0.23839    6
    9      0.213D-03      0.248D-04      -150.47124508    305.415797    0.01502    0.37543    0.23830    6
   10      0.311D-03      0.236D-04      -150.47124833    305.414961    0.01472    0.37544    0.23807    7
   11      0.182D-02      0.224D-04      -150.47126374    305.414791    0.01230    0.37566    0.23701    8
   12      0.257D-02      0.165D-04      -150.47127443    305.412561    0.00732    0.37548    0.23556    9
   13      0.621D-03      0.143D-04      -150.47127297    305.413906    0.01141    0.37707    0.23611    9
   14      0.127D-02      0.237D-04      -150.47127504    305.412365    0.00687    0.37588    0.23527    9
   15      0.229D-04      0.416D-05      -150.47127505    305.412477    0.00730    0.37611    0.23529    9
   16      0.325D-04      0.106D-05      -150.47127505    305.412420    0.00711    0.37605    0.23526    9
   17      0.970D-05      0.381D-06      -150.47127505    305.412437    0.00716    0.37607    0.23527    9
   18      0.490D-06      0.131D-07      -150.47127505    305.412438    0.00717    0.37607    0.23527    4

 Final alpha occupancy:  14
 Final beta  occupancy:  13

 !UKS STATE 1.1 Energy               -150.471275052073
 Nuclear energy                        76.62128239
 One-electron energy                 -360.74448172
 Two-electron energy                  152.70621898
 Density functional                   -19.05429470     DIRAC=-19.05429470
 Virial quotient                       -0.99350098
 !UKS STATE 1.1 Dipole moment           0.00716527     0.37607022     0.23527212
 Dipole moment /Debye                   0.01821111     0.95581255     0.59796291

 Orbital energies for positive spin:

         1.1          2.1          3.1          4.1          5.1          6.1          7.1          8.1          9.1         10.1
    -18.203257    -9.494432    -9.487490    -0.751305    -0.580408    -0.453901    -0.306613    -0.295865    -0.237858    -0.226162

        11.1         12.1         13.1         14.1         15.1         16.1
     -0.201723    -0.182341    -0.056466    -0.014360     0.398922     0.429418

 Orbital energies for negative spin:

         1.1          2.1          3.1          4.1          5.1          6.1          7.1          8.1          9.1         10.1
    -18.187447    -9.494678    -9.480605    -0.708125    -0.572696    -0.445660    -0.292660    -0.289712    -0.224215    -0.219284

        11.1         12.1         13.1         14.1         15.1         16.1
     -0.198512    -0.149178     0.017181     0.021725     0.417900     0.433154

 HOMO    -13.1     0.017181 =       0.4675eV
 LUMO    -14.1     0.021725 =       0.5912eV
 LUMO-HOMO         0.004544 =       0.1237eV

 EXPECTATION VALUE OF S**2:             0.75245449

 Occupation number threshold for canonical orbitals:  1.999000 (occupied),  0.001000 (virtual)

 Number of pseudo-canonical orbitals per symmetry:   13
 Number of active natural orbitals per symmetry:      1

 Natural orbitals saved to record    2200.2 (Orbital set 3)

 Orbital spaces for UNO-CAS (Min. occupation: 0.020  Max. occupation: 1.980):

 Closed:       13
 Active:        1


 **********************************************************************************************************************************
 DATASETS  * FILE   NREC   LENGTH (MB)   RECORD NAMES
              1      20       31.42       500      610      700      900      950      970     1000      129      960     1100   
                                          VAR    BASINP    GEOM    SYMINP    ZMAT    AOBASIS   BASIS     P2S    ABASIS      S 
                                         1400     1410     1200     1210     1080     1600     1650     1300     1700     1800   
                                           T        V       H0       H01     AOSYM     SMH    MOLCAS    ERIS     OPER     GRID   

              2       5        2.93       700     1000      520     1800     2200   
                                         GEOM     BASIS   MCVARS    GRID      UKS  

 PROGRAMS   *        TOTAL       UKS       INT
 CPU TIMES  *         3.10      2.71      0.25
 REAL TIME  *         3.57 SEC
 DISK USED  *        35.03 MB      
 **********************************************************************************************************************************


 PROGRAM * Intrinsic Basis Bonding Analysis (IBBA)          Author: G. Knizia

 Molecular orbitals read from record     2200.2  Type=UKS/ALPHA (state 1.1)
 Fock matrix read from record            2200.2  Type=UKS/TOTAL (state 1.1)
 Orbital energies read from record       2200.2  Type=UKS/ALPHA (state 1.1)
 Density matrix read from record         2200.2  Type=UKS/CHARGE (state 1.1)

 Number of core orbitals:           3 (   3 )
 Number of closed-shell orbitals:  10 (  10 )
 Number of active  orbitals:        1 (   1 )

 Basis set MINAO-AUTO-PP generated.      Number of basis functions:   22 

 Polarized AO type:                A = (O Ot + (1-O)(1-Ot)) P12
 Orthogonalization method:         Symmetric (Loewdin)
 Localization functional:          L = sum[A,i] <i|n_A|i>^4 -> max

 Localization group 1:  13 orbitals, occupancy  2.000
 Iterative localization: IB/PM,    7 iter; Final gradient 0.39E-08

 Bond order analysis:       [THRPRINT= 0.020]

   CEN ATOM   CEN ATOM     WIBERG.BO      RENORM.BO
     1   C  -   2   C       1.035887       1.030145
     1   C  -   6   H       0.960275       0.975659
     1   C  -   4   H       0.958937       0.984616
     1   C  -   5   H       0.958538       0.984761

     2   C  -   1   C       1.035887       1.030145
     2   C  -   7   H       0.958275       0.984427
     2   C  -   8   H       0.957362       0.984412
     2   C  -   9   H       0.700889       0.632993
     2   C  -   3   O       0.132000       0.895616

     3   O  -  10   H       0.937570       0.999720
     3   O  -   9   H       0.245454       0.786371
     3   O  -   2   C       0.132000       0.895616

     4   H  -   1   C       0.958937       0.984616

     5   H  -   1   C       0.958538       0.984761

     6   H  -   1   C       0.960275       0.975659

     7   H  -   2   C       0.958275       0.984427

     8   H  -   2   C       0.957362       0.984412

     9   H  -   2   C       0.700889       0.632993
     9   H  -   3   O       0.245454       0.786371

    10   H  -   3   O       0.937570       0.999720


 Valency analysis:

   CEN ATOM   TOT.VALENCE
     1   C       3.920654
     2   C       3.794743
     3   O       1.323304
     4   H       0.979744
     5   H       0.979377
     6   H       0.983455
     7   H       0.978463
     8   H       0.977514
     9   H       0.964825
    10   H       0.938955
 Localization group 2:   1 orbitals, occupancy  1.000
 Iterative localization: IB/PM,    1 iter; Final gradient 0.00E+00

 Bond order analysis:       [THRPRINT= 0.020]

   CEN ATOM   CEN ATOM     WIBERG.BO      RENORM.BO











 Valency analysis:

   CEN ATOM   TOT.VALENCE
     1   C       0.001001
     2   C       0.010644
     3   O       0.013533
     4   H       0.000071
     5   H       0.000176
     6   H       0.000974
     7   H       0.000366
     8   H       0.000291
     9   H       0.000043
    10   H       0.000002

 Total charge composition:

   CEN ATOM         s          p       ELECTRONS ->P.CHARGE
     1   C       2.97975    3.43273      6.41248   -0.41248
     2   C       3.03710    3.64951      6.68662   -0.68662
     3   O       3.79376    4.25208      8.04583   -0.04583
     4   H       0.85771                 0.85771    0.14229
     5   H       0.85648                 0.85648    0.14352
     6   H       0.87186                 0.87186    0.12814
     7   H       0.85343                 0.85343    0.14657
     8   H       0.85019                 0.85019    0.14981
     9   H       0.81247                 0.81247    0.18753
    10   H       0.75293                 0.75293    0.24707

 Total charge composition, AO contributions:

   CEN ATOM SHL      SPHERICAL COMPONENTS
     1   C  1s       1.99269
     1   C  2s       0.98706
     1   C  2p       1.12815    1.11604    1.18855

     2   C  1s       1.99322
     2   C  2s       1.04389
     2   C  2p       1.29852    1.16266    1.18833

     3   O  1s       1.99828
     3   O  2s       1.79548
     3   O  2p       1.72629    1.38164    1.14414

     4   H  1s       0.85771

     5   H  1s       0.85648

     6   H  1s       0.87186

     7   H  1s       0.85343

     8   H  1s       0.85019

     9   H  1s       0.81247

    10   H  1s       0.75293

 Active orbital charges:

   CEN ATOM         s          p       ELECTRONS ->SPIN.DEN
     1   C       0.00004    0.00046      0.00050    0.00050
     2   C       0.00039    0.00496      0.00535    0.00535
     3   O       0.00001    0.99317      0.99319    0.99319
     4   H       0.00004                 0.00004    0.00004
     5   H       0.00009                 0.00009    0.00009
     6   H       0.00049                 0.00049    0.00049
     7   H       0.00018                 0.00018    0.00018
     8   H       0.00015                 0.00015    0.00015
     9   H       0.00002                 0.00002    0.00002
    10   H       0.00000                 0.00000    0.00000

 Active orbital charges, AO contributions:

   CEN ATOM SHL      SPHERICAL COMPONENTS
     1   C  1s       0.00000
     1   C  2s       0.00004
     1   C  2p       0.00045    0.00001    0.00000

     2   C  1s       0.00000
     2   C  2s       0.00039
     2   C  2p       0.00415    0.00053    0.00027

     3   O  1s       0.00000
     3   O  2s       0.00001
     3   O  2p       0.01609    0.29646    0.68062

     4   H  1s       0.00004

     5   H  1s       0.00009

     6   H  1s       0.00049

     7   H  1s       0.00018

     8   H  1s       0.00015

     9   H  1s       0.00002

    10   H  1s       0.00000

 Summary of localized orbital composition:   [THRPRINT= 0.020]

   ORB  GRP  ORB.ENERGY      CENTERS/CHARGES
     1   1   -18.089016      O  3   2.000
     2   1    -9.385556      C  1   2.000
     3   1    -9.377843      C  2   2.000
     4   1    -0.546616      O  3   1.247   H 10   0.752
     5   1    -0.413243      C  2   1.003   C  1   0.986
     6   1    -0.359690      C  2   1.140   H  7   0.846
     7   1    -0.357847      C  2   1.143   H  8   0.843
     8   1    -0.340953      C  1   1.141   H  4   0.851
     9   1    -0.340214      C  1   1.131   H  6   0.863
    10   1    -0.339890      C  1   1.142   H  5   0.849
    11   1    -0.313537      O  3   2.000
    12   1    -0.246921      C  2   1.346   H  9   0.626   (other: 0.028)
    13   1    -0.246822      O  3   1.792   H  9   0.164   C  2   0.042
    14   2     0.001412      O  3   0.993

 Localized orbitals saved to record      2200.2  (orbital set 4)


 **********************************************************************************************************************************
 DATASETS  * FILE   NREC   LENGTH (MB)   RECORD NAMES
              1      20       31.42       500      610      700      900      950      970     1000      129      960     1100   
                                          VAR    BASINP    GEOM    SYMINP    ZMAT    AOBASIS   BASIS     P2S    ABASIS      S 
                                         1400     1410     1200     1210     1080     1600     1650     1300     1700     1800   
                                           T        V       H0       H01     AOSYM     SMH    MOLCAS    ERIS     OPER     GRID   

              2       5        2.94       700     1000      520     1800     2200   
                                         GEOM     BASIS   MCVARS    GRID      UKS  

 PROGRAMS   *        TOTAL      IBBA       UKS       INT
 CPU TIMES  *         3.13      0.03      2.71      0.25
 REAL TIME  *         3.66 SEC
 DISK USED  *        35.03 MB      
 **********************************************************************************************************************************
 Molecular orbitals read from record     2200.2  Type=UKS/LOCAL(IBO)  
 Occupation numbers read from record     2200.2  Type=UKS/LOCAL(IBO)  
 Orbital energies read from record       2200.2  Type=UKS/LOCAL(IBO)  
 Redundancy group numbers read from rec  2200.2  Type=UKS/BETA (state 1.1)

 IBBA/STO-3G energy=      0.000000000000

        UKS-SCF 
   -150.47127505
 **********************************************************************************************************************************
 Molpro calculation terminated
