
 Primary working directories    : /local
 Secondary working directories  : /local
 Wavefunction directory         : /local/
 Main file repository           : /local/

 SHA1      : b4a5b34a9e711420743f49e6833241d17c61fb3c
 NAME      : 2099.9.b4a5b34
 ARCHNAME  : linux/x86_64_openmp
 FC        : /cm/shared/languages/GCC-6.1/bin/gfortran
 BLASLIB   : -lblas
 id        : simonbennie

 Nodes     nprocs
 node32-001    1

 Using customized tuning parameters: mindgm=1; mindgv=20; mindgc=4; mindgr=1; noblas=0; minvec=7
 default implementation of scratch files=df  

 memory,500,m
 geomtyp=xyz
 nosym
 noorient
 geometry={
 H          0.14657       -1.12839        0.00000
 F          0.00000        0.33042        0.00000
 H         -0.14657       -1.84541        0.00000
 }
 basis={ default,svp }
 {uks,M06-L,direct;disp;wf,11,1,1}
 {ibba,bonds=1}

 Variables initialized (895), CPU time= 0.01 sec
 Commands  initialized (725), CPU time= 0.01 sec, 591 directives.
 Default parameters read. Elapsed time= 0.08 sec

 Checking input...
 Passed
1


                                         ***  PROGRAM SYSTEM MOLPRO  ***
                                       Copyright, TTI GmbH Stuttgart, 2015
                                    Version 2099.9 linked May 26 2017 16:03:21


 **********************************************************************************************************************************
 LABEL *                                                                                 
  64 bit serial version                                                                  DATE: 18-Mar-18          TIME: 05:36:40  
 **********************************************************************************************************************************

 SHA1:             b4a5b34a9e711420743f49e6833241d17c61fb3c
 **********************************************************************************************************************************
 SETTING GEOMTYP        =    XYZ

 Variable memory set to  500000000 words,  buffer space 

 ZSYMEL=NOSYM

 SETTING BASIS          =    SVP


 Recomputing integrals since basis changed


 Using spherical harmonics

 Library entry H      S def2-SVP             selected for orbital group  1
 Library entry H      P def2-SVP             selected for orbital group  1
 Library entry F      S def2-SVP             selected for orbital group  2
 Library entry F      P def2-SVP             selected for orbital group  2
 Library entry F      D def2-SVP             selected for orbital group  2


 PROGRAM * SEWARD (Integral evaluation for generally contracted gaussian basis sets)     Author: Roland Lindh, 1990

 Geometry written to block  1 of record 700


 Point group  C1  



 ATOMIC COORDINATES

 NR  ATOM    CHARGE       X              Y              Z

   1  H       1.00    0.276977158   -2.132348062    0.000000000
   2  F       9.00    0.000000000    0.624403306    0.000000000
   3  H       1.00   -0.276977158   -3.487319488    0.000000000

 Bond lengths in Bohr (Angstrom)

 1-3  1.463835014
     ( 0.774628130)

 NUCLEAR CHARGE:                   11
 NUMBER OF PRIMITIVE AOS:          39
 NUMBER OF SYMMETRY AOS:           38
 NUMBER OF CONTRACTIONS:           24   (  24A   )
 NUMBER OF CORE ORBITALS:           1   (   1A   )
 NUMBER OF VALENCE ORBITALS:        6   (   6A   )


 NUCLEAR REPULSION ENERGY    6.11540905

 EXTRA SYMMETRY OF AOS IN SYMMETRY 1:   1 1 1 1 2 1 1 1 1 1   2 1 1 2 1 1 2 1 2 1   1 1 1 2

 Eigenvalues of metric

         1 0.427E-01 0.619E-01 0.160E+00 0.326E+00 0.381E+00 0.478E+00 0.489E+00 0.591E+00


 Contracted 2-electron integrals neglected if value below      1.0D-11
 AO integral compression algorithm  1   Integral accuracy      1.0D-11

     0.262 MB (compressed) written to integral file ( 66.5%)


 NUMBER OF SORTED TWO-ELECTRON INTEGRALS:      45150.     BUFFER LENGTH:  32768
 NUMBER OF SEGMENTS:   1  SEGMENT LENGTH:      45150      RECORD LENGTH: 524288

 Memory used in sort:       0.60 MW

 SORT1 READ       62044. AND WROTE       21995. INTEGRALS IN      1 RECORDS. CPU TIME:     0.00 SEC, REAL TIME:     0.01 SEC
 SORT2 READ       21995. AND WROTE       45150. INTEGRALS IN      1 RECORDS. CPU TIME:     0.01 SEC, REAL TIME:     0.01 SEC

 FILE SIZES:   FILE 1:    30.3 MBYTE,  FILE 4:     4.2 MBYTE,   TOTAL:     34.5 MBYTE

 OPERATOR DM      FOR CENTER  0  COORDINATES:    0.000000    0.000000    0.000000


 **********************************************************************************************************************************
 DATASETS  * FILE   NREC   LENGTH (MB)   RECORD NAMES
              1      19       30.12       500      610      700      900      950      970     1000      129      960     1100   
                                          VAR    BASINP    GEOM    SYMINP    ZMAT    AOBASIS   BASIS     P2S    ABASIS      S 
                                         1400     1410     1200     1210     1080     1600     1650     1300     1700   
                                           T        V       H0       H01     AOSYM     SMH    MOLCAS    ERIS     OPER   

 PROGRAMS   *        TOTAL       INT
 CPU TIMES  *         0.35      0.20
 REAL TIME  *         0.72 SEC
 DISK USED  *        34.78 MB      
 **********************************************************************************************************************************

 Density functional group M06-L=XC-M06-L
 Functional: XC-M06-L(via MFM 1.6)                                             Gradient terms: 1

 dispersion correction activated
 Density functional: M06-L   
 functional not in list, set to default 

 Functional: XC-M06-L                  Factor:  1.0000

 Use grid at  1800.2

 Functional: XC-M06-L                  Factor:  1.0000

 Generated new metagrid on record  1800.2 with target accuracy 1.0D-06 and 9144 points in CPU time    0.2
 Computed new grid on record 1800.1 in CPU time    0.2
   22855 words reserved for DFT integration

 PROGRAM * UKS-SCF (Unrestricted Kohn-Sham)     Authors: W. Meyer, H.-J. Werner, P.J. Knowles, 1993

 NUMBER OF ELECTRONS:       6+    5-    SPACE SYMMETRY=1    SPIN SYMMETRY: Doublet 
 CONVERGENCE THRESHOLDS:    1.00E-05 (Density)    1.00E-06 (Energy)
 MAX. NUMBER OF ITERATIONS:       60
 INTERPOLATION TYPE:            DIIS
 INTERPOLATION STEPS:              2 (START)      1 (STEP)
 LEVEL SHIFTS:                 -0.20 (ALPHA)  -0.20 (BETA) 



 Use fine grid record 1800.2 for energy threshold  1.0D-06
 Orbital guess generated from atomic densities. Full valence occupancy:    6

 Molecular orbital dump at record        2200.2

 Initial alpha occupation   6
 Initial beta  occupation   5

 ITERATION    DDIFF          GRAD             ENERGY        2-EL.EN.            DIPOLE MOMENTS         DIIS
    1      0.000D+00      0.000D+00      -100.77952935    116.420898   -0.00091   -1.22827    0.00000    0
    2      0.141D-01      0.988D-02      -100.79640707    112.534711    0.00783   -0.63668   -0.00000    1
    3      0.644D-02      0.788D-02      -100.80531345    113.955053    0.00997   -0.68735    0.00000    2
    4      0.193D-02      0.138D-02      -100.80694734    113.900145    0.01302   -0.57979    0.00000    3
    5      0.968D-03      0.529D-03      -100.80731091    113.845034    0.01264   -0.53749    0.00000    4
    6      0.808D-03      0.251D-03      -100.80742433    113.798608    0.01258   -0.50846   -0.00000    5
    7      0.287D-03      0.925D-04      -100.80743921    113.797026    0.01270   -0.50270    0.00000    6
    8      0.178D-03      0.485D-04      -100.80744463    113.793469    0.01287   -0.50053    0.00000    7
    9      0.120D-03      0.259D-04      -100.80744670    113.793697    0.01304   -0.50015    0.00000    7
   10      0.133D-03      0.155D-04      -100.80744780    113.792871    0.01324   -0.49986   -0.00000    7
   11      0.465D-04      0.492D-05      -100.80744788    113.793365    0.01332   -0.49986    0.00000    8
   12      0.217D-05      0.145D-05      -100.80744789    113.793118    0.01332   -0.49986   -0.00000    8
   13      0.380D-06      0.153D-06      -100.80744789    113.793137    0.01332   -0.49986   -0.00000    8

 Dispersion correction
 - - - - - - - - - - - 
  _________________________________
                                   
 |         DFTD3 V1.3 Rev 1        |
 | S.Grimme, University Muenster   |
 | Fri Jul  2 12:48:21 CEST 2010   |
  _________________________________

 Please cite DFT-D3 work done with this code as:
 S. Grimme, J. Antony, S. Ehrlich and H. Krieg,
 J. Chem. Phys, 132 (2010), 154104.
 For DFT-D2 the reference is
 S. Grimme, J. Comput. Chem., 27 (2006), 1787-1799

 C6 coefficients used:
                    2  C6 for element                     1
 Z=  1 CN=   0.912     C6(AA)=    3.03
 Z=  1 CN=   0.000     C6(AA)=    7.59
                    2  C6 for element                     9
 Z=  9 CN=   0.000     C6(AA)=    9.69
 Z=  9 CN=   0.998     C6(AA)=    7.13

 #           XYZ [au]               R0(AA) [Ang.]   CN       C6(AA)     C8(AA)   C10(AA) [au]
  1   0.27698  -2.13235   0.00000   h   1.091  0.952         3.1        37.7       558.0
  2   0.00000   0.62440   0.00000   f   1.150  0.117         9.6       163.6      3430.3
  3  -0.27698  -3.48732   0.00000   h   1.091  0.837         3.2        39.1       578.3

 molecular C6(AA) [au] =        43.18

           DFT-D V3
 DF pbe                                               
 parameters
 s6       :    1.0000
 s8       :    0.7220
 rs6      :    1.2170
 alpha6   :   14.0000
 alpha8   :   16.0000
 k1-k3    :   16.0000    1.3333   -4.0000

 Edisp /kcal,au:    -0.1406 -0.00022399

 E6    /kcal :    -0.0158
 E8    /kcal :    -0.1248
 % E8        : 88.77
 normal termination of dftd3

 UKS STATE 1.1 ENERGY+DISP     -100.80767187

 Final alpha occupancy:   6
 Final beta  occupancy:   5

 !UKS STATE 1.1 Energy               -100.807671873343
 Nuclear energy                         6.11540905
 One-electron energy                 -152.72738477
 Two-electron energy                   56.89656825
 Density functional                   -11.09204042     XC-M06-L=-11.09204042
 Virial quotient                       -1.00480888
 !UKS STATE 1.1 Dipole moment           0.01332200    -0.49985871    -0.00000000
 Dipole moment /Debye                   0.03385893    -1.27043091    -0.00000000

 Orbital energies for positive spin:

         1.1          2.1          3.1          4.1          5.1          6.1          7.1          8.1
    -24.533514    -1.130071    -0.507669    -0.371783    -0.369251    -0.368531     0.094649     0.365252

 Orbital energies for negative spin:

         1.1          2.1          3.1          4.1          5.1          6.1          7.1          8.1
    -24.509347    -1.035367    -0.438390    -0.338965    -0.338315    -0.243244     0.130946     0.380487

 HOMO     -5.1    -0.338315 =      -9.2060eV
 LUMO     -6.1    -0.243244 =      -6.6190eV
 LUMO-HOMO         0.095071 =       2.5870eV

 EXPECTATION VALUE OF S**2:             0.75633424

 Occupation number threshold for canonical orbitals:  1.999000 (occupied),  0.001000 (virtual)

 Number of pseudo-canonical orbitals per symmetry:    4
 Number of active natural orbitals per symmetry:      3

 Natural orbitals saved to record    2200.2 (Orbital set 3)

 Orbital spaces for UNO-CAS (Min. occupation: 0.020  Max. occupation: 1.980):

 Closed:        5
 Active:        1


 **********************************************************************************************************************************
 DATASETS  * FILE   NREC   LENGTH (MB)   RECORD NAMES
              1      20       30.41       500      610      700      900      950      970     1000      129      960     1100   
                                          VAR    BASINP    GEOM    SYMINP    ZMAT    AOBASIS   BASIS     P2S    ABASIS      S 
                                         1400     1410     1200     1210     1080     1600     1650     1300     1700     1800   
                                           T        V       H0       H01     AOSYM     SMH    MOLCAS    ERIS     OPER     GRID   

              2       5        2.81       700     1000      520     1800     2200   
                                         GEOM     BASIS   MCVARS    GRID      UKS  

 PROGRAMS   *        TOTAL       UKS       INT
 CPU TIMES  *         2.31      1.95      0.20
 REAL TIME  *         2.87 SEC
 DISK USED  *        34.78 MB      
 **********************************************************************************************************************************


 PROGRAM * Intrinsic Basis Bonding Analysis (IBBA)          Author: G. Knizia

 Molecular orbitals read from record     2200.2  Type=UKS/ALPHA (state 1.1)
 Fock matrix read from record            2200.2  Type=UKS/TOTAL (state 1.1)
 Orbital energies read from record       2200.2  Type=UKS/ALPHA (state 1.1)
 Density matrix read from record         2200.2  Type=UKS/CHARGE (state 1.1)

 Number of core orbitals:           1 (   1 )
 Number of closed-shell orbitals:   4 (   4 )
 Number of active  orbitals:        1 (   1 )

 Basis set MINAO-AUTO-PP generated.      Number of basis functions:   7 

 Polarized AO type:                A = (O Ot + (1-O)(1-Ot)) P12
 Orthogonalization method:         Symmetric (Loewdin)
 Localization functional:          L = sum[A,i] <i|n_A|i>^4 -> max

 Localization group 1:   5 orbitals, occupancy  2.000
 Iterative localization: IB/PM,    4 iter; Final gradient 0.17E-09

 Bond order analysis:       [THRPRINT= 0.020]

   CEN ATOM   CEN ATOM     WIBERG.BO      RENORM.BO
     1   H  -   3   H       0.516454       0.881112
     1   H  -   2   F       0.422146       1.000000

     2   F  -   3   H       0.434803       1.000000
     2   F  -   1   H       0.422146       1.000000

     3   H  -   1   H       0.516454       0.881112
     3   H  -   2   F       0.434803       1.000000


 Valency analysis:

   CEN ATOM   TOT.VALENCE
     1   H       0.938601
     2   F       0.856949
     3   H       0.951257
 Localization group 2:   1 orbitals, occupancy  1.000
 Iterative localization: IB/PM,    1 iter; Final gradient 0.00E+00

 Bond order analysis:       [THRPRINT= 0.020]

   CEN ATOM   CEN ATOM     WIBERG.BO      RENORM.BO
     1   H  -   2   F       0.088294       0.500000
     1   H  -   3   H       0.023825       0.500000

     2   F  -   3   H       0.295974       0.500000
     2   F  -   1   H       0.088294       0.500000

     3   H  -   2   F       0.295974       0.500000
     3   H  -   1   H       0.023825       0.500000


 Valency analysis:

   CEN ATOM   TOT.VALENCE
     1   H       0.112120
     2   F       0.384268
     3   H       0.319799

 Total charge composition:

   CEN ATOM         s          p       ELECTRONS ->P.CHARGE
     1   H       0.81182                 0.81182    0.18818
     2   F       3.97759    5.23154      9.20912   -0.20912
     3   H       0.97905                 0.97905    0.02095

 Total charge composition, AO contributions:

   CEN ATOM SHL      SPHERICAL COMPONENTS
     1   H  1s       0.81182

     2   F  1s       1.99987
     2   F  2s       1.97771
     2   F  2p       1.44835    1.78318    2.00000

     3   H  1s       0.97905

 Active orbital charges:

   CEN ATOM         s          p       ELECTRONS ->SPIN.DEN
     1   H       0.05961                 0.05961    0.05961
     2   F       0.00161    0.73894      0.74055    0.74055
     3   H       0.19983                 0.19983    0.19983

 Active orbital charges, AO contributions:

   CEN ATOM SHL      SPHERICAL COMPONENTS
     1   H  1s       0.05961

     2   F  1s       0.00001
     2   F  2s       0.00160
     2   F  2p       0.56601    0.17293    0.00000

     3   H  1s       0.19983

 Summary of localized orbital composition:   [THRPRINT= 0.020]

   ORB  GRP  ORB.ENERGY      CENTERS/CHARGES
     1   1   -24.385993      F  2   2.000
     2   1    -0.867958      F  2   2.000
     3   1    -0.688891      F  2   1.953   H  1   0.024   H  3   0.023
     4   1    -0.451238      H  3   0.756   H  1   0.728   F  2   0.516
     5   1    -0.353706      F  2   2.000
     6   2    -0.337758      F  2   0.741   H  3   0.200   H  1   0.060

 Localized orbitals saved to record      2200.2  (orbital set 4)


 **********************************************************************************************************************************
 DATASETS  * FILE   NREC   LENGTH (MB)   RECORD NAMES
              1      20       30.41       500      610      700      900      950      970     1000      129      960     1100   
                                          VAR    BASINP    GEOM    SYMINP    ZMAT    AOBASIS   BASIS     P2S    ABASIS      S 
                                         1400     1410     1200     1210     1080     1600     1650     1300     1700     1800   
                                           T        V       H0       H01     AOSYM     SMH    MOLCAS    ERIS     OPER     GRID   

              2       5        2.82       700     1000      520     1800     2200   
                                         GEOM     BASIS   MCVARS    GRID      UKS  

 PROGRAMS   *        TOTAL      IBBA       UKS       INT
 CPU TIMES  *         2.33      0.03      1.95      0.20
 REAL TIME  *         2.90 SEC
 DISK USED  *        34.78 MB      
 **********************************************************************************************************************************

 IBBA/SVP energy=      0.000000000000

        UKS-SCF 
   -100.80767187
 **********************************************************************************************************************************
 Molpro calculation terminated
