
 Primary working directories    : /local
 Secondary working directories  : /local
 Wavefunction directory         : /local/
 Main file repository           : /local/

 SHA1      : b4a5b34a9e711420743f49e6833241d17c61fb3c
 NAME      : 2099.9.b4a5b34
 ARCHNAME  : linux/x86_64_openmp
 FC        : /cm/shared/languages/GCC-6.1/bin/gfortran
 BLASLIB   : -lblas
 id        : simonbennie

 Nodes     nprocs
 node47-015    1

 Using customized tuning parameters: mindgm=1; mindgv=20; mindgc=4; mindgr=1; noblas=0; minvec=7
 default implementation of scratch files=df  

 memory,500,m
 geomtyp=xyz
 nosym
 noorient
 geometry={
 H          0.14657       -1.12839        0.00000
 F          0.00000        0.33042        0.00000
 H         -0.14657       -1.84541        0.00000
 }
 basis={ default,SV(P) }
 {ks,S,direct;wf,11,1,1}
 {ibba,bonds=1}

 Variables initialized (895), CPU time= 0.00 sec
 Commands  initialized (725), CPU time= 0.01 sec, 591 directives.
 Default parameters read. Elapsed time= 0.08 sec

 Checking input...
 Passed
1


                                         ***  PROGRAM SYSTEM MOLPRO  ***
                                       Copyright, TTI GmbH Stuttgart, 2015
                                    Version 2099.9 linked May 26 2017 16:03:21


 **********************************************************************************************************************************
 LABEL *                                                                                 
  64 bit serial version                                                                  DATE: 19-Jun-17          TIME: 11:08:56  
 **********************************************************************************************************************************

 SHA1:             b4a5b34a9e711420743f49e6833241d17c61fb3c
 **********************************************************************************************************************************
 SETTING GEOMTYP        =    XYZ

 Variable memory set to  500000000 words,  buffer space 

 ZSYMEL=NOSYM

 SETTING BASIS          =    SV(P)


 Recomputing integrals since basis changed


 Using spherical harmonics

 Library entry H      S def2-SV(P)           selected for orbital group  1
 Library entry F      S def2-SV(P)           selected for orbital group  2
 Library entry F      P def2-SV(P)           selected for orbital group  2
 Library entry F      D def2-SV(P)           selected for orbital group  2


 PROGRAM * SEWARD (Integral evaluation for generally contracted gaussian basis sets)     Author: Roland Lindh, 1990

 Geometry written to block  1 of record 700


 Point group  C1  



 ATOMIC COORDINATES

 NR  ATOM    CHARGE       X              Y              Z

   1  H       1.00    0.276977158   -2.132348062    0.000000000
   2  F       9.00    0.000000000    0.624403306    0.000000000
   3  H       1.00   -0.276977158   -3.487319488    0.000000000

 Bond lengths in Bohr (Angstrom)

 1-3  1.463835014
     ( 0.774628130)

 NUCLEAR CHARGE:                   11
 NUMBER OF PRIMITIVE AOS:          33
 NUMBER OF SYMMETRY AOS:           32
 NUMBER OF CONTRACTIONS:           18   (  18A   )
 NUMBER OF CORE ORBITALS:           1   (   1A   )
 NUMBER OF VALENCE ORBITALS:        6   (   6A   )


 NUCLEAR REPULSION ENERGY    6.11540905

 EXTRA SYMMETRY OF AOS IN SYMMETRY 1:   1 1 1 1 1 1 1 2 1 1   2 1 1 2 1 2 1 1

 Eigenvalues of metric

         1 0.485E-01 0.161E+00 0.337E+00 0.440E+00 0.509E+00 0.509E+00 0.591E+00 0.891E+00


 Contracted 2-electron integrals neglected if value below      1.0D-11
 AO integral compression algorithm  1   Integral accuracy      1.0D-11

     0.262 MB (compressed) written to integral file ( 67.7%)


 NUMBER OF SORTED TWO-ELECTRON INTEGRALS:      14706.     BUFFER LENGTH:  32768
 NUMBER OF SEGMENTS:   1  SEGMENT LENGTH:      14706      RECORD LENGTH: 524288

 Memory used in sort:       0.57 MW

 SORT1 READ       20284. AND WROTE        6053. INTEGRALS IN      1 RECORDS. CPU TIME:     0.00 SEC, REAL TIME:     0.01 SEC
 SORT2 READ        6053. AND WROTE       14706. INTEGRALS IN      1 RECORDS. CPU TIME:     0.00 SEC, REAL TIME:     0.00 SEC

 FILE SIZES:   FILE 1:    30.2 MBYTE,  FILE 4:     4.2 MBYTE,   TOTAL:     34.5 MBYTE

 OPERATOR DM      FOR CENTER  0  COORDINATES:    0.000000    0.000000    0.000000


 **********************************************************************************************************************************
 DATASETS  * FILE   NREC   LENGTH (MB)   RECORD NAMES
              1      19       30.03       500      610      700      900      950      970     1000      129      960     1100   
                                          VAR    BASINP    GEOM    SYMINP    ZMAT    AOBASIS   BASIS     P2S    ABASIS      S 
                                         1400     1410     1200     1210     1080     1600     1650     1300     1700   
                                           T        V       H0       H01     AOSYM     SMH    MOLCAS    ERIS     OPER   

 PROGRAMS   *        TOTAL       INT
 CPU TIMES  *         0.34      0.21
 REAL TIME  *         2.04 SEC
 DISK USED  *        34.77 MB      
 **********************************************************************************************************************************

 Density functional group S=DIRAC
 Functional: DIRAC(Automatically generated (new) DIRAC)                        Gradient terms: 0
 Use grid at  1800.2

 Functional: DIRAC                     Factor:  1.0000

 Generated new metagrid on record  1800.2 with target accuracy 1.0D-06 and 9144 points in CPU time    0.2
 Computed new grid on record 1800.1 in CPU time    0.2
   11271 words reserved for DFT integration

 PROGRAM * RKS-SCF (Restricted open shell Kohn-Sham)     Authors: W. Meyer, H.-J. Werner, P.J. Knowles, 1993

 NUMBER OF ELECTRONS:       6+    5-    SPACE SYMMETRY=1    SPIN SYMMETRY: Doublet 
 CONVERGENCE THRESHOLDS:    1.00E-05 (Density)    1.00E-06 (Energy)
 MAX. NUMBER OF ITERATIONS:       60
 INTERPOLATION TYPE:            DIIS
 INTERPOLATION STEPS:              2 (START)      1 (STEP)
 LEVEL SHIFTS:                 -0.60 (CLOSED) -0.30 (OPEN) 



 Use fine grid record 1800.2 for energy threshold  1.0D-06
 Orbital guess generated from atomic densities. Full valence occupancy:    6

 Molecular orbital dump at record        2100.2

 Initial alpha occupancy:   6
 Initial beta  occupancy:   5
 Wave function symmetry:    1

 ITERATION    DDIFF          GRAD             ENERGY        2-EL.EN.            DIPOLE MOMENTS         DIIS   ORB.
    1      0.000D+00      0.000D+00       -99.38502435    115.048361   -0.00698   -1.07463    0.00000    0    start
    2      0.000D+00      0.100D-01       -99.38887009    112.142184    0.01721   -0.51588    0.00000    1    diag,B
    3      0.139D-01      0.105D-01       -99.39490727    113.395103    0.01068   -0.65342    0.00000    2    diag,B
    4      0.662D-02      0.121D-02       -99.39517200    113.407211    0.01083   -0.62853    0.00000    3    diag,B
    5      0.136D-02      0.508D-03       -99.39526873    113.404250    0.01080   -0.60923    0.00000    4    diag,B
    6      0.102D-02      0.204D-03       -99.39530330    113.393120    0.01101   -0.59821    0.00000    5    diag,B
    7      0.726D-03      0.837D-04       -99.39531720    113.394002    0.01128   -0.59653    0.00000    6    fixocc
    8      0.351D-03      0.648D-04       -99.39533847    113.388242    0.01196   -0.59435    0.00000    7    diag,B
    9      0.678D-03      0.458D-04       -99.39535301    113.382965    0.01299   -0.59076    0.00000    8    diag,B
   10      0.106D-02      0.155D-04       -99.39535342    113.384284    0.01308   -0.59064    0.00000    9    orth
   11      0.193D-03      0.726D-05       -99.39535343    113.383434    0.01310   -0.59048    0.00000    9    diag,B
   12      0.376D-04      0.156D-05       -99.39535343    113.383447    0.01308   -0.59051    0.00000    9    diag,B
   13      0.942D-05      0.607D-06       -99.39535343    113.383323    0.01309   -0.59050   -0.00000    0    orth

 Final alpha occupancy:   6
 Final beta  occupancy:   5

 !RKS STATE 1.1 Energy                -99.395353427412
 Nuclear energy                         6.11540905
 One-electron energy                 -152.57878694
 Two-electron energy                   56.69166167
 Density functional                    -9.62363721     DIRAC=-9.62363721
 Virial quotient                       -0.99635812
 !RKS STATE 1.1 Dipole moment           0.01308515    -0.59049625    -0.00000000
 Dipole moment /Debye                   0.03325696    -1.50079345    -0.00000000

 Orbital energies:

         1.1          2.1          3.1          4.1          5.1          6.1          7.1          8.1
    -24.011484    -0.924481    -0.409718    -0.259633    -0.258208    -0.299873     0.108936     0.332221

 HOMO      6.1    -0.299873 =      -8.1600eV
 LUMO      7.1     0.108936 =       2.9643eV
 LUMO-HOMO         0.408809 =      11.1243eV


 **********************************************************************************************************************************
 DATASETS  * FILE   NREC   LENGTH (MB)   RECORD NAMES
              1      20       30.32       500      610      700      900      950      970     1000      129      960     1100   
                                          VAR    BASINP    GEOM    SYMINP    ZMAT    AOBASIS   BASIS     P2S    ABASIS      S 
                                         1400     1410     1200     1210     1080     1600     1650     1300     1700     1800   
                                           T        V       H0       H01     AOSYM     SMH    MOLCAS    ERIS     OPER     GRID   

              2       5        2.79       700     1000      520     1800     2100   
                                         GEOM     BASIS   MCVARS    GRID      RKS  

 PROGRAMS   *        TOTAL        KS       INT
 CPU TIMES  *         0.74      0.40      0.21
 REAL TIME  *         2.49 SEC
 DISK USED  *        34.77 MB      
 **********************************************************************************************************************************


 PROGRAM * Intrinsic Basis Bonding Analysis (IBBA)          Author: G. Knizia

 Molecular orbitals read from record     2100.2  Type=RKS/CANONICAL (state 1.1)
 Fock matrix read from record            2100.2  Type=RKS/TOTAL (state 1.1)
 Orbital energies read from record       2100.2  Type=RKS/CANONICAL (state 1.1)
 Density matrix read from record         2100.2  Type=RKS/CHARGE (state 1.1)

 Number of core orbitals:           1 (   1 )
 Number of closed-shell orbitals:   4 (   4 )
 Number of active  orbitals:        1 (   1 )

 Basis set MINAO-AUTO-PP generated.      Number of basis functions:   7 

 Polarized AO type:                A = (O Ot + (1-O)(1-Ot)) P12
 Orthogonalization method:         Symmetric (Loewdin)
 Localization functional:          L = sum[A,i] <i|n_A|i>^4 -> max

 Localization group 1:   5 orbitals, occupancy  2.000
 Iterative localization: IB/PM,    5 iter; Final gradient 0.55E-12

 Bond order analysis:       [THRPRINT= 0.020]

   CEN ATOM   CEN ATOM     WIBERG.BO      RENORM.BO
     1   H  -   3   H       0.526257       0.921583
     1   H  -   2   F       0.447880       1.000000

     2   F  -   1   H       0.447880       1.000000
     2   F  -   3   H       0.371643       1.000000

     3   H  -   1   H       0.526257       0.921583
     3   H  -   2   F       0.371643       1.000000


 Valency analysis:

   CEN ATOM   TOT.VALENCE
     1   H       0.974137
     2   F       0.819523
     3   H       0.897900
 Localization group 2:   1 orbitals, occupancy  1.000
 Iterative localization: IB/PM,    1 iter; Final gradient 0.00E+00

 Bond order analysis:       [THRPRINT= 0.020]

   CEN ATOM   CEN ATOM     WIBERG.BO      RENORM.BO
     1   H  -   2   F       0.066641       0.500000
     1   H  -   3   H       0.022066       0.500000

     2   F  -   3   H       0.339788       0.500000
     2   F  -   1   H       0.066641       0.500000

     3   H  -   2   F       0.339788       0.500000
     3   H  -   1   H       0.022066       0.500000


 Valency analysis:

   CEN ATOM   TOT.VALENCE
     1   H       0.088707
     2   F       0.406429
     3   H       0.361855

 Total charge composition:

   CEN ATOM         s          p       ELECTRONS ->P.CHARGE
     1   H       0.88570                 0.88570    0.11430
     2   F       3.97246    5.22419      9.19665   -0.19665
     3   H       0.91765                 0.91765    0.08235

 Total charge composition, AO contributions:

   CEN ATOM SHL      SPHERICAL COMPONENTS
     1   H  1s       0.88570

     2   F  1s       1.99990
     2   F  2s       1.97256
     2   F  2p       1.98975    1.23444    2.00000

     3   H  1s       0.91765

 Active orbital charges:

   CEN ATOM         s          p       ELECTRONS ->SPIN.DEN
     1   H       0.04652                 0.04652    0.04652
     2   F       0.00115    0.71515      0.71630    0.71630
     3   H       0.23718                 0.23718    0.23718

 Active orbital charges, AO contributions:

   CEN ATOM SHL      SPHERICAL COMPONENTS
     1   H  1s       0.04652

     2   F  1s       0.00001
     2   F  2s       0.00114
     2   F  2p       0.00521    0.70995    0.00000

     3   H  1s       0.23718

 Summary of localized orbital composition:   [THRPRINT= 0.020]

   ORB  GRP  ORB.ENERGY      CENTERS/CHARGES
     1   1   -23.937809      F  2   2.000
     2   1    -0.792154      F  2   1.970   (other: 0.030)
     3   1    -0.443204      F  2   2.000
     4   1    -0.432171      H  1   0.826   H  3   0.663   F  2   0.510
     5   1    -0.258214      F  2   2.000
     6   2    -0.257286      F  2   0.716   H  3   0.237   H  1   0.047

 Localized orbitals saved to record      2100.2  (orbital set 2)


 **********************************************************************************************************************************
 DATASETS  * FILE   NREC   LENGTH (MB)   RECORD NAMES
              1      20       30.32       500      610      700      900      950      970     1000      129      960     1100   
                                          VAR    BASINP    GEOM    SYMINP    ZMAT    AOBASIS   BASIS     P2S    ABASIS      S 
                                         1400     1410     1200     1210     1080     1600     1650     1300     1700     1800   
                                           T        V       H0       H01     AOSYM     SMH    MOLCAS    ERIS     OPER     GRID   

              2       5        2.79       700     1000      520     1800     2100   
                                         GEOM     BASIS   MCVARS    GRID      RKS  

 PROGRAMS   *        TOTAL      IBBA        KS       INT
 CPU TIMES  *         0.76      0.02      0.40      0.21
 REAL TIME  *         2.54 SEC
 DISK USED  *        34.77 MB      
 **********************************************************************************************************************************
 Molecular orbitals read from record     2100.2  Type=RKS/LOCAL(IBO)  
 Occupation numbers read from record     2100.2  Type=RKS/LOCAL(IBO)  
 Orbital energies read from record       2100.2  Type=RKS/LOCAL(IBO)  
 Redundancy group numbers read from rec  2100.2  Type=RKS/LOCAL(IBO)  

 IBBA/SV(P) energy=      0.000000000000

        KS-SCF  
    -99.39535343
 **********************************************************************************************************************************
 Molpro calculation terminated
