
 Primary working directories    : /local
 Secondary working directories  : /local
 Wavefunction directory         : /local/
 Main file repository           : /local/

 SHA1      : b4a5b34a9e711420743f49e6833241d17c61fb3c
 NAME      : 2099.9.b4a5b34
 ARCHNAME  : linux/x86_64_openmp
 FC        : /cm/shared/languages/GCC-6.1/bin/gfortran
 BLASLIB   : -lblas
 id        : simonbennie

 Nodes     nprocs
 node35-034    1

 Using customized tuning parameters: mindgm=1; mindgv=20; mindgc=4; mindgr=1; noblas=0; minvec=7
 default implementation of scratch files=df  

 memory,500,m
 geomtyp=xyz
 nosym
 noorient
 geometry={
 H          0.14657       -1.12839        0.00000
 F          0.00000        0.33042        0.00000
 H         -0.14657       -1.84541        0.00000
 }
 basis={ default,tzvp }
 {ks,VWN80,direct;wf,11,1,1}
 {ibba,bonds=1}

 Variables initialized (895), CPU time= 0.01 sec
 Commands  initialized (725), CPU time= 0.01 sec, 591 directives.
 Default parameters read. Elapsed time= 0.07 sec

 Checking input...
 Passed
1


                                         ***  PROGRAM SYSTEM MOLPRO  ***
                                       Copyright, TTI GmbH Stuttgart, 2015
                                    Version 2099.9 linked May 26 2017 16:03:21


 **********************************************************************************************************************************
 LABEL *                                                                                 
  64 bit serial version                                                                  DATE: 19-Jun-17          TIME: 11:43:45  
 **********************************************************************************************************************************

 SHA1:             b4a5b34a9e711420743f49e6833241d17c61fb3c
 **********************************************************************************************************************************
 SETTING GEOMTYP        =    XYZ

 Variable memory set to  500000000 words,  buffer space 

 ZSYMEL=NOSYM

 SETTING BASIS          =    TZVP


 Recomputing integrals since basis changed


 Using spherical harmonics

 Library entry H      S def2-TZVP            selected for orbital group  1
 Library entry H      P def2-TZVP            selected for orbital group  1
 Library entry F      S def2-TZVP            selected for orbital group  2
 Library entry F      P def2-TZVP            selected for orbital group  2
 Library entry F      D def2-TZVP            selected for orbital group  2
 Library entry F      F def2-TZVP            selected for orbital group  2


 PROGRAM * SEWARD (Integral evaluation for generally contracted gaussian basis sets)     Author: Roland Lindh, 1990

 Geometry written to block  1 of record 700


 Point group  C1  



 ATOMIC COORDINATES

 NR  ATOM    CHARGE       X              Y              Z

   1  H       1.00    0.276977158   -2.132348062    0.000000000
   2  F       9.00    0.000000000    0.624403306    0.000000000
   3  H       1.00   -0.276977158   -3.487319488    0.000000000

 Bond lengths in Bohr (Angstrom)

 1-3  1.463835014
     ( 0.774628130)

 NUCLEAR CHARGE:                   11
 NUMBER OF PRIMITIVE AOS:          67
 NUMBER OF SYMMETRY AOS:           62
 NUMBER OF CONTRACTIONS:           43   (  43A   )
 NUMBER OF CORE ORBITALS:           1   (   1A   )
 NUMBER OF VALENCE ORBITALS:        6   (   6A   )


 NUCLEAR REPULSION ENERGY    6.11540905

 EXTRA SYMMETRY OF AOS IN SYMMETRY 1:   1 1 1 1 1 2 1 1 1 1   1 1 1 2 1 1 2 1 1 2   1 1 2 1 2 1 1 2 1 2   1 1 2 1 2 1 2 1 1 1
                                        1 1 2

 Eigenvalues of metric

         1 0.156E-01 0.207E-01 0.585E-01 0.116E+00 0.134E+00 0.176E+00 0.191E+00 0.191E+00


 Contracted 2-electron integrals neglected if value below      1.0D-11
 AO integral compression algorithm  1   Integral accuracy      1.0D-11

     1.311 MB (compressed) written to integral file ( 31.2%)


 NUMBER OF SORTED TWO-ELECTRON INTEGRALS:     447931.     BUFFER LENGTH:  32768
 NUMBER OF SEGMENTS:   1  SEGMENT LENGTH:     447931      RECORD LENGTH: 524288

 Memory used in sort:       1.00 MW

 SORT1 READ      562315. AND WROTE      182611. INTEGRALS IN      1 RECORDS. CPU TIME:     0.00 SEC, REAL TIME:     0.01 SEC
 SORT2 READ      182611. AND WROTE      447931. INTEGRALS IN      5 RECORDS. CPU TIME:     0.03 SEC, REAL TIME:     0.03 SEC

 FILE SIZES:   FILE 1:    31.4 MBYTE,  FILE 4:     4.2 MBYTE,   TOTAL:     35.6 MBYTE

 OPERATOR DM      FOR CENTER  0  COORDINATES:    0.000000    0.000000    0.000000


 **********************************************************************************************************************************
 DATASETS  * FILE   NREC   LENGTH (MB)   RECORD NAMES
              1      19       30.95       500      610      700      900      950      970     1000      129      960     1100   
                                          VAR    BASINP    GEOM    SYMINP    ZMAT    AOBASIS   BASIS     P2S    ABASIS      S 
                                         1400     1410     1200     1210     1080     1600     1650     1300     1700   
                                           T        V       H0       H01     AOSYM     SMH    MOLCAS    ERIS     OPER   

 PROGRAMS   *        TOTAL       INT
 CPU TIMES  *         0.44      0.29
 REAL TIME  *         2.00 SEC
 DISK USED  *        35.89 MB      
 **********************************************************************************************************************************

 Density functional group VWN80=VWN5
 Functional: VWN5(Automatically generated (new) VWN5)                          Gradient terms: 0
 Use grid at  1800.2

 Functional: VWN5                      Factor:  1.0000

 Generated new metagrid on record  1800.2 with target accuracy 1.0D-06 and 9420 points in CPU time    0.1
 Computed new grid on record 1800.1 in CPU time    0.2
   21608 words reserved for DFT integration

 PROGRAM * RKS-SCF (Restricted open shell Kohn-Sham)     Authors: W. Meyer, H.-J. Werner, P.J. Knowles, 1993

 NUMBER OF ELECTRONS:       6+    5-    SPACE SYMMETRY=1    SPIN SYMMETRY: Doublet 
 CONVERGENCE THRESHOLDS:    1.00E-05 (Density)    1.00E-06 (Energy)
 MAX. NUMBER OF ITERATIONS:       60
 INTERPOLATION TYPE:            DIIS
 INTERPOLATION STEPS:              2 (START)      1 (STEP)
 LEVEL SHIFTS:                 -0.60 (CLOSED) -0.30 (OPEN) 



 Use fine grid record 1800.2 for energy threshold  1.0D-06
 Orbital guess generated from atomic densities. Full valence occupancy:    6

 Molecular orbital dump at record        2100.2

 Initial alpha occupancy:   6
 Initial beta  occupancy:   5
 Wave function symmetry:    1

 ITERATION    DDIFF          GRAD             ENERGY        2-EL.EN.            DIPOLE MOMENTS         DIIS   ORB.
    1      0.000D+00      0.000D+00       -88.42667669     76.042671    0.14022    6.41950   -0.00000    0    start
    2      0.000D+00      0.108D+00       -87.30395969    140.608035   -0.10782   -3.55824    0.00000    1    diag,B
    3      0.478D+00      0.178D+00       -90.61123426    114.347171   -0.09236   -1.97927   -0.00000    2    diag,B
    4      0.446D-01      0.488D-01       -91.01876779    103.764807   -0.04466   -0.26380   -0.00000    3    diag,B
    5      0.188D-01      0.560D-02       -91.03018251    102.738178   -0.01753   -0.19603    0.00000    4    diag,B
    6      0.151D-01      0.160D-02       -91.03283008    102.540088    0.00327   -0.15526   -0.00000    5    diag,B
    7      0.101D-01      0.152D-02       -91.03384757    102.709044    0.01657   -0.18890   -0.00000    6    fixocc
    8      0.616D-02      0.607D-03       -91.03406972    102.824302    0.02593   -0.21087   -0.00000    7    diag,B
    9      0.357D-02      0.144D-03       -91.03409763    102.841951    0.03009   -0.21970   -0.00000    8    diag,B
   10      0.148D-02      0.867D-04       -91.03410553    102.826573    0.03095   -0.21938   -0.00000    9    orth
   11      0.486D-03      0.383D-04       -91.03410692    102.833706    0.03094   -0.22107   -0.00000    9    diag,B
   12      0.164D-03      0.120D-04       -91.03410751    102.835567    0.03081   -0.22190   -0.00000    9    diag,B
   13      0.779D-04      0.880D-05       -91.03410801    102.835672    0.03048   -0.22240   -0.00000    9    diag,B
   14      0.397D-04      0.616D-05       -91.03410847    102.836543    0.02998   -0.22330   -0.00000    9    diag,B
   15      0.674D-04      0.232D-05       -91.03410853    102.836949    0.02981   -0.22365   -0.00000    9    diag,B
   16      0.281D-04      0.736D-06       -91.03410853    102.836946    0.02982   -0.22368   -0.00000    9    diag,B
   17      0.419D-05      0.198D-06       -91.03410853    102.836944    0.02982   -0.22368   -0.00000    0    orth

 Final alpha occupancy:   6
 Final beta  occupancy:   5

 !RKS STATE 1.1 Energy                -91.034108528114
 Nuclear energy                         6.11540905
 One-electron energy                 -147.86000427
 Two-electron energy                   51.41847177
 Density functional                    -0.70798509     VWN5=-0.70798509
 Virial quotient                       -0.99607922
 !RKS STATE 1.1 Dipole moment           0.02982313    -0.22368091    -0.00000000
 Dipole moment /Debye                   0.07579787    -0.56850293    -0.00000000

 Orbital energies:

         1.1          2.1          3.1          4.1          5.1          6.1          7.1          8.1
    -22.033953    -0.645999    -0.188897    -0.016744    -0.012674    -0.019807     0.205041     0.306677

 HOMO      6.1    -0.019807 =      -0.5390eV
 LUMO      7.1     0.205041 =       5.5794eV
 LUMO-HOMO         0.224848 =       6.1184eV


 **********************************************************************************************************************************
 DATASETS  * FILE   NREC   LENGTH (MB)   RECORD NAMES
              1      20       31.26       500      610      700      900      950      970     1000      129      960     1100   
                                          VAR    BASINP    GEOM    SYMINP    ZMAT    AOBASIS   BASIS     P2S    ABASIS      S 
                                         1400     1410     1200     1210     1080     1600     1650     1300     1700     1800   
                                           T        V       H0       H01     AOSYM     SMH    MOLCAS    ERIS     OPER     GRID   

              2       5        2.84       700     1000      520     1800     2100   
                                         GEOM     BASIS   MCVARS    GRID      RKS  

 PROGRAMS   *        TOTAL        KS       INT
 CPU TIMES  *         1.48      1.04      0.29
 REAL TIME  *         3.14 SEC
 DISK USED  *        35.89 MB      
 **********************************************************************************************************************************


 PROGRAM * Intrinsic Basis Bonding Analysis (IBBA)          Author: G. Knizia

 Molecular orbitals read from record     2100.2  Type=RKS/CANONICAL (state 1.1)
 Fock matrix read from record            2100.2  Type=RKS/TOTAL (state 1.1)
 Orbital energies read from record       2100.2  Type=RKS/CANONICAL (state 1.1)
 Density matrix read from record         2100.2  Type=RKS/CHARGE (state 1.1)

 Number of core orbitals:           1 (   1 )
 Number of closed-shell orbitals:   4 (   4 )
 Number of active  orbitals:        1 (   1 )

 Basis set MINAO-AUTO-PP generated.      Number of basis functions:   7 

 Polarized AO type:                A = (O Ot + (1-O)(1-Ot)) P12
 Orthogonalization method:         Symmetric (Loewdin)
 Localization functional:          L = sum[A,i] <i|n_A|i>^4 -> max

 Localization group 1:   5 orbitals, occupancy  2.000
 Iterative localization: IB/PM,    4 iter; Final gradient 0.23E-09

 Bond order analysis:       [THRPRINT= 0.020]

   CEN ATOM   CEN ATOM     WIBERG.BO      RENORM.BO
     1   H  -   3   H       0.520352       0.846443
     1   H  -   2   F       0.460508       1.000000

     2   F  -   1   H       0.460508       1.000000
     2   F  -   3   H       0.397541       1.000000

     3   H  -   1   H       0.520352       0.846443
     3   H  -   2   F       0.397541       1.000000


 Valency analysis:

   CEN ATOM   TOT.VALENCE
     1   H       0.980860
     2   F       0.858049
     3   H       0.917893
 Localization group 2:   1 orbitals, occupancy  1.000
 Iterative localization: IB/PM,    1 iter; Final gradient 0.00E+00

 Bond order analysis:       [THRPRINT= 0.020]

   CEN ATOM   CEN ATOM     WIBERG.BO      RENORM.BO
     1   H  -   2   F       0.037192       0.500000

     2   F  -   3   H       0.386733       0.500000
     2   F  -   1   H       0.037192       0.500000

     3   H  -   2   F       0.386733       0.500000


 Valency analysis:

   CEN ATOM   TOT.VALENCE
     1   H       0.052079
     2   F       0.423925
     3   H       0.401621

 Total charge composition:

   CEN ATOM         s          p       ELECTRONS ->P.CHARGE
     1   H       0.88841                 0.88841    0.11159
     2   F       3.96090    5.15902      9.11992   -0.11992
     3   H       0.99167                 0.99167    0.00833

 Total charge composition, AO contributions:

   CEN ATOM SHL      SPHERICAL COMPONENTS
     1   H  1s       0.88841

     2   F  1s       1.99997
     2   F  2s       1.96094
     2   F  2p       1.96503    1.19399    2.00000

     3   H  1s       0.99167

 Active orbital charges:

   CEN ATOM         s          p       ELECTRONS ->SPIN.DEN
     1   H       0.02676                 0.02676    0.02676
     2   F       0.00127    0.69376      0.69503    0.69503
     3   H       0.27821                 0.27821    0.27821

 Active orbital charges, AO contributions:

   CEN ATOM SHL      SPHERICAL COMPONENTS
     1   H  1s       0.02676

     2   F  1s       0.00000
     2   F  2s       0.00127
     2   F  2p       0.01867    0.67508    0.00000

     3   H  1s       0.27821

 Summary of localized orbital composition:   [THRPRINT= 0.020]

   ORB  GRP  ORB.ENERGY      CENTERS/CHARGES
     1   1   -21.996678      F  2   2.000
     2   1    -0.338229      F  2   1.938   H  3   0.036   H  1   0.027
     3   1    -0.336072      F  2   2.000
     4   1    -0.214615      H  1   0.835   H  3   0.678   F  2   0.487
     5   1    -0.012674      F  2   2.000
     6   2    -0.027168      F  2   0.695   H  3   0.278   H  1   0.027

 Localized orbitals saved to record      2100.2  (orbital set 2)


 **********************************************************************************************************************************
 DATASETS  * FILE   NREC   LENGTH (MB)   RECORD NAMES
              1      20       31.26       500      610      700      900      950      970     1000      129      960     1100   
                                          VAR    BASINP    GEOM    SYMINP    ZMAT    AOBASIS   BASIS     P2S    ABASIS      S 
                                         1400     1410     1200     1210     1080     1600     1650     1300     1700     1800   
                                           T        V       H0       H01     AOSYM     SMH    MOLCAS    ERIS     OPER     GRID   

              2       5        2.85       700     1000      520     1800     2100   
                                         GEOM     BASIS   MCVARS    GRID      RKS  

 PROGRAMS   *        TOTAL      IBBA        KS       INT
 CPU TIMES  *         1.50      0.02      1.04      0.29
 REAL TIME  *         3.19 SEC
 DISK USED  *        35.89 MB      
 **********************************************************************************************************************************
 Molecular orbitals read from record     2100.2  Type=RKS/LOCAL(IBO)  
 Occupation numbers read from record     2100.2  Type=RKS/LOCAL(IBO)  
 Orbital energies read from record       2100.2  Type=RKS/LOCAL(IBO)  
 Redundancy group numbers read from rec  2100.2  Type=RKS/LOCAL(IBO)  

 IBBA/TZVP energy=      0.000000000000

        KS-SCF  
    -91.03410853
 **********************************************************************************************************************************
 Molpro calculation terminated
